%!PS-Adobe-3.0 EPSF-3.0
%%Title: foo.eps
%%Creator: matplotlib version 0.99.3, http://matplotlib.sourceforge.net/
%%CreationDate: Sun Dec 15 12:12:25 2013
%%Orientation: portrait
%%BoundingBox: 18 180 594 612
%%EndComments
%%BeginProlog
/mpldict 9 dict def
mpldict begin
/m { moveto } bind def
/l { lineto } bind def
/r { rlineto } bind def
/c { curveto } bind def
/cl { closepath } bind def
/box {
m
1 index 0 r
0 exch r
neg 0 r
cl
} bind def
/clipbox {
box
clip
newpath
} bind def
%!PS-Adobe-3.0 Resource-Font
%%Title: DejaVu Sans
%%Copyright: Copyright (c) 2003 by Bitstream, Inc. All Rights Reserved. Copyright (c) 2006 by Tavmjong Bah. All Rights Reserved. DejaVu changes are in public domain 
%%Creator: Converted from TrueType by PPR
25 dict begin
/_d{bind def}bind def
/_m{moveto}_d
/_l{lineto}_d
/_cl{closepath eofill}_d
/_c{curveto}_d
/_sc{7 -1 roll{setcachedevice}{pop pop pop pop pop pop}ifelse}_d
/_e{exec}_d
/FontName /DejaVuSans def
/PaintType 0 def
/FontMatrix[.001 0 0 .001 0 0]def
/FontBBox[-1020 -414 1681 1167]def
/FontType 3 def
/Encoding StandardEncoding def
/FontInfo 10 dict dup begin
/FamilyName (DejaVu Sans) def
/FullName (DejaVu Sans) def
/Notice (Copyright (c) 2003 by Bitstream, Inc. All Rights Reserved. Copyright (c) 2006 by Tavmjong Bah. All Rights Reserved. DejaVu changes are in public domain ) def
/Weight (Book) def
/Version (Version 2.31) def
/ItalicAngle 0.0 def
/isFixedPitch false def
/UnderlinePosition -130 def
/UnderlineThickness 90 def
end readonly def
/CharStrings 26 dict dup begin
/space{318 0 0 0 0 0 _sc
}_d
/period{318 0 107 0 210 124 _sc
107 124 _m
210 124 _l
210 0 _l
107 0 _l
107 124 _l
_cl}_d
/zero{636 0 66 -13 570 742 _sc
318 664 _m
267 664 229 639 203 589 _c
177 539 165 464 165 364 _c
165 264 177 189 203 139 _c
229 89 267 64 318 64 _c
369 64 407 89 433 139 _c
458 189 471 264 471 364 _c
471 464 458 539 433 589 _c
407 639 369 664 318 664 _c
318 742 _m
399 742 461 709 505 645 _c
548 580 570 486 570 364 _c
570 241 548 147 505 83 _c
461 19 399 -13 318 -13 _c
236 -13 173 19 130 83 _c
87 147 66 241 66 364 _c
66 486 87 580 130 645 _c
173 709 236 742 318 742 _c
_cl}_d
/one{636 0 110 0 544 729 _sc
124 83 _m
285 83 _l
285 639 _l
110 604 _l
110 694 _l
284 729 _l
383 729 _l
383 83 _l
544 83 _l
544 0 _l
124 0 _l
124 83 _l
_cl}_d
/two{{636 0 73 0 536 742 _sc
192 83 _m
536 83 _l
536 0 _l
73 0 _l
73 83 _l
110 121 161 173 226 239 _c
290 304 331 346 348 365 _c
380 400 402 430 414 455 _c
426 479 433 504 433 528 _c
433 566 419 598 392 622 _c
365 646 330 659 286 659 _c
255 659 222 653 188 643 _c
154 632 117 616 78 594 _c
78 694 _l
118 710 155 722 189 730 _c
223 738 255 742 284 742 _c
359 742 419 723 464 685 _c
509 647 532 597 532 534 _c
532 504 526 475 515 449 _c
504 422 484 390 454 354 _c
446 344 420 317 376 272 _c
332 227 271 164 192 83 _c
_cl}_e}_d
/three{{636 0 76 -13 556 742 _sc
406 393 _m
453 383 490 362 516 330 _c
542 298 556 258 556 212 _c
556 140 531 84 482 45 _c
432 6 362 -13 271 -13 _c
240 -13 208 -10 176 -4 _c
144 1 110 10 76 22 _c
76 117 _l
103 101 133 89 166 81 _c
198 73 232 69 268 69 _c
330 69 377 81 409 105 _c
441 129 458 165 458 212 _c
458 254 443 288 413 312 _c
383 336 341 349 287 349 _c
202 349 _l
202 430 _l
291 430 _l
339 430 376 439 402 459 _c
428 478 441 506 441 543 _c
441 580 427 609 401 629 _c
374 649 336 659 287 659 _c
260 659 231 656 200 650 _c
169 644 135 635 98 623 _c
98 711 _l
135 721 170 729 203 734 _c
235 739 266 742 296 742 _c
}_e{370 742 429 725 473 691 _c
517 657 539 611 539 553 _c
539 513 527 479 504 451 _c
481 423 448 403 406 393 _c
_cl}_e}_d
/four{636 0 49 0 580 729 _sc
378 643 _m
129 254 _l
378 254 _l
378 643 _l
352 729 _m
476 729 _l
476 254 _l
580 254 _l
580 172 _l
476 172 _l
476 0 _l
378 0 _l
378 172 _l
49 172 _l
49 267 _l
352 729 _l
_cl}_d
/six{{636 0 70 -13 573 742 _sc
330 404 _m
286 404 251 388 225 358 _c
199 328 186 286 186 234 _c
186 181 199 139 225 109 _c
251 79 286 64 330 64 _c
374 64 409 79 435 109 _c
461 139 474 181 474 234 _c
474 286 461 328 435 358 _c
409 388 374 404 330 404 _c
526 713 _m
526 623 _l
501 635 476 644 451 650 _c
425 656 400 659 376 659 _c
310 659 260 637 226 593 _c
192 549 172 482 168 394 _c
187 422 211 444 240 459 _c
269 474 301 482 336 482 _c
409 482 467 459 509 415 _c
551 371 573 310 573 234 _c
573 159 550 99 506 54 _c
462 9 403 -13 330 -13 _c
246 -13 181 19 137 83 _c
92 147 70 241 70 364 _c
70 479 97 571 152 639 _c
206 707 280 742 372 742 _c
}_e{396 742 421 739 447 735 _c
472 730 498 723 526 713 _c
_cl}_e}_d
/eight{{636 0 68 -13 568 742 _sc
318 346 _m
271 346 234 333 207 308 _c
180 283 167 249 167 205 _c
167 161 180 126 207 101 _c
234 76 271 64 318 64 _c
364 64 401 76 428 102 _c
455 127 469 161 469 205 _c
469 249 455 283 429 308 _c
402 333 365 346 318 346 _c
219 388 _m
177 398 144 418 120 447 _c
96 476 85 511 85 553 _c
85 611 105 657 147 691 _c
188 725 245 742 318 742 _c
390 742 447 725 489 691 _c
530 657 551 611 551 553 _c
551 511 539 476 515 447 _c
491 418 459 398 417 388 _c
464 377 501 355 528 323 _c
554 291 568 251 568 205 _c
568 134 546 80 503 43 _c
459 5 398 -13 318 -13 _c
237 -13 175 5 132 43 _c
89 80 68 134 68 205 _c
68 251 81 291 108 323 _c
134 355 171 377 219 388 _c
}_e{183 544 _m
183 506 194 476 218 455 _c
242 434 275 424 318 424 _c
360 424 393 434 417 455 _c
441 476 453 506 453 544 _c
453 582 441 611 417 632 _c
393 653 360 664 318 664 _c
275 664 242 653 218 632 _c
194 611 183 582 183 544 _c
_cl}_e}_d
/C{{698 0 56 -13 644 742 _sc
644 673 _m
644 569 _l
610 599 575 622 537 638 _c
499 653 460 661 418 661 _c
334 661 270 635 226 584 _c
182 533 160 460 160 364 _c
160 268 182 194 226 143 _c
270 92 334 67 418 67 _c
460 67 499 74 537 90 _c
575 105 610 128 644 159 _c
644 56 _l
609 32 572 15 534 4 _c
496 -7 455 -13 412 -13 _c
302 -13 215 20 151 87 _c
87 154 56 246 56 364 _c
56 481 87 573 151 641 _c
215 708 302 742 412 742 _c
456 742 497 736 535 725 _c
573 713 610 696 644 673 _c
_cl}_e}_d
/D{770 0 98 0 711 729 _sc
197 648 _m
197 81 _l
316 81 _l
416 81 490 103 537 149 _c
583 195 607 267 607 365 _c
607 463 583 534 537 580 _c
490 625 416 648 316 648 _c
197 648 _l
98 729 _m
301 729 _l
442 729 546 699 612 641 _c
678 582 711 490 711 365 _c
711 239 677 147 611 88 _c
545 29 441 0 301 0 _c
98 0 _l
98 729 _l
_cl}_d
/b{{635 0 91 -13 580 760 _sc
487 273 _m
487 339 473 390 446 428 _c
418 466 381 485 334 485 _c
286 485 249 466 222 428 _c
194 390 181 339 181 273 _c
181 207 194 155 222 117 _c
249 79 286 61 334 61 _c
381 61 418 79 446 117 _c
473 155 487 207 487 273 _c
181 464 _m
199 496 223 520 252 536 _c
281 552 316 560 356 560 _c
422 560 476 533 518 481 _c
559 428 580 359 580 273 _c
580 187 559 117 518 65 _c
476 13 422 -13 356 -13 _c
316 -13 281 -5 252 10 _c
223 25 199 49 181 82 _c
181 0 _l
91 0 _l
91 760 _l
181 760 _l
181 464 _l
_cl}_e}_d
/c{{550 0 55 -13 488 560 _sc
488 526 _m
488 442 _l
462 456 437 466 411 473 _c
385 480 360 484 334 484 _c
276 484 230 465 198 428 _c
166 391 150 339 150 273 _c
150 206 166 154 198 117 _c
230 80 276 62 334 62 _c
360 62 385 65 411 72 _c
437 79 462 90 488 104 _c
488 21 _l
462 9 436 0 410 -5 _c
383 -10 354 -13 324 -13 _c
242 -13 176 12 128 64 _c
79 115 55 185 55 273 _c
55 362 79 432 128 483 _c
177 534 244 560 330 560 _c
358 560 385 557 411 551 _c
437 545 463 537 488 526 _c
_cl}_e}_d
/d{{635 0 55 -13 544 760 _sc
454 464 _m
454 760 _l
544 760 _l
544 0 _l
454 0 _l
454 82 _l
435 49 411 25 382 10 _c
353 -5 319 -13 279 -13 _c
213 -13 159 13 117 65 _c
75 117 55 187 55 273 _c
55 359 75 428 117 481 _c
159 533 213 560 279 560 _c
319 560 353 552 382 536 _c
411 520 435 496 454 464 _c
148 273 _m
148 207 161 155 188 117 _c
215 79 253 61 301 61 _c
348 61 385 79 413 117 _c
440 155 454 207 454 273 _c
454 339 440 390 413 428 _c
385 466 348 485 301 485 _c
253 485 215 466 188 428 _c
161 390 148 339 148 273 _c
_cl}_e}_d
/e{{615 0 55 -13 562 560 _sc
562 296 _m
562 252 _l
149 252 _l
153 190 171 142 205 110 _c
238 78 284 62 344 62 _c
378 62 412 66 444 74 _c
476 82 509 95 541 113 _c
541 28 _l
509 14 476 3 442 -3 _c
408 -9 373 -13 339 -13 _c
251 -13 182 12 131 62 _c
80 112 55 181 55 268 _c
55 357 79 428 127 481 _c
175 533 241 560 323 560 _c
397 560 455 536 498 489 _c
540 441 562 377 562 296 _c
472 322 _m
471 371 457 410 431 440 _c
404 469 368 484 324 484 _c
274 484 234 469 204 441 _c
174 413 156 373 152 322 _c
472 322 _l
_cl}_e}_d
/f{352 0 23 0 371 760 _sc
371 760 _m
371 685 _l
285 685 _l
253 685 230 678 218 665 _c
205 652 199 629 199 595 _c
199 547 _l
347 547 _l
347 477 _l
199 477 _l
199 0 _l
109 0 _l
109 477 _l
23 477 _l
23 547 _l
109 547 _l
109 585 _l
109 645 123 690 151 718 _c
179 746 224 760 286 760 _c
371 760 _l
_cl}_d
/g{{635 0 55 -207 544 560 _sc
454 280 _m
454 344 440 395 414 431 _c
387 467 349 485 301 485 _c
253 485 215 467 188 431 _c
161 395 148 344 148 280 _c
148 215 161 165 188 129 _c
215 93 253 75 301 75 _c
349 75 387 93 414 129 _c
440 165 454 215 454 280 _c
544 68 _m
544 -24 523 -93 482 -139 _c
440 -184 377 -207 292 -207 _c
260 -207 231 -204 203 -200 _c
175 -195 147 -188 121 -178 _c
121 -91 _l
147 -105 173 -115 199 -122 _c
225 -129 251 -133 278 -133 _c
336 -133 380 -117 410 -87 _c
439 -56 454 -10 454 52 _c
454 96 _l
435 64 411 40 382 24 _c
353 8 319 0 279 0 _c
211 0 157 25 116 76 _c
75 127 55 195 55 280 _c
55 364 75 432 116 483 _c
157 534 211 560 279 560 _c
}_e{319 560 353 552 382 536 _c
411 520 435 496 454 464 _c
454 547 _l
544 547 _l
544 68 _l
_cl}_e}_d
/h{634 0 91 0 549 760 _sc
549 330 _m
549 0 _l
459 0 _l
459 327 _l
459 379 448 417 428 443 _c
408 469 378 482 338 482 _c
289 482 251 466 223 435 _c
195 404 181 362 181 309 _c
181 0 _l
91 0 _l
91 760 _l
181 760 _l
181 462 _l
202 494 227 519 257 535 _c
286 551 320 560 358 560 _c
420 560 468 540 500 501 _c
532 462 549 405 549 330 _c
_cl}_d
/i{278 0 94 0 184 760 _sc
94 547 _m
184 547 _l
184 0 _l
94 0 _l
94 547 _l
94 760 _m
184 760 _l
184 646 _l
94 646 _l
94 760 _l
_cl}_d
/l{278 0 94 0 184 760 _sc
94 760 _m
184 760 _l
184 0 _l
94 0 _l
94 760 _l
_cl}_d
/n{634 0 91 0 549 560 _sc
549 330 _m
549 0 _l
459 0 _l
459 327 _l
459 379 448 417 428 443 _c
408 469 378 482 338 482 _c
289 482 251 466 223 435 _c
195 404 181 362 181 309 _c
181 0 _l
91 0 _l
91 547 _l
181 547 _l
181 462 _l
202 494 227 519 257 535 _c
286 551 320 560 358 560 _c
420 560 468 540 500 501 _c
532 462 549 405 549 330 _c
_cl}_d
/o{612 0 55 -13 557 560 _sc
306 484 _m
258 484 220 465 192 427 _c
164 389 150 338 150 273 _c
150 207 163 156 191 118 _c
219 80 257 62 306 62 _c
354 62 392 80 420 118 _c
448 156 462 207 462 273 _c
462 337 448 389 420 427 _c
392 465 354 484 306 484 _c
306 560 _m
384 560 445 534 490 484 _c
534 433 557 363 557 273 _c
557 183 534 113 490 63 _c
445 12 384 -13 306 -13 _c
227 -13 165 12 121 63 _c
77 113 55 183 55 273 _c
55 363 77 433 121 484 _c
165 534 227 560 306 560 _c
_cl}_d
/r{411 0 91 0 411 560 _sc
411 463 _m
401 469 390 473 378 476 _c
366 478 353 480 339 480 _c
288 480 249 463 222 430 _c
194 397 181 350 181 288 _c
181 0 _l
91 0 _l
91 547 _l
181 547 _l
181 462 _l
199 495 224 520 254 536 _c
284 552 321 560 365 560 _c
371 560 378 559 386 559 _c
393 558 401 557 411 555 _c
411 463 _l
_cl}_d
/s{{521 0 54 -13 472 560 _sc
443 531 _m
443 446 _l
417 458 391 468 364 475 _c
336 481 308 485 279 485 _c
234 485 200 478 178 464 _c
156 450 145 430 145 403 _c
145 382 153 366 169 354 _c
185 342 217 330 265 320 _c
296 313 _l
360 299 405 279 432 255 _c
458 230 472 195 472 151 _c
472 100 452 60 412 31 _c
372 1 316 -13 246 -13 _c
216 -13 186 -10 154 -5 _c
122 0 89 8 54 20 _c
54 113 _l
87 95 120 82 152 74 _c
184 65 216 61 248 61 _c
290 61 323 68 346 82 _c
368 96 380 117 380 144 _c
380 168 371 187 355 200 _c
339 213 303 226 247 238 _c
216 245 _l
160 257 119 275 95 299 _c
70 323 58 356 58 399 _c
58 450 76 490 112 518 _c
148 546 200 560 268 560 _c
}_e{301 560 332 557 362 552 _c
391 547 418 540 443 531 _c
_cl}_e}_d
/t{392 0 27 0 368 702 _sc
183 702 _m
183 547 _l
368 547 _l
368 477 _l
183 477 _l
183 180 _l
183 135 189 106 201 94 _c
213 81 238 75 276 75 _c
368 75 _l
368 0 _l
276 0 _l
206 0 158 13 132 39 _c
106 65 93 112 93 180 _c
93 477 _l
27 477 _l
27 547 _l
93 547 _l
93 702 _l
183 702 _l
_cl}_d
/u{634 0 85 -13 543 560 _sc
85 216 _m
85 547 _l
175 547 _l
175 219 _l
175 167 185 129 205 103 _c
225 77 255 64 296 64 _c
344 64 383 79 411 110 _c
439 141 453 183 453 237 _c
453 547 _l
543 547 _l
543 0 _l
453 0 _l
453 84 _l
431 50 405 26 377 10 _c
348 -5 315 -13 277 -13 _c
214 -13 166 6 134 45 _c
101 83 85 140 85 216 _c
_cl}_d
end readonly def

/BuildGlyph
 {exch begin
 CharStrings exch
 2 copy known not{pop /.notdef}if
 true 3 1 roll get exec
 end}_d

/BuildChar {
 1 index /Encoding get exch get
 1 index /BuildGlyph get exec
}_d

FontName currentdict end definefont pop
%!PS-Adobe-3.0 Resource-Font
%%Title: cmmi10
%%Copyright: Copyright (C) 1994, Basil K. Malyshev. All Rights Reserved.012BaKoMa Fonts Collection, Level-B.
%%Creator: Converted from TrueType by PPR
25 dict begin
/_d{bind def}bind def
/_m{moveto}_d
/_l{lineto}_d
/_cl{closepath eofill}_d
/_c{curveto}_d
/_sc{7 -1 roll{setcachedevice}{pop pop pop pop pop pop}ifelse}_d
/_e{exec}_d
/FontName /Cmmi10 def
/PaintType 0 def
/FontMatrix[.001 0 0 .001 0 0]def
/FontBBox[-33 -249 1048 750]def
/FontType 3 def
/Encoding StandardEncoding def
/FontInfo 10 dict dup begin
/FamilyName (cmmi10) def
/FullName (cmmi10) def
/Notice (Copyright (C) 1994, Basil K. Malyshev. All Rights Reserved.012BaKoMa Fonts Collection, Level-B. ) def
/Weight (Regular) def
/Version (1.1/12-Nov-94) def
/ItalicAngle 0.0 def
/isFixedPitch false def
/UnderlinePosition -133 def
/UnderlineThickness 20 def
end readonly def
/CharStrings 1 dict dup begin
/u{{572 0 27 -10 546 442 _sc
106 109 _m
106 131 109 153 115 176 _c
121 198 129 224 139 252 _c
149 280 159 305 167 326 _c
175 350 180 370 180 386 _c
180 406 172 416 158 416 _c
132 416 110 402 93 375 _c
75 347 63 317 55 284 _c
53 280 51 278 47 278 _c
35 278 _l
29 278 27 281 27 287 _c
27 290 _l
37 330 54 365 76 396 _c
98 426 126 442 160 442 _c
184 442 204 434 220 418 _c
236 402 245 383 245 359 _c
245 346 242 333 237 320 _c
233 312 226 294 216 267 _c
206 239 198 217 193 199 _c
187 181 183 163 179 146 _c
175 128 174 111 174 94 _c
174 72 178 53 188 38 _c
197 22 212 15 234 15 _c
}_e{276 15 314 41 346 94 _c
346 96 347 99 348 101 _c
348 103 349 106 349 109 _c
421 399 _l
423 407 428 415 436 421 _c
444 427 453 431 463 431 _c
471 431 478 428 484 423 _c
490 418 493 411 493 403 _c
493 399 492 396 492 395 _c
420 107 _l
415 87 413 70 413 58 _c
413 29 422 15 442 15 _c
463 15 479 28 490 55 _c
500 81 509 112 517 147 _c
518 151 521 153 525 153 _c
537 153 _l
539 153 541 151 543 149 _c
545 147 546 145 546 143 _c
538 114 531 89 525 69 _c
518 49 507 30 493 14 _c
479 -2 461 -10 440 -10 _c
418 -10 399 -4 383 6 _c
366 17 355 33 349 53 _c
}_e{333 33 316 18 296 7 _c
276 -4 254 -10 232 -10 _c
193 -10 162 0 140 21 _c
117 41 106 71 106 109 _c
_cl}_e}_d
end readonly def

/BuildGlyph
 {exch begin
 CharStrings exch
 2 copy known not{pop /.notdef}if
 true 3 1 roll get exec
 end}_d

/BuildChar {
 1 index /Encoding get exch get
 1 index /BuildGlyph get exec
}_d

FontName currentdict end definefont pop
end
%%EndProlog
mpldict begin
18 180 translate
576 432 0 0 clipbox
1.000 setlinewidth
1 setlinejoin
2 setlinecap
[] 0 setdash
1.000 setgray
gsave
0 0 m
576 0 l
576 432 l
0 432 l
0 0 l
gsave
fill
grestore
stroke
grestore
gsave
72 43.2 m
518.4 43.2 l
518.4 388.8 l
72 388.8 l
72 43.2 l
fill
grestore
0.500 setlinewidth
0 setlinecap
0.000 0.000 1.000 setrgbcolor
gsave
446.4 345.6 72 43.2 clipbox
/o {
gsave
newpath
translate
-3 -3 m
3 3 l
-3 3 m
3 -3 l
stroke
grestore
} bind def
176.007 77.76 o
377.498 44.2835 o
226.959 62.0509 o
187.789 110.126 o
116.793 388.8 o
176.007 181.44 o
187.789 132.069 o
237.755 63.1385 o
187.789 98.6057 o
142.996 242.465 o
161.587 155.657 o
187.789 155.988 o
142.996 203.236 o
176.007 143.589 o
142.996 377.829 o
116.793 388.8 o
116.793 388.8 o
187.789 112.32 o
197.751 108.245 o
116.793 388.8 o
161.587 198.331 o
116.793 388.8 o
242.544 86.3568 o
242.544 50.7956 o
116.793 388.8 o
176.007 198.72 o
grestore
[1 3] 0 setdash
0.000 setgray
gsave
446.4 345.6 72 43.2 clipbox
72 43.2 m
72 388.8 l
stroke
grestore
[] 0 setdash
gsave
/o {
gsave
newpath
translate
0 0 m
0 4 l
stroke
grestore
} bind def
72 43.2 o
grestore
gsave
/o {
gsave
newpath
translate
0 0 m
0 -4 l
stroke
grestore
} bind def
72 388.8 o
grestore
gsave
61.000000 24.200000 translate
0.000000 rotate
/DejaVuSans findfont
12.0 scalefont
setfont
0.000000 1.828125 moveto
/one glyphshow

7.634766 1.828125 moveto
/zero glyphshow

/DejaVuSans findfont
8.4 scalefont
setfont
15.269531 8.765625 moveto
/zero glyphshow


grestore
[1 3] 0 setdash
gsave
446.4 345.6 72 43.2 clipbox
220.8 43.2 m
220.8 388.8 l
stroke
grestore
[] 0 setdash
gsave
/o {
gsave
newpath
translate
0 0 m
0 4 l
stroke
grestore
} bind def
220.8 43.2 o
grestore
gsave
/o {
gsave
newpath
translate
0 0 m
0 -4 l
stroke
grestore
} bind def
220.8 388.8 o
grestore
gsave
209.800000 24.200000 translate
0.000000 rotate
/DejaVuSans findfont
12.0 scalefont
setfont
0.000000 1.937500 moveto
/one glyphshow

7.634766 1.937500 moveto
/zero glyphshow

/DejaVuSans findfont
8.4 scalefont
setfont
15.269531 8.875000 moveto
/one glyphshow


grestore
[1 3] 0 setdash
gsave
446.4 345.6 72 43.2 clipbox
369.6 43.2 m
369.6 388.8 l
stroke
grestore
[] 0 setdash
gsave
/o {
gsave
newpath
translate
0 0 m
0 4 l
stroke
grestore
} bind def
369.6 43.2 o
grestore
gsave
/o {
gsave
newpath
translate
0 0 m
0 -4 l
stroke
grestore
} bind def
369.6 388.8 o
grestore
gsave
358.600000 24.200000 translate
0.000000 rotate
/DejaVuSans findfont
12.0 scalefont
setfont
0.000000 1.828125 moveto
/one glyphshow

7.634766 1.828125 moveto
/zero glyphshow

/DejaVuSans findfont
8.4 scalefont
setfont
15.269531 8.765625 moveto
/two glyphshow


grestore
[1 3] 0 setdash
gsave
446.4 345.6 72 43.2 clipbox
518.4 43.2 m
518.4 388.8 l
stroke
grestore
[] 0 setdash
gsave
/o {
gsave
newpath
translate
0 0 m
0 4 l
stroke
grestore
} bind def
518.4 43.2 o
grestore
gsave
/o {
gsave
newpath
translate
0 0 m
0 -4 l
stroke
grestore
} bind def
518.4 388.8 o
grestore
gsave
507.400000 24.200000 translate
0.000000 rotate
/DejaVuSans findfont
12.0 scalefont
setfont
0.000000 1.828125 moveto
/one glyphshow

7.634766 1.828125 moveto
/zero glyphshow

/DejaVuSans findfont
8.4 scalefont
setfont
15.269531 8.765625 moveto
/three glyphshow


grestore
gsave
/o {
gsave
newpath
translate
0 0 m
0 2 l
stroke
grestore
} bind def
116.793 43.2 o
grestore
gsave
/o {
gsave
newpath
translate
0 0 m
0 -2 l
stroke
grestore
} bind def
116.793 388.8 o
grestore
gsave
/o {
gsave
newpath
translate
0 0 m
0 2 l
stroke
grestore
} bind def
142.996 43.2 o
grestore
gsave
/o {
gsave
newpath
translate
0 0 m
0 -2 l
stroke
grestore
} bind def
142.996 388.8 o
grestore
gsave
/o {
gsave
newpath
translate
0 0 m
0 2 l
stroke
grestore
} bind def
161.587 43.2 o
grestore
gsave
/o {
gsave
newpath
translate
0 0 m
0 -2 l
stroke
grestore
} bind def
161.587 388.8 o
grestore
gsave
/o {
gsave
newpath
translate
0 0 m
0 2 l
stroke
grestore
} bind def
176.007 43.2 o
grestore
gsave
/o {
gsave
newpath
translate
0 0 m
0 -2 l
stroke
grestore
} bind def
176.007 388.8 o
grestore
gsave
/o {
gsave
newpath
translate
0 0 m
0 2 l
stroke
grestore
} bind def
187.789 43.2 o
grestore
gsave
/o {
gsave
newpath
translate
0 0 m
0 -2 l
stroke
grestore
} bind def
187.789 388.8 o
grestore
gsave
/o {
gsave
newpath
translate
0 0 m
0 2 l
stroke
grestore
} bind def
197.751 43.2 o
grestore
gsave
/o {
gsave
newpath
translate
0 0 m
0 -2 l
stroke
grestore
} bind def
197.751 388.8 o
grestore
gsave
/o {
gsave
newpath
translate
0 0 m
0 2 l
stroke
grestore
} bind def
206.38 43.2 o
grestore
gsave
/o {
gsave
newpath
translate
0 0 m
0 -2 l
stroke
grestore
} bind def
206.38 388.8 o
grestore
gsave
/o {
gsave
newpath
translate
0 0 m
0 2 l
stroke
grestore
} bind def
213.991 43.2 o
grestore
gsave
/o {
gsave
newpath
translate
0 0 m
0 -2 l
stroke
grestore
} bind def
213.991 388.8 o
grestore
gsave
/o {
gsave
newpath
translate
0 0 m
0 2 l
stroke
grestore
} bind def
265.593 43.2 o
grestore
gsave
/o {
gsave
newpath
translate
0 0 m
0 -2 l
stroke
grestore
} bind def
265.593 388.8 o
grestore
gsave
/o {
gsave
newpath
translate
0 0 m
0 2 l
stroke
grestore
} bind def
291.796 43.2 o
grestore
gsave
/o {
gsave
newpath
translate
0 0 m
0 -2 l
stroke
grestore
} bind def
291.796 388.8 o
grestore
gsave
/o {
gsave
newpath
translate
0 0 m
0 2 l
stroke
grestore
} bind def
310.387 43.2 o
grestore
gsave
/o {
gsave
newpath
translate
0 0 m
0 -2 l
stroke
grestore
} bind def
310.387 388.8 o
grestore
gsave
/o {
gsave
newpath
translate
0 0 m
0 2 l
stroke
grestore
} bind def
324.807 43.2 o
grestore
gsave
/o {
gsave
newpath
translate
0 0 m
0 -2 l
stroke
grestore
} bind def
324.807 388.8 o
grestore
gsave
/o {
gsave
newpath
translate
0 0 m
0 2 l
stroke
grestore
} bind def
336.589 43.2 o
grestore
gsave
/o {
gsave
newpath
translate
0 0 m
0 -2 l
stroke
grestore
} bind def
336.589 388.8 o
grestore
gsave
/o {
gsave
newpath
translate
0 0 m
0 2 l
stroke
grestore
} bind def
346.551 43.2 o
grestore
gsave
/o {
gsave
newpath
translate
0 0 m
0 -2 l
stroke
grestore
} bind def
346.551 388.8 o
grestore
gsave
/o {
gsave
newpath
translate
0 0 m
0 2 l
stroke
grestore
} bind def
355.18 43.2 o
grestore
gsave
/o {
gsave
newpath
translate
0 0 m
0 -2 l
stroke
grestore
} bind def
355.18 388.8 o
grestore
gsave
/o {
gsave
newpath
translate
0 0 m
0 2 l
stroke
grestore
} bind def
362.791 43.2 o
grestore
gsave
/o {
gsave
newpath
translate
0 0 m
0 -2 l
stroke
grestore
} bind def
362.791 388.8 o
grestore
gsave
/o {
gsave
newpath
translate
0 0 m
0 2 l
stroke
grestore
} bind def
414.393 43.2 o
grestore
gsave
/o {
gsave
newpath
translate
0 0 m
0 -2 l
stroke
grestore
} bind def
414.393 388.8 o
grestore
gsave
/o {
gsave
newpath
translate
0 0 m
0 2 l
stroke
grestore
} bind def
440.596 43.2 o
grestore
gsave
/o {
gsave
newpath
translate
0 0 m
0 -2 l
stroke
grestore
} bind def
440.596 388.8 o
grestore
gsave
/o {
gsave
newpath
translate
0 0 m
0 2 l
stroke
grestore
} bind def
459.187 43.2 o
grestore
gsave
/o {
gsave
newpath
translate
0 0 m
0 -2 l
stroke
grestore
} bind def
459.187 388.8 o
grestore
gsave
/o {
gsave
newpath
translate
0 0 m
0 2 l
stroke
grestore
} bind def
473.607 43.2 o
grestore
gsave
/o {
gsave
newpath
translate
0 0 m
0 -2 l
stroke
grestore
} bind def
473.607 388.8 o
grestore
gsave
/o {
gsave
newpath
translate
0 0 m
0 2 l
stroke
grestore
} bind def
485.389 43.2 o
grestore
gsave
/o {
gsave
newpath
translate
0 0 m
0 -2 l
stroke
grestore
} bind def
485.389 388.8 o
grestore
gsave
/o {
gsave
newpath
translate
0 0 m
0 2 l
stroke
grestore
} bind def
495.351 43.2 o
grestore
gsave
/o {
gsave
newpath
translate
0 0 m
0 -2 l
stroke
grestore
} bind def
495.351 388.8 o
grestore
gsave
/o {
gsave
newpath
translate
0 0 m
0 2 l
stroke
grestore
} bind def
503.98 43.2 o
grestore
gsave
/o {
gsave
newpath
translate
0 0 m
0 -2 l
stroke
grestore
} bind def
503.98 388.8 o
grestore
gsave
/o {
gsave
newpath
translate
0 0 m
0 2 l
stroke
grestore
} bind def
511.591 43.2 o
grestore
gsave
/o {
gsave
newpath
translate
0 0 m
0 -2 l
stroke
grestore
} bind def
511.591 388.8 o
grestore
gsave
260.200000 6.200000 translate
0.000000 rotate
/DejaVuSans findfont
12.0 scalefont
setfont
0.000000 3.875000 moveto
/D glyphshow

9.240234 3.875000 moveto
/e glyphshow

16.623047 3.875000 moveto
/g glyphshow

24.240234 3.875000 moveto
/r glyphshow

29.173828 3.875000 moveto
/e glyphshow

36.556641 3.875000 moveto
/e glyphshow

43.939453 3.875000 moveto
/space glyphshow

47.753906 3.875000 moveto
/o glyphshow

55.095703 3.875000 moveto
/f glyphshow

59.320312 3.875000 moveto
/space glyphshow

/Cmmi10 findfont
12.0 scalefont
setfont
63.134766 3.875000 moveto
/u glyphshow


grestore
[1 3] 0 setdash
gsave
446.4 345.6 72 43.2 clipbox
72 43.2 m
518.4 43.2 l
stroke
grestore
[] 0 setdash
gsave
/o {
gsave
newpath
translate
0 0 m
4 0 l
stroke
grestore
} bind def
72 43.2 o
grestore
gsave
/o {
gsave
newpath
translate
0 0 m
-4 0 l
stroke
grestore
} bind def
518.4 43.2 o
grestore
/DejaVuSans findfont
12.000 scalefont
setfont
gsave
50.500000 38.660937 translate
0.000000 rotate
0.000000 0.171875 m /zero glyphshow
7.634766 0.171875 m /period glyphshow
11.449219 0.171875 m /zero glyphshow
grestore
[1 3] 0 setdash
gsave
446.4 345.6 72 43.2 clipbox
72 112.32 m
518.4 112.32 l
stroke
grestore
[] 0 setdash
gsave
/o {
gsave
newpath
translate
0 0 m
4 0 l
stroke
grestore
} bind def
72 112.32 o
grestore
gsave
/o {
gsave
newpath
translate
0 0 m
-4 0 l
stroke
grestore
} bind def
518.4 112.32 o
grestore
gsave
50.906250 107.780937 translate
0.000000 rotate
0.000000 0.171875 m /zero glyphshow
7.634766 0.171875 m /period glyphshow
11.449219 0.171875 m /two glyphshow
grestore
[1 3] 0 setdash
gsave
446.4 345.6 72 43.2 clipbox
72 181.44 m
518.4 181.44 l
stroke
grestore
[] 0 setdash
gsave
/o {
gsave
newpath
translate
0 0 m
4 0 l
stroke
grestore
} bind def
72 181.44 o
grestore
gsave
/o {
gsave
newpath
translate
0 0 m
-4 0 l
stroke
grestore
} bind def
518.4 181.44 o
grestore
gsave
50.375000 176.900937 translate
0.000000 rotate
0.000000 0.171875 m /zero glyphshow
7.634766 0.171875 m /period glyphshow
11.449219 0.171875 m /four glyphshow
grestore
[1 3] 0 setdash
gsave
446.4 345.6 72 43.2 clipbox
72 250.56 m
518.4 250.56 l
stroke
grestore
[] 0 setdash
gsave
/o {
gsave
newpath
translate
0 0 m
4 0 l
stroke
grestore
} bind def
72 250.56 o
grestore
gsave
/o {
gsave
newpath
translate
0 0 m
-4 0 l
stroke
grestore
} bind def
518.4 250.56 o
grestore
gsave
50.468750 246.020938 translate
0.000000 rotate
0.000000 0.171875 m /zero glyphshow
7.634766 0.171875 m /period glyphshow
11.449219 0.171875 m /six glyphshow
grestore
[1 3] 0 setdash
gsave
446.4 345.6 72 43.2 clipbox
72 319.68 m
518.4 319.68 l
stroke
grestore
[] 0 setdash
gsave
/o {
gsave
newpath
translate
0 0 m
4 0 l
stroke
grestore
} bind def
72 319.68 o
grestore
gsave
/o {
gsave
newpath
translate
0 0 m
-4 0 l
stroke
grestore
} bind def
518.4 319.68 o
grestore
gsave
50.531250 315.140938 translate
0.000000 rotate
0.000000 0.171875 m /zero glyphshow
7.634766 0.171875 m /period glyphshow
11.449219 0.171875 m /eight glyphshow
grestore
[1 3] 0 setdash
gsave
446.4 345.6 72 43.2 clipbox
72 388.8 m
518.4 388.8 l
stroke
grestore
[] 0 setdash
gsave
/o {
gsave
newpath
translate
0 0 m
4 0 l
stroke
grestore
} bind def
72 388.8 o
grestore
gsave
/o {
gsave
newpath
translate
0 0 m
-4 0 l
stroke
grestore
} bind def
518.4 388.8 o
grestore
gsave
51.015625 384.260938 translate
0.000000 rotate
0.000000 0.171875 m /one glyphshow
7.634766 0.171875 m /period glyphshow
11.449219 0.171875 m /zero glyphshow
grestore
gsave
45.375000 70.500000 translate
90.000000 rotate
/DejaVuSans findfont
12.0 scalefont
setfont
0.000000 3.875000 moveto
/C glyphshow

8.378906 3.875000 moveto
/l glyphshow

11.712891 3.875000 moveto
/u glyphshow

19.318359 3.875000 moveto
/s glyphshow

25.570312 3.875000 moveto
/t glyphshow

30.275391 3.875000 moveto
/e glyphshow

37.658203 3.875000 moveto
/r glyphshow

42.591797 3.875000 moveto
/i glyphshow

45.925781 3.875000 moveto
/n glyphshow

53.531250 3.875000 moveto
/g glyphshow

61.148438 3.875000 moveto
/space glyphshow

64.962891 3.875000 moveto
/c glyphshow

71.560547 3.875000 moveto
/o glyphshow

78.902344 3.875000 moveto
/e glyphshow

86.285156 3.875000 moveto
/f glyphshow

90.509766 3.875000 moveto
/f glyphshow

94.734375 3.875000 moveto
/i glyphshow

98.068359 3.875000 moveto
/c glyphshow

104.666016 3.875000 moveto
/i glyphshow

108.000000 3.875000 moveto
/e glyphshow

115.382812 3.875000 moveto
/n glyphshow

122.988281 3.875000 moveto
/t glyphshow

127.693359 3.875000 moveto
/space glyphshow

131.507812 3.875000 moveto
/o glyphshow

138.849609 3.875000 moveto
/f glyphshow

143.074219 3.875000 moveto
/space glyphshow

146.888672 3.875000 moveto
/n glyphshow

154.494141 3.875000 moveto
/e glyphshow

161.876953 3.875000 moveto
/i glyphshow

165.210938 3.875000 moveto
/g glyphshow

172.828125 3.875000 moveto
/h glyphshow

180.433594 3.875000 moveto
/b glyphshow

188.050781 3.875000 moveto
/o glyphshow

195.392578 3.875000 moveto
/r glyphshow

200.326172 3.875000 moveto
/h glyphshow

207.931641 3.875000 moveto
/o glyphshow

215.273438 3.875000 moveto
/o glyphshow

222.615234 3.875000 moveto
/d glyphshow

230.232422 3.875000 moveto
/space glyphshow

234.046875 3.875000 moveto
/o glyphshow

241.388672 3.875000 moveto
/f glyphshow

245.613281 3.875000 moveto
/space glyphshow

249.427734 3.875000 moveto
/n glyphshow

257.033203 3.875000 moveto
/o glyphshow

264.375000 3.875000 moveto
/d glyphshow

271.992188 3.875000 moveto
/e glyphshow

279.375000 3.875000 moveto
/space glyphshow

/Cmmi10 findfont
12.0 scalefont
setfont
283.189453 3.875000 moveto
/u glyphshow


grestore
1.000 setlinewidth
2 setlinecap
gsave
72 388.8 m
518.4 388.8 l
stroke
grestore
gsave
518.4 43.2 m
518.4 388.8 l
stroke
grestore
gsave
72 43.2 m
518.4 43.2 l
stroke
grestore
gsave
72 43.2 m
72 388.8 l
stroke
grestore

end
showpage
