%!PS-Adobe-3.0 EPSF-3.0
%%Title: foo.eps
%%Creator: matplotlib version 0.99.3, http://matplotlib.sourceforge.net/
%%CreationDate: Sun Dec 22 22:34:10 2013
%%Orientation: portrait
%%BoundingBox: 18 180 594 612
%%EndComments
%%BeginProlog
/mpldict 10 dict def
mpldict begin
/m { moveto } bind def
/l { lineto } bind def
/r { rlineto } bind def
/c { curveto } bind def
/cl { closepath } bind def
/box {
m
1 index 0 r
0 exch r
neg 0 r
cl
} bind def
/clipbox {
box
clip
newpath
} bind def
%!PS-Adobe-3.0 Resource-Font
%%Title: DejaVu Sans
%%Copyright: Copyright (c) 2003 by Bitstream, Inc. All Rights Reserved. Copyright (c) 2006 by Tavmjong Bah. All Rights Reserved. DejaVu changes are in public domain 
%%Creator: Converted from TrueType by PPR
25 dict begin
/_d{bind def}bind def
/_m{moveto}_d
/_l{lineto}_d
/_cl{closepath eofill}_d
/_c{curveto}_d
/_sc{7 -1 roll{setcachedevice}{pop pop pop pop pop pop}ifelse}_d
/_e{exec}_d
/FontName /DejaVuSans def
/PaintType 0 def
/FontMatrix[.001 0 0 .001 0 0]def
/FontBBox[-1020 -414 1681 1167]def
/FontType 3 def
/Encoding StandardEncoding def
/FontInfo 10 dict dup begin
/FamilyName (DejaVu Sans) def
/FullName (DejaVu Sans) def
/Notice (Copyright (c) 2003 by Bitstream, Inc. All Rights Reserved. Copyright (c) 2006 by Tavmjong Bah. All Rights Reserved. DejaVu changes are in public domain ) def
/Weight (Book) def
/Version (Version 2.31) def
/ItalicAngle 0.0 def
/isFixedPitch false def
/UnderlinePosition -130 def
/UnderlineThickness 90 def
end readonly def
/CharStrings 15 dict dup begin
/space{318 0 0 0 0 0 _sc
}_d
/period{318 0 107 0 210 124 _sc
107 124 _m
210 124 _l
210 0 _l
107 0 _l
107 124 _l
_cl}_d
/zero{636 0 66 -13 570 742 _sc
318 664 _m
267 664 229 639 203 589 _c
177 539 165 464 165 364 _c
165 264 177 189 203 139 _c
229 89 267 64 318 64 _c
369 64 407 89 433 139 _c
458 189 471 264 471 364 _c
471 464 458 539 433 589 _c
407 639 369 664 318 664 _c
318 742 _m
399 742 461 709 505 645 _c
548 580 570 486 570 364 _c
570 241 548 147 505 83 _c
461 19 399 -13 318 -13 _c
236 -13 173 19 130 83 _c
87 147 66 241 66 364 _c
66 486 87 580 130 645 _c
173 709 236 742 318 742 _c
_cl}_d
/one{636 0 110 0 544 729 _sc
124 83 _m
285 83 _l
285 639 _l
110 604 _l
110 694 _l
284 729 _l
383 729 _l
383 83 _l
544 83 _l
544 0 _l
124 0 _l
124 83 _l
_cl}_d
/two{{636 0 73 0 536 742 _sc
192 83 _m
536 83 _l
536 0 _l
73 0 _l
73 83 _l
110 121 161 173 226 239 _c
290 304 331 346 348 365 _c
380 400 402 430 414 455 _c
426 479 433 504 433 528 _c
433 566 419 598 392 622 _c
365 646 330 659 286 659 _c
255 659 222 653 188 643 _c
154 632 117 616 78 594 _c
78 694 _l
118 710 155 722 189 730 _c
223 738 255 742 284 742 _c
359 742 419 723 464 685 _c
509 647 532 597 532 534 _c
532 504 526 475 515 449 _c
504 422 484 390 454 354 _c
446 344 420 317 376 272 _c
332 227 271 164 192 83 _c
_cl}_e}_d
/three{{636 0 76 -13 556 742 _sc
406 393 _m
453 383 490 362 516 330 _c
542 298 556 258 556 212 _c
556 140 531 84 482 45 _c
432 6 362 -13 271 -13 _c
240 -13 208 -10 176 -4 _c
144 1 110 10 76 22 _c
76 117 _l
103 101 133 89 166 81 _c
198 73 232 69 268 69 _c
330 69 377 81 409 105 _c
441 129 458 165 458 212 _c
458 254 443 288 413 312 _c
383 336 341 349 287 349 _c
202 349 _l
202 430 _l
291 430 _l
339 430 376 439 402 459 _c
428 478 441 506 441 543 _c
441 580 427 609 401 629 _c
374 649 336 659 287 659 _c
260 659 231 656 200 650 _c
169 644 135 635 98 623 _c
98 711 _l
135 721 170 729 203 734 _c
235 739 266 742 296 742 _c
}_e{370 742 429 725 473 691 _c
517 657 539 611 539 553 _c
539 513 527 479 504 451 _c
481 423 448 403 406 393 _c
_cl}_e}_d
/four{636 0 49 0 580 729 _sc
378 643 _m
129 254 _l
378 254 _l
378 643 _l
352 729 _m
476 729 _l
476 254 _l
580 254 _l
580 172 _l
476 172 _l
476 0 _l
378 0 _l
378 172 _l
49 172 _l
49 267 _l
352 729 _l
_cl}_d
/five{{636 0 77 -13 549 729 _sc
108 729 _m
495 729 _l
495 646 _l
198 646 _l
198 467 _l
212 472 227 476 241 478 _c
255 480 270 482 284 482 _c
365 482 429 459 477 415 _c
525 370 549 310 549 234 _c
549 155 524 94 475 51 _c
426 8 357 -13 269 -13 _c
238 -13 207 -10 175 -6 _c
143 -1 111 6 77 17 _c
77 116 _l
106 100 136 88 168 80 _c
199 72 232 69 267 69 _c
323 69 368 83 401 113 _c
433 143 450 183 450 234 _c
450 284 433 324 401 354 _c
368 384 323 399 267 399 _c
241 399 214 396 188 390 _c
162 384 135 375 108 363 _c
108 729 _l
_cl}_e}_d
/six{{636 0 70 -13 573 742 _sc
330 404 _m
286 404 251 388 225 358 _c
199 328 186 286 186 234 _c
186 181 199 139 225 109 _c
251 79 286 64 330 64 _c
374 64 409 79 435 109 _c
461 139 474 181 474 234 _c
474 286 461 328 435 358 _c
409 388 374 404 330 404 _c
526 713 _m
526 623 _l
501 635 476 644 451 650 _c
425 656 400 659 376 659 _c
310 659 260 637 226 593 _c
192 549 172 482 168 394 _c
187 422 211 444 240 459 _c
269 474 301 482 336 482 _c
409 482 467 459 509 415 _c
551 371 573 310 573 234 _c
573 159 550 99 506 54 _c
462 9 403 -13 330 -13 _c
246 -13 181 19 137 83 _c
92 147 70 241 70 364 _c
70 479 97 571 152 639 _c
206 707 280 742 372 742 _c
}_e{396 742 421 739 447 735 _c
472 730 498 723 526 713 _c
_cl}_e}_d
/seven{636 0 82 0 551 729 _sc
82 729 _m
551 729 _l
551 687 _l
286 0 _l
183 0 _l
432 646 _l
82 646 _l
82 729 _l
_cl}_d
/eight{{636 0 68 -13 568 742 _sc
318 346 _m
271 346 234 333 207 308 _c
180 283 167 249 167 205 _c
167 161 180 126 207 101 _c
234 76 271 64 318 64 _c
364 64 401 76 428 102 _c
455 127 469 161 469 205 _c
469 249 455 283 429 308 _c
402 333 365 346 318 346 _c
219 388 _m
177 398 144 418 120 447 _c
96 476 85 511 85 553 _c
85 611 105 657 147 691 _c
188 725 245 742 318 742 _c
390 742 447 725 489 691 _c
530 657 551 611 551 553 _c
551 511 539 476 515 447 _c
491 418 459 398 417 388 _c
464 377 501 355 528 323 _c
554 291 568 251 568 205 _c
568 134 546 80 503 43 _c
459 5 398 -13 318 -13 _c
237 -13 175 5 132 43 _c
89 80 68 134 68 205 _c
68 251 81 291 108 323 _c
134 355 171 377 219 388 _c
}_e{183 544 _m
183 506 194 476 218 455 _c
242 434 275 424 318 424 _c
360 424 393 434 417 455 _c
441 476 453 506 453 544 _c
453 582 441 611 417 632 _c
393 653 360 664 318 664 _c
275 664 242 653 218 632 _c
194 611 183 582 183 544 _c
_cl}_e}_d
/A{684 0 8 0 676 729 _sc
342 632 _m
208 269 _l
476 269 _l
342 632 _l
286 729 _m
398 729 _l
676 0 _l
573 0 _l
507 187 _l
178 187 _l
112 0 _l
8 0 _l
286 729 _l
_cl}_d
/B{{686 0 98 0 615 729 _sc
197 348 _m
197 81 _l
355 81 _l
408 81 447 92 473 114 _c
498 136 511 169 511 215 _c
511 260 498 293 473 315 _c
447 337 408 348 355 348 _c
197 348 _l
197 648 _m
197 428 _l
343 428 _l
391 428 426 437 450 455 _c
474 473 486 500 486 538 _c
486 574 474 602 450 620 _c
426 638 391 648 343 648 _c
197 648 _l
98 729 _m
350 729 _l
425 729 483 713 524 682 _c
564 650 585 606 585 549 _c
585 504 574 468 553 442 _c
532 416 502 399 462 393 _c
510 382 548 360 575 327 _c
601 294 615 253 615 204 _c
615 138 592 88 548 53 _c
504 17 441 0 360 0 _c
98 0 _l
98 729 _l
}_e{_cl}_e}_d
/i{278 0 94 0 184 760 _sc
94 547 _m
184 547 _l
184 0 _l
94 0 _l
94 547 _l
94 760 _m
184 760 _l
184 646 _l
94 646 _l
94 760 _l
_cl}_d
/n{634 0 91 0 549 560 _sc
549 330 _m
549 0 _l
459 0 _l
459 327 _l
459 379 448 417 428 443 _c
408 469 378 482 338 482 _c
289 482 251 466 223 435 _c
195 404 181 362 181 309 _c
181 0 _l
91 0 _l
91 547 _l
181 547 _l
181 462 _l
202 494 227 519 257 535 _c
286 551 320 560 358 560 _c
420 560 468 540 500 501 _c
532 462 549 405 549 330 _c
_cl}_d
end readonly def

/BuildGlyph
 {exch begin
 CharStrings exch
 2 copy known not{pop /.notdef}if
 true 3 1 roll get exec
 end}_d

/BuildChar {
 1 index /Encoding get exch get
 1 index /BuildGlyph get exec
}_d

FontName currentdict end definefont pop
%!PS-Adobe-3.0 Resource-Font
%%Title: cmr10
%%Copyright: Copyright (C) 1994, Basil K. Malyshev. All Rights Reserved.012BaKoMa Fonts Collection, Level-B.
%%Creator: Converted from TrueType by PPR
25 dict begin
/_d{bind def}bind def
/_m{moveto}_d
/_l{lineto}_d
/_cl{closepath eofill}_d
/_c{curveto}_d
/_sc{7 -1 roll{setcachedevice}{pop pop pop pop pop pop}ifelse}_d
/_e{exec}_d
/FontName /Cmr10 def
/PaintType 0 def
/FontMatrix[.001 0 0 .001 0 0]def
/FontBBox[-43 -249 1009 750]def
/FontType 3 def
/Encoding StandardEncoding def
/FontInfo 10 dict dup begin
/FamilyName (cmr10) def
/FullName (cmr10) def
/Notice (Copyright (C) 1994, Basil K. Malyshev. All Rights Reserved.012BaKoMa Fonts Collection, Level-B. ) def
/Weight (Regular) def
/Version (1.1/12-Nov-94) def
/ItalicAngle 0.0 def
/isFixedPitch false def
/UnderlinePosition -133 def
/UnderlineThickness 20 def
end readonly def
/CharStrings 3 dict dup begin
/Delta{833 0 46 0 786 716 _sc
54 0 _m
48 0 46 2 46 8 _c
46 8 46 9 46 9 _c
46 9 47 10 47 11 _c
391 705 _l
394 712 400 716 409 716 _c
423 716 _l
432 716 438 712 441 705 _c
785 11 _l
785 10 786 9 786 9 _c
786 9 786 8 786 8 _c
786 2 783 0 778 0 _c
54 0 _l
120 80 _m
647 80 _l
384 611 _l
120 80 _l
_cl}_d
/parenright{{388 0 56 -249 291 750 _sc
65 -249 _m
59 -249 56 -246 56 -240 _c
56 -237 56 -235 58 -234 _c
172 -122 229 38 229 250 _c
229 462 172 623 60 733 _c
57 734 56 737 56 741 _c
56 743 57 745 59 747 _c
61 749 63 750 65 750 _c
74 750 _l
76 750 77 749 79 748 _c
127 710 167 664 199 610 _c
231 556 254 498 269 437 _c
283 376 291 314 291 250 _c
291 202 287 156 279 110 _c
271 64 258 20 241 -24 _c
223 -68 201 -108 175 -146 _c
148 -184 116 -217 79 -247 _c
77 -248 76 -249 74 -249 _c
65 -249 _l
_cl}_e}_d
/parenleft{{388 0 97 -249 332 750 _sc
310 -247 _m
272 -217 240 -184 214 -146 _c
187 -108 165 -67 148 -25 _c
131 17 118 62 110 109 _c
101 155 97 202 97 250 _c
97 298 101 345 110 392 _c
118 438 131 483 149 527 _c
166 570 188 611 215 649 _c
242 687 274 720 310 748 _c
310 749 311 750 315 750 _c
324 750 _l
326 750 327 749 329 747 _c
331 745 332 743 332 741 _c
332 738 331 736 330 735 _c
297 703 270 668 248 632 _c
226 596 209 557 196 516 _c
183 474 174 432 168 388 _c
162 344 159 298 159 250 _c
159 38 215 -122 329 -232 _c
331 -234 332 -236 332 -240 _c
332 -242 331 -244 329 -246 _c
327 -248 326 -249 324 -249 _c
315 -249 _l
311 -249 310 -248 310 -247 _c
_cl}_e}_d
end readonly def

/BuildGlyph
 {exch begin
 CharStrings exch
 2 copy known not{pop /.notdef}if
 true 3 1 roll get exec
 end}_d

/BuildChar {
 1 index /Encoding get exch get
 1 index /BuildGlyph get exec
}_d

FontName currentdict end definefont pop
%!PS-Adobe-3.0 Resource-Font
%%Title: cmmi10
%%Copyright: Copyright (C) 1994, Basil K. Malyshev. All Rights Reserved.012BaKoMa Fonts Collection, Level-B.
%%Creator: Converted from TrueType by PPR
25 dict begin
/_d{bind def}bind def
/_m{moveto}_d
/_l{lineto}_d
/_cl{closepath eofill}_d
/_c{curveto}_d
/_sc{7 -1 roll{setcachedevice}{pop pop pop pop pop pop}ifelse}_d
/_e{exec}_d
/FontName /Cmmi10 def
/PaintType 0 def
/FontMatrix[.001 0 0 .001 0 0]def
/FontBBox[-33 -249 1048 750]def
/FontType 3 def
/Encoding StandardEncoding def
/FontInfo 10 dict dup begin
/FamilyName (cmmi10) def
/FullName (cmmi10) def
/Notice (Copyright (C) 1994, Basil K. Malyshev. All Rights Reserved.012BaKoMa Fonts Collection, Level-B. ) def
/Weight (Regular) def
/Version (1.1/12-Nov-94) def
/ItalicAngle 0.0 def
/isFixedPitch false def
/UnderlinePosition -133 def
/UnderlineThickness 20 def
end readonly def
/CharStrings 4 dict dup begin
/delta{{444 0 40 -14 451 713 _sc
200 -14 _m
177 -14 156 -9 136 -1 _c
116 7 98 19 84 35 _c
69 51 58 70 51 90 _c
43 110 40 131 40 155 _c
40 196 49 236 69 276 _c
89 315 116 349 150 378 _c
184 406 221 426 261 436 _c
241 472 226 503 216 529 _c
206 555 201 582 201 610 _c
201 630 205 647 215 663 _c
224 679 237 691 254 700 _c
270 708 289 713 310 713 _c
330 713 369 706 428 693 _c
443 689 451 680 451 666 _c
451 654 447 644 439 635 _c
431 626 421 622 410 622 _c
402 622 394 623 388 627 _c
381 631 371 637 357 647 _c
343 657 330 664 319 669 _c
308 674 297 677 285 677 _c
271 677 259 672 248 664 _c
237 656 232 645 232 632 _c
232 610 241 586 260 559 _c
278 531 305 496 340 453 _c
379 403 399 347 399 287 _c
399 257 394 224 386 190 _c
377 155 364 122 348 91 _c
332 60 311 35 285 15 _c
259 -4 231 -14 200 -14 _c
202 12 _m
}_e{228 12 250 25 269 52 _c
287 79 301 111 311 149 _c
321 186 326 217 326 243 _c
326 293 308 349 274 411 _c
238 401 208 380 183 349 _c
157 318 138 282 125 242 _c
112 201 106 162 106 126 _c
106 94 114 67 131 45 _c
147 23 171 12 202 12 _c
_cl}_e}_d
/comma{277 0 84 -193 205 110 _sc
99 -179 _m
99 -176 100 -173 103 -171 _c
127 -147 145 -120 159 -90 _c
172 -60 179 -28 179 4 _c
179 16 _l
168 5 155 0 139 0 _c
123 0 110 5 100 16 _c
89 26 84 39 84 55 _c
84 71 89 84 100 94 _c
110 104 123 110 139 110 _c
163 110 180 99 190 77 _c
200 55 205 30 205 4 _c
205 -32 197 -67 183 -101 _c
168 -134 147 -164 120 -191 _c
117 -192 115 -193 114 -193 _c
110 -193 107 -191 104 -188 _c
100 -185 99 -182 99 -179 _c
_cl}_d
/v{{484 0 27 -10 467 443 _sc
107 113 _m
107 127 108 144 112 162 _c
116 180 119 194 123 206 _c
126 218 134 240 147 274 _c
160 307 167 324 167 326 _c
175 350 180 370 180 386 _c
180 406 172 416 158 416 _c
132 416 110 402 93 375 _c
75 347 63 317 55 284 _c
53 280 51 278 47 278 _c
35 278 _l
29 278 27 281 27 287 _c
27 290 _l
37 330 54 365 76 396 _c
98 426 126 442 160 442 _c
184 442 204 434 220 418 _c
236 402 245 383 245 359 _c
245 346 242 333 237 320 _c
223 286 213 258 206 238 _c
198 218 191 195 185 170 _c
179 144 176 121 176 100 _c
176 75 181 55 193 39 _c
204 23 222 15 247 15 _c
}_e{293 15 334 50 372 122 _c
384 145 395 172 405 203 _c
415 234 421 260 421 280 _c
421 300 417 315 411 327 _c
404 338 395 350 385 362 _c
375 374 370 383 370 391 _c
370 404 375 416 386 427 _c
396 437 408 443 422 443 _c
438 443 449 435 456 421 _c
463 406 467 389 467 371 _c
467 349 463 322 457 292 _c
451 261 442 229 431 196 _c
419 163 409 137 400 119 _c
356 33 304 -10 246 -10 _c
204 -10 170 0 145 21 _c
119 41 107 72 107 113 _c
_cl}_e}_d
/u{{572 0 27 -10 546 442 _sc
106 109 _m
106 131 109 153 115 176 _c
121 198 129 224 139 252 _c
149 280 159 305 167 326 _c
175 350 180 370 180 386 _c
180 406 172 416 158 416 _c
132 416 110 402 93 375 _c
75 347 63 317 55 284 _c
53 280 51 278 47 278 _c
35 278 _l
29 278 27 281 27 287 _c
27 290 _l
37 330 54 365 76 396 _c
98 426 126 442 160 442 _c
184 442 204 434 220 418 _c
236 402 245 383 245 359 _c
245 346 242 333 237 320 _c
233 312 226 294 216 267 _c
206 239 198 217 193 199 _c
187 181 183 163 179 146 _c
175 128 174 111 174 94 _c
174 72 178 53 188 38 _c
197 22 212 15 234 15 _c
}_e{276 15 314 41 346 94 _c
346 96 347 99 348 101 _c
348 103 349 106 349 109 _c
421 399 _l
423 407 428 415 436 421 _c
444 427 453 431 463 431 _c
471 431 478 428 484 423 _c
490 418 493 411 493 403 _c
493 399 492 396 492 395 _c
420 107 _l
415 87 413 70 413 58 _c
413 29 422 15 442 15 _c
463 15 479 28 490 55 _c
500 81 509 112 517 147 _c
518 151 521 153 525 153 _c
537 153 _l
539 153 541 151 543 149 _c
545 147 546 145 546 143 _c
538 114 531 89 525 69 _c
518 49 507 30 493 14 _c
479 -2 461 -10 440 -10 _c
418 -10 399 -4 383 6 _c
366 17 355 33 349 53 _c
}_e{333 33 316 18 296 7 _c
276 -4 254 -10 232 -10 _c
193 -10 162 0 140 21 _c
117 41 106 71 106 109 _c
_cl}_e}_d
end readonly def

/BuildGlyph
 {exch begin
 CharStrings exch
 2 copy known not{pop /.notdef}if
 true 3 1 roll get exec
 end}_d

/BuildChar {
 1 index /Encoding get exch get
 1 index /BuildGlyph get exec
}_d

FontName currentdict end definefont pop
end
%%EndProlog
mpldict begin
18 180 translate
576 432 0 0 clipbox
1.000 setlinewidth
1 setlinejoin
2 setlinecap
[] 0 setdash
1.000 setgray
gsave
0 0 m
576 0 l
576 432 l
0 432 l
0 0 l
gsave
fill
grestore
stroke
grestore
gsave
72 43.2 m
518.4 43.2 l
518.4 388.8 l
72 388.8 l
72 43.2 l
fill
grestore
0.000 0.000 1.000 setrgbcolor
gsave
446.4 345.6 72 43.2 clipbox
72 43.2076 m
205.5 43.5508 l
213.579 43.6897 l
243.102 44.5641 l
249.442 44.9245 l
261.035 45.793 l
262.414 45.8998 l
266.279 46.3287 l
280.606 48.1172 l
283.357 48.5927 l
285.012 49.0026 l
290.802 50.6059 l
291.909 50.8509 l
293.565 51.3316 l
295.215 52.0615 l
298.798 52.9155 l
299.624 53.5618 l
301.833 54.2063 l
302.107 54.2727 l
302.655 55.1861 l
305.962 55.8977 l
306.515 56.537 l
308.442 57.2742 l
309.272 58.3974 l
312.028 59.344 l
312.855 59.6112 l
313.958 60.2474 l
314.786 60.7942 l
315.333 61.8016 l
316.437 61.8811 l
316.989 62.4358 l
317.542 62.6704 l
318.366 63.2196 l
318.918 63.2932 l
319.47 63.7715 l
321.674 65.0734 l
322.5 65.6782 l
323.053 65.7103 l
324.155 67.392 l
324.704 67.731 l
325.257 68.153 l
325.808 68.2166 l
326.359 69.213 l
326.911 69.7846 l
327.463 70.4585 l
328.012 70.7015 l
328.84 71.4352 l
329.391 71.7835 l
329.941 72.2691 l
330.217 72.3237 l
331.595 74.1492 l
332.697 75.1462 l
334.352 76.4308 l
334.903 77.9338 l
335.179 77.9998 l
336.28 79.3308 l
336.556 79.4057 l
337.382 82.1191 l
338.21 82.6433 l
338.76 85.3463 l
339.587 85.9355 l
340.139 88.0489 l
340.965 88.9142 l
341.517 90.3274 l
343.998 96.9602 l
344.273 97.1008 l
345.926 102.872 l
346.752 103.68 l
347.304 105.451 l
348.131 106.56 l
348.682 108.185 l
349.233 108.893 l
349.509 108.913 l
349.784 109.48 l
350.335 110.965 l
351.162 111.636 l
351.713 113.444 l
351.989 113.662 l
352.54 114.849 l
353.092 115.103 l
353.918 117.257 l
354.469 118.149 l
354.745 118.231 l
356.398 121.5 l
356.674 121.746 l
357.225 123.468 l
357.5 123.572 l
359.154 129.6 l
359.705 132.218 l
359.981 132.512 l
360.532 134.682 l
362.185 138.145 l
362.461 138.365 l
363.288 141.276 l
364.942 145.42 l
365.492 147.79 l
365.768 147.79 l
366.595 150.919 l
367.422 156.942 l
367.973 195.498 l
368.524 199.277 l
370.178 202.286 l
371.004 204.852 l
371.28 205.2 l
372.382 210.763 l
372.933 216 l
373.76 216 l
374.311 220.937 l
374.862 221.237 l
375.414 225.6 l
375.689 225.6 l
376.24 230.011 l
376.516 230.011 l
377.342 238.154 l
377.894 238.154 l
378.445 241.92 l
378.996 244.13 l
379.272 244.13 l
379.823 245.502 l
380.099 245.502 l
380.925 248.914 l
381.201 248.914 l
382.579 256.442 l
382.854 256.442 l
383.681 261.845 l
383.957 261.845 l
384.783 266.824 l
385.059 266.824 l
385.886 271.426 l
386.161 271.426 l
386.713 273.6 l
387.263 366.503 l
387.539 366.503 l
387.815 367.2 l
388.366 372.343 l
388.917 373.091 l
389.468 373.091 l
390.019 373.774 l
390.846 373.774 l
391.397 374.4 l
391.948 374.4 l
392.5 374.976 l
393.051 374.976 l
393.602 375.508 l
393.878 375.508 l
394.429 376 l
394.98 376 l
395.531 376.457 l
396.082 376.457 l
396.633 376.883 l
396.909 376.883 l
397.46 377.28 l
397.736 377.28 l
398.011 377.652 l
398.562 388.8 l
480.134 388.8 l
480.134 388.8 l
stroke
grestore
0.500 setlinewidth
0 setlinecap
0.000 setgray
gsave
446.4 345.6 72 43.2 clipbox
/o {
gsave
newpath
translate
0 -3 m
0.795609 -3 1.55874 -2.6839 2.12132 -2.12132 c
2.6839 -1.55874 3 -0.795609 3 0 c
3 0.795609 2.6839 1.55874 2.12132 2.12132 c
1.55874 2.6839 0.795609 3 0 3 c
-0.795609 3 -1.55874 2.6839 -2.12132 2.12132 c
-2.6839 1.55874 -3 0.795609 -3 0 c
-3 -0.795609 -2.6839 -1.55874 -2.12132 -2.12132 c
-1.55874 -2.6839 -0.795609 -3 0 -3 c
cl
gsave
0.000 0.000 1.000 setrgbcolor
fill
grestore
stroke
grestore
} bind def
72 43.2076 o
91.1971 43.2107 o
102.427 43.2118 o
110.394 43.2173 o
116.574 43.218 o
121.624 43.22 o
125.893 43.2207 o
129.591 43.2225 o
132.853 43.2325 o
135.771 43.2332 o
138.411 43.238 o
140.821 43.2394 o
143.038 43.246 o
145.09 43.2473 o
147.001 43.2518 o
148.788 43.256 o
150.467 43.2567 o
152.051 43.2577 o
153.548 43.2594 o
154.969 43.2657 o
156.32 43.2684 o
157.608 43.2708 o
158.839 43.2712 o
160.018 43.2722 o
161.149 43.274 o
162.235 43.2843 o
163.28 43.2854 o
164.287 43.2854 o
165.259 43.2878 o
166.198 43.2961 o
167.106 43.3009 o
167.986 43.3064 o
168.838 43.3075 o
169.665 43.3085 o
170.467 43.3106 o
171.248 43.3137 o
172.006 43.3144 o
172.745 43.3165 o
173.464 43.3175 o
174.166 43.3182 o
174.85 43.323 o
175.517 43.3248 o
176.169 43.3255 o
176.805 43.3261 o
177.428 43.3272 o
178.036 43.3286 o
178.632 43.3327 o
179.215 43.3337 o
179.786 43.3379 o
180.346 43.3403 o
180.894 43.3514 o
181.432 43.3569 o
181.96 43.3652 o
182.477 43.3662 o
182.985 43.368 o
183.484 43.3693 o
183.975 43.3697 o
184.456 43.3697 o
184.93 43.3704 o
185.395 43.3731 o
185.853 43.3801 o
186.303 43.3814 o
186.747 43.3859 o
187.183 43.3859 o
187.612 43.3911 o
188.035 43.3928 o
188.451 43.398 o
188.862 43.3991 o
189.266 43.4008 o
189.665 43.4039 o
190.057 43.4094 o
190.445 43.4139 o
190.827 43.4167 o
191.204 43.4198 o
191.575 43.4205 o
191.942 43.4219 o
192.304 43.4222 o
192.662 43.4271 o
193.014 43.4271 o
193.363 43.4343 o
193.707 43.4381 o
194.047 43.4457 o
194.382 43.4474 o
194.714 43.4502 o
195.042 43.4509 o
195.366 43.4516 o
195.686 43.4523 o
196.002 43.4533 o
196.315 43.4568 o
196.625 43.4595 o
196.931 43.4616 o
197.234 43.4627 o
197.533 43.4644 o
197.829 43.4658 o
198.122 43.4689 o
198.412 43.4758 o
198.699 43.4803 o
198.983 43.4855 o
199.265 43.4858 o
199.543 43.4906 o
199.818 43.491 o
200.091 43.4924 o
200.362 43.4927 o
200.629 43.4976 o
200.894 43.5003 o
201.157 43.5048 o
201.417 43.5065 o
201.674 43.51 o
201.93 43.5107 o
202.183 43.5128 o
202.433 43.5169 o
202.682 43.5204 o
203.172 43.5231 o
203.414 43.5249 o
203.653 43.5273 o
203.891 43.5273 o
204.127 43.5307 o
204.361 43.537 o
204.822 43.5411 o
205.05 43.5425 o
205.276 43.5432 o
205.5 43.5508 o
205.723 43.5636 o
206.163 43.5694 o
206.38 43.5809 o
206.595 43.5898 o
207.021 43.5905 o
207.232 43.6006 o
207.441 43.6023 o
207.854 43.603 o
208.059 43.6061 o
208.262 43.6078 o
208.663 43.612 o
208.862 43.6126 o
209.059 43.6126 o
209.449 43.613 o
209.642 43.614 o
210.024 43.6279 o
210.213 43.6289 o
210.587 43.6296 o
210.772 43.6417 o
211.139 43.6441 o
211.321 43.6514 o
211.681 43.6548 o
211.859 43.6569 o
212.212 43.6576 o
212.386 43.6603 o
212.732 43.6628 o
213.074 43.6766 o
213.244 43.6845 o
213.579 43.6897 o
213.911 43.6959 o
214.076 43.6984 o
214.401 43.7049 o
214.723 43.7118 o
214.883 43.7177 o
215.2 43.7191 o
215.512 43.7219 o
215.822 43.7281 o
216.128 43.7315 o
216.28 43.734 o
216.581 43.734 o
216.879 43.7402 o
217.173 43.7443 o
217.465 43.7447 o
217.753 43.7537 o
218.039 43.7561 o
218.321 43.763 o
218.601 43.7685 o
218.878 43.7692 o
219.152 43.7737 o
219.424 43.7744 o
219.693 43.7747 o
219.959 43.7772 o
220.223 43.7858 o
220.484 43.7875 o
220.743 43.7899 o
220.999 43.7913 o
221.253 43.7951 o
221.63 43.8003 o
221.879 43.8148 o
222.125 43.8183 o
222.369 43.8207 o
222.731 43.8221 o
222.97 43.8252 o
223.206 43.8255 o
223.558 43.8324 o
223.789 43.8362 o
224.019 43.8459 o
224.361 43.8812 o
224.586 43.8877 o
224.92 43.8881 o
225.141 43.8933 o
225.469 43.9061 o
225.685 43.9102 o
226.006 43.9168 o
226.324 43.9292 o
226.534 43.9406 o
226.846 43.9406 o
227.052 43.96 o
227.358 43.9614 o
227.66 43.9679 o
227.96 43.9686 o
228.158 43.9728 o
228.452 43.9752 o
228.743 43.9845 o
229.031 43.9949 o
229.316 43.9973 o
229.598 44.0111 o
229.877 44.0305 o
230.154 44.045 o
230.427 44.046 o
230.698 44.0491 o
230.967 44.0858 o
231.233 44.091 o
231.496 44.0989 o
231.757 44.1155 o
232.101 44.1234 o
232.356 44.1373 o
232.609 44.1469 o
232.86 44.1635 o
233.191 44.1881 o
233.436 44.1884 o
233.76 44.2078 o
234 44.2116 o
234.239 44.215 o
234.554 44.2188 o
234.865 44.2233 o
235.096 44.2275 o
235.401 44.2371 o
235.628 44.2416 o
235.927 44.2765 o
236.223 44.2921 o
236.516 44.2942 o
236.734 44.2952 o
237.022 44.3038 o
237.307 44.3235 o
237.589 44.3267 o
237.868 44.3343 o
238.144 44.337 o
238.418 44.3419 o
238.688 44.3429 o
238.957 44.374 o
239.222 44.4017 o
239.551 44.403 o
239.811 44.4086 o
240.069 44.429 o
240.324 44.4383 o
240.64 44.4424 o
240.89 44.4459 o
241.199 44.4625 o
241.444 44.4697 o
241.748 44.4804 o
241.988 44.5319 o
242.285 44.5395 o
242.58 44.5427 o
242.813 44.5516 o
243.102 44.5641 o
243.388 44.5952 o
243.67 44.6 o
243.95 44.6062 o
244.228 44.6138 o
244.502 44.6263 o
244.774 44.647 o
245.043 44.6488 o
245.31 44.6564 o
245.574 44.665 o
245.887 44.6747 o
246.146 44.6916 o
246.402 44.7061 o
246.706 44.7065 o
246.958 44.7127 o
247.256 44.722 o
247.502 44.7314 o
247.795 44.7946 o
248.084 44.8133 o
248.371 44.8599 o
248.607 44.9093 o
248.888 44.9124 o
249.167 44.9232 o
249.442 44.9245 o
249.715 44.9387 o
249.985 44.9563 o
250.297 44.974 o
250.562 44.9843 o
250.824 45.0241 o
251.127 45.0469 o
251.384 45.0486 o
251.638 45.0569 o
251.932 45.0773 o
252.223 45.0804 o
252.47 45.1005 o
252.755 45.1011 o
253.037 45.1495 o
253.317 45.1768 o
253.594 45.1851 o
253.868 45.1855 o
254.139 45.2256 o
254.408 45.2397 o
254.674 45.248 o
254.975 45.2847 o
255.236 45.2905 o
255.531 45.2919 o
255.786 45.2947 o
256.076 45.2964 o
256.362 45.3358 o
256.61 45.3507 o
256.891 45.3552 o
257.169 45.435 o
257.444 45.4889 o
257.717 45.4969 o
257.986 45.5083 o
258.287 45.5224 o
258.551 45.5456 o
258.813 45.6368 o
259.105 45.6607 o
259.394 45.6645 o
259.648 45.6693 o
259.931 45.6849 o
260.211 45.6869 o
260.488 45.7467 o
260.763 45.7747 o
261.035 45.793 o
261.304 45.8753 o
261.571 45.8874 o
261.865 45.8874 o
262.126 45.8991 o
262.414 45.8998 o
262.698 45.9078 o
262.952 45.9268 o
263.231 46.0294 o
263.507 46.0336 o
263.781 46.0591 o
264.079 46.1017 o
264.347 46.1065 o
264.613 46.1943 o
264.902 46.2136 o
265.162 46.2651 o
265.446 46.2658 o
265.726 46.2897 o
266.004 46.3194 o
266.279 46.3287 o
266.552 46.3688 o
266.821 46.4058 o
267.089 46.4552 o
267.377 46.4618 o
267.639 46.4676 o
267.922 46.5088 o
268.202 46.6014 o
268.479 46.628 o
268.753 46.6726 o
269.025 46.6785 o
269.294 46.7047 o
269.583 46.7068 o
269.847 46.7182 o
270.13 46.7224 o
270.41 46.7331 o
270.687 46.7956 o
270.961 46.8298 o
271.233 46.9031 o
271.502 46.9397 o
271.789 46.9885 o
272.053 47.0071 o
272.335 47.04 o
272.613 47.0769 o
272.889 47.0977 o
273.162 47.1875 o
273.433 47.2007 o
273.719 47.2287 o
273.984 47.2311 o
274.266 47.266 o
274.544 47.2708 o
274.819 47.3057 o
275.092 47.3109 o
275.363 47.359 o
275.648 47.4018 o
275.913 47.4391 o
276.192 47.4816 o
276.469 47.5974 o
276.744 47.6168 o
277.015 47.6223 o
277.301 47.661 o
277.567 47.6921 o
277.847 47.81 o
278.124 47.8221 o
278.399 47.8597 o
278.67 47.8822 o
278.955 47.9033 o
279.222 47.9361 o
279.501 48.0484 o
279.777 48.0488 o
280.051 48.0968 o
280.337 48.0982 o
280.606 48.1172 o
280.886 48.1324 o
281.164 48.1946 o
281.438 48.3422 o
281.711 48.3626 o
281.98 48.3729 o
282.261 48.3805 o
282.539 48.4324 o
282.814 48.5077 o
283.087 48.5229 o
283.357 48.5927 o
283.638 48.7147 o
283.915 48.7486 o
284.19 48.8654 o
284.463 48.9045 o
284.745 48.9228 o
285.012 49.0026 o
285.289 49.0655 o
285.563 49.1346 o
285.847 49.333 o
286.116 49.3593 o
286.394 49.389 o
286.67 49.4512 o
286.942 49.4609 o
287.224 49.5331 o
287.503 49.5846 o
287.768 49.5846 o
288.053 49.5957 o
288.323 49.6731 o
288.603 49.8718 o
288.879 49.8915 o
289.153 49.9299 o
289.424 50.0512 o
289.703 50.1428 o
289.979 50.2102 o
290.253 50.468 o
290.534 50.5924 o
290.802 50.6059 o
291.078 50.7607 o
291.361 50.7624 o
291.632 50.789 o
291.909 50.8509 o
292.184 50.8913 o
292.456 50.9954 o
292.735 51.0441 o
293.011 51.2587 o
293.285 51.3213 o
293.565 51.3316 o
293.833 51.4968 o
294.117 51.6751 o
294.389 51.8455 o
294.667 51.8891 o
294.942 51.9979 o
295.215 52.0615 o
295.494 52.1071 o
295.77 52.1241 o
296.043 52.1856 o
296.322 52.4604 o
296.59 52.5827 o
296.871 52.6684 o
297.142 52.7081 o
297.418 52.741 o
297.7 52.7469 o
297.971 52.7859 o
298.247 52.8609 o
298.52 52.8716 o
298.798 52.9155 o
299.074 53.3088 o
299.346 53.501 o
299.624 53.5618 o
299.899 53.6026 o
300.178 53.6409 o
300.455 53.6841 o
300.729 53.7436 o
301 53.7909 o
301.276 53.944 o
301.556 54.1569 o
301.833 54.2063 o
302.107 54.2727 o
302.379 55.0748 o
302.655 55.1861 o
302.934 55.2393 o
303.211 55.2417 o
303.485 55.296 o
303.757 55.3098 o
304.038 55.353 o
304.31 55.558 o
304.586 55.5673 o
304.86 55.6316 o
305.136 55.7052 o
305.416 55.7553 o
305.687 55.8068 o
305.962 55.8977 o
306.24 56.4531 o
306.515 56.537 o
306.793 56.6514 o
307.068 56.7721 o
307.34 56.8063 o
307.616 56.9355 o
307.894 57.0724 o
308.17 57.2231 o
308.442 57.2742 o
308.718 57.8617 o
308.996 58.2028 o
309.272 58.3974 o
309.549 58.527 o
309.824 58.5979 o
310.097 58.6504 o
310.377 58.6926 o
310.649 58.9773 o
310.923 59.0582 o
311.2 59.0693 o
311.479 59.2745 o
311.755 59.2942 o
312.028 59.344 o
312.303 59.3686 o
312.58 59.5327 o
312.855 59.6112 o
313.131 59.8555 o
313.405 59.9768 o
313.68 60.0269 o
313.958 60.2474 o
314.232 60.3618 o
314.508 60.5823 o
314.786 60.7942 o
315.061 61.7287 o
315.333 61.8016 o
315.611 61.8036 o
315.887 61.8206 o
316.163 61.8424 o
316.437 61.8811 o
316.712 62.4002 o
316.989 62.4358 o
317.263 62.4561 o
317.542 62.6704 o
317.814 63.0295 o
318.091 63.1384 o
318.366 63.2196 o
318.641 63.2486 o
318.918 63.2932 o
319.192 63.7622 o
319.47 63.7715 o
319.746 63.89 o
320.019 63.9519 o
320.297 64.1454 o
320.571 64.359 o
320.847 64.5332 o
321.123 64.5698 o
321.4 64.6424 o
321.674 65.0734 o
321.949 65.3944 o
322.224 65.5624 o
322.5 65.6782 o
322.776 65.6999 o
323.053 65.7103 o
323.327 66.2401 o
323.602 67.0346 o
323.88 67.1805 o
324.155 67.392 o
324.431 67.4525 o
324.704 67.731 o
324.98 68.1402 o
325.257 68.153 o
325.534 68.1672 o
325.808 68.2166 o
326.085 69.1701 o
326.359 69.213 o
326.633 69.4338 o
326.911 69.7846 o
327.185 70.3652 o
327.463 70.4585 o
327.737 70.5356 o
328.012 70.7015 o
328.289 71.0709 o
328.563 71.3871 o
328.84 71.4352 o
329.114 71.5568 o
329.391 71.7835 o
329.667 72.2304 o
329.941 72.2691 o
330.217 72.3237 o
330.493 72.8228 o
330.768 73.122 o
331.043 74.041 o
331.32 74.1333 o
331.595 74.1492 o
331.871 74.5165 o
332.147 74.7284 o
332.422 74.7778 o
332.697 75.1462 o
332.974 75.4168 o
333.248 75.8319 o
333.524 75.8398 o
333.799 75.9843 o
334.076 76.3572 o
334.352 76.4308 o
334.628 77.6411 o
334.903 77.9338 o
335.179 77.9998 o
335.453 78.4377 o
335.73 79.244 o
336.004 79.2793 o
336.28 79.3308 o
336.556 79.4057 o
336.832 80.7069 o
337.108 81.027 o
337.382 82.1191 o
337.658 82.3247 o
337.934 82.3565 o
338.21 82.6433 o
338.485 84.8572 o
338.76 85.3463 o
339.037 85.7071 o
339.313 85.7354 o
339.587 85.9355 o
339.863 87.5889 o
340.139 88.0489 o
340.414 88.2783 o
340.69 88.8742 o
340.965 88.9142 o
341.241 90.3274 o
341.517 90.3274 o
341.792 91.1541 o
342.067 92.0544 o
342.343 93.339 o
342.619 93.9752 o
342.895 94.7822 o
343.17 95.6572 o
343.446 96.5648 o
343.721 96.7438 o
343.998 96.9602 o
344.273 97.1008 o
344.549 98.2513 o
344.824 99.2 o
345.099 100.8 o
345.375 100.8 o
345.65 101.776 o
345.926 102.872 o
346.201 103.151 o
346.477 103.304 o
346.752 103.68 o
347.029 104.914 o
347.304 105.451 o
347.58 105.765 o
347.855 106.036 o
348.131 106.56 o
348.407 108 o
348.682 108.185 o
348.958 108.864 o
349.233 108.893 o
349.509 108.913 o
349.784 109.48 o
350.06 110.87 o
350.335 110.965 o
350.611 111.187 o
350.887 111.467 o
351.162 111.636 o
351.438 113.254 o
351.713 113.444 o
351.989 113.662 o
352.265 114.704 o
352.54 114.849 o
352.815 115.085 o
353.092 115.103 o
353.366 116.308 o
353.643 116.44 o
353.918 117.257 o
354.194 118.149 o
354.469 118.149 o
354.745 118.231 o
355.02 118.903 o
355.296 119.395 o
355.572 120.718 o
355.847 121.371 o
356.123 121.449 o
356.398 121.5 o
356.674 121.746 o
356.949 123.2 o
357.225 123.468 o
357.5 123.572 o
357.776 124.518 o
358.052 124.647 o
358.327 126.319 o
358.603 126.621 o
358.879 128.271 o
359.154 129.6 o
359.429 132.218 o
359.705 132.218 o
359.981 132.512 o
360.257 134.682 o
360.532 134.682 o
360.807 135.36 o
361.083 135.36 o
361.359 136.048 o
361.634 137.885 o
361.91 137.885 o
362.185 138.145 o
362.461 138.365 o
362.737 139.819 o
363.012 140.87 o
363.288 141.276 o
363.564 141.943 o
363.839 141.943 o
364.115 142.468 o
364.39 144.576 o
364.666 145.061 o
364.942 145.42 o
365.217 147.6 o
365.492 147.79 o
365.768 147.79 o
366.044 148.8 o
366.319 150.086 o
366.595 150.919 o
366.871 153.969 o
367.146 156.942 o
367.422 156.942 o
367.697 195.498 o
367.973 195.498 o
368.248 198.72 o
368.524 199.277 o
368.8 199.8 o
369.075 200.291 o
369.351 200.291 o
369.626 201.836 o
369.902 201.836 o
370.178 202.286 o
370.453 203.657 o
370.728 203.657 o
371.004 204.852 o
371.28 205.2 o
371.555 206.905 o
371.831 210.042 o
372.107 210.042 o
372.382 210.763 o
372.658 216 o
372.933 216 o
373.209 216 o
373.485 216 o
373.76 216 o
374.036 220.937 o
374.311 220.937 o
374.587 221.237 o
374.862 221.237 o
375.138 225.6 o
375.414 225.6 o
375.689 225.6 o
375.965 230.011 o
376.24 230.011 o
376.516 230.011 o
376.792 234.19 o
377.067 234.19 o
377.342 238.154 o
377.618 238.154 o
377.894 238.154 o
378.169 241.92 o
378.445 241.92 o
378.721 244.13 o
378.996 244.13 o
379.272 244.13 o
379.547 245.502 o
379.823 245.502 o
380.099 245.502 o
380.374 247.418 o
380.65 247.418 o
380.925 248.914 o
381.201 248.914 o
381.476 250.56 o
381.752 250.56 o
382.027 253.565 o
382.303 253.565 o
382.579 256.442 o
382.854 256.442 o
383.13 259.2 o
383.405 259.2 o
383.681 261.845 o
383.957 261.845 o
384.232 264.384 o
384.508 264.384 o
384.783 266.824 o
385.059 266.824 o
385.335 269.169 o
385.61 269.169 o
385.886 271.426 o
386.161 271.426 o
386.437 273.6 o
386.713 273.6 o
386.988 366.503 o
387.263 366.503 o
387.539 366.503 o
387.815 367.2 o
388.09 372.343 o
388.366 372.343 o
388.642 373.091 o
388.917 373.091 o
389.193 373.091 o
389.468 373.091 o
389.744 373.774 o
390.019 373.774 o
390.295 373.774 o
390.571 373.774 o
390.846 373.774 o
391.122 374.4 o
391.397 374.4 o
391.673 374.4 o
391.948 374.4 o
392.224 374.976 o
392.5 374.976 o
392.775 374.976 o
393.051 374.976 o
393.326 375.508 o
393.602 375.508 o
393.878 375.508 o
394.153 376 o
394.429 376 o
394.704 376 o
394.98 376 o
395.255 376.457 o
395.531 376.457 o
395.807 376.457 o
396.082 376.457 o
396.358 376.883 o
396.633 376.883 o
396.909 376.883 o
397.184 377.28 o
397.46 377.28 o
397.736 377.28 o
398.011 377.652 o
398.287 388.8 o
398.562 388.8 o
398.838 388.8 o
399.113 388.8 o
399.389 388.8 o
399.665 388.8 o
399.94 388.8 o
400.216 388.8 o
400.491 388.8 o
400.767 388.8 o
401.043 388.8 o
401.318 388.8 o
401.594 388.8 o
401.869 388.8 o
402.145 388.8 o
402.421 388.8 o
402.696 388.8 o
402.972 388.8 o
403.247 388.8 o
403.523 388.8 o
403.798 388.8 o
404.074 388.8 o
404.35 388.8 o
404.625 388.8 o
404.901 388.8 o
405.176 388.8 o
405.452 388.8 o
405.727 388.8 o
406.003 388.8 o
406.279 388.8 o
406.554 388.8 o
406.83 388.8 o
407.105 388.8 o
407.381 388.8 o
407.657 388.8 o
407.932 388.8 o
408.208 388.8 o
408.483 388.8 o
408.759 388.8 o
409.035 388.8 o
409.31 388.8 o
409.586 388.8 o
409.861 388.8 o
410.137 388.8 o
410.412 388.8 o
410.688 388.8 o
410.964 388.8 o
411.239 388.8 o
411.515 388.8 o
411.79 388.8 o
412.066 388.8 o
412.341 388.8 o
412.617 388.8 o
412.893 388.8 o
413.168 388.8 o
413.444 388.8 o
413.719 388.8 o
413.995 388.8 o
414.271 388.8 o
414.546 388.8 o
414.822 388.8 o
415.097 388.8 o
415.373 388.8 o
415.648 388.8 o
415.924 388.8 o
416.2 388.8 o
416.475 388.8 o
416.751 388.8 o
417.026 388.8 o
417.302 388.8 o
417.577 388.8 o
417.853 388.8 o
418.129 388.8 o
418.404 388.8 o
418.68 388.8 o
418.955 388.8 o
419.231 388.8 o
419.507 388.8 o
419.782 388.8 o
420.058 388.8 o
420.333 388.8 o
420.609 388.8 o
420.884 388.8 o
421.16 388.8 o
421.436 388.8 o
421.711 388.8 o
421.987 388.8 o
422.262 388.8 o
422.538 388.8 o
422.814 388.8 o
423.089 388.8 o
423.365 388.8 o
423.64 388.8 o
423.916 388.8 o
424.191 388.8 o
424.467 388.8 o
424.743 388.8 o
425.018 388.8 o
425.294 388.8 o
425.569 388.8 o
425.845 388.8 o
426.121 388.8 o
426.396 388.8 o
426.672 388.8 o
426.947 388.8 o
427.223 388.8 o
427.498 388.8 o
427.774 388.8 o
428.05 388.8 o
428.325 388.8 o
428.601 388.8 o
428.876 388.8 o
429.152 388.8 o
429.427 388.8 o
429.703 388.8 o
429.979 388.8 o
430.254 388.8 o
430.53 388.8 o
430.805 388.8 o
431.081 388.8 o
431.357 388.8 o
431.632 388.8 o
431.908 388.8 o
432.183 388.8 o
432.459 388.8 o
432.734 388.8 o
433.01 388.8 o
433.286 388.8 o
433.561 388.8 o
433.837 388.8 o
434.112 388.8 o
434.388 388.8 o
434.663 388.8 o
434.939 388.8 o
435.215 388.8 o
435.49 388.8 o
435.766 388.8 o
436.041 388.8 o
436.317 388.8 o
436.593 388.8 o
436.868 388.8 o
437.144 388.8 o
437.419 388.8 o
437.695 388.8 o
437.97 388.8 o
438.246 388.8 o
438.522 388.8 o
438.797 388.8 o
439.073 388.8 o
439.348 388.8 o
439.624 388.8 o
439.9 388.8 o
440.175 388.8 o
440.451 388.8 o
440.726 388.8 o
441.002 388.8 o
441.277 388.8 o
441.553 388.8 o
441.829 388.8 o
442.104 388.8 o
442.38 388.8 o
442.655 388.8 o
442.931 388.8 o
443.206 388.8 o
443.482 388.8 o
443.758 388.8 o
444.033 388.8 o
444.309 388.8 o
444.584 388.8 o
444.86 388.8 o
445.136 388.8 o
445.411 388.8 o
445.687 388.8 o
445.962 388.8 o
446.238 388.8 o
446.513 388.8 o
446.789 388.8 o
447.065 388.8 o
447.34 388.8 o
447.616 388.8 o
447.891 388.8 o
448.167 388.8 o
448.442 388.8 o
448.718 388.8 o
448.994 388.8 o
449.269 388.8 o
449.545 388.8 o
449.82 388.8 o
450.096 388.8 o
450.372 388.8 o
450.647 388.8 o
450.923 388.8 o
451.198 388.8 o
451.474 388.8 o
451.749 388.8 o
452.025 388.8 o
452.301 388.8 o
452.576 388.8 o
452.852 388.8 o
453.127 388.8 o
453.403 388.8 o
453.679 388.8 o
453.954 388.8 o
454.23 388.8 o
454.505 388.8 o
454.781 388.8 o
455.056 388.8 o
455.332 388.8 o
455.608 388.8 o
455.883 388.8 o
456.159 388.8 o
456.434 388.8 o
456.71 388.8 o
456.985 388.8 o
457.261 388.8 o
457.537 388.8 o
457.812 388.8 o
458.088 388.8 o
458.363 388.8 o
458.639 388.8 o
458.915 388.8 o
459.19 388.8 o
459.466 388.8 o
459.741 388.8 o
460.017 388.8 o
460.292 388.8 o
460.568 388.8 o
460.844 388.8 o
461.119 388.8 o
461.395 388.8 o
461.67 388.8 o
461.946 388.8 o
462.222 388.8 o
462.497 388.8 o
462.773 388.8 o
463.048 388.8 o
463.324 388.8 o
463.599 388.8 o
463.875 388.8 o
464.151 388.8 o
464.426 388.8 o
464.702 388.8 o
464.977 388.8 o
465.253 388.8 o
465.528 388.8 o
465.804 388.8 o
466.08 388.8 o
466.355 388.8 o
466.631 388.8 o
466.906 388.8 o
467.182 388.8 o
467.458 388.8 o
467.733 388.8 o
468.009 388.8 o
468.284 388.8 o
468.56 388.8 o
468.835 388.8 o
469.111 388.8 o
469.387 388.8 o
469.662 388.8 o
469.938 388.8 o
470.213 388.8 o
470.489 388.8 o
470.765 388.8 o
471.04 388.8 o
471.316 388.8 o
471.591 388.8 o
471.867 388.8 o
472.142 388.8 o
472.418 388.8 o
472.694 388.8 o
472.969 388.8 o
473.245 388.8 o
473.52 388.8 o
473.796 388.8 o
474.071 388.8 o
474.347 388.8 o
474.623 388.8 o
474.898 388.8 o
475.174 388.8 o
475.449 388.8 o
475.725 388.8 o
476.001 388.8 o
476.276 388.8 o
476.552 388.8 o
476.827 388.8 o
477.103 388.8 o
477.378 388.8 o
477.654 388.8 o
477.93 388.8 o
478.205 388.8 o
478.481 388.8 o
478.756 388.8 o
479.032 388.8 o
479.308 388.8 o
479.583 388.8 o
479.859 388.8 o
480.134 388.8 o
grestore
gsave
/o {
gsave
newpath
translate
0 0 m
0 4 l
stroke
grestore
} bind def
72 43.2 o
grestore
gsave
/o {
gsave
newpath
translate
0 0 m
0 -4 l
stroke
grestore
} bind def
72 388.8 o
grestore
gsave
61.000000 24.200000 translate
0.000000 rotate
/DejaVuSans findfont
12.0 scalefont
setfont
0.000000 1.828125 moveto
/one glyphshow

7.634766 1.828125 moveto
/zero glyphshow

/DejaVuSans findfont
8.4 scalefont
setfont
15.269531 8.765625 moveto
/zero glyphshow


grestore
gsave
/o {
gsave
newpath
translate
0 0 m
0 4 l
stroke
grestore
} bind def
135.771 43.2 o
grestore
gsave
/o {
gsave
newpath
translate
0 0 m
0 -4 l
stroke
grestore
} bind def
135.771 388.8 o
grestore
gsave
124.771429 24.200000 translate
0.000000 rotate
/DejaVuSans findfont
12.0 scalefont
setfont
0.000000 1.937500 moveto
/one glyphshow

7.634766 1.937500 moveto
/zero glyphshow

/DejaVuSans findfont
8.4 scalefont
setfont
15.269531 8.875000 moveto
/one glyphshow


grestore
gsave
/o {
gsave
newpath
translate
0 0 m
0 4 l
stroke
grestore
} bind def
199.543 43.2 o
grestore
gsave
/o {
gsave
newpath
translate
0 0 m
0 -4 l
stroke
grestore
} bind def
199.543 388.8 o
grestore
gsave
188.542857 24.200000 translate
0.000000 rotate
/DejaVuSans findfont
12.0 scalefont
setfont
0.000000 1.828125 moveto
/one glyphshow

7.634766 1.828125 moveto
/zero glyphshow

/DejaVuSans findfont
8.4 scalefont
setfont
15.269531 8.765625 moveto
/two glyphshow


grestore
gsave
/o {
gsave
newpath
translate
0 0 m
0 4 l
stroke
grestore
} bind def
263.314 43.2 o
grestore
gsave
/o {
gsave
newpath
translate
0 0 m
0 -4 l
stroke
grestore
} bind def
263.314 388.8 o
grestore
gsave
252.314286 24.200000 translate
0.000000 rotate
/DejaVuSans findfont
12.0 scalefont
setfont
0.000000 1.828125 moveto
/one glyphshow

7.634766 1.828125 moveto
/zero glyphshow

/DejaVuSans findfont
8.4 scalefont
setfont
15.269531 8.765625 moveto
/three glyphshow


grestore
gsave
/o {
gsave
newpath
translate
0 0 m
0 4 l
stroke
grestore
} bind def
327.086 43.2 o
grestore
gsave
/o {
gsave
newpath
translate
0 0 m
0 -4 l
stroke
grestore
} bind def
327.086 388.8 o
grestore
gsave
316.085714 24.200000 translate
0.000000 rotate
/DejaVuSans findfont
12.0 scalefont
setfont
0.000000 1.937500 moveto
/one glyphshow

7.634766 1.937500 moveto
/zero glyphshow

/DejaVuSans findfont
8.4 scalefont
setfont
15.269531 8.875000 moveto
/four glyphshow


grestore
gsave
/o {
gsave
newpath
translate
0 0 m
0 4 l
stroke
grestore
} bind def
390.857 43.2 o
grestore
gsave
/o {
gsave
newpath
translate
0 0 m
0 -4 l
stroke
grestore
} bind def
390.857 388.8 o
grestore
gsave
379.857143 24.200000 translate
0.000000 rotate
/DejaVuSans findfont
12.0 scalefont
setfont
0.000000 1.937500 moveto
/one glyphshow

7.634766 1.937500 moveto
/zero glyphshow

/DejaVuSans findfont
8.4 scalefont
setfont
15.269531 8.875000 moveto
/five glyphshow


grestore
gsave
/o {
gsave
newpath
translate
0 0 m
0 4 l
stroke
grestore
} bind def
454.629 43.2 o
grestore
gsave
/o {
gsave
newpath
translate
0 0 m
0 -4 l
stroke
grestore
} bind def
454.629 388.8 o
grestore
gsave
443.628571 24.200000 translate
0.000000 rotate
/DejaVuSans findfont
12.0 scalefont
setfont
0.000000 1.828125 moveto
/one glyphshow

7.634766 1.828125 moveto
/zero glyphshow

/DejaVuSans findfont
8.4 scalefont
setfont
15.269531 8.765625 moveto
/six glyphshow


grestore
gsave
/o {
gsave
newpath
translate
0 0 m
0 4 l
stroke
grestore
} bind def
518.4 43.2 o
grestore
gsave
/o {
gsave
newpath
translate
0 0 m
0 -4 l
stroke
grestore
} bind def
518.4 388.8 o
grestore
gsave
507.400000 24.200000 translate
0.000000 rotate
/DejaVuSans findfont
12.0 scalefont
setfont
0.000000 1.937500 moveto
/one glyphshow

7.634766 1.937500 moveto
/zero glyphshow

/DejaVuSans findfont
8.4 scalefont
setfont
15.269531 8.875000 moveto
/seven glyphshow


grestore
gsave
/o {
gsave
newpath
translate
0 0 m
0 2 l
stroke
grestore
} bind def
91.1971 43.2 o
grestore
gsave
/o {
gsave
newpath
translate
0 0 m
0 -2 l
stroke
grestore
} bind def
91.1971 388.8 o
grestore
gsave
/o {
gsave
newpath
translate
0 0 m
0 2 l
stroke
grestore
} bind def
110.394 43.2 o
grestore
gsave
/o {
gsave
newpath
translate
0 0 m
0 -2 l
stroke
grestore
} bind def
110.394 388.8 o
grestore
gsave
/o {
gsave
newpath
translate
0 0 m
0 2 l
stroke
grestore
} bind def
121.624 43.2 o
grestore
gsave
/o {
gsave
newpath
translate
0 0 m
0 -2 l
stroke
grestore
} bind def
121.624 388.8 o
grestore
gsave
/o {
gsave
newpath
translate
0 0 m
0 2 l
stroke
grestore
} bind def
129.591 43.2 o
grestore
gsave
/o {
gsave
newpath
translate
0 0 m
0 -2 l
stroke
grestore
} bind def
129.591 388.8 o
grestore
gsave
/o {
gsave
newpath
translate
0 0 m
0 2 l
stroke
grestore
} bind def
154.969 43.2 o
grestore
gsave
/o {
gsave
newpath
translate
0 0 m
0 -2 l
stroke
grestore
} bind def
154.969 388.8 o
grestore
gsave
/o {
gsave
newpath
translate
0 0 m
0 2 l
stroke
grestore
} bind def
174.166 43.2 o
grestore
gsave
/o {
gsave
newpath
translate
0 0 m
0 -2 l
stroke
grestore
} bind def
174.166 388.8 o
grestore
gsave
/o {
gsave
newpath
translate
0 0 m
0 2 l
stroke
grestore
} bind def
185.395 43.2 o
grestore
gsave
/o {
gsave
newpath
translate
0 0 m
0 -2 l
stroke
grestore
} bind def
185.395 388.8 o
grestore
gsave
/o {
gsave
newpath
translate
0 0 m
0 2 l
stroke
grestore
} bind def
193.363 43.2 o
grestore
gsave
/o {
gsave
newpath
translate
0 0 m
0 -2 l
stroke
grestore
} bind def
193.363 388.8 o
grestore
gsave
/o {
gsave
newpath
translate
0 0 m
0 2 l
stroke
grestore
} bind def
218.74 43.2 o
grestore
gsave
/o {
gsave
newpath
translate
0 0 m
0 -2 l
stroke
grestore
} bind def
218.74 388.8 o
grestore
gsave
/o {
gsave
newpath
translate
0 0 m
0 2 l
stroke
grestore
} bind def
237.937 43.2 o
grestore
gsave
/o {
gsave
newpath
translate
0 0 m
0 -2 l
stroke
grestore
} bind def
237.937 388.8 o
grestore
gsave
/o {
gsave
newpath
translate
0 0 m
0 2 l
stroke
grestore
} bind def
249.167 43.2 o
grestore
gsave
/o {
gsave
newpath
translate
0 0 m
0 -2 l
stroke
grestore
} bind def
249.167 388.8 o
grestore
gsave
/o {
gsave
newpath
translate
0 0 m
0 2 l
stroke
grestore
} bind def
257.134 43.2 o
grestore
gsave
/o {
gsave
newpath
translate
0 0 m
0 -2 l
stroke
grestore
} bind def
257.134 388.8 o
grestore
gsave
/o {
gsave
newpath
translate
0 0 m
0 2 l
stroke
grestore
} bind def
282.511 43.2 o
grestore
gsave
/o {
gsave
newpath
translate
0 0 m
0 -2 l
stroke
grestore
} bind def
282.511 388.8 o
grestore
gsave
/o {
gsave
newpath
translate
0 0 m
0 2 l
stroke
grestore
} bind def
301.709 43.2 o
grestore
gsave
/o {
gsave
newpath
translate
0 0 m
0 -2 l
stroke
grestore
} bind def
301.709 388.8 o
grestore
gsave
/o {
gsave
newpath
translate
0 0 m
0 2 l
stroke
grestore
} bind def
312.938 43.2 o
grestore
gsave
/o {
gsave
newpath
translate
0 0 m
0 -2 l
stroke
grestore
} bind def
312.938 388.8 o
grestore
gsave
/o {
gsave
newpath
translate
0 0 m
0 2 l
stroke
grestore
} bind def
320.906 43.2 o
grestore
gsave
/o {
gsave
newpath
translate
0 0 m
0 -2 l
stroke
grestore
} bind def
320.906 388.8 o
grestore
gsave
/o {
gsave
newpath
translate
0 0 m
0 2 l
stroke
grestore
} bind def
346.283 43.2 o
grestore
gsave
/o {
gsave
newpath
translate
0 0 m
0 -2 l
stroke
grestore
} bind def
346.283 388.8 o
grestore
gsave
/o {
gsave
newpath
translate
0 0 m
0 2 l
stroke
grestore
} bind def
365.48 43.2 o
grestore
gsave
/o {
gsave
newpath
translate
0 0 m
0 -2 l
stroke
grestore
} bind def
365.48 388.8 o
grestore
gsave
/o {
gsave
newpath
translate
0 0 m
0 2 l
stroke
grestore
} bind def
376.71 43.2 o
grestore
gsave
/o {
gsave
newpath
translate
0 0 m
0 -2 l
stroke
grestore
} bind def
376.71 388.8 o
grestore
gsave
/o {
gsave
newpath
translate
0 0 m
0 2 l
stroke
grestore
} bind def
384.677 43.2 o
grestore
gsave
/o {
gsave
newpath
translate
0 0 m
0 -2 l
stroke
grestore
} bind def
384.677 388.8 o
grestore
gsave
/o {
gsave
newpath
translate
0 0 m
0 2 l
stroke
grestore
} bind def
410.054 43.2 o
grestore
gsave
/o {
gsave
newpath
translate
0 0 m
0 -2 l
stroke
grestore
} bind def
410.054 388.8 o
grestore
gsave
/o {
gsave
newpath
translate
0 0 m
0 2 l
stroke
grestore
} bind def
429.251 43.2 o
grestore
gsave
/o {
gsave
newpath
translate
0 0 m
0 -2 l
stroke
grestore
} bind def
429.251 388.8 o
grestore
gsave
/o {
gsave
newpath
translate
0 0 m
0 2 l
stroke
grestore
} bind def
440.481 43.2 o
grestore
gsave
/o {
gsave
newpath
translate
0 0 m
0 -2 l
stroke
grestore
} bind def
440.481 388.8 o
grestore
gsave
/o {
gsave
newpath
translate
0 0 m
0 2 l
stroke
grestore
} bind def
448.448 43.2 o
grestore
gsave
/o {
gsave
newpath
translate
0 0 m
0 -2 l
stroke
grestore
} bind def
448.448 388.8 o
grestore
gsave
/o {
gsave
newpath
translate
0 0 m
0 2 l
stroke
grestore
} bind def
473.826 43.2 o
grestore
gsave
/o {
gsave
newpath
translate
0 0 m
0 -2 l
stroke
grestore
} bind def
473.826 388.8 o
grestore
gsave
/o {
gsave
newpath
translate
0 0 m
0 2 l
stroke
grestore
} bind def
493.023 43.2 o
grestore
gsave
/o {
gsave
newpath
translate
0 0 m
0 -2 l
stroke
grestore
} bind def
493.023 388.8 o
grestore
gsave
/o {
gsave
newpath
translate
0 0 m
0 2 l
stroke
grestore
} bind def
504.252 43.2 o
grestore
gsave
/o {
gsave
newpath
translate
0 0 m
0 -2 l
stroke
grestore
} bind def
504.252 388.8 o
grestore
gsave
/o {
gsave
newpath
translate
0 0 m
0 2 l
stroke
grestore
} bind def
512.22 43.2 o
grestore
gsave
/o {
gsave
newpath
translate
0 0 m
0 -2 l
stroke
grestore
} bind def
512.22 388.8 o
grestore
gsave
290.200000 10.200000 translate
0.000000 rotate
/Cmr10 findfont
12.0 scalefont
setfont
0.000000 0.406250 moveto
/Delta glyphshow


grestore
gsave
/o {
gsave
newpath
translate
0 0 m
4 0 l
stroke
grestore
} bind def
72 43.2 o
grestore
/DejaVuSans findfont
12.000 scalefont
setfont
gsave
50.500000 38.660937 translate
0.000000 rotate
0.000000 0.171875 m /zero glyphshow
7.634766 0.171875 m /period glyphshow
11.449219 0.171875 m /zero glyphshow
grestore
gsave
/o {
gsave
newpath
translate
0 0 m
4 0 l
stroke
grestore
} bind def
72 112.32 o
grestore
gsave
50.906250 107.780937 translate
0.000000 rotate
0.000000 0.171875 m /zero glyphshow
7.634766 0.171875 m /period glyphshow
11.449219 0.171875 m /two glyphshow
grestore
gsave
/o {
gsave
newpath
translate
0 0 m
4 0 l
stroke
grestore
} bind def
72 181.44 o
grestore
gsave
50.375000 176.900937 translate
0.000000 rotate
0.000000 0.171875 m /zero glyphshow
7.634766 0.171875 m /period glyphshow
11.449219 0.171875 m /four glyphshow
grestore
gsave
/o {
gsave
newpath
translate
0 0 m
4 0 l
stroke
grestore
} bind def
72 250.56 o
grestore
gsave
50.468750 246.020938 translate
0.000000 rotate
0.000000 0.171875 m /zero glyphshow
7.634766 0.171875 m /period glyphshow
11.449219 0.171875 m /six glyphshow
grestore
gsave
/o {
gsave
newpath
translate
0 0 m
4 0 l
stroke
grestore
} bind def
72 319.68 o
grestore
gsave
50.531250 315.140938 translate
0.000000 rotate
0.000000 0.171875 m /zero glyphshow
7.634766 0.171875 m /period glyphshow
11.449219 0.171875 m /eight glyphshow
grestore
gsave
/o {
gsave
newpath
translate
0 0 m
4 0 l
stroke
grestore
} bind def
72 388.8 o
grestore
gsave
51.015625 384.260938 translate
0.000000 rotate
0.000000 0.171875 m /one glyphshow
7.634766 0.171875 m /period glyphshow
11.449219 0.171875 m /zero glyphshow
grestore
gsave
45.375000 183.500000 translate
90.000000 rotate
/Cmmi10 findfont
12.0 scalefont
setfont
0.000000 4.875000 moveto
/delta glyphshow

/Cmr10 findfont
8.4 scalefont
setfont
5.326172 1.813875 moveto
/Delta glyphshow

/Cmr10 findfont
12.0 scalefont
setfont
12.323438 4.875000 moveto
/parenleft glyphshow

/Cmmi10 findfont
12.0 scalefont
setfont
16.981641 4.875000 moveto
/u glyphshow

23.842969 4.875000 moveto
/comma glyphshow

27.403125 4.875000 moveto
/v glyphshow

/Cmr10 findfont
12.0 scalefont
setfont
33.209766 4.875000 moveto
/parenright glyphshow

/DejaVuSans findfont
12.0 scalefont
setfont
37.867969 4.875000 moveto
/space glyphshow

41.682422 4.875000 moveto
/i glyphshow

45.016406 4.875000 moveto
/n glyphshow

52.621875 4.875000 moveto
/space glyphshow

56.436328 4.875000 moveto
/A glyphshow


grestore
1.000 setlinewidth
2 setlinecap
gsave
72 388.8 m
518.4 388.8 l
stroke
grestore
gsave
518.4 43.2 m
518.4 388.8 l
stroke
grestore
gsave
72 43.2 m
518.4 43.2 l
stroke
grestore
gsave
72 43.2 m
72 388.8 l
stroke
grestore
1.000 0.000 0.000 setrgbcolor
gsave
446.4 345.6 72 43.2 clipbox
72 43.2 m
347.029 43.5321 l
371.004 44.1217 l
401.043 46.7628 l
401.869 47.0832 l
404.625 47.6026 l
406.279 48.1372 l
407.381 48.3581 l
408.759 48.6857 l
410.964 49.0085 l
413.168 49.7208 l
415.097 50.253 l
416.475 50.5533 l
418.404 51.4287 l
419.782 51.6292 l
420.884 52.0615 l
421.711 52.2948 l
423.365 53.3648 l
423.916 53.6727 l
425.569 54 l
426.121 54.3484 l
426.396 54.3484 l
426.947 54.7199 l
427.223 54.7199 l
427.774 55.1173 l
428.05 55.1173 l
428.601 55.5428 l
428.876 55.5428 l
429.427 56 l
429.703 56 l
430.805 57.6001 l
431.357 57.6001 l
431.908 58.226 l
432.183 58.226 l
432.734 58.9092 l
433.286 58.9092 l
434.112 59.6571 l
434.939 59.6571 l
435.49 60.48 l
436.317 60.48 l
437.144 61.3896 l
438.797 61.3896 l
439.624 62.4002 l
441.002 62.4002 l
441.829 63.5296 l
442.931 63.5296 l
443.482 64.8 l
444.309 64.8 l
444.86 66.2401 l
445.411 66.2401 l
445.962 67.8859 l
446.238 67.8859 l
446.789 70.848 l
447.065 70.848 l
447.616 71.9999 l
448.994 71.9999 l
449.82 74.6182 l
452.025 74.6182 l
452.576 77.76 l
454.505 77.76 l
455.056 81.6 l
457.261 81.6 l
457.812 86.4 l
460.292 86.4 l
460.844 92.5714 l
463.048 92.5714 l
463.875 100.8 l
467.182 100.8 l
468.009 112.32 l
470.213 112.32 l
470.765 129.6 l
472.969 129.6 l
473.52 158.4 l
475.725 158.4 l
476.276 216 l
478.481 216 l
479.032 388.8 l
480.134 388.8 l
480.134 388.8 l
stroke
grestore
0.500 setlinewidth
0 setlinecap
0.000 setgray
gsave
446.4 345.6 72 43.2 clipbox
/o {
gsave
newpath
translate
0 3 m
-3 -3 l
3 -3 l
0 3 l
gsave
1.000 0.000 0.000 setrgbcolor
fill
grestore
stroke
grestore
} bind def
72 43.2 o
91.1971 43.2 o
102.427 43.2 o
110.394 43.2 o
116.574 43.2 o
121.624 43.2 o
125.893 43.2 o
129.591 43.2 o
132.853 43.2 o
135.771 43.2 o
138.411 43.2 o
140.821 43.2 o
143.038 43.2 o
145.09 43.2 o
147.001 43.2 o
148.788 43.2 o
150.467 43.2 o
152.051 43.2 o
153.548 43.2 o
154.969 43.2 o
156.32 43.2 o
157.608 43.2 o
158.839 43.2 o
160.018 43.2 o
161.149 43.2 o
162.235 43.2 o
163.28 43.2 o
164.287 43.2 o
165.259 43.2 o
166.198 43.2 o
167.106 43.2 o
167.986 43.2 o
168.838 43.2 o
169.665 43.2 o
170.467 43.2 o
171.248 43.2 o
172.006 43.2 o
172.745 43.2 o
173.464 43.2 o
174.166 43.2 o
174.85 43.2 o
175.517 43.2 o
176.169 43.2 o
176.805 43.2 o
177.428 43.2 o
178.036 43.2 o
178.632 43.2 o
179.215 43.2 o
179.786 43.2 o
180.346 43.2 o
180.894 43.2 o
181.432 43.2 o
181.96 43.2 o
182.477 43.2 o
182.985 43.2 o
183.484 43.2 o
183.975 43.2 o
184.456 43.2 o
184.93 43.2 o
185.395 43.2 o
185.853 43.2 o
186.303 43.2 o
186.747 43.2 o
187.183 43.2 o
187.612 43.2 o
188.035 43.2 o
188.451 43.2 o
188.862 43.2 o
189.266 43.2 o
189.665 43.2 o
190.057 43.2 o
190.445 43.2 o
190.827 43.2 o
191.204 43.2 o
191.575 43.2 o
191.942 43.2 o
192.304 43.2 o
192.662 43.2 o
193.014 43.2 o
193.363 43.2 o
193.707 43.2 o
194.047 43.2 o
194.382 43.2 o
194.714 43.2 o
195.042 43.2 o
195.366 43.2 o
195.686 43.2 o
196.002 43.2 o
196.315 43.2 o
196.625 43.2 o
196.931 43.2 o
197.234 43.2 o
197.533 43.2 o
197.829 43.2 o
198.122 43.2 o
198.412 43.2 o
198.699 43.2 o
198.983 43.2 o
199.265 43.2 o
199.543 43.2 o
199.818 43.2 o
200.091 43.2 o
200.362 43.2 o
200.629 43.2 o
200.894 43.2 o
201.157 43.2 o
201.417 43.2 o
201.674 43.2 o
201.93 43.2 o
202.183 43.2 o
202.433 43.2 o
202.682 43.2 o
203.172 43.2 o
203.414 43.2 o
203.653 43.2 o
203.891 43.2 o
204.127 43.2 o
204.361 43.2 o
204.822 43.2 o
205.05 43.2 o
205.276 43.2 o
205.5 43.2 o
205.723 43.2 o
206.163 43.2 o
206.38 43.2 o
206.595 43.2 o
207.021 43.2 o
207.232 43.2 o
207.441 43.2 o
207.854 43.2 o
208.059 43.2 o
208.262 43.2 o
208.663 43.2 o
208.862 43.2 o
209.059 43.2 o
209.449 43.2 o
209.642 43.2 o
210.024 43.2 o
210.213 43.2 o
210.587 43.2 o
210.772 43.2 o
211.139 43.2 o
211.321 43.2 o
211.681 43.2 o
211.859 43.2 o
212.212 43.2 o
212.386 43.2 o
212.732 43.2 o
213.074 43.2 o
213.244 43.2 o
213.579 43.2 o
213.911 43.2 o
214.076 43.2 o
214.401 43.2 o
214.723 43.2 o
214.883 43.2 o
215.2 43.2 o
215.512 43.2 o
215.822 43.2 o
216.128 43.2 o
216.28 43.2 o
216.581 43.2 o
216.879 43.2 o
217.173 43.2 o
217.465 43.2 o
217.753 43.2 o
218.039 43.2 o
218.321 43.2 o
218.601 43.2 o
218.878 43.2 o
219.152 43.2 o
219.424 43.2 o
219.693 43.2 o
219.959 43.2 o
220.223 43.2 o
220.484 43.2 o
220.743 43.2 o
220.999 43.2 o
221.253 43.2 o
221.63 43.2 o
221.879 43.2 o
222.125 43.2 o
222.369 43.2 o
222.731 43.2 o
222.97 43.2 o
223.206 43.2 o
223.558 43.2 o
223.789 43.2 o
224.019 43.2 o
224.361 43.2 o
224.586 43.2 o
224.92 43.2 o
225.141 43.2 o
225.469 43.2 o
225.685 43.2 o
226.006 43.2 o
226.324 43.2 o
226.534 43.2 o
226.846 43.2 o
227.052 43.2 o
227.358 43.2 o
227.66 43.2 o
227.96 43.2 o
228.158 43.2 o
228.452 43.2 o
228.743 43.2 o
229.031 43.2 o
229.316 43.2 o
229.598 43.2 o
229.877 43.2 o
230.154 43.2 o
230.427 43.2 o
230.698 43.2 o
230.967 43.2 o
231.233 43.2 o
231.496 43.2 o
231.757 43.2 o
232.101 43.2 o
232.356 43.2 o
232.609 43.2 o
232.86 43.2 o
233.191 43.2 o
233.436 43.2 o
233.76 43.2 o
234 43.2 o
234.239 43.2 o
234.554 43.2 o
234.865 43.2 o
235.096 43.2 o
235.401 43.2 o
235.628 43.2 o
235.927 43.2 o
236.223 43.2 o
236.516 43.2 o
236.734 43.2 o
237.022 43.2 o
237.307 43.2 o
237.589 43.2 o
237.868 43.2 o
238.144 43.2 o
238.418 43.2 o
238.688 43.2 o
238.957 43.2 o
239.222 43.2 o
239.551 43.2 o
239.811 43.2 o
240.069 43.2 o
240.324 43.2 o
240.64 43.2 o
240.89 43.2 o
241.199 43.2 o
241.444 43.2 o
241.748 43.2 o
241.988 43.2 o
242.285 43.2 o
242.58 43.2 o
242.813 43.2 o
243.102 43.2 o
243.388 43.2 o
243.67 43.2 o
243.95 43.2 o
244.228 43.2 o
244.502 43.2 o
244.774 43.2 o
245.043 43.2 o
245.31 43.2 o
245.574 43.2 o
245.887 43.2 o
246.146 43.2 o
246.402 43.2 o
246.706 43.2 o
246.958 43.2 o
247.256 43.2 o
247.502 43.2 o
247.795 43.2 o
248.084 43.2 o
248.371 43.2 o
248.607 43.2 o
248.888 43.2 o
249.167 43.2 o
249.442 43.2 o
249.715 43.2 o
249.985 43.2 o
250.297 43.2 o
250.562 43.2 o
250.824 43.2 o
251.127 43.2 o
251.384 43.2 o
251.638 43.2 o
251.932 43.2 o
252.223 43.2 o
252.47 43.2 o
252.755 43.2 o
253.037 43.2 o
253.317 43.2 o
253.594 43.2 o
253.868 43.2 o
254.139 43.2 o
254.408 43.2 o
254.674 43.2 o
254.975 43.2 o
255.236 43.2 o
255.531 43.2 o
255.786 43.2 o
256.076 43.2 o
256.362 43.2 o
256.61 43.2 o
256.891 43.2 o
257.169 43.2 o
257.444 43.2003 o
257.717 43.2003 o
257.986 43.2007 o
258.287 43.2007 o
258.551 43.2007 o
258.813 43.201 o
259.105 43.201 o
259.394 43.201 o
259.648 43.2014 o
259.931 43.2014 o
260.211 43.2014 o
260.488 43.2017 o
260.763 43.2017 o
261.035 43.2021 o
261.304 43.2021 o
261.571 43.2021 o
261.865 43.2021 o
262.126 43.2024 o
262.414 43.2024 o
262.698 43.2024 o
262.952 43.2028 o
263.231 43.2031 o
263.507 43.2031 o
263.781 43.2035 o
264.079 43.2035 o
264.347 43.2038 o
264.613 43.2038 o
264.902 43.2041 o
265.162 43.2041 o
265.446 43.2048 o
265.726 43.2052 o
266.004 43.2052 o
266.279 43.2052 o
266.552 43.2055 o
266.821 43.2055 o
267.089 43.2055 o
267.377 43.2059 o
267.639 43.2059 o
267.922 43.2062 o
268.202 43.2062 o
268.479 43.2062 o
268.753 43.2066 o
269.025 43.2066 o
269.294 43.2069 o
269.583 43.2073 o
269.847 43.2073 o
270.13 43.2073 o
270.41 43.2076 o
270.687 43.2076 o
270.961 43.2076 o
271.233 43.2083 o
271.502 43.2083 o
271.789 43.2083 o
272.053 43.2083 o
272.335 43.2086 o
272.613 43.2086 o
272.889 43.209 o
273.162 43.209 o
273.433 43.2093 o
273.719 43.2097 o
273.984 43.2097 o
274.266 43.21 o
274.544 43.21 o
274.819 43.2111 o
275.092 43.2114 o
275.363 43.2118 o
275.648 43.2121 o
275.913 43.2124 o
276.192 43.2124 o
276.469 43.2128 o
276.744 43.2128 o
277.015 43.2131 o
277.301 43.2135 o
277.567 43.2135 o
277.847 43.2138 o
278.124 43.2138 o
278.399 43.2138 o
278.67 43.2142 o
278.955 43.2142 o
279.222 43.2149 o
279.501 43.2156 o
279.777 43.2159 o
280.051 43.2159 o
280.337 43.2162 o
280.606 43.2166 o
280.886 43.2166 o
281.164 43.2169 o
281.438 43.2169 o
281.711 43.2173 o
281.98 43.2173 o
282.261 43.2173 o
282.539 43.2176 o
282.814 43.218 o
283.087 43.218 o
283.357 43.2183 o
283.638 43.2187 o
283.915 43.219 o
284.19 43.2194 o
284.463 43.2197 o
284.745 43.2197 o
285.012 43.22 o
285.289 43.2207 o
285.563 43.2211 o
285.847 43.2211 o
286.116 43.2214 o
286.394 43.2214 o
286.67 43.2218 o
286.942 43.2221 o
287.224 43.2221 o
287.503 43.2228 o
287.768 43.2228 o
288.053 43.2232 o
288.323 43.2232 o
288.603 43.2235 o
288.879 43.2238 o
289.153 43.2238 o
289.424 43.2242 o
289.703 43.2245 o
289.979 43.2245 o
290.253 43.2245 o
290.534 43.2252 o
290.802 43.2256 o
291.078 43.2256 o
291.361 43.2266 o
291.632 43.2273 o
291.909 43.2276 o
292.184 43.2287 o
292.456 43.2294 o
292.735 43.2297 o
293.011 43.2301 o
293.285 43.2301 o
293.565 43.2301 o
293.833 43.2304 o
294.117 43.2308 o
294.389 43.2308 o
294.667 43.2318 o
294.942 43.2318 o
295.215 43.2318 o
295.494 43.2321 o
295.77 43.2325 o
296.043 43.2332 o
296.322 43.2335 o
296.59 43.2339 o
296.871 43.2342 o
297.142 43.2346 o
297.418 43.2349 o
297.7 43.2353 o
297.971 43.2363 o
298.247 43.2366 o
298.52 43.237 o
298.798 43.238 o
299.074 43.238 o
299.346 43.2384 o
299.624 43.2387 o
299.899 43.2397 o
300.178 43.2401 o
300.455 43.2411 o
300.729 43.2422 o
301 43.2425 o
301.276 43.2432 o
301.556 43.2435 o
301.833 43.2449 o
302.107 43.2456 o
302.379 43.2463 o
302.655 43.2467 o
302.934 43.2467 o
303.211 43.247 o
303.485 43.2477 o
303.757 43.248 o
304.038 43.2487 o
304.31 43.2491 o
304.586 43.2501 o
304.86 43.2505 o
305.136 43.2515 o
305.416 43.2518 o
305.687 43.2525 o
305.962 43.2525 o
306.24 43.2532 o
306.515 43.2536 o
306.793 43.255 o
307.068 43.2553 o
307.34 43.256 o
307.616 43.256 o
307.894 43.2563 o
308.17 43.257 o
308.442 43.2574 o
308.718 43.2581 o
308.996 43.2584 o
309.272 43.2594 o
309.549 43.2598 o
309.824 43.2605 o
310.097 43.2612 o
310.377 43.2615 o
310.649 43.2622 o
310.923 43.2629 o
311.2 43.2636 o
311.479 43.2643 o
311.755 43.265 o
312.028 43.2657 o
312.303 43.266 o
312.58 43.266 o
312.855 43.2667 o
313.131 43.2674 o
313.405 43.2681 o
313.68 43.2688 o
313.958 43.2695 o
314.232 43.2708 o
314.508 43.2712 o
314.786 43.2715 o
315.061 43.2722 o
315.333 43.2729 o
315.611 43.2746 o
315.887 43.276 o
316.163 43.2767 o
316.437 43.2774 o
316.712 43.2781 o
316.989 43.2791 o
317.263 43.2798 o
317.542 43.2833 o
317.814 43.284 o
318.091 43.2847 o
318.366 43.2857 o
318.641 43.2867 o
318.918 43.2878 o
319.192 43.2881 o
319.47 43.2892 o
319.746 43.2902 o
320.019 43.2905 o
320.297 43.2947 o
320.571 43.2957 o
320.847 43.2964 o
321.123 43.2975 o
321.4 43.2988 o
321.674 43.3006 o
321.949 43.3016 o
322.224 43.3026 o
322.5 43.3058 o
322.776 43.3068 o
323.053 43.3082 o
323.327 43.3089 o
323.602 43.3099 o
323.88 43.3109 o
324.155 43.3123 o
324.431 43.3134 o
324.704 43.3144 o
324.98 43.3154 o
325.257 43.3168 o
325.534 43.3175 o
325.808 43.3178 o
326.085 43.3213 o
326.359 43.3227 o
326.633 43.3237 o
326.911 43.3265 o
327.185 43.3275 o
327.463 43.3289 o
327.737 43.3303 o
328.012 43.3327 o
328.289 43.3341 o
328.563 43.3355 o
328.84 43.3369 o
329.114 43.3382 o
329.391 43.3403 o
329.667 43.3438 o
329.941 43.3452 o
330.217 43.3496 o
330.493 43.351 o
330.768 43.3559 o
331.043 43.3572 o
331.32 43.3604 o
331.595 43.3621 o
331.871 43.3635 o
332.147 43.3669 o
332.422 43.3687 o
332.697 43.3697 o
332.974 43.3704 o
333.248 43.3721 o
333.524 43.3749 o
333.799 43.3756 o
334.076 43.3773 o
334.352 43.3807 o
334.628 43.3818 o
334.903 43.3828 o
335.179 43.3846 o
335.453 43.3863 o
335.73 43.3873 o
336.004 43.3884 o
336.28 43.3901 o
336.556 43.3939 o
336.832 43.396 o
337.108 43.4018 o
337.382 43.4036 o
337.658 43.406 o
337.934 43.4077 o
338.21 43.4101 o
338.485 43.4163 o
338.76 43.4184 o
339.037 43.4229 o
339.313 43.4274 o
339.587 43.4295 o
339.863 43.4319 o
340.139 43.4343 o
340.414 43.4364 o
340.69 43.4392 o
340.965 43.4436 o
341.241 43.4561 o
341.517 43.4613 o
341.792 43.464 o
342.067 43.4692 o
342.343 43.4775 o
342.619 43.4792 o
342.895 43.4803 o
343.17 43.4886 o
343.446 43.4917 o
343.721 43.4934 o
343.998 43.4945 o
344.273 43.4976 o
344.549 43.5007 o
344.824 43.5034 o
345.099 43.5052 o
345.375 43.5065 o
345.65 43.5159 o
345.926 43.5176 o
346.201 43.5256 o
346.477 43.5287 o
346.752 43.5304 o
347.029 43.5321 o
347.304 43.5352 o
347.58 43.5383 o
347.855 43.5418 o
348.131 43.5456 o
348.407 43.5487 o
348.682 43.556 o
348.958 43.558 o
349.233 43.5629 o
349.509 43.5663 o
349.784 43.5705 o
350.06 43.5777 o
350.335 43.5815 o
350.611 43.5836 o
350.887 43.5853 o
351.162 43.5891 o
351.438 43.5933 o
351.713 43.5954 o
351.989 43.5971 o
352.265 43.5992 o
352.54 43.6009 o
352.815 43.6133 o
353.092 43.6175 o
353.366 43.6216 o
353.643 43.6258 o
353.918 43.6282 o
354.194 43.6299 o
354.469 43.6341 o
354.745 43.6386 o
355.02 43.6431 o
355.296 43.65 o
355.572 43.6517 o
355.847 43.6659 o
356.123 43.6704 o
356.398 43.6849 o
356.674 43.6894 o
356.949 43.6946 o
357.225 43.6973 o
357.5 43.6994 o
357.776 43.7022 o
358.052 43.7046 o
358.327 43.707 o
358.603 43.7091 o
358.879 43.7143 o
359.154 43.7198 o
359.429 43.7302 o
359.705 43.7329 o
359.981 43.744 o
360.257 43.746 o
360.532 43.7512 o
360.807 43.7575 o
361.083 43.763 o
361.359 43.7685 o
361.634 43.774 o
361.91 43.7858 o
362.185 43.7969 o
362.461 43.8031 o
362.737 43.8096 o
363.012 43.8148 o
363.288 43.8217 o
363.564 43.8248 o
363.839 43.8376 o
364.115 43.8401 o
364.39 43.866 o
364.666 43.8736 o
364.942 43.894 o
365.217 43.9081 o
365.492 43.9185 o
365.768 43.9216 o
366.044 43.9292 o
366.319 43.9368 o
366.595 43.9434 o
366.871 43.9482 o
367.146 43.9513 o
367.422 43.9579 o
367.697 43.9731 o
367.973 43.9817 o
368.248 43.989 o
368.524 43.998 o
368.8 44.0056 o
369.075 44.0132 o
369.351 44.018 o
369.626 44.0471 o
369.902 44.0816 o
370.178 44.0906 o
370.453 44.0975 o
370.728 44.1169 o
371.004 44.1217 o
371.28 44.1442 o
371.555 44.1494 o
371.831 44.1933 o
372.107 44.2019 o
372.382 44.2136 o
372.658 44.2226 o
372.933 44.2316 o
373.209 44.2489 o
373.485 44.2537 o
373.76 44.2634 o
374.036 44.27 o
374.311 44.2973 o
374.587 44.3076 o
374.862 44.3184 o
375.138 44.3294 o
375.414 44.3636 o
375.689 44.3754 o
375.965 44.3875 o
376.24 44.3999 o
376.516 44.4127 o
376.792 44.4341 o
377.067 44.4476 o
377.342 44.4614 o
377.618 44.4846 o
377.894 44.5067 o
378.169 44.5192 o
378.445 44.5395 o
378.721 44.5662 o
378.996 44.5935 o
379.272 44.6221 o
379.547 44.628 o
379.823 44.6339 o
380.099 44.6643 o
380.374 44.6771 o
380.65 44.7569 o
380.925 44.7853 o
381.201 44.8001 o
381.476 44.815 o
381.752 44.8419 o
382.027 44.8537 o
382.303 44.8696 o
382.579 44.8858 o
382.854 44.9024 o
383.13 44.9194 o
383.405 44.9456 o
383.681 44.9543 o
383.957 44.9722 o
384.232 44.9906 o
384.508 45.0141 o
384.783 45.0382 o
385.059 45.068 o
385.335 45.0783 o
385.61 45.0991 o
385.886 45.1471 o
386.161 45.1637 o
386.437 45.1748 o
386.713 45.1976 o
386.988 45.2211 o
387.263 45.257 o
387.539 45.2819 o
387.815 45.2947 o
388.09 45.3203 o
388.366 45.3334 o
388.642 45.36 o
388.917 45.3873 o
389.193 45.4298 o
389.468 45.4443 o
389.744 45.4737 o
390.019 45.4813 o
390.295 45.4889 o
390.571 45.5041 o
390.846 45.5193 o
391.122 45.5352 o
391.397 45.5836 o
391.673 45.6168 o
391.948 45.6337 o
392.224 45.6862 o
392.5 45.7042 o
392.775 45.7792 o
393.051 45.8183 o
393.326 45.8283 o
393.602 45.8483 o
393.878 45.8998 o
394.153 45.8998 o
394.429 45.9213 o
394.704 45.9537 o
394.98 46.0097 o
395.255 46.0097 o
395.531 46.0329 o
395.807 46.056 o
396.082 46.0799 o
396.358 46.1538 o
396.633 46.1794 o
396.909 46.2053 o
397.184 46.2316 o
397.46 46.2586 o
397.736 46.272 o
398.011 46.2859 o
398.287 46.3135 o
398.562 46.3418 o
398.838 46.4915 o
399.113 46.5229 o
399.389 46.5554 o
399.665 46.5883 o
399.94 46.6218 o
400.216 46.656 o
400.491 46.6909 o
400.767 46.7265 o
401.043 46.7628 o
401.318 46.9978 o
401.594 47.04 o
401.869 47.0832 o
402.145 47.1049 o
402.421 47.2186 o
402.696 47.266 o
402.972 47.266 o
403.247 47.3144 o
403.523 47.3638 o
403.798 47.4146 o
404.074 47.4668 o
404.35 47.52 o
404.625 47.6026 o
404.901 47.7474 o
405.176 47.8704 o
405.452 47.9344 o
405.727 48 o
406.003 48.0678 o
406.279 48.1372 o
406.554 48.1372 o
406.83 48.2088 o
407.105 48.2824 o
407.381 48.3581 o
407.657 48.4763 o
407.932 48.5171 o
408.208 48.5171 o
408.483 48.6 o
408.759 48.6857 o
409.035 48.6857 o
409.31 48.7296 o
409.586 48.7742 o
409.861 48.7742 o
410.137 48.8654 o
410.412 48.8654 o
410.688 48.9601 o
410.964 49.0085 o
411.239 49.0576 o
411.515 49.1585 o
411.79 49.1585 o
412.066 49.2632 o
412.341 49.3714 o
412.617 49.4837 o
412.893 49.6002 o
413.168 49.7208 o
413.444 49.8462 o
413.719 49.8462 o
413.995 49.9765 o
414.271 49.9765 o
414.546 50.112 o
414.822 50.112 o
415.097 50.253 o
415.373 50.253 o
415.648 50.3999 o
415.924 50.3999 o
416.2 50.5533 o
416.475 50.5533 o
416.751 50.713 o
417.026 50.8799 o
417.302 51.0545 o
417.577 51.0545 o
417.853 51.145 o
418.129 51.2373 o
418.404 51.4287 o
418.68 51.4287 o
418.955 51.4287 o
419.231 51.6292 o
419.507 51.6292 o
419.782 51.6292 o
420.058 51.84 o
420.333 51.84 o
420.609 51.9492 o
420.884 52.0615 o
421.16 52.0615 o
421.436 52.1766 o
421.711 52.2948 o
421.987 52.4161 o
422.262 52.5405 o
422.538 52.6684 o
422.814 52.8001 o
423.089 53.0741 o
423.365 53.3648 o
423.64 53.6727 o
423.916 53.6727 o
424.191 53.6727 o
424.467 53.6727 o
424.743 54 o
425.018 54 o
425.294 54 o
425.569 54 o
425.845 54.3484 o
426.121 54.3484 o
426.396 54.3484 o
426.672 54.7199 o
426.947 54.7199 o
427.223 54.7199 o
427.498 55.1173 o
427.774 55.1173 o
428.05 55.1173 o
428.325 55.5428 o
428.601 55.5428 o
428.876 55.5428 o
429.152 56 o
429.427 56 o
429.703 56 o
429.979 56.4925 o
430.254 57.024 o
430.53 57.024 o
430.805 57.6001 o
431.081 57.6001 o
431.357 57.6001 o
431.632 58.226 o
431.908 58.226 o
432.183 58.226 o
432.459 58.9092 o
432.734 58.9092 o
433.01 58.9092 o
433.286 58.9092 o
433.561 59.2745 o
433.837 59.6571 o
434.112 59.6571 o
434.388 59.6571 o
434.663 59.6571 o
434.939 59.6571 o
435.215 60.48 o
435.49 60.48 o
435.766 60.48 o
436.041 60.48 o
436.317 60.48 o
436.593 60.9231 o
436.868 60.9231 o
437.144 61.3896 o
437.419 61.3896 o
437.695 61.3896 o
437.97 61.3896 o
438.246 61.3896 o
438.522 61.3896 o
438.797 61.3896 o
439.073 61.8811 o
439.348 61.8811 o
439.624 62.4002 o
439.9 62.4002 o
440.175 62.4002 o
440.451 62.4002 o
440.726 62.4002 o
441.002 62.4002 o
441.277 62.9486 o
441.553 62.9486 o
441.829 63.5296 o
442.104 63.5296 o
442.38 63.5296 o
442.655 63.5296 o
442.931 63.5296 o
443.206 64.8 o
443.482 64.8 o
443.758 64.8 o
444.033 64.8 o
444.309 64.8 o
444.584 66.2401 o
444.86 66.2401 o
445.136 66.2401 o
445.411 66.2401 o
445.687 67.8859 o
445.962 67.8859 o
446.238 67.8859 o
446.513 69.7846 o
446.789 70.848 o
447.065 70.848 o
447.34 71.9999 o
447.616 71.9999 o
447.891 71.9999 o
448.167 71.9999 o
448.442 71.9999 o
448.718 71.9999 o
448.994 71.9999 o
449.269 73.2523 o
449.545 73.2523 o
449.82 74.6182 o
450.096 74.6182 o
450.372 74.6182 o
450.647 74.6182 o
450.923 74.6182 o
451.198 74.6182 o
451.474 74.6182 o
451.749 74.6182 o
452.025 74.6182 o
452.301 77.76 o
452.576 77.76 o
452.852 77.76 o
453.127 77.76 o
453.403 77.76 o
453.679 77.76 o
453.954 77.76 o
454.23 77.76 o
454.505 77.76 o
454.781 81.6 o
455.056 81.6 o
455.332 81.6 o
455.608 81.6 o
455.883 81.6 o
456.159 81.6 o
456.434 81.6 o
456.71 81.6 o
456.985 81.6 o
457.261 81.6 o
457.537 86.4 o
457.812 86.4 o
458.088 86.4 o
458.363 86.4 o
458.639 86.4 o
458.915 86.4 o
459.19 86.4 o
459.466 86.4 o
459.741 86.4 o
460.017 86.4 o
460.292 86.4 o
460.568 92.5714 o
460.844 92.5714 o
461.119 92.5714 o
461.395 92.5714 o
461.67 92.5714 o
461.946 92.5714 o
462.222 92.5714 o
462.497 92.5714 o
462.773 92.5714 o
463.048 92.5714 o
463.324 96.3692 o
463.599 96.3692 o
463.875 100.8 o
464.151 100.8 o
464.426 100.8 o
464.702 100.8 o
464.977 100.8 o
465.253 100.8 o
465.528 100.8 o
465.804 100.8 o
466.08 100.8 o
466.355 100.8 o
466.631 100.8 o
466.906 100.8 o
467.182 100.8 o
467.458 106.036 o
467.733 112.32 o
468.009 112.32 o
468.284 112.32 o
468.56 112.32 o
468.835 112.32 o
469.111 112.32 o
469.387 112.32 o
469.662 112.32 o
469.938 112.32 o
470.213 112.32 o
470.489 129.6 o
470.765 129.6 o
471.04 129.6 o
471.316 129.6 o
471.591 129.6 o
471.867 129.6 o
472.142 129.6 o
472.418 129.6 o
472.694 129.6 o
472.969 129.6 o
473.245 158.4 o
473.52 158.4 o
473.796 158.4 o
474.071 158.4 o
474.347 158.4 o
474.623 158.4 o
474.898 158.4 o
475.174 158.4 o
475.449 158.4 o
475.725 158.4 o
476.001 216 o
476.276 216 o
476.552 216 o
476.827 216 o
477.103 216 o
477.378 216 o
477.654 216 o
477.93 216 o
478.205 216 o
478.481 216 o
478.756 388.8 o
479.032 388.8 o
479.308 388.8 o
479.583 388.8 o
479.859 388.8 o
480.134 388.8 o
grestore
gsave
/o {
gsave
newpath
translate
0 0 m
-4 0 l
stroke
grestore
} bind def
518.4 43.2 o
grestore
gsave
522.400000 38.660937 translate
0.000000 rotate
0.000000 0.171875 m /zero glyphshow
7.634766 0.171875 m /period glyphshow
11.449219 0.171875 m /zero glyphshow
grestore
gsave
/o {
gsave
newpath
translate
0 0 m
-4 0 l
stroke
grestore
} bind def
518.4 112.32 o
grestore
gsave
522.400000 107.780937 translate
0.000000 rotate
0.000000 0.171875 m /zero glyphshow
7.634766 0.171875 m /period glyphshow
11.449219 0.171875 m /two glyphshow
grestore
gsave
/o {
gsave
newpath
translate
0 0 m
-4 0 l
stroke
grestore
} bind def
518.4 181.44 o
grestore
gsave
522.400000 176.900937 translate
0.000000 rotate
0.000000 0.171875 m /zero glyphshow
7.634766 0.171875 m /period glyphshow
11.449219 0.171875 m /four glyphshow
grestore
gsave
/o {
gsave
newpath
translate
0 0 m
-4 0 l
stroke
grestore
} bind def
518.4 250.56 o
grestore
gsave
522.400000 246.020938 translate
0.000000 rotate
0.000000 0.171875 m /zero glyphshow
7.634766 0.171875 m /period glyphshow
11.449219 0.171875 m /six glyphshow
grestore
gsave
/o {
gsave
newpath
translate
0 0 m
-4 0 l
stroke
grestore
} bind def
518.4 319.68 o
grestore
gsave
522.400000 315.140938 translate
0.000000 rotate
0.000000 0.171875 m /zero glyphshow
7.634766 0.171875 m /period glyphshow
11.449219 0.171875 m /eight glyphshow
grestore
gsave
/o {
gsave
newpath
translate
0 0 m
-4 0 l
stroke
grestore
} bind def
518.4 388.8 o
grestore
gsave
522.400000 384.260938 translate
0.000000 rotate
0.000000 0.171875 m /one glyphshow
7.634766 0.171875 m /period glyphshow
11.449219 0.171875 m /zero glyphshow
grestore
gsave
559.025000 183.500000 translate
90.000000 rotate
/Cmmi10 findfont
12.0 scalefont
setfont
0.000000 4.875000 moveto
/delta glyphshow

/Cmr10 findfont
8.4 scalefont
setfont
5.326172 1.813875 moveto
/Delta glyphshow

/Cmr10 findfont
12.0 scalefont
setfont
12.323438 4.875000 moveto
/parenleft glyphshow

/Cmmi10 findfont
12.0 scalefont
setfont
16.981641 4.875000 moveto
/u glyphshow

23.842969 4.875000 moveto
/comma glyphshow

27.403125 4.875000 moveto
/v glyphshow

/Cmr10 findfont
12.0 scalefont
setfont
33.209766 4.875000 moveto
/parenright glyphshow

/DejaVuSans findfont
12.0 scalefont
setfont
37.867969 4.875000 moveto
/space glyphshow

41.682422 4.875000 moveto
/i glyphshow

45.016406 4.875000 moveto
/n glyphshow

52.621875 4.875000 moveto
/space glyphshow

56.436328 4.875000 moveto
/B glyphshow


grestore
0.000 0.000 1.000 setrgbcolor
/DejaVuSans findfont
20.000 scalefont
setfont
374.4 311.04 m
(A) show
1.000 0.000 0.000 setrgbcolor
449.28 216 m
(B) show

end
showpage
