%!PS-Adobe-3.0 EPSF-3.0
%%Title: foo.eps
%%Creator: matplotlib version 0.99.3, http://matplotlib.sourceforge.net/
%%CreationDate: Sun Dec 22 10:35:00 2013
%%Orientation: portrait
%%BoundingBox: 18 180 594 612
%%EndComments
%%BeginProlog
/mpldict 10 dict def
mpldict begin
/m { moveto } bind def
/l { lineto } bind def
/r { rlineto } bind def
/c { curveto } bind def
/cl { closepath } bind def
/box {
m
1 index 0 r
0 exch r
neg 0 r
cl
} bind def
/clipbox {
box
clip
newpath
} bind def
%!PS-Adobe-3.0 Resource-Font
%%Title: DejaVu Sans
%%Copyright: Copyright (c) 2003 by Bitstream, Inc. All Rights Reserved. Copyright (c) 2006 by Tavmjong Bah. All Rights Reserved. DejaVu changes are in public domain 
%%Creator: Converted from TrueType by PPR
25 dict begin
/_d{bind def}bind def
/_m{moveto}_d
/_l{lineto}_d
/_cl{closepath eofill}_d
/_c{curveto}_d
/_sc{7 -1 roll{setcachedevice}{pop pop pop pop pop pop}ifelse}_d
/_e{exec}_d
/FontName /DejaVuSans def
/PaintType 0 def
/FontMatrix[.001 0 0 .001 0 0]def
/FontBBox[-1020 -414 1681 1167]def
/FontType 3 def
/Encoding StandardEncoding def
/FontInfo 10 dict dup begin
/FamilyName (DejaVu Sans) def
/FullName (DejaVu Sans) def
/Notice (Copyright (c) 2003 by Bitstream, Inc. All Rights Reserved. Copyright (c) 2006 by Tavmjong Bah. All Rights Reserved. DejaVu changes are in public domain ) def
/Weight (Book) def
/Version (Version 2.31) def
/ItalicAngle 0.0 def
/isFixedPitch false def
/UnderlinePosition -130 def
/UnderlineThickness 90 def
end readonly def
/CharStrings 12 dict dup begin
/period{318 0 107 0 210 124 _sc
107 124 _m
210 124 _l
210 0 _l
107 0 _l
107 124 _l
_cl}_d
/zero{636 0 66 -13 570 742 _sc
318 664 _m
267 664 229 639 203 589 _c
177 539 165 464 165 364 _c
165 264 177 189 203 139 _c
229 89 267 64 318 64 _c
369 64 407 89 433 139 _c
458 189 471 264 471 364 _c
471 464 458 539 433 589 _c
407 639 369 664 318 664 _c
318 742 _m
399 742 461 709 505 645 _c
548 580 570 486 570 364 _c
570 241 548 147 505 83 _c
461 19 399 -13 318 -13 _c
236 -13 173 19 130 83 _c
87 147 66 241 66 364 _c
66 486 87 580 130 645 _c
173 709 236 742 318 742 _c
_cl}_d
/one{636 0 110 0 544 729 _sc
124 83 _m
285 83 _l
285 639 _l
110 604 _l
110 694 _l
284 729 _l
383 729 _l
383 83 _l
544 83 _l
544 0 _l
124 0 _l
124 83 _l
_cl}_d
/two{{636 0 73 0 536 742 _sc
192 83 _m
536 83 _l
536 0 _l
73 0 _l
73 83 _l
110 121 161 173 226 239 _c
290 304 331 346 348 365 _c
380 400 402 430 414 455 _c
426 479 433 504 433 528 _c
433 566 419 598 392 622 _c
365 646 330 659 286 659 _c
255 659 222 653 188 643 _c
154 632 117 616 78 594 _c
78 694 _l
118 710 155 722 189 730 _c
223 738 255 742 284 742 _c
359 742 419 723 464 685 _c
509 647 532 597 532 534 _c
532 504 526 475 515 449 _c
504 422 484 390 454 354 _c
446 344 420 317 376 272 _c
332 227 271 164 192 83 _c
_cl}_e}_d
/three{{636 0 76 -13 556 742 _sc
406 393 _m
453 383 490 362 516 330 _c
542 298 556 258 556 212 _c
556 140 531 84 482 45 _c
432 6 362 -13 271 -13 _c
240 -13 208 -10 176 -4 _c
144 1 110 10 76 22 _c
76 117 _l
103 101 133 89 166 81 _c
198 73 232 69 268 69 _c
330 69 377 81 409 105 _c
441 129 458 165 458 212 _c
458 254 443 288 413 312 _c
383 336 341 349 287 349 _c
202 349 _l
202 430 _l
291 430 _l
339 430 376 439 402 459 _c
428 478 441 506 441 543 _c
441 580 427 609 401 629 _c
374 649 336 659 287 659 _c
260 659 231 656 200 650 _c
169 644 135 635 98 623 _c
98 711 _l
135 721 170 729 203 734 _c
235 739 266 742 296 742 _c
}_e{370 742 429 725 473 691 _c
517 657 539 611 539 553 _c
539 513 527 479 504 451 _c
481 423 448 403 406 393 _c
_cl}_e}_d
/four{636 0 49 0 580 729 _sc
378 643 _m
129 254 _l
378 254 _l
378 643 _l
352 729 _m
476 729 _l
476 254 _l
580 254 _l
580 172 _l
476 172 _l
476 0 _l
378 0 _l
378 172 _l
49 172 _l
49 267 _l
352 729 _l
_cl}_d
/five{{636 0 77 -13 549 729 _sc
108 729 _m
495 729 _l
495 646 _l
198 646 _l
198 467 _l
212 472 227 476 241 478 _c
255 480 270 482 284 482 _c
365 482 429 459 477 415 _c
525 370 549 310 549 234 _c
549 155 524 94 475 51 _c
426 8 357 -13 269 -13 _c
238 -13 207 -10 175 -6 _c
143 -1 111 6 77 17 _c
77 116 _l
106 100 136 88 168 80 _c
199 72 232 69 267 69 _c
323 69 368 83 401 113 _c
433 143 450 183 450 234 _c
450 284 433 324 401 354 _c
368 384 323 399 267 399 _c
241 399 214 396 188 390 _c
162 384 135 375 108 363 _c
108 729 _l
_cl}_e}_d
/six{{636 0 70 -13 573 742 _sc
330 404 _m
286 404 251 388 225 358 _c
199 328 186 286 186 234 _c
186 181 199 139 225 109 _c
251 79 286 64 330 64 _c
374 64 409 79 435 109 _c
461 139 474 181 474 234 _c
474 286 461 328 435 358 _c
409 388 374 404 330 404 _c
526 713 _m
526 623 _l
501 635 476 644 451 650 _c
425 656 400 659 376 659 _c
310 659 260 637 226 593 _c
192 549 172 482 168 394 _c
187 422 211 444 240 459 _c
269 474 301 482 336 482 _c
409 482 467 459 509 415 _c
551 371 573 310 573 234 _c
573 159 550 99 506 54 _c
462 9 403 -13 330 -13 _c
246 -13 181 19 137 83 _c
92 147 70 241 70 364 _c
70 479 97 571 152 639 _c
206 707 280 742 372 742 _c
}_e{396 742 421 739 447 735 _c
472 730 498 723 526 713 _c
_cl}_e}_d
/seven{636 0 82 0 551 729 _sc
82 729 _m
551 729 _l
551 687 _l
286 0 _l
183 0 _l
432 646 _l
82 646 _l
82 729 _l
_cl}_d
/eight{{636 0 68 -13 568 742 _sc
318 346 _m
271 346 234 333 207 308 _c
180 283 167 249 167 205 _c
167 161 180 126 207 101 _c
234 76 271 64 318 64 _c
364 64 401 76 428 102 _c
455 127 469 161 469 205 _c
469 249 455 283 429 308 _c
402 333 365 346 318 346 _c
219 388 _m
177 398 144 418 120 447 _c
96 476 85 511 85 553 _c
85 611 105 657 147 691 _c
188 725 245 742 318 742 _c
390 742 447 725 489 691 _c
530 657 551 611 551 553 _c
551 511 539 476 515 447 _c
491 418 459 398 417 388 _c
464 377 501 355 528 323 _c
554 291 568 251 568 205 _c
568 134 546 80 503 43 _c
459 5 398 -13 318 -13 _c
237 -13 175 5 132 43 _c
89 80 68 134 68 205 _c
68 251 81 291 108 323 _c
134 355 171 377 219 388 _c
}_e{183 544 _m
183 506 194 476 218 455 _c
242 434 275 424 318 424 _c
360 424 393 434 417 455 _c
441 476 453 506 453 544 _c
453 582 441 611 417 632 _c
393 653 360 664 318 664 _c
275 664 242 653 218 632 _c
194 611 183 582 183 544 _c
_cl}_e}_d
/A{684 0 8 0 676 729 _sc
342 632 _m
208 269 _l
476 269 _l
342 632 _l
286 729 _m
398 729 _l
676 0 _l
573 0 _l
507 187 _l
178 187 _l
112 0 _l
8 0 _l
286 729 _l
_cl}_d
/B{{686 0 98 0 615 729 _sc
197 348 _m
197 81 _l
355 81 _l
408 81 447 92 473 114 _c
498 136 511 169 511 215 _c
511 260 498 293 473 315 _c
447 337 408 348 355 348 _c
197 348 _l
197 648 _m
197 428 _l
343 428 _l
391 428 426 437 450 455 _c
474 473 486 500 486 538 _c
486 574 474 602 450 620 _c
426 638 391 648 343 648 _c
197 648 _l
98 729 _m
350 729 _l
425 729 483 713 524 682 _c
564 650 585 606 585 549 _c
585 504 574 468 553 442 _c
532 416 502 399 462 393 _c
510 382 548 360 575 327 _c
601 294 615 253 615 204 _c
615 138 592 88 548 53 _c
504 17 441 0 360 0 _c
98 0 _l
98 729 _l
}_e{_cl}_e}_d
end readonly def

/BuildGlyph
 {exch begin
 CharStrings exch
 2 copy known not{pop /.notdef}if
 true 3 1 roll get exec
 end}_d

/BuildChar {
 1 index /Encoding get exch get
 1 index /BuildGlyph get exec
}_d

FontName currentdict end definefont pop
%!PS-Adobe-3.0 Resource-Font
%%Title: cmr10
%%Copyright: Copyright (C) 1994, Basil K. Malyshev. All Rights Reserved.012BaKoMa Fonts Collection, Level-B.
%%Creator: Converted from TrueType by PPR
25 dict begin
/_d{bind def}bind def
/_m{moveto}_d
/_l{lineto}_d
/_cl{closepath eofill}_d
/_c{curveto}_d
/_sc{7 -1 roll{setcachedevice}{pop pop pop pop pop pop}ifelse}_d
/_e{exec}_d
/FontName /Cmr10 def
/PaintType 0 def
/FontMatrix[.001 0 0 .001 0 0]def
/FontBBox[-43 -249 1009 750]def
/FontType 3 def
/Encoding StandardEncoding def
/FontInfo 10 dict dup begin
/FamilyName (cmr10) def
/FullName (cmr10) def
/Notice (Copyright (C) 1994, Basil K. Malyshev. All Rights Reserved.012BaKoMa Fonts Collection, Level-B. ) def
/Weight (Regular) def
/Version (1.1/12-Nov-94) def
/ItalicAngle 0.0 def
/isFixedPitch false def
/UnderlinePosition -133 def
/UnderlineThickness 20 def
end readonly def
/CharStrings 3 dict dup begin
/Delta{833 0 46 0 786 716 _sc
54 0 _m
48 0 46 2 46 8 _c
46 8 46 9 46 9 _c
46 9 47 10 47 11 _c
391 705 _l
394 712 400 716 409 716 _c
423 716 _l
432 716 438 712 441 705 _c
785 11 _l
785 10 786 9 786 9 _c
786 9 786 8 786 8 _c
786 2 783 0 778 0 _c
54 0 _l
120 80 _m
647 80 _l
384 611 _l
120 80 _l
_cl}_d
/parenright{{388 0 56 -249 291 750 _sc
65 -249 _m
59 -249 56 -246 56 -240 _c
56 -237 56 -235 58 -234 _c
172 -122 229 38 229 250 _c
229 462 172 623 60 733 _c
57 734 56 737 56 741 _c
56 743 57 745 59 747 _c
61 749 63 750 65 750 _c
74 750 _l
76 750 77 749 79 748 _c
127 710 167 664 199 610 _c
231 556 254 498 269 437 _c
283 376 291 314 291 250 _c
291 202 287 156 279 110 _c
271 64 258 20 241 -24 _c
223 -68 201 -108 175 -146 _c
148 -184 116 -217 79 -247 _c
77 -248 76 -249 74 -249 _c
65 -249 _l
_cl}_e}_d
/parenleft{{388 0 97 -249 332 750 _sc
310 -247 _m
272 -217 240 -184 214 -146 _c
187 -108 165 -67 148 -25 _c
131 17 118 62 110 109 _c
101 155 97 202 97 250 _c
97 298 101 345 110 392 _c
118 438 131 483 149 527 _c
166 570 188 611 215 649 _c
242 687 274 720 310 748 _c
310 749 311 750 315 750 _c
324 750 _l
326 750 327 749 329 747 _c
331 745 332 743 332 741 _c
332 738 331 736 330 735 _c
297 703 270 668 248 632 _c
226 596 209 557 196 516 _c
183 474 174 432 168 388 _c
162 344 159 298 159 250 _c
159 38 215 -122 329 -232 _c
331 -234 332 -236 332 -240 _c
332 -242 331 -244 329 -246 _c
327 -248 326 -249 324 -249 _c
315 -249 _l
311 -249 310 -248 310 -247 _c
_cl}_e}_d
end readonly def

/BuildGlyph
 {exch begin
 CharStrings exch
 2 copy known not{pop /.notdef}if
 true 3 1 roll get exec
 end}_d

/BuildChar {
 1 index /Encoding get exch get
 1 index /BuildGlyph get exec
}_d

FontName currentdict end definefont pop
%!PS-Adobe-3.0 Resource-Font
%%Title: cmmi10
%%Copyright: Copyright (C) 1994, Basil K. Malyshev. All Rights Reserved.012BaKoMa Fonts Collection, Level-B.
%%Creator: Converted from TrueType by PPR
25 dict begin
/_d{bind def}bind def
/_m{moveto}_d
/_l{lineto}_d
/_cl{closepath eofill}_d
/_c{curveto}_d
/_sc{7 -1 roll{setcachedevice}{pop pop pop pop pop pop}ifelse}_d
/_e{exec}_d
/FontName /Cmmi10 def
/PaintType 0 def
/FontMatrix[.001 0 0 .001 0 0]def
/FontBBox[-33 -249 1048 750]def
/FontType 3 def
/Encoding StandardEncoding def
/FontInfo 10 dict dup begin
/FamilyName (cmmi10) def
/FullName (cmmi10) def
/Notice (Copyright (C) 1994, Basil K. Malyshev. All Rights Reserved.012BaKoMa Fonts Collection, Level-B. ) def
/Weight (Regular) def
/Version (1.1/12-Nov-94) def
/ItalicAngle 0.0 def
/isFixedPitch false def
/UnderlinePosition -133 def
/UnderlineThickness 20 def
end readonly def
/CharStrings 3 dict dup begin
/delta{{444 0 40 -14 451 713 _sc
200 -14 _m
177 -14 156 -9 136 -1 _c
116 7 98 19 84 35 _c
69 51 58 70 51 90 _c
43 110 40 131 40 155 _c
40 196 49 236 69 276 _c
89 315 116 349 150 378 _c
184 406 221 426 261 436 _c
241 472 226 503 216 529 _c
206 555 201 582 201 610 _c
201 630 205 647 215 663 _c
224 679 237 691 254 700 _c
270 708 289 713 310 713 _c
330 713 369 706 428 693 _c
443 689 451 680 451 666 _c
451 654 447 644 439 635 _c
431 626 421 622 410 622 _c
402 622 394 623 388 627 _c
381 631 371 637 357 647 _c
343 657 330 664 319 669 _c
308 674 297 677 285 677 _c
271 677 259 672 248 664 _c
237 656 232 645 232 632 _c
232 610 241 586 260 559 _c
278 531 305 496 340 453 _c
379 403 399 347 399 287 _c
399 257 394 224 386 190 _c
377 155 364 122 348 91 _c
332 60 311 35 285 15 _c
259 -4 231 -14 200 -14 _c
202 12 _m
}_e{228 12 250 25 269 52 _c
287 79 301 111 311 149 _c
321 186 326 217 326 243 _c
326 293 308 349 274 411 _c
238 401 208 380 183 349 _c
157 318 138 282 125 242 _c
112 201 106 162 106 126 _c
106 94 114 67 131 45 _c
147 23 171 12 202 12 _c
_cl}_e}_d
/B{{758 0 40 0 756 683 _sc
50 0 _m
43 0 40 4 40 13 _c
40 15 41 17 42 21 _c
42 25 43 28 45 31 _c
47 33 49 35 53 35 _c
72 35 89 35 103 36 _c
117 37 128 39 138 42 _c
146 44 152 53 157 69 _c
294 618 _l
295 624 296 629 296 632 _c
296 639 292 643 284 644 _c
271 646 247 648 212 648 _c
205 648 202 652 202 661 _c
202 663 203 666 204 670 _c
205 674 206 677 208 679 _c
210 681 212 683 215 683 _c
573 683 _l
595 683 616 680 638 675 _c
659 669 679 661 697 649 _c
715 637 729 623 740 606 _c
750 588 756 568 756 545 _c
756 519 749 496 736 475 _c
723 453 706 435 686 419 _c
666 403 644 389 620 379 _c
596 369 572 361 547 357 _c
}_e{565 357 583 353 602 346 _c
620 338 637 328 652 316 _c
666 304 678 289 687 272 _c
696 255 701 237 701 217 _c
701 177 687 140 659 107 _c
631 73 595 47 553 28 _c
511 9 470 0 430 0 _c
50 0 _l
234 43 _m
234 37 245 35 268 35 _c
411 35 _l
443 35 475 44 505 62 _c
535 80 559 104 577 134 _c
595 164 604 195 604 228 _c
604 248 599 266 591 284 _c
583 302 571 316 555 326 _c
539 336 522 342 502 342 _c
307 342 _l
238 65 _l
235 55 234 48 234 43 _c
314 368 _m
466 368 _l
498 368 529 376 559 392 _c
589 408 613 431 632 459 _c
651 487 661 516 661 548 _c
661 576 652 600 634 619 _c
616 638 592 648 564 648 _c
427 648 _l
409 648 396 646 390 643 _c
384 639 379 630 375 614 _c
314 368 _l
_cl}_e}_d
/A{{750 0 35 0 723 716 _sc
45 0 _m
38 0 35 4 35 13 _c
37 27 42 35 48 35 _c
74 35 97 40 117 51 _c
137 61 154 78 169 101 _c
170 102 171 103 171 103 _c
528 705 _l
533 712 539 716 547 716 _c
560 716 _l
562 716 564 715 566 714 _c
568 713 569 712 571 710 _c
572 708 573 707 573 705 _c
634 59 _l
634 56 635 52 638 46 _c
644 38 669 35 713 35 _c
719 35 723 30 723 22 _c
721 13 719 7 717 4 _c
715 1 712 0 706 0 _c
456 0 _l
450 0 447 4 447 13 _c
}_e{450 27 454 35 460 35 _c
512 35 540 44 544 62 _c
529 227 _l
282 227 _l
202 93 _l
197 85 195 77 195 68 _c
195 56 200 47 212 42 _c
223 37 235 35 249 35 _c
255 35 259 30 259 22 _c
256 12 254 6 253 4 _c
251 1 248 0 242 0 _c
45 0 _l
302 262 _m
525 262 _l
495 586 _l
302 262 _l
_cl}_e}_d
end readonly def

/BuildGlyph
 {exch begin
 CharStrings exch
 2 copy known not{pop /.notdef}if
 true 3 1 roll get exec
 end}_d

/BuildChar {
 1 index /Encoding get exch get
 1 index /BuildGlyph get exec
}_d

FontName currentdict end definefont pop
end
%%EndProlog
mpldict begin
18 180 translate
576 432 0 0 clipbox
1.000 setlinewidth
1 setlinejoin
2 setlinecap
[] 0 setdash
1.000 setgray
gsave
0 0 m
576 0 l
576 432 l
0 432 l
0 0 l
gsave
fill
grestore
stroke
grestore
gsave
72 43.2 m
518.4 43.2 l
518.4 388.8 l
72 388.8 l
72 43.2 l
fill
grestore
0.000 0.000 1.000 setrgbcolor
gsave
446.4 345.6 72 43.2 clipbox
72 334.549 m
482.688 334.549 l
stroke
grestore
1.000 0.000 0.000 setrgbcolor
gsave
446.4 345.6 72 43.2 clipbox
482.688 345.946 m
518.4 345.946 l
stroke
grestore
0.000 0.000 1.000 setrgbcolor
gsave
446.4 345.6 72 43.2 clipbox
72 44.2771 m
91.1971 44.7216 l
102.427 45.17 l
121.624 46.4691 l
132.853 47.6339 l
143.038 49.4953 l
145.09 49.525 l
154.969 52.213 l
157.608 53.2241 l
158.839 53.2268 l
160.018 53.8542 l
165.259 55.1169 l
167.106 55.9879 l
167.986 56.7934 l
169.665 57.5624 l
175.517 60.2238 l
176.169 61.5426 l
176.805 61.6146 l
177.428 62.1262 l
178.632 62.1343 l
179.215 62.7107 l
180.894 63.1507 l
181.96 64.2647 l
182.985 64.5894 l
185.395 65.6567 l
185.853 66.9504 l
186.747 67.1055 l
188.035 69.6258 l
189.665 69.9944 l
190.827 70.8135 l
191.204 71.8555 l
192.662 72.2951 l
195.042 73.6881 l
195.686 74.8136 l
197.234 75.8092 l
198.122 76.1049 l
199.265 76.5802 l
200.091 76.9529 l
200.629 78.4233 l
202.682 79.6318 l
205.276 80.2379 l
206.163 80.7474 l
206.38 81.3592 l
206.595 83.1933 l
210.024 85.5706 l
210.213 86.5706 l
211.139 86.8709 l
213.244 88.4063 l
215.512 89.8344 l
219.959 91.3633 l
220.999 91.9727 l
223.558 93.124 l
224.586 94.1606 l
225.469 94.8214 l
226.006 98.4923 l
227.66 99.2994 l
230.154 99.9992 l
230.967 100.264 l
233.76 101.123 l
234.865 101.378 l
235.628 101.881 l
236.516 102.201 l
244.774 108.412 l
245.31 109.599 l
250.824 113.422 l
253.868 115.337 l
256.362 116.181 l
258.287 116.656 l
263.781 118.514 l
264.347 137.169 l
267.089 137.429 l
274.544 138.108 l
282.814 139.428 l
284.19 139.834 l
291.909 140.635 l
294.389 140.956 l
295.494 141.173 l
298.247 141.51 l
300.178 141.913 l
302.655 142.35 l
307.616 143.199 l
308.718 143.355 l
318.366 144.963 l
324.98 146.606 l
326.085 146.888 l
330.768 147.944 l
332.422 148.344 l
333.799 148.798 l
335.453 149.236 l
336.004 149.593 l
336.832 149.882 l
337.658 150.569 l
338.76 150.938 l
340.69 151.417 l
341.517 151.546 l
343.446 153.267 l
345.65 153.869 l
347.304 154.16 l
347.855 154.494 l
348.407 154.764 l
348.958 155.888 l
349.509 156.2 l
351.438 156.634 l
356.123 157.672 l
356.674 160.924 l
358.879 161.396 l
364.39 164.088 l
364.942 164.299 l
367.422 165.411 l
367.973 171.126 l
368.8 171.421 l
369.626 171.702 l
370.728 172.049 l
373.209 172.762 l
375.414 173.403 l
378.721 174.363 l
379.547 175.206 l
380.099 177.325 l
381.201 179.456 l
381.476 179.563 l
382.303 182.127 l
383.405 182.532 l
386.437 186.153 l
386.713 187.048 l
387.263 201.712 l
388.09 201.836 l
389.193 202.748 l
397.46 207.597 l
398.287 210.558 l
398.562 210.562 l
402.972 215.567 l
403.523 215.888 l
403.798 215.979 l
404.35 216.552 l
404.625 216.622 l
405.452 217.604 l
408.759 220.21 l
409.31 221.047 l
410.688 222.211 l
411.239 222.363 l
412.617 223.619 l
413.168 224.166 l
413.719 224.276 l
415.648 226.625 l
416.2 226.871 l
416.475 227.107 l
417.026 227.888 l
417.577 228.316 l
418.404 231.192 l
418.955 232.037 l
419.507 232.562 l
420.058 232.619 l
421.711 234.456 l
422.262 234.586 l
422.814 235.758 l
423.64 235.967 l
425.294 238.06 l
426.396 239.735 l
426.672 239.825 l
427.223 240.781 l
427.774 241.021 l
428.876 241.977 l
429.427 242.27 l
429.979 243.173 l
430.254 243.2 l
431.357 245.087 l
431.908 245.177 l
432.459 246.433 l
434.388 249.712 l
435.49 251.247 l
436.868 253.898 l
437.695 255.572 l
437.97 255.851 l
438.797 258.195 l
439.348 264.893 l
439.9 266.902 l
440.451 267.014 l
441.002 268.688 l
441.553 269.247 l
441.829 269.247 l
442.655 270.921 l
444.584 273.433 l
445.136 273.712 l
445.962 274.27 l
446.513 275.107 l
447.065 275.386 l
449.269 279.293 l
449.545 279.293 l
450.647 281.805 l
451.198 281.805 l
451.749 282.642 l
453.679 285.991 l
453.954 285.991 l
454.505 287.665 l
455.056 287.665 l
455.883 289.34 l
456.985 289.34 l
458.915 292.688 l
461.395 292.688 l
463.324 296.037 l
463.599 296.037 l
464.426 297.712 l
465.804 297.712 l
466.631 299.386 l
467.458 299.386 l
468.009 301.06 l
468.284 301.06 l
469.662 304.409 l
469.938 304.409 l
470.489 306.084 l
471.316 306.084 l
472.142 307.758 l
472.418 307.758 l
473.245 309.433 l
473.52 309.433 l
474.347 316.13 l
474.898 316.13 l
476.001 321.153 l
476.276 321.153 l
476.827 324.502 l
477.378 324.502 l
477.93 327.851 l
478.205 327.851 l
478.756 329.526 l
479.032 329.526 l
479.583 331.2 l
479.859 331.2 l
480.134 334.549 l
480.134 334.549 l
stroke
grestore
0.500 setlinewidth
0 setlinecap
0.000 setgray
gsave
446.4 345.6 72 43.2 clipbox
/o {
gsave
newpath
translate
0 -3 m
0.795609 -3 1.55874 -2.6839 2.12132 -2.12132 c
2.6839 -1.55874 3 -0.795609 3 0 c
3 0.795609 2.6839 1.55874 2.12132 2.12132 c
1.55874 2.6839 0.795609 3 0 3 c
-0.795609 3 -1.55874 2.6839 -2.12132 2.12132 c
-2.6839 1.55874 -3 0.795609 -3 0 c
-3 -0.795609 -2.6839 -1.55874 -2.12132 -2.12132 c
-1.55874 -2.6839 -0.795609 -3 0 -3 c
cl
gsave
0.000 0.000 1.000 setrgbcolor
fill
grestore
stroke
grestore
} bind def
72 44.2771 o
91.1971 44.7216 o
102.427 45.17 o
110.394 45.5864 o
116.574 46.0691 o
121.624 46.4691 o
125.893 46.8476 o
129.591 47.2416 o
132.853 47.6339 o
135.771 48.215 o
138.411 48.5139 o
140.821 48.9943 o
143.038 49.4953 o
145.09 49.525 o
147.001 50.0123 o
148.788 50.5557 o
150.467 50.7954 o
152.051 51.3029 o
153.548 51.8429 o
154.969 52.213 o
156.32 52.7782 o
157.608 53.2241 o
158.839 53.2268 o
160.018 53.8542 o
161.149 54.0653 o
162.235 54.4725 o
163.28 54.5618 o
164.287 54.7378 o
165.259 55.1169 o
166.198 55.5415 o
167.106 55.9879 o
167.986 56.7934 o
168.838 57.0316 o
169.665 57.5624 o
170.467 57.9636 o
171.248 58.1953 o
172.006 59.1043 o
172.745 59.2284 o
173.464 59.6896 o
174.166 59.9029 o
174.85 60.0683 o
175.517 60.2238 o
176.169 61.5426 o
176.805 61.6146 o
177.428 62.1262 o
178.036 62.1283 o
178.632 62.1343 o
179.215 62.7107 o
179.786 62.769 o
180.346 62.8574 o
180.894 63.1507 o
181.432 64.0312 o
181.96 64.2647 o
182.477 64.5692 o
182.985 64.5894 o
183.484 64.7522 o
183.975 65.0312 o
184.456 65.3071 o
184.93 65.4456 o
185.395 65.6567 o
185.853 66.9504 o
186.303 67.0553 o
186.747 67.1055 o
187.183 67.9606 o
187.612 69.2848 o
188.035 69.6258 o
188.451 69.661 o
188.862 69.6848 o
189.266 69.8438 o
189.665 69.9944 o
190.057 70.212 o
190.445 70.5329 o
190.827 70.8135 o
191.204 71.8555 o
191.575 71.8843 o
191.942 72.1741 o
192.304 72.2747 o
192.662 72.2951 o
193.014 72.5116 o
193.363 72.5756 o
193.707 72.8167 o
194.047 72.8801 o
194.382 73.1846 o
194.714 73.467 o
195.042 73.6881 o
195.366 74.564 o
195.686 74.8136 o
196.002 75.1106 o
196.315 75.3822 o
196.625 75.5591 o
196.931 75.5817 o
197.234 75.8092 o
197.533 75.8451 o
197.829 76.0642 o
198.122 76.1049 o
198.412 76.3291 o
198.699 76.3347 o
198.983 76.5763 o
199.265 76.5802 o
199.543 76.7359 o
199.818 76.8175 o
200.091 76.9529 o
200.362 78.2303 o
200.629 78.4233 o
200.894 78.624 o
201.157 78.8129 o
201.417 79.04 o
201.674 79.2469 o
201.93 79.36 o
202.183 79.4555 o
202.433 79.4801 o
202.682 79.6318 o
203.172 79.6889 o
203.414 79.8216 o
203.653 79.8681 o
203.891 79.966 o
204.127 80.0256 o
204.361 80.1065 o
204.822 80.1409 o
205.05 80.1413 o
205.276 80.2379 o
205.5 80.3508 o
205.723 80.5597 o
206.163 80.7474 o
206.38 81.3592 o
206.595 83.1933 o
207.021 83.5066 o
207.232 83.6515 o
207.441 84.0218 o
207.854 84.1635 o
208.059 84.3204 o
208.262 84.6463 o
208.663 84.7854 o
208.862 84.9637 o
209.059 85.2603 o
209.449 85.4149 o
209.642 85.5236 o
210.024 85.5706 o
210.213 86.5706 o
210.587 86.5764 o
210.772 86.7861 o
211.139 86.8709 o
211.321 87.0386 o
211.681 87.1513 o
211.859 87.273 o
212.212 87.5729 o
212.386 87.846 o
212.732 87.9946 o
213.074 88.2649 o
213.244 88.4063 o
213.579 88.6621 o
213.911 88.7973 o
214.076 89.0481 o
214.401 89.476 o
214.723 89.5947 o
214.883 89.721 o
215.2 89.7275 o
215.512 89.8344 o
215.822 89.9233 o
216.128 89.9824 o
216.28 89.9948 o
216.581 90.0489 o
216.879 90.2367 o
217.173 90.2395 o
217.465 90.4891 o
217.753 90.4956 o
218.039 90.7539 o
218.321 90.8392 o
218.601 90.8618 o
218.878 90.9875 o
219.152 91.1378 o
219.424 91.2212 o
219.693 91.345 o
219.959 91.3633 o
220.223 91.6228 o
220.484 91.7227 o
220.743 91.8033 o
220.999 91.9727 o
221.253 92.0562 o
221.63 92.183 o
221.879 92.2586 o
222.125 92.2646 o
222.369 92.3696 o
222.731 92.5439 o
222.97 92.7347 o
223.206 92.9755 o
223.558 93.124 o
223.789 93.4686 o
224.019 93.6946 o
224.361 93.9391 o
224.586 94.1606 o
224.92 94.389 o
225.141 94.5948 o
225.469 94.8214 o
225.685 98.2449 o
226.006 98.4923 o
226.324 98.7247 o
226.534 98.9797 o
226.846 99.0142 o
227.052 99.1836 o
227.358 99.2517 o
227.66 99.2994 o
227.96 99.3545 o
228.158 99.3651 o
228.452 99.5557 o
228.743 99.6489 o
229.031 99.6492 o
229.316 99.7108 o
229.598 99.9235 o
229.877 99.9748 o
230.154 99.9992 o
230.427 100.212 o
230.698 100.258 o
230.967 100.264 o
231.233 100.374 o
231.496 100.488 o
231.757 100.527 o
232.101 100.548 o
232.356 100.706 o
232.609 100.777 o
232.86 100.802 o
233.191 100.951 o
233.436 101.081 o
233.76 101.123 o
234 101.129 o
234.239 101.369 o
234.554 101.371 o
234.865 101.378 o
235.096 101.603 o
235.401 101.616 o
235.628 101.881 o
235.927 101.912 o
236.223 102.123 o
236.516 102.201 o
236.734 102.357 o
237.022 102.365 o
237.307 102.595 o
237.589 102.637 o
237.868 102.885 o
238.144 103.19 o
238.418 103.41 o
238.688 103.637 o
238.957 103.907 o
239.222 104.17 o
239.551 104.275 o
239.811 104.409 o
240.069 104.596 o
240.324 104.864 o
240.64 105.089 o
240.89 105.38 o
241.199 105.615 o
241.444 105.847 o
241.748 106.089 o
241.988 106.235 o
242.285 106.518 o
242.58 106.72 o
242.813 106.997 o
243.102 107.206 o
243.388 107.401 o
243.67 107.604 o
243.95 107.754 o
244.228 108.062 o
244.502 108.241 o
244.774 108.412 o
245.043 109.34 o
245.31 109.599 o
245.574 109.763 o
245.887 109.939 o
246.146 110.163 o
246.402 110.355 o
246.706 110.608 o
246.958 110.721 o
247.256 111.008 o
247.502 111.331 o
247.795 111.474 o
248.084 111.637 o
248.371 111.869 o
248.607 111.894 o
248.888 112.045 o
249.167 112.231 o
249.442 112.469 o
249.715 112.592 o
249.985 112.856 o
250.297 113.075 o
250.562 113.242 o
250.824 113.422 o
251.127 113.65 o
251.384 113.851 o
251.638 113.968 o
251.932 114.235 o
252.223 114.301 o
252.47 114.437 o
252.755 114.6 o
253.037 114.835 o
253.317 114.973 o
253.594 115.205 o
253.868 115.337 o
254.139 115.469 o
254.408 115.587 o
254.674 115.658 o
254.975 115.785 o
255.236 115.861 o
255.531 115.872 o
255.786 116.003 o
256.076 116.056 o
256.362 116.181 o
256.61 116.2 o
256.891 116.359 o
257.169 116.417 o
257.444 116.433 o
257.717 116.437 o
257.986 116.595 o
258.287 116.656 o
258.551 116.746 o
258.813 116.815 o
259.105 116.872 o
259.394 116.931 o
259.648 117.064 o
259.931 117.095 o
260.211 117.18 o
260.488 117.223 o
260.763 117.407 o
261.035 117.428 o
261.304 117.48 o
261.571 117.486 o
261.865 117.575 o
262.126 117.701 o
262.414 117.869 o
262.698 117.961 o
262.952 118.179 o
263.231 118.233 o
263.507 118.444 o
263.781 118.514 o
264.079 137.089 o
264.347 137.169 o
264.613 137.225 o
264.902 137.241 o
265.162 137.243 o
265.446 137.255 o
265.726 137.287 o
266.004 137.301 o
266.279 137.327 o
266.552 137.342 o
266.821 137.424 o
267.089 137.429 o
267.377 137.443 o
267.639 137.471 o
267.922 137.48 o
268.202 137.522 o
268.479 137.599 o
268.753 137.623 o
269.025 137.628 o
269.294 137.671 o
269.583 137.682 o
269.847 137.707 o
270.13 137.715 o
270.41 137.732 o
270.687 137.734 o
270.961 137.745 o
271.233 137.806 o
271.502 137.829 o
271.789 137.851 o
272.053 137.897 o
272.335 137.897 o
272.613 137.927 o
272.889 137.934 o
273.162 137.985 o
273.433 138.005 o
273.719 138.03 o
273.984 138.049 o
274.266 138.093 o
274.544 138.108 o
274.819 138.144 o
275.092 138.148 o
275.363 138.198 o
275.648 138.207 o
275.913 138.247 o
276.192 138.33 o
276.469 138.349 o
276.744 138.356 o
277.015 138.366 o
277.301 138.374 o
277.567 138.381 o
277.847 138.382 o
278.124 138.388 o
278.399 138.396 o
278.67 138.446 o
278.955 138.478 o
279.222 138.627 o
279.501 138.71 o
279.777 138.872 o
280.051 139.06 o
280.337 139.168 o
280.606 139.174 o
280.886 139.223 o
281.164 139.261 o
281.438 139.308 o
281.711 139.312 o
281.98 139.331 o
282.261 139.358 o
282.539 139.396 o
282.814 139.428 o
283.087 139.575 o
283.357 139.698 o
283.638 139.785 o
283.915 139.811 o
284.19 139.834 o
284.463 139.874 o
284.745 139.945 o
285.012 139.95 o
285.289 139.975 o
285.563 139.984 o
285.847 139.985 o
286.116 140.007 o
286.394 140.02 o
286.67 140.045 o
286.942 140.052 o
287.224 140.072 o
287.503 140.184 o
287.768 140.22 o
288.053 140.225 o
288.323 140.25 o
288.603 140.27 o
288.879 140.409 o
289.153 140.434 o
289.424 140.441 o
289.703 140.461 o
289.979 140.512 o
290.253 140.532 o
290.534 140.578 o
290.802 140.609 o
291.078 140.617 o
291.361 140.619 o
291.632 140.632 o
291.909 140.635 o
292.184 140.641 o
292.456 140.66 o
292.735 140.809 o
293.011 140.822 o
293.285 140.871 o
293.565 140.913 o
293.833 140.917 o
294.117 140.935 o
294.389 140.956 o
294.667 141.075 o
294.942 141.093 o
295.215 141.158 o
295.494 141.173 o
295.77 141.178 o
296.043 141.178 o
296.322 141.211 o
296.59 141.28 o
296.871 141.384 o
297.142 141.418 o
297.418 141.467 o
297.7 141.496 o
297.971 141.499 o
298.247 141.51 o
298.52 141.617 o
298.798 141.706 o
299.074 141.747 o
299.346 141.809 o
299.624 141.826 o
299.899 141.878 o
300.178 141.913 o
300.455 141.926 o
300.729 141.954 o
301 142.025 o
301.276 142.175 o
301.556 142.261 o
301.833 142.263 o
302.107 142.268 o
302.379 142.293 o
302.655 142.35 o
302.934 142.383 o
303.211 142.386 o
303.485 142.401 o
303.757 142.438 o
304.038 142.466 o
304.31 142.47 o
304.586 142.512 o
304.86 142.658 o
305.136 142.803 o
305.416 142.811 o
305.687 142.839 o
305.962 142.871 o
306.24 142.916 o
306.515 142.929 o
306.793 142.964 o
307.068 143.019 o
307.34 143.093 o
307.616 143.199 o
307.894 143.326 o
308.17 143.336 o
308.442 143.336 o
308.718 143.355 o
308.996 143.392 o
309.272 143.411 o
309.549 143.475 o
309.824 143.536 o
310.097 143.584 o
310.377 143.584 o
310.649 143.595 o
310.923 143.628 o
311.2 143.655 o
311.479 143.685 o
311.755 143.71 o
312.028 143.738 o
312.303 143.856 o
312.58 143.865 o
312.855 143.905 o
313.131 143.975 o
313.405 143.988 o
313.68 144.163 o
313.958 144.196 o
314.232 144.218 o
314.508 144.246 o
314.786 144.331 o
315.061 144.387 o
315.333 144.405 o
315.611 144.408 o
315.887 144.427 o
316.163 144.502 o
316.437 144.519 o
316.712 144.527 o
316.989 144.544 o
317.263 144.608 o
317.542 144.659 o
317.814 144.717 o
318.091 144.861 o
318.366 144.963 o
318.641 145.043 o
318.918 145.115 o
319.192 145.299 o
319.47 145.331 o
319.746 145.365 o
320.019 145.401 o
320.297 145.508 o
320.571 145.517 o
320.847 145.549 o
321.123 145.676 o
321.4 145.753 o
321.674 145.85 o
321.949 145.855 o
322.224 145.879 o
322.5 146.186 o
322.776 146.306 o
323.053 146.358 o
323.327 146.37 o
323.602 146.434 o
323.88 146.472 o
324.155 146.512 o
324.431 146.519 o
324.704 146.562 o
324.98 146.606 o
325.257 146.607 o
325.534 146.608 o
325.808 146.615 o
326.085 146.888 o
326.359 146.969 o
326.633 147.001 o
326.911 147.008 o
327.185 147.097 o
327.463 147.203 o
327.737 147.24 o
328.012 147.267 o
328.289 147.384 o
328.563 147.457 o
328.84 147.461 o
329.114 147.601 o
329.391 147.643 o
329.667 147.819 o
329.941 147.851 o
330.217 147.858 o
330.493 147.906 o
330.768 147.944 o
331.043 147.959 o
331.32 148.005 o
331.595 148.213 o
331.871 148.236 o
332.147 148.261 o
332.422 148.344 o
332.697 148.49 o
332.974 148.583 o
333.248 148.731 o
333.524 148.756 o
333.799 148.798 o
334.076 148.827 o
334.352 148.863 o
334.628 149.019 o
334.903 149.044 o
335.179 149.113 o
335.453 149.236 o
335.73 149.586 o
336.004 149.593 o
336.28 149.6 o
336.556 149.702 o
336.832 149.882 o
337.108 150.284 o
337.382 150.565 o
337.658 150.569 o
337.934 150.76 o
338.21 150.833 o
338.485 150.911 o
338.76 150.938 o
339.037 151.051 o
339.313 151.215 o
339.587 151.249 o
339.863 151.281 o
340.139 151.312 o
340.414 151.361 o
340.69 151.417 o
340.965 151.421 o
341.241 151.526 o
341.517 151.546 o
341.792 151.846 o
342.067 151.884 o
342.343 152.646 o
342.619 152.825 o
342.895 153.047 o
343.17 153.161 o
343.446 153.267 o
343.721 153.386 o
343.998 153.441 o
344.273 153.441 o
344.549 153.538 o
344.824 153.792 o
345.099 153.811 o
345.375 153.857 o
345.65 153.869 o
345.926 153.876 o
346.201 153.895 o
346.477 153.946 o
346.752 153.987 o
347.029 154.004 o
347.304 154.16 o
347.58 154.488 o
347.855 154.494 o
348.131 154.612 o
348.407 154.764 o
348.682 155.783 o
348.958 155.888 o
349.233 156.169 o
349.509 156.2 o
349.784 156.216 o
350.06 156.301 o
350.335 156.328 o
350.611 156.371 o
350.887 156.407 o
351.162 156.47 o
351.438 156.634 o
351.713 156.69 o
351.989 156.701 o
352.265 156.735 o
352.54 156.736 o
352.815 156.812 o
353.092 156.876 o
353.366 156.949 o
353.643 156.976 o
353.918 157.127 o
354.194 157.186 o
354.469 157.228 o
354.745 157.234 o
355.02 157.345 o
355.296 157.428 o
355.572 157.446 o
355.847 157.476 o
356.123 157.672 o
356.398 160.502 o
356.674 160.924 o
356.949 160.954 o
357.225 160.955 o
357.5 160.967 o
357.776 161.122 o
358.052 161.188 o
358.327 161.256 o
358.603 161.306 o
358.879 161.396 o
359.154 161.545 o
359.429 161.583 o
359.705 161.683 o
359.981 162.065 o
360.257 162.084 o
360.532 162.209 o
360.807 162.663 o
361.083 162.686 o
361.359 162.696 o
361.634 162.828 o
361.91 163.251 o
362.185 163.254 o
362.461 163.304 o
362.737 163.441 o
363.012 163.561 o
363.288 163.643 o
363.564 163.715 o
363.839 163.758 o
364.115 163.906 o
364.39 164.088 o
364.666 164.098 o
364.942 164.299 o
365.217 164.458 o
365.492 164.541 o
365.768 164.83 o
366.044 164.906 o
366.319 165.2 o
366.595 165.255 o
366.871 165.26 o
367.146 165.318 o
367.422 165.411 o
367.697 170.994 o
367.973 171.126 o
368.248 171.344 o
368.524 171.366 o
368.8 171.421 o
369.075 171.424 o
369.351 171.467 o
369.626 171.702 o
369.902 171.862 o
370.178 171.928 o
370.453 172.047 o
370.728 172.049 o
371.004 172.098 o
371.28 172.13 o
371.555 172.161 o
371.831 172.273 o
372.107 172.353 o
372.382 172.415 o
372.658 172.429 o
372.933 172.739 o
373.209 172.762 o
373.485 172.882 o
373.76 172.894 o
374.036 173.01 o
374.311 173.135 o
374.587 173.225 o
374.862 173.259 o
375.138 173.331 o
375.414 173.403 o
375.689 173.456 o
375.965 173.476 o
376.24 173.486 o
376.516 173.627 o
376.792 173.724 o
377.067 173.774 o
377.342 173.832 o
377.618 173.841 o
377.894 173.883 o
378.169 173.919 o
378.445 174.209 o
378.721 174.363 o
378.996 174.722 o
379.272 175.071 o
379.547 175.206 o
379.823 176.954 o
380.099 177.325 o
380.374 177.949 o
380.65 177.97 o
380.925 179.214 o
381.201 179.456 o
381.476 179.563 o
381.752 180.819 o
382.027 181.119 o
382.303 182.127 o
382.579 182.177 o
382.854 182.502 o
383.13 182.52 o
383.405 182.532 o
383.681 182.838 o
383.957 183.605 o
384.232 183.899 o
384.508 184.165 o
384.783 184.549 o
385.059 184.711 o
385.335 184.917 o
385.61 185.427 o
385.886 185.573 o
386.161 186.084 o
386.437 186.153 o
386.713 187.048 o
386.988 200.715 o
387.263 201.712 o
387.539 201.732 o
387.815 201.808 o
388.09 201.836 o
388.366 202.162 o
388.642 202.488 o
388.917 202.732 o
389.193 202.748 o
389.468 202.898 o
389.744 203.274 o
390.019 203.3 o
390.295 203.324 o
390.571 203.386 o
390.846 203.771 o
391.122 203.871 o
391.397 204.104 o
391.673 204.243 o
391.948 204.249 o
392.224 204.268 o
392.5 204.363 o
392.775 204.391 o
393.051 204.614 o
393.326 204.677 o
393.602 205.228 o
393.878 205.255 o
394.153 205.49 o
394.429 205.495 o
394.704 205.565 o
394.98 205.82 o
395.255 205.847 o
395.531 206.097 o
395.807 206.177 o
396.082 206.492 o
396.358 206.585 o
396.633 206.958 o
396.909 207.023 o
397.184 207.417 o
397.46 207.597 o
397.736 208.739 o
398.011 209.623 o
398.287 210.558 o
398.562 210.562 o
398.838 210.906 o
399.113 211.479 o
399.389 212.065 o
399.665 212.14 o
399.94 212.316 o
400.216 212.409 o
400.491 212.735 o
400.767 213.695 o
401.043 213.74 o
401.318 214.493 o
401.594 214.514 o
401.869 214.696 o
402.145 215.187 o
402.421 215.293 o
402.696 215.426 o
402.972 215.567 o
403.247 215.581 o
403.523 215.888 o
403.798 215.979 o
404.074 216.546 o
404.35 216.552 o
404.625 216.622 o
404.901 217.143 o
405.176 217.34 o
405.452 217.604 o
405.727 217.805 o
406.003 218.344 o
406.279 218.416 o
406.554 218.62 o
406.83 218.756 o
407.105 218.909 o
407.381 219.107 o
407.657 219.433 o
407.932 219.506 o
408.208 219.572 o
408.483 220.079 o
408.759 220.21 o
409.035 220.967 o
409.31 221.047 o
409.586 221.358 o
409.861 221.59 o
410.137 222.004 o
410.412 222.049 o
410.688 222.211 o
410.964 222.223 o
411.239 222.363 o
411.515 222.586 o
411.79 223.033 o
412.066 223.136 o
412.341 223.428 o
412.617 223.619 o
412.893 224.149 o
413.168 224.166 o
413.444 224.177 o
413.719 224.276 o
413.995 224.681 o
414.271 225.103 o
414.546 225.572 o
414.822 225.712 o
415.097 226.456 o
415.373 226.549 o
415.648 226.625 o
415.924 226.642 o
416.2 226.871 o
416.475 227.107 o
416.751 227.843 o
417.026 227.888 o
417.302 228.223 o
417.577 228.316 o
417.853 229.517 o
418.129 229.991 o
418.404 231.192 o
418.68 231.405 o
418.955 232.037 o
419.231 232.409 o
419.507 232.562 o
419.782 232.577 o
420.058 232.619 o
420.333 232.967 o
420.609 233.526 o
420.884 233.665 o
421.16 234.084 o
421.436 234.293 o
421.711 234.456 o
421.987 234.502 o
422.262 234.586 o
422.538 235.28 o
422.814 235.758 o
423.089 235.758 o
423.365 235.944 o
423.64 235.967 o
423.916 236.26 o
424.191 236.874 o
424.467 237.014 o
424.743 237.193 o
425.018 237.712 o
425.294 238.06 o
425.569 238.629 o
425.845 239.107 o
426.121 239.386 o
426.396 239.735 o
426.672 239.825 o
426.947 240.572 o
427.223 240.781 o
427.498 240.781 o
427.774 241.021 o
428.05 241.34 o
428.325 241.499 o
428.601 241.786 o
428.876 241.977 o
429.152 242.037 o
429.427 242.27 o
429.703 243.126 o
429.979 243.173 o
430.254 243.2 o
430.53 243.795 o
430.805 244.316 o
431.081 244.465 o
431.357 245.087 o
431.632 245.135 o
431.908 245.177 o
432.183 246.283 o
432.459 246.433 o
432.734 247.001 o
433.01 248.037 o
433.286 248.149 o
433.561 248.197 o
433.837 249.153 o
434.112 249.488 o
434.388 249.712 o
434.663 249.991 o
434.939 249.991 o
435.215 250.158 o
435.49 251.247 o
435.766 251.665 o
436.041 251.944 o
436.317 252.837 o
436.593 253.34 o
436.868 253.898 o
437.144 254.735 o
437.419 255.433 o
437.695 255.572 o
437.97 255.851 o
438.246 257.107 o
438.522 257.526 o
438.797 258.195 o
439.073 263.386 o
439.348 264.893 o
439.624 266.233 o
439.9 266.902 o
440.175 266.902 o
440.451 267.014 o
440.726 268.577 o
441.002 268.688 o
441.277 269.247 o
441.553 269.247 o
441.829 269.247 o
442.104 270.084 o
442.38 270.921 o
442.655 270.921 o
442.931 271.34 o
443.206 272.037 o
443.482 272.037 o
443.758 273.014 o
444.033 273.153 o
444.309 273.153 o
444.584 273.433 o
444.86 273.433 o
445.136 273.712 o
445.411 273.851 o
445.687 274.27 o
445.962 274.27 o
446.238 275.107 o
446.513 275.107 o
446.789 275.107 o
447.065 275.386 o
447.34 275.944 o
447.616 275.944 o
447.891 276.781 o
448.167 277.2 o
448.442 277.619 o
448.718 278.735 o
448.994 278.735 o
449.269 279.293 o
449.545 279.293 o
449.82 280.13 o
450.096 280.967 o
450.372 281.526 o
450.647 281.805 o
450.923 281.805 o
451.198 281.805 o
451.474 282.642 o
451.749 282.642 o
452.025 283.2 o
452.301 283.2 o
452.576 284.874 o
452.852 285.153 o
453.127 285.433 o
453.403 285.991 o
453.679 285.991 o
453.954 285.991 o
454.23 287.665 o
454.505 287.665 o
454.781 287.665 o
455.056 287.665 o
455.332 288.502 o
455.608 288.502 o
455.883 289.34 o
456.159 289.34 o
456.434 289.34 o
456.71 289.34 o
456.985 289.34 o
457.261 289.898 o
457.537 290.177 o
457.812 291.014 o
458.088 291.014 o
458.363 291.851 o
458.639 292.688 o
458.915 292.688 o
459.19 292.688 o
459.466 292.688 o
459.741 292.688 o
460.017 292.688 o
460.292 292.688 o
460.568 292.688 o
460.844 292.688 o
461.119 292.688 o
461.395 292.688 o
461.67 293.247 o
461.946 293.526 o
462.222 294.921 o
462.497 295.2 o
462.773 295.479 o
463.048 295.479 o
463.324 296.037 o
463.599 296.037 o
463.875 296.874 o
464.151 297.712 o
464.426 297.712 o
464.702 297.712 o
464.977 297.712 o
465.253 297.712 o
465.528 297.712 o
465.804 297.712 o
466.08 298.549 o
466.355 298.549 o
466.631 299.386 o
466.906 299.386 o
467.182 299.386 o
467.458 299.386 o
467.733 301.06 o
468.009 301.06 o
468.284 301.06 o
468.56 301.898 o
468.835 301.898 o
469.111 304.409 o
469.387 304.409 o
469.662 304.409 o
469.938 304.409 o
470.213 306.084 o
470.489 306.084 o
470.765 306.084 o
471.04 306.084 o
471.316 306.084 o
471.591 306.921 o
471.867 307.758 o
472.142 307.758 o
472.418 307.758 o
472.694 308.595 o
472.969 308.595 o
473.245 309.433 o
473.52 309.433 o
473.796 312.781 o
474.071 316.13 o
474.347 316.13 o
474.623 316.13 o
474.898 316.13 o
475.174 317.805 o
475.449 319.479 o
475.725 321.153 o
476.001 321.153 o
476.276 321.153 o
476.552 324.502 o
476.827 324.502 o
477.103 324.502 o
477.378 324.502 o
477.654 327.851 o
477.93 327.851 o
478.205 327.851 o
478.481 329.526 o
478.756 329.526 o
479.032 329.526 o
479.308 331.2 o
479.583 331.2 o
479.859 331.2 o
480.134 334.549 o
grestore
gsave
/o {
gsave
newpath
translate
0 0 m
0 4 l
stroke
grestore
} bind def
72 43.2 o
grestore
gsave
/o {
gsave
newpath
translate
0 0 m
0 -4 l
stroke
grestore
} bind def
72 388.8 o
grestore
gsave
61.000000 24.200000 translate
0.000000 rotate
/DejaVuSans findfont
12.0 scalefont
setfont
0.000000 1.828125 moveto
/one glyphshow

7.634766 1.828125 moveto
/zero glyphshow

/DejaVuSans findfont
8.4 scalefont
setfont
15.269531 8.765625 moveto
/zero glyphshow


grestore
gsave
/o {
gsave
newpath
translate
0 0 m
0 4 l
stroke
grestore
} bind def
135.771 43.2 o
grestore
gsave
/o {
gsave
newpath
translate
0 0 m
0 -4 l
stroke
grestore
} bind def
135.771 388.8 o
grestore
gsave
124.771429 24.200000 translate
0.000000 rotate
/DejaVuSans findfont
12.0 scalefont
setfont
0.000000 1.937500 moveto
/one glyphshow

7.634766 1.937500 moveto
/zero glyphshow

/DejaVuSans findfont
8.4 scalefont
setfont
15.269531 8.875000 moveto
/one glyphshow


grestore
gsave
/o {
gsave
newpath
translate
0 0 m
0 4 l
stroke
grestore
} bind def
199.543 43.2 o
grestore
gsave
/o {
gsave
newpath
translate
0 0 m
0 -4 l
stroke
grestore
} bind def
199.543 388.8 o
grestore
gsave
188.542857 24.200000 translate
0.000000 rotate
/DejaVuSans findfont
12.0 scalefont
setfont
0.000000 1.828125 moveto
/one glyphshow

7.634766 1.828125 moveto
/zero glyphshow

/DejaVuSans findfont
8.4 scalefont
setfont
15.269531 8.765625 moveto
/two glyphshow


grestore
gsave
/o {
gsave
newpath
translate
0 0 m
0 4 l
stroke
grestore
} bind def
263.314 43.2 o
grestore
gsave
/o {
gsave
newpath
translate
0 0 m
0 -4 l
stroke
grestore
} bind def
263.314 388.8 o
grestore
gsave
252.314286 24.200000 translate
0.000000 rotate
/DejaVuSans findfont
12.0 scalefont
setfont
0.000000 1.828125 moveto
/one glyphshow

7.634766 1.828125 moveto
/zero glyphshow

/DejaVuSans findfont
8.4 scalefont
setfont
15.269531 8.765625 moveto
/three glyphshow


grestore
gsave
/o {
gsave
newpath
translate
0 0 m
0 4 l
stroke
grestore
} bind def
327.086 43.2 o
grestore
gsave
/o {
gsave
newpath
translate
0 0 m
0 -4 l
stroke
grestore
} bind def
327.086 388.8 o
grestore
gsave
316.085714 24.200000 translate
0.000000 rotate
/DejaVuSans findfont
12.0 scalefont
setfont
0.000000 1.937500 moveto
/one glyphshow

7.634766 1.937500 moveto
/zero glyphshow

/DejaVuSans findfont
8.4 scalefont
setfont
15.269531 8.875000 moveto
/four glyphshow


grestore
gsave
/o {
gsave
newpath
translate
0 0 m
0 4 l
stroke
grestore
} bind def
390.857 43.2 o
grestore
gsave
/o {
gsave
newpath
translate
0 0 m
0 -4 l
stroke
grestore
} bind def
390.857 388.8 o
grestore
gsave
379.857143 24.200000 translate
0.000000 rotate
/DejaVuSans findfont
12.0 scalefont
setfont
0.000000 1.937500 moveto
/one glyphshow

7.634766 1.937500 moveto
/zero glyphshow

/DejaVuSans findfont
8.4 scalefont
setfont
15.269531 8.875000 moveto
/five glyphshow


grestore
gsave
/o {
gsave
newpath
translate
0 0 m
0 4 l
stroke
grestore
} bind def
454.629 43.2 o
grestore
gsave
/o {
gsave
newpath
translate
0 0 m
0 -4 l
stroke
grestore
} bind def
454.629 388.8 o
grestore
gsave
443.628571 24.200000 translate
0.000000 rotate
/DejaVuSans findfont
12.0 scalefont
setfont
0.000000 1.828125 moveto
/one glyphshow

7.634766 1.828125 moveto
/zero glyphshow

/DejaVuSans findfont
8.4 scalefont
setfont
15.269531 8.765625 moveto
/six glyphshow


grestore
gsave
/o {
gsave
newpath
translate
0 0 m
0 4 l
stroke
grestore
} bind def
518.4 43.2 o
grestore
gsave
/o {
gsave
newpath
translate
0 0 m
0 -4 l
stroke
grestore
} bind def
518.4 388.8 o
grestore
gsave
507.400000 24.200000 translate
0.000000 rotate
/DejaVuSans findfont
12.0 scalefont
setfont
0.000000 1.937500 moveto
/one glyphshow

7.634766 1.937500 moveto
/zero glyphshow

/DejaVuSans findfont
8.4 scalefont
setfont
15.269531 8.875000 moveto
/seven glyphshow


grestore
gsave
/o {
gsave
newpath
translate
0 0 m
0 2 l
stroke
grestore
} bind def
91.1971 43.2 o
grestore
gsave
/o {
gsave
newpath
translate
0 0 m
0 -2 l
stroke
grestore
} bind def
91.1971 388.8 o
grestore
gsave
/o {
gsave
newpath
translate
0 0 m
0 2 l
stroke
grestore
} bind def
110.394 43.2 o
grestore
gsave
/o {
gsave
newpath
translate
0 0 m
0 -2 l
stroke
grestore
} bind def
110.394 388.8 o
grestore
gsave
/o {
gsave
newpath
translate
0 0 m
0 2 l
stroke
grestore
} bind def
121.624 43.2 o
grestore
gsave
/o {
gsave
newpath
translate
0 0 m
0 -2 l
stroke
grestore
} bind def
121.624 388.8 o
grestore
gsave
/o {
gsave
newpath
translate
0 0 m
0 2 l
stroke
grestore
} bind def
129.591 43.2 o
grestore
gsave
/o {
gsave
newpath
translate
0 0 m
0 -2 l
stroke
grestore
} bind def
129.591 388.8 o
grestore
gsave
/o {
gsave
newpath
translate
0 0 m
0 2 l
stroke
grestore
} bind def
154.969 43.2 o
grestore
gsave
/o {
gsave
newpath
translate
0 0 m
0 -2 l
stroke
grestore
} bind def
154.969 388.8 o
grestore
gsave
/o {
gsave
newpath
translate
0 0 m
0 2 l
stroke
grestore
} bind def
174.166 43.2 o
grestore
gsave
/o {
gsave
newpath
translate
0 0 m
0 -2 l
stroke
grestore
} bind def
174.166 388.8 o
grestore
gsave
/o {
gsave
newpath
translate
0 0 m
0 2 l
stroke
grestore
} bind def
185.395 43.2 o
grestore
gsave
/o {
gsave
newpath
translate
0 0 m
0 -2 l
stroke
grestore
} bind def
185.395 388.8 o
grestore
gsave
/o {
gsave
newpath
translate
0 0 m
0 2 l
stroke
grestore
} bind def
193.363 43.2 o
grestore
gsave
/o {
gsave
newpath
translate
0 0 m
0 -2 l
stroke
grestore
} bind def
193.363 388.8 o
grestore
gsave
/o {
gsave
newpath
translate
0 0 m
0 2 l
stroke
grestore
} bind def
218.74 43.2 o
grestore
gsave
/o {
gsave
newpath
translate
0 0 m
0 -2 l
stroke
grestore
} bind def
218.74 388.8 o
grestore
gsave
/o {
gsave
newpath
translate
0 0 m
0 2 l
stroke
grestore
} bind def
237.937 43.2 o
grestore
gsave
/o {
gsave
newpath
translate
0 0 m
0 -2 l
stroke
grestore
} bind def
237.937 388.8 o
grestore
gsave
/o {
gsave
newpath
translate
0 0 m
0 2 l
stroke
grestore
} bind def
249.167 43.2 o
grestore
gsave
/o {
gsave
newpath
translate
0 0 m
0 -2 l
stroke
grestore
} bind def
249.167 388.8 o
grestore
gsave
/o {
gsave
newpath
translate
0 0 m
0 2 l
stroke
grestore
} bind def
257.134 43.2 o
grestore
gsave
/o {
gsave
newpath
translate
0 0 m
0 -2 l
stroke
grestore
} bind def
257.134 388.8 o
grestore
gsave
/o {
gsave
newpath
translate
0 0 m
0 2 l
stroke
grestore
} bind def
282.511 43.2 o
grestore
gsave
/o {
gsave
newpath
translate
0 0 m
0 -2 l
stroke
grestore
} bind def
282.511 388.8 o
grestore
gsave
/o {
gsave
newpath
translate
0 0 m
0 2 l
stroke
grestore
} bind def
301.709 43.2 o
grestore
gsave
/o {
gsave
newpath
translate
0 0 m
0 -2 l
stroke
grestore
} bind def
301.709 388.8 o
grestore
gsave
/o {
gsave
newpath
translate
0 0 m
0 2 l
stroke
grestore
} bind def
312.938 43.2 o
grestore
gsave
/o {
gsave
newpath
translate
0 0 m
0 -2 l
stroke
grestore
} bind def
312.938 388.8 o
grestore
gsave
/o {
gsave
newpath
translate
0 0 m
0 2 l
stroke
grestore
} bind def
320.906 43.2 o
grestore
gsave
/o {
gsave
newpath
translate
0 0 m
0 -2 l
stroke
grestore
} bind def
320.906 388.8 o
grestore
gsave
/o {
gsave
newpath
translate
0 0 m
0 2 l
stroke
grestore
} bind def
346.283 43.2 o
grestore
gsave
/o {
gsave
newpath
translate
0 0 m
0 -2 l
stroke
grestore
} bind def
346.283 388.8 o
grestore
gsave
/o {
gsave
newpath
translate
0 0 m
0 2 l
stroke
grestore
} bind def
365.48 43.2 o
grestore
gsave
/o {
gsave
newpath
translate
0 0 m
0 -2 l
stroke
grestore
} bind def
365.48 388.8 o
grestore
gsave
/o {
gsave
newpath
translate
0 0 m
0 2 l
stroke
grestore
} bind def
376.71 43.2 o
grestore
gsave
/o {
gsave
newpath
translate
0 0 m
0 -2 l
stroke
grestore
} bind def
376.71 388.8 o
grestore
gsave
/o {
gsave
newpath
translate
0 0 m
0 2 l
stroke
grestore
} bind def
384.677 43.2 o
grestore
gsave
/o {
gsave
newpath
translate
0 0 m
0 -2 l
stroke
grestore
} bind def
384.677 388.8 o
grestore
gsave
/o {
gsave
newpath
translate
0 0 m
0 2 l
stroke
grestore
} bind def
410.054 43.2 o
grestore
gsave
/o {
gsave
newpath
translate
0 0 m
0 -2 l
stroke
grestore
} bind def
410.054 388.8 o
grestore
gsave
/o {
gsave
newpath
translate
0 0 m
0 2 l
stroke
grestore
} bind def
429.251 43.2 o
grestore
gsave
/o {
gsave
newpath
translate
0 0 m
0 -2 l
stroke
grestore
} bind def
429.251 388.8 o
grestore
gsave
/o {
gsave
newpath
translate
0 0 m
0 2 l
stroke
grestore
} bind def
440.481 43.2 o
grestore
gsave
/o {
gsave
newpath
translate
0 0 m
0 -2 l
stroke
grestore
} bind def
440.481 388.8 o
grestore
gsave
/o {
gsave
newpath
translate
0 0 m
0 2 l
stroke
grestore
} bind def
448.448 43.2 o
grestore
gsave
/o {
gsave
newpath
translate
0 0 m
0 -2 l
stroke
grestore
} bind def
448.448 388.8 o
grestore
gsave
/o {
gsave
newpath
translate
0 0 m
0 2 l
stroke
grestore
} bind def
473.826 43.2 o
grestore
gsave
/o {
gsave
newpath
translate
0 0 m
0 -2 l
stroke
grestore
} bind def
473.826 388.8 o
grestore
gsave
/o {
gsave
newpath
translate
0 0 m
0 2 l
stroke
grestore
} bind def
493.023 43.2 o
grestore
gsave
/o {
gsave
newpath
translate
0 0 m
0 -2 l
stroke
grestore
} bind def
493.023 388.8 o
grestore
gsave
/o {
gsave
newpath
translate
0 0 m
0 2 l
stroke
grestore
} bind def
504.252 43.2 o
grestore
gsave
/o {
gsave
newpath
translate
0 0 m
0 -2 l
stroke
grestore
} bind def
504.252 388.8 o
grestore
gsave
/o {
gsave
newpath
translate
0 0 m
0 2 l
stroke
grestore
} bind def
512.22 43.2 o
grestore
gsave
/o {
gsave
newpath
translate
0 0 m
0 -2 l
stroke
grestore
} bind def
512.22 388.8 o
grestore
gsave
290.200000 10.200000 translate
0.000000 rotate
/Cmr10 findfont
12.0 scalefont
setfont
0.000000 0.406250 moveto
/Delta glyphshow


grestore
gsave
/o {
gsave
newpath
translate
0 0 m
4 0 l
stroke
grestore
} bind def
72 43.2 o
grestore
/DejaVuSans findfont
12.000 scalefont
setfont
gsave
35.218750 38.660937 translate
0.000000 rotate
0.000000 0.171875 m /zero glyphshow
7.634766 0.171875 m /period glyphshow
11.449219 0.171875 m /zero glyphshow
19.083984 0.171875 m /zero glyphshow
26.718750 0.171875 m /zero glyphshow
grestore
gsave
/o {
gsave
newpath
translate
0 0 m
4 0 l
stroke
grestore
} bind def
72 112.32 o
grestore
gsave
35.468750 107.780937 translate
0.000000 rotate
0.000000 0.171875 m /zero glyphshow
7.634766 0.171875 m /period glyphshow
11.449219 0.171875 m /zero glyphshow
19.083984 0.171875 m /zero glyphshow
26.718750 0.171875 m /five glyphshow
grestore
gsave
/o {
gsave
newpath
translate
0 0 m
4 0 l
stroke
grestore
} bind def
72 181.44 o
grestore
gsave
35.218750 176.900937 translate
0.000000 rotate
0.000000 0.171875 m /zero glyphshow
7.634766 0.171875 m /period glyphshow
11.449219 0.171875 m /zero glyphshow
19.083984 0.171875 m /one glyphshow
26.718750 0.171875 m /zero glyphshow
grestore
gsave
/o {
gsave
newpath
translate
0 0 m
4 0 l
stroke
grestore
} bind def
72 250.56 o
grestore
gsave
35.468750 246.020937 translate
0.000000 rotate
0.000000 0.171875 m /zero glyphshow
7.634766 0.171875 m /period glyphshow
11.449219 0.171875 m /zero glyphshow
19.083984 0.171875 m /one glyphshow
26.718750 0.171875 m /five glyphshow
grestore
gsave
/o {
gsave
newpath
translate
0 0 m
4 0 l
stroke
grestore
} bind def
72 319.68 o
grestore
gsave
35.218750 315.140938 translate
0.000000 rotate
0.000000 0.171875 m /zero glyphshow
7.634766 0.171875 m /period glyphshow
11.449219 0.171875 m /zero glyphshow
19.083984 0.171875 m /two glyphshow
26.718750 0.171875 m /zero glyphshow
grestore
gsave
/o {
gsave
newpath
translate
0 0 m
4 0 l
stroke
grestore
} bind def
72 388.8 o
grestore
gsave
35.468750 384.260938 translate
0.000000 rotate
0.000000 0.171875 m /zero glyphshow
7.634766 0.171875 m /period glyphshow
11.449219 0.171875 m /zero glyphshow
19.083984 0.171875 m /two glyphshow
26.718750 0.171875 m /five glyphshow
grestore
gsave
30.218750 200.500000 translate
90.000000 rotate
/Cmmi10 findfont
12.0 scalefont
setfont
0.000000 4.000000 moveto
/delta glyphshow

/Cmr10 findfont
8.4 scalefont
setfont
5.326172 0.938875 moveto
/Delta glyphshow

/Cmr10 findfont
12.0 scalefont
setfont
12.323438 4.000000 moveto
/parenleft glyphshow

/Cmmi10 findfont
12.0 scalefont
setfont
16.981641 4.000000 moveto
/A glyphshow

/Cmr10 findfont
12.0 scalefont
setfont
25.981641 4.000000 moveto
/parenright glyphshow


grestore
1.000 setlinewidth
2 setlinecap
gsave
72 388.8 m
518.4 388.8 l
stroke
grestore
gsave
518.4 43.2 m
518.4 388.8 l
stroke
grestore
gsave
72 43.2 m
518.4 43.2 l
stroke
grestore
gsave
72 43.2 m
72 388.8 l
stroke
grestore
1.000 0.000 0.000 setrgbcolor
gsave
446.4 345.6 72 43.2 clipbox
72 43.2001 m
307.616 43.5354 l
334.352 44.0524 l
337.934 44.1909 l
351.989 44.8321 l
358.603 45.2766 l
363.839 45.5881 l
388.642 49.0541 l
390.571 49.5256 l
392.5 49.9797 l
400.491 51.5577 l
401.869 51.981 l
403.523 52.635 l
406.279 53.872 l
408.483 54.4132 l
409.31 54.6179 l
412.617 55.805 l
413.719 56.8035 l
414.822 57.1268 l
416.475 57.5848 l
417.577 58.4475 l
417.853 58.461 l
418.68 59.2181 l
420.333 60.4768 l
423.365 61.6475 l
425.018 63.494 l
426.672 64.2296 l
430.805 67.6693 l
431.357 67.9411 l
432.183 69.2318 l
432.459 69.2424 l
434.112 71.1298 l
434.939 71.6444 l
437.695 75.1655 l
437.97 75.273 l
439.624 77.8013 l
440.175 77.9811 l
442.38 81.4766 l
442.655 81.6329 l
443.758 84.2138 l
445.411 85.6919 l
445.962 88.2125 l
447.616 89.3151 l
448.167 92.5741 l
449.269 92.6814 l
449.545 92.9507 l
450.096 95.9164 l
451.198 97.8543 l
451.749 99.6072 l
454.23 104.477 l
454.781 107.265 l
455.608 108.5 l
456.159 111.289 l
456.71 111.832 l
457.812 116.046 l
458.088 116.48 l
458.639 120.108 l
459.19 120.823 l
459.741 124.601 l
460.017 124.797 l
462.497 135.132 l
464.151 144.161 l
464.426 144.637 l
465.804 152.545 l
466.355 155.05 l
468.284 169.813 l
468.835 172.357 l
470.765 189.661 l
471.04 189.676 l
471.867 200.356 l
472.142 201.216 l
472.969 208.951 l
474.347 222.297 l
476.552 269.572 l
477.654 294.348 l
480.134 346.03 l
480.134 346.03 l
stroke
grestore
0.500 setlinewidth
0 setlinecap
0.000 setgray
gsave
446.4 345.6 72 43.2 clipbox
/o {
gsave
newpath
translate
0 3 m
-3 -3 l
3 -3 l
0 3 l
gsave
1.000 0.000 0.000 setrgbcolor
fill
grestore
stroke
grestore
} bind def
72 43.2001 o
91.1971 43.2004 o
102.427 43.2004 o
110.394 43.2005 o
116.574 43.2006 o
121.624 43.2006 o
125.893 43.2006 o
129.591 43.2008 o
132.853 43.2008 o
135.771 43.2009 o
138.411 43.2009 o
140.821 43.2009 o
143.038 43.201 o
145.09 43.201 o
147.001 43.2011 o
148.788 43.2011 o
150.467 43.2013 o
152.051 43.2014 o
153.548 43.2014 o
154.969 43.2014 o
156.32 43.2015 o
157.608 43.2015 o
158.839 43.2016 o
160.018 43.2016 o
161.149 43.2016 o
162.235 43.2016 o
163.28 43.2017 o
164.287 43.2017 o
165.259 43.2018 o
166.198 43.2019 o
167.106 43.2019 o
167.986 43.202 o
168.838 43.2021 o
169.665 43.2022 o
170.467 43.2023 o
171.248 43.2023 o
172.006 43.2024 o
172.745 43.2026 o
173.464 43.2026 o
174.166 43.2027 o
174.85 43.2027 o
175.517 43.2028 o
176.169 43.2028 o
176.805 43.203 o
177.428 43.203 o
178.036 43.2031 o
178.632 43.2031 o
179.215 43.2033 o
179.786 43.2034 o
180.346 43.2034 o
180.894 43.2035 o
181.432 43.2036 o
181.96 43.2036 o
182.477 43.2036 o
182.985 43.2037 o
183.484 43.2037 o
183.975 43.2038 o
184.456 43.2038 o
184.93 43.2039 o
185.395 43.2039 o
185.853 43.2039 o
186.303 43.204 o
186.747 43.204 o
187.183 43.2041 o
187.612 43.2041 o
188.035 43.2043 o
188.451 43.2043 o
188.862 43.2044 o
189.266 43.2045 o
189.665 43.2046 o
190.057 43.2046 o
190.445 43.2047 o
190.827 43.2047 o
191.204 43.2047 o
191.575 43.2047 o
191.942 43.2047 o
192.304 43.205 o
192.662 43.205 o
193.014 43.205 o
193.363 43.205 o
193.707 43.2052 o
194.047 43.2052 o
194.382 43.2052 o
194.714 43.2052 o
195.042 43.2056 o
195.366 43.2057 o
195.686 43.2058 o
196.002 43.2059 o
196.315 43.2061 o
196.625 43.2062 o
196.931 43.2062 o
197.234 43.2063 o
197.533 43.2064 o
197.829 43.2064 o
198.122 43.2065 o
198.412 43.2066 o
198.699 43.2068 o
198.983 43.2069 o
199.265 43.2069 o
199.543 43.2069 o
199.818 43.2071 o
200.091 43.2073 o
200.362 43.2075 o
200.629 43.2075 o
200.894 43.2076 o
201.157 43.2077 o
201.417 43.2077 o
201.674 43.2077 o
201.93 43.2077 o
202.183 43.2078 o
202.433 43.2078 o
202.682 43.2078 o
203.172 43.2079 o
203.414 43.2079 o
203.653 43.2079 o
203.891 43.2079 o
204.127 43.208 o
204.361 43.2082 o
204.822 43.2083 o
205.05 43.2084 o
205.276 43.2086 o
205.5 43.2086 o
205.723 43.2087 o
206.163 43.2087 o
206.38 43.2087 o
206.595 43.2089 o
207.021 43.2089 o
207.232 43.2089 o
207.441 43.2091 o
207.854 43.2091 o
208.059 43.2093 o
208.262 43.2094 o
208.663 43.2094 o
208.862 43.2099 o
209.059 43.21 o
209.449 43.2102 o
209.642 43.2103 o
210.024 43.2104 o
210.213 43.2105 o
210.587 43.2106 o
210.772 43.2106 o
211.139 43.2106 o
211.321 43.2108 o
211.681 43.2112 o
211.859 43.2114 o
212.212 43.2117 o
212.386 43.2121 o
212.732 43.2122 o
213.074 43.2125 o
213.244 43.2125 o
213.579 43.2125 o
213.911 43.2129 o
214.076 43.213 o
214.401 43.213 o
214.723 43.213 o
214.883 43.2131 o
215.2 43.2133 o
215.512 43.2133 o
215.822 43.2134 o
216.128 43.2136 o
216.28 43.2136 o
216.581 43.2137 o
216.879 43.2138 o
217.173 43.2138 o
217.465 43.2142 o
217.753 43.2143 o
218.039 43.2143 o
218.321 43.2143 o
218.601 43.2144 o
218.878 43.2144 o
219.152 43.2145 o
219.424 43.2147 o
219.693 43.2147 o
219.959 43.2149 o
220.223 43.2149 o
220.484 43.215 o
220.743 43.2153 o
220.999 43.2155 o
221.253 43.2158 o
221.63 43.216 o
221.879 43.216 o
222.125 43.216 o
222.369 43.2161 o
222.731 43.2163 o
222.97 43.2165 o
223.206 43.2167 o
223.558 43.2168 o
223.789 43.217 o
224.019 43.2172 o
224.361 43.2173 o
224.586 43.2176 o
224.92 43.2177 o
225.141 43.2178 o
225.469 43.2178 o
225.685 43.2183 o
226.006 43.2183 o
226.324 43.2184 o
226.534 43.2184 o
226.846 43.2185 o
227.052 43.2187 o
227.358 43.2192 o
227.66 43.2193 o
227.96 43.2194 o
228.158 43.2197 o
228.452 43.2199 o
228.743 43.2202 o
229.031 43.2202 o
229.316 43.2204 o
229.598 43.2205 o
229.877 43.2209 o
230.154 43.2209 o
230.427 43.2211 o
230.698 43.2211 o
230.967 43.2212 o
231.233 43.2212 o
231.496 43.2213 o
231.757 43.2214 o
232.101 43.2215 o
232.356 43.2216 o
232.609 43.2218 o
232.86 43.2219 o
233.191 43.222 o
233.436 43.2225 o
233.76 43.2228 o
234 43.2234 o
234.239 43.2235 o
234.554 43.2235 o
234.865 43.2237 o
235.096 43.2244 o
235.401 43.2245 o
235.628 43.2248 o
235.927 43.225 o
236.223 43.225 o
236.516 43.2251 o
236.734 43.2255 o
237.022 43.2256 o
237.307 43.2259 o
237.589 43.2262 o
237.868 43.2266 o
238.144 43.227 o
238.418 43.2276 o
238.688 43.2278 o
238.957 43.228 o
239.222 43.2282 o
239.551 43.2288 o
239.811 43.2289 o
240.069 43.2291 o
240.324 43.2296 o
240.64 43.2298 o
240.89 43.2302 o
241.199 43.2303 o
241.444 43.231 o
241.748 43.231 o
241.988 43.2321 o
242.285 43.2322 o
242.58 43.2325 o
242.813 43.2325 o
243.102 43.233 o
243.388 43.2333 o
243.67 43.2342 o
243.95 43.2346 o
244.228 43.2349 o
244.502 43.235 o
244.774 43.2352 o
245.043 43.2354 o
245.31 43.2363 o
245.574 43.2365 o
245.887 43.2367 o
246.146 43.2378 o
246.402 43.2378 o
246.706 43.238 o
246.958 43.2397 o
247.256 43.2401 o
247.502 43.2406 o
247.795 43.2407 o
248.084 43.2407 o
248.371 43.2412 o
248.607 43.2419 o
248.888 43.2422 o
249.167 43.2422 o
249.442 43.2424 o
249.715 43.2425 o
249.985 43.2427 o
250.297 43.2428 o
250.562 43.2433 o
250.824 43.2441 o
251.127 43.2442 o
251.384 43.2443 o
251.638 43.2447 o
251.932 43.2447 o
252.223 43.2448 o
252.47 43.2448 o
252.755 43.2455 o
253.037 43.2455 o
253.317 43.2464 o
253.594 43.2465 o
253.868 43.2467 o
254.139 43.2471 o
254.408 43.2473 o
254.674 43.2477 o
254.975 43.2483 o
255.236 43.2497 o
255.531 43.25 o
255.786 43.2503 o
256.076 43.2508 o
256.362 43.2509 o
256.61 43.2529 o
256.891 43.2535 o
257.169 43.2541 o
257.444 43.2543 o
257.717 43.2547 o
257.986 43.2551 o
258.287 43.2557 o
258.551 43.2561 o
258.813 43.2563 o
259.105 43.2574 o
259.394 43.2603 o
259.648 43.2605 o
259.931 43.2609 o
260.211 43.2611 o
260.488 43.2612 o
260.763 43.2617 o
261.035 43.2628 o
261.304 43.2635 o
261.571 43.2637 o
261.865 43.2643 o
262.126 43.2645 o
262.414 43.2659 o
262.698 43.2673 o
262.952 43.2676 o
263.231 43.2689 o
263.507 43.2693 o
263.781 43.2694 o
264.079 43.2701 o
264.347 43.2704 o
264.613 43.272 o
264.902 43.2722 o
265.162 43.2722 o
265.446 43.2723 o
265.726 43.2735 o
266.004 43.2752 o
266.279 43.2767 o
266.552 43.2769 o
266.821 43.2776 o
267.089 43.2786 o
267.377 43.2786 o
267.639 43.2801 o
267.922 43.2809 o
268.202 43.2816 o
268.479 43.2837 o
268.753 43.2845 o
269.025 43.2864 o
269.294 43.2872 o
269.583 43.2883 o
269.847 43.2902 o
270.13 43.2903 o
270.41 43.2909 o
270.687 43.2925 o
270.961 43.2935 o
271.233 43.2939 o
271.502 43.2944 o
271.789 43.2957 o
272.053 43.2967 o
272.335 43.2972 o
272.613 43.2981 o
272.889 43.2986 o
273.162 43.2997 o
273.433 43.3018 o
273.719 43.3052 o
273.984 43.3053 o
274.266 43.3059 o
274.544 43.3064 o
274.819 43.3065 o
275.092 43.3076 o
275.363 43.3081 o
275.648 43.3096 o
275.913 43.3113 o
276.192 43.315 o
276.469 43.3152 o
276.744 43.3163 o
277.015 43.3169 o
277.301 43.3181 o
277.567 43.3193 o
277.847 43.3209 o
278.124 43.3229 o
278.399 43.3242 o
278.67 43.3255 o
278.955 43.3269 o
279.222 43.329 o
279.501 43.3292 o
279.777 43.3316 o
280.051 43.3381 o
280.337 43.3383 o
280.606 43.3395 o
280.886 43.3431 o
281.164 43.3463 o
281.438 43.3473 o
281.711 43.3485 o
281.98 43.3507 o
282.261 43.3511 o
282.539 43.3516 o
282.814 43.3521 o
283.087 43.3522 o
283.357 43.3537 o
283.638 43.3598 o
283.915 43.3607 o
284.19 43.3608 o
284.463 43.3616 o
284.745 43.3643 o
285.012 43.3648 o
285.289 43.3679 o
285.563 43.368 o
285.847 43.3699 o
286.116 43.3725 o
286.394 43.3742 o
286.67 43.3753 o
286.942 43.3786 o
287.224 43.3805 o
287.503 43.3808 o
287.768 43.3823 o
288.053 43.3854 o
288.323 43.3865 o
288.603 43.3888 o
288.879 43.3893 o
289.153 43.3901 o
289.424 43.392 o
289.703 43.3943 o
289.979 43.4089 o
290.253 43.4094 o
290.534 43.4107 o
290.802 43.4113 o
291.078 43.4123 o
291.361 43.4135 o
291.632 43.4139 o
291.909 43.4141 o
292.184 43.4176 o
292.456 43.418 o
292.735 43.4227 o
293.011 43.4255 o
293.285 43.4273 o
293.565 43.4281 o
293.833 43.4283 o
294.117 43.4286 o
294.389 43.4289 o
294.667 43.4306 o
294.942 43.4315 o
295.215 43.4342 o
295.494 43.4356 o
295.77 43.4371 o
296.043 43.4394 o
296.322 43.4407 o
296.59 43.4422 o
296.871 43.4423 o
297.142 43.4427 o
297.418 43.4462 o
297.7 43.4476 o
297.971 43.4478 o
298.247 43.4483 o
298.52 43.4484 o
298.798 43.4488 o
299.074 43.4519 o
299.346 43.4524 o
299.624 43.4549 o
299.899 43.4558 o
300.178 43.4571 o
300.455 43.4573 o
300.729 43.4584 o
301 43.459 o
301.276 43.4625 o
301.556 43.4647 o
301.833 43.4652 o
302.107 43.4707 o
302.379 43.4822 o
302.655 43.4863 o
302.934 43.4877 o
303.211 43.4894 o
303.485 43.4929 o
303.757 43.5052 o
304.038 43.507 o
304.31 43.5101 o
304.586 43.5119 o
304.86 43.5125 o
305.136 43.5133 o
305.416 43.5154 o
305.687 43.5171 o
305.962 43.5235 o
306.24 43.5267 o
306.515 43.5289 o
306.793 43.5297 o
307.068 43.5322 o
307.34 43.5342 o
307.616 43.5354 o
307.894 43.5376 o
308.17 43.5383 o
308.442 43.5426 o
308.718 43.5442 o
308.996 43.5446 o
309.272 43.5611 o
309.549 43.5634 o
309.824 43.5649 o
310.097 43.5673 o
310.377 43.5689 o
310.649 43.5696 o
310.923 43.5722 o
311.2 43.5731 o
311.479 43.578 o
311.755 43.579 o
312.028 43.5793 o
312.303 43.5805 o
312.58 43.5878 o
312.855 43.5901 o
313.131 43.5923 o
313.405 43.5945 o
313.68 43.5948 o
313.958 43.5955 o
314.232 43.5965 o
314.508 43.6028 o
314.786 43.6063 o
315.061 43.6117 o
315.333 43.6124 o
315.611 43.6157 o
315.887 43.6196 o
316.163 43.6247 o
316.437 43.6427 o
316.712 43.644 o
316.989 43.6453 o
317.263 43.6632 o
317.542 43.664 o
317.814 43.6645 o
318.091 43.7007 o
318.366 43.7007 o
318.641 43.7137 o
318.918 43.7216 o
319.192 43.7221 o
319.47 43.733 o
319.746 43.7371 o
320.019 43.7414 o
320.297 43.7427 o
320.571 43.7565 o
320.847 43.7612 o
321.123 43.7812 o
321.4 43.7851 o
321.674 43.7873 o
321.949 43.7924 o
322.224 43.7928 o
322.5 43.7971 o
322.776 43.8026 o
323.053 43.8037 o
323.327 43.8184 o
323.602 43.8226 o
323.88 43.8325 o
324.155 43.8584 o
324.431 43.8591 o
324.704 43.8622 o
324.98 43.8652 o
325.257 43.8662 o
325.534 43.8665 o
325.808 43.8758 o
326.085 43.8786 o
326.359 43.8843 o
326.633 43.892 o
326.911 43.9063 o
327.185 43.9114 o
327.463 43.9126 o
327.737 43.9216 o
328.012 43.9234 o
328.289 43.9256 o
328.563 43.944 o
328.84 43.9528 o
329.114 43.9568 o
329.391 43.9616 o
329.667 43.9623 o
329.941 43.9645 o
330.217 43.9695 o
330.493 43.9699 o
330.768 43.9727 o
331.043 43.9772 o
331.32 43.9808 o
331.595 43.9819 o
331.871 43.9831 o
332.147 43.9896 o
332.422 43.9918 o
332.697 44.005 o
332.974 44.0059 o
333.248 44.0069 o
333.524 44.0184 o
333.799 44.0462 o
334.076 44.0514 o
334.352 44.0524 o
334.628 44.0884 o
334.903 44.0981 o
335.179 44.1036 o
335.453 44.1043 o
335.73 44.1074 o
336.004 44.1093 o
336.28 44.1186 o
336.556 44.1303 o
336.832 44.1438 o
337.108 44.1472 o
337.382 44.1644 o
337.658 44.1871 o
337.934 44.1909 o
338.21 44.1973 o
338.485 44.2036 o
338.76 44.2149 o
339.037 44.2214 o
339.313 44.2239 o
339.587 44.2291 o
339.863 44.2422 o
340.139 44.2425 o
340.414 44.3025 o
340.69 44.3048 o
340.965 44.3287 o
341.241 44.3314 o
341.517 44.3444 o
341.792 44.3456 o
342.067 44.3517 o
342.343 44.357 o
342.619 44.3623 o
342.895 44.3855 o
343.17 44.4018 o
343.446 44.4348 o
343.721 44.4382 o
343.998 44.4607 o
344.273 44.4647 o
344.549 44.4913 o
344.824 44.4946 o
345.099 44.5044 o
345.375 44.5052 o
345.65 44.5072 o
345.926 44.5452 o
346.201 44.5544 o
346.477 44.5585 o
346.752 44.5595 o
347.029 44.5612 o
347.304 44.5753 o
347.58 44.5813 o
347.855 44.5965 o
348.131 44.6203 o
348.407 44.6356 o
348.682 44.6401 o
348.958 44.642 o
349.233 44.6616 o
349.509 44.6731 o
349.784 44.6824 o
350.06 44.7106 o
350.335 44.7615 o
350.611 44.7639 o
350.887 44.7782 o
351.162 44.7882 o
351.438 44.8042 o
351.713 44.8234 o
351.989 44.8321 o
352.265 44.8643 o
352.54 44.8772 o
352.815 44.8807 o
353.092 44.8924 o
353.366 44.8991 o
353.643 44.9186 o
353.918 44.9321 o
354.194 44.9512 o
354.469 44.9623 o
354.745 44.9806 o
355.02 44.9808 o
355.296 45.0144 o
355.572 45.0197 o
355.847 45.0699 o
356.123 45.0756 o
356.398 45.0759 o
356.674 45.0831 o
356.949 45.1309 o
357.225 45.2027 o
357.5 45.2058 o
357.776 45.214 o
358.052 45.2482 o
358.327 45.2505 o
358.603 45.2766 o
358.879 45.2773 o
359.154 45.2828 o
359.429 45.309 o
359.705 45.3114 o
359.981 45.3144 o
360.257 45.3373 o
360.532 45.3477 o
360.807 45.3662 o
361.083 45.3928 o
361.359 45.3943 o
361.634 45.422 o
361.91 45.4247 o
362.185 45.4819 o
362.461 45.4866 o
362.737 45.5001 o
363.012 45.503 o
363.288 45.5341 o
363.564 45.5404 o
363.839 45.5881 o
364.115 45.6232 o
364.39 45.7258 o
364.666 45.7405 o
364.942 45.7528 o
365.217 45.7662 o
365.492 45.7807 o
365.768 45.803 o
366.044 45.8777 o
366.319 45.9068 o
366.595 45.9142 o
366.871 45.9679 o
367.146 45.9888 o
367.422 45.9895 o
367.697 46.0163 o
367.973 46.0484 o
368.248 46.0564 o
368.524 46.2554 o
368.8 46.2667 o
369.075 46.2998 o
369.351 46.3276 o
369.626 46.3362 o
369.902 46.3635 o
370.178 46.3725 o
370.453 46.3856 o
370.728 46.3873 o
371.004 46.3885 o
371.28 46.436 o
371.555 46.4595 o
371.831 46.4615 o
372.107 46.4931 o
372.382 46.5788 o
372.658 46.6057 o
372.933 46.6535 o
373.209 46.6641 o
373.485 46.6923 o
373.76 46.7057 o
374.036 46.7102 o
374.311 46.7279 o
374.587 46.735 o
374.862 46.7718 o
375.138 46.7736 o
375.414 46.8664 o
375.689 46.9144 o
375.965 46.9208 o
376.24 46.9439 o
376.516 46.9827 o
376.792 47.0725 o
377.067 47.0978 o
377.342 47.133 o
377.618 47.163 o
377.894 47.1982 o
378.169 47.2556 o
378.445 47.3014 o
378.721 47.3563 o
378.996 47.4145 o
379.272 47.4813 o
379.547 47.4836 o
379.823 47.4904 o
380.099 47.5285 o
380.374 47.5595 o
380.65 47.5661 o
380.925 47.7236 o
381.201 47.7375 o
381.476 47.7468 o
381.752 47.7781 o
382.027 47.7997 o
382.303 47.8259 o
382.579 47.882 o
382.854 47.8883 o
383.13 47.9407 o
383.405 47.9589 o
383.681 47.9662 o
383.957 48.024 o
384.232 48.0407 o
384.508 48.0962 o
384.783 48.1042 o
385.059 48.115 o
385.335 48.1361 o
385.61 48.1707 o
385.886 48.3211 o
386.161 48.3746 o
386.437 48.4165 o
386.713 48.4913 o
386.988 48.6018 o
387.263 48.7775 o
387.539 48.8027 o
387.815 48.8532 o
388.09 48.9118 o
388.366 48.9457 o
388.642 49.0541 o
388.917 49.1626 o
389.193 49.2097 o
389.468 49.2632 o
389.744 49.3312 o
390.019 49.3596 o
390.295 49.5238 o
390.571 49.5256 o
390.846 49.5464 o
391.122 49.7865 o
391.397 49.8046 o
391.673 49.8563 o
391.948 49.9152 o
392.224 49.9471 o
392.5 49.9797 o
392.775 50.0447 o
393.051 50.1031 o
393.326 50.1754 o
393.602 50.2543 o
393.878 50.2569 o
394.153 50.297 o
394.429 50.3197 o
394.704 50.3841 o
394.98 50.5061 o
395.255 50.509 o
395.531 50.509 o
395.807 50.5876 o
396.082 50.6643 o
396.358 50.6669 o
396.633 50.6948 o
396.909 50.8638 o
397.184 50.9482 o
397.46 51.0397 o
397.736 51.0616 o
398.011 51.0942 o
398.287 51.1604 o
398.562 51.169 o
398.838 51.3615 o
399.113 51.4202 o
399.389 51.4266 o
399.665 51.4707 o
399.94 51.5515 o
400.216 51.5547 o
400.491 51.5577 o
400.767 51.5796 o
401.043 51.6551 o
401.318 51.7194 o
401.594 51.8235 o
401.869 51.981 o
402.145 52.0365 o
402.421 52.1127 o
402.696 52.1808 o
402.972 52.5008 o
403.247 52.5318 o
403.523 52.635 o
403.798 52.793 o
404.074 52.8829 o
404.35 53.1022 o
404.625 53.2134 o
404.901 53.2992 o
405.176 53.3402 o
405.452 53.5007 o
405.727 53.6121 o
406.003 53.7952 o
406.279 53.872 o
406.554 53.898 o
406.83 53.9195 o
407.105 53.9851 o
407.381 54.0759 o
407.657 54.1344 o
407.932 54.188 o
408.208 54.3682 o
408.483 54.4132 o
408.759 54.6121 o
409.035 54.6142 o
409.31 54.6179 o
409.586 54.704 o
409.861 54.8738 o
410.137 55.0099 o
410.412 55.0843 o
410.688 55.1408 o
410.964 55.2065 o
411.239 55.2858 o
411.515 55.3327 o
411.79 55.3424 o
412.066 55.539 o
412.341 55.6953 o
412.617 55.805 o
412.893 56.1633 o
413.168 56.5686 o
413.444 56.7125 o
413.719 56.8035 o
413.995 56.9702 o
414.271 56.9811 o
414.546 57.1169 o
414.822 57.1268 o
415.097 57.1588 o
415.373 57.244 o
415.648 57.2666 o
415.924 57.4944 o
416.2 57.5806 o
416.475 57.5848 o
416.751 57.882 o
417.026 58.1763 o
417.302 58.3929 o
417.577 58.4475 o
417.853 58.461 o
418.129 58.8827 o
418.404 59.0742 o
418.68 59.2181 o
418.955 59.4813 o
419.231 59.5959 o
419.507 59.6909 o
419.782 59.9037 o
420.058 60.1546 o
420.333 60.4768 o
420.609 60.574 o
420.884 60.6124 o
421.16 60.6861 o
421.436 60.7186 o
421.711 60.8496 o
421.987 60.9327 o
422.262 60.9623 o
422.538 61.1336 o
422.814 61.2786 o
423.089 61.3897 o
423.365 61.6475 o
423.64 62.0386 o
423.916 62.3177 o
424.191 62.6571 o
424.467 63.0333 o
424.743 63.1567 o
425.018 63.494 o
425.294 63.5603 o
425.569 63.5603 o
425.845 63.7373 o
426.121 63.9639 o
426.396 64.0187 o
426.672 64.2296 o
426.947 64.4808 o
427.223 64.5432 o
427.498 64.6246 o
427.774 65.0195 o
428.05 65.1632 o
428.325 65.7203 o
428.601 66.17 o
428.876 66.4155 o
429.152 66.4726 o
429.427 66.8141 o
429.703 67.2515 o
429.979 67.2954 o
430.254 67.4588 o
430.53 67.5846 o
430.805 67.6693 o
431.081 67.7549 o
431.357 67.9411 o
431.632 68.5314 o
431.908 68.7771 o
432.183 69.2318 o
432.459 69.2424 o
432.734 69.6081 o
433.01 70.1025 o
433.286 70.1883 o
433.561 70.4627 o
433.837 71.0508 o
434.112 71.1298 o
434.388 71.196 o
434.663 71.3518 o
434.939 71.6444 o
435.215 72.0433 o
435.49 72.2019 o
435.766 72.4121 o
436.041 72.9005 o
436.317 73.4428 o
436.593 74.2955 o
436.868 74.3568 o
437.144 74.6245 o
437.419 74.7054 o
437.695 75.1655 o
437.97 75.273 o
438.246 75.7531 o
438.522 75.981 o
438.797 76.4583 o
439.073 77.2737 o
439.348 77.4305 o
439.624 77.8013 o
439.9 77.8995 o
440.175 77.9811 o
440.451 78.4933 o
440.726 79.0363 o
441.002 79.4012 o
441.277 80.2903 o
441.553 80.7583 o
441.829 80.8977 o
442.104 81.4233 o
442.38 81.4766 o
442.655 81.6329 o
442.931 82.4928 o
443.206 82.7794 o
443.482 84.0629 o
443.758 84.2138 o
444.033 84.4312 o
444.309 84.5609 o
444.584 85.2404 o
444.86 85.4126 o
445.136 85.5052 o
445.411 85.6919 o
445.687 87.3675 o
445.962 88.2125 o
446.238 88.4418 o
446.513 88.5726 o
446.789 88.8774 o
447.065 89.0807 o
447.34 89.1228 o
447.616 89.3151 o
447.891 91.822 o
448.167 92.5741 o
448.442 92.5794 o
448.718 92.6559 o
448.994 92.6713 o
449.269 92.6814 o
449.545 92.9507 o
449.82 95.5868 o
450.096 95.9164 o
450.372 96.2823 o
450.647 96.5377 o
450.923 96.8607 o
451.198 97.8543 o
451.474 99.4562 o
451.749 99.6072 o
452.025 100.208 o
452.301 100.824 o
452.576 100.931 o
452.852 102.511 o
453.127 103.02 o
453.403 103.752 o
453.679 104.146 o
453.954 104.262 o
454.23 104.477 o
454.505 106.754 o
454.781 107.265 o
455.056 107.552 o
455.332 107.65 o
455.608 108.5 o
455.883 111.031 o
456.159 111.289 o
456.434 111.498 o
456.71 111.832 o
456.985 113.319 o
457.261 115.462 o
457.537 115.885 o
457.812 116.046 o
458.088 116.48 o
458.363 120.024 o
458.639 120.108 o
458.915 120.396 o
459.19 120.823 o
459.466 123.873 o
459.741 124.601 o
460.017 124.797 o
460.292 125.849 o
460.568 127.731 o
460.844 127.992 o
461.119 129.408 o
461.395 130.67 o
461.67 131.637 o
461.946 131.939 o
462.222 133.684 o
462.497 135.132 o
462.773 136.837 o
463.048 137.587 o
463.324 139.466 o
463.599 140.13 o
463.875 142.012 o
464.151 144.161 o
464.426 144.637 o
464.702 146.635 o
464.977 148.147 o
465.253 149.507 o
465.528 150.352 o
465.804 152.545 o
466.08 153.508 o
466.355 155.05 o
466.631 157.519 o
466.906 158.084 o
467.182 160.562 o
467.458 162.06 o
467.733 165.591 o
468.009 166.892 o
468.284 169.813 o
468.56 170.85 o
468.835 172.357 o
469.111 175.026 o
469.387 175.331 o
469.662 180.049 o
469.938 180.645 o
470.213 185.39 o
470.489 185.448 o
470.765 189.661 o
471.04 189.676 o
471.316 194.798 o
471.591 195.257 o
471.867 200.356 o
472.142 201.216 o
472.418 204.869 o
472.694 205.542 o
472.969 208.951 o
473.245 211.19 o
473.52 211.977 o
473.796 216.165 o
474.071 217.689 o
474.347 222.297 o
474.623 227.664 o
474.898 232.263 o
475.174 236.55 o
475.449 242.183 o
475.725 247.962 o
476.001 253.769 o
476.276 260.529 o
476.552 269.572 o
476.827 277.9 o
477.103 283.464 o
477.378 288.04 o
477.654 294.348 o
477.93 300.579 o
478.205 304.796 o
478.481 309.407 o
478.756 315.598 o
479.032 322.155 o
479.308 327.039 o
479.583 333.428 o
479.859 340.176 o
480.134 346.03 o
grestore
gsave
/o {
gsave
newpath
translate
0 0 m
-4 0 l
stroke
grestore
} bind def
518.4 43.2 o
grestore
gsave
522.400000 38.660937 translate
0.000000 rotate
0.000000 0.171875 m /zero glyphshow
7.634766 0.171875 m /period glyphshow
11.449219 0.171875 m /zero glyphshow
19.083984 0.171875 m /zero glyphshow
26.718750 0.171875 m /zero glyphshow
34.353516 0.171875 m /zero glyphshow
41.988281 0.171875 m /zero glyphshow
grestore
gsave
/o {
gsave
newpath
translate
0 0 m
-4 0 l
stroke
grestore
} bind def
518.4 86.4 o
grestore
gsave
522.400000 81.860937 translate
0.000000 rotate
0.000000 0.171875 m /zero glyphshow
7.634766 0.171875 m /period glyphshow
11.449219 0.171875 m /zero glyphshow
19.083984 0.171875 m /zero glyphshow
26.718750 0.171875 m /zero glyphshow
34.353516 0.171875 m /zero glyphshow
41.988281 0.171875 m /one glyphshow
grestore
gsave
/o {
gsave
newpath
translate
0 0 m
-4 0 l
stroke
grestore
} bind def
518.4 129.6 o
grestore
gsave
522.400000 125.060937 translate
0.000000 rotate
0.000000 0.171875 m /zero glyphshow
7.634766 0.171875 m /period glyphshow
11.449219 0.171875 m /zero glyphshow
19.083984 0.171875 m /zero glyphshow
26.718750 0.171875 m /zero glyphshow
34.353516 0.171875 m /zero glyphshow
41.988281 0.171875 m /two glyphshow
grestore
gsave
/o {
gsave
newpath
translate
0 0 m
-4 0 l
stroke
grestore
} bind def
518.4 172.8 o
grestore
gsave
522.400000 168.260938 translate
0.000000 rotate
0.000000 0.171875 m /zero glyphshow
7.634766 0.171875 m /period glyphshow
11.449219 0.171875 m /zero glyphshow
19.083984 0.171875 m /zero glyphshow
26.718750 0.171875 m /zero glyphshow
34.353516 0.171875 m /zero glyphshow
41.988281 0.171875 m /three glyphshow
grestore
gsave
/o {
gsave
newpath
translate
0 0 m
-4 0 l
stroke
grestore
} bind def
518.4 216 o
grestore
gsave
522.400000 211.460938 translate
0.000000 rotate
0.000000 0.171875 m /zero glyphshow
7.634766 0.171875 m /period glyphshow
11.449219 0.171875 m /zero glyphshow
19.083984 0.171875 m /zero glyphshow
26.718750 0.171875 m /zero glyphshow
34.353516 0.171875 m /zero glyphshow
41.988281 0.171875 m /four glyphshow
grestore
gsave
/o {
gsave
newpath
translate
0 0 m
-4 0 l
stroke
grestore
} bind def
518.4 259.2 o
grestore
gsave
522.400000 254.660938 translate
0.000000 rotate
0.000000 0.171875 m /zero glyphshow
7.634766 0.171875 m /period glyphshow
11.449219 0.171875 m /zero glyphshow
19.083984 0.171875 m /zero glyphshow
26.718750 0.171875 m /zero glyphshow
34.353516 0.171875 m /zero glyphshow
41.988281 0.171875 m /five glyphshow
grestore
gsave
/o {
gsave
newpath
translate
0 0 m
-4 0 l
stroke
grestore
} bind def
518.4 302.4 o
grestore
gsave
522.400000 297.860938 translate
0.000000 rotate
0.000000 0.171875 m /zero glyphshow
7.634766 0.171875 m /period glyphshow
11.449219 0.171875 m /zero glyphshow
19.083984 0.171875 m /zero glyphshow
26.718750 0.171875 m /zero glyphshow
34.353516 0.171875 m /zero glyphshow
41.988281 0.171875 m /six glyphshow
grestore
gsave
/o {
gsave
newpath
translate
0 0 m
-4 0 l
stroke
grestore
} bind def
518.4 345.6 o
grestore
gsave
522.400000 341.060938 translate
0.000000 rotate
0.000000 0.171875 m /zero glyphshow
7.634766 0.171875 m /period glyphshow
11.449219 0.171875 m /zero glyphshow
19.083984 0.171875 m /zero glyphshow
26.718750 0.171875 m /zero glyphshow
34.353516 0.171875 m /zero glyphshow
41.988281 0.171875 m /seven glyphshow
grestore
gsave
/o {
gsave
newpath
translate
0 0 m
-4 0 l
stroke
grestore
} bind def
518.4 388.8 o
grestore
gsave
522.400000 384.260938 translate
0.000000 rotate
0.000000 0.171875 m /zero glyphshow
7.634766 0.171875 m /period glyphshow
11.449219 0.171875 m /zero glyphshow
19.083984 0.171875 m /zero glyphshow
26.718750 0.171875 m /zero glyphshow
34.353516 0.171875 m /zero glyphshow
41.988281 0.171875 m /eight glyphshow
grestore
gsave
588.587500 200.500000 translate
90.000000 rotate
/Cmmi10 findfont
12.0 scalefont
setfont
0.000000 4.000000 moveto
/delta glyphshow

/Cmr10 findfont
8.4 scalefont
setfont
5.326172 0.938875 moveto
/Delta glyphshow

/Cmr10 findfont
12.0 scalefont
setfont
12.323438 4.000000 moveto
/parenleft glyphshow

/Cmmi10 findfont
12.0 scalefont
setfont
16.981641 4.000000 moveto
/B glyphshow

/Cmr10 findfont
12.0 scalefont
setfont
26.075391 4.000000 moveto
/parenright glyphshow


grestore
0.000 0.000 1.000 setrgbcolor
/DejaVuSans findfont
20.000 scalefont
setfont
432 311.04 m
(A) show
1.000 0.000 0.000 setrgbcolor
449.28 216 m
(B) show

end
showpage
