%!PS-Adobe-2.0 EPSF-2.0
%%Title: max.eps
%%Creator: gnuplot 5.0 patchlevel 1
%%CreationDate: Fri Oct 30 18:57:07 2015
%%DocumentFonts: (atend)
%%BoundingBox: 50 50 302 238
%%EndComments
%%BeginProlog
/gnudict 256 dict def
gnudict begin
%
% The following true/false flags may be edited by hand if desired.
% The unit line width and grayscale image gamma correction may also be changed.
%
/Color true def
/Blacktext false def
/Solid false def
/Dashlength 1 def
/Landscape false def
/Level1 false def
/Level3 false def
/Rounded false def
/ClipToBoundingBox false def
/SuppressPDFMark false def
/TransparentPatterns false def
/gnulinewidth 5.000 def
/userlinewidth gnulinewidth def
/Gamma 1.0 def
/BackgroundColor {-1.000 -1.000 -1.000} def
%
/vshift -66 def
/dl1 {
  10.0 Dashlength userlinewidth gnulinewidth div mul mul mul
  Rounded { currentlinewidth 0.75 mul sub dup 0 le { pop 0.01 } if } if
} def
/dl2 {
  10.0 Dashlength userlinewidth gnulinewidth div mul mul mul
  Rounded { currentlinewidth 0.75 mul add } if
} def
/hpt_ 31.5 def
/vpt_ 31.5 def
/hpt hpt_ def
/vpt vpt_ def
/doclip {
  ClipToBoundingBox {
    newpath 50 50 moveto 302 50 lineto 302 238 lineto 50 238 lineto closepath
    clip
  } if
} def
%
% Gnuplot Prolog Version 5.0 (Dec 2014)
%
%/SuppressPDFMark true def
%
/M {moveto} bind def
/L {lineto} bind def
/R {rmoveto} bind def
/V {rlineto} bind def
/N {newpath moveto} bind def
/Z {closepath} bind def
/C {setrgbcolor} bind def
/f {rlineto fill} bind def
/g {setgray} bind def
/Gshow {show} def   % May be redefined later in the file to support UTF-8
/vpt2 vpt 2 mul def
/hpt2 hpt 2 mul def
/Lshow {currentpoint stroke M 0 vshift R 
	Blacktext {gsave 0 setgray textshow grestore} {textshow} ifelse} def
/Rshow {currentpoint stroke M dup stringwidth pop neg vshift R
	Blacktext {gsave 0 setgray textshow grestore} {textshow} ifelse} def
/Cshow {currentpoint stroke M dup stringwidth pop -2 div vshift R 
	Blacktext {gsave 0 setgray textshow grestore} {textshow} ifelse} def
/UP {dup vpt_ mul /vpt exch def hpt_ mul /hpt exch def
  /hpt2 hpt 2 mul def /vpt2 vpt 2 mul def} def
/DL {Color {setrgbcolor Solid {pop []} if 0 setdash}
 {pop pop pop 0 setgray Solid {pop []} if 0 setdash} ifelse} def
/BL {stroke userlinewidth 2 mul setlinewidth
	Rounded {1 setlinejoin 1 setlinecap} if} def
/AL {stroke userlinewidth 2 div setlinewidth
	Rounded {1 setlinejoin 1 setlinecap} if} def
/UL {dup gnulinewidth mul /userlinewidth exch def
	dup 1 lt {pop 1} if 10 mul /udl exch def} def
/PL {stroke userlinewidth setlinewidth
	Rounded {1 setlinejoin 1 setlinecap} if} def
3.8 setmiterlimit
% Classic Line colors (version 5.0)
/LCw {1 1 1} def
/LCb {0 0 0} def
/LCa {0 0 0} def
/LC0 {1 0 0} def
/LC1 {0 1 0} def
/LC2 {0 0 1} def
/LC3 {1 0 1} def
/LC4 {0 1 1} def
/LC5 {1 1 0} def
/LC6 {0 0 0} def
/LC7 {1 0.3 0} def
/LC8 {0.5 0.5 0.5} def
% Default dash patterns (version 5.0)
/LTw {PL [] 1 setgray} def
/LTb {BL [] LCb DL} def
/LTa {AL [1 udl mul 2 udl mul] 0 setdash LCa setrgbcolor} def
/LT0 {PL [] LC0 DL} def
/LT1 {PL [2 dl1 3 dl2] LC1 DL} def
/LT2 {PL [1 dl1 1.5 dl2] LC2 DL} def
/LT3 {PL [6 dl1 2 dl2 1 dl1 2 dl2] LC3 DL} def
/LT4 {PL [1 dl1 2 dl2 6 dl1 2 dl2 1 dl1 2 dl2] LC4 DL} def
/LT5 {PL [4 dl1 2 dl2] LC5 DL} def
/LT6 {PL [1.5 dl1 1.5 dl2 1.5 dl1 1.5 dl2 1.5 dl1 6 dl2] LC6 DL} def
/LT7 {PL [3 dl1 3 dl2 1 dl1 3 dl2] LC7 DL} def
/LT8 {PL [2 dl1 2 dl2 2 dl1 6 dl2] LC8 DL} def
/SL {[] 0 setdash} def
/Pnt {stroke [] 0 setdash gsave 1 setlinecap M 0 0 V stroke grestore} def
/Dia {stroke [] 0 setdash 2 copy vpt add M
  hpt neg vpt neg V hpt vpt neg V
  hpt vpt V hpt neg vpt V closepath stroke
  Pnt} def
/Pls {stroke [] 0 setdash vpt sub M 0 vpt2 V
  currentpoint stroke M
  hpt neg vpt neg R hpt2 0 V stroke
 } def
/Box {stroke [] 0 setdash 2 copy exch hpt sub exch vpt add M
  0 vpt2 neg V hpt2 0 V 0 vpt2 V
  hpt2 neg 0 V closepath stroke
  Pnt} def
/Crs {stroke [] 0 setdash exch hpt sub exch vpt add M
  hpt2 vpt2 neg V currentpoint stroke M
  hpt2 neg 0 R hpt2 vpt2 V stroke} def
/TriU {stroke [] 0 setdash 2 copy vpt 1.12 mul add M
  hpt neg vpt -1.62 mul V
  hpt 2 mul 0 V
  hpt neg vpt 1.62 mul V closepath stroke
  Pnt} def
/Star {2 copy Pls Crs} def
/BoxF {stroke [] 0 setdash exch hpt sub exch vpt add M
  0 vpt2 neg V hpt2 0 V 0 vpt2 V
  hpt2 neg 0 V closepath fill} def
/TriUF {stroke [] 0 setdash vpt 1.12 mul add M
  hpt neg vpt -1.62 mul V
  hpt 2 mul 0 V
  hpt neg vpt 1.62 mul V closepath fill} def
/TriD {stroke [] 0 setdash 2 copy vpt 1.12 mul sub M
  hpt neg vpt 1.62 mul V
  hpt 2 mul 0 V
  hpt neg vpt -1.62 mul V closepath stroke
  Pnt} def
/TriDF {stroke [] 0 setdash vpt 1.12 mul sub M
  hpt neg vpt 1.62 mul V
  hpt 2 mul 0 V
  hpt neg vpt -1.62 mul V closepath fill} def
/DiaF {stroke [] 0 setdash vpt add M
  hpt neg vpt neg V hpt vpt neg V
  hpt vpt V hpt neg vpt V closepath fill} def
/Pent {stroke [] 0 setdash 2 copy gsave
  translate 0 hpt M 4 {72 rotate 0 hpt L} repeat
  closepath stroke grestore Pnt} def
/PentF {stroke [] 0 setdash gsave
  translate 0 hpt M 4 {72 rotate 0 hpt L} repeat
  closepath fill grestore} def
/Circle {stroke [] 0 setdash 2 copy
  hpt 0 360 arc stroke Pnt} def
/CircleF {stroke [] 0 setdash hpt 0 360 arc fill} def
/C0 {BL [] 0 setdash 2 copy moveto vpt 90 450 arc} bind def
/C1 {BL [] 0 setdash 2 copy moveto
	2 copy vpt 0 90 arc closepath fill
	vpt 0 360 arc closepath} bind def
/C2 {BL [] 0 setdash 2 copy moveto
	2 copy vpt 90 180 arc closepath fill
	vpt 0 360 arc closepath} bind def
/C3 {BL [] 0 setdash 2 copy moveto
	2 copy vpt 0 180 arc closepath fill
	vpt 0 360 arc closepath} bind def
/C4 {BL [] 0 setdash 2 copy moveto
	2 copy vpt 180 270 arc closepath fill
	vpt 0 360 arc closepath} bind def
/C5 {BL [] 0 setdash 2 copy moveto
	2 copy vpt 0 90 arc
	2 copy moveto
	2 copy vpt 180 270 arc closepath fill
	vpt 0 360 arc} bind def
/C6 {BL [] 0 setdash 2 copy moveto
	2 copy vpt 90 270 arc closepath fill
	vpt 0 360 arc closepath} bind def
/C7 {BL [] 0 setdash 2 copy moveto
	2 copy vpt 0 270 arc closepath fill
	vpt 0 360 arc closepath} bind def
/C8 {BL [] 0 setdash 2 copy moveto
	2 copy vpt 270 360 arc closepath fill
	vpt 0 360 arc closepath} bind def
/C9 {BL [] 0 setdash 2 copy moveto
	2 copy vpt 270 450 arc closepath fill
	vpt 0 360 arc closepath} bind def
/C10 {BL [] 0 setdash 2 copy 2 copy moveto vpt 270 360 arc closepath fill
	2 copy moveto
	2 copy vpt 90 180 arc closepath fill
	vpt 0 360 arc closepath} bind def
/C11 {BL [] 0 setdash 2 copy moveto
	2 copy vpt 0 180 arc closepath fill
	2 copy moveto
	2 copy vpt 270 360 arc closepath fill
	vpt 0 360 arc closepath} bind def
/C12 {BL [] 0 setdash 2 copy moveto
	2 copy vpt 180 360 arc closepath fill
	vpt 0 360 arc closepath} bind def
/C13 {BL [] 0 setdash 2 copy moveto
	2 copy vpt 0 90 arc closepath fill
	2 copy moveto
	2 copy vpt 180 360 arc closepath fill
	vpt 0 360 arc closepath} bind def
/C14 {BL [] 0 setdash 2 copy moveto
	2 copy vpt 90 360 arc closepath fill
	vpt 0 360 arc} bind def
/C15 {BL [] 0 setdash 2 copy vpt 0 360 arc closepath fill
	vpt 0 360 arc closepath} bind def
/Rec {newpath 4 2 roll moveto 1 index 0 rlineto 0 exch rlineto
	neg 0 rlineto closepath} bind def
/Square {dup Rec} bind def
/Bsquare {vpt sub exch vpt sub exch vpt2 Square} bind def
/S0 {BL [] 0 setdash 2 copy moveto 0 vpt rlineto BL Bsquare} bind def
/S1 {BL [] 0 setdash 2 copy vpt Square fill Bsquare} bind def
/S2 {BL [] 0 setdash 2 copy exch vpt sub exch vpt Square fill Bsquare} bind def
/S3 {BL [] 0 setdash 2 copy exch vpt sub exch vpt2 vpt Rec fill Bsquare} bind def
/S4 {BL [] 0 setdash 2 copy exch vpt sub exch vpt sub vpt Square fill Bsquare} bind def
/S5 {BL [] 0 setdash 2 copy 2 copy vpt Square fill
	exch vpt sub exch vpt sub vpt Square fill Bsquare} bind def
/S6 {BL [] 0 setdash 2 copy exch vpt sub exch vpt sub vpt vpt2 Rec fill Bsquare} bind def
/S7 {BL [] 0 setdash 2 copy exch vpt sub exch vpt sub vpt vpt2 Rec fill
	2 copy vpt Square fill Bsquare} bind def
/S8 {BL [] 0 setdash 2 copy vpt sub vpt Square fill Bsquare} bind def
/S9 {BL [] 0 setdash 2 copy vpt sub vpt vpt2 Rec fill Bsquare} bind def
/S10 {BL [] 0 setdash 2 copy vpt sub vpt Square fill 2 copy exch vpt sub exch vpt Square fill
	Bsquare} bind def
/S11 {BL [] 0 setdash 2 copy vpt sub vpt Square fill 2 copy exch vpt sub exch vpt2 vpt Rec fill
	Bsquare} bind def
/S12 {BL [] 0 setdash 2 copy exch vpt sub exch vpt sub vpt2 vpt Rec fill Bsquare} bind def
/S13 {BL [] 0 setdash 2 copy exch vpt sub exch vpt sub vpt2 vpt Rec fill
	2 copy vpt Square fill Bsquare} bind def
/S14 {BL [] 0 setdash 2 copy exch vpt sub exch vpt sub vpt2 vpt Rec fill
	2 copy exch vpt sub exch vpt Square fill Bsquare} bind def
/S15 {BL [] 0 setdash 2 copy Bsquare fill Bsquare} bind def
/D0 {gsave translate 45 rotate 0 0 S0 stroke grestore} bind def
/D1 {gsave translate 45 rotate 0 0 S1 stroke grestore} bind def
/D2 {gsave translate 45 rotate 0 0 S2 stroke grestore} bind def
/D3 {gsave translate 45 rotate 0 0 S3 stroke grestore} bind def
/D4 {gsave translate 45 rotate 0 0 S4 stroke grestore} bind def
/D5 {gsave translate 45 rotate 0 0 S5 stroke grestore} bind def
/D6 {gsave translate 45 rotate 0 0 S6 stroke grestore} bind def
/D7 {gsave translate 45 rotate 0 0 S7 stroke grestore} bind def
/D8 {gsave translate 45 rotate 0 0 S8 stroke grestore} bind def
/D9 {gsave translate 45 rotate 0 0 S9 stroke grestore} bind def
/D10 {gsave translate 45 rotate 0 0 S10 stroke grestore} bind def
/D11 {gsave translate 45 rotate 0 0 S11 stroke grestore} bind def
/D12 {gsave translate 45 rotate 0 0 S12 stroke grestore} bind def
/D13 {gsave translate 45 rotate 0 0 S13 stroke grestore} bind def
/D14 {gsave translate 45 rotate 0 0 S14 stroke grestore} bind def
/D15 {gsave translate 45 rotate 0 0 S15 stroke grestore} bind def
/DiaE {stroke [] 0 setdash vpt add M
  hpt neg vpt neg V hpt vpt neg V
  hpt vpt V hpt neg vpt V closepath stroke} def
/BoxE {stroke [] 0 setdash exch hpt sub exch vpt add M
  0 vpt2 neg V hpt2 0 V 0 vpt2 V
  hpt2 neg 0 V closepath stroke} def
/TriUE {stroke [] 0 setdash vpt 1.12 mul add M
  hpt neg vpt -1.62 mul V
  hpt 2 mul 0 V
  hpt neg vpt 1.62 mul V closepath stroke} def
/TriDE {stroke [] 0 setdash vpt 1.12 mul sub M
  hpt neg vpt 1.62 mul V
  hpt 2 mul 0 V
  hpt neg vpt -1.62 mul V closepath stroke} def
/PentE {stroke [] 0 setdash gsave
  translate 0 hpt M 4 {72 rotate 0 hpt L} repeat
  closepath stroke grestore} def
/CircE {stroke [] 0 setdash 
  hpt 0 360 arc stroke} def
/Opaque {gsave closepath 1 setgray fill grestore 0 setgray closepath} def
/DiaW {stroke [] 0 setdash vpt add M
  hpt neg vpt neg V hpt vpt neg V
  hpt vpt V hpt neg vpt V Opaque stroke} def
/BoxW {stroke [] 0 setdash exch hpt sub exch vpt add M
  0 vpt2 neg V hpt2 0 V 0 vpt2 V
  hpt2 neg 0 V Opaque stroke} def
/TriUW {stroke [] 0 setdash vpt 1.12 mul add M
  hpt neg vpt -1.62 mul V
  hpt 2 mul 0 V
  hpt neg vpt 1.62 mul V Opaque stroke} def
/TriDW {stroke [] 0 setdash vpt 1.12 mul sub M
  hpt neg vpt 1.62 mul V
  hpt 2 mul 0 V
  hpt neg vpt -1.62 mul V Opaque stroke} def
/PentW {stroke [] 0 setdash gsave
  translate 0 hpt M 4 {72 rotate 0 hpt L} repeat
  Opaque stroke grestore} def
/CircW {stroke [] 0 setdash 
  hpt 0 360 arc Opaque stroke} def
/BoxFill {gsave Rec 1 setgray fill grestore} def
/Density {
  /Fillden exch def
  currentrgbcolor
  /ColB exch def /ColG exch def /ColR exch def
  /ColR ColR Fillden mul Fillden sub 1 add def
  /ColG ColG Fillden mul Fillden sub 1 add def
  /ColB ColB Fillden mul Fillden sub 1 add def
  ColR ColG ColB setrgbcolor} def
/BoxColFill {gsave Rec PolyFill} def
/PolyFill {gsave Density fill grestore grestore} def
/h {rlineto rlineto rlineto gsave closepath fill grestore} bind def
%
% PostScript Level 1 Pattern Fill routine for rectangles
% Usage: x y w h s a XX PatternFill
%	x,y = lower left corner of box to be filled
%	w,h = width and height of box
%	  a = angle in degrees between lines and x-axis
%	 XX = 0/1 for no/yes cross-hatch
%
/PatternFill {gsave /PFa [ 9 2 roll ] def
  PFa 0 get PFa 2 get 2 div add PFa 1 get PFa 3 get 2 div add translate
  PFa 2 get -2 div PFa 3 get -2 div PFa 2 get PFa 3 get Rec
  TransparentPatterns {} {gsave 1 setgray fill grestore} ifelse
  clip
  currentlinewidth 0.5 mul setlinewidth
  /PFs PFa 2 get dup mul PFa 3 get dup mul add sqrt def
  0 0 M PFa 5 get rotate PFs -2 div dup translate
  0 1 PFs PFa 4 get div 1 add floor cvi
	{PFa 4 get mul 0 M 0 PFs V} for
  0 PFa 6 get ne {
	0 1 PFs PFa 4 get div 1 add floor cvi
	{PFa 4 get mul 0 2 1 roll M PFs 0 V} for
 } if
  stroke grestore} def
%
/languagelevel where
 {pop languagelevel} {1} ifelse
dup 2 lt
	{/InterpretLevel1 true def
	 /InterpretLevel3 false def}
	{/InterpretLevel1 Level1 def
	 2 gt
	    {/InterpretLevel3 Level3 def}
	    {/InterpretLevel3 false def}
	 ifelse }
 ifelse
%
% PostScript level 2 pattern fill definitions
%
/Level2PatternFill {
/Tile8x8 {/PaintType 2 /PatternType 1 /TilingType 1 /BBox [0 0 8 8] /XStep 8 /YStep 8}
	bind def
/KeepColor {currentrgbcolor [/Pattern /DeviceRGB] setcolorspace} bind def
<< Tile8x8
 /PaintProc {0.5 setlinewidth pop 0 0 M 8 8 L 0 8 M 8 0 L stroke} 
>> matrix makepattern
/Pat1 exch def
<< Tile8x8
 /PaintProc {0.5 setlinewidth pop 0 0 M 8 8 L 0 8 M 8 0 L stroke
	0 4 M 4 8 L 8 4 L 4 0 L 0 4 L stroke}
>> matrix makepattern
/Pat2 exch def
<< Tile8x8
 /PaintProc {0.5 setlinewidth pop 0 0 M 0 8 L
	8 8 L 8 0 L 0 0 L fill}
>> matrix makepattern
/Pat3 exch def
<< Tile8x8
 /PaintProc {0.5 setlinewidth pop -4 8 M 8 -4 L
	0 12 M 12 0 L stroke}
>> matrix makepattern
/Pat4 exch def
<< Tile8x8
 /PaintProc {0.5 setlinewidth pop -4 0 M 8 12 L
	0 -4 M 12 8 L stroke}
>> matrix makepattern
/Pat5 exch def
<< Tile8x8
 /PaintProc {0.5 setlinewidth pop -2 8 M 4 -4 L
	0 12 M 8 -4 L 4 12 M 10 0 L stroke}
>> matrix makepattern
/Pat6 exch def
<< Tile8x8
 /PaintProc {0.5 setlinewidth pop -2 0 M 4 12 L
	0 -4 M 8 12 L 4 -4 M 10 8 L stroke}
>> matrix makepattern
/Pat7 exch def
<< Tile8x8
 /PaintProc {0.5 setlinewidth pop 8 -2 M -4 4 L
	12 0 M -4 8 L 12 4 M 0 10 L stroke}
>> matrix makepattern
/Pat8 exch def
<< Tile8x8
 /PaintProc {0.5 setlinewidth pop 0 -2 M 12 4 L
	-4 0 M 12 8 L -4 4 M 8 10 L stroke}
>> matrix makepattern
/Pat9 exch def
/Pattern1 {PatternBgnd KeepColor Pat1 setpattern} bind def
/Pattern2 {PatternBgnd KeepColor Pat2 setpattern} bind def
/Pattern3 {PatternBgnd KeepColor Pat3 setpattern} bind def
/Pattern4 {PatternBgnd KeepColor Landscape {Pat5} {Pat4} ifelse setpattern} bind def
/Pattern5 {PatternBgnd KeepColor Landscape {Pat4} {Pat5} ifelse setpattern} bind def
/Pattern6 {PatternBgnd KeepColor Landscape {Pat9} {Pat6} ifelse setpattern} bind def
/Pattern7 {PatternBgnd KeepColor Landscape {Pat8} {Pat7} ifelse setpattern} bind def
} def
%
%
%End of PostScript Level 2 code
%
/PatternBgnd {
  TransparentPatterns {} {gsave 1 setgray fill grestore} ifelse
} def
%
% Substitute for Level 2 pattern fill codes with
% grayscale if Level 2 support is not selected.
%
/Level1PatternFill {
/Pattern1 {0.250 Density} bind def
/Pattern2 {0.500 Density} bind def
/Pattern3 {0.750 Density} bind def
/Pattern4 {0.125 Density} bind def
/Pattern5 {0.375 Density} bind def
/Pattern6 {0.625 Density} bind def
/Pattern7 {0.875 Density} bind def
} def
%
% Now test for support of Level 2 code
%
Level1 {Level1PatternFill} {Level2PatternFill} ifelse
%
/Symbol-Oblique /Symbol findfont [1 0 .167 1 0 0] makefont
dup length dict begin {1 index /FID eq {pop pop} {def} ifelse} forall
currentdict end definefont pop
%
/MFshow {
   { dup 5 get 3 ge
     { 5 get 3 eq {gsave} {grestore} ifelse }
     {dup dup 0 get findfont exch 1 get scalefont setfont
     [ currentpoint ] exch dup 2 get 0 exch R dup 5 get 2 ne {dup dup 6
     get exch 4 get {textshow} {stringwidth pop 0 R} ifelse }if dup 5 get 0 eq
     {dup 3 get {2 get neg 0 exch R pop} {pop aload pop M} ifelse} {dup 5
     get 1 eq {dup 2 get exch dup 3 get exch 6 get stringwidth pop -2 div
     dup 0 R} {dup 6 get stringwidth pop -2 div 0 R 6 get
     textshow 2 index {aload pop M neg 3 -1 roll neg R pop pop} {pop pop pop
     pop aload pop M} ifelse }ifelse }ifelse }
     ifelse }
   forall} def
/Gswidth {dup type /stringtype eq {stringwidth} {pop (n) stringwidth} ifelse} def
/MFwidth {0 exch { dup 5 get 3 ge { 5 get 3 eq { 0 } { pop } ifelse }
 {dup 3 get{dup dup 0 get findfont exch 1 get scalefont setfont
     6 get Gswidth pop add} {pop} ifelse} ifelse} forall} def
/MLshow { currentpoint stroke M
  0 exch R
  Blacktext {gsave 0 setgray MFshow grestore} {MFshow} ifelse } bind def
/MRshow { currentpoint stroke M
  exch dup MFwidth neg 3 -1 roll R
  Blacktext {gsave 0 setgray MFshow grestore} {MFshow} ifelse } bind def
/MCshow { currentpoint stroke M
  exch dup MFwidth -2 div 3 -1 roll R
  Blacktext {gsave 0 setgray MFshow grestore} {MFshow} ifelse } bind def
/XYsave    { [( ) 1 2 true false 3 ()] } bind def
/XYrestore { [( ) 1 2 true false 4 ()] } bind def
Level1 SuppressPDFMark or 
{} {
/SDict 10 dict def
systemdict /pdfmark known not {
  userdict /pdfmark systemdict /cleartomark get put
} if
SDict begin [
  /Title (max.eps)
  /Subject (gnuplot plot)
  /Creator (gnuplot 5.0 patchlevel 1)
  /Author (gaumont)
%  /Producer (gnuplot)
%  /Keywords ()
  /CreationDate (Fri Oct 30 18:57:07 2015)
  /DOCINFO pdfmark
end
} ifelse
end
%
% Support for boxed text - Ethan A Merritt May 2005
%
/InitTextBox { userdict /TBy2 3 -1 roll put userdict /TBx2 3 -1 roll put
           userdict /TBy1 3 -1 roll put userdict /TBx1 3 -1 roll put
	   /Boxing true def } def
/ExtendTextBox { Boxing
    { gsave dup false charpath pathbbox
      dup TBy2 gt {userdict /TBy2 3 -1 roll put} {pop} ifelse
      dup TBx2 gt {userdict /TBx2 3 -1 roll put} {pop} ifelse
      dup TBy1 lt {userdict /TBy1 3 -1 roll put} {pop} ifelse
      dup TBx1 lt {userdict /TBx1 3 -1 roll put} {pop} ifelse
      grestore } if } def
/PopTextBox { newpath TBx1 TBxmargin sub TBy1 TBymargin sub M
               TBx1 TBxmargin sub TBy2 TBymargin add L
	       TBx2 TBxmargin add TBy2 TBymargin add L
	       TBx2 TBxmargin add TBy1 TBymargin sub L closepath } def
/DrawTextBox { PopTextBox stroke /Boxing false def} def
/FillTextBox { gsave PopTextBox 1 1 1 setrgbcolor fill grestore /Boxing false def} def
0 0 0 0 InitTextBox
/TBxmargin 20 def
/TBymargin 20 def
/Boxing false def
/textshow { ExtendTextBox Gshow } def
%
%%EndProlog
%%Page: 1 1
gnudict begin
gsave
doclip
50 50 translate
0.050 0.050 scale
0 setgray
newpath
(Helvetica) findfont 200 scalefont setfont
BackgroundColor 0 lt 3 1 roll 0 lt exch 0 lt or or not {BackgroundColor C 1.000 0 0 5040.00 3772.00 BoxColFill} if
1.000 UL
LTb
LCb setrgbcolor
860 640 M
63 0 V
3756 0 R
-63 0 V
stroke
740 640 M
[ [(Helvetica) 200.0 0.0 true true 0 (10)]
[(Helvetica) 160.0 100.0 true true 0 (-4)]
] -86.7 MRshow
1.000 UL
LTb
LCb setrgbcolor
860 858 M
31 0 V
3788 0 R
-31 0 V
860 985 M
31 0 V
3788 0 R
-31 0 V
860 1075 M
31 0 V
3788 0 R
-31 0 V
860 1145 M
31 0 V
3788 0 R
-31 0 V
860 1202 M
31 0 V
3788 0 R
-31 0 V
860 1251 M
31 0 V
3788 0 R
-31 0 V
860 1293 M
31 0 V
3788 0 R
-31 0 V
860 1330 M
31 0 V
3788 0 R
-31 0 V
860 1363 M
63 0 V
3756 0 R
-63 0 V
stroke
740 1363 M
[ [(Helvetica) 200.0 0.0 true true 0 (10)]
[(Helvetica) 160.0 100.0 true true 0 (-3)]
] -86.7 MRshow
1.000 UL
LTb
LCb setrgbcolor
860 1580 M
31 0 V
3788 0 R
-31 0 V
860 1708 M
31 0 V
3788 0 R
-31 0 V
860 1798 M
31 0 V
3788 0 R
-31 0 V
860 1868 M
31 0 V
3788 0 R
-31 0 V
860 1925 M
31 0 V
3788 0 R
-31 0 V
860 1974 M
31 0 V
3788 0 R
-31 0 V
860 2015 M
31 0 V
3788 0 R
-31 0 V
860 2052 M
31 0 V
3788 0 R
-31 0 V
860 2086 M
63 0 V
3756 0 R
-63 0 V
stroke
740 2086 M
[ [(Helvetica) 200.0 0.0 true true 0 (10)]
[(Helvetica) 160.0 100.0 true true 0 (-2)]
] -86.7 MRshow
1.000 UL
LTb
LCb setrgbcolor
860 2303 M
31 0 V
3788 0 R
-31 0 V
860 2430 M
31 0 V
3788 0 R
-31 0 V
860 2521 M
31 0 V
3788 0 R
-31 0 V
860 2591 M
31 0 V
3788 0 R
-31 0 V
860 2648 M
31 0 V
3788 0 R
-31 0 V
860 2696 M
31 0 V
3788 0 R
-31 0 V
860 2738 M
31 0 V
3788 0 R
-31 0 V
860 2775 M
31 0 V
3788 0 R
-31 0 V
860 2808 M
63 0 V
3756 0 R
-63 0 V
stroke
740 2808 M
[ [(Helvetica) 200.0 0.0 true true 0 (10)]
[(Helvetica) 160.0 100.0 true true 0 (-1)]
] -86.7 MRshow
1.000 UL
LTb
LCb setrgbcolor
860 3026 M
31 0 V
3788 0 R
-31 0 V
860 3153 M
31 0 V
3788 0 R
-31 0 V
860 3243 M
31 0 V
3788 0 R
-31 0 V
860 3313 M
31 0 V
3788 0 R
-31 0 V
860 3371 M
31 0 V
3788 0 R
-31 0 V
860 3419 M
31 0 V
3788 0 R
-31 0 V
860 3461 M
31 0 V
3788 0 R
-31 0 V
860 3498 M
31 0 V
3788 0 R
-31 0 V
860 3531 M
63 0 V
3756 0 R
-63 0 V
stroke
740 3531 M
[ [(Helvetica) 200.0 0.0 true true 0 (10)]
[(Helvetica) 160.0 100.0 true true 0 (0)]
] -86.7 MRshow
1.000 UL
LTb
LCb setrgbcolor
860 640 M
0 63 V
0 2828 R
0 -63 V
stroke
860 440 M
[ [(Helvetica) 200.0 0.0 true true 0 (10)]
[(Helvetica) 160.0 100.0 true true 0 (-4)]
] -86.7 MCshow
1.000 UL
LTb
LCb setrgbcolor
1147 640 M
0 31 V
0 2860 R
0 -31 V
1316 640 M
0 31 V
0 2860 R
0 -31 V
1435 640 M
0 31 V
0 2860 R
0 -31 V
1527 640 M
0 31 V
0 2860 R
0 -31 V
1603 640 M
0 31 V
0 2860 R
0 -31 V
1667 640 M
0 31 V
0 2860 R
0 -31 V
1722 640 M
0 31 V
0 2860 R
0 -31 V
1771 640 M
0 31 V
0 2860 R
0 -31 V
1815 640 M
0 63 V
0 2828 R
0 -63 V
stroke
1815 440 M
[ [(Helvetica) 200.0 0.0 true true 0 (10)]
[(Helvetica) 160.0 100.0 true true 0 (-3)]
] -86.7 MCshow
1.000 UL
LTb
LCb setrgbcolor
2102 640 M
0 31 V
0 2860 R
0 -31 V
2270 640 M
0 31 V
0 2860 R
0 -31 V
2390 640 M
0 31 V
0 2860 R
0 -31 V
2482 640 M
0 31 V
0 2860 R
0 -31 V
2558 640 M
0 31 V
0 2860 R
0 -31 V
2622 640 M
0 31 V
0 2860 R
0 -31 V
2677 640 M
0 31 V
0 2860 R
0 -31 V
2726 640 M
0 31 V
0 2860 R
0 -31 V
2770 640 M
0 63 V
0 2828 R
0 -63 V
stroke
2770 440 M
[ [(Helvetica) 200.0 0.0 true true 0 (10)]
[(Helvetica) 160.0 100.0 true true 0 (-2)]
] -86.7 MCshow
1.000 UL
LTb
LCb setrgbcolor
3057 640 M
0 31 V
0 2860 R
0 -31 V
3225 640 M
0 31 V
0 2860 R
0 -31 V
3344 640 M
0 31 V
0 2860 R
0 -31 V
3437 640 M
0 31 V
0 2860 R
0 -31 V
3512 640 M
0 31 V
0 2860 R
0 -31 V
3576 640 M
0 31 V
0 2860 R
0 -31 V
3632 640 M
0 31 V
0 2860 R
0 -31 V
3681 640 M
0 31 V
0 2860 R
0 -31 V
3724 640 M
0 63 V
0 2828 R
0 -63 V
stroke
3724 440 M
[ [(Helvetica) 200.0 0.0 true true 0 (10)]
[(Helvetica) 160.0 100.0 true true 0 (-1)]
] -86.7 MCshow
1.000 UL
LTb
LCb setrgbcolor
4012 640 M
0 31 V
0 2860 R
0 -31 V
4180 640 M
0 31 V
0 2860 R
0 -31 V
4299 640 M
0 31 V
0 2860 R
0 -31 V
4392 640 M
0 31 V
0 2860 R
0 -31 V
4467 640 M
0 31 V
0 2860 R
0 -31 V
4531 640 M
0 31 V
0 2860 R
0 -31 V
4586 640 M
0 31 V
0 2860 R
0 -31 V
4635 640 M
0 31 V
0 2860 R
0 -31 V
4679 640 M
0 63 V
0 2828 R
0 -63 V
stroke
4679 440 M
[ [(Helvetica) 200.0 0.0 true true 0 (10)]
[(Helvetica) 160.0 100.0 true true 0 (0)]
] -86.7 MCshow
1.000 UL
LTb
LCb setrgbcolor
1.000 UL
LTb
LCb setrgbcolor
860 3531 N
860 640 L
3819 0 V
0 2891 V
-3819 0 V
Z stroke
0.500 UP
1.000 UL
LTb
LCb setrgbcolor
LCb setrgbcolor
160 2085 M
currentpoint gsave translate -270 rotate 0 0 moveto
[ [(Helvetica) 200.0 0.0 true true 0 (Max inter-thread density)]
] -66.7 MCshow
grestore
LTb
LCb setrgbcolor
2769 140 M
[ [(Helvetica) 200.0 0.0 true true 0 (Intra-thread density)]
] -66.7 MCshow
LTb
% Begin plot #1
0.500 UP
0.500 UL
LTb
0.82 0.11 0.02 C 2990 2337 Pls
3426 2606 Pls
1394 1591 Pls
2349 2312 Pls
1722 1626 Pls
1964 2187 Pls
2538 1990 Pls
2747 2181 Pls
2237 1988 Pls
943 1708 Pls
3218 2526 Pls
2861 2292 Pls
2415 2013 Pls
2500 2195 Pls
2771 2240 Pls
2838 2581 Pls
2491 2294 Pls
3721 2915 Pls
2771 2178 Pls
3951 2981 Pls
2935 2410 Pls
2748 2494 Pls
2527 2250 Pls
3327 2510 Pls
2518 2056 Pls
3491 2974 Pls
3674 3011 Pls
2880 2399 Pls
1773 1915 Pls
2685 2088 Pls
2882 2501 Pls
2331 1845 Pls
2771 2121 Pls
2827 2401 Pls
3134 2391 Pls
2633 2587 Pls
2563 2028 Pls
2078 1904 Pls
2783 2107 Pls
3058 2306 Pls
2948 2249 Pls
2778 2159 Pls
3245 2453 Pls
2835 2296 Pls
2446 2005 Pls
3367 2890 Pls
2373 1865 Pls
2496 2128 Pls
2718 2600 Pls
2691 2275 Pls
3248 2929 Pls
3674 2807 Pls
2936 2234 Pls
2839 2177 Pls
2425 1915 Pls
3377 2560 Pls
2916 2257 Pls
2244 1716 Pls
2857 2332 Pls
3062 2330 Pls
2081 2053 Pls
2717 2308 Pls
3294 2563 Pls
2439 1976 Pls
2191 2106 Pls
3014 2348 Pls
3188 2767 Pls
3262 2592 Pls
3060 2310 Pls
2355 2236 Pls
3151 2499 Pls
2841 2282 Pls
3100 2672 Pls
2829 2273 Pls
4072 3232 Pls
3013 2361 Pls
3667 2816 Pls
3111 2475 Pls
2584 2128 Pls
2801 2629 Pls
2900 2209 Pls
2418 2445 Pls
3431 2764 Pls
3010 2839 Pls
2950 2231 Pls
2694 2234 Pls
3542 2800 Pls
2607 2160 Pls
2457 2230 Pls
3306 2590 Pls
3275 2540 Pls
2510 2164 Pls
3950 3020 Pls
2882 2292 Pls
3231 2568 Pls
3210 2498 Pls
3461 2837 Pls
2848 2239 Pls
2998 2640 Pls
2369 2284 Pls
3212 2495 Pls
3375 2639 Pls
2894 2210 Pls
2169 1994 Pls
3130 2422 Pls
2750 2182 Pls
3584 2783 Pls
3126 2393 Pls
2402 1941 Pls
2845 2342 Pls
3041 2754 Pls
2532 2089 Pls
3653 2758 Pls
2810 2352 Pls
2999 2290 Pls
2855 2347 Pls
2580 2137 Pls
3077 2404 Pls
2806 2559 Pls
2127 2197 Pls
3849 2938 Pls
3529 2823 Pls
3036 2413 Pls
2659 2472 Pls
2531 2172 Pls
2673 2231 Pls
2880 2205 Pls
2898 2185 Pls
3006 2280 Pls
1560 1890 Pls
2953 2254 Pls
3028 2571 Pls
2955 2273 Pls
2805 2138 Pls
3104 2368 Pls
2897 2271 Pls
2521 1912 Pls
2783 2391 Pls
2079 1730 Pls
3030 2452 Pls
2083 2017 Pls
3286 2599 Pls
3277 2566 Pls
1802 1910 Pls
3258 2828 Pls
2735 2154 Pls
3276 2868 Pls
3134 2458 Pls
2578 2084 Pls
4050 3212 Pls
2870 2698 Pls
4149 3232 Pls
2978 2269 Pls
3416 2590 Pls
3294 2494 Pls
2563 1996 Pls
2772 2295 Pls
2885 2212 Pls
3003 2326 Pls
3106 2545 Pls
2388 1880 Pls
2389 1956 Pls
3082 2548 Pls
3253 2613 Pls
3222 2468 Pls
4050 3219 Pls
3403 2590 Pls
2837 2148 Pls
3241 2524 Pls
2304 1969 Pls
3569 3051 Pls
3191 2639 Pls
1915 2209 Pls
2554 2469 Pls
3354 2537 Pls
2520 1957 Pls
2649 2221 Pls
2807 2147 Pls
2828 2153 Pls
2811 2407 Pls
2896 2321 Pls
3058 2518 Pls
3272 2594 Pls
2615 2156 Pls
2802 2204 Pls
1887 2267 Pls
2623 2273 Pls
2533 1994 Pls
3250 2456 Pls
3017 2358 Pls
2691 2235 Pls
2837 2347 Pls
2706 2229 Pls
3061 2880 Pls
2301 1942 Pls
2982 2789 Pls
2317 2403 Pls
2394 2204 Pls
2641 1992 Pls
3471 2679 Pls
3276 2527 Pls
3292 2501 Pls
2718 2581 Pls
2449 2053 Pls
2825 2327 Pls
3809 2981 Pls
1694 1782 Pls
2484 2414 Pls
2750 2092 Pls
3119 2515 Pls
2714 2554 Pls
3132 2489 Pls
1752 1553 Pls
2923 2309 Pls
3175 2492 Pls
2737 2314 Pls
3043 2421 Pls
2640 2471 Pls
3485 2881 Pls
3332 2564 Pls
2346 2570 Pls
3251 2588 Pls
3035 2778 Pls
2072 2119 Pls
3331 2688 Pls
3054 2567 Pls
3152 2415 Pls
1989 1984 Pls
3541 2768 Pls
2786 2166 Pls
2098 1707 Pls
3565 2997 Pls
3168 2904 Pls
2567 2084 Pls
2654 2182 Pls
3169 2601 Pls
2763 2094 Pls
2877 2298 Pls
3298 2695 Pls
3615 2933 Pls
3045 2674 Pls
3292 2592 Pls
3423 2796 Pls
2361 1959 Pls
3144 2393 Pls
3745 2881 Pls
2002 2177 Pls
3296 2620 Pls
3700 2964 Pls
3271 2558 Pls
3409 3017 Pls
3429 2682 Pls
2762 2138 Pls
2721 2327 Pls
3332 2527 Pls
2066 2084 Pls
3664 2966 Pls
2813 2343 Pls
2542 2057 Pls
3551 2720 Pls
2516 1932 Pls
3070 2374 Pls
2756 2082 Pls
2746 2269 Pls
2596 2092 Pls
3261 2546 Pls
3172 2663 Pls
2813 2372 Pls
2686 2462 Pls
2898 2601 Pls
2865 2196 Pls
2224 1980 Pls
3391 2591 Pls
2746 2242 Pls
3437 2628 Pls
2279 1841 Pls
3251 2465 Pls
2333 1934 Pls
2530 2035 Pls
2862 2208 Pls
2821 2236 Pls
3131 2513 Pls
3157 2381 Pls
3251 2537 Pls
1820 1968 Pls
3324 2937 Pls
3297 2491 Pls
3012 2352 Pls
2885 2586 Pls
3853 3037 Pls
3208 2447 Pls
3176 2401 Pls
2962 2257 Pls
2814 2299 Pls
2311 1741 Pls
2804 2547 Pls
3054 2331 Pls
3422 2882 Pls
2758 2079 Pls
2877 2179 Pls
2306 1960 Pls
3102 2411 Pls
3482 2985 Pls
2499 2440 Pls
% End plot #1
% Begin plot #2
0.500 UP
0.500 UL
LTb
0.73 0.85 0.33 C 4307 2309 Crs
3981 2555 Crs
4679 2615 Crs
3674 2381 Crs
3998 1984 Crs
3921 2068 Crs
3890 2362 Crs
3831 2281 Crs
3676 2237 Crs
3780 2000 Crs
3781 2294 Crs
3516 1742 Crs
4111 2716 Crs
4332 2540 Crs
3626 2295 Crs
3902 2471 Crs
3633 2230 Crs
4238 2363 Crs
3874 2512 Crs
3779 2643 Crs
3757 2442 Crs
3348 2313 Crs
3427 2193 Crs
3757 2544 Crs
3628 2254 Crs
3355 2366 Crs
3728 2169 Crs
3059 1890 Crs
3526 2536 Crs
3242 2157 Crs
4059 2351 Crs
3316 2270 Crs
4254 2224 Crs
3379 2235 Crs
4255 2517 Crs
3621 2074 Crs
4139 2554 Crs
3755 2592 Crs
3708 2397 Crs
3399 2431 Crs
4046 2074 Crs
3788 2588 Crs
3582 2475 Crs
3131 2118 Crs
3856 2357 Crs
3773 2574 Crs
3289 2021 Crs
3159 2164 Crs
3148 2258 Crs
3653 2415 Crs
4301 2558 Crs
3491 2299 Crs
4018 2613 Crs
3640 2021 Crs
4109 2613 Crs
3504 2304 Crs
3091 2297 Crs
3724 2086 Crs
3600 2290 Crs
4034 2283 Crs
3576 1986 Crs
3083 2192 Crs
3278 2249 Crs
3673 2079 Crs
4036 2120 Crs
3475 2477 Crs
4198 2498 Crs
3460 1870 Crs
3712 2156 Crs
4271 2623 Crs
4301 2484 Crs
3953 2370 Crs
3381 2401 Crs
3883 2262 Crs
3404 2102 Crs
3082 2103 Crs
3176 2064 Crs
3439 2010 Crs
3626 2399 Crs
3699 2089 Crs
3524 2416 Crs
3867 2371 Crs
3845 2406 Crs
4349 2414 Crs
3471 2524 Crs
4081 2230 Crs
3872 2152 Crs
3661 2534 Crs
2998 1924 Crs
3950 2047 Crs
4089 2321 Crs
2715 2035 Crs
4123 2992 Crs
3619 2126 Crs
3154 2269 Crs
3298 2043 Crs
3596 2244 Crs
3967 2524 Crs
3548 2569 Crs
4180 2545 Crs
3913 2309 Crs
4164 2496 Crs
3037 2027 Crs
3892 2463 Crs
3748 2421 Crs
3455 2391 Crs
4104 2423 Crs
3166 2198 Crs
2930 2074 Crs
3763 2111 Crs
3573 2187 Crs
3860 2436 Crs
3065 1842 Crs
3944 2665 Crs
3829 2303 Crs
4165 2533 Crs
3867 2022 Crs
3508 2250 Crs
3583 2408 Crs
2869 2084 Crs
3578 2496 Crs
4073 2165 Crs
3946 2325 Crs
3796 2378 Crs
3723 2400 Crs
3875 2414 Crs
2985 2242 Crs
3002 2053 Crs
4332 2513 Crs
4391 2643 Crs
3833 2223 Crs
3305 1921 Crs
2944 1972 Crs
3349 2186 Crs
3347 2295 Crs
3215 2019 Crs
4216 2256 Crs
3853 2272 Crs
3431 2317 Crs
3414 2193 Crs
3299 2120 Crs
3869 2086 Crs
4679 2738 Crs
4046 2375 Crs
3950 2258 Crs
3977 2687 Crs
4042 2328 Crs
3393 2319 Crs
3466 1697 Crs
3647 2471 Crs
3762 2399 Crs
3593 2217 Crs
3694 2286 Crs
3861 2478 Crs
3389 2263 Crs
3800 2485 Crs
3972 2776 Crs
4189 1970 Crs
4033 2398 Crs
3544 2174 Crs
3515 2340 Crs
3666 2147 Crs
3442 2517 Crs
3119 1855 Crs
4185 2039 Crs
3921 2310 Crs
4000 2104 Crs
3722 1893 Crs
3728 2343 Crs
3516 2082 Crs
3820 2310 Crs
3544 2425 Crs
3549 2565 Crs
4305 2940 Crs
3418 2057 Crs
3835 2030 Crs
3751 2382 Crs
4031 2106 Crs
3482 2071 Crs
3750 2367 Crs
3926 2656 Crs
3898 2204 Crs
3668 2172 Crs
3889 2464 Crs
3754 2279 Crs
3711 2054 Crs
4275 2751 Crs
3543 2153 Crs
2998 1916 Crs
3663 1973 Crs
4026 2173 Crs
3157 2051 Crs
4167 2294 Crs
3065 2214 Crs
3408 2065 Crs
3742 2594 Crs
4195 2494 Crs
2998 2008 Crs
2619 1909 Crs
3797 2162 Crs
3581 2248 Crs
3546 2014 Crs
3317 1850 Crs
2945 1935 Crs
4001 2597 Crs
4019 2370 Crs
4050 2433 Crs
3229 1775 Crs
3831 2461 Crs
3851 2184 Crs
4311 2550 Crs
3501 2239 Crs
3826 2522 Crs
3698 2358 Crs
3669 2346 Crs
3708 2391 Crs
4206 2502 Crs
3719 2084 Crs
3110 2053 Crs
4145 2237 Crs
3840 2160 Crs
3712 2565 Crs
3967 2152 Crs
3498 2318 Crs
4382 2182 Crs
4170 2105 Crs
3704 2298 Crs
4023 2264 Crs
4338 2046 Crs
3689 2401 Crs
4127 2261 Crs
3825 2435 Crs
3427 2231 Crs
3873 2234 Crs
3533 1951 Crs
3403 2268 Crs
4040 2545 Crs
4001 2399 Crs
4155 2261 Crs
3808 2146 Crs
3304 2411 Crs
3845 1887 Crs
3589 2403 Crs
3251 2177 Crs
3802 2127 Crs
4072 2326 Crs
3064 2184 Crs
4205 2736 Crs
3246 2080 Crs
3721 2171 Crs
3669 2187 Crs
3165 2208 Crs
4134 2638 Crs
3385 2428 Crs
3709 2351 Crs
3610 2201 Crs
3810 2271 Crs
3523 2408 Crs
4259 2196 Crs
4066 2300 Crs
3754 2346 Crs
3414 2456 Crs
3762 2103 Crs
3884 2731 Crs
3761 2095 Crs
3698 2365 Crs
3570 2206 Crs
3895 2354 Crs
3836 2276 Crs
3597 2096 Crs
4057 2387 Crs
3209 1938 Crs
3809 2178 Crs
3400 2307 Crs
4219 2095 Crs
2693 1677 Crs
3670 2309 Crs
3616 2516 Crs
3049 2030 Crs
3475 2212 Crs
3719 2512 Crs
3176 1804 Crs
3359 2348 Crs
4050 2529 Crs
3650 2522 Crs
3489 2287 Crs
4275 2238 Crs
3758 1915 Crs
4216 2294 Crs
3399 2236 Crs
4155 2752 Crs
3255 2087 Crs
3686 2318 Crs
4469 2416 Crs
3656 2072 Crs
3127 2191 Crs
3949 2122 Crs
3732 2121 Crs
4451 3034 Crs
3980 2291 Crs
3867 2462 Crs
3250 2124 Crs
4007 2395 Crs
3690 2268 Crs
3549 2334 Crs
3743 2345 Crs
4192 2461 Crs
3786 2306 Crs
3499 2121 Crs
3286 2301 Crs
4066 2427 Crs
3808 2145 Crs
2854 2085 Crs
3844 2098 Crs
3695 2020 Crs
3839 2465 Crs
3941 2491 Crs
4305 2335 Crs
3534 2260 Crs
3672 2182 Crs
3911 2535 Crs
3550 2209 Crs
3530 2111 Crs
3980 1967 Crs
3759 2316 Crs
3494 2393 Crs
4061 2804 Crs
3063 2019 Crs
3716 2080 Crs
4000 2576 Crs
3810 2360 Crs
3613 2237 Crs
3312 2201 Crs
3632 2182 Crs
3506 2329 Crs
3984 2226 Crs
3553 2511 Crs
3726 2559 Crs
4116 2589 Crs
3855 2390 Crs
3862 2637 Crs
3934 2205 Crs
3727 2333 Crs
3614 2366 Crs
4063 2271 Crs
3905 2134 Crs
3697 2358 Crs
3858 2112 Crs
3896 2081 Crs
3536 2323 Crs
3254 2010 Crs
4308 2276 Crs
3890 2686 Crs
3443 2064 Crs
3793 2453 Crs
3921 2475 Crs
3663 2241 Crs
4012 2630 Crs
3365 2075 Crs
3932 2565 Crs
4034 2229 Crs
3277 2159 Crs
4047 2397 Crs
4086 2766 Crs
3425 2536 Crs
3661 2284 Crs
3493 2555 Crs
3860 2276 Crs
4148 2744 Crs
3653 2518 Crs
3882 2140 Crs
3768 2175 Crs
3895 2352 Crs
3409 2318 Crs
3782 2130 Crs
3693 2249 Crs
3589 2385 Crs
3137 2025 Crs
4213 2469 Crs
3648 2368 Crs
3613 2067 Crs
4079 2287 Crs
3697 2279 Crs
3475 2611 Crs
3701 2368 Crs
3511 2196 Crs
3575 1624 Crs
3911 2260 Crs
3676 2767 Crs
3870 2114 Crs
3506 2012 Crs
4198 2512 Crs
3533 2175 Crs
3707 1882 Crs
3935 2171 Crs
3255 2416 Crs
3349 2246 Crs
3099 2244 Crs
3748 2382 Crs
2753 2050 Crs
3519 2066 Crs
3438 2072 Crs
4111 2278 Crs
3830 2593 Crs
3812 2362 Crs
4020 2358 Crs
3228 2199 Crs
4320 2190 Crs
4220 2455 Crs
3824 2492 Crs
3991 2031 Crs
3694 2650 Crs
4060 2281 Crs
3887 2254 Crs
4033 2273 Crs
4029 2340 Crs
3863 2095 Crs
4520 2621 Crs
3432 2267 Crs
3122 2169 Crs
3424 2069 Crs
4046 2766 Crs
4051 2890 Crs
3935 2218 Crs
4035 2438 Crs
3706 2317 Crs
3627 2272 Crs
3602 2377 Crs
3714 2402 Crs
3569 2227 Crs
3933 2267 Crs
4233 2262 Crs
3545 2279 Crs
3530 2432 Crs
4076 2444 Crs
4020 1979 Crs
4009 2290 Crs
4121 2614 Crs
4111 2114 Crs
3678 1996 Crs
4189 2473 Crs
3107 2053 Crs
3914 2287 Crs
3481 2204 Crs
3842 2255 Crs
3789 2252 Crs
3323 2006 Crs
4073 2289 Crs
3305 2134 Crs
4040 2519 Crs
3356 2434 Crs
4111 2262 Crs
3729 2218 Crs
4240 2467 Crs
3859 2344 Crs
3168 2347 Crs
3558 2313 Crs
3943 2357 Crs
3004 2005 Crs
3059 2135 Crs
3638 2162 Crs
3354 2293 Crs
4185 2840 Crs
3873 2608 Crs
3955 2296 Crs
3476 2102 Crs
3695 2524 Crs
3440 2183 Crs
3515 2109 Crs
4472 2607 Crs
3359 2516 Crs
3699 2393 Crs
3364 1913 Crs
3847 2229 Crs
3379 2399 Crs
3708 2017 Crs
4121 2495 Crs
4435 2018 Crs
3974 2450 Crs
3911 2390 Crs
3222 2240 Crs
4023 2270 Crs
3320 2264 Crs
4144 2428 Crs
2857 1999 Crs
3129 1787 Crs
3792 2069 Crs
3654 2151 Crs
3922 2300 Crs
3744 2459 Crs
4173 2618 Crs
3653 2289 Crs
3521 2239 Crs
4238 2471 Crs
2928 2205 Crs
3818 1980 Crs
4126 2389 Crs
4046 2284 Crs
3763 2286 Crs
4138 2297 Crs
4036 2468 Crs
3583 2439 Crs
3871 2319 Crs
4094 2257 Crs
3659 2183 Crs
4002 2444 Crs
4334 2420 Crs
3433 2350 Crs
3302 2091 Crs
3396 2153 Crs
4294 2174 Crs
3790 2201 Crs
3009 2245 Crs
4213 2034 Crs
4099 2751 Crs
3270 2095 Crs
3222 2409 Crs
3958 2518 Crs
3969 2392 Crs
3490 2095 Crs
4053 2650 Crs
3893 2003 Crs
3352 2283 Crs
3930 2018 Crs
4298 2230 Crs
3217 2094 Crs
4134 2493 Crs
3957 2413 Crs
4068 2183 Crs
4010 1729 Crs
4040 2129 Crs
3815 2035 Crs
3222 2191 Crs
3852 2492 Crs
3795 2333 Crs
4215 2393 Crs
3624 2412 Crs
3504 2176 Crs
3030 2136 Crs
3853 2376 Crs
3690 2315 Crs
3691 2146 Crs
3957 2049 Crs
3703 2291 Crs
3999 2457 Crs
3369 2372 Crs
3506 2181 Crs
3484 1956 Crs
3230 2356 Crs
3446 2276 Crs
3898 2194 Crs
3927 2423 Crs
3427 2104 Crs
3814 2302 Crs
3506 2256 Crs
4089 2378 Crs
3816 2297 Crs
3579 2192 Crs
3641 2220 Crs
3883 2232 Crs
4080 2442 Crs
2974 2131 Crs
4008 2167 Crs
3483 2476 Crs
4290 2719 Crs
3533 1926 Crs
3643 2187 Crs
4134 2423 Crs
3668 2269 Crs
3627 2072 Crs
3362 2244 Crs
3986 2515 Crs
3147 2093 Crs
3843 2249 Crs
3655 2210 Crs
4418 2446 Crs
3349 2045 Crs
3730 2529 Crs
2928 2031 Crs
3667 2318 Crs
3286 2294 Crs
3748 2251 Crs
4102 2335 Crs
3826 2571 Crs
3478 2306 Crs
3541 1927 Crs
3324 2417 Crs
4161 2281 Crs
3454 2048 Crs
3399 2069 Crs
2964 2087 Crs
4043 2600 Crs
4166 2528 Crs
3936 2526 Crs
3855 2247 Crs
4147 2503 Crs
4324 2420 Crs
4134 2718 Crs
3592 2239 Crs
3592 2274 Crs
3863 2194 Crs
2852 1892 Crs
3828 2414 Crs
4154 2425 Crs
3992 2334 Crs
3987 2459 Crs
3611 2614 Crs
3862 2428 Crs
3816 2613 Crs
4131 2182 Crs
3681 2508 Crs
3426 2129 Crs
3935 2509 Crs
3336 2163 Crs
3397 2025 Crs
3940 2509 Crs
3602 2255 Crs
3919 2869 Crs
3215 1772 Crs
4056 2286 Crs
4202 2672 Crs
3799 2715 Crs
3934 2302 Crs
4097 2545 Crs
2808 1727 Crs
4010 2215 Crs
3538 1969 Crs
3762 1980 Crs
3877 2404 Crs
3728 2584 Crs
3982 2181 Crs
3749 2283 Crs
2858 1738 Crs
3567 2477 Crs
3608 1904 Crs
3652 2593 Crs
3331 2210 Crs
4211 2610 Crs
4005 2301 Crs
3466 2090 Crs
3731 2215 Crs
4244 2462 Crs
3215 1967 Crs
3536 2514 Crs
4199 2403 Crs
3936 2223 Crs
3801 2318 Crs
3726 2550 Crs
3588 2171 Crs
2801 2012 Crs
3738 2370 Crs
3062 2061 Crs
3410 2357 Crs
4272 2307 Crs
2939 2102 Crs
3977 2495 Crs
3856 2137 Crs
3444 2242 Crs
3694 2379 Crs
3848 2601 Crs
3733 2260 Crs
3937 2494 Crs
3281 2390 Crs
3839 2357 Crs
3542 2081 Crs
3423 2465 Crs
4027 2324 Crs
3630 2298 Crs
3779 2396 Crs
3147 2002 Crs
3994 2614 Crs
3735 2418 Crs
4010 2454 Crs
4001 2295 Crs
3271 2300 Crs
3651 2072 Crs
3994 2240 Crs
3655 2185 Crs
3519 2416 Crs
3708 2451 Crs
4074 2513 Crs
4016 2088 Crs
2931 1922 Crs
3275 2281 Crs
3369 2384 Crs
3846 2348 Crs
4061 2500 Crs
3891 2014 Crs
4036 2355 Crs
3631 2197 Crs
3597 2102 Crs
3937 2431 Crs
3925 2285 Crs
3699 2286 Crs
3954 2373 Crs
3751 1781 Crs
3582 2026 Crs
3507 1942 Crs
3405 2074 Crs
3902 2350 Crs
3932 2738 Crs
3460 2353 Crs
3379 2092 Crs
3583 2036 Crs
4099 2076 Crs
3254 2090 Crs
3827 2551 Crs
4023 2099 Crs
3740 2281 Crs
3796 2126 Crs
3905 2349 Crs
3835 2513 Crs
3873 2214 Crs
4175 2268 Crs
3956 2673 Crs
3283 2178 Crs
3921 2289 Crs
3862 2545 Crs
4165 2579 Crs
3585 1834 Crs
3223 2317 Crs
3668 2251 Crs
3876 2381 Crs
3804 2261 Crs
3699 2453 Crs
3795 2053 Crs
3449 2396 Crs
3507 2486 Crs
3644 2410 Crs
3329 2019 Crs
2804 2039 Crs
3952 2400 Crs
4265 2865 Crs
4073 2242 Crs
4124 2119 Crs
4223 2492 Crs
4193 2207 Crs
4679 2602 Crs
3688 2247 Crs
4398 2233 Crs
4003 2327 Crs
3166 2348 Crs
3292 2403 Crs
3772 2112 Crs
3952 2594 Crs
3731 2203 Crs
3375 2251 Crs
3830 2395 Crs
4068 2394 Crs
4117 2282 Crs
4242 2783 Crs
3043 1991 Crs
3501 2458 Crs
3826 2459 Crs
3814 2161 Crs
3764 2202 Crs
3863 2264 Crs
3827 2342 Crs
4126 2324 Crs
3923 2198 Crs
3947 2529 Crs
3819 2605 Crs
3805 2092 Crs
3511 1853 Crs
3598 2009 Crs
4079 2236 Crs
4133 2218 Crs
4372 2465 Crs
3168 1963 Crs
3595 2344 Crs
3920 2764 Crs
3870 1986 Crs
3580 2032 Crs
4211 2345 Crs
4143 2628 Crs
3766 2515 Crs
3614 1898 Crs
3078 2296 Crs
3419 2438 Crs
3461 2297 Crs
4084 2030 Crs
3740 2684 Crs
3833 2506 Crs
4045 2337 Crs
3389 2088 Crs
2824 2117 Crs
4295 2216 Crs
3554 2428 Crs
3408 2246 Crs
3374 2362 Crs
3810 2081 Crs
4065 2344 Crs
3700 2318 Crs
3992 2102 Crs
3910 2389 Crs
3647 2311 Crs
4265 2412 Crs
3946 2540 Crs
3617 2190 Crs
3853 2457 Crs
3462 1981 Crs
3713 2619 Crs
3777 2229 Crs
3673 1962 Crs
3570 2365 Crs
3702 2573 Crs
3523 2564 Crs
3656 2395 Crs
4356 2191 Crs
3917 2015 Crs
4113 2565 Crs
3030 2053 Crs
3622 2356 Crs
4215 2609 Crs
4276 2093 Crs
3556 2294 Crs
3253 2261 Crs
3364 2295 Crs
4363 2515 Crs
3560 2330 Crs
3952 2485 Crs
3497 1977 Crs
4044 2595 Crs
3616 2113 Crs
3898 2566 Crs
4125 2344 Crs
3408 2392 Crs
4031 2189 Crs
3513 2236 Crs
3090 2197 Crs
2919 1980 Crs
3884 2268 Crs
3185 2113 Crs
3698 2480 Crs
3947 2496 Crs
3767 2053 Crs
3752 2352 Crs
3745 2240 Crs
3855 2518 Crs
3378 1919 Crs
3823 2088 Crs
4005 2187 Crs
4105 2670 Crs
4036 2444 Crs
3506 2155 Crs
3878 2385 Crs
3524 1953 Crs
3693 2088 Crs
4149 2558 Crs
3674 2214 Crs
3811 2079 Crs
3943 2623 Crs
3972 2100 Crs
3488 2205 Crs
4041 2425 Crs
3616 2476 Crs
3324 2306 Crs
3292 2009 Crs
3097 2048 Crs
3518 2014 Crs
4056 2274 Crs
4002 2084 Crs
3537 2402 Crs
3967 2182 Crs
3887 2183 Crs
3954 2446 Crs
3925 2504 Crs
3872 2058 Crs
3828 2526 Crs
3753 2434 Crs
3901 2272 Crs
3607 2334 Crs
3817 2237 Crs
3765 2231 Crs
3691 2324 Crs
4247 2580 Crs
3375 2259 Crs
3972 2276 Crs
4083 2539 Crs
4112 2011 Crs
2824 2083 Crs
3465 2268 Crs
3821 2363 Crs
3394 2268 Crs
4236 2295 Crs
3381 2342 Crs
3682 2262 Crs
3298 2396 Crs
3081 2149 Crs
3954 2136 Crs
3933 2501 Crs
3999 2296 Crs
3896 2336 Crs
3376 1984 Crs
3592 2318 Crs
3513 2011 Crs
3731 2467 Crs
3457 1893 Crs
2879 2117 Crs
3482 2335 Crs
4045 2484 Crs
3850 2372 Crs
3821 1885 Crs
3815 2599 Crs
3742 2429 Crs
3983 2432 Crs
3216 2408 Crs
3768 2267 Crs
3748 2285 Crs
3835 2388 Crs
3996 2555 Crs
3992 2401 Crs
4012 2269 Crs
3989 1926 Crs
3750 2049 Crs
3892 2056 Crs
3546 2295 Crs
3291 2170 Crs
3761 2261 Crs
3850 2346 Crs
3894 2351 Crs
3963 2215 Crs
3616 2643 Crs
3688 2442 Crs
3495 2055 Crs
3808 2193 Crs
3857 2426 Crs
3562 1861 Crs
3529 2068 Crs
3397 1993 Crs
3720 2247 Crs
3764 2622 Crs
3851 2222 Crs
3888 2055 Crs
4027 2340 Crs
3728 2147 Crs
2964 2029 Crs
3591 2361 Crs
3602 2469 Crs
2789 1726 Crs
3974 2247 Crs
4399 2276 Crs
3768 2376 Crs
3868 2079 Crs
3063 2041 Crs
3859 2140 Crs
3528 2480 Crs
3838 2365 Crs
3350 2208 Crs
3237 1875 Crs
3634 2452 Crs
3876 2558 Crs
3896 2394 Crs
3432 2147 Crs
3665 2551 Crs
3452 2306 Crs
3621 1896 Crs
3813 2384 Crs
3678 2170 Crs
3891 2243 Crs
3774 2376 Crs
3814 2335 Crs
3981 2228 Crs
3605 2680 Crs
3846 2350 Crs
3973 2258 Crs
3701 2102 Crs
3465 2270 Crs
3678 2456 Crs
3850 1924 Crs
3749 2357 Crs
4679 2503 Crs
3493 2561 Crs
3593 2171 Crs
4349 2453 Crs
3139 2289 Crs
3340 2053 Crs
3556 2163 Crs
3589 1950 Crs
4073 2368 Crs
3415 2289 Crs
4175 2075 Crs
3421 2181 Crs
3420 1878 Crs
3461 2444 Crs
3186 2122 Crs
4055 2594 Crs
4056 2683 Crs
3559 2584 Crs
3912 2594 Crs
3974 2307 Crs
3938 2459 Crs
3108 2026 Crs
3844 2126 Crs
3847 2208 Crs
3764 2440 Crs
3527 2111 Crs
4025 2219 Crs
3720 2373 Crs
3954 2578 Crs
3585 2324 Crs
3773 1862 Crs
4039 2743 Crs
3448 2185 Crs
3692 2275 Crs
4027 2314 Crs
3521 2320 Crs
3418 2301 Crs
4090 2565 Crs
3940 2633 Crs
3768 2483 Crs
4277 2612 Crs
3749 2421 Crs
4007 2430 Crs
3027 2229 Crs
3643 2470 Crs
4205 2239 Crs
3226 2038 Crs
3490 2096 Crs
4371 2449 Crs
3749 2778 Crs
3997 2046 Crs
3294 2177 Crs
3712 2174 Crs
3833 2425 Crs
3816 2401 Crs
4010 2688 Crs
4200 2423 Crs
3443 2205 Crs
3953 2242 Crs
3853 2425 Crs
2907 2044 Crs
3775 2279 Crs
4088 2526 Crs
2948 1835 Crs
3909 2492 Crs
3701 2241 Crs
4322 2584 Crs
3602 1898 Crs
3950 2077 Crs
3849 1989 Crs
3559 2035 Crs
2869 1830 Crs
3165 2152 Crs
3880 2255 Crs
3951 2501 Crs
3802 2500 Crs
3893 2216 Crs
3223 2172 Crs
3450 2490 Crs
3603 1578 Crs
4008 2218 Crs
4060 2329 Crs
4202 2387 Crs
3439 1940 Crs
4006 2782 Crs
3801 2581 Crs
3242 2003 Crs
4251 2750 Crs
3274 2415 Crs
3706 2389 Crs
3707 2383 Crs
4332 2428 Crs
3578 2115 Crs
3923 2333 Crs
4321 2377 Crs
4228 2251 Crs
4261 2535 Crs
3276 2316 Crs
3974 2163 Crs
3758 2068 Crs
3725 2658 Crs
3447 2066 Crs
4267 2447 Crs
3919 2231 Crs
3511 2139 Crs
3481 2382 Crs
3740 2613 Crs
3726 2598 Crs
3453 2178 Crs
3654 2153 Crs
3383 2443 Crs
2670 1970 Crs
3371 1844 Crs
3690 2372 Crs
3637 2586 Crs
3973 2363 Crs
4584 2386 Crs
3487 2136 Crs
4077 2005 Crs
4446 2319 Crs
3947 2213 Crs
3601 2340 Crs
3195 2253 Crs
4058 2375 Crs
3674 2164 Crs
3935 2171 Crs
3290 1787 Crs
3226 2299 Crs
3585 2269 Crs
3536 2343 Crs
3847 2451 Crs
4066 2189 Crs
3563 2202 Crs
3918 2202 Crs
3636 2492 Crs
3737 2245 Crs
4131 2566 Crs
3766 2263 Crs
3767 2077 Crs
3955 2334 Crs
3759 2230 Crs
3958 2327 Crs
4461 2267 Crs
3028 2065 Crs
3317 2299 Crs
3997 2688 Crs
3426 2074 Crs
3586 2381 Crs
3740 2195 Crs
3658 2330 Crs
4036 2549 Crs
3104 2321 Crs
4325 2652 Crs
3596 2195 Crs
3952 2235 Crs
3888 2239 Crs
3107 2189 Crs
3784 2433 Crs
2941 1999 Crs
3379 2173 Crs
3637 2341 Crs
3649 2263 Crs
3744 2335 Crs
3355 2078 Crs
3090 2128 Crs
3336 2097 Crs
3552 2371 Crs
3986 2533 Crs
3546 2336 Crs
3916 2294 Crs
3809 2261 Crs
3248 1922 Crs
3387 2156 Crs
3362 2265 Crs
3949 2319 Crs
3304 2340 Crs
4136 2383 Crs
4031 2315 Crs
2817 2036 Crs
3911 2568 Crs
4069 2525 Crs
3731 2343 Crs
3456 2349 Crs
4117 2700 Crs
4251 2655 Crs
4065 2415 Crs
3978 2152 Crs
3795 2340 Crs
3266 1879 Crs
4354 2578 Crs
3542 2243 Crs
3834 2341 Crs
3894 2588 Crs
4100 1615 Crs
3445 2249 Crs
3601 1878 Crs
4214 2377 Crs
3890 2010 Crs
3642 2469 Crs
3798 2173 Crs
3683 2132 Crs
3566 2433 Crs
4179 2212 Crs
3685 2262 Crs
3683 2245 Crs
3779 2197 Crs
3887 2744 Crs
3120 2271 Crs
3894 2734 Crs
3722 2464 Crs
3489 2346 Crs
3189 2242 Crs
3098 2075 Crs
3503 2216 Crs
4220 2456 Crs
3260 2268 Crs
3854 2398 Crs
3148 2339 Crs
3213 2217 Crs
3780 2266 Crs
2985 2210 Crs
3895 2250 Crs
3414 2559 Crs
4349 2992 Crs
3303 1847 Crs
3000 1796 Crs
3626 2428 Crs
3583 2033 Crs
3651 1934 Crs
3805 2313 Crs
3789 2840 Crs
2905 2101 Crs
4301 2449 Crs
3936 2350 Crs
3958 2332 Crs
3948 2469 Crs
4027 2416 Crs
2838 2105 Crs
3865 2450 Crs
3629 2193 Crs
3391 2061 Crs
3131 1959 Crs
4054 2311 Crs
3412 2248 Crs
3793 2166 Crs
3238 1981 Crs
3888 2558 Crs
3805 2720 Crs
3063 2286 Crs
3524 2272 Crs
4056 2474 Crs
3556 2574 Crs
3691 2363 Crs
3772 2464 Crs
3900 2203 Crs
4064 2270 Crs
3717 2427 Crs
3973 2201 Crs
3743 2094 Crs
3628 2439 Crs
3386 2354 Crs
4017 2542 Crs
4110 2418 Crs
3669 2617 Crs
3124 2353 Crs
3926 2252 Crs
3995 2734 Crs
3578 2214 Crs
3566 2343 Crs
3600 2296 Crs
4044 2411 Crs
3879 2060 Crs
3331 2147 Crs
4224 2265 Crs
3407 1948 Crs
3596 2469 Crs
4099 2579 Crs
3304 1878 Crs
4241 2645 Crs
3772 2085 Crs
3010 1655 Crs
3998 2014 Crs
3392 2062 Crs
3303 2034 Crs
3870 2321 Crs
3535 2184 Crs
3611 1992 Crs
3386 2371 Crs
3836 2106 Crs
3440 2205 Crs
3689 2231 Crs
3224 1797 Crs
3899 2377 Crs
3354 2006 Crs
3712 2186 Crs
3486 2396 Crs
4327 2422 Crs
4042 1875 Crs
3658 2558 Crs
4239 2697 Crs
3762 2333 Crs
3685 2541 Crs
3486 2546 Crs
3851 2623 Crs
4024 2587 Crs
3566 2232 Crs
3830 2199 Crs
3322 2284 Crs
3935 2087 Crs
3690 2327 Crs
4212 2655 Crs
3579 2333 Crs
3306 1895 Crs
3758 2578 Crs
3429 2147 Crs
4030 2203 Crs
3866 2321 Crs
4164 2586 Crs
3144 1921 Crs
3257 1825 Crs
4076 2533 Crs
4134 2536 Crs
2848 1839 Crs
3238 2230 Crs
3666 2671 Crs
3927 2510 Crs
3159 2012 Crs
3902 2092 Crs
3584 2113 Crs
3605 2100 Crs
3645 1872 Crs
3823 2689 Crs
3935 2399 Crs
4094 2537 Crs
4001 2337 Crs
3093 2130 Crs
3803 2266 Crs
3574 2205 Crs
3962 2342 Crs
3526 1953 Crs
3712 2064 Crs
3925 2398 Crs
3733 2224 Crs
3375 2415 Crs
3401 2405 Crs
3773 2011 Crs
3885 2441 Crs
3899 2327 Crs
3837 2632 Crs
4123 2918 Crs
3660 1947 Crs
3442 2015 Crs
3574 2103 Crs
3743 2505 Crs
3938 2622 Crs
4156 2737 Crs
3213 2351 Crs
3453 2537 Crs
3932 1797 Crs
3722 2462 Crs
3839 2383 Crs
3503 2287 Crs
4052 2272 Crs
3757 2015 Crs
4097 2508 Crs
3995 2575 Crs
4219 2601 Crs
4022 2384 Crs
3664 1983 Crs
3720 2366 Crs
3756 2238 Crs
3732 2492 Crs
3460 2376 Crs
3875 2342 Crs
4025 2230 Crs
3229 2279 Crs
4004 2242 Crs
3355 2102 Crs
4100 2511 Crs
3377 2155 Crs
3808 2015 Crs
3375 1975 Crs
3957 2485 Crs
3898 2193 Crs
3586 2328 Crs
4038 2121 Crs
4153 2081 Crs
3831 2490 Crs
4121 2279 Crs
3582 2465 Crs
3461 2596 Crs
4059 2525 Crs
3338 2044 Crs
3947 2132 Crs
3528 2192 Crs
3745 2486 Crs
3731 2441 Crs
3933 2515 Crs
4038 2378 Crs
3867 2348 Crs
3876 2916 Crs
4063 2505 Crs
4360 2564 Crs
4329 2522 Crs
3777 2495 Crs
3781 2318 Crs
3896 2703 Crs
3529 1952 Crs
3960 2330 Crs
4228 2461 Crs
3935 2430 Crs
3379 2097 Crs
3530 2362 Crs
3973 2578 Crs
2963 2086 Crs
3201 2201 Crs
3821 2167 Crs
4300 2645 Crs
3656 2571 Crs
3982 2244 Crs
3569 2148 Crs
4142 2353 Crs
3565 1971 Crs
3443 2414 Crs
3697 2317 Crs
3612 2259 Crs
3386 1797 Crs
4123 2614 Crs
3284 2116 Crs
4004 2512 Crs
4036 2081 Crs
4347 2459 Crs
3649 2237 Crs
4398 2273 Crs
3658 2156 Crs
3336 2275 Crs
4010 2617 Crs
3256 2136 Crs
3572 2419 Crs
3662 2220 Crs
3764 1980 Crs
4083 2360 Crs
3707 2052 Crs
3637 2102 Crs
3734 2807 Crs
3883 2865 Crs
4070 2302 Crs
3850 2376 Crs
3293 2070 Crs
2761 2004 Crs
3850 2418 Crs
2623 1932 Crs
3021 2016 Crs
3648 2358 Crs
3622 2148 Crs
3003 2249 Crs
2976 2126 Crs
3342 2249 Crs
4131 2221 Crs
3320 1954 Crs
3686 2568 Crs
4097 2179 Crs
3470 2342 Crs
3609 2506 Crs
3995 2333 Crs
4208 2309 Crs
4002 2598 Crs
2995 2101 Crs
3753 2036 Crs
3652 1784 Crs
3812 2388 Crs
3299 2048 Crs
2657 1621 Crs
3318 1879 Crs
3969 2477 Crs
3687 2473 Crs
4039 2421 Crs
3784 2621 Crs
3660 2354 Crs
3400 1871 Crs
3975 2162 Crs
3428 2086 Crs
4170 2684 Crs
3961 2018 Crs
4379 2425 Crs
3270 1850 Crs
3897 2368 Crs
3182 2164 Crs
3759 2070 Crs
3486 2095 Crs
3599 2174 Crs
3518 2320 Crs
3765 2255 Crs
4170 2155 Crs
2872 2036 Crs
4224 2363 Crs
3988 2352 Crs
4170 2347 Crs
3485 1980 Crs
2726 1925 Crs
4172 2644 Crs
4072 2307 Crs
3513 2458 Crs
3593 2339 Crs
3705 2523 Crs
2998 1817 Crs
3831 2481 Crs
3163 2181 Crs
3685 2324 Crs
3777 2156 Crs
3425 2511 Crs
3660 2196 Crs
3765 2462 Crs
4515 2505 Crs
3751 2362 Crs
3706 2366 Crs
3404 2130 Crs
3627 2042 Crs
3807 2405 Crs
3636 2167 Crs
3200 2257 Crs
3535 2273 Crs
3728 1894 Crs
4024 2337 Crs
3257 2128 Crs
3821 2442 Crs
4038 2351 Crs
3814 2823 Crs
3448 2279 Crs
3036 2243 Crs
3443 2092 Crs
4211 2296 Crs
3707 2121 Crs
4111 2341 Crs
3702 2176 Crs
3278 2049 Crs
3493 2275 Crs
3435 2077 Crs
3517 2372 Crs
3689 2515 Crs
3466 2343 Crs
3257 2136 Crs
3957 2247 Crs
3743 2305 Crs
3799 2428 Crs
3606 2018 Crs
4154 2477 Crs
3426 2200 Crs
3871 2648 Crs
4287 2125 Crs
3436 2402 Crs
3319 1954 Crs
3855 2206 Crs
4060 2327 Crs
3724 1891 Crs
3635 2150 Crs
3798 2683 Crs
3726 2320 Crs
3978 2772 Crs
3841 2436 Crs
3894 2527 Crs
3481 2072 Crs
3658 2435 Crs
4324 2400 Crs
4451 2236 Crs
4025 2286 Crs
4064 2362 Crs
3788 2466 Crs
3256 2402 Crs
3944 2460 Crs
3987 2560 Crs
3383 1968 Crs
3884 2226 Crs
4124 2553 Crs
3285 2281 Crs
3164 1976 Crs
3308 2132 Crs
3658 2130 Crs
3600 2543 Crs
3769 2214 Crs
3393 2284 Crs
3419 2173 Crs
4036 2465 Crs
4296 2224 Crs
4023 2673 Crs
4156 2729 Crs
4058 2202 Crs
3960 2259 Crs
3251 2390 Crs
4231 2417 Crs
3818 2454 Crs
3549 2396 Crs
4066 2322 Crs
3067 2162 Crs
3617 2163 Crs
3186 1985 Crs
3526 2349 Crs
3216 1969 Crs
3691 2337 Crs
4093 2400 Crs
3923 2450 Crs
4045 2246 Crs
3321 2055 Crs
4154 2894 Crs
3781 2444 Crs
3782 2239 Crs
4138 2267 Crs
3500 2108 Crs
4111 2218 Crs
3613 2566 Crs
3818 2036 Crs
4105 2171 Crs
3479 2147 Crs
3974 2136 Crs
3642 2332 Crs
3683 2390 Crs
2979 2050 Crs
4196 2284 Crs
3338 2137 Crs
3782 2156 Crs
4007 2347 Crs
3810 1964 Crs
3702 2337 Crs
3929 2289 Crs
4020 2642 Crs
3164 2053 Crs
2804 1782 Crs
4679 2616 Crs
4059 2211 Crs
3677 2478 Crs
3888 2402 Crs
3534 1990 Crs
3487 2124 Crs
3571 2382 Crs
3659 2312 Crs
4123 2056 Crs
3706 2431 Crs
2832 2125 Crs
3292 2342 Crs
3437 2235 Crs
3629 1975 Crs
3377 2237 Crs
3478 2298 Crs
3209 1956 Crs
3859 2580 Crs
3938 2618 Crs
3292 1829 Crs
3424 2260 Crs
4236 2547 Crs
4086 2535 Crs
3501 2441 Crs
3911 2170 Crs
3294 1991 Crs
4088 2132 Crs
3245 2040 Crs
3170 2276 Crs
4064 2523 Crs
4009 2122 Crs
3805 2209 Crs
2788 1826 Crs
3059 1829 Crs
4324 2413 Crs
3912 2162 Crs
4110 2262 Crs
4064 2436 Crs
3868 2334 Crs
4259 2291 Crs
4178 2472 Crs
3623 2037 Crs
3708 2287 Crs
3899 2223 Crs
3816 2312 Crs
4336 2093 Crs
3745 2147 Crs
2968 2157 Crs
3555 2537 Crs
3602 2437 Crs
3252 2326 Crs
3881 2289 Crs
3977 2325 Crs
3949 2055 Crs
3331 2064 Crs
3666 2218 Crs
3909 2411 Crs
4051 2313 Crs
3159 2119 Crs
4317 2279 Crs
3993 2508 Crs
3789 2608 Crs
3406 2104 Crs
4054 2656 Crs
4397 2567 Crs
3854 2172 Crs
4072 2463 Crs
3995 2428 Crs
4494 2231 Crs
4117 2198 Crs
3846 2485 Crs
3465 2248 Crs
3655 2035 Crs
3557 2381 Crs
4088 2228 Crs
4170 2276 Crs
3373 2172 Crs
3480 2300 Crs
3714 2049 Crs
3809 2444 Crs
3455 2235 Crs
4178 2185 Crs
3996 2731 Crs
4045 2508 Crs
4140 2300 Crs
4084 2401 Crs
3357 2434 Crs
4033 2459 Crs
3066 2233 Crs
3434 2234 Crs
3605 2386 Crs
3122 1804 Crs
3458 1985 Crs
3834 2357 Crs
3635 2195 Crs
3056 2138 Crs
3351 2393 Crs
3687 2448 Crs
3915 2576 Crs
3225 2195 Crs
3391 1993 Crs
3974 2581 Crs
2834 1906 Crs
3838 2622 Crs
3281 2315 Crs
4047 2488 Crs
3808 2539 Crs
3026 2107 Crs
4016 2255 Crs
4075 2647 Crs
4252 2260 Crs
3660 2406 Crs
3808 2419 Crs
3377 2429 Crs
3154 2107 Crs
3527 2104 Crs
3544 2241 Crs
3131 2229 Crs
4199 2797 Crs
3220 1640 Crs
4088 2506 Crs
3992 2346 Crs
3569 2450 Crs
3879 2431 Crs
3393 2146 Crs
3796 2526 Crs
3235 2055 Crs
3355 2442 Crs
3709 2469 Crs
3409 2337 Crs
3479 2133 Crs
4122 2404 Crs
3235 1868 Crs
3433 1624 Crs
4146 2426 Crs
2808 2088 Crs
3257 2351 Crs
3893 2494 Crs
3410 2284 Crs
3375 2386 Crs
3901 2289 Crs
3833 2307 Crs
3368 2145 Crs
3665 2615 Crs
3218 2164 Crs
3560 2133 Crs
3747 2073 Crs
3809 2302 Crs
3612 2259 Crs
3992 2531 Crs
3932 2052 Crs
3130 1964 Crs
3701 2665 Crs
3497 2260 Crs
3263 1901 Crs
3954 2613 Crs
3912 2202 Crs
3316 2371 Crs
4038 2034 Crs
3857 2320 Crs
3700 2236 Crs
3509 2492 Crs
3782 2086 Crs
3697 2314 Crs
3579 2633 Crs
3870 2603 Crs
4011 2177 Crs
3373 1859 Crs
3636 2163 Crs
3521 2495 Crs
3278 2060 Crs
3796 2590 Crs
3246 2331 Crs
3667 2199 Crs
3959 2233 Crs
3953 2197 Crs
3182 2074 Crs
3895 2503 Crs
3866 2484 Crs
4068 2245 Crs
3951 2045 Crs
3916 2272 Crs
3743 2431 Crs
3047 2289 Crs
4166 2275 Crs
3080 1813 Crs
3646 2566 Crs
4014 2538 Crs
3878 2405 Crs
3010 1947 Crs
3525 2295 Crs
4415 2618 Crs
3833 2038 Crs
3391 2529 Crs
3278 2155 Crs
3620 2010 Crs
3314 2214 Crs
3687 2289 Crs
3785 2447 Crs
3501 2241 Crs
4221 2490 Crs
3199 2238 Crs
4172 2645 Crs
3870 2085 Crs
3607 2353 Crs
3780 2340 Crs
3998 2343 Crs
4638 2267 Crs
3200 1834 Crs
3781 2092 Crs
3420 2516 Crs
3480 2299 Crs
3554 2214 Crs
3702 2511 Crs
3524 2484 Crs
3245 1990 Crs
3433 2241 Crs
3686 2652 Crs
3916 2499 Crs
3972 2073 Crs
4439 2333 Crs
3181 2074 Crs
4127 2427 Crs
4050 2350 Crs
3313 2352 Crs
3783 2087 Crs
4067 2296 Crs
4002 2403 Crs
3887 2449 Crs
3252 1980 Crs
3602 2490 Crs
3824 2515 Crs
3902 2232 Crs
3893 2606 Crs
3887 2796 Crs
3926 2420 Crs
3570 2279 Crs
3998 2442 Crs
3954 2014 Crs
3729 2413 Crs
3300 2157 Crs
3849 2248 Crs
4142 2623 Crs
3375 2113 Crs
3714 2265 Crs
3750 2009 Crs
4285 2536 Crs
3135 2037 Crs
3988 2305 Crs
3967 2505 Crs
3647 2301 Crs
3719 2304 Crs
3601 2480 Crs
4042 2443 Crs
3424 2199 Crs
3562 2351 Crs
3698 2248 Crs
4123 2564 Crs
3710 2073 Crs
3605 2455 Crs
3440 2396 Crs
3458 2106 Crs
3839 2573 Crs
3658 2361 Crs
3787 2075 Crs
3283 1804 Crs
4393 2618 Crs
3342 2315 Crs
3956 2213 Crs
3660 2481 Crs
4048 2379 Crs
3570 2039 Crs
3822 2368 Crs
3579 2171 Crs
4215 2349 Crs
3397 2383 Crs
3810 2155 Crs
4443 2450 Crs
3604 2003 Crs
3894 2255 Crs
4230 2226 Crs
4157 2439 Crs
4087 2563 Crs
3841 2361 Crs
3822 2187 Crs
3576 1849 Crs
4022 2291 Crs
3782 2060 Crs
3931 2020 Crs
3479 2330 Crs
3409 2439 Crs
3253 2186 Crs
4432 2540 Crs
3830 2342 Crs
3463 2513 Crs
3248 2249 Crs
3654 2131 Crs
3772 1810 Crs
3677 2275 Crs
3995 2696 Crs
3826 2801 Crs
4049 2483 Crs
4204 2354 Crs
4317 2336 Crs
3130 2034 Crs
3765 2143 Crs
3651 2603 Crs
3354 2316 Crs
4275 2431 Crs
3863 2376 Crs
3831 2295 Crs
3423 2243 Crs
3839 2395 Crs
3930 2204 Crs
3725 2084 Crs
3929 2772 Crs
3918 2540 Crs
3052 1994 Crs
4356 2178 Crs
3565 2446 Crs
4154 2215 Crs
4265 2553 Crs
4066 2304 Crs
3942 2058 Crs
3713 2232 Crs
3189 2227 Crs
3823 2415 Crs
3856 2436 Crs
3586 2066 Crs
3926 2010 Crs
4309 2126 Crs
4215 2244 Crs
3210 2110 Crs
3792 2128 Crs
4250 2473 Crs
3741 2697 Crs
3040 1984 Crs
4096 2367 Crs
3690 2096 Crs
3370 2231 Crs
3494 2485 Crs
4263 2342 Crs
3571 2213 Crs
3711 2066 Crs
3521 2067 Crs
3126 2245 Crs
3548 2359 Crs
3198 2191 Crs
3890 2409 Crs
3993 2706 Crs
3071 2142 Crs
3478 2257 Crs
3093 2163 Crs
3340 2359 Crs
3518 2287 Crs
3946 2018 Crs
3382 2233 Crs
4106 2409 Crs
4293 2598 Crs
3586 2184 Crs
3396 1790 Crs
3981 1902 Crs
4135 2841 Crs
4132 2124 Crs
4164 2559 Crs
3346 2425 Crs
3275 2012 Crs
3872 2378 Crs
3895 2245 Crs
4027 2519 Crs
4011 2529 Crs
3905 2413 Crs
3985 2476 Crs
2557 1740 Crs
4022 2502 Crs
3646 2279 Crs
4392 2222 Crs
3658 2621 Crs
3845 2359 Crs
3667 2085 Crs
3918 2227 Crs
3527 2622 Crs
4112 2303 Crs
3697 2032 Crs
3813 2495 Crs
3848 2445 Crs
3499 2241 Crs
4234 2997 Crs
3906 2221 Crs
4263 2498 Crs
2978 1881 Crs
4369 2534 Crs
4079 2139 Crs
3790 1988 Crs
4059 2413 Crs
3486 1956 Crs
3397 2088 Crs
3902 2322 Crs
3460 2228 Crs
3939 2094 Crs
3615 2374 Crs
4412 2479 Crs
4146 2237 Crs
3622 2162 Crs
3922 2318 Crs
3819 2572 Crs
3545 2641 Crs
4140 2565 Crs
3933 1962 Crs
3600 2459 Crs
3939 2028 Crs
4044 2280 Crs
3724 1903 Crs
3857 2537 Crs
2407 1760 Crs
3590 2325 Crs
3600 2394 Crs
3627 2512 Crs
3873 2136 Crs
3982 2481 Crs
3891 2535 Crs
3711 2628 Crs
4008 1814 Crs
3895 2469 Crs
2873 2120 Crs
4282 2241 Crs
3856 2272 Crs
3123 2227 Crs
3673 2240 Crs
3837 2362 Crs
3744 1875 Crs
2986 2189 Crs
3972 2588 Crs
3922 2372 Crs
3422 1980 Crs
3994 2465 Crs
3415 1911 Crs
4078 2404 Crs
3710 2392 Crs
3633 2557 Crs
4022 2446 Crs
4197 2811 Crs
3604 2334 Crs
3831 2072 Crs
3631 1578 Crs
4679 2315 Crs
3933 2207 Crs
3803 2315 Crs
3381 2313 Crs
3381 2358 Crs
4085 2446 Crs
3233 2329 Crs
4196 2826 Crs
3982 2062 Crs
3867 2423 Crs
3527 2449 Crs
4010 2464 Crs
3792 2448 Crs
3802 2361 Crs
3961 2184 Crs
3910 2428 Crs
4425 2720 Crs
3840 2659 Crs
3566 2453 Crs
3707 2134 Crs
3537 2314 Crs
3475 2177 Crs
3393 2061 Crs
3150 2028 Crs
2832 1960 Crs
3878 2432 Crs
3916 2256 Crs
4180 2289 Crs
3745 2282 Crs
3284 2464 Crs
3930 2189 Crs
3347 2400 Crs
3682 2345 Crs
3520 2185 Crs
3242 2013 Crs
3828 2226 Crs
3402 2284 Crs
3951 2728 Crs
4176 2553 Crs
3950 2410 Crs
3696 2316 Crs
4011 2051 Crs
3561 1972 Crs
4072 2894 Crs
3623 2245 Crs
3607 2116 Crs
3904 1995 Crs
3686 2287 Crs
3038 1932 Crs
3329 2130 Crs
3355 2358 Crs
3507 1978 Crs
4039 2349 Crs
3603 1919 Crs
3280 2184 Crs
2914 2109 Crs
3834 2422 Crs
3975 2223 Crs
3909 2146 Crs
3736 2337 Crs
3713 2388 Crs
3453 2161 Crs
4074 2359 Crs
4431 2677 Crs
3340 2008 Crs
3118 2117 Crs
3878 2589 Crs
4150 2642 Crs
3771 2153 Crs
3851 2311 Crs
4077 2667 Crs
3529 2351 Crs
3500 2358 Crs
3694 2318 Crs
4160 2452 Crs
3978 2226 Crs
3706 2238 Crs
3422 2278 Crs
3465 2449 Crs
3713 2301 Crs
2816 2021 Crs
3471 2233 Crs
2817 2091 Crs
3808 1853 Crs
3127 2089 Crs
3949 2445 Crs
3776 2125 Crs
3719 2227 Crs
3691 2073 Crs
3814 2054 Crs
4259 2232 Crs
3345 1821 Crs
3791 2273 Crs
3380 2268 Crs
3687 2447 Crs
3514 2281 Crs
3598 2281 Crs
3999 2550 Crs
3874 2124 Crs
3367 2267 Crs
4057 2491 Crs
3612 1876 Crs
3777 2431 Crs
3335 2257 Crs
3052 1854 Crs
4359 2459 Crs
4072 2067 Crs
3332 2292 Crs
3488 2200 Crs
3158 2028 Crs
3986 2474 Crs
4277 2446 Crs
3914 2204 Crs
3787 2210 Crs
3873 2196 Crs
4050 2574 Crs
3679 2028 Crs
3845 2593 Crs
3795 2015 Crs
3955 2287 Crs
3924 2325 Crs
4524 2678 Crs
3813 2283 Crs
3704 2610 Crs
3976 2051 Crs
3888 2578 Crs
4129 2405 Crs
3429 2098 Crs
4037 2707 Crs
3863 2473 Crs
3849 2463 Crs
3239 2226 Crs
4128 2673 Crs
3857 2262 Crs
3200 2222 Crs
3557 2108 Crs
3421 2393 Crs
3502 2154 Crs
3659 2259 Crs
3769 2250 Crs
3632 2149 Crs
4139 2684 Crs
3933 2050 Crs
3735 2189 Crs
3346 2060 Crs
3594 2452 Crs
3491 2292 Crs
3917 2206 Crs
3548 2361 Crs
3679 2263 Crs
3621 2246 Crs
3441 1976 Crs
3639 2498 Crs
3901 2513 Crs
3749 2000 Crs
3593 2285 Crs
3450 2158 Crs
4042 2289 Crs
3588 2203 Crs
3859 2429 Crs
3077 2119 Crs
3795 2351 Crs
3693 2386 Crs
3903 2115 Crs
3402 2311 Crs
3753 2427 Crs
4166 2486 Crs
3621 2311 Crs
3772 2205 Crs
3385 2503 Crs
4156 2296 Crs
4004 2625 Crs
2551 1734 Crs
3588 1903 Crs
3005 1858 Crs
3361 1701 Crs
3344 2076 Crs
3759 2040 Crs
3328 2299 Crs
3845 2240 Crs
3600 2547 Crs
3438 2083 Crs
3604 2505 Crs
3288 2169 Crs
3512 2313 Crs
4208 2982 Crs
3813 2477 Crs
3874 1903 Crs
4132 2717 Crs
3831 2272 Crs
3706 2530 Crs
3889 2554 Crs
3844 2580 Crs
3497 2546 Crs
3744 1902 Crs
3726 2586 Crs
3804 2450 Crs
3201 2360 Crs
4005 2446 Crs
3941 2132 Crs
3532 1819 Crs
3838 2425 Crs
3451 2056 Crs
3769 2462 Crs
3821 2185 Crs
3104 1974 Crs
3845 2364 Crs
2999 2253 Crs
3647 2253 Crs
3451 2201 Crs
3180 2250 Crs
3731 2215 Crs
3416 2306 Crs
3013 2233 Crs
3938 2156 Crs
4145 2317 Crs
3632 2141 Crs
3606 2241 Crs
3544 2520 Crs
3846 2160 Crs
4057 2426 Crs
3092 2005 Crs
3646 2204 Crs
4385 2766 Crs
3463 2040 Crs
3843 2451 Crs
3730 2490 Crs
3036 2229 Crs
3789 2401 Crs
3640 2251 Crs
3276 2105 Crs
3517 1985 Crs
3114 1856 Crs
3468 2110 Crs
3964 2443 Crs
3833 2519 Crs
3223 2303 Crs
3831 2368 Crs
3295 2279 Crs
3388 2420 Crs
3417 2333 Crs
3550 1989 Crs
4128 2311 Crs
3855 2247 Crs
3797 2305 Crs
3278 2347 Crs
4051 2525 Crs
4201 2181 Crs
3730 2568 Crs
3431 2376 Crs
3700 2052 Crs
4055 1927 Crs
3467 1974 Crs
4077 2654 Crs
3572 2320 Crs
3989 2156 Crs
4140 2188 Crs
4049 2092 Crs
3122 2234 Crs
3770 2028 Crs
3182 2193 Crs
3514 2363 Crs
2727 1904 Crs
3351 2290 Crs
3858 2307 Crs
3679 2258 Crs
4002 2391 Crs
3825 2426 Crs
3599 2123 Crs
3691 2023 Crs
3195 2318 Crs
4065 2548 Crs
3736 2207 Crs
4224 2520 Crs
3437 2330 Crs
3815 2118 Crs
4191 2783 Crs
3215 2207 Crs
3270 1935 Crs
4192 2301 Crs
4040 2299 Crs
3783 2122 Crs
3709 2211 Crs
4237 2664 Crs
3792 2380 Crs
3180 2300 Crs
4052 2406 Crs
3542 2158 Crs
4101 2569 Crs
2937 1954 Crs
3833 2268 Crs
3427 2552 Crs
4038 2136 Crs
4228 2653 Crs
3469 2007 Crs
3415 2314 Crs
4196 2589 Crs
3106 2290 Crs
3412 2305 Crs
3704 2462 Crs
3980 2567 Crs
4243 3037 Crs
3676 2405 Crs
3810 2190 Crs
3944 2671 Crs
3841 2395 Crs
3713 2287 Crs
3019 2218 Crs
3809 2127 Crs
3921 2210 Crs
4063 2406 Crs
3155 2177 Crs
3647 2464 Crs
3402 2501 Crs
3525 2121 Crs
4125 2405 Crs
3486 2381 Crs
3947 2536 Crs
3807 2665 Crs
3893 1994 Crs
3983 2430 Crs
3699 2453 Crs
3268 2180 Crs
4178 2644 Crs
3813 2229 Crs
4229 2468 Crs
2973 2163 Crs
3859 2263 Crs
4136 2343 Crs
3832 2402 Crs
3239 2363 Crs
3120 2289 Crs
3704 2151 Crs
4144 2448 Crs
3749 2461 Crs
3339 2251 Crs
3466 2191 Crs
3391 2135 Crs
3980 2106 Crs
2953 1890 Crs
3925 2348 Crs
3979 2289 Crs
3018 1689 Crs
2844 1879 Crs
3139 1961 Crs
2871 2151 Crs
3848 2228 Crs
2858 2043 Crs
3546 2372 Crs
3890 1960 Crs
3182 2117 Crs
4031 2539 Crs
3115 2145 Crs
3968 2332 Crs
3106 1866 Crs
3807 2185 Crs
4175 2300 Crs
3789 2366 Crs
3233 2137 Crs
3812 2121 Crs
3685 2347 Crs
3885 2450 Crs
3601 2456 Crs
3561 2573 Crs
3789 2472 Crs
3746 2449 Crs
4431 2778 Crs
3255 2303 Crs
3872 2212 Crs
3837 2285 Crs
3547 2550 Crs
3421 2177 Crs
3792 2442 Crs
3655 2335 Crs
3395 2343 Crs
2966 1771 Crs
3491 1872 Crs
4098 2409 Crs
3780 2412 Crs
3559 2390 Crs
3987 2445 Crs
3740 2342 Crs
3791 2194 Crs
3794 2456 Crs
3587 2270 Crs
3629 2361 Crs
4424 2593 Crs
3342 2116 Crs
3832 2335 Crs
3241 2073 Crs
3847 2517 Crs
3494 1975 Crs
3425 2397 Crs
3870 2085 Crs
3848 2335 Crs
4420 2197 Crs
3607 2013 Crs
3661 2285 Crs
3409 2291 Crs
4194 2397 Crs
3252 2370 Crs
3902 1995 Crs
3550 2058 Crs
3442 2487 Crs
3085 2024 Crs
3315 2127 Crs
4014 2145 Crs
4535 2167 Crs
3961 2240 Crs
3776 2104 Crs
3723 2364 Crs
3527 2281 Crs
3471 2147 Crs
3957 2196 Crs
4289 2055 Crs
4063 2341 Crs
3951 2618 Crs
2978 2015 Crs
4493 2494 Crs
4092 2387 Crs
3714 2380 Crs
3866 2649 Crs
3822 2255 Crs
3589 2269 Crs
4028 2601 Crs
2821 2114 Crs
3603 2309 Crs
3023 2268 Crs
3183 2277 Crs
3960 2462 Crs
3686 2279 Crs
4195 2623 Crs
3640 2182 Crs
3243 1870 Crs
3790 2464 Crs
3775 2746 Crs
3662 2212 Crs
4073 2436 Crs
4010 2533 Crs
3984 2351 Crs
4255 2477 Crs
4278 2214 Crs
3949 2623 Crs
2922 2087 Crs
3266 2338 Crs
3346 2295 Crs
4058 2385 Crs
3681 2109 Crs
3816 2471 Crs
3969 2570 Crs
4557 2506 Crs
4179 2227 Crs
2943 1921 Crs
4650 2392 Crs
3451 2355 Crs
3976 2684 Crs
3887 2267 Crs
4073 2096 Crs
3777 2320 Crs
4033 2210 Crs
3984 2146 Crs
3439 2132 Crs
3760 1976 Crs
3809 2265 Crs
3193 1991 Crs
3830 2299 Crs
3633 2209 Crs
4291 2208 Crs
4071 2503 Crs
3389 2393 Crs
3523 2120 Crs
3447 2394 Crs
4212 2434 Crs
4587 2454 Crs
4098 2179 Crs
4221 2367 Crs
3223 1913 Crs
4055 2821 Crs
3811 2635 Crs
3662 2337 Crs
3941 2202 Crs
3887 2066 Crs
3510 2261 Crs
3994 2549 Crs
3351 2253 Crs
3336 2249 Crs
3649 2034 Crs
3577 2257 Crs
3686 2503 Crs
3673 2124 Crs
3396 2301 Crs
3033 2118 Crs
3896 2319 Crs
3335 2303 Crs
4021 2580 Crs
3485 2147 Crs
3879 2465 Crs
3948 2408 Crs
3953 2292 Crs
3568 2462 Crs
2576 1885 Crs
3867 2584 Crs
3185 2061 Crs
3526 2377 Crs
4105 2360 Crs
4017 2566 Crs
4034 2311 Crs
4219 2289 Crs
3737 2280 Crs
3383 1909 Crs
4116 2543 Crs
3746 1868 Crs
3332 2009 Crs
3873 2454 Crs
3600 2172 Crs
4309 2587 Crs
3239 1712 Crs
3929 2331 Crs
4020 2550 Crs
3857 2111 Crs
3461 2208 Crs
2967 2051 Crs
4165 2418 Crs
3677 2637 Crs
3718 2507 Crs
3910 2772 Crs
4386 2382 Crs
3470 2242 Crs
3752 2133 Crs
4032 2879 Crs
3012 2224 Crs
4030 1938 Crs
3923 2397 Crs
3527 2318 Crs
4071 2294 Crs
4333 2660 Crs
4296 2520 Crs
4052 2286 Crs
3992 2688 Crs
4042 2431 Crs
3632 2628 Crs
2968 2087 Crs
3800 2302 Crs
3683 2729 Crs
3222 2038 Crs
3930 2349 Crs
4211 2281 Crs
3478 2451 Crs
3656 2382 Crs
3102 2158 Crs
3717 2242 Crs
3719 2221 Crs
4165 2534 Crs
3988 2178 Crs
3558 2026 Crs
3292 2259 Crs
3605 2095 Crs
3877 2188 Crs
3432 2354 Crs
3223 2388 Crs
3708 2175 Crs
3910 2409 Crs
3600 2366 Crs
3756 2366 Crs
3162 2236 Crs
4019 2487 Crs
4261 2479 Crs
3892 2205 Crs
3910 2297 Crs
3701 2271 Crs
3925 2376 Crs
3435 2207 Crs
4310 2490 Crs
3679 1886 Crs
4359 2448 Crs
3617 2292 Crs
3408 2054 Crs
3681 2693 Crs
3677 2355 Crs
3817 2223 Crs
3679 2107 Crs
3611 2468 Crs
3411 2413 Crs
4002 2095 Crs
3885 2216 Crs
4174 2215 Crs
3420 2312 Crs
3561 2313 Crs
3845 2314 Crs
3470 2390 Crs
3506 2144 Crs
3788 2389 Crs
3794 2211 Crs
3377 2325 Crs
3685 2294 Crs
3851 2269 Crs
3621 2330 Crs
3783 1872 Crs
3830 2313 Crs
3492 1976 Crs
4163 2342 Crs
4431 2982 Crs
3963 2028 Crs
3999 2869 Crs
3918 2643 Crs
4191 2648 Crs
3919 2434 Crs
3442 2333 Crs
4409 2721 Crs
3394 1857 Crs
3705 2389 Crs
3265 2084 Crs
3045 2048 Crs
3837 2839 Crs
3744 1962 Crs
4319 2117 Crs
4043 2643 Crs
4171 2449 Crs
3967 2404 Crs
3745 2181 Crs
3811 2372 Crs
4344 2767 Crs
3891 2445 Crs
3740 2595 Crs
3878 2277 Crs
3763 2128 Crs
2975 2134 Crs
3923 2383 Crs
3886 2321 Crs
3087 2076 Crs
4247 2548 Crs
4210 2535 Crs
3660 1953 Crs
3875 2479 Crs
3875 2254 Crs
3748 2502 Crs
2754 2055 Crs
4679 2632 Crs
3655 2143 Crs
3666 2599 Crs
3964 2360 Crs
2913 1961 Crs
3625 2033 Crs
3781 2299 Crs
4142 2762 Crs
3192 2188 Crs
3285 2345 Crs
3788 2359 Crs
3570 2496 Crs
4069 2792 Crs
3791 2506 Crs
4181 2379 Crs
3291 2232 Crs
3998 2281 Crs
3401 1961 Crs
4169 2054 Crs
3909 1855 Crs
3979 2288 Crs
4030 2607 Crs
3712 2500 Crs
3636 2319 Crs
3648 2214 Crs
4108 2238 Crs
3460 2578 Crs
3527 2353 Crs
3275 2181 Crs
3658 2367 Crs
3845 1845 Crs
2955 2031 Crs
3608 2096 Crs
3170 2118 Crs
3809 2370 Crs
3768 2515 Crs
2638 1931 Crs
3722 1992 Crs
3808 2372 Crs
3715 2377 Crs
4051 2160 Crs
3957 2057 Crs
3083 2131 Crs
4253 2401 Crs
3677 2422 Crs
4076 2298 Crs
2538 1845 Crs
4042 2469 Crs
3785 2448 Crs
3851 2179 Crs
3578 2121 Crs
3502 1843 Crs
3729 2450 Crs
3346 2308 Crs
4008 2257 Crs
3770 2347 Crs
4123 2550 Crs
3434 2308 Crs
3986 2447 Crs
3598 2508 Crs
4060 2344 Crs
3598 1954 Crs
3305 2200 Crs
3577 2287 Crs
4308 2439 Crs
4071 2197 Crs
3577 2355 Crs
3748 2572 Crs
3745 2269 Crs
4152 2125 Crs
3392 1940 Crs
3962 2483 Crs
3950 2134 Crs
3307 2391 Crs
3740 2225 Crs
4171 2501 Crs
3872 2232 Crs
2871 1965 Crs
3945 2115 Crs
3294 2429 Crs
4059 2600 Crs
3422 2375 Crs
4008 2288 Crs
3931 2407 Crs
3951 2567 Crs
4117 2729 Crs
3178 2073 Crs
3429 2446 Crs
3798 2370 Crs
3738 2035 Crs
3407 2209 Crs
4016 2069 Crs
3827 2096 Crs
3709 2628 Crs
3104 2004 Crs
3929 2370 Crs
3652 2512 Crs
4169 2287 Crs
3864 2190 Crs
3169 2191 Crs
3552 2335 Crs
4101 2275 Crs
3796 2252 Crs
3937 1954 Crs
3872 2130 Crs
3825 2228 Crs
4013 2335 Crs
3124 2275 Crs
3933 2485 Crs
4422 2393 Crs
4121 2537 Crs
3562 1804 Crs
3150 2022 Crs
3553 2354 Crs
3744 2139 Crs
3814 2683 Crs
3709 2414 Crs
3805 2209 Crs
3104 2141 Crs
3409 2289 Crs
3714 2336 Crs
4000 2453 Crs
3561 2426 Crs
3864 2520 Crs
3191 2127 Crs
3259 2353 Crs
3616 1904 Crs
3749 2475 Crs
3054 1995 Crs
3568 2454 Crs
3026 2088 Crs
3950 2658 Crs
3319 2319 Crs
3690 2414 Crs
3569 2183 Crs
3782 2545 Crs
3260 2316 Crs
3742 2652 Crs
3515 2212 Crs
3827 2401 Crs
3015 2271 Crs
3961 2573 Crs
3128 2261 Crs
3913 2183 Crs
3244 2363 Crs
3775 2167 Crs
3655 2382 Crs
3538 2266 Crs
4120 2136 Crs
4064 1993 Crs
3953 2285 Crs
3508 1989 Crs
3455 2385 Crs
3183 1886 Crs
3742 2129 Crs
3074 2273 Crs
3855 2205 Crs
3687 2178 Crs
3088 1915 Crs
3425 2164 Crs
3594 2409 Crs
3702 2203 Crs
3386 1951 Crs
3467 2104 Crs
4037 1787 Crs
3025 2239 Crs
3656 2277 Crs
4256 2740 Crs
4270 2202 Crs
3277 2401 Crs
3799 2420 Crs
3801 2425 Crs
3084 2182 Crs
3760 2308 Crs
3141 2149 Crs
3446 1905 Crs
3527 2381 Crs
3124 2155 Crs
3979 2851 Crs
3594 2090 Crs
3922 2580 Crs
3683 2555 Crs
3947 1998 Crs
3505 2360 Crs
3809 2691 Crs
3719 1908 Crs
3799 2155 Crs
3914 2679 Crs
3439 1984 Crs
3893 2489 Crs
3201 2244 Crs
3945 2197 Crs
3783 2513 Crs
3630 2673 Crs
3432 2142 Crs
4301 2383 Crs
3927 2123 Crs
3532 2152 Crs
4047 2271 Crs
2966 1999 Crs
4308 2390 Crs
2838 2129 Crs
3794 2488 Crs
3596 2432 Crs
4060 2014 Crs
3734 2550 Crs
3481 2321 Crs
4133 2368 Crs
4124 2199 Crs
3814 2184 Crs
4145 2858 Crs
3130 2013 Crs
4153 2122 Crs
3900 2354 Crs
3621 1983 Crs
3352 2176 Crs
3975 2512 Crs
3063 1884 Crs
3163 2184 Crs
4291 2677 Crs
3618 2119 Crs
3542 2251 Crs
3819 2191 Crs
4155 2346 Crs
3710 2000 Crs
3425 2150 Crs
3920 2679 Crs
3686 2251 Crs
3949 2170 Crs
3871 2321 Crs
3877 2649 Crs
3572 2274 Crs
3839 2573 Crs
2857 2066 Crs
3666 2514 Crs
4074 2609 Crs
3968 2651 Crs
3944 2784 Crs
3866 2403 Crs
3896 2292 Crs
4147 2542 Crs
3669 2237 Crs
3507 2429 Crs
3872 2429 Crs
4082 2343 Crs
3612 2320 Crs
3409 2272 Crs
3602 2245 Crs
3631 2084 Crs
3808 2300 Crs
3797 2210 Crs
3840 2366 Crs
4119 2541 Crs
3431 2114 Crs
3383 2189 Crs
4012 2382 Crs
2887 1998 Crs
4432 2595 Crs
3851 2344 Crs
3761 2400 Crs
4196 2353 Crs
3837 2422 Crs
2739 1907 Crs
3590 2033 Crs
3369 2090 Crs
3607 2404 Crs
3343 2497 Crs
3411 2217 Crs
4126 2401 Crs
3542 2306 Crs
4257 2501 Crs
4117 2366 Crs
3108 1900 Crs
3247 1731 Crs
3684 2225 Crs
3794 2049 Crs
4293 2114 Crs
3399 1992 Crs
3617 2082 Crs
4007 2268 Crs
4220 2334 Crs
3700 2483 Crs
3663 2208 Crs
4228 2491 Crs
3609 2065 Crs
3636 2267 Crs
3882 2574 Crs
4141 2375 Crs
3697 2405 Crs
3405 2044 Crs
3502 2166 Crs
3419 2541 Crs
3088 2177 Crs
3928 2133 Crs
3713 2050 Crs
3944 2197 Crs
3313 2245 Crs
4124 2425 Crs
2921 1908 Crs
3092 2248 Crs
3048 2013 Crs
3151 2302 Crs
3852 2096 Crs
3704 2240 Crs
3593 2422 Crs
3215 2319 Crs
3550 2165 Crs
3313 2152 Crs
3860 2241 Crs
4056 2389 Crs
4001 2186 Crs
3904 2170 Crs
3331 2319 Crs
3457 2534 Crs
3487 2482 Crs
3986 1933 Crs
3257 2287 Crs
3439 2262 Crs
4517 2564 Crs
3807 2420 Crs
4138 2315 Crs
3745 2179 Crs
3716 2288 Crs
3689 2323 Crs
3312 2401 Crs
4052 2382 Crs
3560 2197 Crs
4189 2325 Crs
3779 2506 Crs
3667 2256 Crs
3647 2219 Crs
3692 2651 Crs
2768 1939 Crs
3841 2457 Crs
3210 2214 Crs
3187 2160 Crs
3130 2250 Crs
3921 2267 Crs
3902 2293 Crs
4017 2119 Crs
4120 2254 Crs
3472 2281 Crs
3457 2059 Crs
3565 2474 Crs
3163 2305 Crs
4302 2533 Crs
3536 2032 Crs
3384 2237 Crs
3441 2152 Crs
3952 2253 Crs
3278 2274 Crs
4091 2310 Crs
3650 2401 Crs
3895 2512 Crs
3676 2244 Crs
3604 2519 Crs
3105 1922 Crs
3745 2204 Crs
4083 2352 Crs
3565 2366 Crs
3545 1886 Crs
3288 2458 Crs
3771 2202 Crs
3704 2267 Crs
3997 2048 Crs
3910 2430 Crs
3619 2426 Crs
3218 2249 Crs
3566 2386 Crs
4135 2331 Crs
3818 2564 Crs
3501 2189 Crs
4094 2520 Crs
3640 2152 Crs
3822 2070 Crs
3589 2204 Crs
3401 2372 Crs
3810 2404 Crs
3479 1957 Crs
3107 2270 Crs
3627 2137 Crs
4020 2310 Crs
3582 2238 Crs
3283 2144 Crs
3330 2311 Crs
4287 2907 Crs
3883 2638 Crs
3695 2612 Crs
4231 2237 Crs
3769 2618 Crs
3768 2283 Crs
3213 2377 Crs
3587 2374 Crs
3894 2196 Crs
4124 2393 Crs
4005 2432 Crs
3186 2282 Crs
4052 2285 Crs
3536 2015 Crs
3706 2502 Crs
3760 2422 Crs
3157 2246 Crs
4113 2272 Crs
3661 2198 Crs
3393 2295 Crs
3483 1864 Crs
2851 2128 Crs
4414 2545 Crs
4007 2715 Crs
3994 2372 Crs
3304 2235 Crs
3309 2212 Crs
3759 2154 Crs
3317 2152 Crs
3945 2013 Crs
4210 2567 Crs
3196 2000 Crs
3737 2325 Crs
4145 2302 Crs
4280 2444 Crs
3928 2706 Crs
3483 2569 Crs
3945 2180 Crs
3836 2291 Crs
4396 2540 Crs
3699 2638 Crs
4003 2341 Crs
4078 2227 Crs
3770 1952 Crs
4005 2190 Crs
3144 2280 Crs
3715 2282 Crs
3934 2592 Crs
3206 2333 Crs
4277 2544 Crs
4083 2473 Crs
3626 2545 Crs
4060 2683 Crs
3949 2171 Crs
2913 1676 Crs
3835 2440 Crs
3180 2259 Crs
4049 2656 Crs
3501 2129 Crs
3838 2192 Crs
3401 2287 Crs
4223 2178 Crs
3874 2461 Crs
3553 2274 Crs
3819 2457 Crs
3471 2307 Crs
4110 2426 Crs
3648 2378 Crs
3971 2496 Crs
3598 2426 Crs
3648 2508 Crs
3912 2332 Crs
3795 2262 Crs
3182 2277 Crs
2997 1902 Crs
4092 2379 Crs
4200 2144 Crs
3383 2335 Crs
3964 2447 Crs
3797 2182 Crs
3371 2025 Crs
3610 2301 Crs
4291 2334 Crs
3430 2191 Crs
3670 2420 Crs
3436 2350 Crs
3807 2292 Crs
4275 2797 Crs
3170 2267 Crs
3706 2549 Crs
3595 2495 Crs
3399 2144 Crs
3474 2338 Crs
3568 2567 Crs
4442 2416 Crs
3309 2276 Crs
3968 2311 Crs
4177 2523 Crs
3688 2429 Crs
3881 2503 Crs
3799 2649 Crs
3829 2345 Crs
3926 2264 Crs
3849 2308 Crs
4074 2493 Crs
3688 2385 Crs
4053 2276 Crs
3352 2522 Crs
3751 2502 Crs
2957 2021 Crs
3179 1930 Crs
3966 2487 Crs
3873 2383 Crs
4063 2409 Crs
3288 2045 Crs
3770 2397 Crs
3722 2211 Crs
2995 1996 Crs
4204 2077 Crs
3645 2519 Crs
3513 2162 Crs
3228 2234 Crs
3289 2111 Crs
3838 2438 Crs
3484 2313 Crs
3707 2051 Crs
3836 2474 Crs
2929 2064 Crs
3614 2136 Crs
3994 2522 Crs
3276 1949 Crs
4132 2192 Crs
3969 2505 Crs
3289 2473 Crs
3523 2306 Crs
4101 2522 Crs
3980 2267 Crs
4362 2159 Crs
3810 2448 Crs
3821 2475 Crs
3930 2537 Crs
4185 2403 Crs
3548 2361 Crs
3821 2282 Crs
3835 1989 Crs
4219 2455 Crs
3580 2343 Crs
3505 2026 Crs
4438 2227 Crs
3814 2409 Crs
3776 2395 Crs
3885 2252 Crs
3823 2281 Crs
3260 1920 Crs
3872 2057 Crs
3830 2404 Crs
4146 2321 Crs
2995 1816 Crs
3357 2220 Crs
4128 2359 Crs
3462 2550 Crs
4063 2416 Crs
3327 2358 Crs
3860 2260 Crs
4266 2302 Crs
3364 2080 Crs
3115 2220 Crs
3641 1944 Crs
3704 2506 Crs
3864 2653 Crs
3874 2501 Crs
3292 2154 Crs
3622 2417 Crs
3621 2214 Crs
3514 2269 Crs
3919 2187 Crs
3846 1908 Crs
3515 2063 Crs
4020 2798 Crs
3863 2566 Crs
4151 2328 Crs
3723 2131 Crs
4071 2419 Crs
3793 2642 Crs
4083 2159 Crs
2978 2054 Crs
3085 2229 Crs
4313 2253 Crs
3704 2439 Crs
4679 2495 Crs
3948 2482 Crs
4091 2739 Crs
3819 2500 Crs
3883 2426 Crs
3783 2121 Crs
3361 2165 Crs
3611 1915 Crs
3876 2432 Crs
4016 2273 Crs
3688 2317 Crs
3718 2427 Crs
4098 2665 Crs
2690 1883 Crs
3842 2390 Crs
3922 2340 Crs
3743 2315 Crs
4100 2146 Crs
3916 2579 Crs
2794 1602 Crs
4167 2231 Crs
4146 2299 Crs
3946 2412 Crs
3635 2210 Crs
3576 2264 Crs
3729 2508 Crs
3122 2305 Crs
3425 1915 Crs
4562 2661 Crs
3908 2054 Crs
4170 1853 Crs
3629 2268 Crs
3995 2567 Crs
3966 2156 Crs
3426 2193 Crs
3210 2056 Crs
3230 2381 Crs
3882 2051 Crs
3086 2058 Crs
4108 2204 Crs
4031 2220 Crs
3309 2050 Crs
3920 2313 Crs
4109 2403 Crs
3405 2239 Crs
3924 2423 Crs
3812 2292 Crs
3189 2305 Crs
4020 2501 Crs
3767 2150 Crs
4047 1600 Crs
3963 2371 Crs
3793 2494 Crs
3621 2170 Crs
3145 2283 Crs
3409 2190 Crs
3536 2086 Crs
3937 2055 Crs
4334 2595 Crs
3053 2036 Crs
3845 2345 Crs
3951 2142 Crs
3684 2287 Crs
3854 2245 Crs
3666 2763 Crs
3833 2186 Crs
3446 2047 Crs
3526 1926 Crs
3768 2064 Crs
3627 2426 Crs
3641 2404 Crs
3920 2495 Crs
4491 2366 Crs
3780 2294 Crs
3906 2420 Crs
3201 1977 Crs
3617 2097 Crs
3937 2161 Crs
2985 2149 Crs
3543 2361 Crs
3661 1995 Crs
3666 2302 Crs
3744 2034 Crs
3602 2207 Crs
3469 2459 Crs
3321 2229 Crs
4254 2076 Crs
4029 2509 Crs
4670 2782 Crs
3712 2084 Crs
4187 2393 Crs
3309 2073 Crs
3501 2321 Crs
3492 2329 Crs
4125 2193 Crs
3363 2461 Crs
3575 2290 Crs
3766 2250 Crs
3276 2325 Crs
3250 2124 Crs
3337 2013 Crs
3812 2353 Crs
3814 2478 Crs
3731 2587 Crs
3854 2171 Crs
3975 2230 Crs
2869 2057 Crs
4295 2687 Crs
3783 2420 Crs
3231 2065 Crs
3973 2536 Crs
3462 1781 Crs
4010 1987 Crs
3638 2090 Crs
3871 2098 Crs
3723 2402 Crs
3185 2123 Crs
3939 2096 Crs
3674 2363 Crs
3710 2350 Crs
2850 2024 Crs
3993 2601 Crs
3863 2330 Crs
3653 1608 Crs
3725 2324 Crs
2848 1661 Crs
4225 2311 Crs
3573 2262 Crs
3470 2370 Crs
3893 2136 Crs
3547 2157 Crs
3181 1969 Crs
3813 2278 Crs
4164 2536 Crs
3674 2361 Crs
3479 2308 Crs
3964 2606 Crs
4298 2503 Crs
2822 2077 Crs
3085 1608 Crs
3831 2312 Crs
2706 1751 Crs
3840 2275 Crs
4330 2463 Crs
3879 2179 Crs
3924 2054 Crs
3657 1901 Crs
3837 2642 Crs
3717 2366 Crs
3538 2323 Crs
3685 2156 Crs
3832 2226 Crs
3846 2110 Crs
3845 1972 Crs
3408 2383 Crs
4580 2463 Crs
4083 2586 Crs
3981 2387 Crs
3664 2496 Crs
4041 2434 Crs
3868 2231 Crs
4138 2418 Crs
3432 2309 Crs
3988 2308 Crs
3729 2396 Crs
3579 2205 Crs
4012 2535 Crs
3254 2317 Crs
4223 2239 Crs
3525 2072 Crs
3374 1988 Crs
2911 1815 Crs
4326 2762 Crs
4014 2534 Crs
4385 2350 Crs
3828 2582 Crs
3416 2042 Crs
3249 2231 Crs
4215 1932 Crs
3456 2196 Crs
4000 2381 Crs
3223 2257 Crs
2829 1960 Crs
3926 2590 Crs
2644 1883 Crs
4070 2428 Crs
3681 2305 Crs
2779 1930 Crs
3971 2877 Crs
2899 2144 Crs
3679 2432 Crs
4112 2974 Crs
3355 2248 Crs
3123 2119 Crs
3892 2396 Crs
4110 2938 Crs
3982 2595 Crs
3501 2446 Crs
3176 2237 Crs
3664 2110 Crs
3745 2258 Crs
3577 2174 Crs
3675 2183 Crs
3573 2315 Crs
3664 2190 Crs
3348 2037 Crs
3533 2233 Crs
3698 2043 Crs
3417 2359 Crs
4189 2127 Crs
2996 2074 Crs
3172 2163 Crs
3545 2519 Crs
4123 2227 Crs
3820 2778 Crs
4161 2245 Crs
4024 2018 Crs
4285 2772 Crs
3944 2340 Crs
3544 2017 Crs
3741 2561 Crs
3385 2128 Crs
3674 2665 Crs
3238 1872 Crs
3883 2329 Crs
3632 2179 Crs
3490 2248 Crs
3821 2607 Crs
3018 2204 Crs
3984 2375 Crs
3534 2263 Crs
3830 2175 Crs
3842 2389 Crs
4091 1976 Crs
3565 2561 Crs
3741 2495 Crs
3565 2008 Crs
3872 2429 Crs
3856 2344 Crs
3158 2314 Crs
3461 2483 Crs
3824 2377 Crs
3995 2126 Crs
3989 2357 Crs
3656 2052 Crs
3955 2458 Crs
3810 2401 Crs
3812 2456 Crs
3674 2190 Crs
4030 2321 Crs
3817 2383 Crs
3616 2210 Crs
4199 2295 Crs
3108 2231 Crs
3554 2319 Crs
4079 2873 Crs
3231 2219 Crs
4406 2278 Crs
3667 2227 Crs
4097 2664 Crs
3748 2129 Crs
3801 2492 Crs
3354 2339 Crs
4121 2683 Crs
4165 2507 Crs
3693 1996 Crs
4090 2180 Crs
3628 2326 Crs
4108 2676 Crs
3767 2465 Crs
3864 2436 Crs
4059 2303 Crs
3706 2184 Crs
3890 2060 Crs
3861 1749 Crs
4467 2428 Crs
3996 2173 Crs
4136 2587 Crs
3714 2462 Crs
4070 2646 Crs
3935 2492 Crs
4017 2574 Crs
4386 2474 Crs
3267 1959 Crs
3788 2687 Crs
3976 2269 Crs
3718 2052 Crs
3792 2191 Crs
3376 2142 Crs
4008 2562 Crs
2877 1884 Crs
3894 2275 Crs
2830 2064 Crs
3726 2589 Crs
3982 2408 Crs
3631 2130 Crs
3783 2305 Crs
3790 2162 Crs
3277 2452 Crs
2560 1700 Crs
3295 2159 Crs
3144 2169 Crs
3905 2162 Crs
3797 2562 Crs
3629 2242 Crs
3740 2185 Crs
3216 2138 Crs
3262 2010 Crs
3787 2399 Crs
3979 2254 Crs
3102 2157 Crs
3564 2371 Crs
4018 2139 Crs
3762 2479 Crs
3785 2423 Crs
4035 2118 Crs
4217 2222 Crs
3926 2448 Crs
3522 2177 Crs
3883 2109 Crs
4172 2258 Crs
3836 2115 Crs
3020 2251 Crs
3625 2371 Crs
3906 2197 Crs
3723 2471 Crs
3344 2263 Crs
3708 2444 Crs
3292 2256 Crs
3338 2000 Crs
4091 2503 Crs
3470 2562 Crs
3358 2260 Crs
3666 2385 Crs
3475 2469 Crs
3830 2739 Crs
3328 2208 Crs
3800 2509 Crs
3872 2480 Crs
4024 2205 Crs
3947 2373 Crs
4001 2517 Crs
4097 2493 Crs
2906 1984 Crs
3687 2340 Crs
3793 2456 Crs
3260 1939 Crs
4460 2270 Crs
3759 2421 Crs
4102 2241 Crs
3877 1920 Crs
3494 2277 Crs
3663 2244 Crs
3596 2273 Crs
3876 2444 Crs
3971 2485 Crs
2795 1887 Crs
3920 2718 Crs
3933 2570 Crs
3769 2236 Crs
3383 2134 Crs
3625 2378 Crs
3838 2294 Crs
4055 2244 Crs
3894 2588 Crs
3901 2067 Crs
3739 2030 Crs
4034 2323 Crs
3871 2134 Crs
3700 1931 Crs
3745 1965 Crs
4253 2417 Crs
3715 2261 Crs
3949 2327 Crs
3856 2430 Crs
3878 2585 Crs
4377 2207 Crs
3437 2468 Crs
3960 1999 Crs
3311 2355 Crs
4140 2318 Crs
3315 2299 Crs
3090 2090 Crs
4154 2408 Crs
3473 2379 Crs
3118 2259 Crs
3846 2528 Crs
3951 2544 Crs
4426 2558 Crs
3841 2370 Crs
3154 2298 Crs
4080 2664 Crs
3936 2233 Crs
4055 2289 Crs
3660 2491 Crs
3464 2289 Crs
3406 1764 Crs
3170 2237 Crs
3870 2401 Crs
3603 2320 Crs
3263 2123 Crs
3748 2509 Crs
3515 2426 Crs
4447 2416 Crs
3567 2554 Crs
3743 2339 Crs
3622 2124 Crs
3165 2083 Crs
4030 2099 Crs
4057 2723 Crs
3858 2210 Crs
3423 2201 Crs
3618 2620 Crs
3482 2166 Crs
4401 2130 Crs
2885 2164 Crs
3136 2220 Crs
3630 2489 Crs
3949 2065 Crs
3881 2146 Crs
3668 2125 Crs
3809 2843 Crs
4468 2370 Crs
3963 2572 Crs
3072 2271 Crs
3808 2210 Crs
3519 2091 Crs
3325 1894 Crs
3664 2378 Crs
2703 1894 Crs
3904 2014 Crs
4229 2419 Crs
3710 2184 Crs
3479 1974 Crs
4397 2353 Crs
4043 2356 Crs
3679 2138 Crs
3319 2310 Crs
3550 2212 Crs
3101 2178 Crs
3414 2172 Crs
4103 2128 Crs
3576 2501 Crs
3320 2065 Crs
3424 2529 Crs
3127 2170 Crs
4070 2347 Crs
3892 2406 Crs
3188 2301 Crs
3795 2624 Crs
3727 2480 Crs
4151 2165 Crs
3188 2070 Crs
3560 2243 Crs
3621 1966 Crs
3624 2086 Crs
3732 2289 Crs
3429 2311 Crs
3903 2333 Crs
4124 2157 Crs
3620 2399 Crs
3277 2041 Crs
3812 2254 Crs
3756 2473 Crs
3883 2184 Crs
3880 2308 Crs
3869 2314 Crs
3725 2455 Crs
2841 2033 Crs
2930 2010 Crs
3359 1994 Crs
3751 2012 Crs
3248 2074 Crs
3981 2381 Crs
3658 2190 Crs
3611 1947 Crs
4286 2707 Crs
3551 2231 Crs
3858 2868 Crs
3197 2155 Crs
3791 2692 Crs
2989 1997 Crs
3880 2443 Crs
4059 2024 Crs
3783 2524 Crs
4046 2232 Crs
3066 2225 Crs
4251 2489 Crs
4145 2412 Crs
2875 1895 Crs
3913 2010 Crs
4115 2355 Crs
3411 2161 Crs
4216 2362 Crs
3146 2368 Crs
3431 2392 Crs
3261 2308 Crs
3558 2248 Crs
3714 2567 Crs
3774 1997 Crs
4060 2767 Crs
3386 2259 Crs
3957 2427 Crs
3888 2358 Crs
4051 2135 Crs
3320 2032 Crs
3878 2406 Crs
3224 2154 Crs
3832 2364 Crs
3255 2233 Crs
2910 2085 Crs
3750 2283 Crs
3048 2137 Crs
3276 1905 Crs
3938 2195 Crs
3933 2148 Crs
3605 2408 Crs
3911 2616 Crs
3377 2394 Crs
3369 2405 Crs
3925 2303 Crs
3157 2277 Crs
3706 2117 Crs
4299 2108 Crs
3652 2232 Crs
4052 2333 Crs
3678 2183 Crs
3738 2458 Crs
3916 2070 Crs
3498 2544 Crs
4014 2412 Crs
3920 2461 Crs
3896 2260 Crs
4112 2309 Crs
2981 2053 Crs
3832 2033 Crs
3858 2181 Crs
2820 2004 Crs
3074 2223 Crs
3730 2456 Crs
3205 2325 Crs
% End plot #2
% Begin plot #3
1.000 UL
LTb
LT1
0.75 0.75 0.75 C 943 703 M
38 29 V
38 28 V
38 29 V
37 28 V
38 29 V
38 29 V
38 28 V
37 29 V
38 28 V
38 29 V
38 28 V
37 29 V
38 29 V
38 28 V
37 29 V
38 28 V
38 29 V
38 28 V
37 29 V
38 28 V
38 29 V
38 29 V
37 28 V
38 29 V
38 28 V
38 29 V
37 28 V
38 29 V
38 29 V
37 28 V
38 29 V
38 28 V
38 29 V
37 28 V
38 29 V
38 28 V
38 29 V
37 29 V
38 28 V
38 29 V
38 28 V
37 29 V
38 28 V
38 29 V
37 29 V
38 28 V
38 29 V
38 28 V
37 29 V
38 28 V
38 29 V
38 29 V
37 28 V
38 29 V
38 28 V
38 29 V
37 28 V
38 29 V
38 28 V
37 29 V
38 29 V
38 28 V
38 29 V
37 28 V
38 29 V
38 28 V
38 29 V
37 29 V
38 28 V
38 29 V
37 28 V
38 29 V
38 28 V
38 29 V
37 28 V
38 29 V
38 29 V
38 28 V
37 29 V
38 28 V
38 29 V
38 28 V
37 29 V
38 29 V
38 28 V
37 29 V
38 28 V
38 29 V
38 28 V
37 29 V
38 28 V
38 29 V
38 29 V
37 28 V
38 29 V
38 28 V
38 29 V
37 28 V
38 29 V
% End plot #3
stroke
2.000 UL
LTb
LCb setrgbcolor
1.000 UL
LTb
LCb setrgbcolor
860 3531 N
860 640 L
3819 0 V
0 2891 V
-3819 0 V
Z stroke
0.500 UP
1.000 UL
LTb
LCb setrgbcolor
stroke
grestore
end
showpage
%%Trailer
%%DocumentFonts: Helvetica
