%!PS-Adobe-2.0 EPSF-2.0
%%Title: mean.eps
%%Creator: gnuplot 5.0 patchlevel 1
%%CreationDate: Fri Oct 30 18:57:07 2015
%%DocumentFonts: (atend)
%%BoundingBox: 50 50 302 238
%%EndComments
%%BeginProlog
/gnudict 256 dict def
gnudict begin
%
% The following true/false flags may be edited by hand if desired.
% The unit line width and grayscale image gamma correction may also be changed.
%
/Color true def
/Blacktext false def
/Solid false def
/Dashlength 1 def
/Landscape false def
/Level1 false def
/Level3 false def
/Rounded false def
/ClipToBoundingBox false def
/SuppressPDFMark false def
/TransparentPatterns false def
/gnulinewidth 5.000 def
/userlinewidth gnulinewidth def
/Gamma 1.0 def
/BackgroundColor {-1.000 -1.000 -1.000} def
%
/vshift -66 def
/dl1 {
  10.0 Dashlength userlinewidth gnulinewidth div mul mul mul
  Rounded { currentlinewidth 0.75 mul sub dup 0 le { pop 0.01 } if } if
} def
/dl2 {
  10.0 Dashlength userlinewidth gnulinewidth div mul mul mul
  Rounded { currentlinewidth 0.75 mul add } if
} def
/hpt_ 31.5 def
/vpt_ 31.5 def
/hpt hpt_ def
/vpt vpt_ def
/doclip {
  ClipToBoundingBox {
    newpath 50 50 moveto 302 50 lineto 302 238 lineto 50 238 lineto closepath
    clip
  } if
} def
%
% Gnuplot Prolog Version 5.0 (Dec 2014)
%
%/SuppressPDFMark true def
%
/M {moveto} bind def
/L {lineto} bind def
/R {rmoveto} bind def
/V {rlineto} bind def
/N {newpath moveto} bind def
/Z {closepath} bind def
/C {setrgbcolor} bind def
/f {rlineto fill} bind def
/g {setgray} bind def
/Gshow {show} def   % May be redefined later in the file to support UTF-8
/vpt2 vpt 2 mul def
/hpt2 hpt 2 mul def
/Lshow {currentpoint stroke M 0 vshift R 
	Blacktext {gsave 0 setgray textshow grestore} {textshow} ifelse} def
/Rshow {currentpoint stroke M dup stringwidth pop neg vshift R
	Blacktext {gsave 0 setgray textshow grestore} {textshow} ifelse} def
/Cshow {currentpoint stroke M dup stringwidth pop -2 div vshift R 
	Blacktext {gsave 0 setgray textshow grestore} {textshow} ifelse} def
/UP {dup vpt_ mul /vpt exch def hpt_ mul /hpt exch def
  /hpt2 hpt 2 mul def /vpt2 vpt 2 mul def} def
/DL {Color {setrgbcolor Solid {pop []} if 0 setdash}
 {pop pop pop 0 setgray Solid {pop []} if 0 setdash} ifelse} def
/BL {stroke userlinewidth 2 mul setlinewidth
	Rounded {1 setlinejoin 1 setlinecap} if} def
/AL {stroke userlinewidth 2 div setlinewidth
	Rounded {1 setlinejoin 1 setlinecap} if} def
/UL {dup gnulinewidth mul /userlinewidth exch def
	dup 1 lt {pop 1} if 10 mul /udl exch def} def
/PL {stroke userlinewidth setlinewidth
	Rounded {1 setlinejoin 1 setlinecap} if} def
3.8 setmiterlimit
% Classic Line colors (version 5.0)
/LCw {1 1 1} def
/LCb {0 0 0} def
/LCa {0 0 0} def
/LC0 {1 0 0} def
/LC1 {0 1 0} def
/LC2 {0 0 1} def
/LC3 {1 0 1} def
/LC4 {0 1 1} def
/LC5 {1 1 0} def
/LC6 {0 0 0} def
/LC7 {1 0.3 0} def
/LC8 {0.5 0.5 0.5} def
% Default dash patterns (version 5.0)
/LTw {PL [] 1 setgray} def
/LTb {BL [] LCb DL} def
/LTa {AL [1 udl mul 2 udl mul] 0 setdash LCa setrgbcolor} def
/LT0 {PL [] LC0 DL} def
/LT1 {PL [2 dl1 3 dl2] LC1 DL} def
/LT2 {PL [1 dl1 1.5 dl2] LC2 DL} def
/LT3 {PL [6 dl1 2 dl2 1 dl1 2 dl2] LC3 DL} def
/LT4 {PL [1 dl1 2 dl2 6 dl1 2 dl2 1 dl1 2 dl2] LC4 DL} def
/LT5 {PL [4 dl1 2 dl2] LC5 DL} def
/LT6 {PL [1.5 dl1 1.5 dl2 1.5 dl1 1.5 dl2 1.5 dl1 6 dl2] LC6 DL} def
/LT7 {PL [3 dl1 3 dl2 1 dl1 3 dl2] LC7 DL} def
/LT8 {PL [2 dl1 2 dl2 2 dl1 6 dl2] LC8 DL} def
/SL {[] 0 setdash} def
/Pnt {stroke [] 0 setdash gsave 1 setlinecap M 0 0 V stroke grestore} def
/Dia {stroke [] 0 setdash 2 copy vpt add M
  hpt neg vpt neg V hpt vpt neg V
  hpt vpt V hpt neg vpt V closepath stroke
  Pnt} def
/Pls {stroke [] 0 setdash vpt sub M 0 vpt2 V
  currentpoint stroke M
  hpt neg vpt neg R hpt2 0 V stroke
 } def
/Box {stroke [] 0 setdash 2 copy exch hpt sub exch vpt add M
  0 vpt2 neg V hpt2 0 V 0 vpt2 V
  hpt2 neg 0 V closepath stroke
  Pnt} def
/Crs {stroke [] 0 setdash exch hpt sub exch vpt add M
  hpt2 vpt2 neg V currentpoint stroke M
  hpt2 neg 0 R hpt2 vpt2 V stroke} def
/TriU {stroke [] 0 setdash 2 copy vpt 1.12 mul add M
  hpt neg vpt -1.62 mul V
  hpt 2 mul 0 V
  hpt neg vpt 1.62 mul V closepath stroke
  Pnt} def
/Star {2 copy Pls Crs} def
/BoxF {stroke [] 0 setdash exch hpt sub exch vpt add M
  0 vpt2 neg V hpt2 0 V 0 vpt2 V
  hpt2 neg 0 V closepath fill} def
/TriUF {stroke [] 0 setdash vpt 1.12 mul add M
  hpt neg vpt -1.62 mul V
  hpt 2 mul 0 V
  hpt neg vpt 1.62 mul V closepath fill} def
/TriD {stroke [] 0 setdash 2 copy vpt 1.12 mul sub M
  hpt neg vpt 1.62 mul V
  hpt 2 mul 0 V
  hpt neg vpt -1.62 mul V closepath stroke
  Pnt} def
/TriDF {stroke [] 0 setdash vpt 1.12 mul sub M
  hpt neg vpt 1.62 mul V
  hpt 2 mul 0 V
  hpt neg vpt -1.62 mul V closepath fill} def
/DiaF {stroke [] 0 setdash vpt add M
  hpt neg vpt neg V hpt vpt neg V
  hpt vpt V hpt neg vpt V closepath fill} def
/Pent {stroke [] 0 setdash 2 copy gsave
  translate 0 hpt M 4 {72 rotate 0 hpt L} repeat
  closepath stroke grestore Pnt} def
/PentF {stroke [] 0 setdash gsave
  translate 0 hpt M 4 {72 rotate 0 hpt L} repeat
  closepath fill grestore} def
/Circle {stroke [] 0 setdash 2 copy
  hpt 0 360 arc stroke Pnt} def
/CircleF {stroke [] 0 setdash hpt 0 360 arc fill} def
/C0 {BL [] 0 setdash 2 copy moveto vpt 90 450 arc} bind def
/C1 {BL [] 0 setdash 2 copy moveto
	2 copy vpt 0 90 arc closepath fill
	vpt 0 360 arc closepath} bind def
/C2 {BL [] 0 setdash 2 copy moveto
	2 copy vpt 90 180 arc closepath fill
	vpt 0 360 arc closepath} bind def
/C3 {BL [] 0 setdash 2 copy moveto
	2 copy vpt 0 180 arc closepath fill
	vpt 0 360 arc closepath} bind def
/C4 {BL [] 0 setdash 2 copy moveto
	2 copy vpt 180 270 arc closepath fill
	vpt 0 360 arc closepath} bind def
/C5 {BL [] 0 setdash 2 copy moveto
	2 copy vpt 0 90 arc
	2 copy moveto
	2 copy vpt 180 270 arc closepath fill
	vpt 0 360 arc} bind def
/C6 {BL [] 0 setdash 2 copy moveto
	2 copy vpt 90 270 arc closepath fill
	vpt 0 360 arc closepath} bind def
/C7 {BL [] 0 setdash 2 copy moveto
	2 copy vpt 0 270 arc closepath fill
	vpt 0 360 arc closepath} bind def
/C8 {BL [] 0 setdash 2 copy moveto
	2 copy vpt 270 360 arc closepath fill
	vpt 0 360 arc closepath} bind def
/C9 {BL [] 0 setdash 2 copy moveto
	2 copy vpt 270 450 arc closepath fill
	vpt 0 360 arc closepath} bind def
/C10 {BL [] 0 setdash 2 copy 2 copy moveto vpt 270 360 arc closepath fill
	2 copy moveto
	2 copy vpt 90 180 arc closepath fill
	vpt 0 360 arc closepath} bind def
/C11 {BL [] 0 setdash 2 copy moveto
	2 copy vpt 0 180 arc closepath fill
	2 copy moveto
	2 copy vpt 270 360 arc closepath fill
	vpt 0 360 arc closepath} bind def
/C12 {BL [] 0 setdash 2 copy moveto
	2 copy vpt 180 360 arc closepath fill
	vpt 0 360 arc closepath} bind def
/C13 {BL [] 0 setdash 2 copy moveto
	2 copy vpt 0 90 arc closepath fill
	2 copy moveto
	2 copy vpt 180 360 arc closepath fill
	vpt 0 360 arc closepath} bind def
/C14 {BL [] 0 setdash 2 copy moveto
	2 copy vpt 90 360 arc closepath fill
	vpt 0 360 arc} bind def
/C15 {BL [] 0 setdash 2 copy vpt 0 360 arc closepath fill
	vpt 0 360 arc closepath} bind def
/Rec {newpath 4 2 roll moveto 1 index 0 rlineto 0 exch rlineto
	neg 0 rlineto closepath} bind def
/Square {dup Rec} bind def
/Bsquare {vpt sub exch vpt sub exch vpt2 Square} bind def
/S0 {BL [] 0 setdash 2 copy moveto 0 vpt rlineto BL Bsquare} bind def
/S1 {BL [] 0 setdash 2 copy vpt Square fill Bsquare} bind def
/S2 {BL [] 0 setdash 2 copy exch vpt sub exch vpt Square fill Bsquare} bind def
/S3 {BL [] 0 setdash 2 copy exch vpt sub exch vpt2 vpt Rec fill Bsquare} bind def
/S4 {BL [] 0 setdash 2 copy exch vpt sub exch vpt sub vpt Square fill Bsquare} bind def
/S5 {BL [] 0 setdash 2 copy 2 copy vpt Square fill
	exch vpt sub exch vpt sub vpt Square fill Bsquare} bind def
/S6 {BL [] 0 setdash 2 copy exch vpt sub exch vpt sub vpt vpt2 Rec fill Bsquare} bind def
/S7 {BL [] 0 setdash 2 copy exch vpt sub exch vpt sub vpt vpt2 Rec fill
	2 copy vpt Square fill Bsquare} bind def
/S8 {BL [] 0 setdash 2 copy vpt sub vpt Square fill Bsquare} bind def
/S9 {BL [] 0 setdash 2 copy vpt sub vpt vpt2 Rec fill Bsquare} bind def
/S10 {BL [] 0 setdash 2 copy vpt sub vpt Square fill 2 copy exch vpt sub exch vpt Square fill
	Bsquare} bind def
/S11 {BL [] 0 setdash 2 copy vpt sub vpt Square fill 2 copy exch vpt sub exch vpt2 vpt Rec fill
	Bsquare} bind def
/S12 {BL [] 0 setdash 2 copy exch vpt sub exch vpt sub vpt2 vpt Rec fill Bsquare} bind def
/S13 {BL [] 0 setdash 2 copy exch vpt sub exch vpt sub vpt2 vpt Rec fill
	2 copy vpt Square fill Bsquare} bind def
/S14 {BL [] 0 setdash 2 copy exch vpt sub exch vpt sub vpt2 vpt Rec fill
	2 copy exch vpt sub exch vpt Square fill Bsquare} bind def
/S15 {BL [] 0 setdash 2 copy Bsquare fill Bsquare} bind def
/D0 {gsave translate 45 rotate 0 0 S0 stroke grestore} bind def
/D1 {gsave translate 45 rotate 0 0 S1 stroke grestore} bind def
/D2 {gsave translate 45 rotate 0 0 S2 stroke grestore} bind def
/D3 {gsave translate 45 rotate 0 0 S3 stroke grestore} bind def
/D4 {gsave translate 45 rotate 0 0 S4 stroke grestore} bind def
/D5 {gsave translate 45 rotate 0 0 S5 stroke grestore} bind def
/D6 {gsave translate 45 rotate 0 0 S6 stroke grestore} bind def
/D7 {gsave translate 45 rotate 0 0 S7 stroke grestore} bind def
/D8 {gsave translate 45 rotate 0 0 S8 stroke grestore} bind def
/D9 {gsave translate 45 rotate 0 0 S9 stroke grestore} bind def
/D10 {gsave translate 45 rotate 0 0 S10 stroke grestore} bind def
/D11 {gsave translate 45 rotate 0 0 S11 stroke grestore} bind def
/D12 {gsave translate 45 rotate 0 0 S12 stroke grestore} bind def
/D13 {gsave translate 45 rotate 0 0 S13 stroke grestore} bind def
/D14 {gsave translate 45 rotate 0 0 S14 stroke grestore} bind def
/D15 {gsave translate 45 rotate 0 0 S15 stroke grestore} bind def
/DiaE {stroke [] 0 setdash vpt add M
  hpt neg vpt neg V hpt vpt neg V
  hpt vpt V hpt neg vpt V closepath stroke} def
/BoxE {stroke [] 0 setdash exch hpt sub exch vpt add M
  0 vpt2 neg V hpt2 0 V 0 vpt2 V
  hpt2 neg 0 V closepath stroke} def
/TriUE {stroke [] 0 setdash vpt 1.12 mul add M
  hpt neg vpt -1.62 mul V
  hpt 2 mul 0 V
  hpt neg vpt 1.62 mul V closepath stroke} def
/TriDE {stroke [] 0 setdash vpt 1.12 mul sub M
  hpt neg vpt 1.62 mul V
  hpt 2 mul 0 V
  hpt neg vpt -1.62 mul V closepath stroke} def
/PentE {stroke [] 0 setdash gsave
  translate 0 hpt M 4 {72 rotate 0 hpt L} repeat
  closepath stroke grestore} def
/CircE {stroke [] 0 setdash 
  hpt 0 360 arc stroke} def
/Opaque {gsave closepath 1 setgray fill grestore 0 setgray closepath} def
/DiaW {stroke [] 0 setdash vpt add M
  hpt neg vpt neg V hpt vpt neg V
  hpt vpt V hpt neg vpt V Opaque stroke} def
/BoxW {stroke [] 0 setdash exch hpt sub exch vpt add M
  0 vpt2 neg V hpt2 0 V 0 vpt2 V
  hpt2 neg 0 V Opaque stroke} def
/TriUW {stroke [] 0 setdash vpt 1.12 mul add M
  hpt neg vpt -1.62 mul V
  hpt 2 mul 0 V
  hpt neg vpt 1.62 mul V Opaque stroke} def
/TriDW {stroke [] 0 setdash vpt 1.12 mul sub M
  hpt neg vpt 1.62 mul V
  hpt 2 mul 0 V
  hpt neg vpt -1.62 mul V Opaque stroke} def
/PentW {stroke [] 0 setdash gsave
  translate 0 hpt M 4 {72 rotate 0 hpt L} repeat
  Opaque stroke grestore} def
/CircW {stroke [] 0 setdash 
  hpt 0 360 arc Opaque stroke} def
/BoxFill {gsave Rec 1 setgray fill grestore} def
/Density {
  /Fillden exch def
  currentrgbcolor
  /ColB exch def /ColG exch def /ColR exch def
  /ColR ColR Fillden mul Fillden sub 1 add def
  /ColG ColG Fillden mul Fillden sub 1 add def
  /ColB ColB Fillden mul Fillden sub 1 add def
  ColR ColG ColB setrgbcolor} def
/BoxColFill {gsave Rec PolyFill} def
/PolyFill {gsave Density fill grestore grestore} def
/h {rlineto rlineto rlineto gsave closepath fill grestore} bind def
%
% PostScript Level 1 Pattern Fill routine for rectangles
% Usage: x y w h s a XX PatternFill
%	x,y = lower left corner of box to be filled
%	w,h = width and height of box
%	  a = angle in degrees between lines and x-axis
%	 XX = 0/1 for no/yes cross-hatch
%
/PatternFill {gsave /PFa [ 9 2 roll ] def
  PFa 0 get PFa 2 get 2 div add PFa 1 get PFa 3 get 2 div add translate
  PFa 2 get -2 div PFa 3 get -2 div PFa 2 get PFa 3 get Rec
  TransparentPatterns {} {gsave 1 setgray fill grestore} ifelse
  clip
  currentlinewidth 0.5 mul setlinewidth
  /PFs PFa 2 get dup mul PFa 3 get dup mul add sqrt def
  0 0 M PFa 5 get rotate PFs -2 div dup translate
  0 1 PFs PFa 4 get div 1 add floor cvi
	{PFa 4 get mul 0 M 0 PFs V} for
  0 PFa 6 get ne {
	0 1 PFs PFa 4 get div 1 add floor cvi
	{PFa 4 get mul 0 2 1 roll M PFs 0 V} for
 } if
  stroke grestore} def
%
/languagelevel where
 {pop languagelevel} {1} ifelse
dup 2 lt
	{/InterpretLevel1 true def
	 /InterpretLevel3 false def}
	{/InterpretLevel1 Level1 def
	 2 gt
	    {/InterpretLevel3 Level3 def}
	    {/InterpretLevel3 false def}
	 ifelse }
 ifelse
%
% PostScript level 2 pattern fill definitions
%
/Level2PatternFill {
/Tile8x8 {/PaintType 2 /PatternType 1 /TilingType 1 /BBox [0 0 8 8] /XStep 8 /YStep 8}
	bind def
/KeepColor {currentrgbcolor [/Pattern /DeviceRGB] setcolorspace} bind def
<< Tile8x8
 /PaintProc {0.5 setlinewidth pop 0 0 M 8 8 L 0 8 M 8 0 L stroke} 
>> matrix makepattern
/Pat1 exch def
<< Tile8x8
 /PaintProc {0.5 setlinewidth pop 0 0 M 8 8 L 0 8 M 8 0 L stroke
	0 4 M 4 8 L 8 4 L 4 0 L 0 4 L stroke}
>> matrix makepattern
/Pat2 exch def
<< Tile8x8
 /PaintProc {0.5 setlinewidth pop 0 0 M 0 8 L
	8 8 L 8 0 L 0 0 L fill}
>> matrix makepattern
/Pat3 exch def
<< Tile8x8
 /PaintProc {0.5 setlinewidth pop -4 8 M 8 -4 L
	0 12 M 12 0 L stroke}
>> matrix makepattern
/Pat4 exch def
<< Tile8x8
 /PaintProc {0.5 setlinewidth pop -4 0 M 8 12 L
	0 -4 M 12 8 L stroke}
>> matrix makepattern
/Pat5 exch def
<< Tile8x8
 /PaintProc {0.5 setlinewidth pop -2 8 M 4 -4 L
	0 12 M 8 -4 L 4 12 M 10 0 L stroke}
>> matrix makepattern
/Pat6 exch def
<< Tile8x8
 /PaintProc {0.5 setlinewidth pop -2 0 M 4 12 L
	0 -4 M 8 12 L 4 -4 M 10 8 L stroke}
>> matrix makepattern
/Pat7 exch def
<< Tile8x8
 /PaintProc {0.5 setlinewidth pop 8 -2 M -4 4 L
	12 0 M -4 8 L 12 4 M 0 10 L stroke}
>> matrix makepattern
/Pat8 exch def
<< Tile8x8
 /PaintProc {0.5 setlinewidth pop 0 -2 M 12 4 L
	-4 0 M 12 8 L -4 4 M 8 10 L stroke}
>> matrix makepattern
/Pat9 exch def
/Pattern1 {PatternBgnd KeepColor Pat1 setpattern} bind def
/Pattern2 {PatternBgnd KeepColor Pat2 setpattern} bind def
/Pattern3 {PatternBgnd KeepColor Pat3 setpattern} bind def
/Pattern4 {PatternBgnd KeepColor Landscape {Pat5} {Pat4} ifelse setpattern} bind def
/Pattern5 {PatternBgnd KeepColor Landscape {Pat4} {Pat5} ifelse setpattern} bind def
/Pattern6 {PatternBgnd KeepColor Landscape {Pat9} {Pat6} ifelse setpattern} bind def
/Pattern7 {PatternBgnd KeepColor Landscape {Pat8} {Pat7} ifelse setpattern} bind def
} def
%
%
%End of PostScript Level 2 code
%
/PatternBgnd {
  TransparentPatterns {} {gsave 1 setgray fill grestore} ifelse
} def
%
% Substitute for Level 2 pattern fill codes with
% grayscale if Level 2 support is not selected.
%
/Level1PatternFill {
/Pattern1 {0.250 Density} bind def
/Pattern2 {0.500 Density} bind def
/Pattern3 {0.750 Density} bind def
/Pattern4 {0.125 Density} bind def
/Pattern5 {0.375 Density} bind def
/Pattern6 {0.625 Density} bind def
/Pattern7 {0.875 Density} bind def
} def
%
% Now test for support of Level 2 code
%
Level1 {Level1PatternFill} {Level2PatternFill} ifelse
%
/Symbol-Oblique /Symbol findfont [1 0 .167 1 0 0] makefont
dup length dict begin {1 index /FID eq {pop pop} {def} ifelse} forall
currentdict end definefont pop
%
/MFshow {
   { dup 5 get 3 ge
     { 5 get 3 eq {gsave} {grestore} ifelse }
     {dup dup 0 get findfont exch 1 get scalefont setfont
     [ currentpoint ] exch dup 2 get 0 exch R dup 5 get 2 ne {dup dup 6
     get exch 4 get {textshow} {stringwidth pop 0 R} ifelse }if dup 5 get 0 eq
     {dup 3 get {2 get neg 0 exch R pop} {pop aload pop M} ifelse} {dup 5
     get 1 eq {dup 2 get exch dup 3 get exch 6 get stringwidth pop -2 div
     dup 0 R} {dup 6 get stringwidth pop -2 div 0 R 6 get
     textshow 2 index {aload pop M neg 3 -1 roll neg R pop pop} {pop pop pop
     pop aload pop M} ifelse }ifelse }ifelse }
     ifelse }
   forall} def
/Gswidth {dup type /stringtype eq {stringwidth} {pop (n) stringwidth} ifelse} def
/MFwidth {0 exch { dup 5 get 3 ge { 5 get 3 eq { 0 } { pop } ifelse }
 {dup 3 get{dup dup 0 get findfont exch 1 get scalefont setfont
     6 get Gswidth pop add} {pop} ifelse} ifelse} forall} def
/MLshow { currentpoint stroke M
  0 exch R
  Blacktext {gsave 0 setgray MFshow grestore} {MFshow} ifelse } bind def
/MRshow { currentpoint stroke M
  exch dup MFwidth neg 3 -1 roll R
  Blacktext {gsave 0 setgray MFshow grestore} {MFshow} ifelse } bind def
/MCshow { currentpoint stroke M
  exch dup MFwidth -2 div 3 -1 roll R
  Blacktext {gsave 0 setgray MFshow grestore} {MFshow} ifelse } bind def
/XYsave    { [( ) 1 2 true false 3 ()] } bind def
/XYrestore { [( ) 1 2 true false 4 ()] } bind def
Level1 SuppressPDFMark or 
{} {
/SDict 10 dict def
systemdict /pdfmark known not {
  userdict /pdfmark systemdict /cleartomark get put
} if
SDict begin [
  /Title (mean.eps)
  /Subject (gnuplot plot)
  /Creator (gnuplot 5.0 patchlevel 1)
  /Author (gaumont)
%  /Producer (gnuplot)
%  /Keywords ()
  /CreationDate (Fri Oct 30 18:57:07 2015)
  /DOCINFO pdfmark
end
} ifelse
end
%
% Support for boxed text - Ethan A Merritt May 2005
%
/InitTextBox { userdict /TBy2 3 -1 roll put userdict /TBx2 3 -1 roll put
           userdict /TBy1 3 -1 roll put userdict /TBx1 3 -1 roll put
	   /Boxing true def } def
/ExtendTextBox { Boxing
    { gsave dup false charpath pathbbox
      dup TBy2 gt {userdict /TBy2 3 -1 roll put} {pop} ifelse
      dup TBx2 gt {userdict /TBx2 3 -1 roll put} {pop} ifelse
      dup TBy1 lt {userdict /TBy1 3 -1 roll put} {pop} ifelse
      dup TBx1 lt {userdict /TBx1 3 -1 roll put} {pop} ifelse
      grestore } if } def
/PopTextBox { newpath TBx1 TBxmargin sub TBy1 TBymargin sub M
               TBx1 TBxmargin sub TBy2 TBymargin add L
	       TBx2 TBxmargin add TBy2 TBymargin add L
	       TBx2 TBxmargin add TBy1 TBymargin sub L closepath } def
/DrawTextBox { PopTextBox stroke /Boxing false def} def
/FillTextBox { gsave PopTextBox 1 1 1 setrgbcolor fill grestore /Boxing false def} def
0 0 0 0 InitTextBox
/TBxmargin 20 def
/TBymargin 20 def
/Boxing false def
/textshow { ExtendTextBox Gshow } def
%
%%EndProlog
%%Page: 1 1
gnudict begin
gsave
doclip
50 50 translate
0.050 0.050 scale
0 setgray
newpath
(Helvetica) findfont 200 scalefont setfont
BackgroundColor 0 lt 3 1 roll 0 lt exch 0 lt or or not {BackgroundColor C 1.000 0 0 5040.00 3772.00 BoxColFill} if
1.000 UL
LTb
LCb setrgbcolor
860 640 M
63 0 V
3756 0 R
-63 0 V
stroke
740 640 M
[ [(Helvetica) 200.0 0.0 true true 0 (10)]
[(Helvetica) 160.0 100.0 true true 0 (-5)]
] -86.7 MRshow
1.000 UL
LTb
LCb setrgbcolor
860 814 M
31 0 V
3788 0 R
-31 0 V
860 1044 M
31 0 V
3788 0 R
-31 0 V
860 1162 M
31 0 V
3788 0 R
-31 0 V
860 1218 M
63 0 V
3756 0 R
-63 0 V
stroke
740 1218 M
[ [(Helvetica) 200.0 0.0 true true 0 (10)]
[(Helvetica) 160.0 100.0 true true 0 (-4)]
] -86.7 MRshow
1.000 UL
LTb
LCb setrgbcolor
860 1392 M
31 0 V
3788 0 R
-31 0 V
860 1622 M
31 0 V
3788 0 R
-31 0 V
860 1740 M
31 0 V
3788 0 R
-31 0 V
860 1796 M
63 0 V
3756 0 R
-63 0 V
stroke
740 1796 M
[ [(Helvetica) 200.0 0.0 true true 0 (10)]
[(Helvetica) 160.0 100.0 true true 0 (-3)]
] -86.7 MRshow
1.000 UL
LTb
LCb setrgbcolor
860 1970 M
31 0 V
3788 0 R
-31 0 V
860 2201 M
31 0 V
3788 0 R
-31 0 V
860 2319 M
31 0 V
3788 0 R
-31 0 V
860 2375 M
63 0 V
3756 0 R
-63 0 V
stroke
740 2375 M
[ [(Helvetica) 200.0 0.0 true true 0 (10)]
[(Helvetica) 160.0 100.0 true true 0 (-2)]
] -86.7 MRshow
1.000 UL
LTb
LCb setrgbcolor
860 2549 M
31 0 V
3788 0 R
-31 0 V
860 2779 M
31 0 V
3788 0 R
-31 0 V
860 2897 M
31 0 V
3788 0 R
-31 0 V
860 2953 M
63 0 V
3756 0 R
-63 0 V
stroke
740 2953 M
[ [(Helvetica) 200.0 0.0 true true 0 (10)]
[(Helvetica) 160.0 100.0 true true 0 (-1)]
] -86.7 MRshow
1.000 UL
LTb
LCb setrgbcolor
860 3127 M
31 0 V
3788 0 R
-31 0 V
860 3357 M
31 0 V
3788 0 R
-31 0 V
860 3475 M
31 0 V
3788 0 R
-31 0 V
860 3531 M
63 0 V
3756 0 R
-63 0 V
stroke
740 3531 M
[ [(Helvetica) 200.0 0.0 true true 0 (10)]
[(Helvetica) 160.0 100.0 true true 0 (0)]
] -86.7 MRshow
1.000 UL
LTb
LCb setrgbcolor
860 640 M
0 63 V
0 2828 R
0 -63 V
stroke
860 440 M
[ [(Helvetica) 200.0 0.0 true true 0 (10)]
[(Helvetica) 160.0 100.0 true true 0 (-4)]
] -86.7 MCshow
1.000 UL
LTb
LCb setrgbcolor
1147 640 M
0 31 V
0 2860 R
0 -31 V
1316 640 M
0 31 V
0 2860 R
0 -31 V
1435 640 M
0 31 V
0 2860 R
0 -31 V
1527 640 M
0 31 V
0 2860 R
0 -31 V
1603 640 M
0 31 V
0 2860 R
0 -31 V
1667 640 M
0 31 V
0 2860 R
0 -31 V
1722 640 M
0 31 V
0 2860 R
0 -31 V
1771 640 M
0 31 V
0 2860 R
0 -31 V
1815 640 M
0 63 V
0 2828 R
0 -63 V
stroke
1815 440 M
[ [(Helvetica) 200.0 0.0 true true 0 (10)]
[(Helvetica) 160.0 100.0 true true 0 (-3)]
] -86.7 MCshow
1.000 UL
LTb
LCb setrgbcolor
2102 640 M
0 31 V
0 2860 R
0 -31 V
2270 640 M
0 31 V
0 2860 R
0 -31 V
2390 640 M
0 31 V
0 2860 R
0 -31 V
2482 640 M
0 31 V
0 2860 R
0 -31 V
2558 640 M
0 31 V
0 2860 R
0 -31 V
2622 640 M
0 31 V
0 2860 R
0 -31 V
2677 640 M
0 31 V
0 2860 R
0 -31 V
2726 640 M
0 31 V
0 2860 R
0 -31 V
2770 640 M
0 63 V
0 2828 R
0 -63 V
stroke
2770 440 M
[ [(Helvetica) 200.0 0.0 true true 0 (10)]
[(Helvetica) 160.0 100.0 true true 0 (-2)]
] -86.7 MCshow
1.000 UL
LTb
LCb setrgbcolor
3057 640 M
0 31 V
0 2860 R
0 -31 V
3225 640 M
0 31 V
0 2860 R
0 -31 V
3344 640 M
0 31 V
0 2860 R
0 -31 V
3437 640 M
0 31 V
0 2860 R
0 -31 V
3512 640 M
0 31 V
0 2860 R
0 -31 V
3576 640 M
0 31 V
0 2860 R
0 -31 V
3632 640 M
0 31 V
0 2860 R
0 -31 V
3681 640 M
0 31 V
0 2860 R
0 -31 V
3724 640 M
0 63 V
0 2828 R
0 -63 V
stroke
3724 440 M
[ [(Helvetica) 200.0 0.0 true true 0 (10)]
[(Helvetica) 160.0 100.0 true true 0 (-1)]
] -86.7 MCshow
1.000 UL
LTb
LCb setrgbcolor
4012 640 M
0 31 V
0 2860 R
0 -31 V
4180 640 M
0 31 V
0 2860 R
0 -31 V
4299 640 M
0 31 V
0 2860 R
0 -31 V
4392 640 M
0 31 V
0 2860 R
0 -31 V
4467 640 M
0 31 V
0 2860 R
0 -31 V
4531 640 M
0 31 V
0 2860 R
0 -31 V
4586 640 M
0 31 V
0 2860 R
0 -31 V
4635 640 M
0 31 V
0 2860 R
0 -31 V
4679 640 M
0 63 V
0 2828 R
0 -63 V
stroke
4679 440 M
[ [(Helvetica) 200.0 0.0 true true 0 (10)]
[(Helvetica) 160.0 100.0 true true 0 (0)]
] -86.7 MCshow
1.000 UL
LTb
LCb setrgbcolor
1.000 UL
LTb
LCb setrgbcolor
860 3531 N
860 640 L
3819 0 V
0 2891 V
-3819 0 V
Z stroke
0.500 UP
1.000 UL
LTb
LCb setrgbcolor
LCb setrgbcolor
160 2085 M
currentpoint gsave translate -270 rotate 0 0 moveto
[ [(Helvetica) 200.0 0.0 true true 0 (Inter-thread density)]
] -66.7 MCshow
grestore
LTb
LCb setrgbcolor
2769 140 M
[ [(Helvetica) 200.0 0.0 true true 0 (Intra-thread density)]
] -66.7 MCshow
LTb
% Begin plot #1
0.500 UP
0.500 UL
LTb
0.82 0.11 0.02 C 943 1761 Pls
1560 1666 Pls
1915 1873 Pls
1887 2069 Pls
% End plot #1
% Begin plot #2
0.500 UP
0.500 UL
LTb
0.73 0.85 0.33 C 4307 1998 Crs
3981 1855 Crs
4679 1877 Crs
3674 1898 Crs
3998 1371 Crs
3921 1728 Crs
3890 1902 Crs
3831 2016 Crs
3676 1914 Crs
3780 1730 Crs
3781 1741 Crs
3516 1630 Crs
4111 2036 Crs
4332 1899 Crs
2990 1861 Crs
3626 2016 Crs
3902 1920 Crs
3633 1638 Crs
4238 1902 Crs
3874 1911 Crs
3779 1875 Crs
3757 1961 Crs
3348 1932 Crs
3427 1836 Crs
3757 2061 Crs
3628 1764 Crs
3355 2083 Crs
3728 1551 Crs
3059 1713 Crs
3526 2063 Crs
3242 1665 Crs
4059 1730 Crs
3316 1681 Crs
4254 1656 Crs
3379 1617 Crs
3426 2045 Crs
4255 1722 Crs
3621 1776 Crs
4139 2098 Crs
3755 1749 Crs
3708 1947 Crs
3399 1935 Crs
4046 1717 Crs
3788 1921 Crs
3582 1795 Crs
3131 1826 Crs
3856 1686 Crs
3773 2082 Crs
3289 1853 Crs
3159 1763 Crs
3148 1832 Crs
3653 1967 Crs
4301 1929 Crs
3491 1824 Crs
4018 2033 Crs
3640 1656 Crs
4109 1912 Crs
3504 1813 Crs
3091 1886 Crs
3724 1539 Crs
1394 1485 Crs
3600 1741 Crs
4034 1829 Crs
3576 1662 Crs
2349 1972 Crs
1722 1309 Crs
3083 1854 Crs
3278 1787 Crs
3673 1760 Crs
4036 1697 Crs
3475 2137 Crs
4198 1750 Crs
1964 1826 Crs
3460 1651 Crs
3712 1763 Crs
4271 1821 Crs
4301 1735 Crs
3953 1800 Crs
3381 1874 Crs
3883 1711 Crs
3404 1672 Crs
3082 1670 Crs
3176 1844 Crs
2538 1560 Crs
3439 1657 Crs
3626 1756 Crs
3699 1822 Crs
3524 1915 Crs
3867 1820 Crs
3845 1791 Crs
4349 1749 Crs
3471 1975 Crs
4081 1779 Crs
3872 1752 Crs
3661 1990 Crs
2998 1764 Crs
3950 1670 Crs
4089 1867 Crs
2715 1692 Crs
4123 2090 Crs
3619 1530 Crs
3154 1917 Crs
3298 1739 Crs
3596 1840 Crs
3967 2011 Crs
3548 1954 Crs
4180 2076 Crs
3913 1730 Crs
4164 1834 Crs
3037 1483 Crs
3892 1848 Crs
3748 1799 Crs
3455 2136 Crs
4104 1843 Crs
3166 1673 Crs
2930 1739 Crs
3763 1742 Crs
2747 1778 Crs
3573 1836 Crs
3860 1918 Crs
3065 1692 Crs
3944 1884 Crs
3829 1876 Crs
4165 1873 Crs
3867 1660 Crs
3508 1796 Crs
3583 1969 Crs
2869 1879 Crs
3578 1963 Crs
4073 1556 Crs
3946 1761 Crs
3796 1761 Crs
2237 1903 Crs
3723 1949 Crs
3875 1864 Crs
2985 1815 Crs
3002 1682 Crs
4332 2106 Crs
4391 1921 Crs
3218 2051 Crs
3833 1759 Crs
3305 1698 Crs
2944 1667 Crs
3349 1821 Crs
3347 1759 Crs
3215 1587 Crs
4216 1689 Crs
3853 1747 Crs
3431 1641 Crs
3414 1610 Crs
3299 1585 Crs
3869 1788 Crs
2861 1868 Crs
4679 1849 Crs
4046 1801 Crs
3950 1757 Crs
3977 1921 Crs
4042 1863 Crs
3393 1925 Crs
3466 1390 Crs
3647 1842 Crs
3762 1931 Crs
3593 1969 Crs
3694 1784 Crs
3861 2000 Crs
3389 1905 Crs
3800 1774 Crs
3972 1960 Crs
4189 1591 Crs
2415 1816 Crs
4033 1843 Crs
3544 1800 Crs
3515 1756 Crs
3666 1718 Crs
3442 1914 Crs
3119 1238 Crs
4185 1727 Crs
3921 1843 Crs
4000 1861 Crs
3722 1607 Crs
3728 1608 Crs
3516 1769 Crs
3820 1939 Crs
3544 1920 Crs
3549 2066 Crs
2500 1839 Crs
4305 2131 Crs
3418 1664 Crs
3835 1765 Crs
3751 2022 Crs
4031 1603 Crs
3482 1767 Crs
3750 1798 Crs
3926 2017 Crs
3898 1847 Crs
3668 1798 Crs
3889 1797 Crs
3754 1785 Crs
3711 1582 Crs
4275 2053 Crs
3543 1820 Crs
2998 1326 Crs
3663 1654 Crs
4026 1717 Crs
3157 1405 Crs
4167 1758 Crs
3065 1799 Crs
3408 1641 Crs
3742 1941 Crs
4195 2047 Crs
2998 1814 Crs
2619 1903 Crs
3797 1715 Crs
3581 1785 Crs
3546 1457 Crs
2771 1968 Crs
3317 1436 Crs
2945 1440 Crs
2838 2066 Crs
4001 1803 Crs
4019 1813 Crs
4050 1917 Crs
3229 1510 Crs
3831 1723 Crs
3851 1635 Crs
4311 1692 Crs
3501 1955 Crs
3826 2014 Crs
3698 1865 Crs
3669 1898 Crs
3708 1809 Crs
4206 1798 Crs
3719 1685 Crs
3110 1869 Crs
4145 1553 Crs
3840 1866 Crs
3712 1911 Crs
3967 1696 Crs
3498 1810 Crs
4382 1767 Crs
4170 1853 Crs
3704 1797 Crs
4023 1756 Crs
4338 1687 Crs
3689 1888 Crs
4127 1762 Crs
3825 1929 Crs
3427 1936 Crs
3873 1831 Crs
3533 1601 Crs
3403 1827 Crs
4040 1950 Crs
4001 2061 Crs
4155 1689 Crs
3808 1734 Crs
3304 1772 Crs
3845 1645 Crs
3589 1926 Crs
3251 1665 Crs
3802 1688 Crs
4072 1712 Crs
3064 1740 Crs
4205 1938 Crs
3246 1541 Crs
3721 1813 Crs
3669 1635 Crs
3165 1833 Crs
4134 1885 Crs
3385 1748 Crs
3709 1803 Crs
2491 1911 Crs
3610 1890 Crs
3810 1685 Crs
3523 1955 Crs
4259 1766 Crs
4066 1903 Crs
3721 2174 Crs
3754 2000 Crs
3414 1816 Crs
3762 1769 Crs
2771 1620 Crs
3884 2175 Crs
3761 1680 Crs
3951 2030 Crs
3698 1723 Crs
3570 1551 Crs
3895 1830 Crs
3836 1877 Crs
3597 1842 Crs
4057 1894 Crs
3209 1326 Crs
2935 1999 Crs
3809 1914 Crs
3400 1943 Crs
2748 2000 Crs
4219 1670 Crs
2693 1290 Crs
3670 1800 Crs
3616 1913 Crs
3049 1811 Crs
3475 1687 Crs
3719 1964 Crs
3176 1502 Crs
3359 2025 Crs
4050 1894 Crs
3650 1866 Crs
3489 1690 Crs
4275 1725 Crs
3758 1440 Crs
4216 1799 Crs
3399 1852 Crs
4155 1932 Crs
3255 1901 Crs
3686 1717 Crs
4469 1821 Crs
3656 1674 Crs
3127 1898 Crs
3949 1752 Crs
3732 1717 Crs
4451 1962 Crs
3980 1966 Crs
3867 1913 Crs
3250 1815 Crs
4007 2039 Crs
3690 1988 Crs
3549 1813 Crs
3743 1866 Crs
4192 1942 Crs
3786 1835 Crs
3499 1722 Crs
3286 1976 Crs
4066 1875 Crs
3808 1410 Crs
2854 1471 Crs
3844 1779 Crs
3695 1586 Crs
3839 1940 Crs
3941 1753 Crs
4305 1796 Crs
3534 1886 Crs
3672 1731 Crs
3911 2083 Crs
3550 1660 Crs
3530 1729 Crs
3980 1698 Crs
3759 1788 Crs
3494 1855 Crs
4061 2065 Crs
3063 1630 Crs
3716 1696 Crs
4000 1837 Crs
3810 1774 Crs
3613 1899 Crs
3312 1713 Crs
3632 1692 Crs
3506 1821 Crs
3984 1741 Crs
3553 1733 Crs
3726 1990 Crs
4116 1845 Crs
2527 2060 Crs
3855 1976 Crs
3862 2028 Crs
3934 1651 Crs
3727 1732 Crs
3614 1705 Crs
4063 1713 Crs
3905 1667 Crs
3697 1864 Crs
3858 1796 Crs
3896 1699 Crs
3536 1811 Crs
3254 1745 Crs
4308 1831 Crs
3890 1968 Crs
3443 1737 Crs
3793 1995 Crs
3921 1868 Crs
3663 1688 Crs
4012 1866 Crs
3365 1594 Crs
3932 1808 Crs
4034 1854 Crs
3277 1791 Crs
4047 2003 Crs
4086 2034 Crs
3425 2048 Crs
3661 1784 Crs
3493 1857 Crs
3860 1602 Crs
4148 1775 Crs
3653 1919 Crs
3882 1715 Crs
3768 1668 Crs
3895 1847 Crs
3409 2026 Crs
3782 1877 Crs
3693 1757 Crs
3589 2023 Crs
3137 1568 Crs
4213 1959 Crs
3648 1885 Crs
3327 1903 Crs
3613 1588 Crs
4079 1797 Crs
3697 1809 Crs
3475 2005 Crs
3701 1991 Crs
3511 1815 Crs
3575 1208 Crs
3911 1729 Crs
3676 2163 Crs
3870 1745 Crs
3506 1773 Crs
4198 2032 Crs
3533 1846 Crs
2518 1650 Crs
3707 1163 Crs
3935 1812 Crs
3255 1952 Crs
3349 1743 Crs
3099 1794 Crs
3748 1805 Crs
2753 1832 Crs
3519 1823 Crs
3438 1781 Crs
4111 1944 Crs
3830 1864 Crs
3812 1892 Crs
4020 1980 Crs
3491 2221 Crs
3228 1950 Crs
4320 1434 Crs
4220 1916 Crs
3824 1924 Crs
3991 1659 Crs
3694 2113 Crs
4060 1849 Crs
3887 1844 Crs
4033 1814 Crs
4029 1783 Crs
3863 1773 Crs
4520 2000 Crs
3432 1826 Crs
3122 1780 Crs
3424 1562 Crs
4046 1984 Crs
3674 2090 Crs
4051 1827 Crs
3935 1687 Crs
4035 1880 Crs
3706 1757 Crs
3627 1677 Crs
3602 1933 Crs
3714 1879 Crs
3569 1933 Crs
3933 1854 Crs
4233 1754 Crs
3545 1767 Crs
3530 1772 Crs
4076 1880 Crs
2880 1937 Crs
4020 1667 Crs
1773 1682 Crs
4009 1769 Crs
4121 1961 Crs
4111 1655 Crs
3678 1690 Crs
4189 1811 Crs
3107 1603 Crs
3914 1590 Crs
3481 1746 Crs
3842 1801 Crs
3789 1738 Crs
3323 1734 Crs
4073 1828 Crs
3305 1770 Crs
4040 1922 Crs
3356 1856 Crs
4111 1718 Crs
3729 1887 Crs
4240 1768 Crs
3859 1718 Crs
3168 1831 Crs
3558 1866 Crs
3943 1658 Crs
3004 1676 Crs
3059 1772 Crs
3638 1706 Crs
3354 1820 Crs
4185 2148 Crs
3873 1945 Crs
3955 1860 Crs
3476 1672 Crs
3695 1674 Crs
3440 1790 Crs
3515 1800 Crs
4472 2043 Crs
3359 1942 Crs
3699 1771 Crs
3364 1495 Crs
3847 1728 Crs
2685 1831 Crs
3379 1780 Crs
3708 1722 Crs
4121 1995 Crs
4435 1708 Crs
3974 1828 Crs
3911 1847 Crs
3222 1827 Crs
4023 1773 Crs
3320 1714 Crs
4144 2042 Crs
2857 1757 Crs
3129 1669 Crs
3792 1765 Crs
3654 1704 Crs
3922 1770 Crs
2882 2062 Crs
3744 1955 Crs
4173 2130 Crs
3653 1717 Crs
3521 1686 Crs
4238 1683 Crs
2928 1796 Crs
3818 1691 Crs
4126 1895 Crs
4046 1780 Crs
3763 1736 Crs
4138 1704 Crs
4036 1884 Crs
3583 1737 Crs
3871 2044 Crs
4094 1593 Crs
3659 1753 Crs
4002 1880 Crs
2331 1710 Crs
4334 1853 Crs
3433 1903 Crs
2771 1723 Crs
3302 1746 Crs
3396 1924 Crs
4294 1820 Crs
3790 1830 Crs
2827 1972 Crs
3009 1803 Crs
4213 1696 Crs
4099 1925 Crs
3270 1784 Crs
3222 1878 Crs
3958 2137 Crs
3969 1914 Crs
3490 1710 Crs
4053 1864 Crs
3893 1750 Crs
3352 1910 Crs
3930 1765 Crs
4298 1845 Crs
3217 1662 Crs
4134 2028 Crs
3957 1862 Crs
4068 1719 Crs
4010 1359 Crs
4040 1821 Crs
3815 1704 Crs
3222 1870 Crs
3852 1974 Crs
3795 1855 Crs
4215 1881 Crs
3624 1807 Crs
3504 1696 Crs
3030 1800 Crs
3853 1859 Crs
3690 1878 Crs
3691 1734 Crs
3957 1642 Crs
3703 1839 Crs
3999 1916 Crs
3369 1964 Crs
3506 1864 Crs
3484 1656 Crs
3230 1830 Crs
3446 1915 Crs
3898 1760 Crs
3927 1774 Crs
3427 1795 Crs
3814 1822 Crs
3506 2022 Crs
4089 1646 Crs
3816 1740 Crs
3579 1669 Crs
3641 1800 Crs
3883 1508 Crs
4080 1988 Crs
2974 1703 Crs
4008 1730 Crs
3483 1775 Crs
4290 2040 Crs
3533 1681 Crs
3643 1747 Crs
4134 1715 Crs
3668 1928 Crs
3627 1728 Crs
3362 1724 Crs
3986 1837 Crs
3147 1655 Crs
3843 1854 Crs
3655 1819 Crs
4418 1656 Crs
3349 1693 Crs
3730 1954 Crs
2928 1885 Crs
3667 1936 Crs
3134 2008 Crs
3286 1810 Crs
3748 1867 Crs
4102 1936 Crs
3826 2015 Crs
3478 1956 Crs
3541 1290 Crs
3324 1955 Crs
4161 1791 Crs
3454 1707 Crs
3399 1711 Crs
2964 1602 Crs
4043 1963 Crs
4166 1746 Crs
3936 1891 Crs
3855 1849 Crs
4147 1993 Crs
4324 1857 Crs
4134 2002 Crs
3592 1926 Crs
3592 1866 Crs
3863 1717 Crs
2852 1640 Crs
3828 1884 Crs
4154 1754 Crs
3992 1827 Crs
3987 1878 Crs
3611 2112 Crs
3862 1996 Crs
2633 2109 Crs
3816 1957 Crs
4131 1658 Crs
3681 1757 Crs
3426 1842 Crs
2563 1764 Crs
3935 1833 Crs
3336 2024 Crs
3397 1788 Crs
3940 1860 Crs
3602 1728 Crs
3919 1892 Crs
3215 1575 Crs
4056 1733 Crs
4202 2031 Crs
3799 2137 Crs
3934 1761 Crs
4097 2026 Crs
2808 1575 Crs
4010 1792 Crs
3538 1506 Crs
3762 1577 Crs
3877 1844 Crs
3728 2003 Crs
3982 1834 Crs
3749 1920 Crs
2858 1611 Crs
3567 1718 Crs
3608 1573 Crs
3652 2058 Crs
3331 1738 Crs
4211 1786 Crs
4005 1888 Crs
3466 1743 Crs
3731 1782 Crs
4244 1717 Crs
3215 1647 Crs
3536 2013 Crs
4199 1985 Crs
3936 1722 Crs
3801 1743 Crs
3726 1911 Crs
3588 1771 Crs
2801 1893 Crs
3738 1839 Crs
3062 1793 Crs
3410 1860 Crs
2078 1876 Crs
4272 1859 Crs
2939 1814 Crs
3977 1813 Crs
3856 1493 Crs
3444 1784 Crs
3694 1688 Crs
3848 2009 Crs
3733 1844 Crs
3937 1982 Crs
3281 1911 Crs
3839 1708 Crs
3542 1786 Crs
3423 2003 Crs
4027 1840 Crs
3630 1940 Crs
3779 1850 Crs
3147 1712 Crs
3994 1923 Crs
3735 1985 Crs
4010 1811 Crs
4001 1803 Crs
3271 1851 Crs
3651 1681 Crs
3994 1640 Crs
3655 1605 Crs
3519 1792 Crs
2783 1728 Crs
3708 1842 Crs
4074 1848 Crs
4016 1724 Crs
2931 1562 Crs
3275 1787 Crs
3369 1833 Crs
3846 1818 Crs
4061 1875 Crs
3891 1741 Crs
4036 2014 Crs
3631 1616 Crs
3597 1448 Crs
3937 1838 Crs
3925 1766 Crs
3058 2030 Crs
3699 1932 Crs
3954 1693 Crs
3751 1354 Crs
3582 1694 Crs
3507 1698 Crs
3405 1695 Crs
3902 1993 Crs
3932 1806 Crs
3460 1817 Crs
3379 1770 Crs
3583 1588 Crs
4099 1826 Crs
3254 1638 Crs
3827 1874 Crs
4023 1885 Crs
3740 1961 Crs
3796 1669 Crs
3905 1803 Crs
3835 1978 Crs
3873 1947 Crs
4175 1708 Crs
3956 1913 Crs
3283 1920 Crs
2948 1930 Crs
3921 1844 Crs
3862 2119 Crs
4165 1850 Crs
3585 1557 Crs
3223 1736 Crs
3668 1748 Crs
3876 1902 Crs
3804 1703 Crs
3699 1731 Crs
3795 1639 Crs
3449 1965 Crs
3507 1945 Crs
3644 1807 Crs
3329 1770 Crs
2804 1568 Crs
3952 1965 Crs
4265 2113 Crs
4073 1727 Crs
4124 1771 Crs
4223 1851 Crs
4193 1670 Crs
4679 1732 Crs
3688 1707 Crs
4398 1738 Crs
4003 1824 Crs
3166 1905 Crs
3292 1784 Crs
3772 1814 Crs
3952 2008 Crs
3731 1831 Crs
3375 1816 Crs
3830 1763 Crs
4068 1921 Crs
4117 1616 Crs
2778 1883 Crs
4242 2011 Crs
3043 1647 Crs
3501 1965 Crs
3826 1842 Crs
3245 2019 Crs
3814 1601 Crs
3764 1736 Crs
2835 1678 Crs
3863 1798 Crs
3827 2115 Crs
4126 1688 Crs
3923 1904 Crs
3947 1975 Crs
3819 1927 Crs
3805 1725 Crs
3511 1493 Crs
3598 1720 Crs
4079 1794 Crs
4133 1845 Crs
4372 1820 Crs
3168 1801 Crs
3595 1967 Crs
2446 1754 Crs
3920 1658 Crs
3870 1675 Crs
3580 1552 Crs
4211 1897 Crs
4143 1826 Crs
3766 1824 Crs
3614 1566 Crs
3078 1964 Crs
3419 1904 Crs
3461 1779 Crs
4084 1719 Crs
3740 2042 Crs
3833 1718 Crs
4045 1801 Crs
3389 1663 Crs
2824 1737 Crs
4295 1825 Crs
3554 1716 Crs
3408 1927 Crs
3374 1724 Crs
3810 1431 Crs
4065 1802 Crs
3700 1824 Crs
3992 1663 Crs
3910 1744 Crs
3647 1781 Crs
4265 1507 Crs
3946 1883 Crs
3617 1720 Crs
3853 1731 Crs
3367 2128 Crs
3462 1547 Crs
3713 1837 Crs
3777 1633 Crs
2373 1692 Crs
3673 1412 Crs
3570 1866 Crs
3702 1912 Crs
3523 2083 Crs
3656 1840 Crs
4356 1842 Crs
3917 1454 Crs
4113 1947 Crs
3030 1868 Crs
3622 2012 Crs
4215 1883 Crs
4276 1428 Crs
3556 1724 Crs
3253 1922 Crs
2496 1844 Crs
3364 1312 Crs
4363 1947 Crs
3560 1902 Crs
3952 1879 Crs
2718 1917 Crs
3497 1682 Crs
4044 1837 Crs
3616 1783 Crs
3898 1944 Crs
4125 1786 Crs
3408 1844 Crs
4031 1867 Crs
3513 1843 Crs
3090 1717 Crs
2691 1850 Crs
2919 1759 Crs
3884 1713 Crs
3185 1742 Crs
3698 2056 Crs
3947 1794 Crs
3767 1664 Crs
3752 1902 Crs
3745 1730 Crs
3248 2244 Crs
3855 1954 Crs
3378 1625 Crs
3823 1675 Crs
4005 1743 Crs
4105 2085 Crs
4036 1906 Crs
3506 1835 Crs
3878 1920 Crs
3674 2055 Crs
3524 1588 Crs
3693 1518 Crs
4149 1788 Crs
3674 1701 Crs
3811 1868 Crs
3943 2100 Crs
2936 1827 Crs
3972 1474 Crs
3488 1761 Crs
4041 1868 Crs
3616 1828 Crs
3324 1780 Crs
3292 1578 Crs
3097 1583 Crs
3518 1405 Crs
4056 1795 Crs
4002 1630 Crs
3537 1698 Crs
3967 1769 Crs
3887 1807 Crs
3954 1828 Crs
3925 1796 Crs
2839 1796 Crs
3872 1587 Crs
3828 2050 Crs
3753 1911 Crs
3901 1816 Crs
3607 1638 Crs
3817 1602 Crs
3765 1819 Crs
3691 1812 Crs
4247 1802 Crs
3375 2006 Crs
3972 1663 Crs
4083 2057 Crs
4112 1677 Crs
2824 1780 Crs
3465 1802 Crs
3821 1699 Crs
3394 1826 Crs
4236 1831 Crs
3381 1752 Crs
3682 1710 Crs
3298 1899 Crs
3081 1904 Crs
3954 1716 Crs
3933 1806 Crs
3999 1885 Crs
3896 1868 Crs
3376 1731 Crs
3592 1725 Crs
3513 1736 Crs
3731 2079 Crs
3457 1554 Crs
2879 1596 Crs
3482 2053 Crs
2425 1678 Crs
4045 1770 Crs
3850 1836 Crs
3821 1527 Crs
3815 1964 Crs
3742 1906 Crs
3983 1909 Crs
3216 1939 Crs
3768 1811 Crs
3748 1903 Crs
3835 1721 Crs
3377 2031 Crs
3996 1858 Crs
3992 1845 Crs
4012 1806 Crs
3989 1687 Crs
3750 1664 Crs
3892 1851 Crs
2916 1834 Crs
3546 1908 Crs
3291 1745 Crs
3761 1882 Crs
3850 1864 Crs
3894 1713 Crs
3963 1695 Crs
3616 2133 Crs
3688 1874 Crs
3495 1658 Crs
3808 1327 Crs
3857 1915 Crs
3562 1631 Crs
3529 1569 Crs
3397 1638 Crs
3720 1847 Crs
3764 2006 Crs
3851 1746 Crs
3888 1252 Crs
4027 1730 Crs
3728 1682 Crs
2964 1731 Crs
3591 1935 Crs
3602 1741 Crs
2789 1468 Crs
3974 1799 Crs
4399 1686 Crs
3768 1702 Crs
3868 1658 Crs
3063 1471 Crs
3859 1772 Crs
3528 1911 Crs
3838 1765 Crs
2244 1625 Crs
3350 1788 Crs
3237 1776 Crs
3634 1725 Crs
3876 2043 Crs
3896 1718 Crs
3432 1757 Crs
3665 1915 Crs
3452 1906 Crs
3621 1617 Crs
3813 1786 Crs
3678 1721 Crs
3891 1770 Crs
3774 1795 Crs
2857 1996 Crs
3814 1812 Crs
3981 1752 Crs
3605 2050 Crs
3062 1997 Crs
3846 1870 Crs
3973 1328 Crs
3701 1926 Crs
3465 1920 Crs
3678 1904 Crs
3850 1672 Crs
3749 1899 Crs
4679 1932 Crs
3493 1844 Crs
3593 1806 Crs
4349 1944 Crs
3139 1946 Crs
3340 1748 Crs
2081 1863 Crs
3556 1754 Crs
3589 1681 Crs
2717 1975 Crs
4073 1851 Crs
3415 2009 Crs
4175 1597 Crs
3421 1930 Crs
3420 1490 Crs
3461 1750 Crs
3186 1762 Crs
4055 1939 Crs
4056 1870 Crs
3559 1985 Crs
3912 1865 Crs
3974 1741 Crs
3938 1750 Crs
3108 1753 Crs
3844 1837 Crs
3847 1787 Crs
3294 1756 Crs
3764 1922 Crs
2439 1791 Crs
3527 1646 Crs
4025 1690 Crs
3720 1915 Crs
3954 1881 Crs
3585 1764 Crs
3773 1520 Crs
4039 1997 Crs
3448 1760 Crs
3692 1738 Crs
4027 1736 Crs
3521 1950 Crs
3418 1624 Crs
4090 2024 Crs
3940 2084 Crs
3768 1746 Crs
4277 1870 Crs
3749 1790 Crs
4007 1692 Crs
3027 1799 Crs
3643 2000 Crs
4205 1705 Crs
3226 1539 Crs
3490 1845 Crs
4371 1665 Crs
3749 2070 Crs
3997 1576 Crs
3294 1691 Crs
3712 1803 Crs
3833 1929 Crs
3816 1782 Crs
4010 2015 Crs
4200 1792 Crs
3443 1910 Crs
3953 1622 Crs
3853 1906 Crs
2907 1671 Crs
3775 1881 Crs
4088 2031 Crs
2948 1618 Crs
3909 1860 Crs
3701 1865 Crs
4322 1952 Crs
3602 1556 Crs
3950 1750 Crs
3849 1522 Crs
3559 1730 Crs
2869 1779 Crs
3165 1799 Crs
3880 1776 Crs
3951 1974 Crs
3802 1831 Crs
3893 1825 Crs
3223 1812 Crs
3450 1941 Crs
3603 1294 Crs
2191 1742 Crs
4008 1669 Crs
4060 1785 Crs
4202 1887 Crs
3439 1499 Crs
4006 2081 Crs
3801 1698 Crs
3242 1568 Crs
4251 1962 Crs
3274 1908 Crs
3014 1961 Crs
3706 1925 Crs
3707 1731 Crs
4332 1928 Crs
3578 1877 Crs
3923 1778 Crs
4321 1718 Crs
4228 1753 Crs
4261 1890 Crs
3276 1898 Crs
3974 1904 Crs
3758 1729 Crs
3725 2127 Crs
3447 1860 Crs
4267 1767 Crs
3919 1775 Crs
3188 2230 Crs
3511 1742 Crs
3481 1937 Crs
3740 1930 Crs
3726 1947 Crs
3453 1826 Crs
3654 1771 Crs
3383 1896 Crs
2670 1637 Crs
3371 1515 Crs
3690 1840 Crs
3637 1771 Crs
3262 2012 Crs
3973 1907 Crs
4584 1889 Crs
3487 1785 Crs
3060 1848 Crs
4077 1696 Crs
4446 1607 Crs
3947 1890 Crs
3601 1904 Crs
3195 1900 Crs
4058 1802 Crs
3674 1757 Crs
3935 1863 Crs
3290 1756 Crs
3226 1783 Crs
3585 1757 Crs
3536 1800 Crs
2355 1834 Crs
3847 2003 Crs
4066 1688 Crs
3563 1631 Crs
3918 1786 Crs
3636 1961 Crs
3737 1974 Crs
4131 1863 Crs
3766 1876 Crs
3767 1884 Crs
3955 1900 Crs
3759 1553 Crs
3958 1938 Crs
4461 1810 Crs
3151 2081 Crs
3028 1799 Crs
3317 1779 Crs
3997 2209 Crs
3426 1653 Crs
3586 2060 Crs
2841 1873 Crs
3740 1604 Crs
3100 2133 Crs
3658 1866 Crs
4036 1858 Crs
3104 1817 Crs
4325 2091 Crs
3596 1875 Crs
3952 1745 Crs
3888 1833 Crs
3107 1858 Crs
3784 1756 Crs
2941 1716 Crs
2829 1973 Crs
4072 2300 Crs
3379 1862 Crs
3637 1663 Crs
3649 2012 Crs
3744 1584 Crs
3355 1820 Crs
3090 1808 Crs
3336 1758 Crs
3552 1913 Crs
3986 1929 Crs
3546 1757 Crs
3916 1778 Crs
3809 1902 Crs
3248 1639 Crs
3387 1464 Crs
3362 1844 Crs
3013 1778 Crs
3949 1849 Crs
3304 1886 Crs
4136 1841 Crs
4031 1957 Crs
2817 1848 Crs
3911 1814 Crs
4069 2005 Crs
3731 2005 Crs
3456 1858 Crs
4117 1979 Crs
4251 1937 Crs
4065 1895 Crs
3978 1732 Crs
3795 1984 Crs
3266 1495 Crs
3667 1985 Crs
4354 1953 Crs
3542 1763 Crs
3834 1931 Crs
3894 1868 Crs
4100 1327 Crs
3445 1702 Crs
3601 1347 Crs
4214 1928 Crs
3890 1488 Crs
3642 1847 Crs
3111 1918 Crs
3798 1756 Crs
3683 1670 Crs
3566 1862 Crs
4179 1717 Crs
3685 1673 Crs
3683 1706 Crs
3779 1647 Crs
3887 2025 Crs
3120 1754 Crs
3894 2210 Crs
3722 2015 Crs
3489 1782 Crs
3189 1785 Crs
2584 1900 Crs
2801 2071 Crs
3098 1699 Crs
3503 1719 Crs
4220 1773 Crs
3260 1889 Crs
3854 1893 Crs
3148 2059 Crs
3213 1825 Crs
3780 1892 Crs
2985 1686 Crs
3895 1853 Crs
3414 1796 Crs
4349 1912 Crs
3303 1586 Crs
3000 1340 Crs
2900 1848 Crs
3626 1934 Crs
3583 1561 Crs
3651 1634 Crs
3805 1679 Crs
3789 2136 Crs
2905 1722 Crs
4301 1836 Crs
3936 1831 Crs
3958 1852 Crs
3948 1873 Crs
4027 1941 Crs
2838 1558 Crs
3865 1759 Crs
2418 1905 Crs
3629 1759 Crs
3391 1513 Crs
3131 1641 Crs
4054 1855 Crs
3412 1792 Crs
3793 1763 Crs
3238 1584 Crs
3888 1867 Crs
3805 2072 Crs
3063 1823 Crs
3524 1759 Crs
4056 1957 Crs
3556 1934 Crs
3691 1804 Crs
3772 1761 Crs
3900 1879 Crs
4064 1809 Crs
3717 2000 Crs
3973 1688 Crs
3743 1689 Crs
3628 1941 Crs
3386 1876 Crs
4017 1955 Crs
4110 1973 Crs
3431 1911 Crs
3669 1928 Crs
3124 2027 Crs
3926 2005 Crs
3995 2221 Crs
3578 1774 Crs
3010 2254 Crs
3566 1837 Crs
3600 1763 Crs
4044 1956 Crs
3879 1760 Crs
3331 1770 Crs
4224 1920 Crs
3407 1836 Crs
3596 1907 Crs
2950 1705 Crs
4099 1947 Crs
3304 1620 Crs
4241 2005 Crs
3772 1726 Crs
3010 1225 Crs
3998 1532 Crs
3392 1773 Crs
3303 1647 Crs
3870 1818 Crs
3535 1859 Crs
3611 1668 Crs
3386 1650 Crs
3836 1722 Crs
3440 1810 Crs
3689 1803 Crs
3224 1709 Crs
3899 1824 Crs
3354 1696 Crs
3712 1733 Crs
3486 1946 Crs
4327 1839 Crs
4042 1544 Crs
3658 2096 Crs
2694 1920 Crs
4239 1956 Crs
3762 1973 Crs
3685 1909 Crs
3486 1944 Crs
3851 1909 Crs
4024 1984 Crs
3566 1735 Crs
3830 1751 Crs
3322 1822 Crs
3542 2094 Crs
3935 1677 Crs
3690 1671 Crs
4212 1911 Crs
3579 1734 Crs
2607 1763 Crs
3306 1793 Crs
3758 1824 Crs
3429 1662 Crs
4030 1761 Crs
3866 1736 Crs
4164 1936 Crs
3144 1690 Crs
3257 1694 Crs
4076 1977 Crs
4134 1953 Crs
2848 1687 Crs
3238 1794 Crs
3666 2085 Crs
3927 1757 Crs
3159 1757 Crs
3902 1777 Crs
3584 1818 Crs
3605 1571 Crs
3645 1325 Crs
3823 2017 Crs
2457 1806 Crs
3935 1905 Crs
4094 1926 Crs
4001 1856 Crs
3093 1860 Crs
3803 1950 Crs
3574 1757 Crs
3306 1818 Crs
3962 1820 Crs
3526 1665 Crs
3712 1757 Crs
3925 1915 Crs
3733 1828 Crs
3375 1932 Crs
3401 1774 Crs
3773 1780 Crs
3885 1916 Crs
3899 1753 Crs
3837 2173 Crs
4123 2038 Crs
3660 1658 Crs
3442 1770 Crs
3574 1786 Crs
3743 1964 Crs
3938 2060 Crs
4156 2017 Crs
3213 1751 Crs
3453 1823 Crs
3932 1404 Crs
3722 1830 Crs
3839 1828 Crs
3503 2035 Crs
4052 1949 Crs
3757 1795 Crs
4097 1964 Crs
3275 1887 Crs
3995 1923 Crs
4219 2064 Crs
4022 2038 Crs
3664 1645 Crs
3720 1862 Crs
3756 1572 Crs
3732 1928 Crs
3460 1934 Crs
3875 1845 Crs
4025 1729 Crs
3229 1771 Crs
4004 1906 Crs
3355 1873 Crs
4100 2034 Crs
2510 1832 Crs
3377 1860 Crs
3950 2144 Crs
3808 1467 Crs
2882 1916 Crs
3375 1675 Crs
3957 1926 Crs
3231 2146 Crs
3898 1780 Crs
3586 1680 Crs
4038 1733 Crs
4153 1556 Crs
3210 2022 Crs
3831 1705 Crs
4121 1911 Crs
3582 1903 Crs
3461 1888 Crs
4059 1879 Crs
3338 1681 Crs
3947 1514 Crs
3461 2088 Crs
3528 1625 Crs
3745 1839 Crs
3731 1833 Crs
3933 1871 Crs
4038 1849 Crs
3867 1839 Crs
3876 1975 Crs
2848 1868 Crs
4063 1944 Crs
4360 1827 Crs
4329 1896 Crs
3777 2031 Crs
3781 1839 Crs
3896 1941 Crs
3529 1596 Crs
3960 1764 Crs
4228 1914 Crs
3935 1780 Crs
2998 2164 Crs
3379 1720 Crs
3530 1869 Crs
3973 1656 Crs
2963 1735 Crs
3201 1694 Crs
3821 1511 Crs
4300 1977 Crs
3656 1970 Crs
3982 1543 Crs
3569 1641 Crs
4142 1719 Crs
2369 1984 Crs
3565 1741 Crs
3212 2097 Crs
3443 1720 Crs
3697 1662 Crs
3612 2016 Crs
3386 1361 Crs
3375 2084 Crs
4123 2026 Crs
3284 1740 Crs
4004 1770 Crs
4036 1520 Crs
4347 1881 Crs
2894 1802 Crs
3649 1893 Crs
4398 1747 Crs
3658 1830 Crs
3336 1875 Crs
4010 2013 Crs
3256 1489 Crs
3572 1964 Crs
2169 1647 Crs
3662 1953 Crs
3764 1672 Crs
4083 1791 Crs
3707 1729 Crs
3637 1742 Crs
3734 1923 Crs
3883 2147 Crs
4070 1573 Crs
3850 1920 Crs
3293 1773 Crs
2761 1671 Crs
3850 1871 Crs
2623 1678 Crs
3021 1376 Crs
3648 1762 Crs
3622 1776 Crs
3003 1839 Crs
2976 1721 Crs
3342 1776 Crs
3130 1905 Crs
4131 1831 Crs
3320 1715 Crs
3686 1826 Crs
4097 1660 Crs
3470 1889 Crs
3609 1692 Crs
3995 1739 Crs
4208 1924 Crs
4002 2077 Crs
2995 1851 Crs
3753 1490 Crs
3652 1326 Crs
3812 1918 Crs
3299 1761 Crs
2657 1604 Crs
3318 1395 Crs
3969 1973 Crs
2750 1928 Crs
3687 1912 Crs
4039 1870 Crs
3784 1987 Crs
3660 2018 Crs
3400 1498 Crs
3975 1638 Crs
3584 2138 Crs
3428 1792 Crs
4170 1924 Crs
3961 1697 Crs
4379 1890 Crs
3270 1497 Crs
3897 1899 Crs
3182 1668 Crs
3759 1881 Crs
3486 1632 Crs
3599 1761 Crs
3126 1861 Crs
3518 1655 Crs
3765 1659 Crs
4170 1754 Crs
2872 1848 Crs
4224 1835 Crs
3988 1705 Crs
4170 1705 Crs
3485 1698 Crs
2726 1844 Crs
4172 2069 Crs
4072 1715 Crs
3513 1868 Crs
3593 1880 Crs
3705 2037 Crs
2998 1615 Crs
3831 1836 Crs
3163 1684 Crs
3685 1864 Crs
3777 1847 Crs
3425 2046 Crs
3660 1744 Crs
3765 1752 Crs
4515 1832 Crs
3751 1720 Crs
3706 1987 Crs
2402 1793 Crs
3404 1721 Crs
3627 1663 Crs
3807 1855 Crs
3636 1750 Crs
3200 1851 Crs
3535 1690 Crs
3728 1700 Crs
4024 1955 Crs
3257 1709 Crs
3821 2043 Crs
4038 1712 Crs
3814 1911 Crs
3448 1814 Crs
3036 1813 Crs
3443 1811 Crs
4211 1679 Crs
3707 1666 Crs
2845 1904 Crs
4111 1723 Crs
3702 1755 Crs
3278 1692 Crs
3493 1723 Crs
3435 1777 Crs
3517 2025 Crs
3689 1807 Crs
3466 1898 Crs
3257 1774 Crs
3957 1881 Crs
3743 2045 Crs
3041 2201 Crs
3799 1814 Crs
3606 1445 Crs
4154 1479 Crs
2532 1789 Crs
3426 1818 Crs
3871 1842 Crs
4287 1520 Crs
3436 1926 Crs
3319 1680 Crs
3855 1842 Crs
4060 1827 Crs
3724 1540 Crs
3635 1787 Crs
3798 2049 Crs
3726 1785 Crs
3978 2063 Crs
3841 1458 Crs
3894 1939 Crs
3481 1831 Crs
3658 1909 Crs
4324 1824 Crs
4451 1787 Crs
4025 1843 Crs
4064 1722 Crs
3788 1836 Crs
3256 1842 Crs
3944 1912 Crs
3987 2067 Crs
3383 1606 Crs
3884 1777 Crs
4124 1861 Crs
3653 2074 Crs
3285 1931 Crs
3164 1658 Crs
3308 1794 Crs
3658 1682 Crs
3600 1873 Crs
3769 1907 Crs
3393 2056 Crs
3419 1815 Crs
2810 1863 Crs
4036 1929 Crs
4296 1733 Crs
2999 1923 Crs
4023 1746 Crs
4156 1919 Crs
4058 1684 Crs
3960 1821 Crs
3251 2047 Crs
4231 1726 Crs
3818 1871 Crs
3549 1765 Crs
4066 1959 Crs
3067 1831 Crs
3617 1794 Crs
3186 1500 Crs
3526 1977 Crs
3216 1665 Crs
3691 1790 Crs
4093 1859 Crs
3923 2020 Crs
4045 1733 Crs
2855 1846 Crs
3321 1745 Crs
2580 1739 Crs
4154 1885 Crs
3781 1700 Crs
3782 1896 Crs
4138 1809 Crs
3500 1835 Crs
4111 1835 Crs
3613 1923 Crs
3818 1736 Crs
4105 1807 Crs
3479 1938 Crs
3974 1579 Crs
3642 1765 Crs
3683 1715 Crs
2979 1697 Crs
4196 1802 Crs
3338 1861 Crs
3782 1450 Crs
4007 1545 Crs
3077 1713 Crs
3810 1563 Crs
3702 2081 Crs
3929 1800 Crs
4020 2110 Crs
3164 1600 Crs
2804 1549 Crs
4679 2010 Crs
4059 1721 Crs
3677 1887 Crs
3888 1754 Crs
3534 1627 Crs
3487 1709 Crs
3571 1990 Crs
3659 1680 Crs
4123 1728 Crs
3706 1728 Crs
2832 1993 Crs
3292 2077 Crs
2806 2060 Crs
3437 1537 Crs
3629 1702 Crs
3377 1674 Crs
3478 1803 Crs
3209 1668 Crs
3859 1967 Crs
3938 1954 Crs
3292 1643 Crs
3424 1898 Crs
4236 1914 Crs
4086 2135 Crs
3501 1969 Crs
3911 1606 Crs
3294 1607 Crs
4088 1708 Crs
3245 1458 Crs
3170 1681 Crs
4064 1962 Crs
4009 1624 Crs
3805 1844 Crs
2788 1705 Crs
3059 1616 Crs
4324 1952 Crs
3912 1790 Crs
4110 1933 Crs
4064 1849 Crs
3868 1819 Crs
4259 1814 Crs
4178 1934 Crs
3623 1601 Crs
3708 1890 Crs
3899 1640 Crs
3816 1727 Crs
4336 1481 Crs
3745 1958 Crs
2968 1881 Crs
3555 1992 Crs
3602 1568 Crs
3252 2087 Crs
3881 1759 Crs
3977 1860 Crs
2127 1905 Crs
3949 1287 Crs
3331 1718 Crs
3666 1838 Crs
3909 2031 Crs
4051 1797 Crs
3159 1762 Crs
4317 1785 Crs
3993 1967 Crs
3789 1877 Crs
3406 1699 Crs
4054 1871 Crs
4397 2002 Crs
3854 1894 Crs
4072 1938 Crs
3995 1847 Crs
3849 2228 Crs
4494 1763 Crs
4117 1823 Crs
3846 1981 Crs
3465 1875 Crs
3655 1664 Crs
3529 1934 Crs
3557 1932 Crs
4088 1646 Crs
4170 1751 Crs
3373 1797 Crs
3480 1756 Crs
3714 1499 Crs
3809 1871 Crs
3455 1626 Crs
4178 1741 Crs
3996 2076 Crs
4045 1929 Crs
4140 1591 Crs
4084 1829 Crs
3357 1988 Crs
4033 1901 Crs
3066 1708 Crs
3434 1809 Crs
3605 1843 Crs
3122 1695 Crs
3036 2019 Crs
3458 1412 Crs
3834 1799 Crs
3635 1888 Crs
3056 1700 Crs
3351 1971 Crs
3687 1815 Crs
3915 2034 Crs
3225 1835 Crs
3391 1591 Crs
3974 2112 Crs
2834 1695 Crs
3838 2175 Crs
3281 1907 Crs
2659 2083 Crs
4047 1772 Crs
3808 2122 Crs
3026 1754 Crs
4016 1822 Crs
4075 1980 Crs
4252 1910 Crs
3660 1795 Crs
3808 1757 Crs
3377 1860 Crs
3154 1789 Crs
3527 1645 Crs
3544 1797 Crs
3131 1699 Crs
4199 1998 Crs
3220 1150 Crs
4088 1936 Crs
2531 1805 Crs
3992 1807 Crs
3569 1943 Crs
3879 1828 Crs
3393 1885 Crs
3796 1740 Crs
3235 1966 Crs
2673 1924 Crs
3355 1926 Crs
3709 1856 Crs
3409 1914 Crs
3479 1802 Crs
4122 1751 Crs
3235 1591 Crs
3433 1236 Crs
4146 1850 Crs
2808 1832 Crs
3257 1644 Crs
3893 1650 Crs
3410 1645 Crs
3375 1887 Crs
3901 1735 Crs
3833 1738 Crs
2880 1930 Crs
3368 1490 Crs
3665 2043 Crs
3218 1958 Crs
3560 1701 Crs
3747 1504 Crs
3809 1807 Crs
3612 1669 Crs
3992 2064 Crs
3932 1688 Crs
3130 1685 Crs
3701 2005 Crs
3497 1794 Crs
3263 1571 Crs
3954 1945 Crs
3912 1788 Crs
3316 1648 Crs
4038 1706 Crs
3857 1806 Crs
3700 1686 Crs
3509 1867 Crs
3782 1673 Crs
3697 1920 Crs
3579 2083 Crs
2898 1700 Crs
3870 2013 Crs
4011 1798 Crs
3006 1889 Crs
3373 1307 Crs
3636 1856 Crs
3521 1963 Crs
3278 1822 Crs
3796 1795 Crs
3246 2063 Crs
2953 1961 Crs
3667 1809 Crs
3959 1821 Crs
3953 1594 Crs
3182 1845 Crs
3895 1916 Crs
3866 1840 Crs
4068 1736 Crs
3951 1732 Crs
3916 1755 Crs
3743 1916 Crs
3047 1922 Crs
4166 1913 Crs
3080 1706 Crs
3646 1932 Crs
4014 1934 Crs
3878 1991 Crs
3010 1728 Crs
3525 1900 Crs
4415 1975 Crs
3833 1427 Crs
3391 1980 Crs
3278 1878 Crs
3028 2048 Crs
3620 1692 Crs
3314 1765 Crs
3687 1771 Crs
3785 1945 Crs
3501 1810 Crs
4221 1858 Crs
3199 1664 Crs
4172 1863 Crs
2955 1972 Crs
3870 1930 Crs
3607 1909 Crs
3780 1726 Crs
3998 1697 Crs
4638 1840 Crs
3200 1673 Crs
3781 1680 Crs
3420 1735 Crs
3480 1737 Crs
3554 1905 Crs
3702 1980 Crs
3524 1988 Crs
3245 1714 Crs
3433 1756 Crs
3686 2149 Crs
3916 1999 Crs
2805 1724 Crs
3972 1737 Crs
4439 1761 Crs
3181 1798 Crs
4127 1713 Crs
4050 1725 Crs
3313 1764 Crs
3783 1711 Crs
4067 1938 Crs
4002 1922 Crs
3887 1905 Crs
3252 1575 Crs
3602 1835 Crs
3824 1867 Crs
3902 1767 Crs
3893 1833 Crs
3887 2172 Crs
3926 1738 Crs
3570 1947 Crs
3998 1952 Crs
3954 1713 Crs
3729 1887 Crs
3300 1758 Crs
3849 1852 Crs
4142 2123 Crs
3375 1807 Crs
3714 1766 Crs
3750 1782 Crs
4285 2099 Crs
3135 1494 Crs
3988 2079 Crs
3967 1971 Crs
3647 1795 Crs
3719 1618 Crs
3601 1821 Crs
4042 1814 Crs
3424 1618 Crs
3562 1846 Crs
3698 1865 Crs
4123 1779 Crs
3710 1794 Crs
3605 1898 Crs
3440 1921 Crs
3458 1723 Crs
3839 1986 Crs
3658 2017 Crs
3787 1767 Crs
3283 1357 Crs
4393 1960 Crs
3104 1697 Crs
2897 1809 Crs
3342 1880 Crs
3956 1732 Crs
2521 1633 Crs
3660 1789 Crs
4048 1709 Crs
3570 1522 Crs
3822 1835 Crs
3579 1624 Crs
4215 1747 Crs
3397 1870 Crs
3810 1688 Crs
4443 1738 Crs
3604 1620 Crs
3894 1851 Crs
4230 1756 Crs
4157 1834 Crs
2783 1931 Crs
4087 1752 Crs
3841 1769 Crs
3822 1830 Crs
3576 1534 Crs
4022 1915 Crs
3782 1682 Crs
3931 1585 Crs
3479 1945 Crs
3409 2041 Crs
3253 1714 Crs
4432 1844 Crs
3830 1722 Crs
2079 1511 Crs
3463 1988 Crs
3248 1893 Crs
3654 1778 Crs
3772 1407 Crs
3677 1914 Crs
3995 2053 Crs
3030 1923 Crs
3826 1794 Crs
4049 1669 Crs
4204 1851 Crs
4317 1830 Crs
3130 1895 Crs
3765 1709 Crs
3651 2031 Crs
3354 1777 Crs
2083 1714 Crs
4275 1827 Crs
3863 1876 Crs
3286 2125 Crs
3831 1771 Crs
3423 1783 Crs
3839 1632 Crs
3930 1697 Crs
3725 1620 Crs
3929 2091 Crs
3918 1913 Crs
3052 1402 Crs
4356 1742 Crs
3565 2024 Crs
3277 2126 Crs
4154 1596 Crs
4265 2140 Crs
4066 1805 Crs
3942 1740 Crs
3713 1897 Crs
3189 1709 Crs
3823 1933 Crs
3856 1913 Crs
3586 1717 Crs
3926 1669 Crs
4309 1705 Crs
4215 1595 Crs
3210 1745 Crs
1802 1720 Crs
3792 1651 Crs
4250 1924 Crs
3741 1975 Crs
3040 1794 Crs
3258 2119 Crs
4096 1682 Crs
3690 1746 Crs
3370 1932 Crs
3494 1851 Crs
4263 1850 Crs
3571 1802 Crs
3711 1777 Crs
3521 1654 Crs
3126 1922 Crs
3548 2014 Crs
3198 1729 Crs
3890 1956 Crs
2735 1935 Crs
3993 1947 Crs
3071 1600 Crs
3478 1752 Crs
3093 1834 Crs
3340 2138 Crs
3518 1944 Crs
3946 1694 Crs
3382 1837 Crs
4106 1766 Crs
4293 1940 Crs
3586 1780 Crs
3396 1635 Crs
3981 1520 Crs
4135 2184 Crs
3276 2139 Crs
4132 1814 Crs
4164 1842 Crs
3346 1891 Crs
3275 1734 Crs
3872 1909 Crs
3895 1886 Crs
3134 1838 Crs
4027 1912 Crs
4011 1982 Crs
3905 1783 Crs
3985 1986 Crs
2557 1727 Crs
4022 1975 Crs
2578 1923 Crs
3646 1894 Crs
4392 1636 Crs
3658 2057 Crs
3845 1828 Crs
3667 1644 Crs
3918 1749 Crs
3527 1895 Crs
4112 1724 Crs
3697 1793 Crs
3813 2015 Crs
3848 1899 Crs
4050 2235 Crs
3499 1730 Crs
4234 2124 Crs
3906 1806 Crs
4263 1831 Crs
2978 1663 Crs
4369 1736 Crs
4079 1646 Crs
3790 1809 Crs
4059 1777 Crs
3486 1787 Crs
3397 1683 Crs
3902 1847 Crs
3460 1841 Crs
3939 1354 Crs
3615 1769 Crs
4412 1876 Crs
4146 1869 Crs
3622 1777 Crs
3922 1767 Crs
3819 1918 Crs
3545 2015 Crs
4140 2033 Crs
3933 1584 Crs
3600 2004 Crs
3939 1898 Crs
4044 1677 Crs
3724 1290 Crs
2870 2192 Crs
3857 1877 Crs
2407 1729 Crs
3590 1776 Crs
3600 1907 Crs
3627 2004 Crs
3873 1610 Crs
3982 1792 Crs
3891 2005 Crs
3711 2094 Crs
4149 2327 Crs
4008 1603 Crs
3895 1970 Crs
2873 1843 Crs
4282 1714 Crs
3856 1853 Crs
3123 1873 Crs
3673 1777 Crs
3837 1949 Crs
3744 1409 Crs
2986 1891 Crs
3972 2008 Crs
3922 1831 Crs
3422 1523 Crs
3994 2079 Crs
3415 1323 Crs
4078 1796 Crs
3710 1767 Crs
3633 1925 Crs
4022 1878 Crs
4197 2088 Crs
3604 1787 Crs
2978 1927 Crs
3831 1688 Crs
3631 1292 Crs
4679 1687 Crs
3416 1882 Crs
3933 1897 Crs
3803 1751 Crs
3381 1826 Crs
3381 1999 Crs
4085 1936 Crs
3233 1808 Crs
4196 2072 Crs
3982 1625 Crs
3867 1901 Crs
3527 1860 Crs
4010 2030 Crs
3792 2102 Crs
3802 1798 Crs
3961 1708 Crs
3910 1733 Crs
4425 1911 Crs
3840 2039 Crs
3294 2012 Crs
3566 2027 Crs
3707 1814 Crs
3537 1842 Crs
3475 1925 Crs
3393 1857 Crs
3150 1723 Crs
2832 1714 Crs
3878 1784 Crs
3916 1853 Crs
4180 1824 Crs
3745 1801 Crs
3284 2023 Crs
3930 1758 Crs
3347 1613 Crs
3682 1863 Crs
3520 1805 Crs
3242 1588 Crs
3828 1456 Crs
2563 1795 Crs
3402 1799 Crs
3951 1989 Crs
4176 1918 Crs
3950 1879 Crs
2772 2090 Crs
3696 1948 Crs
2885 1868 Crs
4011 1542 Crs
3561 1799 Crs
4072 2011 Crs
3623 1802 Crs
3003 1881 Crs
3607 1661 Crs
3904 1698 Crs
3686 1844 Crs
3038 1709 Crs
3329 1704 Crs
3106 2000 Crs
3355 1877 Crs
3507 1769 Crs
4039 1828 Crs
3603 1714 Crs
3280 1654 Crs
2388 1750 Crs
2914 1607 Crs
3834 1878 Crs
3975 1754 Crs
3909 1842 Crs
3736 1856 Crs
3713 1957 Crs
3453 1775 Crs
4074 1961 Crs
4431 1828 Crs
3340 1444 Crs
3118 1752 Crs
3878 1837 Crs
4150 1979 Crs
3771 1810 Crs
3851 1870 Crs
4077 1990 Crs
3529 1883 Crs
3500 1722 Crs
2389 1734 Crs
3694 1815 Crs
3082 2057 Crs
4160 1938 Crs
3978 1765 Crs
3706 1659 Crs
3422 1904 Crs
3253 2114 Crs
3465 1925 Crs
3713 1846 Crs
2816 1773 Crs
3471 1807 Crs
2817 1759 Crs
3808 1396 Crs
3127 1650 Crs
3949 2035 Crs
3776 1773 Crs
3719 1831 Crs
3691 1686 Crs
3814 1666 Crs
4259 1722 Crs
3345 1664 Crs
3791 1731 Crs
3380 1837 Crs
3687 2013 Crs
3514 1614 Crs
3598 1842 Crs
3999 2107 Crs
3874 1647 Crs
3367 1806 Crs
3222 1923 Crs
4057 1707 Crs
3612 1590 Crs
3777 1839 Crs
3335 1875 Crs
3052 1580 Crs
4359 1953 Crs
4072 1671 Crs
3332 1888 Crs
3488 1831 Crs
3158 1728 Crs
3986 2140 Crs
4277 1930 Crs
3914 1694 Crs
3787 1606 Crs
3873 1770 Crs
4050 2003 Crs
3679 1659 Crs
4050 2303 Crs
3845 2076 Crs
3795 1540 Crs
3955 1812 Crs
3924 1776 Crs
4524 1890 Crs
3813 1823 Crs
3704 1775 Crs
3976 1465 Crs
3888 1947 Crs
4129 2009 Crs
3429 1802 Crs
4037 1979 Crs
3863 2072 Crs
3849 1747 Crs
3239 1622 Crs
4128 1823 Crs
3857 1656 Crs
3200 1767 Crs
3557 1763 Crs
3403 1965 Crs
3421 1994 Crs
3502 1782 Crs
2837 1858 Crs
3659 1795 Crs
3769 1874 Crs
3632 1811 Crs
4139 1976 Crs
3933 1442 Crs
3241 1959 Crs
3735 1776 Crs
2304 1737 Crs
3346 1722 Crs
3594 1890 Crs
3491 2035 Crs
3917 1752 Crs
3548 1776 Crs
3569 2290 Crs
3679 1826 Crs
3621 1795 Crs
3441 1740 Crs
3639 1944 Crs
3901 1953 Crs
3749 1747 Crs
3593 1654 Crs
3450 1768 Crs
4042 1880 Crs
3588 1598 Crs
3859 1798 Crs
3077 1892 Crs
3191 2044 Crs
3795 1840 Crs
3693 1908 Crs
3903 1795 Crs
3402 1910 Crs
3753 1896 Crs
4166 1876 Crs
3621 1741 Crs
3772 1715 Crs
3385 2007 Crs
4156 1797 Crs
4004 1855 Crs
2551 1668 Crs
3588 1324 Crs
2554 2054 Crs
3005 1730 Crs
3361 1186 Crs
3344 1642 Crs
3759 1826 Crs
3354 2033 Crs
3328 1798 Crs
3845 1978 Crs
2520 1738 Crs
3600 2004 Crs
3438 1710 Crs
3604 1868 Crs
3288 1843 Crs
3512 1877 Crs
4208 2044 Crs
3813 1981 Crs
3874 1614 Crs
4132 2120 Crs
3831 1891 Crs
3706 2023 Crs
2649 1806 Crs
3889 2053 Crs
3844 1770 Crs
3497 1994 Crs
3744 1686 Crs
3726 1877 Crs
3804 1734 Crs
3201 1786 Crs
4005 1915 Crs
3941 1685 Crs
3532 1661 Crs
3838 1743 Crs
3451 1425 Crs
3769 1899 Crs
3821 1798 Crs
3104 1701 Crs
3845 1807 Crs
2999 1847 Crs
3647 1640 Crs
3451 1769 Crs
3180 1814 Crs
3731 1491 Crs
3416 1806 Crs
3013 1832 Crs
3938 1676 Crs
4145 1960 Crs
3632 1735 Crs
3606 1712 Crs
2807 1705 Crs
3544 1832 Crs
3846 1463 Crs
4057 1864 Crs
3092 1655 Crs
3646 1935 Crs
4385 1847 Crs
3463 1775 Crs
3843 1838 Crs
3730 2065 Crs
3036 1754 Crs
3789 1784 Crs
2828 1906 Crs
3640 1631 Crs
3276 1721 Crs
3517 1690 Crs
3114 1585 Crs
3468 1737 Crs
3964 1862 Crs
3833 1712 Crs
3223 1803 Crs
3831 1827 Crs
3295 1754 Crs
3388 1820 Crs
3417 1696 Crs
3550 1762 Crs
2811 1963 Crs
4128 1889 Crs
3855 1865 Crs
3797 1837 Crs
3278 1820 Crs
4051 1827 Crs
4201 1604 Crs
3730 1830 Crs
3431 1757 Crs
3700 1616 Crs
4055 1411 Crs
3467 1698 Crs
4077 1959 Crs
3572 1836 Crs
3989 1510 Crs
4140 1703 Crs
4049 1655 Crs
3122 1861 Crs
3770 1354 Crs
3182 1798 Crs
3514 1767 Crs
2727 1825 Crs
3351 1879 Crs
3858 1878 Crs
3679 1786 Crs
4002 1952 Crs
3825 1963 Crs
3599 1835 Crs
3691 1490 Crs
3195 1851 Crs
4065 1901 Crs
3736 1718 Crs
4224 2068 Crs
3437 1761 Crs
3815 1688 Crs
4191 1912 Crs
3215 1700 Crs
3270 1656 Crs
4192 1738 Crs
4040 1964 Crs
3783 1516 Crs
3709 1764 Crs
4237 1980 Crs
3792 1870 Crs
3180 1844 Crs
4052 1769 Crs
3542 1727 Crs
4101 1890 Crs
2937 1643 Crs
3833 1890 Crs
3427 1964 Crs
4038 1479 Crs
4228 1960 Crs
3469 1630 Crs
3415 1739 Crs
4196 1844 Crs
3106 1832 Crs
3412 1851 Crs
3704 1880 Crs
3980 2012 Crs
4243 1988 Crs
3676 1774 Crs
3810 1478 Crs
3944 1941 Crs
3841 1916 Crs
3713 1903 Crs
3019 1844 Crs
3809 1599 Crs
3921 1890 Crs
4063 1832 Crs
3155 1758 Crs
3647 1627 Crs
3402 2046 Crs
3525 1837 Crs
4125 1710 Crs
3486 1969 Crs
3947 1981 Crs
3807 2184 Crs
3893 1667 Crs
3983 1709 Crs
3699 1846 Crs
3268 1895 Crs
4178 1831 Crs
3813 1800 Crs
4229 1898 Crs
2973 1935 Crs
3859 1741 Crs
4136 1846 Crs
3832 1881 Crs
3239 1846 Crs
3120 1949 Crs
3704 1764 Crs
4144 1965 Crs
3749 1796 Crs
3339 1837 Crs
3466 1840 Crs
3391 1528 Crs
3980 1923 Crs
2953 1669 Crs
3925 1893 Crs
2896 1845 Crs
3979 1872 Crs
3018 1189 Crs
2844 1066 Crs
3139 1556 Crs
2871 1874 Crs
3058 2073 Crs
3848 1831 Crs
2858 1621 Crs
3546 1783 Crs
3890 1447 Crs
3182 1840 Crs
4031 1883 Crs
3115 1832 Crs
3968 1927 Crs
3106 1410 Crs
3807 1687 Crs
4175 1587 Crs
3789 1847 Crs
3233 1638 Crs
3812 1721 Crs
3685 1521 Crs
3885 1745 Crs
3601 1984 Crs
3561 1878 Crs
3789 2009 Crs
3746 1931 Crs
4431 1812 Crs
3255 1592 Crs
3872 1766 Crs
3837 1777 Crs
3547 1821 Crs
3421 1715 Crs
3792 1930 Crs
3655 1967 Crs
3395 1798 Crs
2966 1696 Crs
3491 1532 Crs
4098 1751 Crs
3780 1888 Crs
3559 1819 Crs
3987 1789 Crs
3740 2022 Crs
3791 1717 Crs
3794 1868 Crs
3587 1871 Crs
3629 1662 Crs
4424 1950 Crs
3342 1715 Crs
3832 1794 Crs
3241 1604 Crs
3847 1760 Crs
3272 2098 Crs
3494 1646 Crs
3425 1895 Crs
3870 1666 Crs
3848 1903 Crs
4420 1370 Crs
3607 1757 Crs
3661 1757 Crs
3409 1725 Crs
4194 1950 Crs
2615 1699 Crs
3252 1892 Crs
3902 1739 Crs
3550 1566 Crs
3442 2006 Crs
3085 1638 Crs
3315 1769 Crs
4014 1825 Crs
4535 1536 Crs
2802 1691 Crs
3961 1709 Crs
3776 1571 Crs
3723 1779 Crs
3527 1785 Crs
3471 1744 Crs
3957 1800 Crs
4289 1601 Crs
4063 1758 Crs
3951 1860 Crs
2978 1802 Crs
4493 1839 Crs
4092 1871 Crs
3714 1866 Crs
3866 2004 Crs
3822 1761 Crs
3589 1740 Crs
4028 2007 Crs
2821 1774 Crs
3603 1789 Crs
3023 1745 Crs
3183 1735 Crs
3960 1734 Crs
3686 1847 Crs
4195 1851 Crs
3640 2012 Crs
3243 1607 Crs
3790 1685 Crs
3775 2072 Crs
3662 1985 Crs
4073 1444 Crs
4010 2009 Crs
3984 1732 Crs
4255 1629 Crs
4278 1793 Crs
3949 1974 Crs
2922 1655 Crs
3266 1794 Crs
3346 1821 Crs
4058 1910 Crs
3681 1612 Crs
3816 1770 Crs
3969 1812 Crs
4557 1959 Crs
2623 1874 Crs
4179 1832 Crs
2943 1501 Crs
4650 1851 Crs
3451 1798 Crs
3976 2047 Crs
3887 1858 Crs
4073 1803 Crs
3777 1859 Crs
4033 1771 Crs
3984 1677 Crs
3439 1896 Crs
3760 1266 Crs
3809 1860 Crs
3193 1486 Crs
2533 1659 Crs
3830 1815 Crs
3633 1701 Crs
4291 1849 Crs
4071 1806 Crs
3389 1914 Crs
3523 1703 Crs
3447 2064 Crs
3250 1982 Crs
4212 2045 Crs
4587 1853 Crs
4098 1811 Crs
4221 1817 Crs
3223 1593 Crs
4055 2262 Crs
3811 2177 Crs
3662 1944 Crs
3941 1724 Crs
3887 1653 Crs
3510 1894 Crs
3994 2000 Crs
3351 1929 Crs
3336 1789 Crs
3649 1653 Crs
3577 1833 Crs
3686 1868 Crs
3673 1719 Crs
3396 1821 Crs
3033 1874 Crs
3896 1545 Crs
3335 1943 Crs
3017 1898 Crs
4021 1925 Crs
3485 1760 Crs
3879 1832 Crs
3948 1828 Crs
2691 1811 Crs
3953 1939 Crs
3568 1863 Crs
2576 1749 Crs
3867 2077 Crs
3185 1749 Crs
3526 1845 Crs
4105 1811 Crs
4017 1758 Crs
4034 1732 Crs
4219 1724 Crs
3737 1659 Crs
2837 1941 Crs
3383 1326 Crs
4116 1949 Crs
3746 1584 Crs
3332 1549 Crs
2706 1696 Crs
3873 1872 Crs
3600 1613 Crs
4309 1972 Crs
3239 1336 Crs
3929 1865 Crs
4020 2048 Crs
3061 2263 Crs
3857 1747 Crs
3461 1701 Crs
2967 1786 Crs
4165 1823 Crs
3677 1979 Crs
3718 1748 Crs
3910 1943 Crs
4386 1885 Crs
3470 1704 Crs
3752 1813 Crs
4032 2093 Crs
3012 1723 Crs
4030 1388 Crs
3923 1880 Crs
3527 1735 Crs
2301 1749 Crs
4071 1757 Crs
4333 1812 Crs
4296 1839 Crs
4052 1857 Crs
3992 1920 Crs
2982 2029 Crs
4042 1730 Crs
3632 1924 Crs
2968 1850 Crs
3800 1782 Crs
3683 2171 Crs
3222 1813 Crs
3930 1776 Crs
4211 1640 Crs
3478 1871 Crs
3656 1822 Crs
3102 1846 Crs
3717 1891 Crs
3719 1736 Crs
4165 1870 Crs
3988 1783 Crs
3558 1451 Crs
3292 1759 Crs
3605 1557 Crs
3877 1759 Crs
2317 1849 Crs
3432 1769 Crs
3223 1845 Crs
3708 1788 Crs
3910 1773 Crs
2394 1824 Crs
3600 1628 Crs
3756 1769 Crs
3162 1759 Crs
4019 2063 Crs
4261 1995 Crs
3892 1743 Crs
3910 1847 Crs
3701 1768 Crs
3925 1732 Crs
3435 1810 Crs
4310 1879 Crs
3679 1449 Crs
4359 1839 Crs
3617 1843 Crs
3408 1752 Crs
3681 2028 Crs
3677 1941 Crs
3817 1918 Crs
3679 1746 Crs
2641 1677 Crs
3611 1794 Crs
3411 1897 Crs
4002 1716 Crs
3885 1769 Crs
4174 1791 Crs
3420 1878 Crs
3561 1899 Crs
3845 1828 Crs
3470 1885 Crs
3506 1701 Crs
3788 1900 Crs
3794 1837 Crs
3377 1835 Crs
3685 1688 Crs
3851 1934 Crs
3621 1752 Crs
3783 1570 Crs
3830 1704 Crs
3492 1747 Crs
4163 1878 Crs
4431 2026 Crs
3963 1722 Crs
3999 1981 Crs
3918 1976 Crs
4191 1922 Crs
3919 1791 Crs
3442 1916 Crs
4409 1774 Crs
3394 1606 Crs
3705 2042 Crs
3265 1829 Crs
3045 1797 Crs
3837 1850 Crs
3744 1753 Crs
4319 1612 Crs
3471 2078 Crs
4043 1866 Crs
4171 1766 Crs
3967 1845 Crs
3745 1832 Crs
3276 1891 Crs
3811 1854 Crs
4344 1934 Crs
3891 1945 Crs
3740 1768 Crs
3878 1843 Crs
3763 1656 Crs
2975 1686 Crs
3923 1914 Crs
3886 1659 Crs
3087 1679 Crs
4247 1838 Crs
4210 1994 Crs
3660 1652 Crs
3875 2006 Crs
3875 1749 Crs
3748 1988 Crs
2754 1894 Crs
4679 1950 Crs
3655 1700 Crs
3666 1950 Crs
3964 1754 Crs
2913 1741 Crs
3292 1881 Crs
3625 1266 Crs
3781 1704 Crs
4142 2005 Crs
3192 2023 Crs
3285 1740 Crs
3788 1880 Crs
3570 1859 Crs
2718 1981 Crs
4069 2169 Crs
3791 1805 Crs
4181 1845 Crs
3291 1943 Crs
3998 1763 Crs
3401 1615 Crs
4169 1657 Crs
3909 1351 Crs
3979 1774 Crs
2449 1726 Crs
4030 2044 Crs
3712 1918 Crs
3636 1588 Crs
3648 1851 Crs
4108 1613 Crs
3460 1972 Crs
3527 1917 Crs
3275 1752 Crs
3658 1624 Crs
3845 1331 Crs
2955 1877 Crs
3608 1786 Crs
3170 1677 Crs
3809 1732 Crs
3768 1576 Crs
2638 1807 Crs
3722 1719 Crs
3808 1665 Crs
2825 1918 Crs
3715 1691 Crs
4051 1620 Crs
3957 1637 Crs
3083 1830 Crs
4253 1821 Crs
3677 1924 Crs
4076 1874 Crs
2538 1656 Crs
4042 1828 Crs
3785 1855 Crs
3851 1586 Crs
3578 1700 Crs
3502 1555 Crs
3729 1770 Crs
3346 1931 Crs
4008 1715 Crs
3770 1823 Crs
4123 2217 Crs
3434 1915 Crs
3986 1870 Crs
3598 1969 Crs
4060 1910 Crs
3598 1752 Crs
3809 1973 Crs
3305 1833 Crs
3577 1742 Crs
4308 1737 Crs
1694 1566 Crs
4071 1896 Crs
3577 1941 Crs
3748 1826 Crs
3745 1790 Crs
4152 1470 Crs
3392 1592 Crs
3962 1904 Crs
2484 1894 Crs
3950 1839 Crs
3307 1708 Crs
3740 1785 Crs
4171 1857 Crs
3872 1837 Crs
2871 1694 Crs
2750 1733 Crs
3945 1762 Crs
3294 1945 Crs
4059 2205 Crs
3422 1925 Crs
4008 1831 Crs
3931 1861 Crs
3951 1955 Crs
4117 1817 Crs
3178 1803 Crs
3429 1942 Crs
3798 1794 Crs
3738 1680 Crs
3407 1837 Crs
4016 1812 Crs
3827 1710 Crs
3709 2069 Crs
3104 1725 Crs
3929 1718 Crs
3652 1751 Crs
4169 1907 Crs
3864 1838 Crs
3169 1612 Crs
3119 1978 Crs
3552 1899 Crs
4101 1729 Crs
3796 1786 Crs
3937 1611 Crs
3872 1670 Crs
3825 1809 Crs
4013 1956 Crs
3124 1781 Crs
3933 1840 Crs
4422 1905 Crs
4121 1828 Crs
3562 1201 Crs
3150 1683 Crs
3553 1813 Crs
2714 2164 Crs
3744 1724 Crs
3814 2012 Crs
3709 1926 Crs
3805 1782 Crs
3104 1936 Crs
3132 1848 Crs
3409 1862 Crs
3714 1847 Crs
4000 1773 Crs
3561 1832 Crs
3864 1996 Crs
3191 1746 Crs
3259 1646 Crs
3616 1384 Crs
3749 1900 Crs
3054 1785 Crs
3568 1926 Crs
3026 1749 Crs
3950 1936 Crs
3319 1793 Crs
3690 1861 Crs
3569 1719 Crs
3782 2018 Crs
3260 1865 Crs
3742 1998 Crs
3515 1704 Crs
3827 1787 Crs
3015 1761 Crs
3961 1866 Crs
1752 1632 Crs
3128 1850 Crs
3913 1663 Crs
3244 1754 Crs
3775 1299 Crs
3655 1771 Crs
2923 1899 Crs
3538 2058 Crs
4120 1687 Crs
4064 1649 Crs
3953 1771 Crs
3508 1636 Crs
3455 1976 Crs
3175 1814 Crs
3183 1743 Crs
3742 1734 Crs
3074 1815 Crs
3855 1821 Crs
2737 1996 Crs
3687 1728 Crs
3088 1648 Crs
3425 1777 Crs
3594 1967 Crs
3702 1861 Crs
3386 1667 Crs
3467 1713 Crs
3043 1902 Crs
4037 1318 Crs
3025 1809 Crs
3656 1650 Crs
2640 1971 Crs
3485 2082 Crs
4256 2047 Crs
4270 1843 Crs
3277 1981 Crs
3799 1827 Crs
3332 2127 Crs
3801 1943 Crs
3084 1839 Crs
3760 1942 Crs
3141 1678 Crs
3446 1626 Crs
3527 1917 Crs
3124 1753 Crs
3979 2065 Crs
2346 2102 Crs
3594 1872 Crs
3922 1753 Crs
3683 1798 Crs
3251 2096 Crs
3035 2163 Crs
2072 1879 Crs
3947 1681 Crs
3505 1919 Crs
3809 2053 Crs
3719 1696 Crs
3799 1761 Crs
3914 1998 Crs
3331 2175 Crs
3439 1649 Crs
3893 1917 Crs
3201 1734 Crs
3945 1589 Crs
3783 1890 Crs
3630 2033 Crs
3432 1837 Crs
4301 1799 Crs
3927 1685 Crs
3532 1813 Crs
4047 1862 Crs
3054 1980 Crs
3152 2053 Crs
1989 1651 Crs
2966 1713 Crs
4308 1890 Crs
2838 1923 Crs
3794 1919 Crs
3596 1915 Crs
4060 1668 Crs
3734 1795 Crs
3481 1903 Crs
4133 1993 Crs
4124 1751 Crs
3814 1593 Crs
4145 1894 Crs
3130 1691 Crs
4153 1785 Crs
3900 1709 Crs
3621 1671 Crs
3352 1873 Crs
3975 2031 Crs
3063 1709 Crs
3163 1881 Crs
4291 2098 Crs
3618 1768 Crs
3542 1735 Crs
3819 1758 Crs
4155 1754 Crs
3710 1643 Crs
3425 1874 Crs
3920 1970 Crs
3686 1811 Crs
3949 1775 Crs
3871 1400 Crs
3877 1995 Crs
3572 1744 Crs
3839 1968 Crs
3541 2052 Crs
2857 1681 Crs
3666 1835 Crs
4074 1793 Crs
3968 1934 Crs
3944 1706 Crs
3866 1966 Crs
3896 1471 Crs
4147 1768 Crs
3669 1811 Crs
2786 1811 Crs
3507 1762 Crs
3872 1932 Crs
4082 1881 Crs
3612 1772 Crs
3409 1858 Crs
3602 1614 Crs
3631 1746 Crs
3808 1665 Crs
3797 1793 Crs
3840 1988 Crs
4119 1751 Crs
3431 1716 Crs
3383 1763 Crs
4012 1811 Crs
2887 1677 Crs
4432 1776 Crs
3851 1738 Crs
3761 2005 Crs
4196 1791 Crs
3837 1893 Crs
2739 1606 Crs
3590 1611 Crs
3369 1770 Crs
2098 1559 Crs
3607 1714 Crs
3343 1838 Crs
3411 1840 Crs
4126 1779 Crs
3542 1815 Crs
4257 1947 Crs
4117 1735 Crs
3108 1581 Crs
3247 1250 Crs
3684 1758 Crs
3794 1757 Crs
4293 1603 Crs
3399 1791 Crs
3617 1731 Crs
4007 1798 Crs
4220 1977 Crs
3700 1769 Crs
3663 1608 Crs
4228 1847 Crs
3609 1597 Crs
3636 1805 Crs
3882 1869 Crs
4141 1719 Crs
3697 1771 Crs
3405 1899 Crs
3502 1692 Crs
3419 1968 Crs
3088 1729 Crs
3928 1764 Crs
3713 1765 Crs
3944 1727 Crs
3313 1855 Crs
4124 1852 Crs
2921 1700 Crs
3092 1846 Crs
3048 1826 Crs
3151 1895 Crs
3565 2092 Crs
3852 1825 Crs
3704 1826 Crs
3593 2069 Crs
3215 1922 Crs
3550 1833 Crs
3313 1857 Crs
3860 1834 Crs
4056 1815 Crs
4001 1829 Crs
3904 1796 Crs
3331 1905 Crs
3457 1951 Crs
3487 1889 Crs
3986 1610 Crs
3257 1538 Crs
3439 1937 Crs
4517 1824 Crs
3807 1380 Crs
4138 1865 Crs
3745 1778 Crs
3716 1896 Crs
3689 1781 Crs
3312 1880 Crs
3168 2218 Crs
4052 1793 Crs
3560 1884 Crs
4189 1768 Crs
2567 1881 Crs
3779 2119 Crs
3667 1626 Crs
3647 1810 Crs
2654 1684 Crs
3692 1926 Crs
2768 1604 Crs
3841 1830 Crs
3210 1799 Crs
3187 1420 Crs
3130 1951 Crs
3169 2106 Crs
3921 1737 Crs
3902 1805 Crs
4017 1690 Crs
4120 1724 Crs
2763 1873 Crs
3472 1957 Crs
3457 1684 Crs
3565 2041 Crs
3163 1748 Crs
4302 1953 Crs
3536 1684 Crs
3384 1710 Crs
3441 1662 Crs
3952 1784 Crs
3278 1814 Crs
4091 1768 Crs
3650 1823 Crs
3895 1791 Crs
3676 1808 Crs
3604 1768 Crs
3105 1768 Crs
3745 1808 Crs
4083 1740 Crs
3565 1952 Crs
3545 1435 Crs
3288 2094 Crs
3771 1784 Crs
3704 1929 Crs
3997 1759 Crs
3910 1937 Crs
3619 1736 Crs
3218 1896 Crs
2877 2009 Crs
3566 2041 Crs
4135 1883 Crs
3818 2188 Crs
3501 1800 Crs
4094 1990 Crs
3640 1818 Crs
3822 1511 Crs
3589 1846 Crs
3401 1911 Crs
3810 1875 Crs
3479 1692 Crs
3107 1913 Crs
3627 1580 Crs
4020 1796 Crs
3582 1736 Crs
3283 1767 Crs
3330 1785 Crs
3298 2062 Crs
4287 1997 Crs
3883 1687 Crs
3695 1886 Crs
4231 1979 Crs
3769 1976 Crs
3768 1784 Crs
3213 1849 Crs
3587 2016 Crs
3894 1717 Crs
4124 1850 Crs
4005 1862 Crs
3186 1867 Crs
4052 1720 Crs
3536 1628 Crs
3706 2010 Crs
3760 1866 Crs
3157 1775 Crs
4113 1896 Crs
3661 1841 Crs
3393 2063 Crs
3483 1585 Crs
2851 1517 Crs
4414 1749 Crs
4007 2014 Crs
3994 1830 Crs
3304 1670 Crs
3615 2209 Crs
3309 1740 Crs
3759 1738 Crs
3317 1653 Crs
3945 1672 Crs
4210 1899 Crs
3196 1636 Crs
3737 1837 Crs
4145 1747 Crs
4280 1922 Crs
3928 2004 Crs
3483 1870 Crs
3945 1743 Crs
3836 1834 Crs
4396 1819 Crs
3699 1759 Crs
4003 1919 Crs
4078 1698 Crs
3770 1728 Crs
4005 1689 Crs
3045 2190 Crs
3144 1967 Crs
3715 1854 Crs
3934 2011 Crs
3206 1813 Crs
4277 1997 Crs
4083 1758 Crs
3626 1889 Crs
4060 1872 Crs
3292 1998 Crs
3949 1748 Crs
3423 2134 Crs
2913 1521 Crs
3835 1840 Crs
3180 1993 Crs
4049 2013 Crs
3501 1801 Crs
3838 1711 Crs
3401 1899 Crs
4223 1771 Crs
3874 1894 Crs
3553 1634 Crs
3819 1950 Crs
3471 1849 Crs
4110 1974 Crs
3648 1756 Crs
3971 1958 Crs
3598 1818 Crs
3648 1832 Crs
3912 1787 Crs
3795 1925 Crs
3182 1991 Crs
2997 1600 Crs
4092 1679 Crs
4200 1495 Crs
3383 1883 Crs
3964 1868 Crs
3797 1553 Crs
3371 1788 Crs
3610 1658 Crs
4291 1737 Crs
2361 1586 Crs
3144 2007 Crs
3430 1703 Crs
3670 1933 Crs
3436 2029 Crs
3807 1946 Crs
4275 1991 Crs
3170 1962 Crs
3706 1943 Crs
3595 1950 Crs
3399 1625 Crs
3474 1852 Crs
3568 1873 Crs
4442 1487 Crs
3745 1921 Crs
3309 1970 Crs
3968 1785 Crs
4177 1910 Crs
3688 1879 Crs
2002 1884 Crs
3296 2115 Crs
3700 2116 Crs
3881 2013 Crs
3799 1865 Crs
3829 1758 Crs
3926 1914 Crs
3849 1837 Crs
4074 1832 Crs
3688 1799 Crs
4053 1767 Crs
3352 1908 Crs
3751 1818 Crs
2957 1822 Crs
3179 1672 Crs
3966 1832 Crs
3873 1894 Crs
4063 1852 Crs
3288 1703 Crs
3770 2027 Crs
3722 1810 Crs
3271 2114 Crs
2995 1713 Crs
3409 2191 Crs
4204 1497 Crs
3429 1868 Crs
3645 1970 Crs
3513 1694 Crs
3228 1744 Crs
3289 1737 Crs
3838 1932 Crs
3484 1869 Crs
3707 1424 Crs
3836 1814 Crs
2929 1785 Crs
3614 1881 Crs
3994 1777 Crs
3276 1755 Crs
4132 1698 Crs
3969 2106 Crs
3289 1984 Crs
3523 1910 Crs
4101 1951 Crs
3980 1749 Crs
4362 1631 Crs
3810 1921 Crs
3821 1779 Crs
3930 1888 Crs
4185 1784 Crs
3548 1761 Crs
3821 1802 Crs
3835 1619 Crs
2762 1727 Crs
4219 1934 Crs
3580 1750 Crs
3505 1772 Crs
4438 1726 Crs
3814 1798 Crs
3776 1832 Crs
3885 1925 Crs
3823 1728 Crs
3260 1661 Crs
3872 1614 Crs
3830 2054 Crs
4146 1792 Crs
2995 1713 Crs
3357 1848 Crs
4128 1911 Crs
3462 1894 Crs
4063 1396 Crs
3327 1951 Crs
3860 1778 Crs
4266 1928 Crs
3364 1846 Crs
3115 1894 Crs
2721 1930 Crs
3641 1554 Crs
3704 1809 Crs
3864 2065 Crs
3874 1866 Crs
3332 1922 Crs
3292 1674 Crs
3622 1969 Crs
3621 1630 Crs
3514 1722 Crs
3919 1841 Crs
3846 1547 Crs
3515 1696 Crs
4020 1951 Crs
3863 1869 Crs
4151 1838 Crs
3723 1833 Crs
4071 1816 Crs
3793 2008 Crs
4083 1531 Crs
2978 1709 Crs
3085 1901 Crs
4313 1773 Crs
3704 1647 Crs
4679 1861 Crs
3948 1916 Crs
4091 2073 Crs
3819 1801 Crs
3883 1845 Crs
3783 1867 Crs
3361 1803 Crs
3611 1598 Crs
3876 1860 Crs
4016 1883 Crs
3688 1945 Crs
3718 1944 Crs
4098 1956 Crs
2066 1559 Crs
2690 1754 Crs
3842 1965 Crs
3922 1808 Crs
3743 1636 Crs
4100 1679 Crs
3916 1840 Crs
2794 1470 Crs
4167 1774 Crs
4146 1703 Crs
3664 2226 Crs
3946 1528 Crs
3635 1676 Crs
3576 1638 Crs
3729 2061 Crs
3122 1931 Crs
3425 1437 Crs
4562 1861 Crs
3908 1591 Crs
4170 1594 Crs
3629 1813 Crs
3995 1770 Crs
3966 1780 Crs
3426 1856 Crs
3210 1708 Crs
3230 2049 Crs
3882 1852 Crs
3086 1704 Crs
4108 1782 Crs
4031 1833 Crs
3309 1640 Crs
3920 1721 Crs
4109 1734 Crs
3405 1852 Crs
3924 1872 Crs
3812 1971 Crs
3189 1881 Crs
4020 1920 Crs
3767 1663 Crs
4047 1343 Crs
3963 1651 Crs
3793 1943 Crs
3621 1632 Crs
3145 1819 Crs
3409 1796 Crs
3536 1752 Crs
2813 1990 Crs
3937 1452 Crs
4334 1820 Crs
3053 1628 Crs
3845 1856 Crs
3951 1705 Crs
3684 1843 Crs
3854 1916 Crs
3666 2100 Crs
3833 1637 Crs
3446 1767 Crs
3526 1760 Crs
3768 1640 Crs
3627 1903 Crs
3641 1847 Crs
2542 1672 Crs
3920 1841 Crs
3551 1983 Crs
4491 1915 Crs
3780 1882 Crs
3906 1434 Crs
3201 1646 Crs
3617 1705 Crs
3937 1534 Crs
2985 1968 Crs
2516 1685 Crs
3543 1803 Crs
3661 1278 Crs
3666 1740 Crs
3744 1657 Crs
3602 1748 Crs
3469 2019 Crs
3321 2022 Crs
4254 1751 Crs
4029 2005 Crs
4670 1888 Crs
3712 1706 Crs
4187 1732 Crs
3309 1736 Crs
3501 1797 Crs
3492 1956 Crs
4125 1859 Crs
3363 1873 Crs
3575 1899 Crs
3766 1772 Crs
3070 1888 Crs
3276 1980 Crs
3250 1634 Crs
3337 1731 Crs
3812 1858 Crs
3814 1797 Crs
3731 1993 Crs
3854 1745 Crs
3975 1512 Crs
2869 1827 Crs
2756 1747 Crs
4295 2007 Crs
3783 1879 Crs
3231 1733 Crs
3973 1939 Crs
3462 1221 Crs
4010 1531 Crs
3638 1773 Crs
3871 1765 Crs
3723 1816 Crs
3185 1780 Crs
3939 1626 Crs
3674 1712 Crs
3710 1739 Crs
2850 1860 Crs
3993 2089 Crs
3863 1783 Crs
2746 1962 Crs
3653 1302 Crs
3725 1785 Crs
2848 1234 Crs
4225 1685 Crs
3573 1883 Crs
3470 1977 Crs
3893 1626 Crs
3547 1745 Crs
3181 1696 Crs
3813 1726 Crs
4164 1715 Crs
3674 2074 Crs
3479 1804 Crs
3964 2049 Crs
4298 1800 Crs
2822 1743 Crs
3085 1346 Crs
3831 1946 Crs
2596 1844 Crs
3261 1895 Crs
2706 1703 Crs
3172 2188 Crs
3840 1666 Crs
4330 1824 Crs
3879 1794 Crs
3924 1859 Crs
3657 1670 Crs
3837 1826 Crs
3717 1741 Crs
3538 1663 Crs
3685 1720 Crs
3832 1631 Crs
3846 1769 Crs
3845 1645 Crs
3408 1980 Crs
4580 1841 Crs
4083 1860 Crs
3981 1715 Crs
3664 2032 Crs
4041 1658 Crs
3868 1812 Crs
4138 1932 Crs
3432 1841 Crs
2813 1956 Crs
3988 1814 Crs
2686 2153 Crs
3729 1725 Crs
3579 1710 Crs
4012 1974 Crs
3254 1854 Crs
4223 1745 Crs
3525 1389 Crs
3374 1774 Crs
2911 1572 Crs
4326 1913 Crs
4014 1709 Crs
2898 2055 Crs
4385 1774 Crs
3828 2026 Crs
3416 1892 Crs
3249 1803 Crs
4215 1673 Crs
3456 1832 Crs
2865 1771 Crs
4000 1779 Crs
3223 1807 Crs
2829 1755 Crs
3926 1889 Crs
2644 1727 Crs
4070 1709 Crs
3681 1786 Crs
2779 1628 Crs
3971 1995 Crs
2899 1825 Crs
3679 1809 Crs
4112 2087 Crs
3355 1984 Crs
3123 1841 Crs
3892 1712 Crs
4110 2244 Crs
3982 1885 Crs
2224 1720 Crs
3501 1836 Crs
3176 1973 Crs
3664 1737 Crs
3745 1841 Crs
3577 1813 Crs
3675 1915 Crs
3573 1772 Crs
3664 1443 Crs
3348 1659 Crs
3533 1722 Crs
3698 1585 Crs
3417 2153 Crs
4189 1803 Crs
2996 1843 Crs
3172 1740 Crs
3545 1937 Crs
3391 2114 Crs
4123 1601 Crs
3820 2066 Crs
4161 1711 Crs
4024 1699 Crs
4285 1815 Crs
3944 1826 Crs
3544 1731 Crs
3741 2041 Crs
3385 1611 Crs
3674 2053 Crs
3238 1345 Crs
3883 1744 Crs
3632 1663 Crs
3490 1741 Crs
3821 2056 Crs
3018 1791 Crs
3984 1713 Crs
3534 1910 Crs
3830 1662 Crs
3842 1774 Crs
2746 1750 Crs
4091 1327 Crs
3437 2092 Crs
3565 2007 Crs
3741 1978 Crs
3565 1686 Crs
3872 1938 Crs
3856 1850 Crs
3158 1875 Crs
3461 1900 Crs
3824 1924 Crs
2279 1751 Crs
3995 1700 Crs
3989 1746 Crs
3251 2029 Crs
2333 1728 Crs
3656 1561 Crs
3955 1878 Crs
3810 1917 Crs
3812 1608 Crs
2530 1794 Crs
3674 1784 Crs
4030 1828 Crs
3817 1923 Crs
3616 1666 Crs
4199 1863 Crs
3108 1861 Crs
3554 1865 Crs
4079 2115 Crs
3231 1733 Crs
4406 1749 Crs
3667 1866 Crs
4097 1903 Crs
3748 1813 Crs
3801 2042 Crs
3354 1850 Crs
4121 2055 Crs
4165 1900 Crs
3693 1633 Crs
4090 1762 Crs
3628 1810 Crs
4108 2047 Crs
3767 1864 Crs
3864 1880 Crs
4059 1902 Crs
3706 1770 Crs
3890 1748 Crs
3861 1298 Crs
2862 1758 Crs
4467 1909 Crs
3996 1811 Crs
4136 1994 Crs
2821 1903 Crs
3714 1948 Crs
4070 2035 Crs
3935 1815 Crs
4017 2099 Crs
4386 1836 Crs
3131 1779 Crs
3267 1720 Crs
3788 1985 Crs
3976 1787 Crs
3718 1660 Crs
3792 1751 Crs
3157 1940 Crs
3251 1949 Crs
3376 1770 Crs
4008 2011 Crs
2877 1648 Crs
3894 1713 Crs
2830 1731 Crs
1820 1670 Crs
3324 2152 Crs
3726 2074 Crs
3297 1712 Crs
3982 1920 Crs
3012 1962 Crs
3631 1775 Crs
3783 1883 Crs
3790 1675 Crs
3277 1817 Crs
2560 1608 Crs
3295 1483 Crs
3144 1853 Crs
3905 1951 Crs
3797 1841 Crs
3629 1711 Crs
3740 1732 Crs
3216 1872 Crs
3262 1780 Crs
3787 1707 Crs
3979 1832 Crs
3102 1870 Crs
3564 1893 Crs
4018 1655 Crs
3762 1901 Crs
3785 1959 Crs
4035 1671 Crs
4217 1817 Crs
3926 1745 Crs
3522 1772 Crs
3883 1714 Crs
4172 1539 Crs
3836 1746 Crs
3020 1896 Crs
2885 2153 Crs
3853 2095 Crs
3625 1997 Crs
3906 1834 Crs
3723 1744 Crs
3344 1742 Crs
3708 1950 Crs
3292 2003 Crs
3208 1993 Crs
3338 1670 Crs
4091 1942 Crs
3470 1943 Crs
3358 1907 Crs
3666 1916 Crs
3475 1800 Crs
3830 1963 Crs
3328 1955 Crs
3800 1955 Crs
3872 1813 Crs
4024 1867 Crs
3947 1895 Crs
4001 1770 Crs
4097 1959 Crs
2906 1857 Crs
3687 1970 Crs
3793 1823 Crs
3260 1576 Crs
4460 1836 Crs
3759 1768 Crs
4102 1871 Crs
3877 1691 Crs
3494 1762 Crs
3663 1745 Crs
3596 1789 Crs
3876 2051 Crs
3971 2020 Crs
2795 1549 Crs
3920 1940 Crs
3933 1926 Crs
3769 1623 Crs
3383 1442 Crs
3176 1930 Crs
3625 1761 Crs
3838 1626 Crs
4055 1708 Crs
3894 1882 Crs
2962 1872 Crs
3901 1761 Crs
3739 1686 Crs
4034 1794 Crs
3871 1833 Crs
3700 1307 Crs
3745 1606 Crs
4253 1860 Crs
3715 1963 Crs
3949 2028 Crs
3856 1760 Crs
3878 1923 Crs
4377 1866 Crs
3437 1902 Crs
3960 1743 Crs
3311 1778 Crs
4140 1732 Crs
3315 1989 Crs
3090 1783 Crs
4154 1725 Crs
3473 1899 Crs
2814 1984 Crs
3118 1895 Crs
3846 1837 Crs
3951 1856 Crs
4426 1801 Crs
3841 1793 Crs
3154 1996 Crs
4080 2107 Crs
3936 1713 Crs
4055 1724 Crs
3660 1983 Crs
3464 1552 Crs
3406 1349 Crs
3170 1905 Crs
3870 1813 Crs
3603 2061 Crs
3263 1852 Crs
3748 1943 Crs
3515 1861 Crs
4447 1944 Crs
3567 2002 Crs
2311 1643 Crs
3743 1818 Crs
3622 1683 Crs
3165 1873 Crs
4030 1685 Crs
4057 2021 Crs
3858 1786 Crs
3423 1818 Crs
3618 2104 Crs
3482 1802 Crs
4401 1834 Crs
2885 1840 Crs
3136 1747 Crs
3630 1832 Crs
3949 1725 Crs
3881 1692 Crs
3668 1786 Crs
3809 1994 Crs
4468 1684 Crs
3963 1955 Crs
3072 1792 Crs
3808 1640 Crs
3519 1815 Crs
3325 1577 Crs
3664 1672 Crs
2703 1605 Crs
3904 1750 Crs
4229 1653 Crs
3710 1746 Crs
3479 1408 Crs
4397 1884 Crs
4043 1873 Crs
3679 1683 Crs
3319 1877 Crs
3550 1831 Crs
2804 2063 Crs
3101 1801 Crs
3414 1799 Crs
3054 1802 Crs
4103 1770 Crs
3576 2019 Crs
3320 1747 Crs
3424 2073 Crs
3127 1675 Crs
4070 1968 Crs
3892 1584 Crs
3188 1913 Crs
3795 1972 Crs
3727 1954 Crs
4151 1433 Crs
3188 1872 Crs
3560 1848 Crs
3621 1732 Crs
3624 1776 Crs
3732 1874 Crs
3429 1813 Crs
3422 2001 Crs
3903 1656 Crs
4124 1784 Crs
3620 1750 Crs
2758 1746 Crs
3277 1612 Crs
3812 1908 Crs
3756 1998 Crs
3883 1870 Crs
3880 2032 Crs
3869 1736 Crs
3725 1918 Crs
2841 1749 Crs
2930 1763 Crs
3359 1775 Crs
3751 1776 Crs
2877 1816 Crs
3248 1669 Crs
3981 1942 Crs
3658 1406 Crs
3611 1632 Crs
4286 2014 Crs
2306 1784 Crs
3551 1766 Crs
3858 1990 Crs
3197 1690 Crs
3791 1976 Crs
3102 2058 Crs
2989 1789 Crs
3880 1858 Crs
4059 1671 Crs
3783 1960 Crs
4046 1802 Crs
3066 1772 Crs
4251 1928 Crs
4145 1909 Crs
2875 1637 Crs
3913 1673 Crs
3482 2104 Crs
4115 1836 Crs
3411 1743 Crs
4216 1806 Crs
3146 1881 Crs
3431 1840 Crs
3261 1893 Crs
3558 1842 Crs
3714 1954 Crs
3774 1737 Crs
4060 2075 Crs
3386 1707 Crs
3957 1811 Crs
3888 1889 Crs
4051 1735 Crs
3320 1708 Crs
3878 1845 Crs
3224 1866 Crs
3832 1744 Crs
3255 1870 Crs
2910 1768 Crs
3750 1882 Crs
3048 1739 Crs
3276 1556 Crs
3938 1739 Crs
3933 1820 Crs
3605 1975 Crs
3911 2058 Crs
3377 1887 Crs
3369 2003 Crs
3925 1983 Crs
3157 1752 Crs
3706 1809 Crs
4299 1440 Crs
3652 1749 Crs
4052 1774 Crs
3678 1699 Crs
3738 1980 Crs
3916 1689 Crs
3498 2010 Crs
4014 1814 Crs
3920 2044 Crs
3896 1762 Crs
4112 1692 Crs
2499 2093 Crs
2981 1662 Crs
3832 1649 Crs
3858 1885 Crs
2820 1835 Crs
3074 1896 Crs
3730 1836 Crs
3205 1968 Crs
% End plot #2
% Begin plot #3
1.000 UL
LTb
LT1
0.75 0.75 0.75 C 943 1269 M
38 23 V
38 22 V
38 23 V
37 23 V
38 23 V
38 23 V
38 23 V
37 23 V
38 22 V
38 23 V
38 23 V
37 23 V
38 23 V
38 23 V
37 23 V
38 22 V
38 23 V
38 23 V
37 23 V
38 23 V
38 23 V
38 22 V
37 23 V
38 23 V
38 23 V
38 23 V
37 23 V
38 23 V
38 22 V
37 23 V
38 23 V
38 23 V
38 23 V
37 23 V
38 23 V
38 22 V
38 23 V
37 23 V
38 23 V
38 23 V
38 23 V
37 23 V
38 22 V
38 23 V
37 23 V
38 23 V
38 23 V
38 23 V
37 22 V
38 23 V
38 23 V
38 23 V
37 23 V
38 23 V
38 23 V
38 22 V
37 23 V
38 23 V
38 23 V
37 23 V
38 23 V
38 23 V
38 22 V
37 23 V
38 23 V
38 23 V
38 23 V
37 23 V
38 22 V
38 23 V
37 23 V
38 23 V
38 23 V
38 23 V
37 23 V
38 22 V
38 23 V
38 23 V
37 23 V
38 23 V
38 23 V
38 23 V
37 22 V
38 23 V
38 23 V
37 23 V
38 23 V
38 23 V
38 22 V
37 23 V
38 23 V
38 23 V
38 23 V
37 23 V
38 23 V
38 22 V
38 23 V
37 23 V
38 23 V
% End plot #3
stroke
2.000 UL
LTb
LCb setrgbcolor
1.000 UL
LTb
LCb setrgbcolor
860 3531 N
860 640 L
3819 0 V
0 2891 V
-3819 0 V
Z stroke
0.500 UP
1.000 UL
LTb
LCb setrgbcolor
stroke
grestore
end
showpage
%%Trailer
%%DocumentFonts: Helvetica
