\contentsline {chapter}{The Design of Tufte's Books}{17}{chapter*.5}
\contentsline {section}{Typefaces}{21}{section*.6}
\contentsline {section}{Headings}{21}{section*.7}
\contentsline {paragraph}{Paragraph}{21}{paragraph*.8}
\contentsline {section}{Environments}{21}{section*.9}
\contentsline {chapter}{On the Use of the tufte-book Document Class}{23}{chapter*.10}
\contentsline {section}{Page Layout}{23}{section*.11}
\contentsline {subsection}{Headings}{23}{subsection*.12}
\contentsline {section}{Sidenotes}{23}{section*.13}
\contentsline {section}{References}{24}{section*.14}
\contentsline {section}{Figures and Tables}{25}{section*.15}
\contentsline {section}{Captions}{27}{section*.16}
\contentsline {paragraph}{Vertical alignment}{27}{paragraph*.17}
\contentsline {paragraph}{Horizontal alignment}{27}{paragraph*.18}
\contentsline {section}{Full-width text blocks}{27}{section*.19}
\contentsline {section}{Typography}{28}{section*.20}
\contentsline {subsection}{Typefaces}{28}{subsection*.21}
\contentsline {subsection}{Letterspacing}{28}{subsection*.22}
\contentsline {section}{Document Class Options}{28}{section*.23}
\contentsline {chapter}{Customizing Tufte-LaTeX}{33}{chapter*.24}
\contentsline {section}{File Hooks}{33}{section*.25}
\contentsline {section}{Numbered Section Headings}{33}{section*.26}
\contentsline {section}{Changing the Paper Size}{34}{section*.27}
\contentsline {section}{Customizing Marginal Material}{34}{section*.28}
\contentsline {chapter}{Compatibility Issues}{37}{chapter*.29}
\contentsline {section}{Converting from \texttt {article} to \texttt {tufte-handout}}{37}{section*.30}
\contentsline {section}{Converting from \texttt {book} to \texttt {tufte-book}}{37}{section*.31}
\contentsline {chapter}{Troubleshooting and Support}{39}{chapter*.32}
\contentsline {section}{Tufte-\LaTeX \xspace Website}{39}{section*.33}
\contentsline {section}{Tufte-\LaTeX \xspace Mailing Lists}{39}{section*.34}
\contentsline {paragraph}{Discussion list}{39}{paragraph*.35}
\contentsline {paragraph}{Commits list}{39}{paragraph*.36}
\contentsline {section}{Getting Help}{39}{section*.37}
\contentsline {section}{Errors, Warnings, and Informational Messages}{40}{section*.38}
\contentsline {section}{Package Dependencies}{40}{section*.39}
\contentsfinish 
