\relax 
\providecommand\hyper@newdestlabel[2]{}
\providecommand\HyperFirstAtBeginDocument{\AtBeginDocument}
\HyperFirstAtBeginDocument{\ifx\hyper@anchor\@undefined
\global\let\oldcontentsline\contentsline
\gdef\contentsline#1#2#3#4{\oldcontentsline{#1}{#2}{#3}}
\global\let\oldnewlabel\newlabel
\gdef\newlabel#1#2{\newlabelxx{#1}#2}
\gdef\newlabelxx#1#2#3#4#5#6{\oldnewlabel{#1}{{#2}{#3}}}
\AtEndDocument{\ifx\hyper@anchor\@undefined
\let\contentsline\oldcontentsline
\let\newlabel\oldnewlabel
\fi}
\fi}
\global\let\hyper@last\relax 
\gdef\HyperFirstAtBeginDocument#1{#1}
\providecommand\HyField@AuxAddToFields[1]{}
\providecommand\HyField@AuxAddToCoFields[2]{}
\@writefile{@@@}{\chapterbegin }
\@input{Chapters/chapter1.aux}
\@input{Chapters/ls-basics.aux}
\@input{Chapters/ls-density-based.aux}
\@input{Chapters/ls-path-based.aux}
\@input{Chapters/delta-analysis.aux}
\@input{Chapters/chapter3.aux}
\@input{Chapters/chapter4.aux}
\@input{Chapters/chapter5.aux}
\@writefile{toc}{\contentsline {chapter}{Appendices}{153}{section*.2}}
\@input{Chapters/appendixA.aux}
\@input{Chapters/appendixB.aux}
\bibdata{thesis}
\bibcite{wide}{wid, 1984}
\bibcite{kddcup}{kdd, 1999}
\bibcite{CAIDA}{CAI, 2001}
\bibcite{ANTLab}{ANT, 2002}
\bibcite{sociopatterns2008}{soc, 2008}
\bibcite{abry2002multiscale}{Abry et\nobreakspace  {}al., 2002a}
\bibcite{multiscale_ip_traffic}{Abry et\nobreakspace  {}al., 2002b}
\bibcite{abry1998wavelet}{Abry and Veitch, 1998}
\bibcite{abry1998long}{Abry et\nobreakspace  {}al., 1998}
\bibcite{ankerst1999optics}{Ankerst et\nobreakspace  {}al., 1999}
\@writefile{@@@}{\chapterbegin }
\bibcite{thomas_LIP64707}{Aynaud and Guillaume, 2011}
\bibcite{bakar2006comparative}{Bakar et\nobreakspace  {}al., 2006}
\bibcite{bamnett1994outliers}{Bamnett and Lewis, 1994}
\bibcite{barford2002signal}{Barford et\nobreakspace  {}al., 2002}
\bibcite{modeling_analysis_graphs}{Basu et\nobreakspace  {}al., 2010}
\bibcite{batagelj2016algebraic}{Batagelj and Praprotnik, 2016}
\bibcite{benamara2010estimating}{Benamara and Magnien, 2010a}
\bibcite{lamia_infocom}{Benamara and Magnien, 2010b}
\bibcite{berman1996vulnerability}{Berman, 1996}
\bibcite{bhuyan2014towards}{Bhuyan et\nobreakspace  {}al., 2014}
\bibcite{brauckhoff2012anomaly}{Brauckhoff et\nobreakspace  {}al., 2012}
\bibcite{braud2016next}{Braud-Santoni et\nobreakspace  {}al., 2016}
\bibcite{Broido01internettopology}{Broido and Claffy, 2001}
\bibcite{Bron1973}{Bron and Kerbosch, 1973}
\bibcite{xuan2003computing}{Bui-Xuan et\nobreakspace  {}al., 2003}
\bibcite{temp_scale_dynnet}{Caceres and Berger-Wolf, 2013}
\bibcite{casteigts2015expressivity}{Casteigts et\nobreakspace  {}al., 2015}
\bibcite{casteigts2012time}{Casteigts et\nobreakspace  {}al., 2012}
\bibcite{Cazals2008}{Cazals and Karande, 2008}
\bibcite{graph_wavelets}{Crovella and Kolaczyk, 2003}
\bibcite{dainotti2011traffic}{Dainotti et\nobreakspace  {}al., 2011}
\bibcite{dewaele2007extracting}{Dewaele et\nobreakspace  {}al., 2007}
\bibcite{dorat2007}{Dorat et\nobreakspace  {}al., 2007}
\bibcite{Eberle:2007:ADD:1368018.1368024}{Eberle and Holder, 2007}
\bibcite{Eppstein2013}{Eppstein et\nobreakspace  {}al., 2013}
\bibcite{erdos1961evolution}{Erdos and R{\'e}nyi, 1961}
\bibcite{fernandes2009automated}{Fernandes and Owezarski, 2009}
\bibcite{mawilab}{Fontugne et\nobreakspace  {}al., 2010a}
\bibcite{fontugne2010uncovering}{Fontugne et\nobreakspace  {}al., 2010b}
\bibcite{borgnat_signal}{Fontugne et\nobreakspace  {}al., 2010c}
\bibcite{fontugne2011hough}{Fontugne and Fukuda, 2011}
\bibcite{Fournet2014}{Fournet and Barrat, 2014}
\bibcite{ip_measurement}{Fraleigh et\nobreakspace  {}al., 2003}
\bibcite{gama2014survey}{Gama et\nobreakspace  {}al., 2014}
\bibcite{gaumont2015analysis}{Gaumont et\nobreakspace  {}al., 2015}
\bibcite{gauvin2014detecting}{Gauvin et\nobreakspace  {}al., 2014}
\bibcite{guralnik1999event}{Guralnik and Srivastava, 1999a}
\bibcite{Guralnik:1999:EDT:312129.312190}{Guralnik and Srivastava, 1999b}
\bibcite{heymann2012outskewer}{Heymann et\nobreakspace  {}al., 2012}
\bibcite{himmel2016enumerating}{Himmel et\nobreakspace  {}al., 2016}
\bibcite{holme2015modern}{Holme, 2015}
\bibcite{holme2016temporal}{Holme, 2016}
\bibcite{holme2012temporal}{Holme and Saram{\"a}ki, 2012}
\bibcite{hulten2001mining}{Hulten et\nobreakspace  {}al., 2001a}
\bibcite{Hulten:2001:MTD:502512.502529}{Hulten et\nobreakspace  {}al., 2001b}
\bibcite{iliofotou2009exploiting}{Iliofotou et\nobreakspace  {}al., 2009a}
\bibcite{Iliofotou:2009:EDG:1658939.1658967}{Iliofotou et\nobreakspace  {}al., 2009b}
\bibcite{iliofotou2007network}{Iliofotou et\nobreakspace  {}al., 2007}
\bibcite{Johnson1988}{Johnson et\nobreakspace  {}al., 1988}
\bibcite{kanda2010evaluation}{Kanda et\nobreakspace  {}al., 2010}
\bibcite{keim2002information}{Keim, 2002}
\bibcite{kempe2000connectivity}{Kempe et\nobreakspace  {}al., 2000}
\bibcite{kim2008statistical}{Kim and Reddy, 2008}
\bibcite{ip_modeling}{Klemm et\nobreakspace  {}al., 2003}
\bibcite{Koch2001}{Koch, 2001}
\bibcite{kostakos2009temporal}{Kostakos, 2009}
\bibcite{lakhina2004diagnosing}{Lakhina et\nobreakspace  {}al., 2004}
\bibcite{lakhina2005mining}{Lakhina et\nobreakspace  {}al., 2005}
\bibcite{lamarche2014building}{Lamarche-Perrin et\nobreakspace  {}al., 2014}
\bibcite{lambiotte2013burstiness}{Lambiotte et\nobreakspace  {}al., 2013}
\bibcite{latapy2013detecting}{Latapy et\nobreakspace  {}al., 2013}
\bibcite{latapy2008basic}{Latapy et\nobreakspace  {}al., 2008a}
\bibcite{Latapy200831}{Latapy et\nobreakspace  {}al., 2008b}
\bibcite{latapy2014complex}{Latapy and Viard, 2014}
\bibcite{graph_snapshots}{Lee and Maggioni, }
\bibcite{lee2011multiscale}{Lee and Maggioni, 2011}
\bibcite{leo2015non}{L{\'e}o et\nobreakspace  {}al., 2015}
\bibcite{leroy1987robust}{Leroy and Rousseeuw, 1987}
\bibcite{leskovec2005graphs}{Leskovec et\nobreakspace  {}al., 2005}
\bibcite{li2006detection}{Li et\nobreakspace  {}al., 2006}
\bibcite{marnerides2014traffic}{Marnerides et\nobreakspace  {}al., 2014}
\bibcite{masuda2013temporal}{Masuda et\nobreakspace  {}al., 2013}
\bibcite{mazel2015hunting}{Mazel et\nobreakspace  {}al., 2015}
\bibcite{mazel2014taxonomy}{Mazel et\nobreakspace  {}al., 2014}
\bibcite{newman2004}{Newman, 2004}
\bibcite{nguyen2012timely}{Nguyen et\nobreakspace  {}al., 2012}
\bibcite{nicosia2013graph}{Nicosia et\nobreakspace  {}al., 2013}
\bibcite{nychis2008empirical}{Nychis et\nobreakspace  {}al., 2008}
\bibcite{pan2011path}{Pan and Saram{\"a}ki, 2011}
\bibcite{papadopoulos2005drawing}{Papadopoulos and Voglis, 2005}
\bibcite{ip_analysis}{Qadeer et\nobreakspace  {}al., 2010}
\bibcite{queyroi2014delta}{Queyroi, 2014}
\bibcite{redmond2016subgraph}{Redmond and Cunningham, 2016}
\bibcite{Rowe2007}{Rowe et\nobreakspace  {}al., 2007}
\bibcite{rubinstein2009antidote}{Rubinstein et\nobreakspace  {}al., 2009}
\bibcite{Samudrala1998}{Samudrala and Moult, 1998}
\bibcite{santoro2011time}{Santoro et\nobreakspace  {}al., 2011}
\bibcite{saramaki2015exploring}{Saram{\"a}ki and Holme, 2015}
\bibcite{silveira2010astute}{Silveira et\nobreakspace  {}al., 2010}
\bibcite{sowe2006}{Sowe et\nobreakspace  {}al., 2006}
\bibcite{debianml}{SPI, 2015}
\bibcite{starnini2012random}{Starnini et\nobreakspace  {}al., 2012}
\bibcite{stolfo2000cost}{Stolfo et\nobreakspace  {}al., 2000}
\bibcite{strogatz2001exploring}{Strogatz, 2001}
\bibcite{sueur2011can}{Sueur et\nobreakspace  {}al., 2011}
\bibcite{sulo2010meaningful}{Sulo et\nobreakspace  {}al., 2010}
\bibcite{sun2007}{Sun et\nobreakspace  {}al., 2007}
\bibcite{takaguchi2012importance}{Takaguchi et\nobreakspace  {}al., 2012}
\bibcite{tang2010small}{Tang et\nobreakspace  {}al., 2010}
\bibcite{tedder2008simpler}{Tedder et\nobreakspace  {}al., 2008}
\bibcite{Tomita2006}{Tomita et\nobreakspace  {}al., 2006}
\bibcite{valdano2015analytical}{Valdano et\nobreakspace  {}al., 2015}
\bibcite{vestergaard2014memory}{Vestergaard et\nobreakspace  {}al., 2014}
\bibcite{vestergaard2016impact}{Vestergaard et\nobreakspace  {}al., 2016}
\bibcite{viard2014identifying}{Viard and Latapy, 2014a}
\bibcite{viard2014}{Viard and Latapy, 2014b}
\bibcite{dcliquescode2014}{Viard and Latapy, 2014c}
\bibcite{viard2015calcul}{Viard et\nobreakspace  {}al., 2015a}
\bibcite{viard2015revealing}{Viard et\nobreakspace  {}al., 2015b}
\bibcite{viard2016computing}{Viard et\nobreakspace  {}al., 2016}
\bibcite{viger2005efficient}{Viger and Latapy, 2005}
\bibcite{wang2014}{Wang, 2014}
\bibcite{Watts-Colective-1998}{Watts and Strogatz, 1998}
\bibcite{wehmuth2015multiaspect}{Wehmuth et\nobreakspace  {}al., 2015a}
\bibcite{wehmuth2015unifying}{Wehmuth et\nobreakspace  {}al., 2015b}
\bibcite{xu2014behavior}{Xu et\nobreakspace  {}al., 2014}
\bibcite{xu2005profiling}{Xu et\nobreakspace  {}al., 2005}
\bibcite{zander2005self}{Zander et\nobreakspace  {}al., 2005}
\bibcite{attack_behaviour}{Zhou et\nobreakspace  {}al., 2009}
\bibstyle{apalike}
\global\mtcsecondpartfalse
\ttl@finishall
