%!PS-Adobe-2.0 EPSF-2.0
%%Title: max.eps
%%Creator: gnuplot 5.0 patchlevel 1
%%CreationDate: Fri Oct 30 18:57:08 2015
%%DocumentFonts: (atend)
%%BoundingBox: 50 50 302 238
%%EndComments
%%BeginProlog
/gnudict 256 dict def
gnudict begin
%
% The following true/false flags may be edited by hand if desired.
% The unit line width and grayscale image gamma correction may also be changed.
%
/Color true def
/Blacktext false def
/Solid false def
/Dashlength 1 def
/Landscape false def
/Level1 false def
/Level3 false def
/Rounded false def
/ClipToBoundingBox false def
/SuppressPDFMark false def
/TransparentPatterns false def
/gnulinewidth 5.000 def
/userlinewidth gnulinewidth def
/Gamma 1.0 def
/BackgroundColor {-1.000 -1.000 -1.000} def
%
/vshift -66 def
/dl1 {
  10.0 Dashlength userlinewidth gnulinewidth div mul mul mul
  Rounded { currentlinewidth 0.75 mul sub dup 0 le { pop 0.01 } if } if
} def
/dl2 {
  10.0 Dashlength userlinewidth gnulinewidth div mul mul mul
  Rounded { currentlinewidth 0.75 mul add } if
} def
/hpt_ 31.5 def
/vpt_ 31.5 def
/hpt hpt_ def
/vpt vpt_ def
/doclip {
  ClipToBoundingBox {
    newpath 50 50 moveto 302 50 lineto 302 238 lineto 50 238 lineto closepath
    clip
  } if
} def
%
% Gnuplot Prolog Version 5.0 (Dec 2014)
%
%/SuppressPDFMark true def
%
/M {moveto} bind def
/L {lineto} bind def
/R {rmoveto} bind def
/V {rlineto} bind def
/N {newpath moveto} bind def
/Z {closepath} bind def
/C {setrgbcolor} bind def
/f {rlineto fill} bind def
/g {setgray} bind def
/Gshow {show} def   % May be redefined later in the file to support UTF-8
/vpt2 vpt 2 mul def
/hpt2 hpt 2 mul def
/Lshow {currentpoint stroke M 0 vshift R 
	Blacktext {gsave 0 setgray textshow grestore} {textshow} ifelse} def
/Rshow {currentpoint stroke M dup stringwidth pop neg vshift R
	Blacktext {gsave 0 setgray textshow grestore} {textshow} ifelse} def
/Cshow {currentpoint stroke M dup stringwidth pop -2 div vshift R 
	Blacktext {gsave 0 setgray textshow grestore} {textshow} ifelse} def
/UP {dup vpt_ mul /vpt exch def hpt_ mul /hpt exch def
  /hpt2 hpt 2 mul def /vpt2 vpt 2 mul def} def
/DL {Color {setrgbcolor Solid {pop []} if 0 setdash}
 {pop pop pop 0 setgray Solid {pop []} if 0 setdash} ifelse} def
/BL {stroke userlinewidth 2 mul setlinewidth
	Rounded {1 setlinejoin 1 setlinecap} if} def
/AL {stroke userlinewidth 2 div setlinewidth
	Rounded {1 setlinejoin 1 setlinecap} if} def
/UL {dup gnulinewidth mul /userlinewidth exch def
	dup 1 lt {pop 1} if 10 mul /udl exch def} def
/PL {stroke userlinewidth setlinewidth
	Rounded {1 setlinejoin 1 setlinecap} if} def
3.8 setmiterlimit
% Classic Line colors (version 5.0)
/LCw {1 1 1} def
/LCb {0 0 0} def
/LCa {0 0 0} def
/LC0 {1 0 0} def
/LC1 {0 1 0} def
/LC2 {0 0 1} def
/LC3 {1 0 1} def
/LC4 {0 1 1} def
/LC5 {1 1 0} def
/LC6 {0 0 0} def
/LC7 {1 0.3 0} def
/LC8 {0.5 0.5 0.5} def
% Default dash patterns (version 5.0)
/LTw {PL [] 1 setgray} def
/LTb {BL [] LCb DL} def
/LTa {AL [1 udl mul 2 udl mul] 0 setdash LCa setrgbcolor} def
/LT0 {PL [] LC0 DL} def
/LT1 {PL [2 dl1 3 dl2] LC1 DL} def
/LT2 {PL [1 dl1 1.5 dl2] LC2 DL} def
/LT3 {PL [6 dl1 2 dl2 1 dl1 2 dl2] LC3 DL} def
/LT4 {PL [1 dl1 2 dl2 6 dl1 2 dl2 1 dl1 2 dl2] LC4 DL} def
/LT5 {PL [4 dl1 2 dl2] LC5 DL} def
/LT6 {PL [1.5 dl1 1.5 dl2 1.5 dl1 1.5 dl2 1.5 dl1 6 dl2] LC6 DL} def
/LT7 {PL [3 dl1 3 dl2 1 dl1 3 dl2] LC7 DL} def
/LT8 {PL [2 dl1 2 dl2 2 dl1 6 dl2] LC8 DL} def
/SL {[] 0 setdash} def
/Pnt {stroke [] 0 setdash gsave 1 setlinecap M 0 0 V stroke grestore} def
/Dia {stroke [] 0 setdash 2 copy vpt add M
  hpt neg vpt neg V hpt vpt neg V
  hpt vpt V hpt neg vpt V closepath stroke
  Pnt} def
/Pls {stroke [] 0 setdash vpt sub M 0 vpt2 V
  currentpoint stroke M
  hpt neg vpt neg R hpt2 0 V stroke
 } def
/Box {stroke [] 0 setdash 2 copy exch hpt sub exch vpt add M
  0 vpt2 neg V hpt2 0 V 0 vpt2 V
  hpt2 neg 0 V closepath stroke
  Pnt} def
/Crs {stroke [] 0 setdash exch hpt sub exch vpt add M
  hpt2 vpt2 neg V currentpoint stroke M
  hpt2 neg 0 R hpt2 vpt2 V stroke} def
/TriU {stroke [] 0 setdash 2 copy vpt 1.12 mul add M
  hpt neg vpt -1.62 mul V
  hpt 2 mul 0 V
  hpt neg vpt 1.62 mul V closepath stroke
  Pnt} def
/Star {2 copy Pls Crs} def
/BoxF {stroke [] 0 setdash exch hpt sub exch vpt add M
  0 vpt2 neg V hpt2 0 V 0 vpt2 V
  hpt2 neg 0 V closepath fill} def
/TriUF {stroke [] 0 setdash vpt 1.12 mul add M
  hpt neg vpt -1.62 mul V
  hpt 2 mul 0 V
  hpt neg vpt 1.62 mul V closepath fill} def
/TriD {stroke [] 0 setdash 2 copy vpt 1.12 mul sub M
  hpt neg vpt 1.62 mul V
  hpt 2 mul 0 V
  hpt neg vpt -1.62 mul V closepath stroke
  Pnt} def
/TriDF {stroke [] 0 setdash vpt 1.12 mul sub M
  hpt neg vpt 1.62 mul V
  hpt 2 mul 0 V
  hpt neg vpt -1.62 mul V closepath fill} def
/DiaF {stroke [] 0 setdash vpt add M
  hpt neg vpt neg V hpt vpt neg V
  hpt vpt V hpt neg vpt V closepath fill} def
/Pent {stroke [] 0 setdash 2 copy gsave
  translate 0 hpt M 4 {72 rotate 0 hpt L} repeat
  closepath stroke grestore Pnt} def
/PentF {stroke [] 0 setdash gsave
  translate 0 hpt M 4 {72 rotate 0 hpt L} repeat
  closepath fill grestore} def
/Circle {stroke [] 0 setdash 2 copy
  hpt 0 360 arc stroke Pnt} def
/CircleF {stroke [] 0 setdash hpt 0 360 arc fill} def
/C0 {BL [] 0 setdash 2 copy moveto vpt 90 450 arc} bind def
/C1 {BL [] 0 setdash 2 copy moveto
	2 copy vpt 0 90 arc closepath fill
	vpt 0 360 arc closepath} bind def
/C2 {BL [] 0 setdash 2 copy moveto
	2 copy vpt 90 180 arc closepath fill
	vpt 0 360 arc closepath} bind def
/C3 {BL [] 0 setdash 2 copy moveto
	2 copy vpt 0 180 arc closepath fill
	vpt 0 360 arc closepath} bind def
/C4 {BL [] 0 setdash 2 copy moveto
	2 copy vpt 180 270 arc closepath fill
	vpt 0 360 arc closepath} bind def
/C5 {BL [] 0 setdash 2 copy moveto
	2 copy vpt 0 90 arc
	2 copy moveto
	2 copy vpt 180 270 arc closepath fill
	vpt 0 360 arc} bind def
/C6 {BL [] 0 setdash 2 copy moveto
	2 copy vpt 90 270 arc closepath fill
	vpt 0 360 arc closepath} bind def
/C7 {BL [] 0 setdash 2 copy moveto
	2 copy vpt 0 270 arc closepath fill
	vpt 0 360 arc closepath} bind def
/C8 {BL [] 0 setdash 2 copy moveto
	2 copy vpt 270 360 arc closepath fill
	vpt 0 360 arc closepath} bind def
/C9 {BL [] 0 setdash 2 copy moveto
	2 copy vpt 270 450 arc closepath fill
	vpt 0 360 arc closepath} bind def
/C10 {BL [] 0 setdash 2 copy 2 copy moveto vpt 270 360 arc closepath fill
	2 copy moveto
	2 copy vpt 90 180 arc closepath fill
	vpt 0 360 arc closepath} bind def
/C11 {BL [] 0 setdash 2 copy moveto
	2 copy vpt 0 180 arc closepath fill
	2 copy moveto
	2 copy vpt 270 360 arc closepath fill
	vpt 0 360 arc closepath} bind def
/C12 {BL [] 0 setdash 2 copy moveto
	2 copy vpt 180 360 arc closepath fill
	vpt 0 360 arc closepath} bind def
/C13 {BL [] 0 setdash 2 copy moveto
	2 copy vpt 0 90 arc closepath fill
	2 copy moveto
	2 copy vpt 180 360 arc closepath fill
	vpt 0 360 arc closepath} bind def
/C14 {BL [] 0 setdash 2 copy moveto
	2 copy vpt 90 360 arc closepath fill
	vpt 0 360 arc} bind def
/C15 {BL [] 0 setdash 2 copy vpt 0 360 arc closepath fill
	vpt 0 360 arc closepath} bind def
/Rec {newpath 4 2 roll moveto 1 index 0 rlineto 0 exch rlineto
	neg 0 rlineto closepath} bind def
/Square {dup Rec} bind def
/Bsquare {vpt sub exch vpt sub exch vpt2 Square} bind def
/S0 {BL [] 0 setdash 2 copy moveto 0 vpt rlineto BL Bsquare} bind def
/S1 {BL [] 0 setdash 2 copy vpt Square fill Bsquare} bind def
/S2 {BL [] 0 setdash 2 copy exch vpt sub exch vpt Square fill Bsquare} bind def
/S3 {BL [] 0 setdash 2 copy exch vpt sub exch vpt2 vpt Rec fill Bsquare} bind def
/S4 {BL [] 0 setdash 2 copy exch vpt sub exch vpt sub vpt Square fill Bsquare} bind def
/S5 {BL [] 0 setdash 2 copy 2 copy vpt Square fill
	exch vpt sub exch vpt sub vpt Square fill Bsquare} bind def
/S6 {BL [] 0 setdash 2 copy exch vpt sub exch vpt sub vpt vpt2 Rec fill Bsquare} bind def
/S7 {BL [] 0 setdash 2 copy exch vpt sub exch vpt sub vpt vpt2 Rec fill
	2 copy vpt Square fill Bsquare} bind def
/S8 {BL [] 0 setdash 2 copy vpt sub vpt Square fill Bsquare} bind def
/S9 {BL [] 0 setdash 2 copy vpt sub vpt vpt2 Rec fill Bsquare} bind def
/S10 {BL [] 0 setdash 2 copy vpt sub vpt Square fill 2 copy exch vpt sub exch vpt Square fill
	Bsquare} bind def
/S11 {BL [] 0 setdash 2 copy vpt sub vpt Square fill 2 copy exch vpt sub exch vpt2 vpt Rec fill
	Bsquare} bind def
/S12 {BL [] 0 setdash 2 copy exch vpt sub exch vpt sub vpt2 vpt Rec fill Bsquare} bind def
/S13 {BL [] 0 setdash 2 copy exch vpt sub exch vpt sub vpt2 vpt Rec fill
	2 copy vpt Square fill Bsquare} bind def
/S14 {BL [] 0 setdash 2 copy exch vpt sub exch vpt sub vpt2 vpt Rec fill
	2 copy exch vpt sub exch vpt Square fill Bsquare} bind def
/S15 {BL [] 0 setdash 2 copy Bsquare fill Bsquare} bind def
/D0 {gsave translate 45 rotate 0 0 S0 stroke grestore} bind def
/D1 {gsave translate 45 rotate 0 0 S1 stroke grestore} bind def
/D2 {gsave translate 45 rotate 0 0 S2 stroke grestore} bind def
/D3 {gsave translate 45 rotate 0 0 S3 stroke grestore} bind def
/D4 {gsave translate 45 rotate 0 0 S4 stroke grestore} bind def
/D5 {gsave translate 45 rotate 0 0 S5 stroke grestore} bind def
/D6 {gsave translate 45 rotate 0 0 S6 stroke grestore} bind def
/D7 {gsave translate 45 rotate 0 0 S7 stroke grestore} bind def
/D8 {gsave translate 45 rotate 0 0 S8 stroke grestore} bind def
/D9 {gsave translate 45 rotate 0 0 S9 stroke grestore} bind def
/D10 {gsave translate 45 rotate 0 0 S10 stroke grestore} bind def
/D11 {gsave translate 45 rotate 0 0 S11 stroke grestore} bind def
/D12 {gsave translate 45 rotate 0 0 S12 stroke grestore} bind def
/D13 {gsave translate 45 rotate 0 0 S13 stroke grestore} bind def
/D14 {gsave translate 45 rotate 0 0 S14 stroke grestore} bind def
/D15 {gsave translate 45 rotate 0 0 S15 stroke grestore} bind def
/DiaE {stroke [] 0 setdash vpt add M
  hpt neg vpt neg V hpt vpt neg V
  hpt vpt V hpt neg vpt V closepath stroke} def
/BoxE {stroke [] 0 setdash exch hpt sub exch vpt add M
  0 vpt2 neg V hpt2 0 V 0 vpt2 V
  hpt2 neg 0 V closepath stroke} def
/TriUE {stroke [] 0 setdash vpt 1.12 mul add M
  hpt neg vpt -1.62 mul V
  hpt 2 mul 0 V
  hpt neg vpt 1.62 mul V closepath stroke} def
/TriDE {stroke [] 0 setdash vpt 1.12 mul sub M
  hpt neg vpt 1.62 mul V
  hpt 2 mul 0 V
  hpt neg vpt -1.62 mul V closepath stroke} def
/PentE {stroke [] 0 setdash gsave
  translate 0 hpt M 4 {72 rotate 0 hpt L} repeat
  closepath stroke grestore} def
/CircE {stroke [] 0 setdash 
  hpt 0 360 arc stroke} def
/Opaque {gsave closepath 1 setgray fill grestore 0 setgray closepath} def
/DiaW {stroke [] 0 setdash vpt add M
  hpt neg vpt neg V hpt vpt neg V
  hpt vpt V hpt neg vpt V Opaque stroke} def
/BoxW {stroke [] 0 setdash exch hpt sub exch vpt add M
  0 vpt2 neg V hpt2 0 V 0 vpt2 V
  hpt2 neg 0 V Opaque stroke} def
/TriUW {stroke [] 0 setdash vpt 1.12 mul add M
  hpt neg vpt -1.62 mul V
  hpt 2 mul 0 V
  hpt neg vpt 1.62 mul V Opaque stroke} def
/TriDW {stroke [] 0 setdash vpt 1.12 mul sub M
  hpt neg vpt 1.62 mul V
  hpt 2 mul 0 V
  hpt neg vpt -1.62 mul V Opaque stroke} def
/PentW {stroke [] 0 setdash gsave
  translate 0 hpt M 4 {72 rotate 0 hpt L} repeat
  Opaque stroke grestore} def
/CircW {stroke [] 0 setdash 
  hpt 0 360 arc Opaque stroke} def
/BoxFill {gsave Rec 1 setgray fill grestore} def
/Density {
  /Fillden exch def
  currentrgbcolor
  /ColB exch def /ColG exch def /ColR exch def
  /ColR ColR Fillden mul Fillden sub 1 add def
  /ColG ColG Fillden mul Fillden sub 1 add def
  /ColB ColB Fillden mul Fillden sub 1 add def
  ColR ColG ColB setrgbcolor} def
/BoxColFill {gsave Rec PolyFill} def
/PolyFill {gsave Density fill grestore grestore} def
/h {rlineto rlineto rlineto gsave closepath fill grestore} bind def
%
% PostScript Level 1 Pattern Fill routine for rectangles
% Usage: x y w h s a XX PatternFill
%	x,y = lower left corner of box to be filled
%	w,h = width and height of box
%	  a = angle in degrees between lines and x-axis
%	 XX = 0/1 for no/yes cross-hatch
%
/PatternFill {gsave /PFa [ 9 2 roll ] def
  PFa 0 get PFa 2 get 2 div add PFa 1 get PFa 3 get 2 div add translate
  PFa 2 get -2 div PFa 3 get -2 div PFa 2 get PFa 3 get Rec
  TransparentPatterns {} {gsave 1 setgray fill grestore} ifelse
  clip
  currentlinewidth 0.5 mul setlinewidth
  /PFs PFa 2 get dup mul PFa 3 get dup mul add sqrt def
  0 0 M PFa 5 get rotate PFs -2 div dup translate
  0 1 PFs PFa 4 get div 1 add floor cvi
	{PFa 4 get mul 0 M 0 PFs V} for
  0 PFa 6 get ne {
	0 1 PFs PFa 4 get div 1 add floor cvi
	{PFa 4 get mul 0 2 1 roll M PFs 0 V} for
 } if
  stroke grestore} def
%
/languagelevel where
 {pop languagelevel} {1} ifelse
dup 2 lt
	{/InterpretLevel1 true def
	 /InterpretLevel3 false def}
	{/InterpretLevel1 Level1 def
	 2 gt
	    {/InterpretLevel3 Level3 def}
	    {/InterpretLevel3 false def}
	 ifelse }
 ifelse
%
% PostScript level 2 pattern fill definitions
%
/Level2PatternFill {
/Tile8x8 {/PaintType 2 /PatternType 1 /TilingType 1 /BBox [0 0 8 8] /XStep 8 /YStep 8}
	bind def
/KeepColor {currentrgbcolor [/Pattern /DeviceRGB] setcolorspace} bind def
<< Tile8x8
 /PaintProc {0.5 setlinewidth pop 0 0 M 8 8 L 0 8 M 8 0 L stroke} 
>> matrix makepattern
/Pat1 exch def
<< Tile8x8
 /PaintProc {0.5 setlinewidth pop 0 0 M 8 8 L 0 8 M 8 0 L stroke
	0 4 M 4 8 L 8 4 L 4 0 L 0 4 L stroke}
>> matrix makepattern
/Pat2 exch def
<< Tile8x8
 /PaintProc {0.5 setlinewidth pop 0 0 M 0 8 L
	8 8 L 8 0 L 0 0 L fill}
>> matrix makepattern
/Pat3 exch def
<< Tile8x8
 /PaintProc {0.5 setlinewidth pop -4 8 M 8 -4 L
	0 12 M 12 0 L stroke}
>> matrix makepattern
/Pat4 exch def
<< Tile8x8
 /PaintProc {0.5 setlinewidth pop -4 0 M 8 12 L
	0 -4 M 12 8 L stroke}
>> matrix makepattern
/Pat5 exch def
<< Tile8x8
 /PaintProc {0.5 setlinewidth pop -2 8 M 4 -4 L
	0 12 M 8 -4 L 4 12 M 10 0 L stroke}
>> matrix makepattern
/Pat6 exch def
<< Tile8x8
 /PaintProc {0.5 setlinewidth pop -2 0 M 4 12 L
	0 -4 M 8 12 L 4 -4 M 10 8 L stroke}
>> matrix makepattern
/Pat7 exch def
<< Tile8x8
 /PaintProc {0.5 setlinewidth pop 8 -2 M -4 4 L
	12 0 M -4 8 L 12 4 M 0 10 L stroke}
>> matrix makepattern
/Pat8 exch def
<< Tile8x8
 /PaintProc {0.5 setlinewidth pop 0 -2 M 12 4 L
	-4 0 M 12 8 L -4 4 M 8 10 L stroke}
>> matrix makepattern
/Pat9 exch def
/Pattern1 {PatternBgnd KeepColor Pat1 setpattern} bind def
/Pattern2 {PatternBgnd KeepColor Pat2 setpattern} bind def
/Pattern3 {PatternBgnd KeepColor Pat3 setpattern} bind def
/Pattern4 {PatternBgnd KeepColor Landscape {Pat5} {Pat4} ifelse setpattern} bind def
/Pattern5 {PatternBgnd KeepColor Landscape {Pat4} {Pat5} ifelse setpattern} bind def
/Pattern6 {PatternBgnd KeepColor Landscape {Pat9} {Pat6} ifelse setpattern} bind def
/Pattern7 {PatternBgnd KeepColor Landscape {Pat8} {Pat7} ifelse setpattern} bind def
} def
%
%
%End of PostScript Level 2 code
%
/PatternBgnd {
  TransparentPatterns {} {gsave 1 setgray fill grestore} ifelse
} def
%
% Substitute for Level 2 pattern fill codes with
% grayscale if Level 2 support is not selected.
%
/Level1PatternFill {
/Pattern1 {0.250 Density} bind def
/Pattern2 {0.500 Density} bind def
/Pattern3 {0.750 Density} bind def
/Pattern4 {0.125 Density} bind def
/Pattern5 {0.375 Density} bind def
/Pattern6 {0.625 Density} bind def
/Pattern7 {0.875 Density} bind def
} def
%
% Now test for support of Level 2 code
%
Level1 {Level1PatternFill} {Level2PatternFill} ifelse
%
/Symbol-Oblique /Symbol findfont [1 0 .167 1 0 0] makefont
dup length dict begin {1 index /FID eq {pop pop} {def} ifelse} forall
currentdict end definefont pop
%
/MFshow {
   { dup 5 get 3 ge
     { 5 get 3 eq {gsave} {grestore} ifelse }
     {dup dup 0 get findfont exch 1 get scalefont setfont
     [ currentpoint ] exch dup 2 get 0 exch R dup 5 get 2 ne {dup dup 6
     get exch 4 get {textshow} {stringwidth pop 0 R} ifelse }if dup 5 get 0 eq
     {dup 3 get {2 get neg 0 exch R pop} {pop aload pop M} ifelse} {dup 5
     get 1 eq {dup 2 get exch dup 3 get exch 6 get stringwidth pop -2 div
     dup 0 R} {dup 6 get stringwidth pop -2 div 0 R 6 get
     textshow 2 index {aload pop M neg 3 -1 roll neg R pop pop} {pop pop pop
     pop aload pop M} ifelse }ifelse }ifelse }
     ifelse }
   forall} def
/Gswidth {dup type /stringtype eq {stringwidth} {pop (n) stringwidth} ifelse} def
/MFwidth {0 exch { dup 5 get 3 ge { 5 get 3 eq { 0 } { pop } ifelse }
 {dup 3 get{dup dup 0 get findfont exch 1 get scalefont setfont
     6 get Gswidth pop add} {pop} ifelse} ifelse} forall} def
/MLshow { currentpoint stroke M
  0 exch R
  Blacktext {gsave 0 setgray MFshow grestore} {MFshow} ifelse } bind def
/MRshow { currentpoint stroke M
  exch dup MFwidth neg 3 -1 roll R
  Blacktext {gsave 0 setgray MFshow grestore} {MFshow} ifelse } bind def
/MCshow { currentpoint stroke M
  exch dup MFwidth -2 div 3 -1 roll R
  Blacktext {gsave 0 setgray MFshow grestore} {MFshow} ifelse } bind def
/XYsave    { [( ) 1 2 true false 3 ()] } bind def
/XYrestore { [( ) 1 2 true false 4 ()] } bind def
Level1 SuppressPDFMark or 
{} {
/SDict 10 dict def
systemdict /pdfmark known not {
  userdict /pdfmark systemdict /cleartomark get put
} if
SDict begin [
  /Title (max.eps)
  /Subject (gnuplot plot)
  /Creator (gnuplot 5.0 patchlevel 1)
  /Author (gaumont)
%  /Producer (gnuplot)
%  /Keywords ()
  /CreationDate (Fri Oct 30 18:57:08 2015)
  /DOCINFO pdfmark
end
} ifelse
end
%
% Support for boxed text - Ethan A Merritt May 2005
%
/InitTextBox { userdict /TBy2 3 -1 roll put userdict /TBx2 3 -1 roll put
           userdict /TBy1 3 -1 roll put userdict /TBx1 3 -1 roll put
	   /Boxing true def } def
/ExtendTextBox { Boxing
    { gsave dup false charpath pathbbox
      dup TBy2 gt {userdict /TBy2 3 -1 roll put} {pop} ifelse
      dup TBx2 gt {userdict /TBx2 3 -1 roll put} {pop} ifelse
      dup TBy1 lt {userdict /TBy1 3 -1 roll put} {pop} ifelse
      dup TBx1 lt {userdict /TBx1 3 -1 roll put} {pop} ifelse
      grestore } if } def
/PopTextBox { newpath TBx1 TBxmargin sub TBy1 TBymargin sub M
               TBx1 TBxmargin sub TBy2 TBymargin add L
	       TBx2 TBxmargin add TBy2 TBymargin add L
	       TBx2 TBxmargin add TBy1 TBymargin sub L closepath } def
/DrawTextBox { PopTextBox stroke /Boxing false def} def
/FillTextBox { gsave PopTextBox 1 1 1 setrgbcolor fill grestore /Boxing false def} def
0 0 0 0 InitTextBox
/TBxmargin 20 def
/TBymargin 20 def
/Boxing false def
/textshow { ExtendTextBox Gshow } def
%
%%EndProlog
%%Page: 1 1
gnudict begin
gsave
doclip
50 50 translate
0.050 0.050 scale
0 setgray
newpath
(Helvetica) findfont 200 scalefont setfont
BackgroundColor 0 lt 3 1 roll 0 lt exch 0 lt or or not {BackgroundColor C 1.000 0 0 5040.00 3772.00 BoxColFill} if
1.000 UL
LTb
LCb setrgbcolor
860 640 M
63 0 V
3756 0 R
-63 0 V
stroke
740 640 M
[ [(Helvetica) 200.0 0.0 true true 0 (10)]
[(Helvetica) 160.0 100.0 true true 0 (-2)]
] -86.7 MRshow
1.000 UL
LTb
LCb setrgbcolor
860 1075 M
31 0 V
3788 0 R
-31 0 V
860 1330 M
31 0 V
3788 0 R
-31 0 V
860 1510 M
31 0 V
3788 0 R
-31 0 V
860 1650 M
31 0 V
3788 0 R
-31 0 V
860 1765 M
31 0 V
3788 0 R
-31 0 V
860 1862 M
31 0 V
3788 0 R
-31 0 V
860 1945 M
31 0 V
3788 0 R
-31 0 V
860 2019 M
31 0 V
3788 0 R
-31 0 V
860 2086 M
63 0 V
3756 0 R
-63 0 V
stroke
740 2086 M
[ [(Helvetica) 200.0 0.0 true true 0 (10)]
[(Helvetica) 160.0 100.0 true true 0 (-1)]
] -86.7 MRshow
1.000 UL
LTb
LCb setrgbcolor
860 2521 M
31 0 V
3788 0 R
-31 0 V
860 2775 M
31 0 V
3788 0 R
-31 0 V
860 2956 M
31 0 V
3788 0 R
-31 0 V
860 3096 M
31 0 V
3788 0 R
-31 0 V
860 3210 M
31 0 V
3788 0 R
-31 0 V
860 3307 M
31 0 V
3788 0 R
-31 0 V
860 3391 M
31 0 V
3788 0 R
-31 0 V
860 3465 M
31 0 V
3788 0 R
-31 0 V
860 3531 M
63 0 V
3756 0 R
-63 0 V
stroke
740 3531 M
[ [(Helvetica) 200.0 0.0 true true 0 (10)]
[(Helvetica) 160.0 100.0 true true 0 (0)]
] -86.7 MRshow
1.000 UL
LTb
LCb setrgbcolor
860 640 M
0 63 V
0 2828 R
0 -63 V
stroke
860 440 M
[ [(Helvetica) 200.0 0.0 true true 0 (10)]
[(Helvetica) 160.0 100.0 true true 0 (-2)]
] -86.7 MCshow
1.000 UL
LTb
LCb setrgbcolor
1435 640 M
0 31 V
0 2860 R
0 -31 V
1771 640 M
0 31 V
0 2860 R
0 -31 V
2010 640 M
0 31 V
0 2860 R
0 -31 V
2195 640 M
0 31 V
0 2860 R
0 -31 V
2346 640 M
0 31 V
0 2860 R
0 -31 V
2474 640 M
0 31 V
0 2860 R
0 -31 V
2584 640 M
0 31 V
0 2860 R
0 -31 V
2682 640 M
0 31 V
0 2860 R
0 -31 V
2770 640 M
0 63 V
0 2828 R
0 -63 V
stroke
2770 440 M
[ [(Helvetica) 200.0 0.0 true true 0 (10)]
[(Helvetica) 160.0 100.0 true true 0 (-1)]
] -86.7 MCshow
1.000 UL
LTb
LCb setrgbcolor
3344 640 M
0 31 V
0 2860 R
0 -31 V
3681 640 M
0 31 V
0 2860 R
0 -31 V
3919 640 M
0 31 V
0 2860 R
0 -31 V
4104 640 M
0 31 V
0 2860 R
0 -31 V
4255 640 M
0 31 V
0 2860 R
0 -31 V
4383 640 M
0 31 V
0 2860 R
0 -31 V
4494 640 M
0 31 V
0 2860 R
0 -31 V
4592 640 M
0 31 V
0 2860 R
0 -31 V
4679 640 M
0 63 V
0 2828 R
0 -63 V
stroke
4679 440 M
[ [(Helvetica) 200.0 0.0 true true 0 (10)]
[(Helvetica) 160.0 100.0 true true 0 (0)]
] -86.7 MCshow
1.000 UL
LTb
LCb setrgbcolor
1.000 UL
LTb
LCb setrgbcolor
860 3531 N
860 640 L
3819 0 V
0 2891 V
-3819 0 V
Z stroke
0.500 UP
1.000 UL
LTb
LCb setrgbcolor
LCb setrgbcolor
160 2085 M
currentpoint gsave translate -270 rotate 0 0 moveto
[ [(Helvetica) 200.0 0.0 true true 0 (Max inter-thread density)]
] -66.7 MCshow
grestore
LTb
LCb setrgbcolor
2769 140 M
[ [(Helvetica) 200.0 0.0 true true 0 (Intra-thread density)]
] -66.7 MCshow
LTb
% Begin plot #1
0.500 UP
0.500 UL
LTb
0.82 0.11 0.02 C 4343 3528 Pls
3768 3252 Pls
3768 3218 Pls
3640 3016 Pls
3879 3100 Pls
3919 3468 Pls
3344 3250 Pls
3529 3211 Pls
3768 3187 Pls
3344 3057 Pls
3119 3004 Pls
3919 3494 Pls
4383 3404 Pls
3192 3141 Pls
3768 3444 Pls
4047 3334 Pls
3640 3064 Pls
4104 3368 Pls
3529 3261 Pls
3529 3348 Pls
3640 3351 Pls
3529 3257 Pls
3265 3149 Pls
4047 3430 Pls
3738 3159 Pls
3640 3389 Pls
3344 2952 Pls
3510 3142 Pls
3879 3469 Pls
3639 3072 Pls
3768 3176 Pls
3127 3136 Pls
4343 3341 Pls
3616 3170 Pls
3432 3254 Pls
4104 3122 Pls
3640 3357 Pls
4104 3435 Pls
3265 3088 Pls
3617 3359 Pls
3919 3392 Pls
3617 3194 Pls
3768 3341 Pls
3919 3273 Pls
3008 3007 Pls
3738 3067 Pls
4047 3343 Pls
3768 3319 Pls
3254 3131 Pls
3216 3160 Pls
3193 3273 Pls
4104 3349 Pls
3768 3259 Pls
3825 3354 Pls
3738 3050 Pls
3825 3342 Pls
3767 3224 Pls
3193 3154 Pls
3640 3172 Pls
2770 2999 Pls
3768 3199 Pls
3919 3225 Pls
3265 3034 Pls
2928 3192 Pls
3246 2873 Pls
2924 2911 Pls
3582 3235 Pls
4104 3252 Pls
3640 3136 Pls
3919 3480 Pls
4104 3266 Pls
3526 3296 Pls
3415 3265 Pls
3483 3196 Pls
4047 3259 Pls
4343 3295 Pls
3640 3211 Pls
3193 3077 Pls
3976 3115 Pls
3193 3106 Pls
3331 3045 Pls
3265 3223 Pls
3412 3053 Pls
3091 2871 Pls
3193 3053 Pls
3529 3193 Pls
3640 3223 Pls
3617 3198 Pls
3640 3308 Pls
4104 3373 Pls
3483 3290 Pls
3919 3186 Pls
3529 3193 Pls
3919 3456 Pls
3092 3002 Pls
4104 3315 Pls
4255 3230 Pls
3509 3066 Pls
3919 3507 Pls
3265 2924 Pls
3879 3261 Pls
3065 3057 Pls
3738 3152 Pls
3768 3308 Pls
3463 3159 Pls
3416 3290 Pls
4104 3281 Pls
3126 2838 Pls
3529 3266 Pls
4343 3337 Pls
3617 3332 Pls
4047 3397 Pls
3432 2990 Pls
3264 3112 Pls
3529 3201 Pls
3614 3131 Pls
3508 3266 Pls
3768 3234 Pls
2918 2920 Pls
3768 3240 Pls
3640 3236 Pls
3919 3239 Pls
3738 3079 Pls
3265 3171 Pls
3737 3296 Pls
3344 3277 Pls
3768 3382 Pls
3640 3037 Pls
3529 3205 Pls
3583 3092 Pls
3265 3317 Pls
3432 3211 Pls
3640 3141 Pls
3240 3237 Pls
3065 3019 Pls
4255 3459 Pls
4343 3312 Pls
2719 2884 Pls
3768 3397 Pls
3768 3212 Pls
3184 3031 Pls
3331 3214 Pls
3737 3168 Pls
3344 3121 Pls
3344 2992 Pls
3976 3062 Pls
3768 3344 Pls
3529 3028 Pls
3463 3129 Pls
2978 3084 Pls
3649 3219 Pls
3529 3244 Pls
4104 3290 Pls
3825 3132 Pls
4047 3384 Pls
3976 3110 Pls
3344 3237 Pls
3431 2944 Pls
3483 3229 Pls
3432 3237 Pls
3768 3311 Pls
3918 3351 Pls
3768 3249 Pls
3825 3319 Pls
3918 3189 Pls
3879 3433 Pls
3879 3025 Pls
3192 3211 Pls
4104 3325 Pls
3529 3231 Pls
3431 3152 Pls
3265 3140 Pls
3919 3409 Pls
3264 2865 Pls
3919 3128 Pls
3919 3457 Pls
3768 3292 Pls
3529 3279 Pls
3768 3071 Pls
3332 3130 Pls
3529 3456 Pls
3529 3243 Pls
3529 3258 Pls
3340 3092 Pls
3511 3021 Pls
3976 3281 Pls
3640 3365 Pls
3768 3242 Pls
3617 3204 Pls
3919 3267 Pls
4047 3263 Pls
3768 3323 Pls
3544 3196 Pls
3432 3128 Pls
3344 3006 Pls
3976 3391 Pls
3510 3086 Pls
3265 2872 Pls
3265 3011 Pls
3768 3099 Pls
3431 2951 Pls
4104 3176 Pls
2618 2998 Pls
3106 3177 Pls
3640 3287 Pls
4255 3482 Pls
2873 3082 Pls
3504 3187 Pls
3432 3141 Pls
3529 3139 Pls
3767 3062 Pls
3637 3198 Pls
3344 2930 Pls
2852 2776 Pls
3283 3186 Pls
3919 3195 Pls
3768 3218 Pls
3617 3245 Pls
3047 2793 Pls
3529 3160 Pls
3879 3059 Pls
4104 3208 Pls
3768 3468 Pls
3640 3330 Pls
3825 3242 Pls
3768 3196 Pls
3640 3286 Pls
3919 3347 Pls
3583 3125 Pls
3919 3319 Pls
4104 3138 Pls
3879 3380 Pls
3768 3442 Pls
3768 3009 Pls
3148 2998 Pls
4104 3238 Pls
4047 3162 Pls
3265 3095 Pls
3919 3162 Pls
4104 3101 Pls
4104 3413 Pls
3919 3111 Pls
3768 3370 Pls
4042 3273 Pls
3529 3163 Pls
3529 3049 Pls
3616 3254 Pls
4158 3421 Pls
4104 3120 Pls
3919 3205 Pls
3582 3113 Pls
3511 3066 Pls
3583 3338 Pls
3169 2992 Pls
3432 3039 Pls
3768 3226 Pls
3331 3061 Pls
4104 3477 Pls
3008 2868 Pls
3504 3166 Pls
3649 3260 Pls
3344 3111 Pls
3919 3274 Pls
3768 3225 Pls
3768 3256 Pls
3344 3298 Pls
3767 3349 Pls
3919 3098 Pls
3768 3309 Pls
4104 3264 Pls
4047 3260 Pls
3529 3451 Pls
3640 3337 Pls
3529 3197 Pls
3879 3188 Pls
3912 3128 Pls
3529 3420 Pls
3432 3081 Pls
3768 3263 Pls
4047 3154 Pls
3265 2963 Pls
3529 3163 Pls
3511 3236 Pls
3738 3341 Pls
3879 3283 Pls
3640 2976 Pls
3416 3327 Pls
3529 3392 Pls
3529 3202 Pls
3737 3194 Pls
3340 2907 Pls
3878 3381 Pls
3976 3281 Pls
3143 3056 Pls
3331 3060 Pls
3640 3499 Pls
2978 2824 Pls
3617 3274 Pls
4104 3408 Pls
3640 3431 Pls
3419 3056 Pls
3919 3137 Pls
3617 2954 Pls
3919 3294 Pls
3193 3056 Pls
3919 3324 Pls
3482 3193 Pls
3529 3050 Pls
4343 3329 Pls
3738 3058 Pls
3183 3083 Pls
4047 3151 Pls
3416 3067 Pls
4343 3354 Pls
3919 3246 Pls
4043 3358 Pls
3120 3311 Pls
3919 3273 Pls
3529 3209 Pls
3265 3196 Pls
3825 3212 Pls
4104 3308 Pls
3640 3255 Pls
3640 3241 Pls
3508 3334 Pls
3976 3353 Pls
3193 2853 Pls
3254 2896 Pls
3919 3302 Pls
3184 3030 Pls
3768 3372 Pls
3919 3364 Pls
4255 3270 Pls
3529 3428 Pls
3511 3104 Pls
3617 3372 Pls
3065 3042 Pls
3529 3219 Pls
3640 3177 Pls
3640 3215 Pls
3767 3329 Pls
4104 3416 Pls
3430 3054 Pls
3529 3183 Pls
4047 3176 Pls
3768 3254 Pls
3695 3286 Pls
3065 2981 Pls
3332 3024 Pls
3483 3369 Pls
3919 3143 Pls
3431 3131 Pls
3365 3246 Pls
3507 3286 Pls
4104 3278 Pls
3640 3043 Pls
3640 3097 Pls
3416 3192 Pls
3768 3205 Pls
3768 3135 Pls
3265 3297 Pls
3738 3272 Pls
3544 3183 Pls
3129 2994 Pls
4343 3433 Pls
3432 3309 Pls
3431 3051 Pls
3919 3235 Pls
3768 3493 Pls
3193 3147 Pls
3904 3289 Pls
3544 3016 Pls
3825 3180 Pls
3529 3401 Pls
3175 3177 Pls
3919 3293 Pls
4104 3530 Pls
3265 3322 Pls
3878 3208 Pls
3344 3196 Pls
3919 3179 Pls
4047 3277 Pls
3265 3250 Pls
3640 3330 Pls
3617 3117 Pls
3617 3305 Pls
3895 3335 Pls
3825 3254 Pls
3511 3213 Pls
3529 3329 Pls
3344 2937 Pls
3919 3259 Pls
3332 3159 Pls
3918 3410 Pls
4104 3182 Pls
3768 3311 Pls
3529 3275 Pls
3529 3301 Pls
3617 3366 Pls
3344 3136 Pls
3431 2897 Pls
3640 3409 Pls
3432 3431 Pls
3879 3206 Pls
3510 3079 Pls
4104 3417 Pls
3655 3184 Pls
3340 3035 Pls
3393 2836 Pls
3919 3391 Pls
3216 3221 Pls
3002 2928 Pls
3528 3240 Pls
3529 3198 Pls
2937 3047 Pls
3617 3105 Pls
3311 3154 Pls
3768 3365 Pls
3640 3302 Pls
3834 3342 Pls
3768 3364 Pls
3455 3276 Pls
3432 3265 Pls
4104 3260 Pls
3529 3271 Pls
3768 3133 Pls
3768 3449 Pls
3919 3165 Pls
3529 3360 Pls
3919 3155 Pls
3640 3119 Pls
3617 3139 Pls
4103 3405 Pls
2846 3024 Pls
3265 2934 Pls
4255 3409 Pls
3919 3388 Pls
3879 3200 Pls
3640 3141 Pls
3919 3270 Pls
3583 3114 Pls
3432 3205 Pls
3919 3288 Pls
3265 3132 Pls
3640 3232 Pls
3649 3247 Pls
4343 3346 Pls
3254 3157 Pls
3768 3130 Pls
4343 3346 Pls
3554 3308 Pls
3879 3122 Pls
3760 3112 Pls
3768 3180 Pls
4104 3458 Pls
3649 3265 Pls
4104 3272 Pls
3105 3013 Pls
3976 3113 Pls
3344 3044 Pls
3617 3339 Pls
3529 3130 Pls
3150 3078 Pls
3919 3230 Pls
3303 3253 Pls
4343 3452 Pls
3529 3265 Pls
4047 3383 Pls
3768 3378 Pls
3878 3193 Pls
4101 3432 Pls
3127 3108 Pls
3640 3054 Pls
3254 2960 Pls
3528 3080 Pls
3169 2977 Pls
3008 2999 Pls
3768 3355 Pls
3919 3249 Pls
3640 3419 Pls
3529 3055 Pls
3529 3222 Pls
3419 3128 Pls
3640 3143 Pls
4343 3427 Pls
3344 3254 Pls
3617 3234 Pls
3344 3102 Pls
3063 3148 Pls
3529 3129 Pls
3511 3138 Pls
4104 3518 Pls
3738 3128 Pls
4255 3269 Pls
3767 3194 Pls
3919 3157 Pls
3193 3117 Pls
4255 3379 Pls
3430 3066 Pls
3013 3177 Pls
3617 3070 Pls
3432 3189 Pls
3640 3355 Pls
3766 3411 Pls
3879 3372 Pls
4104 3531 Pls
3065 2927 Pls
3130 3209 Pls
3919 3118 Pls
3705 3229 Pls
3919 3222 Pls
3768 3214 Pls
3919 3274 Pls
3768 3114 Pls
3768 3160 Pls
3768 3272 Pls
3431 3043 Pls
3617 3373 Pls
3919 3090 Pls
3432 3102 Pls
3738 3294 Pls
3365 3120 Pls
3529 3225 Pls
3526 3055 Pls
3768 3191 Pls
3193 3349 Pls
4104 3285 Pls
3738 3255 Pls
4102 3286 Pls
3264 3115 Pls
4104 3138 Pls
3919 3387 Pls
3450 3263 Pls
3089 3058 Pls
3696 3362 Pls
4047 3157 Pls
3432 3252 Pls
3919 3269 Pls
3640 3297 Pls
3590 3169 Pls
3617 3098 Pls
4343 3364 Pls
3265 3081 Pls
4104 3492 Pls
3878 3409 Pls
3976 3207 Pls
3768 3004 Pls
4047 3116 Pls
3768 3183 Pls
3089 3102 Pls
4104 3503 Pls
3432 3205 Pls
4158 3332 Pls
3431 3234 Pls
3768 3086 Pls
3192 3151 Pls
3529 3376 Pls
4047 3165 Pls
4104 3305 Pls
3834 3000 Pls
4043 3350 Pls
3432 3314 Pls
3511 3154 Pls
3393 3079 Pls
3919 3109 Pls
3126 3030 Pls
3919 3233 Pls
3919 3457 Pls
3825 3062 Pls
3233 3117 Pls
3483 3124 Pls
3601 3387 Pls
3976 3176 Pls
3768 3212 Pls
3918 3121 Pls
3344 3204 Pls
3768 3038 Pls
3768 3275 Pls
3735 3109 Pls
4047 3153 Pls
3640 3381 Pls
4047 3339 Pls
3529 3055 Pls
3583 3181 Pls
4343 3406 Pls
3511 3088 Pls
3737 3164 Pls
3344 3053 Pls
4158 3384 Pls
3058 2983 Pls
3640 3213 Pls
3432 3377 Pls
3393 3353 Pls
4047 3431 Pls
3002 3149 Pls
3617 3309 Pls
3919 3273 Pls
3393 3128 Pls
3432 3191 Pls
3768 3332 Pls
3738 3276 Pls
3431 3314 Pls
3344 2900 Pls
4047 3331 Pls
3919 3230 Pls
3529 3152 Pls
3823 3019 Pls
3919 3387 Pls
3919 3452 Pls
3617 3153 Pls
3601 3225 Pls
4104 3338 Pls
4343 3344 Pls
3919 3410 Pls
3616 3464 Pls
3640 3277 Pls
3529 3190 Pls
3529 2977 Pls
3768 3336 Pls
4104 3325 Pls
4104 3248 Pls
3529 3173 Pls
3344 3258 Pls
3953 3352 Pls
2813 3320 Pls
4047 3245 Pls
4104 3364 Pls
3976 3255 Pls
3431 3079 Pls
3414 3147 Pls
3640 3171 Pls
3184 3255 Pls
3529 3187 Pls
3825 3240 Pls
3065 3059 Pls
3919 3237 Pls
3344 3022 Pls
3738 3164 Pls
4383 3447 Pls
4104 3414 Pls
3696 3177 Pls
3879 3393 Pls
3106 2907 Pls
4343 3384 Pls
3065 2902 Pls
3529 3149 Pls
4104 3328 Pls
3919 3490 Pls
3768 3210 Pls
3976 3513 Pls
3085 2855 Pls
3767 3206 Pls
3432 2972 Pls
3640 3420 Pls
3237 3088 Pls
3919 3375 Pls
3879 3286 Pls
3504 3234 Pls
3919 3138 Pls
3288 2981 Pls
3768 3380 Pls
4047 3408 Pls
3768 3159 Pls
4104 3435 Pls
3432 3280 Pls
3529 3059 Pls
3012 3139 Pls
3767 3317 Pls
2759 3022 Pls
2954 3142 Pls
2977 3207 Pls
4104 3487 Pls
3118 3264 Pls
3976 3316 Pls
3919 3051 Pls
3640 3284 Pls
3184 2936 Pls
3617 3342 Pls
3768 3160 Pls
4342 3418 Pls
3105 3242 Pls
3768 3272 Pls
3825 3322 Pls
3150 3219 Pls
3976 3181 Pls
3834 3331 Pls
3529 3345 Pls
3640 3203 Pls
3919 3406 Pls
3640 3286 Pls
3768 3297 Pls
3617 3290 Pls
3331 3174 Pls
3738 3351 Pls
3768 3218 Pls
3640 3098 Pls
3919 3165 Pls
3184 3027 Pls
4103 3313 Pls
3919 3304 Pls
3919 3142 Pls
3344 3020 Pls
3878 3202 Pls
3431 3432 Pls
3529 3078 Pls
4104 3438 Pls
3483 3252 Pls
4047 3329 Pls
3510 3059 Pls
3529 3015 Pls
3640 3284 Pls
3919 3353 Pls
3639 3416 Pls
3825 3224 Pls
3768 3162 Pls
3265 2905 Pls
3332 3115 Pls
3738 3165 Pls
4047 3483 Pls
3919 3318 Pls
3265 3097 Pls
3582 3209 Pls
3649 2997 Pls
3768 3317 Pls
3193 3076 Pls
3879 3384 Pls
3825 3343 Pls
3344 3289 Pls
3432 3113 Pls
3640 3212 Pls
4104 3423 Pls
3544 3194 Pls
3768 3129 Pls
3768 3451 Pls
3450 3262 Pls
3184 3211 Pls
3768 3411 Pls
3640 3422 Pls
4343 3310 Pls
3254 2926 Pls
3344 3216 Pls
3919 3397 Pls
3825 3188 Pls
3640 3202 Pls
3919 3118 Pls
3450 3197 Pls
3432 3214 Pls
3265 3176 Pls
3529 3115 Pls
2769 3074 Pls
3768 3345 Pls
4343 3474 Pls
3919 3268 Pls
3919 3180 Pls
4047 3375 Pls
4104 3097 Pls
3344 3157 Pls
3529 3214 Pls
3510 3212 Pls
3431 3069 Pls
3768 3344 Pls
3640 3396 Pls
3640 3257 Pls
3640 3202 Pls
3919 3216 Pls
3919 3340 Pls
3919 3269 Pls
3527 3282 Pls
3919 3457 Pls
3058 2987 Pls
3050 3257 Pls
3919 3260 Pls
3331 3363 Pls
3344 2981 Pls
3768 3280 Pls
3331 3174 Pls
3529 3287 Pls
3529 3487 Pls
3879 3141 Pls
3617 3245 Pls
3879 3298 Pls
3511 3361 Pls
3344 3125 Pls
3416 3041 Pls
3768 3144 Pls
4047 3271 Pls
3919 3372 Pls
4343 3449 Pls
3452 3155 Pls
3976 3443 Pls
3044 2991 Pls
3768 3066 Pls
3768 3300 Pls
3616 3042 Pls
4104 3295 Pls
4104 3403 Pls
4158 3385 Pls
3265 2987 Pls
3582 3169 Pls
4103 3369 Pls
3903 3216 Pls
4104 3231 Pls
3696 3383 Pls
3265 3057 Pls
3919 3298 Pls
3015 3049 Pls
3483 3067 Pls
4343 3403 Pls
3737 3172 Pls
3344 3258 Pls
4101 3271 Pls
3529 2955 Pls
4255 3264 Pls
3640 3325 Pls
3768 3054 Pls
3193 3092 Pls
4104 3122 Pls
3825 3275 Pls
3640 3106 Pls
3617 3118 Pls
3768 3416 Pls
3127 2946 Pls
3344 3219 Pls
3416 3044 Pls
3432 3011 Pls
3265 2895 Pls
3393 3131 Pls
3344 3201 Pls
3344 3277 Pls
3432 3238 Pls
3919 3058 Pls
4342 3487 Pls
2943 3107 Pls
3344 3245 Pls
4104 3334 Pls
4047 3055 Pls
3768 3152 Pls
3070 3220 Pls
3632 3250 Pls
3582 2910 Pls
4494 3431 Pls
3695 3325 Pls
3738 3253 Pls
3737 3216 Pls
3738 3306 Pls
3768 3327 Pls
3529 3329 Pls
3904 3169 Pls
3919 3199 Pls
3070 3012 Pls
3919 3311 Pls
3237 3161 Pls
3529 3101 Pls
3765 3286 Pls
3126 2996 Pls
3640 3284 Pls
3344 3152 Pls
4104 3478 Pls
3768 3235 Pls
3879 3129 Pls
3919 3464 Pls
3768 3133 Pls
3529 3523 Pls
3529 3254 Pls
3919 3171 Pls
3825 3049 Pls
3768 3150 Pls
3768 3494 Pls
3768 3219 Pls
4104 3403 Pls
4047 3292 Pls
3255 3302 Pls
3483 2979 Pls
3463 2952 Pls
3919 3412 Pls
3768 3147 Pls
3768 3316 Pls
3768 3462 Pls
3639 3163 Pls
3919 3123 Pls
3416 3220 Pls
3768 3446 Pls
3529 3185 Pls
3529 3168 Pls
3065 2973 Pls
3193 2886 Pls
3510 2931 Pls
3919 3334 Pls
3768 3060 Pls
3529 3172 Pls
3738 3238 Pls
3640 3162 Pls
3768 3339 Pls
2769 3118 Pls
3529 3011 Pls
3768 3261 Pls
3919 3361 Pls
3768 3264 Pls
3529 3040 Pls
3617 3112 Pls
3511 3273 Pls
3825 3199 Pls
4104 3350 Pls
4255 3471 Pls
3919 3248 Pls
4104 3445 Pls
3825 3071 Pls
3429 3083 Pls
4253 3437 Pls
3332 2979 Pls
3529 3154 Pls
4104 3311 Pls
3583 3083 Pls
3529 3126 Pls
3529 3411 Pls
3768 3220 Pls
3879 3118 Pls
4047 3202 Pls
4342 3356 Pls
4047 3245 Pls
3432 3080 Pls
3511 3107 Pls
3432 3182 Pls
3640 3301 Pls
2954 2962 Pls
3008 3062 Pls
3768 3372 Pls
2810 2961 Pls
3976 3360 Pls
3511 3327 Pls
3640 3052 Pls
3825 3304 Pls
3529 3235 Pls
3919 3199 Pls
3511 3338 Pls
3483 3058 Pls
3432 3185 Pls
3529 3207 Pls
4046 3452 Pls
3768 3272 Pls
3919 3287 Pls
3640 3177 Pls
3768 3366 Pls
3768 3081 Pls
3416 3171 Pls
3064 3198 Pls
3344 3243 Pls
3065 2993 Pls
3640 3278 Pls
4104 3365 Pls
3919 3386 Pls
3879 3162 Pls
3738 3350 Pls
3738 3103 Pls
3127 3075 Pls
3432 3025 Pls
3768 3266 Pls
3463 2994 Pls
3511 2939 Pls
3617 3061 Pls
3529 3190 Pls
3332 3246 Pls
3640 3216 Pls
3640 2967 Pls
3919 3191 Pls
3432 3103 Pls
3416 3136 Pls
3254 3124 Pls
3510 3135 Pls
2717 2658 Pls
3640 3174 Pls
4343 3365 Pls
3463 2937 Pls
3432 3097 Pls
4154 3190 Pls
3640 3405 Pls
3529 3296 Pls
3768 3162 Pls
3255 2994 Pls
3582 3098 Pls
3169 2944 Pls
3432 3033 Pls
3879 3450 Pls
3768 3121 Pls
3270 3239 Pls
3529 3252 Pls
3344 3151 Pls
3265 3094 Pls
3738 3238 Pls
3511 3191 Pls
3696 3307 Pls
3825 3147 Pls
3344 3408 Pls
3649 3394 Pls
3640 3170 Pls
3216 3182 Pls
3600 3279 Pls
3768 3304 Pls
3768 3005 Pls
3640 3303 Pls
3919 3229 Pls
3529 3185 Pls
3583 3160 Pls
3834 3477 Pls
4679 3531 Pls
3640 3417 Pls
3695 3272 Pls
4255 3527 Pls
3582 3232 Pls
3917 3346 Pls
3328 3293 Pls
3344 3107 Pls
3237 3052 Pls
3344 3242 Pls
3919 3282 Pls
3640 3370 Pls
4064 3155 Pls
3344 3310 Pls
3416 2911 Pls
3193 3060 Pls
3821 3254 Pls
3768 3305 Pls
3738 3332 Pls
3767 3343 Pls
3919 3410 Pls
3529 3093 Pls
3529 3200 Pls
3529 3092 Pls
3640 3381 Pls
3738 3259 Pls
3344 3281 Pls
3821 3367 Pls
3142 3067 Pls
3432 3071 Pls
3768 3111 Pls
3640 3144 Pls
3879 3284 Pls
3432 3070 Pls
3529 3057 Pls
4047 3427 Pls
3529 3234 Pls
3953 3295 Pls
3768 3090 Pls
3544 3211 Pls
3344 3030 Pls
3738 3303 Pls
3919 3386 Pls
4157 3228 Pls
4104 3281 Pls
3554 3341 Pls
3768 3072 Pls
3207 3052 Pls
3738 3342 Pls
4104 3237 Pls
3344 2970 Pls
3288 3017 Pls
3738 3248 Pls
3640 3057 Pls
3529 3104 Pls
4104 3213 Pls
3768 3293 Pls
3919 3325 Pls
3879 3224 Pls
4047 3310 Pls
3261 3203 Pls
3919 3230 Pls
3529 3174 Pls
3234 3079 Pls
3879 3295 Pls
3768 3371 Pls
3265 2983 Pls
3696 3267 Pls
3617 3284 Pls
4343 3345 Pls
3216 3088 Pls
3738 3201 Pls
3768 3020 Pls
3529 3147 Pls
2399 2903 Pls
3001 3167 Pls
3640 3160 Pls
3640 3299 Pls
3640 3197 Pls
3825 3209 Pls
3640 3204 Pls
3265 3227 Pls
3767 3005 Pls
3902 3294 Pls
3511 3218 Pls
4104 3163 Pls
4104 3362 Pls
3510 2959 Pls
3640 3459 Pls
3529 3016 Pls
3344 2970 Pls
4158 3399 Pls
3431 3102 Pls
3737 3328 Pls
3919 3269 Pls
3738 3253 Pls
4343 3389 Pls
3335 3238 Pls
3640 3186 Pls
4255 3340 Pls
4342 3389 Pls
3344 3168 Pls
3768 3154 Pls
3583 3097 Pls
3640 3373 Pls
3365 3260 Pls
4104 3167 Pls
3919 3171 Pls
3583 3441 Pls
3640 3159 Pls
3529 3235 Pls
3878 3371 Pls
3696 3325 Pls
3289 3112 Pls
3768 3111 Pls
4046 3259 Pls
3069 2997 Pls
3008 2933 Pls
3768 3403 Pls
3640 3269 Pls
3510 3256 Pls
3879 3297 Pls
3768 3335 Pls
4255 3274 Pls
3919 3430 Pls
3738 3379 Pls
3529 3294 Pls
4255 3352 Pls
4047 3259 Pls
3640 3127 Pls
3261 3001 Pls
3529 3194 Pls
3332 3019 Pls
3432 3202 Pls
3633 3232 Pls
3879 3284 Pls
3919 3394 Pls
3737 3052 Pls
3919 3185 Pls
3919 3450 Pls
3640 3309 Pls
4104 3308 Pls
3768 3412 Pls
3344 3282 Pls
3768 3397 Pls
3265 3082 Pls
3529 3362 Pls
4343 3378 Pls
3168 3270 Pls
3208 3051 Pls
3503 2989 Pls
3879 3527 Pls
3047 2946 Pls
3768 3298 Pls
4251 3229 Pls
3738 3066 Pls
3529 3428 Pls
3640 3316 Pls
3919 3496 Pls
3529 3279 Pls
4343 3516 Pls
3640 3247 Pls
3879 3275 Pls
3976 3152 Pls
3169 3084 Pls
3976 3319 Pls
2829 2923 Pls
3639 3327 Pls
3879 3480 Pls
3344 3091 Pls
3737 3100 Pls
3483 3288 Pls
3640 3036 Pls
3544 3102 Pls
3344 3160 Pls
3344 3167 Pls
4047 3338 Pls
3640 3246 Pls
3640 3063 Pls
3768 3174 Pls
3649 3160 Pls
3040 3024 Pls
3335 2816 Pls
4104 3369 Pls
3089 3314 Pls
3529 3128 Pls
3416 3121 Pls
3879 3152 Pls
3768 3315 Pls
3824 3213 Pls
3878 3178 Pls
4255 3531 Pls
3919 3380 Pls
3233 3117 Pls
4255 3444 Pls
4255 3378 Pls
3640 3313 Pls
3768 3240 Pls
3583 3288 Pls
3193 2874 Pls
3768 3268 Pls
4343 3408 Pls
3529 3091 Pls
3432 3311 Pls
3879 3133 Pls
3601 3056 Pls
3193 2863 Pls
4104 3390 Pls
4255 3273 Pls
3331 3251 Pls
3768 3327 Pls
3768 3204 Pls
3583 3080 Pls
3415 3077 Pls
3768 3146 Pls
3640 3076 Pls
3919 3256 Pls
3696 3474 Pls
3529 3264 Pls
4104 3470 Pls
3834 3406 Pls
3616 3188 Pls
3640 3211 Pls
3901 3244 Pls
3581 3332 Pls
3237 3066 Pls
4255 3438 Pls
3640 3383 Pls
3768 3179 Pls
3640 3358 Pls
3431 3219 Pls
3768 3435 Pls
3344 3202 Pls
3738 3330 Pls
3737 3376 Pls
4343 3472 Pls
3261 2920 Pls
3764 3004 Pls
3768 3277 Pls
3432 3218 Pls
3431 3066 Pls
3768 3196 Pls
3919 3233 Pls
3768 3336 Pls
2954 3006 Pls
4047 3173 Pls
4047 3227 Pls
3879 3242 Pls
4047 3242 Pls
3768 3311 Pls
3150 2989 Pls
4104 3139 Pls
3308 3173 Pls
3365 3147 Pls
3431 2958 Pls
3767 3156 Pls
3768 3323 Pls
3117 3001 Pls
3617 3104 Pls
3344 3022 Pls
3529 3163 Pls
3768 3354 Pls
3192 3141 Pls
3529 3128 Pls
3768 3343 Pls
4046 3394 Pls
3529 3209 Pls
3432 3308 Pls
3450 3197 Pls
3879 3349 Pls
4342 3459 Pls
3768 3147 Pls
3640 3066 Pls
3583 3226 Pls
3482 3340 Pls
3879 3374 Pls
3919 3387 Pls
3640 3300 Pls
3529 3344 Pls
3737 3390 Pls
3529 3277 Pls
3919 3501 Pls
3616 3087 Pls
3455 3416 Pls
3529 3154 Pls
3640 3107 Pls
3919 3488 Pls
3696 3431 Pls
3265 3089 Pls
4104 3283 Pls
3344 3140 Pls
3261 3093 Pls
2674 2971 Pls
4343 3298 Pls
3432 3122 Pls
3919 3481 Pls
3529 3142 Pls
3192 2840 Pls
3640 3112 Pls
3193 3246 Pls
3617 3033 Pls
3696 3171 Pls
3089 3085 Pls
3768 3162 Pls
3529 3051 Pls
3738 3207 Pls
3529 3275 Pls
3529 3129 Pls
3127 3097 Pls
4342 3371 Pls
3119 2996 Pls
3737 3151 Pls
3649 3272 Pls
4343 3370 Pls
3768 3098 Pls
3422 3356 Pls
3654 3336 Pls
4104 3405 Pls
3432 3226 Pls
4047 3394 Pls
3431 3357 Pls
4104 3327 Pls
3768 3233 Pls
3529 3197 Pls
3640 3142 Pls
3879 3376 Pls
3544 3300 Pls
4104 3287 Pls
3616 3036 Pls
4343 3531 Pls
3184 3021 Pls
3912 3253 Pls
2880 2922 Pls
3640 3226 Pls
3529 3062 Pls
4047 3239 Pls
3640 3190 Pls
3919 3389 Pls
3529 3073 Pls
3193 3114 Pls
4047 3376 Pls
4104 3402 Pls
2769 3034 Pls
3824 3236 Pls
3768 3430 Pls
3919 3147 Pls
3768 3083 Pls
4047 3281 Pls
3237 3296 Pls
3393 3102 Pls
3768 2998 Pls
3696 3298 Pls
3424 3196 Pls
3919 3387 Pls
3919 3527 Pls
3640 3145 Pls
3638 3245 Pls
3640 3291 Pls
3616 3266 Pls
3767 3294 Pls
3768 3334 Pls
3331 3023 Pls
3529 3167 Pls
3529 3317 Pls
3344 3214 Pls
3767 3367 Pls
3331 3057 Pls
3511 3147 Pls
3738 3291 Pls
3904 3144 Pls
3768 3491 Pls
3919 3374 Pls
3896 3186 Pls
3640 3292 Pls
3696 3208 Pls
3768 3389 Pls
4158 3407 Pls
3919 3439 Pls
3463 3352 Pls
3432 3126 Pls
3768 3051 Pls
3825 3216 Pls
3738 3452 Pls
3483 3371 Pls
3919 3316 Pls
3768 3234 Pls
4047 3387 Pls
3431 3192 Pls
3640 3274 Pls
3879 3440 Pls
3738 3356 Pls
4047 3210 Pls
3649 3403 Pls
3640 3011 Pls
3878 3375 Pls
3768 3172 Pls
3344 3089 Pls
3919 3168 Pls
3303 3341 Pls
3768 3315 Pls
3193 3207 Pls
3768 3345 Pls
3414 3149 Pls
3065 3143 Pls
4528 3460 Pls
3640 3014 Pls
3876 3225 Pls
3919 3280 Pls
3432 3287 Pls
3240 3276 Pls
3617 3152 Pls
3919 3087 Pls
3919 3454 Pls
3919 3131 Pls
3393 3431 Pls
3529 3101 Pls
3834 3366 Pls
3511 3336 Pls
3529 3360 Pls
4104 3331 Pls
3254 3071 Pls
3640 3071 Pls
3529 3397 Pls
3878 3111 Pls
3919 3312 Pls
3825 3253 Pls
3919 3337 Pls
4104 3350 Pls
3511 3171 Pls
3919 3304 Pls
4253 3368 Pls
3919 3415 Pls
4104 3371 Pls
4383 3312 Pls
3529 3423 Pls
3640 3365 Pls
3617 3169 Pls
3878 3030 Pls
3768 3159 Pls
4104 3266 Pls
4104 3198 Pls
3393 3420 Pls
3768 3159 Pls
3640 3301 Pls
3879 3141 Pls
3110 3176 Pls
3768 3061 Pls
3416 2960 Pls
4343 3338 Pls
4104 3354 Pls
3649 3107 Pls
4047 3135 Pls
3134 3094 Pls
3617 3140 Pls
3768 3324 Pls
3344 3288 Pls
3919 3075 Pls
3696 3391 Pls
3265 2874 Pls
3825 3405 Pls
4104 3365 Pls
3529 3087 Pls
3432 3289 Pls
4343 3365 Pls
3343 3189 Pls
3529 3273 Pls
3738 3140 Pls
3649 3399 Pls
3640 3284 Pls
3344 3035 Pls
4104 3415 Pls
3519 3053 Pls
3432 3272 Pls
3432 3174 Pls
3640 3172 Pls
3344 3022 Pls
3640 3162 Pls
4104 3508 Pls
3768 3466 Pls
3768 3166 Pls
3919 3344 Pls
2920 3039 Pls
3288 2955 Pls
3640 3235 Pls
2781 3022 Pls
3342 2917 Pls
3767 3251 Pls
3529 3247 Pls
3065 3125 Pls
3127 3151 Pls
3450 3202 Pls
3344 3251 Pls
4104 3235 Pls
3271 2938 Pls
3919 3462 Pls
3768 3082 Pls
3768 3208 Pls
3768 3168 Pls
3768 3288 Pls
3919 3385 Pls
3768 3340 Pls
3192 3099 Pls
3432 2983 Pls
3265 2897 Pls
3649 3184 Pls
3617 3190 Pls
2598 2874 Pls
3767 3014 Pls
4342 3334 Pls
3184 3238 Pls
3640 3236 Pls
3919 3208 Pls
3601 3235 Pls
3737 3186 Pls
3265 2894 Pls
3640 3063 Pls
3878 3432 Pls
3265 3110 Pls
3919 3288 Pls
4104 3192 Pls
3529 3241 Pls
2940 2916 Pls
3393 3343 Pls
3601 3105 Pls
3583 3182 Pls
3265 3137 Pls
3529 3177 Pls
3640 3069 Pls
3919 3229 Pls
3047 3237 Pls
4255 3263 Pls
4104 3144 Pls
3768 3087 Pls
3056 2962 Pls
4104 3527 Pls
3919 3322 Pls
3825 3241 Pls
3254 3246 Pls
3768 3439 Pls
3193 3121 Pls
3450 3051 Pls
3504 3192 Pls
3919 3261 Pls
3767 3430 Pls
3344 3211 Pls
3265 3110 Pls
3640 3098 Pls
3640 3179 Pls
3529 3284 Pls
3576 3312 Pls
3344 3168 Pls
3529 3043 Pls
3640 3185 Pls
3768 3209 Pls
3616 3189 Pls
3583 3147 Pls
3529 3090 Pls
3879 3424 Pls
3768 3123 Pls
3768 3456 Pls
3640 3238 Pls
4255 3508 Pls
3193 3108 Pls
3528 3269 Pls
3193 3145 Pls
4104 3099 Pls
3529 3066 Pls
2898 3207 Pls
3919 3170 Pls
3344 3052 Pls
3312 3151 Pls
3510 3246 Pls
3344 3182 Pls
3616 3354 Pls
4047 3363 Pls
3431 3216 Pls
3528 3253 Pls
4104 3288 Pls
3696 3296 Pls
3550 3425 Pls
3768 3471 Pls
3640 3021 Pls
3919 3056 Pls
2872 2979 Pls
3529 3059 Pls
4104 3197 Pls
3483 3241 Pls
3431 3149 Pls
3583 3228 Pls
3768 3155 Pls
3640 3034 Pls
3127 3104 Pls
3738 3361 Pls
3878 3254 Pls
4158 3400 Pls
3483 3142 Pls
3640 3311 Pls
3431 3205 Pls
3344 3271 Pls
4343 3286 Pls
4383 3328 Pls
3640 3087 Pls
3574 3145 Pls
3265 3116 Pls
3529 3209 Pls
3953 3318 Pls
3737 3032 Pls
3583 3216 Pls
4255 3312 Pls
3640 3378 Pls
3529 3319 Pls
3237 3059 Pls
3432 3183 Pls
3879 3166 Pls
4104 3449 Pls
3511 3452 Pls
3483 3302 Pls
3878 3250 Pls
4045 3464 Pls
4064 3330 Pls
4104 3205 Pls
3008 3058 Pls
3768 3272 Pls
3738 3080 Pls
3825 3249 Pls
3529 3439 Pls
4104 3163 Pls
3529 3122 Pls
3529 3280 Pls
3919 3405 Pls
3144 3043 Pls
3416 3146 Pls
3616 2997 Pls
3510 3291 Pls
3529 2999 Pls
3344 3219 Pls
4104 3412 Pls
3919 3435 Pls
3919 3271 Pls
3264 3125 Pls
2938 2940 Pls
3819 3206 Pls
4104 3422 Pls
3416 3231 Pls
3738 3297 Pls
4255 3241 Pls
3344 3332 Pls
3919 3338 Pls
3640 3123 Pls
3640 3211 Pls
4255 3308 Pls
3184 3218 Pls
3696 3076 Pls
3649 3088 Pls
3511 3100 Pls
2848 3093 Pls
4255 3271 Pls
3529 3241 Pls
3529 2955 Pls
3640 3182 Pls
3392 3240 Pls
3432 3063 Pls
3640 3457 Pls
3768 3134 Pls
3919 3415 Pls
3106 2921 Pls
3288 2923 Pls
3768 3062 Pls
3768 3314 Pls
3738 3238 Pls
3431 3235 Pls
3529 3169 Pls
4104 3479 Pls
4157 3214 Pls
4047 3108 Pls
3529 3222 Pls
3343 3124 Pls
3504 3444 Pls
3767 3412 Pls
3344 2980 Pls
3640 3217 Pls
3510 3068 Pls
3582 3105 Pls
3344 3033 Pls
3640 3414 Pls
3825 3278 Pls
3058 2924 Pls
3767 3192 Pls
4104 3187 Pls
4255 3514 Pls
3640 3328 Pls
3640 3013 Pls
3416 2965 Pls
3640 3087 Pls
3344 2949 Pls
3639 3241 Pls
4047 3273 Pls
3640 3038 Pls
3432 3264 Pls
3127 2978 Pls
3481 3029 Pls
4343 3328 Pls
4104 3386 Pls
3919 3298 Pls
4104 3247 Pls
3879 3152 Pls
3919 3231 Pls
3919 3354 Pls
3529 3039 Pls
3265 3160 Pls
3904 3075 Pls
3768 3167 Pls
3768 3461 Pls
3529 3309 Pls
3737 3443 Pls
3640 2995 Pls
3544 3261 Pls
3529 3350 Pls
3919 3355 Pls
3630 3205 Pls
3738 2979 Pls
3237 2984 Pls
3344 3079 Pls
3529 3255 Pls
4104 3346 Pls
3192 3041 Pls
4104 3256 Pls
3640 3224 Pls
4158 3382 Pls
3332 3053 Pls
3768 3322 Pls
4343 3391 Pls
3738 3306 Pls
3919 3289 Pls
3768 3224 Pls
4047 3527 Pls
3640 3258 Pls
3529 3283 Pls
3254 3202 Pls
3529 3333 Pls
3529 3508 Pls
3432 3249 Pls
3768 3066 Pls
3919 3150 Pls
3416 3238 Pls
3529 3169 Pls
3640 3019 Pls
3768 3352 Pls
3640 3239 Pls
4047 3308 Pls
3529 3314 Pls
3919 3308 Pls
3919 3290 Pls
3169 3165 Pls
4104 3299 Pls
3431 3059 Pls
3695 3193 Pls
3976 3361 Pls
3046 2997 Pls
3529 3238 Pls
3529 2971 Pls
3976 3312 Pls
3640 3266 Pls
3193 3070 Pls
3450 3365 Pls
3976 3221 Pls
3825 3475 Pls
3529 3293 Pls
3431 3038 Pls
3768 3446 Pls
3058 3088 Pls
3834 3473 Pls
3254 3134 Pls
3300 3220 Pls
3768 3216 Pls
3825 3400 Pls
3311 3000 Pls
4255 3378 Pls
3768 3440 Pls
3919 3206 Pls
3919 3352 Pls
3529 3084 Pls
3529 3184 Pls
3344 3223 Pls
3529 3057 Pls
3879 3204 Pls
3767 3149 Pls
4343 3434 Pls
3264 2858 Pls
3768 3379 Pls
3264 3289 Pls
3768 3150 Pls
4342 3375 Pls
3511 3224 Pls
3649 3251 Pls
3640 3151 Pls
3159 3312 Pls
3341 3146 Pls
3640 3342 Pls
3768 3282 Pls
3767 3313 Pls
2958 2963 Pls
3919 3411 Pls
3483 2961 Pls
3529 2934 Pls
3879 3360 Pls
3264 3175 Pls
3767 3331 Pls
3919 3239 Pls
3344 3012 Pls
3431 3213 Pls
3617 3343 Pls
3834 3170 Pls
3693 3251 Pls
3344 2977 Pls
3344 3354 Pls
3002 3200 Pls
3919 3190 Pls
3617 3039 Pls
3879 3265 Pls
3919 3287 Pls
3919 3368 Pls
3640 3141 Pls
2801 3078 Pls
3825 3329 Pls
3431 3299 Pls
3529 3000 Pls
3919 3285 Pls
3529 3223 Pls
3432 3230 Pls
3919 3170 Pls
3529 3124 Pls
3193 3069 Pls
4064 3403 Pls
4047 3091 Pls
3312 3170 Pls
3738 3364 Pls
3638 3092 Pls
3640 3356 Pls
3919 3385 Pls
3193 3186 Pls
3065 2771 Pls
3919 3258 Pls
3617 3341 Pls
3529 3156 Pls
3265 3081 Pls
3483 3372 Pls
3062 3035 Pls
3638 3411 Pls
3344 3209 Pls
4047 3366 Pls
3768 3162 Pls
3528 3115 Pls
3511 3244 Pls
3529 3109 Pls
3825 3180 Pls
3529 3263 Pls
3768 3244 Pls
4342 3433 Pls
3768 3376 Pls
3919 3326 Pls
3450 3002 Pls
3738 3321 Pls
3768 3383 Pls
3768 3287 Pls
3335 3167 Pls
3127 3128 Pls
4343 3531 Pls
3640 3019 Pls
3640 3434 Pls
3432 3138 Pls
3510 3389 Pls
3511 3043 Pls
3768 3224 Pls
3432 3339 Pls
3878 3298 Pls
3529 3161 Pls
4343 3311 Pls
3084 2834 Pls
4104 3314 Pls
3343 3212 Pls
3344 3198 Pls
3344 3282 Pls
3640 3230 Pls
3768 3341 Pls
3332 3162 Pls
3834 3041 Pls
3767 3262 Pls
3529 3130 Pls
3768 3288 Pls
3265 3135 Pls
3193 3211 Pls
3640 3283 Pls
3169 2955 Pls
3872 3395 Pls
3879 3412 Pls
3527 3137 Pls
3919 3226 Pls
3648 3172 Pls
4104 3213 Pls
3529 3289 Pls
3601 3102 Pls
3529 3070 Pls
4064 3177 Pls
3768 3340 Pls
3825 3272 Pls
3335 2949 Pls
3879 3298 Pls
3640 3260 Pls
3696 3254 Pls
4104 3195 Pls
3529 3434 Pls
3919 3097 Pls
3919 3384 Pls
4104 3466 Pls
3919 3270 Pls
4104 3299 Pls
3178 3186 Pls
3344 3329 Pls
3919 3388 Pls
3639 3350 Pls
3768 3238 Pls
3640 3361 Pls
4343 3453 Pls
3193 2929 Pls
3696 3352 Pls
3879 3360 Pls
3432 3186 Pls
3529 3151 Pls
3640 3457 Pls
3768 3258 Pls
3193 3178 Pls
3738 3193 Pls
3768 3126 Pls
4104 3265 Pls
3193 3150 Pls
3879 3402 Pls
3422 3310 Pls
3483 3187 Pls
4104 3476 Pls
3432 3322 Pls
3529 3112 Pls
3975 3014 Pls
4343 3381 Pls
3431 3266 Pls
3616 3139 Pls
3639 3219 Pls
3919 3141 Pls
3525 3044 Pls
3878 3200 Pls
3768 3198 Pls
3510 3044 Pls
3738 3301 Pls
3380 2934 Pls
3184 3144 Pls
3640 3225 Pls
4528 3441 Pls
3529 2991 Pls
3768 3330 Pls
4104 3194 Pls
3768 3135 Pls
3431 3307 Pls
3768 3155 Pls
3432 3204 Pls
3640 3176 Pls
3432 3062 Pls
3768 3267 Pls
3617 3134 Pls
3768 3085 Pls
3904 3237 Pls
3616 3465 Pls
3640 3047 Pls
4343 3389 Pls
3696 3073 Pls
2849 2766 Pls
3657 3324 Pls
3616 3317 Pls
3432 3190 Pls
3416 3251 Pls
3640 3390 Pls
3614 3231 Pls
3640 3371 Pls
3879 3256 Pls
3919 3196 Pls
4104 3317 Pls
3309 3219 Pls
3768 3282 Pls
3768 3294 Pls
3265 3139 Pls
3943 3100 Pls
3919 3166 Pls
3919 3275 Pls
3529 3393 Pls
3511 3166 Pls
3331 3146 Pls
3640 3312 Pls
3640 3062 Pls
3265 3056 Pls
3432 3403 Pls
3976 3349 Pls
3694 2969 Pls
3127 3234 Pls
3237 3336 Pls
4104 3206 Pls
3919 3419 Pls
3768 3286 Pls
3768 3347 Pls
3976 3420 Pls
3416 3103 Pls
3393 3191 Pls
3529 3373 Pls
3655 3231 Pls
3768 3100 Pls
4047 3481 Pls
4104 3170 Pls
3431 3195 Pls
3603 3185 Pls
3344 3055 Pls
4104 3279 Pls
3529 3327 Pls
3137 2999 Pls
3416 3419 Pls
3768 3111 Pls
3583 3266 Pls
3169 3137 Pls
3640 3157 Pls
3976 3151 Pls
3411 3294 Pls
3904 3401 Pls
3234 2896 Pls
3240 3151 Pls
3216 3244 Pls
3184 3129 Pls
3768 3422 Pls
3260 3244 Pls
3919 3259 Pls
3237 2976 Pls
3640 3323 Pls
2898 3054 Pls
3344 3418 Pls
3184 3187 Pls
3768 3261 Pls
3193 3134 Pls
3919 3259 Pls
3601 3185 Pls
3032 2957 Pls
3834 3154 Pls
3768 3509 Pls
3695 3447 Pls
4255 3267 Pls
4047 3351 Pls
3431 3134 Pls
3768 3146 Pls
3696 3275 Pls
3878 3365 Pls
3616 3261 Pls
3919 3452 Pls
3768 3329 Pls
3511 3175 Pls
4104 3483 Pls
2958 3094 Pls
3919 3326 Pls
3344 3190 Pls
3233 3244 Pls
4255 3220 Pls
3640 3274 Pls
3768 3295 Pls
3483 3022 Pls
3640 3311 Pls
3919 3259 Pls
4342 3421 Pls
3640 3411 Pls
3919 3452 Pls
3617 3178 Pls
3919 3531 Pls
3767 3130 Pls
4343 3527 Pls
3617 3225 Pls
4255 3293 Pls
2964 2825 Pls
3919 3093 Pls
3617 3266 Pls
3768 3202 Pls
3688 3234 Pls
3089 3012 Pls
3344 3188 Pls
3193 3129 Pls
3483 3113 Pls
3919 3393 Pls
3640 3094 Pls
3976 3234 Pls
3432 3196 Pls
4342 3327 Pls
4528 3500 Pls
3640 3137 Pls
3617 3365 Pls
3696 3339 Pls
3768 3079 Pls
3767 3011 Pls
3687 3324 Pls
3768 3223 Pls
3209 3009 Pls
3529 3162 Pls
3344 3297 Pls
3878 3431 Pls
3432 2995 Pls
3529 3099 Pls
3617 3241 Pls
3768 3332 Pls
3768 3516 Pls
3432 2977 Pls
3768 3327 Pls
3126 3215 Pls
3919 3252 Pls
3553 3303 Pls
3344 3097 Pls
3344 3345 Pls
3393 2878 Pls
3264 3090 Pls
4047 3473 Pls
3640 3247 Pls
3344 2991 Pls
4158 3394 Pls
3639 3007 Pls
3617 3192 Pls
3529 3151 Pls
3768 3484 Pls
3825 3257 Pls
3768 3402 Pls
3483 3017 Pls
3001 3074 Pls
3640 3088 Pls
3529 2936 Pls
3871 3374 Pls
3919 3303 Pls
3583 3189 Pls
3768 3232 Pls
4047 3434 Pls
3919 3413 Pls
3303 3153 Pls
4104 3471 Pls
3919 3247 Pls
4104 3209 Pls
3825 3214 Pls
3738 3381 Pls
3640 3271 Pls
3919 3288 Pls
3976 3079 Pls
3529 3086 Pls
4343 3435 Pls
3583 3390 Pls
3344 3373 Pls
3767 3414 Pls
3344 3357 Pls
3767 3197 Pls
3216 3298 Pls
3193 3038 Pls
3392 3193 Pls
3058 3025 Pls
3288 3166 Pls
3879 3130 Pls
4104 3311 Pls
3432 3151 Pls
3117 3326 Pls
3738 3208 Pls
3065 2907 Pls
3483 3195 Pls
3583 3272 Pls
3432 3001 Pls
3768 3023 Pls
3126 3026 Pls
3008 3177 Pls
3738 3313 Pls
3768 3287 Pls
4104 3415 Pls
3549 3265 Pls
3583 3280 Pls
3529 3279 Pls
3529 3038 Pls
3344 3249 Pls
3919 3411 Pls
3432 3215 Pls
3431 3196 Pls
3640 3074 Pls
3640 3098 Pls
3529 3199 Pls
2623 2929 Pls
3432 3054 Pls
3265 3313 Pls
3126 3164 Pls
3344 3143 Pls
3640 3222 Pls
3483 3090 Pls
3287 3006 Pls
2717 2905 Pls
3875 3216 Pls
3432 3220 Pls
3640 3176 Pls
3344 3173 Pls
3416 3195 Pls
3529 3344 Pls
3344 3132 Pls
3919 3380 Pls
3344 2895 Pls
4103 3193 Pls
3919 3222 Pls
4343 3386 Pls
3738 3249 Pls
3529 3184 Pls
3919 3366 Pls
3919 3295 Pls
3616 3115 Pls
2843 2973 Pls
4104 3382 Pls
3554 3267 Pls
4158 3403 Pls
3768 3180 Pls
3432 3051 Pls
3583 3349 Pls
4046 3390 Pls
3344 3186 Pls
3504 3104 Pls
2990 3049 Pls
3483 3154 Pls
3737 3202 Pls
3768 3010 Pls
3583 3148 Pls
3738 3294 Pls
3768 3291 Pls
3383 3049 Pls
4104 3148 Pls
4104 3309 Pls
3265 3020 Pls
3432 3102 Pls
3431 3306 Pls
4103 3531 Pls
3529 3041 Pls
3768 3186 Pls
3919 3452 Pls
4047 3078 Pls
3511 3133 Pls
3265 3255 Pls
3529 3110 Pls
3344 3215 Pls
3432 3243 Pls
3365 3049 Pls
4104 3430 Pls
3919 3124 Pls
3529 3190 Pls
3529 3137 Pls
2693 2937 Pls
3919 3527 Pls
4343 3354 Pls
3529 3045 Pls
3529 3227 Pls
3768 3487 Pls
4047 3336 Pls
3127 3020 Pls
4104 3530 Pls
3617 3284 Pls
3432 3013 Pls
3879 3204 Pls
3919 3207 Pls
4528 3481 Pls
3768 3229 Pls
3640 3299 Pls
4104 3225 Pls
3976 3391 Pls
4047 3439 Pls
3695 3268 Pls
3919 3367 Pls
4104 3423 Pls
3768 3105 Pls
3450 3154 Pls
4104 3347 Pls
3344 3029 Pls
3917 3263 Pls
3344 3119 Pls
3738 3345 Pls
3422 3283 Pls
3117 2974 Pls
3264 3273 Pls
3768 3273 Pls
3738 3291 Pls
3344 3210 Pls
4158 3476 Pls
3265 2898 Pls
3919 3294 Pls
3407 3235 Pls
3765 3254 Pls
3084 2959 Pls
3431 3171 Pls
3332 3371 Pls
4104 3232 Pls
3616 3283 Pls
3529 3531 Pls
3344 3199 Pls
4047 3346 Pls
3265 3087 Pls
3193 3279 Pls
3529 3359 Pls
3529 3127 Pls
3640 3058 Pls
3184 3124 Pls
3768 3421 Pls
3640 3198 Pls
4157 3356 Pls
3416 3190 Pls
3265 3319 Pls
3265 3308 Pls
3737 3306 Pls
3976 3291 Pls
3431 3186 Pls
3432 3364 Pls
4158 3359 Pls
3898 3374 Pls
3976 3134 Pls
3416 3118 Pls
3768 3325 Pls
3919 3322 Pls
3640 3147 Pls
2519 2762 Pls
3767 3048 Pls
3431 3369 Pls
2867 2977 Pls
3344 2892 Pls
3639 3072 Pls
3696 3116 Pls
3617 3290 Pls
3344 3238 Pls
3768 3352 Pls
3192 3050 Pls
3265 3252 Pls
3639 3159 Pls
3265 3299 Pls
3538 3141 Pls
3127 3192 Pls
4343 3354 Pls
4104 3419 Pls
3483 3253 Pls
3919 3331 Pls
3432 3341 Pls
3768 3428 Pls
3183 2998 Pls
3919 3526 Pls
3878 3209 Pls
3265 3297 Pls
3696 3142 Pls
3640 3170 Pls
3483 3137 Pls
3431 3157 Pls
3738 3195 Pls
4104 3106 Pls
3288 2970 Pls
4047 3133 Pls
3529 2973 Pls
3422 3277 Pls
3529 3121 Pls
3032 3101 Pls
3768 3154 Pls
3184 3153 Pls
3640 3192 Pls
3640 3199 Pls
2911 3186 Pls
3768 3053 Pls
3616 3058 Pls
3503 3253 Pls
3312 2986 Pls
4047 3448 Pls
3616 3172 Pls
3695 3086 Pls
3310 2982 Pls
3416 3088 Pls
3768 3122 Pls
3640 3284 Pls
3380 3306 Pls
4104 3368 Pls
3304 3280 Pls
4104 3187 Pls
3529 3247 Pls
3453 3131 Pls
3768 3176 Pls
3270 3250 Pls
3640 3177 Pls
2904 3100 Pls
3483 3132 Pls
3008 2957 Pls
4158 3233 Pls
3919 3455 Pls
3640 3095 Pls
3528 3368 Pls
3529 3227 Pls
2966 3181 Pls
3431 3159 Pls
3450 3083 Pls
3265 3265 Pls
3431 3327 Pls
3640 3216 Pls
3879 3329 Pls
3919 3246 Pls
3431 3257 Pls
3640 3093 Pls
3768 3174 Pls
3416 3351 Pls
3344 3031 Pls
3432 3260 Pls
3768 3252 Pls
3529 3109 Pls
3919 3373 Pls
3767 3204 Pls
3821 2973 Pls
3976 3236 Pls
4158 3257 Pls
3344 3359 Pls
3193 2854 Pls
2756 3043 Pls
3431 3111 Pls
2868 2917 Pls
3918 3349 Pls
3432 3173 Pls
3416 3078 Pls
3768 3356 Pls
3640 3212 Pls
3649 3259 Pls
3432 2936 Pls
3695 3332 Pls
3919 3304 Pls
3768 3138 Pls
4104 3388 Pls
3432 3176 Pls
3768 3085 Pls
4047 3293 Pls
3089 2966 Pls
3193 2994 Pls
4104 3150 Pls
3919 3378 Pls
3919 3057 Pls
3768 3309 Pls
4047 3434 Pls
3768 3286 Pls
3529 3165 Pls
4104 3332 Pls
3616 3113 Pls
4104 3492 Pls
3116 3093 Pls
3432 3224 Pls
3583 3344 Pls
3768 3168 Pls
4104 3336 Pls
3265 3011 Pls
3640 3165 Pls
4104 3468 Pls
4252 3361 Pls
3640 3253 Pls
3768 3308 Pls
4255 3451 Pls
3919 3322 Pls
3529 3296 Pls
3529 3148 Pls
3640 3360 Pls
3432 3261 Pls
3529 3131 Pls
3175 3057 Pls
3640 3010 Pls
3768 3331 Pls
3919 3310 Pls
3299 2958 Pls
3483 3185 Pls
2949 3242 Pls
3431 3138 Pls
3455 3245 Pls
3919 3358 Pls
3529 3452 Pls
3879 3106 Pls
3768 3208 Pls
4104 3273 Pls
2904 3163 Pls
4047 3333 Pls
3696 3100 Pls
4343 3285 Pls
3254 3134 Pls
3640 3384 Pls
3919 3275 Pls
3640 3217 Pls
3529 3425 Pls
3878 3263 Pls
3617 3150 Pls
3768 3351 Pls
3529 3192 Pls
3422 3177 Pls
3483 3109 Pls
3193 3041 Pls
3617 3265 Pls
3184 3098 Pls
3976 3195 Pls
2853 3077 Pls
3711 3160 Pls
3126 2799 Pls
2807 2590 Pls
3047 2911 Pls
3265 3183 Pls
3216 3159 Pls
3617 3211 Pls
3526 3037 Pls
3344 3236 Pls
3768 3098 Pls
2813 3044 Pls
3768 3342 Pls
2914 3136 Pls
3768 3250 Pls
3528 2993 Pls
3711 3049 Pls
4104 3138 Pls
3825 3263 Pls
2954 3065 Pls
3529 3159 Pls
3768 3059 Pls
3640 3161 Pls
3583 3308 Pls
3640 3233 Pls
3344 3220 Pls
3432 3253 Pls
4343 3441 Pls
3344 3179 Pls
3768 3147 Pls
3529 3082 Pls
3976 3250 Pls
3767 3121 Pls
3768 3256 Pls
3640 3395 Pls
3265 3205 Pls
2845 3073 Pls
3582 3002 Pls
4047 3253 Pls
3738 3210 Pls
3127 3117 Pls
3904 3350 Pls
3640 3358 Pls
3738 3244 Pls
3617 3223 Pls
3254 3155 Pls
3344 2977 Pls
4528 3449 Pls
4104 3230 Pls
3529 3127 Pls
3193 2961 Pls
3919 3370 Pls
3416 3392 Pls
3640 3051 Pls
3529 3298 Pls
3344 3213 Pls
3768 3212 Pls
3529 3286 Pls
3529 3111 Pls
3640 3216 Pls
4158 3359 Pls
3428 3046 Pls
3118 3194 Pls
4157 3250 Pls
3344 2999 Pls
3767 3397 Pls
3332 3010 Pls
3432 3224 Pls
4104 3392 Pls
3429 3061 Pls
3919 3123 Pls
3529 3003 Pls
3529 3254 Pls
3529 3157 Pls
3601 3266 Pls
3738 3244 Pls
4047 3104 Pls
3825 3168 Pls
3768 3438 Pls
3287 3126 Pls
3919 3271 Pls
4047 3456 Pls
3919 3370 Pls
3344 3232 Pls
3344 3152 Pls
3976 3382 Pls
2939 2971 Pls
4103 3278 Pls
3766 3089 Pls
3169 3047 Pls
4047 3147 Pls
3508 3407 Pls
4255 3397 Pls
3432 3313 Pls
3084 2799 Pls
4047 3095 Pls
3768 3419 Pls
3640 3431 Pls
3640 3071 Pls
3509 3335 Pls
3768 3375 Pls
3919 3236 Pls
4064 3090 Pls
4342 3492 Pls
2766 2981 Pls
3877 3171 Pls
3047 3013 Pls
4104 3416 Pls
3737 3019 Pls
3768 3240 Pls
4255 3339 Pls
3428 3239 Pls
4104 3245 Pls
2991 2840 Pls
3119 3305 Pls
3640 3466 Pls
3919 3350 Pls
4104 3375 Pls
3768 3355 Pls
3640 3243 Pls
3919 3093 Pls
3919 3383 Pls
3737 2971 Pls
3640 3195 Pls
3065 2866 Pls
3034 3007 Pls
3432 3329 Pls
3738 3109 Pls
4104 3346 Pls
4255 3230 Pls
3344 3198 Pls
3640 3121 Pls
3878 3497 Pls
3431 3267 Pls
3919 3435 Pls
3640 3216 Pls
4255 3308 Pls
3529 2993 Pls
4158 3523 Pls
3617 3356 Pls
3738 3415 Pls
3640 3128 Pls
3640 3145 Pls
3583 3226 Pls
3768 3365 Pls
3344 3229 Pls
3640 3188 Pls
3432 3070 Pls
3312 3155 Pls
3738 3268 Pls
3312 3133 Pls
3344 3108 Pls
3876 3224 Pls
3738 3046 Pls
3919 3266 Pls
3183 3111 Pls
3919 3456 Pls
3265 3119 Pls
3768 3210 Pls
4343 3403 Pls
3507 3145 Pls
3529 3193 Pls
3529 3253 Pls
2795 3054 Pls
3919 3488 Pls
3335 3234 Pls
3768 3453 Pls
4047 3274 Pls
3919 3155 Pls
3919 3225 Pls
4104 3238 Pls
3529 3031 Pls
3639 3325 Pls
3431 2938 Pls
3919 3309 Pls
3393 2990 Pls
3976 3030 Pls
3342 3070 Pls
4143 3281 Pls
3065 2953 Pls
4343 3426 Pls
3529 2955 Pls
3640 3223 Pls
4343 3526 Pls
3601 3440 Pls
3432 3103 Pls
3143 2967 Pls
3265 3211 Pls
4104 3257 Pls
4104 3316 Pls
3904 3321 Pls
3919 3309 Pls
4343 3395 Pls
3510 3062 Pls
3432 3159 Pls
4104 3429 Pls
3364 3109 Pls
3640 2997 Pls
3768 3311 Pls
3265 3309 Pls
2796 2915 Pls
3768 3203 Pls
4064 3392 Pls
4343 3352 Pls
3919 3278 Pls
3768 3342 Pls
3738 3218 Pls
3825 3060 Pls
3312 3277 Pls
3193 3193 Pls
3617 3273 Pls
3344 3345 Pls
3168 2984 Pls
4104 3189 Pls
4343 3396 Pls
3640 3215 Pls
3265 3189 Pls
3768 3259 Pls
3617 3092 Pls
3768 3423 Pls
3529 3195 Pls
3918 3086 Pls
3254 3023 Pls
3265 2978 Pls
3529 3129 Pls
3528 3119 Pls
3640 3247 Pls
3183 3104 Pls
4104 3418 Pls
4255 3363 Pls
3822 3303 Pls
3529 3080 Pls
3640 3137 Pls
3431 3140 Pls
3825 3386 Pls
4255 3298 Pls
3919 3146 Pls
3529 3128 Pls
3919 3245 Pls
3311 3190 Pls
4343 3385 Pls
3265 2886 Pls
3529 3246 Pls
3312 3229 Pls
3640 3338 Pls
3344 3220 Pls
3416 3216 Pls
3904 3218 Pls
3116 3010 Pls
3640 3137 Pls
3265 3157 Pls
4047 3229 Pls
3640 3343 Pls
4104 3278 Pls
3416 3238 Pls
3510 3299 Pls
3529 3300 Pls
4525 3463 Pls
3768 3311 Pls
3529 3245 Pls
3511 3131 Pls
3425 3394 Pls
3344 3073 Pls
3640 3281 Pls
3529 3125 Pls
3529 2999 Pls
3705 3180 Pls
3344 3011 Pls
4104 3257 Pls
3640 3163 Pls
3919 3348 Pls
4047 3390 Pls
4047 3321 Pls
3919 3193 Pls
3737 3236 Pls
3312 3050 Pls
3601 3307 Pls
2823 2948 Pls
3029 3138 Pls
3738 3363 Pls
3696 3140 Pls
3501 3285 Pls
3919 3341 Pls
3919 3145 Pls
3529 3256 Pls
3768 3141 Pls
3696 3138 Pls
4104 3453 Pls
3640 3460 Pls
3768 3289 Pls
3825 3273 Pls
3768 3053 Pls
3265 3143 Pls
3768 3389 Pls
3416 3010 Pls
3065 3030 Pls
4343 3347 Pls
4104 3412 Pls
3640 3038 Pls
3919 3489 Pls
3768 3191 Pls
3878 3433 Pls
3167 3086 Pls
3768 3119 Pls
3127 3170 Pls
4158 3144 Pls
3511 3193 Pls
3640 3219 Pls
3431 2903 Pls
3529 3115 Pls
4104 3434 Pls
3737 3406 Pls
3126 3076 Pls
3432 3201 Pls
3431 3279 Pls
3193 3100 Pls
3879 3494 Pls
3640 3146 Pls
3879 3307 Pls
3193 3344 Pls
3617 3191 Pls
3768 3195 Pls
3768 3208 Pls
3344 2898 Pls
3976 3137 Pls
2939 3009 Pls
3919 3449 Pls
3640 3293 Pls
3655 3159 Pls
3365 3168 Pls
3768 3171 Pls
3432 3250 Pls
3335 3302 Pls
3216 3023 Pls
3640 3025 Pls
3529 2945 Pls
2856 3105 Pls
3265 3122 Pls
3543 3025 Pls
3640 3311 Pls
3344 3123 Pls
3189 3034 Pls
4046 3299 Pls
3265 2981 Pls
3636 3147 Pls
3344 3177 Pls
3768 3104 Pls
3768 3125 Pls
3312 3074 Pls
4104 3320 Pls
3529 3219 Pls
3879 3275 Pls
2801 2966 Pls
4104 3290 Pls
3529 3298 Pls
3265 3003 Pls
3655 3235 Pls
3193 2974 Pls
4104 3271 Pls
3314 3170 Pls
3640 3114 Pls
3432 3167 Pls
4158 3493 Pls
3768 3350 Pls
4104 3269 Pls
3483 3392 Pls
3919 3231 Pls
3332 3024 Pls
3738 3224 Pls
3649 3388 Pls
3768 3117 Pls
3259 2993 Pls
4255 3259 Pls
3193 3274 Pls
3640 3218 Pls
3344 3020 Pls
3919 3080 Pls
3261 3026 Pls
3879 3318 Pls
3429 3118 Pls
3919 3229 Pls
3254 3125 Pls
3825 3286 Pls
4104 3349 Pls
3583 3165 Pls
3976 3115 Pls
3192 3212 Pls
4104 3186 Pls
4253 3424 Pls
3919 3430 Pls
3265 3143 Pls
4047 3230 Pls
4104 3362 Pls
3768 3346 Pls
4104 3368 Pls
2989 3157 Pls
3695 3238 Pls
3768 3224 Pls
4104 3142 Pls
3344 3203 Pls
4047 3428 Pls
3529 3134 Pls
3583 3202 Pls
3504 3212 Pls
3640 3212 Pls
3919 3371 Pls
3768 3311 Pls
3919 3158 Pls
3393 3069 Pls
3878 3346 Pls
3265 3207 Pls
3919 3078 Pls
3768 3208 Pls
3640 3267 Pls
3919 3182 Pls
3878 3274 Pls
4104 3332 Pls
3510 3104 Pls
3640 3256 Pls
4343 3329 Pls
3919 3302 Pls
3431 2905 Pls
3431 3031 Pls
3918 3258 Pls
3254 3323 Pls
3976 3317 Pls
3919 3231 Pls
3432 3104 Pls
3240 3077 Pls
3365 3276 Pls
2857 3047 Pls
3511 3288 Pls
3919 3236 Pls
3529 3207 Pls
4158 3358 Pls
3640 3193 Pls
3265 3025 Pls
3529 2950 Pls
3649 3160 Pls
2756 3027 Pls
4158 3286 Pls
3126 3097 Pls
3529 3274 Pls
3344 3168 Pls
3768 3278 Pls
3344 3212 Pls
3416 3224 Pls
3767 3261 Pls
3738 3360 Pls
3768 3156 Pls
3919 3189 Pls
3343 3143 Pls
3529 3144 Pls
2878 2881 Pls
3529 3382 Pls
3583 3188 Pls
3008 2948 Pls
3432 2917 Pls
3529 3169 Pls
3529 3343 Pls
3312 3328 Pls
4255 3366 Pls
3919 3261 Pls
3383 3047 Pls
3529 3223 Pls
3877 3295 Pls
2899 3040 Pls
3288 3113 Pls
3878 3248 Pls
4104 3291 Pls
2759 3096 Pls
3640 3204 Pls
3878 3072 Pls
3510 3036 Pls
4103 3493 Pls
3640 3340 Pls
3416 3024 Pls
3510 3188 Pls
3233 3235 Pls
4157 3272 Pls
3332 3064 Pls
4343 3460 Pls
3193 3340 Pls
3919 3361 Pls
4047 3288 Pls
3878 3277 Pls
4104 3189 Pls
3332 3357 Pls
3583 3256 Pls
3209 3244 Pls
3450 3154 Pls
3192 2952 Pls
3529 3172 Pls
3265 3073 Pls
3919 3409 Pls
3766 3309 Pls
3529 3220 Pls
3529 3065 Pls
3255 3213 Pls
3150 3378 Pls
3178 3261 Pls
3529 3245 Pls
3432 3145 Pls
3767 3239 Pls
3483 3240 Pls
3344 3146 Pls
3344 3084 Pls
4158 3384 Pls
3529 3502 Pls
3601 3127 Pls
3879 3292 Pls
3107 3006 Pls
3738 3176 Pls
3640 3365 Pls
3640 3438 Pls
3084 2988 Pls
3332 3038 Pls
3393 3314 Pls
3976 3243 Pls
3331 3308 Pls
3919 3507 Pls
3480 3137 Pls
3638 3189 Pls
4104 3405 Pls
3070 3195 Pls
3738 3331 Pls
3365 3363 Pls
4104 3302 Pls
3768 3213 Pls
3738 3333 Pls
3919 3457 Pls
3768 3183 Pls
3529 3087 Pls
4158 3483 Pls
3254 3040 Pls
4047 3383 Pls
3432 3093 Pls
3432 3067 Pls
3431 3233 Pls
3768 3462 Pls
3265 3133 Pls
3303 3305 Pls
4343 3345 Pls
3919 3262 Pls
3919 3105 Pls
4104 3175 Pls
3450 3096 Pls
3768 3308 Pls
3768 3360 Pls
3696 3215 Pls
4104 3235 Pls
3976 3008 Pls
3919 3434 Pls
3431 3161 Pls
3768 3309 Pls
3767 3368 Pls
3430 3039 Pls
3529 3336 Pls
3919 3157 Pls
3529 3403 Pls
3768 3228 Pls
3640 3295 Pls
3768 3036 Pls
4255 3420 Pls
3193 3073 Pls
3528 3083 Pls
3510 3084 Pls
4047 3300 Pls
4255 3367 Pls
3431 3212 Pls
3254 3314 Pls
3193 3004 Pls
3895 3346 Pls
3432 3323 Pls
3768 3322 Pls
3976 3369 Pls
3738 3202 Pls
3046 3013 Pls
3919 3093 Pls
3919 3164 Pls
3919 3300 Pls
3432 3174 Pls
3510 2971 Pls
3529 3051 Pls
3265 3289 Pls
2948 2935 Pls
3511 3178 Pls
3510 3154 Pls
2997 3063 Pls
4104 3179 Pls
3529 3163 Pls
4104 3291 Pls
4104 3327 Pls
3126 2948 Pls
3265 2868 Pls
3878 3385 Pls
3834 3262 Pls
4104 3129 Pls
3332 3060 Pls
3265 3079 Pls
3919 3281 Pls
4104 3389 Pls
3878 3134 Pls
4046 3114 Pls
4104 3228 Pls
3768 3127 Pls
3432 3228 Pls
3529 3229 Pls
3768 3064 Pls
3919 3208 Pls
3265 3221 Pls
3193 3082 Pls
3344 3283 Pls
3510 3024 Pls
3834 3203 Pls
3416 3133 Pls
3529 3335 Pls
3601 3166 Pls
3768 3272 Pls
3193 3164 Pls
3878 3143 Pls
3030 3157 Pls
3529 3134 Pls
4255 3521 Pls
3768 3305 Pls
3768 3340 Pls
3768 3349 Pls
3825 3342 Pls
3768 3172 Pls
3265 3122 Pls
4104 3370 Pls
4047 3358 Pls
3919 3303 Pls
4104 3348 Pls
2904 3206 Pls
3127 3279 Pls
3529 3155 Pls
3768 3043 Pls
3640 3035 Pls
3265 3259 Pls
3529 3068 Pls
4343 3366 Pls
4255 3234 Pls
3529 3303 Pls
3640 3164 Pls
3529 3241 Pls
3976 3502 Pls
3976 3246 Pls
4104 3465 Pls
4104 3315 Pls
3264 3219 Pls
3629 3320 Pls
3463 3074 Pls
3529 3120 Pls
3064 2972 Pls
3583 3251 Pls
3238 2880 Pls
3919 3489 Pls
3919 3275 Pls
3392 2869 Pls
3288 3215 Pls
3877 3472 Pls
3529 3077 Pls
4047 3344 Pls
3602 3190 Pls
3919 3246 Pls
3544 3135 Pls
3529 3291 Pls
2949 2991 Pls
3768 3258 Pls
3640 3203 Pls
4343 3527 Pls
3544 2909 Pls
3331 3207 Pls
3344 3079 Pls
4046 3202 Pls
3738 3175 Pls
3432 3106 Pls
3768 3418 Pls
3432 3146 Pls
3640 3161 Pls
3335 3303 Pls
3825 3195 Pls
4343 3293 Pls
3737 3290 Pls
3237 2872 Pls
3416 3340 Pls
3432 3284 Pls
3450 3177 Pls
4047 3328 Pls
3768 3263 Pls
3529 3155 Pls
3416 3196 Pls
3462 3245 Pls
3640 3296 Pls
4047 3219 Pls
3768 3439 Pls
3344 3128 Pls
4047 3276 Pls
3601 3067 Pls
3738 3020 Pls
3878 3176 Pls
3184 3186 Pls
3768 3386 Pls
3738 3145 Pls
3264 3158 Pls
3768 3232 Pls
4104 3146 Pls
3640 3091 Pls
3338 3052 Pls
3504 3177 Pls
3919 3467 Pls
3919 3390 Pls
3919 3275 Pls
3768 3302 Pls
4047 3317 Pls
4104 3371 Pls
4104 3187 Pls
3529 3469 Pls
3768 3308 Pls
3825 3289 Pls
3919 3371 Pls
3768 3282 Pls
3616 3267 Pls
4047 3288 Pls
3265 3009 Pls
3529 3277 Pls
3834 3395 Pls
3768 3272 Pls
3738 3203 Pls
3640 3373 Pls
3335 3320 Pls
3529 2973 Pls
3638 3145 Pls
4047 3342 Pls
3311 3009 Pls
3432 3380 Pls
3450 3304 Pls
3640 3189 Pls
3065 3001 Pls
3768 3101 Pls
4104 3324 Pls
3432 3071 Pls
3738 3151 Pls
3738 3154 Pls
4343 3433 Pls
4047 3304 Pls
3431 3263 Pls
3919 3146 Pls
3768 3194 Pls
3640 3131 Pls
4047 3284 Pls
4104 3175 Pls
3640 3133 Pls
4255 3277 Pls
3616 3442 Pls
3768 3257 Pls
3640 3176 Pls
3904 3434 Pls
3918 3335 Pls
3919 3388 Pls
4104 3295 Pls
3640 3278 Pls
3919 3261 Pls
3737 3406 Pls
4104 3435 Pls
3617 3347 Pls
2941 2807 Pls
3768 3191 Pls
3529 3225 Pls
3919 3404 Pls
3640 3190 Pls
3511 3126 Pls
3344 3216 Pls
3617 3298 Pls
3265 2913 Pls
3919 3369 Pls
3432 3287 Pls
3919 3322 Pls
3432 3079 Pls
3768 3403 Pls
3767 3188 Pls
3529 3095 Pls
4104 3297 Pls
3432 3273 Pls
3344 3159 Pls
3415 2981 Pls
3919 3159 Pls
3879 3012 Pls
3169 3127 Pls
3768 3215 Pls
3640 3088 Pls
3583 3073 Pls
3431 3032 Pls
4104 3262 Pls
3455 2922 Pls
3331 3196 Pls
2940 2934 Pls
3711 3301 Pls
3450 3287 Pls
3878 3425 Pls
3431 3131 Pls
3583 3187 Pls
3768 3388 Pls
3639 3013 Pls
3344 3241 Pls
3483 3198 Pls
3768 3511 Pls
3529 3289 Pls
3768 3189 Pls
4104 3329 Pls
3878 3453 Pls
3416 3329 Pls
3834 3438 Pls
3738 3488 Pls
3696 3270 Pls
4047 3385 Pls
4047 3259 Pls
4104 3441 Pls
3601 3084 Pls
3919 3139 Pls
3919 3219 Pls
3237 3181 Pls
3768 3281 Pls
3116 3086 Pls
3432 3053 Pls
3529 3094 Pls
3640 3312 Pls
3976 3475 Pls
3265 3140 Pls
3711 3347 Pls
3511 3206 Pls
3737 3418 Pls
3071 3104 Pls
3768 3329 Pls
4104 3156 Pls
4104 3155 Pls
3640 3438 Pls
3432 3174 Pls
3482 3073 Pls
3737 3129 Pls
3919 3291 Pls
3583 3305 Pls
3432 2915 Pls
3529 3228 Pls
3639 3129 Pls
3332 3151 Pls
3768 3238 Pls
3265 3054 Pls
3738 3135 Pls
3976 3465 Pls
4255 3486 Pls
3415 3219 Pls
3640 3374 Pls
3529 3363 Pls
4104 3183 Pls
3640 3154 Pls
3919 3237 Pls
3919 3401 Pls
3879 3335 Pls
3918 3352 Pls
3617 3206 Pls
3640 3119 Pls
3064 3128 Pls
3919 3349 Pls
3344 3089 Pls
3768 3331 Pls
3640 3198 Pls
3640 3222 Pls
3919 3441 Pls
3738 3129 Pls
3344 3026 Pls
3344 3026 Pls
3879 3403 Pls
3032 2986 Pls
3529 3278 Pls
3919 3416 Pls
3529 3276 Pls
3919 3056 Pls
3544 3253 Pls
3617 3193 Pls
4047 3217 Pls
2978 3078 Pls
3483 3098 Pls
3414 3112 Pls
3640 2999 Pls
3768 3319 Pls
4343 3355 Pls
3834 3439 Pls
3710 3262 Pls
3272 3174 Pls
3640 3311 Pls
3265 3105 Pls
3529 3120 Pls
3879 3132 Pls
3919 3108 Pls
3616 3070 Pls
3919 3253 Pls
3344 3092 Pls
3768 3104 Pls
3529 3295 Pls
3919 3156 Pls
3738 3296 Pls
3919 3164 Pls
3260 3035 Pls
3126 3227 Pls
3640 3072 Pls
3640 3224 Pls
3919 3388 Pls
3879 3315 Pls
3640 3182 Pls
3639 3284 Pls
3529 3046 Pls
4064 3367 Pls
3696 3315 Pls
3511 3269 Pls
3919 3475 Pls
4255 3266 Pls
3731 3062 Pls
3037 3151 Pls
3640 3342 Pls
3768 3160 Pls
3265 3032 Pls
4104 3112 Pls
3768 3360 Pls
3104 2838 Pls
3919 3452 Pls
3919 3180 Pls
3432 3398 Pls
3976 3048 Pls
3616 3037 Pls
3511 3134 Pls
3332 3242 Pls
3503 3356 Pls
3450 2888 Pls
3879 3062 Pls
3768 3012 Pls
3383 3023 Pls
4047 3107 Pls
3919 3405 Pls
3511 3291 Pls
3640 3121 Pls
3344 3325 Pls
3640 3349 Pls
3431 3132 Pls
4343 3322 Pls
3265 3187 Pls
3640 3245 Pls
3768 3179 Pls
3640 3321 Pls
3768 3510 Pls
3529 3312 Pls
3503 3252 Pls
3529 3322 Pls
3432 3015 Pls
3640 3247 Pls
3768 3256 Pls
3738 3226 Pls
3344 3162 Pls
3432 3085 Pls
3272 3108 Pls
3343 3356 Pls
3738 2971 Pls
4047 3433 Pls
3640 3173 Pls
3768 3298 Pls
3640 3089 Pls
3312 3150 Pls
4104 3382 Pls
3738 3264 Pls
3617 2999 Pls
3304 3350 Pls
3393 3181 Pls
3344 3260 Pls
3529 3325 Pls
3521 3388 Pls
3427 3017 Pls
4104 3210 Pls
3511 3351 Pls
4343 3373 Pls
3432 3273 Pls
3919 3214 Pls
2954 2944 Pls
3344 3096 Pls
3640 3030 Pls
3008 3240 Pls
3237 2982 Pls
3397 3224 Pls
3529 2931 Pls
3919 3286 Pls
3768 3087 Pls
3344 3100 Pls
3529 3311 Pls
3655 3267 Pls
4255 3234 Pls
3879 3494 Pls
3529 3142 Pls
4343 3307 Pls
3640 3163 Pls
3432 3266 Pls
3450 3145 Pls
3768 3179 Pls
3529 3259 Pls
3737 3351 Pls
3640 3143 Pls
3919 3123 Pls
3878 3390 Pls
3344 2999 Pls
3344 3104 Pls
3640 3212 Pls
3583 3137 Pls
3640 3417 Pls
4143 3177 Pls
3529 3102 Pls
2751 2926 Pls
3878 3192 Pls
4343 3450 Pls
3919 3323 Pls
3554 3289 Pls
4104 3342 Pls
3529 2930 Pls
3825 3058 Pls
3753 3109 Pls
3919 3247 Pls
3649 3161 Pls
3463 3091 Pls
3504 3181 Pls
3416 3250 Pls
4047 3129 Pls
3265 3122 Pls
3768 3431 Pls
3738 3433 Pls
3105 3151 Pls
3529 2927 Pls
3529 3108 Pls
3579 2897 Pls
3919 3100 Pls
3616 3239 Pls
3508 3263 Pls
3768 3163 Pls
3254 3096 Pls
3216 3035 Pls
3878 3106 Pls
3919 3222 Pls
3878 3369 Pls
3918 3209 Pls
3640 3362 Pls
4104 3227 Pls
3529 3091 Pls
3482 2891 Pls
3583 3177 Pls
3309 3263 Pls
3737 3137 Pls
2895 2831 Pls
3504 3427 Pls
3640 3196 Pls
4383 3371 Pls
3768 3162 Pls
3879 3158 Pls
3825 3222 Pls
3879 3317 Pls
3768 3276 Pls
3431 3032 Pls
3768 3167 Pls
3640 3084 Pls
3768 3278 Pls
3432 3121 Pls
4063 3294 Pls
4104 3357 Pls
3919 3115 Pls
3879 3516 Pls
3640 3126 Pls
4104 3304 Pls
3919 3381 Pls
3344 3249 Pls
3767 3442 Pls
3919 3295 Pls
3903 3448 Pls
3696 3227 Pls
3193 3077 Pls
3738 3343 Pls
3331 3163 Pls
4255 3343 Pls
3616 2932 Pls
3216 3073 Pls
3344 3022 Pls
4158 3431 Pls
3919 3305 Pls
3640 3380 Pls
4343 3282 Pls
3529 3350 Pls
3265 3134 Pls
3529 3128 Pls
3825 3133 Pls
2899 3015 Pls
3738 3118 Pls
3126 3138 Pls
3311 3060 Pls
3529 3260 Pls
3331 3160 Pls
3640 3099 Pls
3432 3115 Pls
3344 2969 Pls
3919 3463 Pls
2933 2938 Pls
3432 3340 Pls
3768 3395 Pls
3463 3202 Pls
3768 3350 Pls
3640 3249 Pls
4104 3528 Pls
3640 3325 Pls
3257 3082 Pls
4527 3446 Pls
3193 3177 Pls
3919 3170 Pls
3529 3238 Pls
3216 3075 Pls
3415 3377 Pls
4103 3469 Pls
3737 2990 Pls
3344 3121 Pls
3089 3129 Pls
3583 3186 Pls
3649 3460 Pls
4104 3372 Pls
3552 3263 Pls
3254 3098 Pls
3834 3267 Pls
3649 3390 Pls
3919 3227 Pls
3768 3373 Pls
4104 3334 Pls
3768 3183 Pls
4342 3460 Pls
3640 3308 Pls
3768 3135 Pls
3617 3476 Pls
3798 3177 Pls
3583 3359 Pls
3216 2806 Pls
3768 3287 Pls
3640 3061 Pls
3510 3068 Pls
4047 3462 Pls
3331 3092 Pls
3919 3137 Pls
3463 3252 Pls
3511 3196 Pls
4104 3251 Pls
3768 3220 Pls
3919 3083 Pls
3640 3421 Pls
4103 3181 Pls
3393 3218 Pls
3511 3023 Pls
3768 3310 Pls
3919 3361 Pls
3193 3162 Pls
3879 3313 Pls
3432 3307 Pls
2877 2994 Pls
3825 3087 Pls
3529 3258 Pls
3431 3212 Pls
3615 3140 Pls
3265 2967 Pls
4255 3455 Pls
3768 3231 Pls
3640 3116 Pls
2892 3085 Pls
3288 3106 Pls
4104 3437 Pls
3432 3266 Pls
3008 3153 Pls
4047 3221 Pls
3126 3217 Pls
3616 3264 Pls
3825 3370 Pls
3344 3114 Pls
3432 3143 Pls
3919 3301 Pls
3696 3272 Pls
3768 3312 Pls
3431 3090 Pls
3919 3434 Pls
3919 3242 Pls
3432 3200 Pls
3768 3151 Pls
3265 3061 Pls
4158 3468 Pls
4104 3478 Pls
4104 3451 Pls
3344 3106 Pls
3432 3066 Pls
3344 2913 Pls
3429 3209 Pls
4383 3385 Pls
3342 3199 Pls
4255 3288 Pls
4383 3463 Pls
3617 3101 Pls
3768 3463 Pls
3216 3159 Pls
2904 3013 Pls
3904 3488 Pls
3768 3245 Pls
3344 3061 Pls
3416 3205 Pls
3358 3096 Pls
3344 3316 Pls
3878 3314 Pls
3879 3464 Pls
3116 2996 Pls
4047 3114 Pls
2958 2963 Pls
2985 3004 Pls
3529 3284 Pls
3821 3404 Pls
3976 3275 Pls
3879 3223 Pls
3482 3319 Pls
3640 3257 Pls
3380 3167 Pls
3529 3176 Pls
3616 3269 Pls
2171 2709 Pls
3737 3028 Pls
3482 3106 Pls
3738 3229 Pls
3738 3286 Pls
3878 3215 Pls
3583 3072 Pls
3432 3235 Pls
3261 3213 Pls
3344 3041 Pls
3529 3371 Pls
3919 3274 Pls
3768 3050 Pls
3529 3274 Pls
3432 3285 Pls
3768 3150 Pls
4255 3298 Pls
3768 3246 Pls
3119 3072 Pls
3919 3139 Pls
4255 3272 Pls
3582 3283 Pls
3193 3365 Pls
3640 3344 Pls
3344 3307 Pls
4047 3204 Pls
3529 3164 Pls
3344 3341 Pls
3511 3302 Pls
3768 3385 Pls
3616 3262 Pls
3058 3088 Pls
3825 3252 Pls
3737 3176 Pls
3639 3298 Pls
3529 3353 Pls
3617 3191 Pls
3640 3363 Pls
3431 3332 Pls
3919 3403 Pls
3511 3078 Pls
3919 3271 Pls
4343 3465 Pls
3768 3209 Pls
3919 3413 Pls
3738 3143 Pls
3640 3289 Pls
3504 3045 Pls
3169 2891 Pls
4343 3388 Pls
4104 3290 Pls
3768 3346 Pls
3738 3191 Pls
3193 3103 Pls
3768 3149 Pls
3422 3248 Pls
3879 3312 Pls
3768 3320 Pls
3193 2950 Pls
4047 3419 Pls
3529 3316 Pls
3529 3028 Pls
3510 3026 Pls
3917 3306 Pls
3344 3220 Pls
3640 3042 Pls
3879 3069 Pls
3711 3130 Pls
3416 3060 Pls
3529 3215 Pls
3504 3056 Pls
3529 3043 Pls
3640 3388 Pls
3696 2931 Pls
3237 2988 Pls
4343 3409 Pls
3753 3220 Pls
3919 3429 Pls
3825 3166 Pls
3919 3407 Pls
4343 3487 Pls
3582 3308 Pls
3529 3229 Pls
3344 3042 Pls
4047 3089 Pls
3365 3276 Pls
3343 3061 Pls
4047 3337 Pls
3878 3318 Pls
3265 3265 Pls
3148 3360 Pls
3879 3356 Pls
3879 3264 Pls
4104 3318 Pls
3834 3341 Pls
4064 3404 Pls
3879 3125 Pls
3768 3183 Pls
3705 3326 Pls
3768 3121 Pls
3431 2937 Pls
2857 3170 Pls
4104 3212 Pls
4158 3298 Pls
3583 3264 Pls
3976 3444 Pls
3640 3062 Pls
4343 3432 Pls
3738 3395 Pls
3265 3032 Pls
3529 3366 Pls
3193 3137 Pls
3738 3390 Pls
3529 3061 Pls
3919 3365 Pls
3640 3257 Pls
3529 3278 Pls
3640 3473 Pls
3254 3118 Pls
4255 3454 Pls
3344 3237 Pls
3431 3151 Pls
3127 3090 Pls
3768 3160 Pls
4104 3242 Pls
3450 3165 Pls
3768 3300 Pls
3768 3207 Pls
3215 3232 Pls
3617 3115 Pls
3768 3264 Pls
3737 3146 Pls
3529 3156 Pls
3193 2946 Pls
3896 3136 Pls
3529 3123 Pls
3504 2846 Pls
4343 3430 Pls
3768 3247 Pls
3511 3096 Pls
3431 3225 Pls
3365 3023 Pls
3261 3223 Pls
3381 3226 Pls
3463 3239 Pls
3528 3209 Pls
4255 3238 Pls
3738 3380 Pls
3431 3242 Pls
3701 3322 Pls
3529 3163 Pls
3768 3293 Pls
3529 3053 Pls
3877 3222 Pls
3640 3373 Pls
3878 3429 Pls
4104 3125 Pls
4047 3308 Pls
3583 3266 Pls
3529 3295 Pls
3696 3086 Pls
3976 3280 Pls
3416 3233 Pls
3825 3472 Pls
3879 3274 Pls
4047 3337 Pls
3768 3123 Pls
3431 3276 Pls
3216 3066 Pls
3640 3344 Pls
3640 3457 Pls
3919 3276 Pls
3904 3324 Pls
3529 3222 Pls
3696 3325 Pls
3430 3029 Pls
3237 3297 Pls
3711 3163 Pls
3193 3070 Pls
3416 3007 Pls
4047 3401 Pls
3695 2947 Pls
3617 3069 Pls
4343 3502 Pls
3508 3266 Pls
4104 3286 Pls
3184 3027 Pls
3919 3460 Pls
3416 3264 Pls
3528 3125 Pls
3640 3275 Pls
3617 3081 Pls
4157 3342 Pls
3919 3244 Pls
2856 3072 Pls
4343 3330 Pls
4104 3486 Pls
2954 2995 Pls
4255 3307 Pls
3344 3250 Pls
4047 3313 Pls
3640 3239 Pls
4343 3290 Pls
3183 3107 Pls
3878 3153 Pls
3265 3201 Pls
3344 3166 Pls
3768 3297 Pls
3768 3267 Pls
3919 3368 Pls
3216 3147 Pls
3768 3182 Pls
3976 3388 Pls
3976 3177 Pls
3311 3012 Pls
3878 3193 Pls
3431 3120 Pls
3919 3202 Pls
3431 3285 Pls
3008 3110 Pls
3738 3176 Pls
3216 3058 Pls
3431 2984 Pls
3919 3139 Pls
3617 3230 Pls
3265 3293 Pls
3529 3280 Pls
3904 3382 Pls
3695 3427 Pls
3738 3408 Pls
3640 3101 Pls
3344 3315 Pls
3431 3082 Pls
3640 3202 Pls
3919 3110 Pls
4103 3414 Pls
3879 3258 Pls
3529 3275 Pls
3529 3201 Pls
3529 3319 Pls
4047 3099 Pls
3825 3227 Pls
3264 3322 Pls
2963 3064 Pls
4047 3065 Pls
3529 3181 Pls
3331 3318 Pls
3416 3121 Pls
3529 3230 Pls
3528 3355 Pls
% End plot #1
% Begin plot #2
0.500 UP
0.500 UL
LTb
0.73 0.85 0.33 C 4679 3324 Crs
4679 3481 Crs
4679 3439 Crs
4528 3354 Crs
4343 3274 Crs
4383 3298 Crs
4383 3087 Crs
4528 3278 Crs
4677 3495 Crs
4255 3097 Crs
4343 3123 Crs
4679 3455 Crs
4104 3086 Crs
4528 3339 Crs
4157 3101 Crs
4255 3156 Crs
4255 3191 Crs
4343 3273 Crs
4340 3175 Crs
4679 3409 Crs
4341 3124 Crs
4526 3209 Crs
4679 3373 Crs
4343 3234 Crs
4679 3449 Crs
4343 3161 Crs
4255 3127 Crs
4343 3195 Crs
4383 3263 Crs
4528 3214 Crs
4493 3275 Crs
4679 3273 Crs
4064 3002 Crs
4255 3197 Crs
4383 3304 Crs
4255 3115 Crs
4104 3086 Crs
4255 3125 Crs
4343 3275 Crs
4101 3089 Crs
4528 3276 Crs
4679 3300 Crs
4343 3266 Crs
4528 3405 Crs
4679 3328 Crs
4679 3526 Crs
4343 3163 Crs
4679 3207 Crs
4343 3265 Crs
4679 3330 Crs
4255 3177 Crs
4343 3216 Crs
4047 3048 Crs
4343 3158 Crs
4679 3371 Crs
4343 3172 Crs
4157 3041 Crs
4679 3250 Crs
4679 3383 Crs
4679 3273 Crs
4679 3480 Crs
4383 3056 Crs
4255 3192 Crs
4143 3087 Crs
4343 3191 Crs
4255 3078 Crs
4679 3273 Crs
4679 3526 Crs
4383 3211 Crs
4679 3385 Crs
4679 3502 Crs
4679 3413 Crs
4383 3298 Crs
4343 3199 Crs
4679 3416 Crs
4679 3372 Crs
4343 3272 Crs
4104 3077 Crs
4255 3201 Crs
4679 3402 Crs
4528 3295 Crs
4343 3195 Crs
4104 3094 Crs
4383 3079 Crs
4158 3063 Crs
4679 3301 Crs
4528 3216 Crs
4679 3237 Crs
4342 3159 Crs
4343 3249 Crs
4343 3233 Crs
4679 3333 Crs
4255 3198 Crs
4679 3194 Crs
4527 3348 Crs
4343 3272 Crs
4679 3281 Crs
4679 3463 Crs
4343 3267 Crs
4527 3240 Crs
4383 3270 Crs
4255 3189 Crs
4255 3182 Crs
4679 3504 Crs
4342 3167 Crs
4679 3464 Crs
4343 3219 Crs
4255 3083 Crs
4679 3445 Crs
4679 3497 Crs
4158 3136 Crs
4343 3194 Crs
4527 3340 Crs
4679 3321 Crs
4527 3306 Crs
4679 3391 Crs
4255 3177 Crs
4528 3124 Crs
4383 3209 Crs
4383 3134 Crs
4343 3193 Crs
4255 3196 Crs
4246 3177 Crs
4343 3127 Crs
% End plot #2
% Begin plot #3
1.000 UL
LTb
LT1
0.75 0.75 0.75 C 2171 1633 M
26 19 V
25 19 V
25 19 V
26 19 V
25 20 V
25 19 V
26 19 V
25 19 V
25 19 V
26 19 V
25 20 V
25 19 V
26 19 V
25 19 V
25 19 V
26 20 V
25 19 V
25 19 V
26 19 V
25 19 V
25 19 V
26 20 V
25 19 V
25 19 V
26 19 V
25 19 V
25 19 V
26 20 V
25 19 V
25 19 V
26 19 V
25 19 V
25 19 V
26 20 V
25 19 V
25 19 V
26 19 V
25 19 V
25 20 V
26 19 V
25 19 V
25 19 V
26 19 V
25 19 V
25 20 V
26 19 V
25 19 V
25 19 V
26 19 V
25 19 V
25 20 V
26 19 V
25 19 V
25 19 V
26 19 V
25 20 V
25 19 V
26 19 V
25 19 V
25 19 V
25 19 V
26 20 V
25 19 V
25 19 V
26 19 V
25 19 V
25 19 V
26 20 V
25 19 V
25 19 V
26 19 V
25 19 V
25 19 V
26 20 V
25 19 V
25 19 V
26 19 V
25 19 V
25 20 V
26 19 V
25 19 V
25 19 V
26 19 V
25 19 V
25 20 V
26 19 V
25 19 V
25 19 V
26 19 V
25 19 V
25 20 V
26 19 V
25 19 V
25 19 V
26 19 V
25 19 V
25 20 V
26 19 V
25 19 V
% End plot #3
stroke
2.000 UL
LTb
LCb setrgbcolor
1.000 UL
LTb
LCb setrgbcolor
860 3531 N
860 640 L
3819 0 V
0 2891 V
-3819 0 V
Z stroke
0.500 UP
1.000 UL
LTb
LCb setrgbcolor
stroke
grestore
end
showpage
%%Trailer
%%DocumentFonts: Helvetica
