%!PS-Adobe-2.0 EPSF-2.0
%%Title: mean.eps
%%Creator: gnuplot 5.0 patchlevel 1
%%CreationDate: Fri Oct 30 18:57:08 2015
%%DocumentFonts: (atend)
%%BoundingBox: 50 50 302 238
%%EndComments
%%BeginProlog
/gnudict 256 dict def
gnudict begin
%
% The following true/false flags may be edited by hand if desired.
% The unit line width and grayscale image gamma correction may also be changed.
%
/Color true def
/Blacktext false def
/Solid false def
/Dashlength 1 def
/Landscape false def
/Level1 false def
/Level3 false def
/Rounded false def
/ClipToBoundingBox false def
/SuppressPDFMark false def
/TransparentPatterns false def
/gnulinewidth 5.000 def
/userlinewidth gnulinewidth def
/Gamma 1.0 def
/BackgroundColor {-1.000 -1.000 -1.000} def
%
/vshift -66 def
/dl1 {
  10.0 Dashlength userlinewidth gnulinewidth div mul mul mul
  Rounded { currentlinewidth 0.75 mul sub dup 0 le { pop 0.01 } if } if
} def
/dl2 {
  10.0 Dashlength userlinewidth gnulinewidth div mul mul mul
  Rounded { currentlinewidth 0.75 mul add } if
} def
/hpt_ 31.5 def
/vpt_ 31.5 def
/hpt hpt_ def
/vpt vpt_ def
/doclip {
  ClipToBoundingBox {
    newpath 50 50 moveto 302 50 lineto 302 238 lineto 50 238 lineto closepath
    clip
  } if
} def
%
% Gnuplot Prolog Version 5.0 (Dec 2014)
%
%/SuppressPDFMark true def
%
/M {moveto} bind def
/L {lineto} bind def
/R {rmoveto} bind def
/V {rlineto} bind def
/N {newpath moveto} bind def
/Z {closepath} bind def
/C {setrgbcolor} bind def
/f {rlineto fill} bind def
/g {setgray} bind def
/Gshow {show} def   % May be redefined later in the file to support UTF-8
/vpt2 vpt 2 mul def
/hpt2 hpt 2 mul def
/Lshow {currentpoint stroke M 0 vshift R 
	Blacktext {gsave 0 setgray textshow grestore} {textshow} ifelse} def
/Rshow {currentpoint stroke M dup stringwidth pop neg vshift R
	Blacktext {gsave 0 setgray textshow grestore} {textshow} ifelse} def
/Cshow {currentpoint stroke M dup stringwidth pop -2 div vshift R 
	Blacktext {gsave 0 setgray textshow grestore} {textshow} ifelse} def
/UP {dup vpt_ mul /vpt exch def hpt_ mul /hpt exch def
  /hpt2 hpt 2 mul def /vpt2 vpt 2 mul def} def
/DL {Color {setrgbcolor Solid {pop []} if 0 setdash}
 {pop pop pop 0 setgray Solid {pop []} if 0 setdash} ifelse} def
/BL {stroke userlinewidth 2 mul setlinewidth
	Rounded {1 setlinejoin 1 setlinecap} if} def
/AL {stroke userlinewidth 2 div setlinewidth
	Rounded {1 setlinejoin 1 setlinecap} if} def
/UL {dup gnulinewidth mul /userlinewidth exch def
	dup 1 lt {pop 1} if 10 mul /udl exch def} def
/PL {stroke userlinewidth setlinewidth
	Rounded {1 setlinejoin 1 setlinecap} if} def
3.8 setmiterlimit
% Classic Line colors (version 5.0)
/LCw {1 1 1} def
/LCb {0 0 0} def
/LCa {0 0 0} def
/LC0 {1 0 0} def
/LC1 {0 1 0} def
/LC2 {0 0 1} def
/LC3 {1 0 1} def
/LC4 {0 1 1} def
/LC5 {1 1 0} def
/LC6 {0 0 0} def
/LC7 {1 0.3 0} def
/LC8 {0.5 0.5 0.5} def
% Default dash patterns (version 5.0)
/LTw {PL [] 1 setgray} def
/LTb {BL [] LCb DL} def
/LTa {AL [1 udl mul 2 udl mul] 0 setdash LCa setrgbcolor} def
/LT0 {PL [] LC0 DL} def
/LT1 {PL [2 dl1 3 dl2] LC1 DL} def
/LT2 {PL [1 dl1 1.5 dl2] LC2 DL} def
/LT3 {PL [6 dl1 2 dl2 1 dl1 2 dl2] LC3 DL} def
/LT4 {PL [1 dl1 2 dl2 6 dl1 2 dl2 1 dl1 2 dl2] LC4 DL} def
/LT5 {PL [4 dl1 2 dl2] LC5 DL} def
/LT6 {PL [1.5 dl1 1.5 dl2 1.5 dl1 1.5 dl2 1.5 dl1 6 dl2] LC6 DL} def
/LT7 {PL [3 dl1 3 dl2 1 dl1 3 dl2] LC7 DL} def
/LT8 {PL [2 dl1 2 dl2 2 dl1 6 dl2] LC8 DL} def
/SL {[] 0 setdash} def
/Pnt {stroke [] 0 setdash gsave 1 setlinecap M 0 0 V stroke grestore} def
/Dia {stroke [] 0 setdash 2 copy vpt add M
  hpt neg vpt neg V hpt vpt neg V
  hpt vpt V hpt neg vpt V closepath stroke
  Pnt} def
/Pls {stroke [] 0 setdash vpt sub M 0 vpt2 V
  currentpoint stroke M
  hpt neg vpt neg R hpt2 0 V stroke
 } def
/Box {stroke [] 0 setdash 2 copy exch hpt sub exch vpt add M
  0 vpt2 neg V hpt2 0 V 0 vpt2 V
  hpt2 neg 0 V closepath stroke
  Pnt} def
/Crs {stroke [] 0 setdash exch hpt sub exch vpt add M
  hpt2 vpt2 neg V currentpoint stroke M
  hpt2 neg 0 R hpt2 vpt2 V stroke} def
/TriU {stroke [] 0 setdash 2 copy vpt 1.12 mul add M
  hpt neg vpt -1.62 mul V
  hpt 2 mul 0 V
  hpt neg vpt 1.62 mul V closepath stroke
  Pnt} def
/Star {2 copy Pls Crs} def
/BoxF {stroke [] 0 setdash exch hpt sub exch vpt add M
  0 vpt2 neg V hpt2 0 V 0 vpt2 V
  hpt2 neg 0 V closepath fill} def
/TriUF {stroke [] 0 setdash vpt 1.12 mul add M
  hpt neg vpt -1.62 mul V
  hpt 2 mul 0 V
  hpt neg vpt 1.62 mul V closepath fill} def
/TriD {stroke [] 0 setdash 2 copy vpt 1.12 mul sub M
  hpt neg vpt 1.62 mul V
  hpt 2 mul 0 V
  hpt neg vpt -1.62 mul V closepath stroke
  Pnt} def
/TriDF {stroke [] 0 setdash vpt 1.12 mul sub M
  hpt neg vpt 1.62 mul V
  hpt 2 mul 0 V
  hpt neg vpt -1.62 mul V closepath fill} def
/DiaF {stroke [] 0 setdash vpt add M
  hpt neg vpt neg V hpt vpt neg V
  hpt vpt V hpt neg vpt V closepath fill} def
/Pent {stroke [] 0 setdash 2 copy gsave
  translate 0 hpt M 4 {72 rotate 0 hpt L} repeat
  closepath stroke grestore Pnt} def
/PentF {stroke [] 0 setdash gsave
  translate 0 hpt M 4 {72 rotate 0 hpt L} repeat
  closepath fill grestore} def
/Circle {stroke [] 0 setdash 2 copy
  hpt 0 360 arc stroke Pnt} def
/CircleF {stroke [] 0 setdash hpt 0 360 arc fill} def
/C0 {BL [] 0 setdash 2 copy moveto vpt 90 450 arc} bind def
/C1 {BL [] 0 setdash 2 copy moveto
	2 copy vpt 0 90 arc closepath fill
	vpt 0 360 arc closepath} bind def
/C2 {BL [] 0 setdash 2 copy moveto
	2 copy vpt 90 180 arc closepath fill
	vpt 0 360 arc closepath} bind def
/C3 {BL [] 0 setdash 2 copy moveto
	2 copy vpt 0 180 arc closepath fill
	vpt 0 360 arc closepath} bind def
/C4 {BL [] 0 setdash 2 copy moveto
	2 copy vpt 180 270 arc closepath fill
	vpt 0 360 arc closepath} bind def
/C5 {BL [] 0 setdash 2 copy moveto
	2 copy vpt 0 90 arc
	2 copy moveto
	2 copy vpt 180 270 arc closepath fill
	vpt 0 360 arc} bind def
/C6 {BL [] 0 setdash 2 copy moveto
	2 copy vpt 90 270 arc closepath fill
	vpt 0 360 arc closepath} bind def
/C7 {BL [] 0 setdash 2 copy moveto
	2 copy vpt 0 270 arc closepath fill
	vpt 0 360 arc closepath} bind def
/C8 {BL [] 0 setdash 2 copy moveto
	2 copy vpt 270 360 arc closepath fill
	vpt 0 360 arc closepath} bind def
/C9 {BL [] 0 setdash 2 copy moveto
	2 copy vpt 270 450 arc closepath fill
	vpt 0 360 arc closepath} bind def
/C10 {BL [] 0 setdash 2 copy 2 copy moveto vpt 270 360 arc closepath fill
	2 copy moveto
	2 copy vpt 90 180 arc closepath fill
	vpt 0 360 arc closepath} bind def
/C11 {BL [] 0 setdash 2 copy moveto
	2 copy vpt 0 180 arc closepath fill
	2 copy moveto
	2 copy vpt 270 360 arc closepath fill
	vpt 0 360 arc closepath} bind def
/C12 {BL [] 0 setdash 2 copy moveto
	2 copy vpt 180 360 arc closepath fill
	vpt 0 360 arc closepath} bind def
/C13 {BL [] 0 setdash 2 copy moveto
	2 copy vpt 0 90 arc closepath fill
	2 copy moveto
	2 copy vpt 180 360 arc closepath fill
	vpt 0 360 arc closepath} bind def
/C14 {BL [] 0 setdash 2 copy moveto
	2 copy vpt 90 360 arc closepath fill
	vpt 0 360 arc} bind def
/C15 {BL [] 0 setdash 2 copy vpt 0 360 arc closepath fill
	vpt 0 360 arc closepath} bind def
/Rec {newpath 4 2 roll moveto 1 index 0 rlineto 0 exch rlineto
	neg 0 rlineto closepath} bind def
/Square {dup Rec} bind def
/Bsquare {vpt sub exch vpt sub exch vpt2 Square} bind def
/S0 {BL [] 0 setdash 2 copy moveto 0 vpt rlineto BL Bsquare} bind def
/S1 {BL [] 0 setdash 2 copy vpt Square fill Bsquare} bind def
/S2 {BL [] 0 setdash 2 copy exch vpt sub exch vpt Square fill Bsquare} bind def
/S3 {BL [] 0 setdash 2 copy exch vpt sub exch vpt2 vpt Rec fill Bsquare} bind def
/S4 {BL [] 0 setdash 2 copy exch vpt sub exch vpt sub vpt Square fill Bsquare} bind def
/S5 {BL [] 0 setdash 2 copy 2 copy vpt Square fill
	exch vpt sub exch vpt sub vpt Square fill Bsquare} bind def
/S6 {BL [] 0 setdash 2 copy exch vpt sub exch vpt sub vpt vpt2 Rec fill Bsquare} bind def
/S7 {BL [] 0 setdash 2 copy exch vpt sub exch vpt sub vpt vpt2 Rec fill
	2 copy vpt Square fill Bsquare} bind def
/S8 {BL [] 0 setdash 2 copy vpt sub vpt Square fill Bsquare} bind def
/S9 {BL [] 0 setdash 2 copy vpt sub vpt vpt2 Rec fill Bsquare} bind def
/S10 {BL [] 0 setdash 2 copy vpt sub vpt Square fill 2 copy exch vpt sub exch vpt Square fill
	Bsquare} bind def
/S11 {BL [] 0 setdash 2 copy vpt sub vpt Square fill 2 copy exch vpt sub exch vpt2 vpt Rec fill
	Bsquare} bind def
/S12 {BL [] 0 setdash 2 copy exch vpt sub exch vpt sub vpt2 vpt Rec fill Bsquare} bind def
/S13 {BL [] 0 setdash 2 copy exch vpt sub exch vpt sub vpt2 vpt Rec fill
	2 copy vpt Square fill Bsquare} bind def
/S14 {BL [] 0 setdash 2 copy exch vpt sub exch vpt sub vpt2 vpt Rec fill
	2 copy exch vpt sub exch vpt Square fill Bsquare} bind def
/S15 {BL [] 0 setdash 2 copy Bsquare fill Bsquare} bind def
/D0 {gsave translate 45 rotate 0 0 S0 stroke grestore} bind def
/D1 {gsave translate 45 rotate 0 0 S1 stroke grestore} bind def
/D2 {gsave translate 45 rotate 0 0 S2 stroke grestore} bind def
/D3 {gsave translate 45 rotate 0 0 S3 stroke grestore} bind def
/D4 {gsave translate 45 rotate 0 0 S4 stroke grestore} bind def
/D5 {gsave translate 45 rotate 0 0 S5 stroke grestore} bind def
/D6 {gsave translate 45 rotate 0 0 S6 stroke grestore} bind def
/D7 {gsave translate 45 rotate 0 0 S7 stroke grestore} bind def
/D8 {gsave translate 45 rotate 0 0 S8 stroke grestore} bind def
/D9 {gsave translate 45 rotate 0 0 S9 stroke grestore} bind def
/D10 {gsave translate 45 rotate 0 0 S10 stroke grestore} bind def
/D11 {gsave translate 45 rotate 0 0 S11 stroke grestore} bind def
/D12 {gsave translate 45 rotate 0 0 S12 stroke grestore} bind def
/D13 {gsave translate 45 rotate 0 0 S13 stroke grestore} bind def
/D14 {gsave translate 45 rotate 0 0 S14 stroke grestore} bind def
/D15 {gsave translate 45 rotate 0 0 S15 stroke grestore} bind def
/DiaE {stroke [] 0 setdash vpt add M
  hpt neg vpt neg V hpt vpt neg V
  hpt vpt V hpt neg vpt V closepath stroke} def
/BoxE {stroke [] 0 setdash exch hpt sub exch vpt add M
  0 vpt2 neg V hpt2 0 V 0 vpt2 V
  hpt2 neg 0 V closepath stroke} def
/TriUE {stroke [] 0 setdash vpt 1.12 mul add M
  hpt neg vpt -1.62 mul V
  hpt 2 mul 0 V
  hpt neg vpt 1.62 mul V closepath stroke} def
/TriDE {stroke [] 0 setdash vpt 1.12 mul sub M
  hpt neg vpt 1.62 mul V
  hpt 2 mul 0 V
  hpt neg vpt -1.62 mul V closepath stroke} def
/PentE {stroke [] 0 setdash gsave
  translate 0 hpt M 4 {72 rotate 0 hpt L} repeat
  closepath stroke grestore} def
/CircE {stroke [] 0 setdash 
  hpt 0 360 arc stroke} def
/Opaque {gsave closepath 1 setgray fill grestore 0 setgray closepath} def
/DiaW {stroke [] 0 setdash vpt add M
  hpt neg vpt neg V hpt vpt neg V
  hpt vpt V hpt neg vpt V Opaque stroke} def
/BoxW {stroke [] 0 setdash exch hpt sub exch vpt add M
  0 vpt2 neg V hpt2 0 V 0 vpt2 V
  hpt2 neg 0 V Opaque stroke} def
/TriUW {stroke [] 0 setdash vpt 1.12 mul add M
  hpt neg vpt -1.62 mul V
  hpt 2 mul 0 V
  hpt neg vpt 1.62 mul V Opaque stroke} def
/TriDW {stroke [] 0 setdash vpt 1.12 mul sub M
  hpt neg vpt 1.62 mul V
  hpt 2 mul 0 V
  hpt neg vpt -1.62 mul V Opaque stroke} def
/PentW {stroke [] 0 setdash gsave
  translate 0 hpt M 4 {72 rotate 0 hpt L} repeat
  Opaque stroke grestore} def
/CircW {stroke [] 0 setdash 
  hpt 0 360 arc Opaque stroke} def
/BoxFill {gsave Rec 1 setgray fill grestore} def
/Density {
  /Fillden exch def
  currentrgbcolor
  /ColB exch def /ColG exch def /ColR exch def
  /ColR ColR Fillden mul Fillden sub 1 add def
  /ColG ColG Fillden mul Fillden sub 1 add def
  /ColB ColB Fillden mul Fillden sub 1 add def
  ColR ColG ColB setrgbcolor} def
/BoxColFill {gsave Rec PolyFill} def
/PolyFill {gsave Density fill grestore grestore} def
/h {rlineto rlineto rlineto gsave closepath fill grestore} bind def
%
% PostScript Level 1 Pattern Fill routine for rectangles
% Usage: x y w h s a XX PatternFill
%	x,y = lower left corner of box to be filled
%	w,h = width and height of box
%	  a = angle in degrees between lines and x-axis
%	 XX = 0/1 for no/yes cross-hatch
%
/PatternFill {gsave /PFa [ 9 2 roll ] def
  PFa 0 get PFa 2 get 2 div add PFa 1 get PFa 3 get 2 div add translate
  PFa 2 get -2 div PFa 3 get -2 div PFa 2 get PFa 3 get Rec
  TransparentPatterns {} {gsave 1 setgray fill grestore} ifelse
  clip
  currentlinewidth 0.5 mul setlinewidth
  /PFs PFa 2 get dup mul PFa 3 get dup mul add sqrt def
  0 0 M PFa 5 get rotate PFs -2 div dup translate
  0 1 PFs PFa 4 get div 1 add floor cvi
	{PFa 4 get mul 0 M 0 PFs V} for
  0 PFa 6 get ne {
	0 1 PFs PFa 4 get div 1 add floor cvi
	{PFa 4 get mul 0 2 1 roll M PFs 0 V} for
 } if
  stroke grestore} def
%
/languagelevel where
 {pop languagelevel} {1} ifelse
dup 2 lt
	{/InterpretLevel1 true def
	 /InterpretLevel3 false def}
	{/InterpretLevel1 Level1 def
	 2 gt
	    {/InterpretLevel3 Level3 def}
	    {/InterpretLevel3 false def}
	 ifelse }
 ifelse
%
% PostScript level 2 pattern fill definitions
%
/Level2PatternFill {
/Tile8x8 {/PaintType 2 /PatternType 1 /TilingType 1 /BBox [0 0 8 8] /XStep 8 /YStep 8}
	bind def
/KeepColor {currentrgbcolor [/Pattern /DeviceRGB] setcolorspace} bind def
<< Tile8x8
 /PaintProc {0.5 setlinewidth pop 0 0 M 8 8 L 0 8 M 8 0 L stroke} 
>> matrix makepattern
/Pat1 exch def
<< Tile8x8
 /PaintProc {0.5 setlinewidth pop 0 0 M 8 8 L 0 8 M 8 0 L stroke
	0 4 M 4 8 L 8 4 L 4 0 L 0 4 L stroke}
>> matrix makepattern
/Pat2 exch def
<< Tile8x8
 /PaintProc {0.5 setlinewidth pop 0 0 M 0 8 L
	8 8 L 8 0 L 0 0 L fill}
>> matrix makepattern
/Pat3 exch def
<< Tile8x8
 /PaintProc {0.5 setlinewidth pop -4 8 M 8 -4 L
	0 12 M 12 0 L stroke}
>> matrix makepattern
/Pat4 exch def
<< Tile8x8
 /PaintProc {0.5 setlinewidth pop -4 0 M 8 12 L
	0 -4 M 12 8 L stroke}
>> matrix makepattern
/Pat5 exch def
<< Tile8x8
 /PaintProc {0.5 setlinewidth pop -2 8 M 4 -4 L
	0 12 M 8 -4 L 4 12 M 10 0 L stroke}
>> matrix makepattern
/Pat6 exch def
<< Tile8x8
 /PaintProc {0.5 setlinewidth pop -2 0 M 4 12 L
	0 -4 M 8 12 L 4 -4 M 10 8 L stroke}
>> matrix makepattern
/Pat7 exch def
<< Tile8x8
 /PaintProc {0.5 setlinewidth pop 8 -2 M -4 4 L
	12 0 M -4 8 L 12 4 M 0 10 L stroke}
>> matrix makepattern
/Pat8 exch def
<< Tile8x8
 /PaintProc {0.5 setlinewidth pop 0 -2 M 12 4 L
	-4 0 M 12 8 L -4 4 M 8 10 L stroke}
>> matrix makepattern
/Pat9 exch def
/Pattern1 {PatternBgnd KeepColor Pat1 setpattern} bind def
/Pattern2 {PatternBgnd KeepColor Pat2 setpattern} bind def
/Pattern3 {PatternBgnd KeepColor Pat3 setpattern} bind def
/Pattern4 {PatternBgnd KeepColor Landscape {Pat5} {Pat4} ifelse setpattern} bind def
/Pattern5 {PatternBgnd KeepColor Landscape {Pat4} {Pat5} ifelse setpattern} bind def
/Pattern6 {PatternBgnd KeepColor Landscape {Pat9} {Pat6} ifelse setpattern} bind def
/Pattern7 {PatternBgnd KeepColor Landscape {Pat8} {Pat7} ifelse setpattern} bind def
} def
%
%
%End of PostScript Level 2 code
%
/PatternBgnd {
  TransparentPatterns {} {gsave 1 setgray fill grestore} ifelse
} def
%
% Substitute for Level 2 pattern fill codes with
% grayscale if Level 2 support is not selected.
%
/Level1PatternFill {
/Pattern1 {0.250 Density} bind def
/Pattern2 {0.500 Density} bind def
/Pattern3 {0.750 Density} bind def
/Pattern4 {0.125 Density} bind def
/Pattern5 {0.375 Density} bind def
/Pattern6 {0.625 Density} bind def
/Pattern7 {0.875 Density} bind def
} def
%
% Now test for support of Level 2 code
%
Level1 {Level1PatternFill} {Level2PatternFill} ifelse
%
/Symbol-Oblique /Symbol findfont [1 0 .167 1 0 0] makefont
dup length dict begin {1 index /FID eq {pop pop} {def} ifelse} forall
currentdict end definefont pop
%
/MFshow {
   { dup 5 get 3 ge
     { 5 get 3 eq {gsave} {grestore} ifelse }
     {dup dup 0 get findfont exch 1 get scalefont setfont
     [ currentpoint ] exch dup 2 get 0 exch R dup 5 get 2 ne {dup dup 6
     get exch 4 get {textshow} {stringwidth pop 0 R} ifelse }if dup 5 get 0 eq
     {dup 3 get {2 get neg 0 exch R pop} {pop aload pop M} ifelse} {dup 5
     get 1 eq {dup 2 get exch dup 3 get exch 6 get stringwidth pop -2 div
     dup 0 R} {dup 6 get stringwidth pop -2 div 0 R 6 get
     textshow 2 index {aload pop M neg 3 -1 roll neg R pop pop} {pop pop pop
     pop aload pop M} ifelse }ifelse }ifelse }
     ifelse }
   forall} def
/Gswidth {dup type /stringtype eq {stringwidth} {pop (n) stringwidth} ifelse} def
/MFwidth {0 exch { dup 5 get 3 ge { 5 get 3 eq { 0 } { pop } ifelse }
 {dup 3 get{dup dup 0 get findfont exch 1 get scalefont setfont
     6 get Gswidth pop add} {pop} ifelse} ifelse} forall} def
/MLshow { currentpoint stroke M
  0 exch R
  Blacktext {gsave 0 setgray MFshow grestore} {MFshow} ifelse } bind def
/MRshow { currentpoint stroke M
  exch dup MFwidth neg 3 -1 roll R
  Blacktext {gsave 0 setgray MFshow grestore} {MFshow} ifelse } bind def
/MCshow { currentpoint stroke M
  exch dup MFwidth -2 div 3 -1 roll R
  Blacktext {gsave 0 setgray MFshow grestore} {MFshow} ifelse } bind def
/XYsave    { [( ) 1 2 true false 3 ()] } bind def
/XYrestore { [( ) 1 2 true false 4 ()] } bind def
Level1 SuppressPDFMark or 
{} {
/SDict 10 dict def
systemdict /pdfmark known not {
  userdict /pdfmark systemdict /cleartomark get put
} if
SDict begin [
  /Title (mean.eps)
  /Subject (gnuplot plot)
  /Creator (gnuplot 5.0 patchlevel 1)
  /Author (gaumont)
%  /Producer (gnuplot)
%  /Keywords ()
  /CreationDate (Fri Oct 30 18:57:08 2015)
  /DOCINFO pdfmark
end
} ifelse
end
%
% Support for boxed text - Ethan A Merritt May 2005
%
/InitTextBox { userdict /TBy2 3 -1 roll put userdict /TBx2 3 -1 roll put
           userdict /TBy1 3 -1 roll put userdict /TBx1 3 -1 roll put
	   /Boxing true def } def
/ExtendTextBox { Boxing
    { gsave dup false charpath pathbbox
      dup TBy2 gt {userdict /TBy2 3 -1 roll put} {pop} ifelse
      dup TBx2 gt {userdict /TBx2 3 -1 roll put} {pop} ifelse
      dup TBy1 lt {userdict /TBy1 3 -1 roll put} {pop} ifelse
      dup TBx1 lt {userdict /TBx1 3 -1 roll put} {pop} ifelse
      grestore } if } def
/PopTextBox { newpath TBx1 TBxmargin sub TBy1 TBymargin sub M
               TBx1 TBxmargin sub TBy2 TBymargin add L
	       TBx2 TBxmargin add TBy2 TBymargin add L
	       TBx2 TBxmargin add TBy1 TBymargin sub L closepath } def
/DrawTextBox { PopTextBox stroke /Boxing false def} def
/FillTextBox { gsave PopTextBox 1 1 1 setrgbcolor fill grestore /Boxing false def} def
0 0 0 0 InitTextBox
/TBxmargin 20 def
/TBymargin 20 def
/Boxing false def
/textshow { ExtendTextBox Gshow } def
%
%%EndProlog
%%Page: 1 1
gnudict begin
gsave
doclip
50 50 translate
0.050 0.050 scale
0 setgray
newpath
(Helvetica) findfont 200 scalefont setfont
BackgroundColor 0 lt 3 1 roll 0 lt exch 0 lt or or not {BackgroundColor C 1.000 0 0 5040.00 3772.00 BoxColFill} if
1.000 UL
LTb
LCb setrgbcolor
860 640 M
63 0 V
3756 0 R
-63 0 V
stroke
740 640 M
[ [(Helvetica) 200.0 0.0 true true 0 (10)]
[(Helvetica) 160.0 100.0 true true 0 (-2)]
] -86.7 MRshow
1.000 UL
LTb
LCb setrgbcolor
860 1075 M
31 0 V
3788 0 R
-31 0 V
860 1330 M
31 0 V
3788 0 R
-31 0 V
860 1510 M
31 0 V
3788 0 R
-31 0 V
860 1650 M
31 0 V
3788 0 R
-31 0 V
860 1765 M
31 0 V
3788 0 R
-31 0 V
860 1862 M
31 0 V
3788 0 R
-31 0 V
860 1945 M
31 0 V
3788 0 R
-31 0 V
860 2019 M
31 0 V
3788 0 R
-31 0 V
860 2086 M
63 0 V
3756 0 R
-63 0 V
stroke
740 2086 M
[ [(Helvetica) 200.0 0.0 true true 0 (10)]
[(Helvetica) 160.0 100.0 true true 0 (-1)]
] -86.7 MRshow
1.000 UL
LTb
LCb setrgbcolor
860 2521 M
31 0 V
3788 0 R
-31 0 V
860 2775 M
31 0 V
3788 0 R
-31 0 V
860 2956 M
31 0 V
3788 0 R
-31 0 V
860 3096 M
31 0 V
3788 0 R
-31 0 V
860 3210 M
31 0 V
3788 0 R
-31 0 V
860 3307 M
31 0 V
3788 0 R
-31 0 V
860 3391 M
31 0 V
3788 0 R
-31 0 V
860 3465 M
31 0 V
3788 0 R
-31 0 V
860 3531 M
63 0 V
3756 0 R
-63 0 V
stroke
740 3531 M
[ [(Helvetica) 200.0 0.0 true true 0 (10)]
[(Helvetica) 160.0 100.0 true true 0 (0)]
] -86.7 MRshow
1.000 UL
LTb
LCb setrgbcolor
860 640 M
0 63 V
0 2828 R
0 -63 V
stroke
860 440 M
[ [(Helvetica) 200.0 0.0 true true 0 (10)]
[(Helvetica) 160.0 100.0 true true 0 (-2)]
] -86.7 MCshow
1.000 UL
LTb
LCb setrgbcolor
1435 640 M
0 31 V
0 2860 R
0 -31 V
1771 640 M
0 31 V
0 2860 R
0 -31 V
2010 640 M
0 31 V
0 2860 R
0 -31 V
2195 640 M
0 31 V
0 2860 R
0 -31 V
2346 640 M
0 31 V
0 2860 R
0 -31 V
2474 640 M
0 31 V
0 2860 R
0 -31 V
2584 640 M
0 31 V
0 2860 R
0 -31 V
2682 640 M
0 31 V
0 2860 R
0 -31 V
2770 640 M
0 63 V
0 2828 R
0 -63 V
stroke
2770 440 M
[ [(Helvetica) 200.0 0.0 true true 0 (10)]
[(Helvetica) 160.0 100.0 true true 0 (-1)]
] -86.7 MCshow
1.000 UL
LTb
LCb setrgbcolor
3344 640 M
0 31 V
0 2860 R
0 -31 V
3681 640 M
0 31 V
0 2860 R
0 -31 V
3919 640 M
0 31 V
0 2860 R
0 -31 V
4104 640 M
0 31 V
0 2860 R
0 -31 V
4255 640 M
0 31 V
0 2860 R
0 -31 V
4383 640 M
0 31 V
0 2860 R
0 -31 V
4494 640 M
0 31 V
0 2860 R
0 -31 V
4592 640 M
0 31 V
0 2860 R
0 -31 V
4679 640 M
0 63 V
0 2828 R
0 -63 V
stroke
4679 440 M
[ [(Helvetica) 200.0 0.0 true true 0 (10)]
[(Helvetica) 160.0 100.0 true true 0 (0)]
] -86.7 MCshow
1.000 UL
LTb
LCb setrgbcolor
1.000 UL
LTb
LCb setrgbcolor
860 3531 N
860 640 L
3819 0 V
0 2891 V
-3819 0 V
Z stroke
0.500 UP
1.000 UL
LTb
LCb setrgbcolor
LCb setrgbcolor
160 2085 M
currentpoint gsave translate -270 rotate 0 0 moveto
[ [(Helvetica) 200.0 0.0 true true 0 (Inter-thread density)]
] -66.7 MCshow
grestore
LTb
LCb setrgbcolor
2769 140 M
[ [(Helvetica) 200.0 0.0 true true 0 (Intra-thread density)]
] -66.7 MCshow
LTb
% Begin plot #1
0.500 UP
0.500 UL
LTb
0.82 0.11 0.02 C 3344 2848 Pls
3529 2731 Pls
3119 2528 Pls
3192 2662 Pls
3768 2968 Pls
3529 2753 Pls
3529 2866 Pls
3640 2805 Pls
3529 2713 Pls
3265 2680 Pls
3640 2941 Pls
3879 2983 Pls
3127 2539 Pls
3432 2745 Pls
3265 2556 Pls
3617 2908 Pls
3008 2488 Pls
3254 2654 Pls
3216 2752 Pls
3193 2808 Pls
3825 2887 Pls
3193 2655 Pls
2770 2463 Pls
3265 2584 Pls
2928 2818 Pls
2924 2641 Pls
3526 2743 Pls
3415 2690 Pls
3483 2696 Pls
3193 2532 Pls
3193 2660 Pls
3265 2760 Pls
3091 2345 Pls
3193 2470 Pls
3640 2762 Pls
3483 2846 Pls
3092 2686 Pls
3919 2963 Pls
3065 2537 Pls
3463 2723 Pls
3416 2676 Pls
3529 2705 Pls
3617 2914 Pls
3264 2530 Pls
3508 2774 Pls
2918 2593 Pls
3265 2585 Pls
3344 2818 Pls
3768 2872 Pls
3529 2666 Pls
3265 2942 Pls
3432 2686 Pls
3240 2802 Pls
3065 2465 Pls
2719 2491 Pls
3768 2877 Pls
3184 2511 Pls
3331 2693 Pls
3344 2561 Pls
2978 2554 Pls
3649 2765 Pls
3529 2755 Pls
3344 2730 Pls
3483 2747 Pls
3432 2752 Pls
3192 2802 Pls
3529 2718 Pls
3431 2604 Pls
3265 2685 Pls
3332 2677 Pls
3529 3023 Pls
3529 2826 Pls
3529 2785 Pls
3340 2570 Pls
3640 2862 Pls
3544 2819 Pls
3265 2531 Pls
2618 2628 Pls
3106 2686 Pls
2873 2831 Pls
3504 2870 Pls
3432 2607 Pls
3283 2896 Pls
3768 3009 Pls
3640 2910 Pls
3768 2921 Pls
3148 2558 Pls
3265 2502 Pls
3616 2780 Pls
3583 2805 Pls
3169 2555 Pls
3008 2291 Pls
3504 2810 Pls
3344 2557 Pls
3344 2861 Pls
3767 2865 Pls
3529 2996 Pls
3640 2835 Pls
3529 2961 Pls
3511 2757 Pls
3738 2873 Pls
3416 2847 Pls
3529 2966 Pls
3529 2688 Pls
3143 2674 Pls
3640 2904 Pls
3617 2795 Pls
3640 2840 Pls
3419 2583 Pls
3193 2519 Pls
3482 2726 Pls
3183 2642 Pls
3120 2854 Pls
3529 2718 Pls
3265 2663 Pls
3508 2974 Pls
3768 2856 Pls
3529 2887 Pls
3617 2953 Pls
3065 2411 Pls
3529 2705 Pls
3065 2384 Pls
3332 2608 Pls
3483 2862 Pls
3365 2858 Pls
3507 2908 Pls
3416 2631 Pls
3265 2865 Pls
3544 2692 Pls
3129 2503 Pls
3432 2851 Pls
3768 2879 Pls
3193 2657 Pls
3529 2936 Pls
3175 2808 Pls
3265 2899 Pls
3344 2740 Pls
3265 2840 Pls
3617 2752 Pls
3895 2947 Pls
3511 2710 Pls
3529 2835 Pls
3332 2726 Pls
3529 2783 Pls
3529 2769 Pls
3617 2905 Pls
3344 2637 Pls
3640 2849 Pls
3432 2960 Pls
3655 2815 Pls
3216 2870 Pls
3002 2517 Pls
3528 2688 Pls
2937 2693 Pls
3311 2688 Pls
3768 2913 Pls
3768 2877 Pls
3455 2947 Pls
3432 2860 Pls
3529 2809 Pls
3768 2995 Pls
3529 2757 Pls
2846 2762 Pls
3432 2641 Pls
3265 2648 Pls
3640 2752 Pls
3649 2753 Pls
3254 2689 Pls
3554 2852 Pls
3105 2481 Pls
3617 2778 Pls
3150 2566 Pls
3303 2720 Pls
3529 2767 Pls
3127 2654 Pls
3008 2528 Pls
3768 2883 Pls
3640 2902 Pls
3419 2664 Pls
3344 2755 Pls
3063 2719 Pls
3511 2663 Pls
3193 2500 Pls
3013 2725 Pls
3432 2653 Pls
3640 2762 Pls
3766 2900 Pls
3065 2381 Pls
3130 2670 Pls
3617 2945 Pls
3738 2852 Pls
3365 2686 Pls
3193 2874 Pls
3264 2568 Pls
3450 2779 Pls
3089 2657 Pls
3696 2932 Pls
3432 2633 Pls
3590 2749 Pls
3265 2494 Pls
3089 2718 Pls
3432 2846 Pls
3431 2616 Pls
3192 2674 Pls
3529 2865 Pls
3432 2791 Pls
3393 2614 Pls
3126 2516 Pls
3233 2650 Pls
3483 2730 Pls
3601 2981 Pls
3344 2664 Pls
3640 2814 Pls
3058 2580 Pls
3432 2937 Pls
3393 2847 Pls
3002 2854 Pls
3617 2859 Pls
3393 2565 Pls
3432 2609 Pls
3431 2867 Pls
3601 2760 Pls
3616 2916 Pls
3640 2768 Pls
3768 2876 Pls
3529 2690 Pls
3344 2811 Pls
2813 3084 Pls
3414 2654 Pls
3184 2884 Pls
3529 2700 Pls
3065 2521 Pls
3919 3002 Pls
3976 3024 Pls
3085 2450 Pls
3640 2922 Pls
3237 2550 Pls
3504 2726 Pls
3288 2498 Pls
3768 2920 Pls
3432 2834 Pls
3012 2830 Pls
2759 2619 Pls
2954 2671 Pls
2977 2950 Pls
3118 2807 Pls
3617 2900 Pls
3105 2847 Pls
3150 2867 Pls
3529 2849 Pls
3640 2771 Pls
3617 2814 Pls
3331 2659 Pls
3184 2575 Pls
3431 2828 Pls
3483 2806 Pls
3639 2892 Pls
3332 2637 Pls
3265 2733 Pls
3193 2672 Pls
3344 2799 Pls
3432 2601 Pls
3544 2753 Pls
3768 2914 Pls
3450 2861 Pls
3184 2867 Pls
3640 2958 Pls
3344 2713 Pls
3432 2659 Pls
3265 2796 Pls
2769 2450 Pls
3344 2648 Pls
3510 2700 Pls
3768 2883 Pls
3640 2873 Pls
3527 2816 Pls
3058 2498 Pls
3050 2916 Pls
3331 2933 Pls
3331 2564 Pls
3529 2747 Pls
3529 3078 Pls
3617 2769 Pls
3511 2870 Pls
3344 2601 Pls
3452 2685 Pls
3044 2531 Pls
3582 2734 Pls
3696 2893 Pls
3265 2475 Pls
3015 2444 Pls
3344 2834 Pls
3193 2576 Pls
3768 2921 Pls
3344 2679 Pls
3393 2650 Pls
3344 2635 Pls
3344 2839 Pls
3432 2705 Pls
2943 2814 Pls
3344 2844 Pls
3070 2890 Pls
3695 2820 Pls
3529 2841 Pls
3070 2552 Pls
3237 2694 Pls
3126 2539 Pls
3344 2556 Pls
3529 3098 Pls
3529 2789 Pls
3768 2994 Pls
3255 2884 Pls
3768 2948 Pls
3416 2734 Pls
3768 2936 Pls
3065 2469 Pls
3768 2919 Pls
2769 2690 Pls
3511 2803 Pls
3529 2902 Pls
3432 2599 Pls
3640 2821 Pls
2954 2251 Pls
3008 2525 Pls
3768 2926 Pls
2810 2568 Pls
3511 2853 Pls
3511 2868 Pls
3432 2737 Pls
3416 2780 Pls
3064 2744 Pls
3344 2827 Pls
3065 2372 Pls
3738 2871 Pls
3127 2573 Pls
3529 2759 Pls
3332 2755 Pls
3432 2609 Pls
3416 2691 Pls
3254 2702 Pls
2717 2047 Pls
3640 2781 Pls
3529 2842 Pls
3169 2638 Pls
3270 2829 Pls
3529 2841 Pls
3344 2680 Pls
3265 2552 Pls
3344 2950 Pls
3649 2882 Pls
3216 2808 Pls
3600 2882 Pls
3640 2834 Pls
3529 2666 Pls
3834 2913 Pls
3640 2929 Pls
3695 2807 Pls
3582 2805 Pls
3328 2821 Pls
3344 2559 Pls
3237 2647 Pls
3344 2846 Pls
3640 2846 Pls
3344 2893 Pls
3640 2867 Pls
3344 2679 Pls
3821 2929 Pls
3142 2702 Pls
3529 2675 Pls
3544 2793 Pls
3554 2900 Pls
3207 2642 Pls
3738 2891 Pls
3288 2593 Pls
3261 2825 Pls
3234 2621 Pls
3768 2855 Pls
3617 2766 Pls
3216 2485 Pls
2399 2675 Pls
3001 2757 Pls
3640 2841 Pls
3265 2808 Pls
3640 2967 Pls
3335 2845 Pls
3344 2688 Pls
3640 2847 Pls
3365 2864 Pls
3583 3045 Pls
3529 2822 Pls
3696 2798 Pls
3289 2767 Pls
3069 2583 Pls
3008 2435 Pls
3768 2874 Pls
3510 2809 Pls
3738 2929 Pls
3529 2741 Pls
3261 2617 Pls
3432 2701 Pls
3633 2767 Pls
3640 2879 Pls
3768 2845 Pls
3344 2856 Pls
3768 2870 Pls
3265 2497 Pls
3529 2845 Pls
3168 2915 Pls
3208 2581 Pls
3879 3081 Pls
3047 2512 Pls
3768 2890 Pls
3529 2969 Pls
3529 2724 Pls
3640 2762 Pls
3169 2674 Pls
2829 2714 Pls
3639 2864 Pls
3879 3021 Pls
3344 2666 Pls
3483 2874 Pls
3344 2685 Pls
3344 2734 Pls
3640 2751 Pls
3040 2598 Pls
3089 2790 Pls
3416 2649 Pls
3768 2861 Pls
3233 2737 Pls
3640 2843 Pls
3583 2856 Pls
3432 2848 Pls
3331 2786 Pls
3696 2918 Pls
3529 2699 Pls
3834 2976 Pls
3581 2906 Pls
3237 2511 Pls
3640 2918 Pls
3640 2852 Pls
3431 2695 Pls
3768 2907 Pls
3344 2676 Pls
3738 2820 Pls
3432 2758 Pls
2954 2512 Pls
3150 2423 Pls
3308 2672 Pls
3365 2693 Pls
3117 2581 Pls
3768 2869 Pls
3192 2623 Pls
3768 2870 Pls
3529 2692 Pls
3432 2706 Pls
3450 2769 Pls
3583 2715 Pls
3482 2864 Pls
3640 2777 Pls
3529 2842 Pls
3737 2962 Pls
3529 2865 Pls
3919 3014 Pls
3455 3087 Pls
3696 2875 Pls
3265 2548 Pls
3344 2722 Pls
3261 2698 Pls
2674 2606 Pls
3919 2987 Pls
3193 2813 Pls
3089 2702 Pls
3529 2676 Pls
3127 2732 Pls
3119 2592 Pls
3649 2781 Pls
3422 2959 Pls
3654 2871 Pls
3432 2766 Pls
3431 2867 Pls
3529 2674 Pls
3544 2875 Pls
3184 2473 Pls
2880 2545 Pls
3193 2656 Pls
2769 2619 Pls
3768 2891 Pls
3237 2930 Pls
3696 2845 Pls
3424 2628 Pls
3640 2842 Pls
3529 2822 Pls
3344 2750 Pls
3767 2926 Pls
3331 2569 Pls
3511 2658 Pls
3768 3036 Pls
3768 2868 Pls
3463 2754 Pls
3738 2922 Pls
3483 2984 Pls
3431 2687 Pls
3879 2939 Pls
3738 2916 Pls
3649 2961 Pls
3344 2639 Pls
3303 2805 Pls
3193 2738 Pls
3768 2857 Pls
3414 2616 Pls
3065 2663 Pls
3432 2819 Pls
3240 2963 Pls
3393 3002 Pls
3511 2855 Pls
3529 2785 Pls
3254 2579 Pls
3529 2878 Pls
3511 2652 Pls
3529 2930 Pls
3640 2833 Pls
3393 3039 Pls
3110 2729 Pls
3134 2809 Pls
3768 2908 Pls
3344 2650 Pls
3696 2959 Pls
3825 2948 Pls
3432 2762 Pls
3343 2628 Pls
3529 2747 Pls
3649 2903 Pls
3432 2800 Pls
3432 2604 Pls
3768 2990 Pls
2920 2740 Pls
3288 2487 Pls
2781 2668 Pls
3065 2732 Pls
3127 2620 Pls
3450 2782 Pls
3344 2788 Pls
3271 2553 Pls
3768 2850 Pls
3192 2689 Pls
2598 2615 Pls
3184 2816 Pls
3601 2766 Pls
3878 2937 Pls
3265 2640 Pls
3529 2761 Pls
2940 2234 Pls
3393 2841 Pls
3265 2586 Pls
3047 2912 Pls
3056 2632 Pls
3254 2777 Pls
3768 2944 Pls
3193 2569 Pls
3767 2852 Pls
3344 2837 Pls
3529 2850 Pls
3576 2759 Pls
3344 2626 Pls
3768 2961 Pls
3193 2544 Pls
3528 2759 Pls
3193 2763 Pls
2898 2831 Pls
3312 2589 Pls
3344 2731 Pls
3616 2897 Pls
3431 2704 Pls
3528 2763 Pls
3696 2863 Pls
3550 3072 Pls
3768 2881 Pls
2872 2697 Pls
3483 2781 Pls
3431 2657 Pls
3583 2746 Pls
3127 2627 Pls
3738 2833 Pls
3640 2847 Pls
3431 2752 Pls
3344 2819 Pls
3574 2795 Pls
3265 2512 Pls
3529 2745 Pls
3640 2899 Pls
3529 2839 Pls
3237 2574 Pls
3432 2740 Pls
3511 2966 Pls
3483 2960 Pls
3008 2682 Pls
3529 3008 Pls
3529 2707 Pls
3529 2690 Pls
3144 2657 Pls
3510 2839 Pls
3344 2724 Pls
3264 2623 Pls
2938 2675 Pls
3416 2618 Pls
3344 2897 Pls
3184 2870 Pls
2848 2761 Pls
3529 2752 Pls
3392 2664 Pls
3640 3033 Pls
3106 2414 Pls
3343 2676 Pls
3504 3050 Pls
3640 2901 Pls
3058 2427 Pls
3640 2842 Pls
3432 2780 Pls
3127 2456 Pls
3265 2759 Pls
3768 2967 Pls
3529 2886 Pls
3737 2929 Pls
3544 2857 Pls
3529 2833 Pls
3237 2517 Pls
3344 2560 Pls
3529 2823 Pls
3192 2509 Pls
3738 2831 Pls
3529 2825 Pls
3254 2793 Pls
3529 2740 Pls
3529 2850 Pls
3432 2769 Pls
3416 2837 Pls
3529 2787 Pls
3169 2817 Pls
3046 2526 Pls
3529 2734 Pls
3640 2796 Pls
3193 2451 Pls
3450 2992 Pls
3825 2948 Pls
3529 2761 Pls
3768 2990 Pls
3058 2655 Pls
3834 3051 Pls
3254 2710 Pls
3300 2965 Pls
3825 2944 Pls
3311 2608 Pls
3768 2879 Pls
3344 2694 Pls
3768 2844 Pls
3264 2768 Pls
3511 2761 Pls
3159 3061 Pls
3341 2712 Pls
3640 2812 Pls
2958 2588 Pls
3264 2664 Pls
3431 2722 Pls
3617 2753 Pls
3693 2816 Pls
3344 2864 Pls
3002 2893 Pls
2801 2593 Pls
3431 2730 Pls
3193 2511 Pls
3312 2749 Pls
3738 2845 Pls
3640 2840 Pls
3193 2685 Pls
3617 2944 Pls
3529 2671 Pls
3265 2543 Pls
3483 2987 Pls
3062 2474 Pls
3638 2892 Pls
3344 2712 Pls
3511 2747 Pls
3529 2703 Pls
3738 2844 Pls
3768 2893 Pls
3335 2676 Pls
3127 2651 Pls
3640 2928 Pls
3432 2702 Pls
3510 2918 Pls
3432 2867 Pls
3084 2342 Pls
3343 2876 Pls
3344 2785 Pls
3344 2772 Pls
3332 2668 Pls
3265 2684 Pls
3193 2770 Pls
3169 2456 Pls
3872 2945 Pls
3879 2944 Pls
3529 3007 Pls
3178 2680 Pls
3344 2821 Pls
3639 2752 Pls
3640 2838 Pls
3696 2907 Pls
3432 2593 Pls
3640 2912 Pls
3193 2626 Pls
3193 2705 Pls
3422 2887 Pls
3483 2653 Pls
3432 2836 Pls
3431 2623 Pls
3184 2668 Pls
3431 2792 Pls
3432 2655 Pls
3616 2987 Pls
2849 2297 Pls
3657 2885 Pls
3616 2806 Pls
3432 2613 Pls
3416 2828 Pls
3640 2852 Pls
3614 2799 Pls
3640 2778 Pls
3309 2887 Pls
3265 2507 Pls
3529 2998 Pls
3511 2674 Pls
3331 2699 Pls
3265 2464 Pls
3432 2953 Pls
3127 2868 Pls
3237 2995 Pls
3416 2644 Pls
3393 2791 Pls
3529 2893 Pls
3655 2800 Pls
3431 2628 Pls
3529 2850 Pls
3137 2629 Pls
3416 3022 Pls
3583 2740 Pls
3169 2770 Pls
3411 2796 Pls
3234 2442 Pls
3240 2800 Pls
3216 2909 Pls
3184 2641 Pls
3768 2935 Pls
3260 2964 Pls
3640 2804 Pls
2898 2686 Pls
3344 3052 Pls
3184 2808 Pls
3193 2676 Pls
3032 2556 Pls
3768 2970 Pls
3695 2984 Pls
3616 2776 Pls
2958 2822 Pls
3344 2775 Pls
3233 2918 Pls
3640 2745 Pls
3640 2903 Pls
3919 2956 Pls
2964 2351 Pls
3617 2864 Pls
3688 2839 Pls
3089 2457 Pls
3344 2617 Pls
3193 2701 Pls
3432 2718 Pls
3617 2953 Pls
3696 2899 Pls
3687 2984 Pls
3209 2655 Pls
3344 2880 Pls
3878 2987 Pls
3768 2858 Pls
3768 3066 Pls
3126 2748 Pls
3553 2830 Pls
3344 2689 Pls
3344 2899 Pls
3264 2617 Pls
3768 3000 Pls
3768 2850 Pls
3001 2769 Pls
3583 2704 Pls
3303 2719 Pls
3738 2983 Pls
3640 2821 Pls
3583 2935 Pls
3344 2925 Pls
3767 2935 Pls
3344 2886 Pls
3216 2931 Pls
3193 2704 Pls
3392 2669 Pls
3058 2633 Pls
3288 2606 Pls
3432 2632 Pls
3117 3041 Pls
3065 2348 Pls
3483 2657 Pls
3583 2784 Pls
3126 2526 Pls
3008 2757 Pls
3549 2886 Pls
3583 2807 Pls
3529 2762 Pls
3344 2784 Pls
3432 2718 Pls
3431 2702 Pls
2623 2615 Pls
3265 2818 Pls
3126 2729 Pls
3344 2671 Pls
3287 2536 Pls
2717 2629 Pls
3432 2618 Pls
3344 2702 Pls
3416 2750 Pls
3529 2864 Pls
3529 2683 Pls
2843 2514 Pls
3554 2834 Pls
3583 2935 Pls
3344 2731 Pls
2990 2739 Pls
3483 2705 Pls
3738 2824 Pls
3265 2554 Pls
3431 2818 Pls
3265 2800 Pls
3344 2599 Pls
3432 2808 Pls
3529 2714 Pls
2693 2542 Pls
3919 3040 Pls
3768 2865 Pls
3617 2793 Pls
3344 2626 Pls
3422 2945 Pls
3117 2521 Pls
3264 2779 Pls
3344 2713 Pls
3407 2728 Pls
3084 2541 Pls
3431 2660 Pls
3332 2991 Pls
3616 2730 Pls
3529 3082 Pls
3344 2660 Pls
3265 2618 Pls
3193 2932 Pls
3529 2888 Pls
3184 2772 Pls
3768 2954 Pls
3416 2793 Pls
3265 2898 Pls
3265 2860 Pls
3431 2650 Pls
3432 2875 Pls
3416 2661 Pls
2519 2529 Pls
3431 2932 Pls
2867 2638 Pls
3617 2822 Pls
3344 2699 Pls
3768 2846 Pls
3192 2545 Pls
3265 2813 Pls
3265 2862 Pls
3538 2811 Pls
3127 2740 Pls
3483 2673 Pls
3432 2784 Pls
3768 2929 Pls
3183 2499 Pls
3265 2808 Pls
3483 2665 Pls
3422 2836 Pls
3032 2674 Pls
3184 2695 Pls
2911 2866 Pls
3503 2713 Pls
3416 2649 Pls
3380 2902 Pls
3304 2835 Pls
3529 2834 Pls
3453 2648 Pls
3270 2908 Pls
2904 2530 Pls
3008 2378 Pls
3528 2791 Pls
3529 2672 Pls
2966 2777 Pls
3431 2635 Pls
3265 2853 Pls
3431 2807 Pls
3431 2731 Pls
3416 2870 Pls
3432 2656 Pls
3344 2954 Pls
2756 2720 Pls
2868 2699 Pls
3432 2625 Pls
3416 2653 Pls
3768 2848 Pls
3695 2786 Pls
3432 2613 Pls
3089 2532 Pls
3193 2425 Pls
3116 2648 Pls
3432 2750 Pls
3583 2851 Pls
3640 2785 Pls
3529 2735 Pls
3640 2820 Pls
3432 2740 Pls
3175 2688 Pls
3299 2666 Pls
2949 2919 Pls
3431 2756 Pls
3455 2816 Pls
3529 2984 Pls
2904 2854 Pls
3254 2761 Pls
3640 2800 Pls
3529 2894 Pls
3768 2866 Pls
3422 2799 Pls
3617 2851 Pls
3184 2654 Pls
2853 2802 Pls
3047 2340 Pls
3265 2777 Pls
3216 2808 Pls
3617 2729 Pls
3344 2753 Pls
2813 2746 Pls
2914 2762 Pls
2954 2545 Pls
3583 2874 Pls
3344 2784 Pls
3432 2727 Pls
3640 2922 Pls
3265 2642 Pls
2845 2735 Pls
3127 2661 Pls
3640 2950 Pls
3254 2722 Pls
3416 2972 Pls
3529 2801 Pls
3344 2664 Pls
3529 2731 Pls
3118 2808 Pls
3767 2851 Pls
3432 2709 Pls
3529 2734 Pls
3601 2731 Pls
3768 2914 Pls
3287 2711 Pls
3344 2736 Pls
3344 2661 Pls
2939 2581 Pls
3169 2681 Pls
3508 2848 Pls
3432 2892 Pls
3084 2413 Pls
3768 2924 Pls
3640 2994 Pls
3509 2876 Pls
3768 2867 Pls
2766 2609 Pls
3047 2633 Pls
3428 2699 Pls
3119 2852 Pls
3640 2911 Pls
3034 2564 Pls
3432 2903 Pls
3344 2761 Pls
3878 3004 Pls
3431 2830 Pls
3919 2957 Pls
3617 2950 Pls
3738 2888 Pls
3583 2789 Pls
3344 2695 Pls
3312 2666 Pls
3312 2691 Pls
3344 2634 Pls
3183 2690 Pls
3265 2688 Pls
3529 2770 Pls
3529 2721 Pls
2795 2779 Pls
3919 2967 Pls
3335 2804 Pls
3768 2914 Pls
3639 2837 Pls
3065 2452 Pls
3601 3079 Pls
3143 2636 Pls
3265 2772 Pls
3364 2586 Pls
3265 2802 Pls
2796 2589 Pls
3312 2815 Pls
3193 2843 Pls
3344 2985 Pls
3168 2536 Pls
3265 2761 Pls
3768 2860 Pls
3529 2698 Pls
3183 2635 Pls
3825 2913 Pls
3311 2715 Pls
3529 2743 Pls
3312 2687 Pls
3640 2852 Pls
3344 2821 Pls
3416 2782 Pls
3116 2394 Pls
3265 2624 Pls
3416 2722 Pls
3510 2768 Pls
3529 2747 Pls
3529 2695 Pls
3511 2679 Pls
3425 2860 Pls
3312 2526 Pls
3601 2896 Pls
2823 2583 Pls
3029 2787 Pls
3501 2917 Pls
3529 2728 Pls
3640 2922 Pls
3265 2635 Pls
3768 2889 Pls
3065 2524 Pls
3878 2937 Pls
3167 2703 Pls
3127 2764 Pls
3511 2675 Pls
3737 2972 Pls
3126 2470 Pls
3432 2706 Pls
3431 2831 Pls
3193 2647 Pls
3879 3023 Pls
3193 2962 Pls
2939 2633 Pls
3640 2856 Pls
3365 2668 Pls
3432 2728 Pls
3335 2951 Pls
3216 2508 Pls
2856 2740 Pls
3265 2514 Pls
3189 2722 Pls
3344 2605 Pls
3312 2714 Pls
3529 2665 Pls
2801 2534 Pls
3529 2815 Pls
3314 2844 Pls
3432 2597 Pls
3483 2956 Pls
3332 2641 Pls
3649 2891 Pls
3193 2892 Pls
3344 2551 Pls
3261 2502 Pls
3254 2636 Pls
3192 2714 Pls
3919 2987 Pls
3265 2699 Pls
2989 2845 Pls
3344 2685 Pls
3583 2804 Pls
3504 2748 Pls
3768 2864 Pls
3265 2723 Pls
3254 2968 Pls
3240 2694 Pls
3365 2820 Pls
2857 2671 Pls
3511 2828 Pls
2756 2723 Pls
3126 2598 Pls
3529 2691 Pls
3344 2571 Pls
3344 2716 Pls
3416 2780 Pls
3738 2881 Pls
3343 2579 Pls
2878 2615 Pls
3529 2854 Pls
3008 2438 Pls
3529 2883 Pls
3312 2974 Pls
3529 2693 Pls
2899 2664 Pls
3288 2677 Pls
2759 2803 Pls
3640 2862 Pls
3510 2650 Pls
3233 2788 Pls
3193 2899 Pls
3332 2962 Pls
3583 2793 Pls
3209 2854 Pls
3450 2724 Pls
3529 2664 Pls
3265 2559 Pls
3766 2851 Pls
3529 2747 Pls
3255 2728 Pls
3150 3057 Pls
3178 2974 Pls
3529 2742 Pls
3432 2623 Pls
3483 2757 Pls
3344 2690 Pls
3529 3050 Pls
3107 2467 Pls
3640 2808 Pls
3640 2972 Pls
3084 2555 Pls
3393 2829 Pls
3331 2869 Pls
3919 3046 Pls
3070 2860 Pls
3738 2819 Pls
3365 2992 Pls
3431 2772 Pls
3768 2987 Pls
3265 2568 Pls
3303 2958 Pls
3450 2627 Pls
3768 2894 Pls
3767 2854 Pls
3529 2780 Pls
3529 2928 Pls
3640 2795 Pls
3193 2513 Pls
3431 2650 Pls
3254 2909 Pls
3432 2767 Pls
3046 2549 Pls
3432 2732 Pls
3265 2807 Pls
2948 2374 Pls
2997 2693 Pls
3332 2621 Pls
3265 2655 Pls
3432 2708 Pls
3265 2795 Pls
3193 2438 Pls
3344 2815 Pls
3529 2724 Pls
3601 2716 Pls
3193 2671 Pls
3030 2817 Pls
3768 2876 Pls
3265 2659 Pls
2904 2850 Pls
3127 2872 Pls
3265 2843 Pls
3529 2847 Pls
3529 2784 Pls
3976 3001 Pls
3264 2787 Pls
3629 2948 Pls
3583 2832 Pls
3288 2817 Pls
3877 2936 Pls
3544 2759 Pls
3529 2864 Pls
2949 2346 Pls
3331 2602 Pls
3344 2578 Pls
3432 2687 Pls
3335 2847 Pls
3416 2932 Pls
3432 2747 Pls
3450 2767 Pls
3416 2701 Pls
3462 2827 Pls
3640 2831 Pls
3768 2980 Pls
3344 2558 Pls
3184 2781 Pls
3264 2701 Pls
3338 2689 Pls
3504 2701 Pls
3529 2829 Pls
3616 2747 Pls
3265 2523 Pls
3529 2798 Pls
3640 2924 Pls
3335 2963 Pls
3432 3083 Pls
3450 2682 Pls
3065 2373 Pls
3431 2774 Pls
3616 3010 Pls
3904 2960 Pls
3640 2750 Pls
3737 2880 Pls
3617 2878 Pls
2941 2353 Pls
3529 2788 Pls
3344 2696 Pls
3617 2813 Pls
3432 2794 Pls
3432 2865 Pls
3344 2786 Pls
3169 2720 Pls
3331 2787 Pls
2940 2575 Pls
3711 2870 Pls
3450 2911 Pls
3878 2949 Pls
3431 2634 Pls
3583 2715 Pls
3344 2798 Pls
3483 2734 Pls
3768 2938 Pls
3529 2877 Pls
3416 2875 Pls
3834 2974 Pls
3738 2941 Pls
3696 2805 Pls
3237 2649 Pls
3116 2683 Pls
3640 2755 Pls
3265 2655 Pls
3711 2925 Pls
3511 2783 Pls
3737 2927 Pls
3071 2786 Pls
3640 2899 Pls
3432 2673 Pls
3583 2846 Pls
3332 2755 Pls
3265 2588 Pls
3415 2839 Pls
3640 2846 Pls
3529 2765 Pls
3064 2607 Pls
3344 2551 Pls
3344 2550 Pls
3032 2634 Pls
3529 2815 Pls
3529 2719 Pls
3544 2849 Pls
2978 2724 Pls
3483 2694 Pls
3710 2802 Pls
3272 2647 Pls
3640 2804 Pls
3265 2472 Pls
3344 2720 Pls
3529 2856 Pls
3738 2827 Pls
3260 2507 Pls
3126 2856 Pls
3696 2799 Pls
3511 2799 Pls
3037 2715 Pls
3640 2853 Pls
3432 2991 Pls
3332 2806 Pls
3503 2948 Pls
3383 2588 Pls
3511 2853 Pls
3344 2932 Pls
3640 2864 Pls
3265 2524 Pls
3640 2812 Pls
3768 2928 Pls
3529 2834 Pls
3503 2791 Pls
3529 2833 Pls
3344 2577 Pls
3432 2590 Pls
3272 2706 Pls
3343 2937 Pls
3312 2670 Pls
3304 2865 Pls
3393 2708 Pls
3344 2592 Pls
3529 2801 Pls
3521 2889 Pls
3511 2809 Pls
3432 2791 Pls
2954 2426 Pls
3008 2887 Pls
3237 2491 Pls
3397 2680 Pls
3529 2859 Pls
3655 2886 Pls
3879 2995 Pls
3432 2662 Pls
3450 2753 Pls
3529 2707 Pls
3737 2838 Pls
3344 2674 Pls
3640 2931 Pls
2751 2589 Pls
3554 2777 Pls
3463 2625 Pls
3504 2650 Pls
3416 2643 Pls
3265 2740 Pls
3768 2941 Pls
3738 2925 Pls
3105 2817 Pls
3616 2826 Pls
3508 2885 Pls
3254 2655 Pls
3216 2573 Pls
3640 2808 Pls
3309 2862 Pls
2895 2570 Pls
3504 3061 Pls
3879 3010 Pls
3344 2792 Pls
3767 2851 Pls
3903 3007 Pls
3193 2542 Pls
3738 2828 Pls
3331 2631 Pls
3216 2732 Pls
3640 2858 Pls
3529 2872 Pls
3265 2678 Pls
2899 2510 Pls
3126 2687 Pls
3311 2620 Pls
3529 2785 Pls
3331 2698 Pls
2933 2626 Pls
3432 2761 Pls
3463 2855 Pls
3640 2848 Pls
3257 2467 Pls
3193 2785 Pls
3529 2798 Pls
3216 2558 Pls
3415 2868 Pls
3344 2525 Pls
3089 2680 Pls
3649 3071 Pls
3552 2831 Pls
3254 2520 Pls
3649 2956 Pls
3768 2879 Pls
3640 2805 Pls
3617 3006 Pls
3583 2904 Pls
3331 2568 Pls
3463 2846 Pls
3640 2918 Pls
3393 2822 Pls
3193 2782 Pls
3432 2800 Pls
2877 2720 Pls
3529 2692 Pls
3431 2726 Pls
2892 2743 Pls
3288 2644 Pls
3432 2818 Pls
3008 2706 Pls
3126 2777 Pls
3616 2735 Pls
3825 2903 Pls
3344 2554 Pls
3432 2656 Pls
3696 2828 Pls
3265 2603 Pls
3344 2548 Pls
3432 2590 Pls
3429 2607 Pls
3342 2727 Pls
3768 3007 Pls
3216 2581 Pls
2904 2592 Pls
3904 3013 Pls
3416 2634 Pls
3358 2769 Pls
3344 2821 Pls
3879 2936 Pls
3116 2652 Pls
2958 2548 Pls
2985 2554 Pls
3529 2808 Pls
3821 2987 Pls
3482 2836 Pls
3380 2744 Pls
3616 2755 Pls
2171 2389 Pls
3482 2657 Pls
3738 2841 Pls
3432 2695 Pls
3261 2787 Pls
3529 2914 Pls
3529 2753 Pls
3432 2830 Pls
3119 2615 Pls
3582 2765 Pls
3193 2995 Pls
3640 2890 Pls
3344 2871 Pls
3344 2776 Pls
3511 2839 Pls
3768 2945 Pls
3616 2745 Pls
3058 2650 Pls
3639 2797 Pls
3529 2872 Pls
3640 2846 Pls
3431 2833 Pls
3640 2811 Pls
3193 2551 Pls
3422 2782 Pls
3529 2797 Pls
3344 2707 Pls
3529 2695 Pls
3640 2805 Pls
3237 2494 Pls
3582 2809 Pls
3529 2706 Pls
3365 2944 Pls
3343 2563 Pls
3265 2851 Pls
3148 2897 Pls
3705 2887 Pls
2857 2883 Pls
3583 2823 Pls
3738 2903 Pls
3265 2489 Pls
3529 2826 Pls
3193 2644 Pls
3738 2925 Pls
3529 2759 Pls
3640 2949 Pls
3254 2633 Pls
3344 2827 Pls
3127 2679 Pls
3450 2771 Pls
3215 2723 Pls
3193 2409 Pls
3431 2737 Pls
3261 2825 Pls
3381 2835 Pls
3463 2750 Pls
3738 2858 Pls
3431 2701 Pls
3701 2944 Pls
3640 2912 Pls
3583 2734 Pls
3529 2721 Pls
3416 2719 Pls
3825 2899 Pls
3431 2801 Pls
3640 2877 Pls
3640 2981 Pls
3529 2721 Pls
3696 2872 Pls
3237 2757 Pls
3193 2494 Pls
3508 2708 Pls
3184 2508 Pls
3416 2872 Pls
3640 2807 Pls
2856 2629 Pls
2954 2456 Pls
3344 2753 Pls
3183 2638 Pls
3265 2732 Pls
3344 2655 Pls
3768 2895 Pls
3216 2664 Pls
3311 2617 Pls
3431 2586 Pls
3431 2781 Pls
3008 2687 Pls
3216 2652 Pls
3617 2793 Pls
3265 2869 Pls
3529 2795 Pls
3695 2992 Pls
3738 2964 Pls
3344 2786 Pls
3529 2833 Pls
3529 2773 Pls
3529 2879 Pls
3264 2901 Pls
2963 2565 Pls
3529 2673 Pls
3331 2834 Pls
3529 2689 Pls
3528 2874 Pls
% End plot #1
% Begin plot #2
0.500 UP
0.500 UL
LTb
0.73 0.85 0.33 C 4343 2944 Crs
3768 2718 Crs
4679 2665 Crs
3768 2674 Crs
3640 2209 Crs
3879 2474 Crs
3919 2879 Crs
3768 2569 Crs
3344 2462 Crs
3919 2922 Crs
4383 2746 Crs
4047 2765 Crs
3640 2278 Crs
4104 2853 Crs
4047 2899 Crs
3738 2674 Crs
3344 2237 Crs
3510 2607 Crs
3639 2268 Crs
3768 2562 Crs
4343 2667 Crs
3616 2561 Crs
4104 2425 Crs
3640 2724 Crs
4104 2865 Crs
3919 2756 Crs
3617 2680 Crs
3768 2795 Crs
3919 2639 Crs
3738 2414 Crs
4047 2828 Crs
3768 2840 Crs
4104 2746 Crs
3768 2637 Crs
3825 2795 Crs
3738 2474 Crs
3767 2578 Crs
3640 2359 Crs
3768 2595 Crs
3919 2664 Crs
3246 2088 Crs
3582 2613 Crs
4104 2665 Crs
3640 2476 Crs
3919 2945 Crs
4104 2694 Crs
4047 2640 Crs
4343 2661 Crs
3640 2612 Crs
3976 2479 Crs
3331 2436 Crs
3412 2378 Crs
3529 2648 Crs
3640 2718 Crs
3617 2708 Crs
4104 2706 Crs
3919 2536 Crs
3529 2541 Crs
3919 2904 Crs
4104 2667 Crs
4255 2765 Crs
3509 2471 Crs
3265 2341 Crs
3879 2711 Crs
3738 2621 Crs
3768 2728 Crs
4679 2885 Crs
4104 2635 Crs
3126 1903 Crs
4343 2704 Crs
4047 2764 Crs
3432 2261 Crs
3529 2635 Crs
3614 2599 Crs
3768 2723 Crs
3768 2671 Crs
3640 2696 Crs
3919 2590 Crs
3738 2432 Crs
3737 2763 Crs
3640 2176 Crs
3583 2537 Crs
3640 2686 Crs
4255 2942 Crs
4343 2682 Crs
3768 2569 Crs
3737 2623 Crs
3344 2331 Crs
3976 2378 Crs
3768 2784 Crs
3529 2252 Crs
3463 2464 Crs
4679 2766 Crs
4104 2662 Crs
3825 2484 Crs
4047 2822 Crs
3976 2640 Crs
3431 2038 Crs
3768 2825 Crs
3918 2830 Crs
3768 2840 Crs
3825 2796 Crs
3918 2542 Crs
3879 2907 Crs
3879 2168 Crs
4104 2685 Crs
3919 2861 Crs
3264 2014 Crs
3919 2598 Crs
3919 2842 Crs
3768 2799 Crs
3529 2614 Crs
3768 2391 Crs
4528 2813 Crs
3511 2449 Crs
3976 2795 Crs
3768 2589 Crs
3617 2585 Crs
3919 2585 Crs
4047 2700 Crs
3768 2746 Crs
4343 2643 Crs
3432 2545 Crs
3344 2387 Crs
3976 2833 Crs
3510 2582 Crs
3265 1953 Crs
3768 2412 Crs
3431 2239 Crs
4104 2522 Crs
3640 2738 Crs
4255 2951 Crs
3529 2540 Crs
3767 2406 Crs
3637 2674 Crs
3344 2174 Crs
2852 2111 Crs
3919 2579 Crs
3768 2662 Crs
3617 2683 Crs
3047 2122 Crs
3529 2472 Crs
3879 2335 Crs
4104 2557 Crs
3825 2727 Crs
3768 2637 Crs
3640 2739 Crs
3919 2710 Crs
3583 2640 Crs
3919 2825 Crs
4104 2505 Crs
3879 2858 Crs
3768 2466 Crs
4104 2644 Crs
4047 2682 Crs
3919 2470 Crs
4104 2500 Crs
4104 2871 Crs
3919 2454 Crs
3768 2757 Crs
4042 2769 Crs
3529 2551 Crs
3529 2319 Crs
4383 2686 Crs
4158 2855 Crs
4104 2473 Crs
3919 2495 Crs
3582 2620 Crs
3511 2464 Crs
3432 2345 Crs
3768 2610 Crs
3331 2507 Crs
4104 2928 Crs
3649 2647 Crs
3919 2705 Crs
3768 2675 Crs
3768 2625 Crs
3919 2337 Crs
3768 2735 Crs
4104 2618 Crs
4047 2668 Crs
3529 2611 Crs
3879 2616 Crs
3912 2449 Crs
3432 2528 Crs
3768 2626 Crs
4047 2576 Crs
3265 2151 Crs
3529 2606 Crs
3879 2723 Crs
3640 2212 Crs
3737 2623 Crs
4383 2378 Crs
3340 2022 Crs
3878 2746 Crs
3976 2641 Crs
3331 2510 Crs
2978 2027 Crs
4104 2757 Crs
3919 2469 Crs
3617 2261 Crs
3919 2666 Crs
3919 2837 Crs
3529 2376 Crs
4343 2635 Crs
3738 2421 Crs
4047 2522 Crs
3416 2540 Crs
4343 2645 Crs
3919 2731 Crs
4043 2895 Crs
3919 2771 Crs
3825 2754 Crs
4104 2848 Crs
3640 2664 Crs
3640 2643 Crs
3976 2836 Crs
3193 1882 Crs
3254 2138 Crs
3919 2700 Crs
3184 2368 Crs
3919 2644 Crs
4255 2685 Crs
3511 2632 Crs
3640 2656 Crs
3640 2613 Crs
3767 2748 Crs
4104 2786 Crs
3430 2429 Crs
3529 2532 Crs
4047 2591 Crs
3768 2722 Crs
3695 2773 Crs
3919 2607 Crs
3431 2510 Crs
4528 2684 Crs
4104 2679 Crs
4677 2834 Crs
3640 2383 Crs
3640 2527 Crs
3768 2625 Crs
3768 2577 Crs
3738 2770 Crs
4255 2367 Crs
4343 2835 Crs
3431 2477 Crs
3919 2730 Crs
3904 2746 Crs
3544 2379 Crs
3825 2560 Crs
3919 2787 Crs
4104 2959 Crs
3878 2649 Crs
3919 2432 Crs
4047 2684 Crs
3640 2670 Crs
3617 2545 Crs
3825 2836 Crs
3344 2341 Crs
3919 2764 Crs
3918 2836 Crs
4104 2469 Crs
3768 2779 Crs
3431 2013 Crs
3879 2584 Crs
3510 2640 Crs
4104 2819 Crs
3340 2379 Crs
3393 2036 Crs
3919 2793 Crs
3529 2660 Crs
3617 2567 Crs
3640 2729 Crs
3834 2846 Crs
4343 2423 Crs
4104 2727 Crs
3768 2517 Crs
3919 2566 Crs
3919 2650 Crs
3640 2585 Crs
3617 2588 Crs
4679 2909 Crs
4103 2790 Crs
3265 2010 Crs
4255 2841 Crs
3919 2786 Crs
3879 2653 Crs
3640 2511 Crs
3919 2701 Crs
3583 2576 Crs
3919 2816 Crs
4343 2751 Crs
3768 2469 Crs
4343 2705 Crs
3879 2470 Crs
3760 2551 Crs
3768 2550 Crs
4104 2874 Crs
4104 2357 Crs
3649 2739 Crs
4104 2714 Crs
3976 2489 Crs
3344 2455 Crs
3529 2600 Crs
3919 2684 Crs
4343 2957 Crs
4047 2771 Crs
3768 2818 Crs
4528 2683 Crs
3878 2585 Crs
4101 2739 Crs
3640 2168 Crs
3254 2420 Crs
3528 2351 Crs
3169 2371 Crs
3919 2679 Crs
3529 2502 Crs
3529 2598 Crs
3640 2613 Crs
4343 2894 Crs
3617 2706 Crs
3344 2406 Crs
4157 2479 Crs
3529 2470 Crs
4104 2996 Crs
4255 2598 Crs
3738 2524 Crs
4255 2768 Crs
3767 2695 Crs
3919 2435 Crs
4255 2871 Crs
3430 2537 Crs
3617 2485 Crs
3879 2774 Crs
4104 2944 Crs
3919 2502 Crs
3705 2644 Crs
3919 2670 Crs
3768 2686 Crs
3919 2666 Crs
3768 2376 Crs
3768 2532 Crs
3768 2717 Crs
3431 2443 Crs
3919 2434 Crs
3432 2426 Crs
4255 2655 Crs
3529 2630 Crs
3526 2295 Crs
3768 2524 Crs
4104 2703 Crs
3738 2777 Crs
4102 2669 Crs
4104 2536 Crs
3919 2818 Crs
4047 2619 Crs
3919 2633 Crs
3640 2729 Crs
3617 2584 Crs
4343 2796 Crs
4104 2935 Crs
3878 2833 Crs
3976 2531 Crs
3768 2192 Crs
4047 2568 Crs
3768 2478 Crs
4104 2872 Crs
4158 2758 Crs
3768 2499 Crs
4047 2451 Crs
4104 2713 Crs
3834 2409 Crs
4043 2781 Crs
3511 2619 Crs
3919 2427 Crs
3919 2685 Crs
3919 2822 Crs
3825 2388 Crs
3976 2629 Crs
3768 2513 Crs
3918 2416 Crs
3768 2372 Crs
3768 2699 Crs
3735 2528 Crs
4047 2456 Crs
4047 2803 Crs
3529 2465 Crs
3583 2593 Crs
4343 2752 Crs
3511 2626 Crs
3737 2525 Crs
3344 2340 Crs
4158 2831 Crs
3640 2639 Crs
4343 2612 Crs
4047 2848 Crs
3919 2647 Crs
3768 2707 Crs
3738 2740 Crs
3344 2097 Crs
4047 2747 Crs
3919 2473 Crs
3529 2640 Crs
4340 2512 Crs
3823 2253 Crs
3919 2881 Crs
3919 2688 Crs
3617 2666 Crs
4104 2724 Crs
4343 2720 Crs
3919 2884 Crs
3529 2622 Crs
3529 2296 Crs
4104 2707 Crs
4104 2557 Crs
3953 2902 Crs
4047 2725 Crs
4104 2662 Crs
3976 2638 Crs
3431 2536 Crs
3640 2717 Crs
3825 2704 Crs
3919 2471 Crs
3344 2451 Crs
3738 2661 Crs
4383 2900 Crs
4104 2879 Crs
3696 2637 Crs
3879 2878 Crs
3106 2337 Crs
4343 2738 Crs
3065 2002 Crs
3529 2466 Crs
4104 2670 Crs
3768 2676 Crs
3767 2638 Crs
3432 2233 Crs
3919 2773 Crs
3879 2826 Crs
3919 2574 Crs
4679 2783 Crs
4047 2841 Crs
3768 2502 Crs
4104 2809 Crs
3529 2454 Crs
3767 2725 Crs
4104 2891 Crs
3976 2787 Crs
3919 2352 Crs
3640 2675 Crs
3184 2365 Crs
3768 2615 Crs
4342 2837 Crs
3768 2610 Crs
3825 2771 Crs
3976 2587 Crs
3834 2882 Crs
3640 2565 Crs
3919 2752 Crs
3768 2688 Crs
3738 2709 Crs
3768 2518 Crs
3640 2460 Crs
3919 2528 Crs
4103 2699 Crs
3919 2762 Crs
3919 2481 Crs
3344 2280 Crs
3878 2523 Crs
3529 2508 Crs
4104 2839 Crs
4047 2847 Crs
3510 2471 Crs
3529 2385 Crs
3640 2683 Crs
3919 2777 Crs
3825 2734 Crs
3768 2553 Crs
3265 2200 Crs
3738 2582 Crs
4341 2484 Crs
4047 2909 Crs
3919 2701 Crs
3582 2576 Crs
3649 2357 Crs
3768 2718 Crs
3879 2757 Crs
3825 2768 Crs
3640 2597 Crs
4104 2833 Crs
3768 2496 Crs
3768 2823 Crs
4343 2671 Crs
3254 2216 Crs
3919 2777 Crs
3825 2720 Crs
3640 2550 Crs
3919 2377 Crs
3450 2601 Crs
4526 2596 Crs
3529 2651 Crs
3768 2830 Crs
4343 2934 Crs
3919 2675 Crs
3919 2610 Crs
4047 2807 Crs
4104 2381 Crs
4679 2706 Crs
4343 2572 Crs
3529 2619 Crs
3431 2485 Crs
3640 2656 Crs
3640 2547 Crs
3919 2674 Crs
3919 2694 Crs
3919 2551 Crs
3919 2880 Crs
3919 2595 Crs
3344 2205 Crs
3768 2611 Crs
3879 2590 Crs
3879 2749 Crs
3416 2460 Crs
3768 2597 Crs
4047 2732 Crs
3919 2870 Crs
4343 2755 Crs
3976 2987 Crs
3768 2423 Crs
3768 2623 Crs
3616 2362 Crs
4104 2677 Crs
4104 2713 Crs
4158 2814 Crs
3265 2055 Crs
4103 2789 Crs
3903 2683 Crs
4104 2643 Crs
3919 2649 Crs
3483 2573 Crs
4343 2807 Crs
3737 2674 Crs
4101 2662 Crs
3529 2200 Crs
4255 2600 Crs
3640 2671 Crs
3768 2342 Crs
4679 2740 Crs
4104 2388 Crs
3825 2724 Crs
3640 2575 Crs
3617 2453 Crs
3127 2341 Crs
3416 2265 Crs
3432 2518 Crs
3265 2167 Crs
4343 2576 Crs
3919 2389 Crs
4342 2872 Crs
4104 2674 Crs
4047 2354 Crs
3768 2632 Crs
3632 2721 Crs
3582 2241 Crs
4494 2917 Crs
3738 2757 Crs
3737 2618 Crs
3738 2739 Crs
3768 2761 Crs
3904 2621 Crs
3919 2532 Crs
3919 2756 Crs
3529 2418 Crs
3765 2718 Crs
3640 2705 Crs
4104 2931 Crs
3768 2675 Crs
3879 2493 Crs
3919 2939 Crs
3768 2600 Crs
3919 2497 Crs
3825 2247 Crs
3768 2484 Crs
3768 2775 Crs
4104 2829 Crs
4047 2743 Crs
3483 2363 Crs
3463 2487 Crs
3919 2827 Crs
3768 2521 Crs
3768 2818 Crs
3639 2486 Crs
3919 2447 Crs
3529 2589 Crs
3529 2555 Crs
3193 2107 Crs
3510 2265 Crs
3919 2771 Crs
3768 2337 Crs
3529 2574 Crs
3738 2656 Crs
3640 2686 Crs
4255 2528 Crs
3529 2227 Crs
3768 2787 Crs
3919 2805 Crs
3768 2661 Crs
3529 2340 Crs
3617 2451 Crs
3825 2623 Crs
4104 2709 Crs
4255 2962 Crs
3919 2643 Crs
4104 2845 Crs
3825 2432 Crs
3429 2466 Crs
4253 2770 Crs
3332 2348 Crs
3529 2563 Crs
4104 2656 Crs
3583 2334 Crs
3529 2551 Crs
3768 2748 Crs
3879 2568 Crs
4047 2565 Crs
4342 2784 Crs
4047 2744 Crs
3432 2501 Crs
3511 2528 Crs
3976 2688 Crs
3640 2449 Crs
3825 2875 Crs
3529 2631 Crs
3919 2640 Crs
3483 2504 Crs
3529 2562 Crs
4046 2920 Crs
3768 2720 Crs
3919 2592 Crs
3640 2594 Crs
3768 2735 Crs
3768 2426 Crs
3640 2718 Crs
4104 2702 Crs
3919 2717 Crs
3879 2577 Crs
3738 2611 Crs
3432 2358 Crs
3768 2745 Crs
3463 2533 Crs
3511 2206 Crs
3617 2419 Crs
3640 2725 Crs
3640 2148 Crs
3919 2651 Crs
3510 2496 Crs
3640 2636 Crs
4343 2695 Crs
3463 2413 Crs
3432 2451 Crs
4154 2532 Crs
3768 2591 Crs
3255 2447 Crs
3582 2599 Crs
3432 2381 Crs
3879 2881 Crs
3768 2426 Crs
3738 2688 Crs
3511 2597 Crs
3696 2725 Crs
3825 2602 Crs
3640 2559 Crs
3768 2770 Crs
3768 2235 Crs
3919 2701 Crs
3583 2626 Crs
4679 2818 Crs
4255 2967 Crs
3917 2667 Crs
3919 2753 Crs
4064 2476 Crs
3416 2140 Crs
3193 2300 Crs
3821 2725 Crs
3768 2762 Crs
3738 2730 Crs
3767 2766 Crs
3919 2753 Crs
3529 2454 Crs
3529 2573 Crs
3529 2591 Crs
3738 2699 Crs
3432 2465 Crs
3768 2463 Crs
3640 2570 Crs
3879 2729 Crs
3432 2484 Crs
3529 2403 Crs
4047 2861 Crs
3953 2693 Crs
3768 2359 Crs
3344 2384 Crs
3738 2776 Crs
3919 2861 Crs
4157 2666 Crs
4104 2708 Crs
3768 2493 Crs
4104 2529 Crs
3344 2301 Crs
4343 2552 Crs
3738 2751 Crs
3640 2433 Crs
3529 2594 Crs
4104 2625 Crs
3768 2677 Crs
3919 2735 Crs
3879 2664 Crs
4047 2670 Crs
3919 2525 Crs
3529 2562 Crs
3879 2690 Crs
3265 2375 Crs
3696 2754 Crs
4343 2684 Crs
3738 2709 Crs
3768 2213 Crs
3529 2577 Crs
3640 2674 Crs
3640 2597 Crs
3825 2671 Crs
3640 2680 Crs
3767 2238 Crs
3902 2604 Crs
3511 2548 Crs
4104 2501 Crs
4104 2761 Crs
3510 2105 Crs
3529 2334 Crs
3344 2161 Crs
4158 2875 Crs
3431 2534 Crs
3737 2783 Crs
3919 2704 Crs
3738 2651 Crs
4343 2786 Crs
3640 2630 Crs
4255 2674 Crs
4383 2618 Crs
4342 2734 Crs
3768 2666 Crs
3583 2547 Crs
4104 2493 Crs
3919 2525 Crs
3640 2534 Crs
3878 2768 Crs
3768 2533 Crs
4046 2681 Crs
3640 2714 Crs
3879 2751 Crs
4528 2547 Crs
4493 2687 Crs
3768 2767 Crs
4255 2667 Crs
4679 2651 Crs
3919 2886 Crs
4255 2751 Crs
4047 2591 Crs
3640 2652 Crs
3529 2591 Crs
3332 2357 Crs
3879 2836 Crs
3919 2718 Crs
3737 2259 Crs
3919 2616 Crs
3919 2860 Crs
4104 2647 Crs
4343 2646 Crs
3503 2351 Crs
4251 2764 Crs
3738 2531 Crs
3640 2725 Crs
3919 2824 Crs
4343 2956 Crs
3879 2662 Crs
3976 2725 Crs
3976 2723 Crs
3737 2632 Crs
3640 2372 Crs
3544 2663 Crs
4047 2820 Crs
3640 2563 Crs
3768 2558 Crs
3649 2665 Crs
3335 2196 Crs
4104 2769 Crs
3529 2565 Crs
3879 2585 Crs
3824 2741 Crs
3878 2555 Crs
4255 3003 Crs
3919 2856 Crs
4255 2885 Crs
4255 2765 Crs
3768 2625 Crs
3193 2003 Crs
3768 2723 Crs
4343 2837 Crs
3529 2510 Crs
3879 2555 Crs
4064 2142 Crs
3601 2532 Crs
3193 2151 Crs
4104 2853 Crs
4255 2515 Crs
3768 2712 Crs
3768 2569 Crs
3583 2489 Crs
3415 2539 Crs
4255 2514 Crs
3768 2488 Crs
3640 2348 Crs
3919 2545 Crs
4104 2963 Crs
3616 2597 Crs
3640 2616 Crs
3901 2757 Crs
4383 2580 Crs
4255 2812 Crs
3768 2645 Crs
3737 2749 Crs
4343 2912 Crs
3261 2269 Crs
3764 2223 Crs
3768 2794 Crs
3431 2407 Crs
3768 2589 Crs
3919 2651 Crs
3768 2753 Crs
4047 2550 Crs
4047 2697 Crs
3879 2709 Crs
4047 2675 Crs
3768 2743 Crs
4104 2519 Crs
3431 2061 Crs
3767 2558 Crs
3768 2767 Crs
3617 2537 Crs
3344 2385 Crs
3529 2628 Crs
3529 2520 Crs
4046 2860 Crs
3879 2778 Crs
4342 2913 Crs
3768 2500 Crs
3640 2346 Crs
3879 2828 Crs
3919 2779 Crs
3616 2430 Crs
3529 2615 Crs
3640 2480 Crs
3919 2923 Crs
4104 2772 Crs
4343 2731 Crs
3432 2441 Crs
3529 2555 Crs
3192 2021 Crs
3640 2447 Crs
3617 2333 Crs
3696 2716 Crs
3768 2501 Crs
3529 2317 Crs
3738 2633 Crs
3529 2541 Crs
4342 2683 Crs
3737 2594 Crs
4343 2829 Crs
3768 2483 Crs
4104 2756 Crs
4047 2827 Crs
4104 2713 Crs
3768 2672 Crs
3640 2430 Crs
3879 2825 Crs
4104 2630 Crs
3616 2457 Crs
4343 2887 Crs
3912 2609 Crs
3640 2715 Crs
3529 2539 Crs
4047 2636 Crs
3640 2480 Crs
3919 2860 Crs
3529 2464 Crs
4047 2787 Crs
4104 2764 Crs
3824 2810 Crs
3919 2549 Crs
3768 2522 Crs
4047 2656 Crs
3393 2365 Crs
3768 2106 Crs
3919 2753 Crs
3919 2944 Crs
3640 2516 Crs
3638 2734 Crs
3616 2651 Crs
3767 2718 Crs
3768 2780 Crs
3331 2502 Crs
3529 2640 Crs
3738 2738 Crs
3904 2626 Crs
3919 2739 Crs
3896 2639 Crs
3640 2720 Crs
3696 2747 Crs
4158 2869 Crs
3919 2828 Crs
3432 2557 Crs
3768 2311 Crs
3825 2710 Crs
3919 2827 Crs
3768 2721 Crs
4047 2785 Crs
3640 2712 Crs
4047 2560 Crs
3640 2220 Crs
3878 2884 Crs
3768 2710 Crs
3919 2512 Crs
3768 2813 Crs
4528 2890 Crs
3640 2302 Crs
3876 2675 Crs
3919 2534 Crs
3617 2625 Crs
3919 2354 Crs
3919 2782 Crs
3919 2449 Crs
3529 2545 Crs
3834 2860 Crs
4104 2690 Crs
3640 2281 Crs
3878 2470 Crs
3919 2706 Crs
3825 2696 Crs
3919 2802 Crs
4104 2827 Crs
3919 2642 Crs
4253 2760 Crs
3919 2821 Crs
4104 2657 Crs
4383 2729 Crs
3617 2655 Crs
3878 2299 Crs
3768 2493 Crs
4104 2811 Crs
4104 2592 Crs
3768 2518 Crs
3640 2711 Crs
3879 2391 Crs
3768 2437 Crs
3416 2116 Crs
4343 2682 Crs
4104 2791 Crs
4255 2512 Crs
3649 2503 Crs
4047 2451 Crs
3617 2613 Crs
3919 2396 Crs
3265 2283 Crs
4104 2819 Crs
3529 2427 Crs
4104 2386 Crs
4343 2733 Crs
4255 2430 Crs
3738 2640 Crs
3640 2679 Crs
3344 2483 Crs
4104 2837 Crs
3519 2527 Crs
3640 2596 Crs
3344 2438 Crs
3640 2612 Crs
4104 2789 Crs
3768 2527 Crs
3919 2796 Crs
3640 2682 Crs
3342 2289 Crs
3767 2700 Crs
3529 2630 Crs
4104 2680 Crs
3919 2766 Crs
3768 2409 Crs
3768 2646 Crs
3768 2502 Crs
3768 2653 Crs
3919 2833 Crs
3432 2319 Crs
3265 2259 Crs
3649 2687 Crs
3617 2683 Crs
3767 2313 Crs
4342 2718 Crs
3640 2695 Crs
3919 2744 Crs
3737 2746 Crs
3265 2069 Crs
3640 2411 Crs
3919 2721 Crs
4104 2567 Crs
4343 2648 Crs
4101 2352 Crs
3601 2512 Crs
3583 2698 Crs
3529 2595 Crs
3640 2434 Crs
3919 2591 Crs
4255 2648 Crs
4104 2474 Crs
4528 2609 Crs
3768 2476 Crs
4104 2892 Crs
3919 2683 Crs
3825 2691 Crs
3450 2510 Crs
3504 2605 Crs
3919 2687 Crs
3265 2421 Crs
3640 2479 Crs
4679 2653 Crs
3640 2526 Crs
3529 2426 Crs
3640 2644 Crs
3768 2626 Crs
3616 2664 Crs
3583 2602 Crs
3529 2527 Crs
3879 2834 Crs
3768 2359 Crs
3640 2679 Crs
4255 2804 Crs
4104 2331 Crs
3529 2454 Crs
3919 2542 Crs
3344 2453 Crs
3510 2645 Crs
4047 2833 Crs
4104 2709 Crs
3640 2296 Crs
3919 2421 Crs
3529 2475 Crs
4104 2609 Crs
4343 2524 Crs
3768 2498 Crs
3640 2280 Crs
3878 2667 Crs
4158 2886 Crs
3483 2485 Crs
4528 2802 Crs
4343 2592 Crs
4383 2691 Crs
3640 2540 Crs
3953 2845 Crs
3737 2286 Crs
3583 2671 Crs
4255 2773 Crs
3879 2556 Crs
4104 2855 Crs
3878 2630 Crs
4045 2860 Crs
4064 2815 Crs
4104 2626 Crs
3768 2617 Crs
4679 2665 Crs
3738 2454 Crs
3825 2690 Crs
4104 2491 Crs
3919 2824 Crs
3416 2549 Crs
3616 2172 Crs
3529 2237 Crs
4104 2745 Crs
3919 2915 Crs
3919 2667 Crs
3819 2673 Crs
4104 2809 Crs
3738 2753 Crs
4255 2655 Crs
3919 2840 Crs
3640 2543 Crs
3640 2624 Crs
4255 2789 Crs
3696 2384 Crs
3649 2484 Crs
3511 2463 Crs
4255 2688 Crs
3529 2305 Crs
3640 2555 Crs
3432 2352 Crs
3768 2481 Crs
3919 2925 Crs
3288 2283 Crs
4679 2847 Crs
3768 2413 Crs
3768 2756 Crs
3738 2675 Crs
3431 2561 Crs
3529 2632 Crs
4104 2943 Crs
4157 2510 Crs
4047 2480 Crs
3529 2650 Crs
3767 2833 Crs
3344 2175 Crs
3640 2569 Crs
3510 2394 Crs
3582 2493 Crs
3344 2508 Crs
3825 2733 Crs
3767 2716 Crs
4104 2618 Crs
4255 3030 Crs
3640 2309 Crs
3416 2310 Crs
3640 2461 Crs
3344 2105 Crs
3639 2652 Crs
4047 2729 Crs
3640 2242 Crs
3481 2479 Crs
4343 2774 Crs
4104 2770 Crs
3919 2759 Crs
4104 2595 Crs
3879 2603 Crs
3919 2604 Crs
3919 2712 Crs
3529 2367 Crs
3904 2414 Crs
3768 2564 Crs
4343 2482 Crs
3640 2166 Crs
3919 2796 Crs
3630 2591 Crs
3738 2304 Crs
4104 2672 Crs
4104 2631 Crs
3640 2689 Crs
4158 2837 Crs
3332 2470 Crs
3768 2712 Crs
4343 2887 Crs
3919 2802 Crs
3768 2646 Crs
4047 3049 Crs
4679 2558 Crs
3640 2703 Crs
3768 2337 Crs
3919 2520 Crs
3529 2659 Crs
3640 2148 Crs
3768 2762 Crs
3640 2577 Crs
4047 2696 Crs
3919 2725 Crs
4343 2561 Crs
3919 2552 Crs
4104 2679 Crs
3431 2326 Crs
3695 2598 Crs
3976 2858 Crs
3529 2183 Crs
3976 2774 Crs
3976 2543 Crs
3431 2355 Crs
3768 2539 Crs
4255 2767 Crs
3919 2635 Crs
3919 2764 Crs
3529 2577 Crs
3529 2594 Crs
3529 2305 Crs
3879 2648 Crs
3767 2520 Crs
4343 2922 Crs
3264 1879 Crs
3768 2439 Crs
4342 2808 Crs
3649 2744 Crs
3640 2527 Crs
3768 2788 Crs
3767 2826 Crs
3919 2735 Crs
3483 2367 Crs
3529 2135 Crs
3879 2858 Crs
3767 2633 Crs
3919 2629 Crs
3344 2353 Crs
3834 2528 Crs
3344 2361 Crs
3919 2529 Crs
3617 2382 Crs
3879 2744 Crs
3919 2637 Crs
3919 2863 Crs
3640 2541 Crs
3825 2778 Crs
3529 2176 Crs
3919 2639 Crs
3529 2601 Crs
3432 2538 Crs
3919 2608 Crs
3529 2571 Crs
4064 2827 Crs
4047 2429 Crs
3638 2386 Crs
3919 2860 Crs
3065 1831 Crs
3919 2747 Crs
4047 2830 Crs
3768 2426 Crs
3528 2549 Crs
3529 2561 Crs
3825 2667 Crs
3768 2594 Crs
4342 2910 Crs
3768 2798 Crs
3919 2842 Crs
3450 2414 Crs
3768 2726 Crs
4343 2905 Crs
3640 2217 Crs
3511 2427 Crs
3768 2648 Crs
3878 2802 Crs
3529 2625 Crs
4343 2608 Crs
4104 2692 Crs
3640 2604 Crs
3768 2643 Crs
4679 2697 Crs
3834 2505 Crs
3767 2615 Crs
3529 2458 Crs
3768 2762 Crs
3640 2626 Crs
3527 2550 Crs
3919 2641 Crs
4255 2570 Crs
3648 2685 Crs
4104 2540 Crs
3529 2618 Crs
3601 2478 Crs
3529 2461 Crs
4064 2674 Crs
3768 2823 Crs
3825 2689 Crs
3335 2331 Crs
3879 2772 Crs
3640 2610 Crs
3696 2680 Crs
4104 2560 Crs
3919 2385 Crs
3919 2896 Crs
4104 2967 Crs
3919 2598 Crs
4104 2746 Crs
3919 2862 Crs
3768 2603 Crs
4343 2855 Crs
3193 2275 Crs
3879 2882 Crs
3529 2590 Crs
3768 2725 Crs
3738 2690 Crs
3768 2423 Crs
4104 2660 Crs
3879 2850 Crs
4104 2812 Crs
3529 2559 Crs
3975 2236 Crs
4343 2771 Crs
3616 2597 Crs
3639 2670 Crs
3919 2514 Crs
3525 2453 Crs
3878 2493 Crs
3768 2544 Crs
3510 2485 Crs
3738 2721 Crs
3380 2431 Crs
4343 2599 Crs
3640 2672 Crs
4528 2754 Crs
3529 2410 Crs
3768 2809 Crs
4104 2434 Crs
3768 2641 Crs
3768 2537 Crs
3640 2698 Crs
3432 2343 Crs
3768 2786 Crs
3617 2545 Crs
3768 2365 Crs
3904 2760 Crs
3640 2231 Crs
4343 2853 Crs
3696 2421 Crs
4047 2322 Crs
3879 2614 Crs
3919 2578 Crs
4104 2648 Crs
3768 2710 Crs
3768 2774 Crs
3943 2454 Crs
3919 2589 Crs
3919 2756 Crs
3640 2615 Crs
3640 2423 Crs
3976 2870 Crs
3694 2194 Crs
4343 2540 Crs
4104 2545 Crs
3919 2897 Crs
3768 2587 Crs
3768 2688 Crs
3976 2891 Crs
3768 2488 Crs
4047 2822 Crs
4104 2548 Crs
3603 2661 Crs
3344 2381 Crs
4104 2711 Crs
3768 2476 Crs
3640 2545 Crs
3976 2603 Crs
3904 2825 Crs
3919 2577 Crs
3237 2423 Crs
3768 2695 Crs
3919 2696 Crs
4679 2696 Crs
3601 2673 Crs
3834 2427 Crs
4255 2752 Crs
4047 2764 Crs
3431 2583 Crs
3768 2551 Crs
3696 2773 Crs
3878 2882 Crs
3919 2891 Crs
3768 2799 Crs
3511 2631 Crs
4104 2986 Crs
3919 2653 Crs
4255 2535 Crs
3768 2677 Crs
3483 2399 Crs
3640 2648 Crs
3919 2724 Crs
4342 2774 Crs
3919 2897 Crs
3617 2651 Crs
3767 2545 Crs
4343 2931 Crs
3617 2673 Crs
4255 2766 Crs
4343 2515 Crs
3919 2345 Crs
3768 2585 Crs
4157 2230 Crs
3483 2555 Crs
4679 2631 Crs
3919 2912 Crs
3640 2545 Crs
3976 2779 Crs
4342 2668 Crs
4528 2872 Crs
3640 2504 Crs
3768 2373 Crs
3767 2333 Crs
3768 2553 Crs
3529 2622 Crs
3432 2275 Crs
3529 2505 Crs
3617 2696 Crs
3432 2333 Crs
3768 2808 Crs
4679 2815 Crs
3919 2665 Crs
3393 2273 Crs
4047 2853 Crs
3640 2667 Crs
3344 2228 Crs
4158 2899 Crs
3639 2145 Crs
3617 2677 Crs
3529 2500 Crs
3825 2768 Crs
3483 2569 Crs
3640 2466 Crs
3529 2142 Crs
4679 2617 Crs
3871 2769 Crs
3919 2789 Crs
3768 2626 Crs
4047 2975 Crs
3919 2858 Crs
4104 2897 Crs
3919 2586 Crs
4104 2621 Crs
3825 2674 Crs
3919 2650 Crs
3976 2447 Crs
3529 2458 Crs
4343 2776 Crs
3767 2634 Crs
3879 2622 Crs
4104 2754 Crs
3738 2634 Crs
3432 2319 Crs
3768 2406 Crs
3738 2818 Crs
3768 2766 Crs
4104 2722 Crs
3529 2466 Crs
3919 2882 Crs
3640 2489 Crs
3640 2459 Crs
3529 2658 Crs
3432 2406 Crs
3640 2679 Crs
3483 2579 Crs
3875 2621 Crs
3640 2568 Crs
3344 2516 Crs
3919 2774 Crs
4679 2813 Crs
3344 1935 Crs
4103 2563 Crs
3919 2613 Crs
4343 2826 Crs
3738 2709 Crs
3919 2790 Crs
3919 2699 Crs
3616 2522 Crs
4104 2805 Crs
4158 2811 Crs
3768 2547 Crs
3432 2319 Crs
4046 2895 Crs
3504 2615 Crs
3737 2648 Crs
3768 2269 Crs
3583 2599 Crs
3768 2749 Crs
3383 2537 Crs
4104 2392 Crs
4383 2270 Crs
4104 2593 Crs
3432 2435 Crs
4103 2889 Crs
3529 2322 Crs
3768 2677 Crs
3919 2947 Crs
4047 2389 Crs
3511 2603 Crs
4255 2617 Crs
3529 2453 Crs
3365 2455 Crs
4104 2862 Crs
3919 2461 Crs
3529 2553 Crs
4343 2747 Crs
3529 2277 Crs
3529 2632 Crs
4047 2809 Crs
3127 2352 Crs
4104 3016 Crs
3432 2356 Crs
3879 2550 Crs
3919 2568 Crs
4528 2865 Crs
3768 2653 Crs
3640 2585 Crs
4104 2534 Crs
3976 2867 Crs
4047 2926 Crs
3695 2785 Crs
3919 2755 Crs
4104 2889 Crs
3768 2411 Crs
3450 2559 Crs
4104 2745 Crs
3344 2236 Crs
3917 2680 Crs
3738 2781 Crs
3768 2672 Crs
3738 2715 Crs
4158 2952 Crs
3265 2266 Crs
3919 2723 Crs
3765 2674 Crs
4104 2502 Crs
4047 2731 Crs
3529 2595 Crs
3640 2309 Crs
3640 2439 Crs
4157 2752 Crs
3737 2771 Crs
3976 2779 Crs
4158 2799 Crs
3898 2707 Crs
3976 2592 Crs
3768 2753 Crs
3919 2679 Crs
3640 2516 Crs
3767 2325 Crs
3344 1947 Crs
3639 2381 Crs
3696 2682 Crs
3639 2472 Crs
4343 2757 Crs
4104 2792 Crs
3919 2809 Crs
3919 2911 Crs
3878 2658 Crs
3696 2649 Crs
3640 2518 Crs
3431 2583 Crs
3738 2718 Crs
4104 2480 Crs
3288 2385 Crs
4047 2556 Crs
3529 2335 Crs
3529 2584 Crs
3768 2523 Crs
3640 2536 Crs
3640 2593 Crs
3768 2375 Crs
3616 2540 Crs
3312 2419 Crs
4047 2902 Crs
3616 2643 Crs
3695 2503 Crs
3310 2463 Crs
3768 2419 Crs
3640 2689 Crs
4143 2428 Crs
4104 2761 Crs
4104 2579 Crs
3768 2523 Crs
3640 2564 Crs
3483 2615 Crs
4158 2670 Crs
3919 2860 Crs
3640 2387 Crs
3450 2541 Crs
3640 2636 Crs
3879 2846 Crs
3919 2593 Crs
3640 2405 Crs
3768 2503 Crs
3344 2506 Crs
3768 2405 Crs
3529 2502 Crs
3919 2870 Crs
3767 2680 Crs
3821 2369 Crs
3976 2593 Crs
4158 2555 Crs
3193 2222 Crs
3431 2521 Crs
3918 2741 Crs
3640 2736 Crs
3649 2745 Crs
3432 2309 Crs
3919 2712 Crs
3768 2468 Crs
4104 2893 Crs
3768 2449 Crs
4047 2701 Crs
4104 2510 Crs
3919 2822 Crs
3919 2429 Crs
3768 2786 Crs
4047 2802 Crs
3768 2752 Crs
3529 2632 Crs
4104 2686 Crs
3616 2341 Crs
4104 2863 Crs
3768 2448 Crs
4104 2855 Crs
3265 2372 Crs
3640 2613 Crs
4104 2828 Crs
4252 2741 Crs
3768 2760 Crs
4255 2894 Crs
3919 2625 Crs
3529 2460 Crs
3529 2645 Crs
3640 2192 Crs
3768 2788 Crs
3919 2673 Crs
3483 2500 Crs
4343 2623 Crs
3919 2764 Crs
3879 2516 Crs
3768 2531 Crs
4104 2620 Crs
4047 2779 Crs
3696 2523 Crs
4343 2640 Crs
3919 2727 Crs
3640 2715 Crs
3878 2706 Crs
3617 2569 Crs
3529 2576 Crs
3483 2580 Crs
3193 2343 Crs
3976 2653 Crs
3711 2666 Crs
3126 1813 Crs
2807 1818 Crs
3526 2244 Crs
3768 2305 Crs
3768 2734 Crs
3768 2754 Crs
3528 2139 Crs
3711 2285 Crs
4104 2535 Crs
3825 2638 Crs
3529 2647 Crs
3768 2480 Crs
3640 2652 Crs
3640 2556 Crs
4343 2721 Crs
3344 2477 Crs
3768 2553 Crs
3529 2474 Crs
3976 2656 Crs
3767 2408 Crs
3768 2814 Crs
3582 2318 Crs
4047 2587 Crs
3738 2639 Crs
3904 2752 Crs
3738 2664 Crs
3617 2701 Crs
3344 2325 Crs
4528 2895 Crs
4104 2641 Crs
3529 2526 Crs
3193 2378 Crs
3919 2690 Crs
3640 2456 Crs
3768 2698 Crs
4255 2271 Crs
3529 2498 Crs
3640 2623 Crs
4158 2837 Crs
3428 2287 Crs
4157 2723 Crs
3344 2320 Crs
3332 2472 Crs
4104 2760 Crs
4679 2633 Crs
3429 2366 Crs
3919 2547 Crs
3529 2353 Crs
3529 2566 Crs
3738 2702 Crs
4047 2482 Crs
3825 2581 Crs
4679 2867 Crs
3919 2690 Crs
4047 2955 Crs
3919 2783 Crs
3976 2805 Crs
4103 2647 Crs
3766 2410 Crs
4047 2322 Crs
4255 2814 Crs
4047 2417 Crs
3640 2415 Crs
3919 2509 Crs
4064 2527 Crs
4383 2623 Crs
4342 2900 Crs
3877 2617 Crs
4104 2816 Crs
3737 2322 Crs
3768 2707 Crs
4255 2775 Crs
4679 2788 Crs
4104 2698 Crs
2991 2230 Crs
4679 2831 Crs
3919 2850 Crs
4104 2798 Crs
3768 2750 Crs
3640 2694 Crs
3919 2327 Crs
3919 2869 Crs
3737 2221 Crs
3640 2552 Crs
3065 2202 Crs
3738 2560 Crs
4104 2811 Crs
4255 2651 Crs
3640 2509 Crs
4679 2777 Crs
3640 2635 Crs
4255 2650 Crs
3529 2347 Crs
4158 3065 Crs
3640 2600 Crs
3640 2512 Crs
3768 2826 Crs
3640 2660 Crs
3432 2449 Crs
3738 2729 Crs
3876 2748 Crs
3738 2458 Crs
3919 2738 Crs
3919 2921 Crs
3768 2703 Crs
4343 2763 Crs
3507 2473 Crs
4047 2653 Crs
3919 2580 Crs
3919 2627 Crs
4104 2679 Crs
3529 2418 Crs
3431 2157 Crs
3919 2851 Crs
3393 2391 Crs
3976 2258 Crs
3342 2378 Crs
4143 2764 Crs
4343 2888 Crs
3529 2268 Crs
3640 2628 Crs
4343 2885 Crs
3432 2496 Crs
4104 2747 Crs
4104 2649 Crs
3904 2682 Crs
3919 2677 Crs
4343 2824 Crs
3510 2392 Crs
3432 2581 Crs
4104 2828 Crs
3640 2358 Crs
3768 2707 Crs
3768 2495 Crs
4064 2788 Crs
4343 2752 Crs
3919 2765 Crs
3768 2807 Crs
3738 2662 Crs
3825 2448 Crs
3617 2709 Crs
4104 2600 Crs
4383 2620 Crs
4343 2700 Crs
3640 2693 Crs
3768 2728 Crs
3617 2391 Crs
3918 2406 Crs
3254 2363 Crs
3265 2316 Crs
3529 2515 Crs
3528 2518 Crs
3640 2711 Crs
4104 2842 Crs
4255 2724 Crs
3822 2819 Crs
3529 2471 Crs
3640 2448 Crs
3431 2524 Crs
4255 2829 Crs
4343 2568 Crs
3919 2525 Crs
3529 2524 Crs
3919 2589 Crs
4343 2655 Crs
3265 2243 Crs
4679 2783 Crs
3904 2628 Crs
3640 2421 Crs
4047 2667 Crs
3640 2725 Crs
4104 2619 Crs
4525 2837 Crs
3768 2751 Crs
3344 2397 Crs
3640 2737 Crs
3529 2498 Crs
3529 2225 Crs
3705 2699 Crs
3344 2424 Crs
4104 2736 Crs
4679 2793 Crs
3640 2614 Crs
3919 2744 Crs
4047 2819 Crs
4047 2788 Crs
3919 2647 Crs
3737 2701 Crs
4343 2630 Crs
3738 2772 Crs
3696 2624 Crs
4104 2330 Crs
3919 2821 Crs
3919 2498 Crs
4255 2553 Crs
3768 2433 Crs
3696 2677 Crs
4104 2888 Crs
3768 2714 Crs
3825 2777 Crs
3768 2337 Crs
3416 2395 Crs
4343 2751 Crs
4104 2802 Crs
3640 2306 Crs
3919 2922 Crs
3768 2509 Crs
4679 2746 Crs
3768 2555 Crs
4158 2523 Crs
3640 2727 Crs
3431 2150 Crs
3529 2478 Crs
4104 2870 Crs
3640 2514 Crs
3879 2732 Crs
3617 2636 Crs
3768 2456 Crs
3768 2605 Crs
3344 2292 Crs
3976 2514 Crs
3919 2895 Crs
3655 2566 Crs
3768 2508 Crs
3640 2154 Crs
3529 2264 Crs
3543 2374 Crs
3640 2693 Crs
3344 2354 Crs
4046 2686 Crs
3265 2323 Crs
3636 2650 Crs
3768 2475 Crs
3768 2516 Crs
4104 2737 Crs
3879 2714 Crs
4104 2702 Crs
3265 2428 Crs
3655 2663 Crs
3193 2274 Crs
4104 2676 Crs
3640 2419 Crs
4158 3009 Crs
3768 2837 Crs
4104 2707 Crs
3919 2671 Crs
3738 2712 Crs
3768 2353 Crs
4528 2661 Crs
3259 2336 Crs
4255 2699 Crs
3640 2651 Crs
3919 2469 Crs
3879 2810 Crs
3429 2515 Crs
3919 2681 Crs
3825 2732 Crs
4104 2724 Crs
3583 2672 Crs
3976 2577 Crs
4104 2522 Crs
4253 2766 Crs
4047 2668 Crs
4104 2661 Crs
3768 2837 Crs
4104 2764 Crs
3695 2757 Crs
3768 2683 Crs
4104 2435 Crs
4047 2844 Crs
3529 2447 Crs
3640 2572 Crs
3919 2707 Crs
3919 2698 Crs
3393 2409 Crs
3878 2757 Crs
3919 2288 Crs
3768 2663 Crs
3640 2639 Crs
3919 2520 Crs
3878 2678 Crs
4104 2792 Crs
3510 2519 Crs
3640 2649 Crs
4343 2748 Crs
3919 2704 Crs
3431 2152 Crs
3431 2377 Crs
3918 2587 Crs
4343 2510 Crs
3976 2796 Crs
3919 2667 Crs
3432 2524 Crs
3919 2660 Crs
3529 2569 Crs
4158 2865 Crs
3640 2732 Crs
3265 2384 Crs
3529 2235 Crs
3649 2699 Crs
4158 2688 Crs
3768 2600 Crs
3767 2655 Crs
3768 2470 Crs
3919 2549 Crs
3529 2624 Crs
3583 2599 Crs
3432 2278 Crs
3529 2619 Crs
4255 2797 Crs
4104 2384 Crs
3919 2643 Crs
3383 2514 Crs
3877 2699 Crs
3878 2579 Crs
4104 2659 Crs
3640 2604 Crs
3878 2464 Crs
3510 2386 Crs
4103 2908 Crs
3416 2384 Crs
4383 2306 Crs
4157 2733 Crs
3332 2220 Crs
4343 2926 Crs
3919 2736 Crs
4047 2717 Crs
3878 2823 Crs
4104 2569 Crs
3192 2288 Crs
4158 2330 Crs
3919 2799 Crs
3529 2481 Crs
3767 2703 Crs
3344 2483 Crs
4158 2936 Crs
3601 2566 Crs
3879 2762 Crs
3738 2603 Crs
4679 2666 Crs
3332 2450 Crs
3976 2705 Crs
3480 2497 Crs
3638 2609 Crs
4104 2728 Crs
4104 2693 Crs
3768 2604 Crs
3738 2813 Crs
3919 2942 Crs
3768 2589 Crs
3529 2441 Crs
4158 2920 Crs
3254 2425 Crs
4047 2861 Crs
3432 2253 Crs
3432 2418 Crs
4343 2749 Crs
3919 2628 Crs
3919 2435 Crs
4104 2486 Crs
4528 2634 Crs
3768 2834 Crs
3768 2777 Crs
3696 2764 Crs
4104 2629 Crs
3976 2232 Crs
3919 2908 Crs
3431 2485 Crs
3430 2428 Crs
3919 2518 Crs
3768 2575 Crs
3768 2426 Crs
4255 2779 Crs
3528 2351 Crs
3510 2548 Crs
4047 2702 Crs
4255 2779 Crs
3193 2268 Crs
3895 2742 Crs
3768 2771 Crs
3976 2897 Crs
4679 2606 Crs
3738 2631 Crs
4342 2493 Crs
3919 2420 Crs
4343 2573 Crs
3919 2450 Crs
3919 2838 Crs
4343 2538 Crs
3510 2275 Crs
3529 2421 Crs
3511 2534 Crs
3510 2632 Crs
4104 2545 Crs
3529 2589 Crs
4104 2658 Crs
4104 2717 Crs
3126 2278 Crs
3265 2055 Crs
3878 2810 Crs
3834 2727 Crs
4104 2448 Crs
3919 2565 Crs
4104 2827 Crs
3878 2592 Crs
4046 2390 Crs
4104 2667 Crs
3768 2480 Crs
3529 2603 Crs
3768 2291 Crs
3919 2658 Crs
3510 2308 Crs
3834 2673 Crs
3416 2510 Crs
3768 2680 Crs
3878 2544 Crs
3529 2582 Crs
4255 2908 Crs
3768 2772 Crs
3768 2779 Crs
3825 2794 Crs
3768 2619 Crs
4104 2717 Crs
4047 2800 Crs
3919 2754 Crs
4104 2725 Crs
3529 2619 Crs
3768 2258 Crs
3640 2268 Crs
4679 2640 Crs
3529 2408 Crs
4343 2716 Crs
4255 2679 Crs
3640 2624 Crs
3976 2712 Crs
4104 2883 Crs
4104 2625 Crs
3463 2472 Crs
3529 2480 Crs
3064 2302 Crs
3238 2267 Crs
3919 2839 Crs
3919 2669 Crs
3392 2074 Crs
3529 2523 Crs
4047 2746 Crs
3602 2537 Crs
3919 2587 Crs
3768 2817 Crs
3640 2602 Crs
4343 2905 Crs
3544 2332 Crs
4255 2540 Crs
4046 2565 Crs
3738 2597 Crs
3432 2582 Crs
3768 2760 Crs
3640 2588 Crs
3825 2622 Crs
4343 2578 Crs
3737 2800 Crs
3237 2311 Crs
4047 2794 Crs
3768 2720 Crs
3529 2534 Crs
4047 2564 Crs
4047 2754 Crs
3601 2586 Crs
3738 2351 Crs
3878 2573 Crs
3768 2813 Crs
3738 2529 Crs
3768 2584 Crs
4104 2421 Crs
3640 2332 Crs
3919 2890 Crs
3919 2780 Crs
3919 2700 Crs
3768 2767 Crs
4047 2841 Crs
4104 2837 Crs
4104 2591 Crs
3768 2821 Crs
3825 2725 Crs
3919 2787 Crs
3768 2654 Crs
4047 2548 Crs
3834 2807 Crs
3768 2668 Crs
3738 2776 Crs
3529 2179 Crs
3638 2447 Crs
4679 2599 Crs
4047 2789 Crs
4527 2685 Crs
3311 2374 Crs
3640 2615 Crs
3768 2389 Crs
4104 2749 Crs
3432 2515 Crs
3738 2593 Crs
3738 2561 Crs
4343 2838 Crs
4047 2725 Crs
3919 2651 Crs
3768 2599 Crs
4343 2641 Crs
3640 2632 Crs
4047 2823 Crs
4104 2453 Crs
3640 2557 Crs
4255 2633 Crs
3768 2725 Crs
3640 2669 Crs
3918 2759 Crs
3919 2816 Crs
4104 2604 Crs
3919 2701 Crs
4104 2757 Crs
3768 2514 Crs
3919 2828 Crs
3640 2655 Crs
3511 2366 Crs
4679 2651 Crs
3265 2351 Crs
3919 2817 Crs
3919 2793 Crs
3432 2432 Crs
3768 2806 Crs
3767 2588 Crs
3529 2591 Crs
4104 2689 Crs
3415 2316 Crs
3919 2536 Crs
3879 2190 Crs
3768 2680 Crs
3640 2362 Crs
3583 2584 Crs
3431 2360 Crs
4104 2660 Crs
3455 2152 Crs
4679 2920 Crs
3768 2829 Crs
3639 2182 Crs
4343 2606 Crs
3768 2510 Crs
4104 2739 Crs
3878 2884 Crs
4047 2797 Crs
4047 2681 Crs
4104 2885 Crs
3601 2582 Crs
4527 2602 Crs
3919 2449 Crs
3919 2696 Crs
3768 2751 Crs
3432 2409 Crs
3529 2464 Crs
3976 2971 Crs
3768 2810 Crs
4104 2474 Crs
4104 2465 Crs
3482 2400 Crs
3737 2598 Crs
3919 2724 Crs
3432 2270 Crs
3529 2646 Crs
3639 2623 Crs
3768 2640 Crs
3738 2530 Crs
3976 2951 Crs
4255 2874 Crs
4104 2557 Crs
3640 2606 Crs
3919 2661 Crs
3919 2847 Crs
3879 2833 Crs
3918 2657 Crs
3617 2618 Crs
3640 2442 Crs
3919 2843 Crs
3768 2776 Crs
4383 2578 Crs
3640 2517 Crs
3640 2653 Crs
3919 2889 Crs
3738 2598 Crs
3344 2235 Crs
3879 2893 Crs
4255 2418 Crs
3919 2808 Crs
3919 2403 Crs
3617 2656 Crs
4047 2704 Crs
3414 2566 Crs
3640 2400 Crs
3768 2752 Crs
4343 2717 Crs
3834 2889 Crs
3529 2386 Crs
3879 2671 Crs
3919 2395 Crs
3616 2314 Crs
3919 2629 Crs
3768 2526 Crs
3919 2590 Crs
3919 2479 Crs
4255 2591 Crs
3640 2420 Crs
4679 2812 Crs
3640 2713 Crs
3919 2813 Crs
3879 2748 Crs
4342 2491 Crs
3640 2605 Crs
3639 2662 Crs
3529 2472 Crs
4064 2790 Crs
3919 2933 Crs
4255 2718 Crs
3731 2378 Crs
3768 2526 Crs
3265 2315 Crs
4104 2396 Crs
3768 2791 Crs
3104 2124 Crs
3919 2805 Crs
3919 2524 Crs
3976 2367 Crs
3616 2367 Crs
3511 2551 Crs
3450 2230 Crs
4679 2802 Crs
3879 2340 Crs
3768 2226 Crs
4047 2485 Crs
3919 2811 Crs
3640 2599 Crs
3431 2538 Crs
4343 2587 Crs
4343 2713 Crs
3640 2586 Crs
3768 2670 Crs
3432 2500 Crs
4255 2351 Crs
3640 2618 Crs
3768 2773 Crs
3738 2567 Crs
3738 2174 Crs
4047 2736 Crs
3640 2541 Crs
3768 2704 Crs
3640 2419 Crs
4104 2830 Crs
3738 2720 Crs
3617 2314 Crs
3427 2358 Crs
4104 2601 Crs
4343 2738 Crs
3919 2512 Crs
3344 2476 Crs
3640 2292 Crs
3529 2066 Crs
3919 2669 Crs
3768 2463 Crs
3344 2496 Crs
4255 2571 Crs
4679 2779 Crs
3529 2633 Crs
4343 2636 Crs
3640 2537 Crs
3768 2685 Crs
3640 2598 Crs
3919 2532 Crs
3878 2857 Crs
3344 2199 Crs
3640 2670 Crs
3583 2614 Crs
4143 2578 Crs
3529 2251 Crs
3878 2558 Crs
4343 2782 Crs
3919 2748 Crs
4104 2718 Crs
3529 2071 Crs
3825 2449 Crs
3753 2689 Crs
3919 2661 Crs
3649 2628 Crs
4047 2499 Crs
3529 2035 Crs
3529 2395 Crs
3579 2030 Crs
3919 2409 Crs
3768 2553 Crs
3878 2321 Crs
3919 2544 Crs
3878 2858 Crs
3918 2584 Crs
4104 2552 Crs
3529 2555 Crs
3482 1956 Crs
3583 2696 Crs
3737 2602 Crs
3640 2536 Crs
4383 2778 Crs
3768 2534 Crs
3879 2680 Crs
3825 2689 Crs
3879 2694 Crs
3768 2670 Crs
3431 2256 Crs
3768 2502 Crs
3640 2501 Crs
3768 2660 Crs
3432 2561 Crs
4063 2845 Crs
4679 2830 Crs
4104 2727 Crs
3919 2414 Crs
3640 2545 Crs
4104 2644 Crs
3919 2777 Crs
3919 2779 Crs
3696 2632 Crs
4255 2774 Crs
3616 2055 Crs
3344 2440 Crs
4158 2874 Crs
3919 2580 Crs
4343 2605 Crs
3529 2582 Crs
4158 2517 Crs
3825 2538 Crs
3738 2472 Crs
3640 2406 Crs
3432 2433 Crs
3344 2225 Crs
3919 2900 Crs
3768 2825 Crs
3768 2817 Crs
3640 2697 Crs
4104 3028 Crs
4527 2840 Crs
3919 2591 Crs
4103 2856 Crs
3737 2347 Crs
3583 2525 Crs
4104 2796 Crs
3834 2795 Crs
3919 2624 Crs
4104 2672 Crs
3768 2511 Crs
4342 2835 Crs
3768 2531 Crs
3798 2572 Crs
3216 2254 Crs
3768 2665 Crs
3640 2359 Crs
3510 2506 Crs
4047 2939 Crs
3919 2507 Crs
3511 2496 Crs
4104 2569 Crs
3768 2542 Crs
3919 2371 Crs
4103 2580 Crs
3511 2419 Crs
3768 2753 Crs
3919 2847 Crs
3879 2774 Crs
3825 2449 Crs
3615 2689 Crs
3265 2321 Crs
4255 2793 Crs
3768 2686 Crs
3640 2403 Crs
4104 2840 Crs
4047 2692 Crs
4343 2570 Crs
3919 2697 Crs
3768 2740 Crs
3431 2538 Crs
3919 2902 Crs
3919 2641 Crs
3432 2520 Crs
3768 2527 Crs
4158 2943 Crs
4527 2651 Crs
4104 2843 Crs
4104 2902 Crs
3344 2252 Crs
4679 2718 Crs
4527 2683 Crs
4383 2899 Crs
4255 2697 Crs
4383 2918 Crs
3617 2589 Crs
4679 2759 Crs
3768 2667 Crs
3344 2461 Crs
3878 2730 Crs
4047 2429 Crs
3976 2573 Crs
3879 2719 Crs
3640 2720 Crs
3529 2563 Crs
3737 2421 Crs
3738 2742 Crs
3878 2657 Crs
3583 2509 Crs
3344 2333 Crs
4255 2598 Crs
3919 2669 Crs
3768 2416 Crs
3768 2518 Crs
4255 2780 Crs
3768 2634 Crs
3919 2499 Crs
4528 2401 Crs
4255 2520 Crs
4047 2632 Crs
3529 2629 Crs
3825 2810 Crs
3737 2630 Crs
3617 2608 Crs
3919 2909 Crs
3511 2513 Crs
3919 2790 Crs
4343 2881 Crs
3768 2589 Crs
3919 2796 Crs
3738 2681 Crs
3504 2532 Crs
3169 2211 Crs
4343 2729 Crs
4104 2670 Crs
3768 2832 Crs
3738 2660 Crs
3768 2600 Crs
3879 2760 Crs
3768 2811 Crs
3193 2275 Crs
4047 2920 Crs
3529 2405 Crs
3510 2245 Crs
3917 2750 Crs
3640 2272 Crs
3879 2321 Crs
3711 2585 Crs
3416 2521 Crs
3504 2525 Crs
3529 2407 Crs
3696 2063 Crs
4343 2688 Crs
3753 2814 Crs
3919 2946 Crs
3825 2581 Crs
3919 2861 Crs
4343 2910 Crs
3344 2484 Crs
4047 2379 Crs
4047 2725 Crs
3878 2751 Crs
3879 2778 Crs
3879 2693 Crs
4383 2577 Crs
4104 2809 Crs
3834 2844 Crs
4064 2859 Crs
3879 2337 Crs
3768 2458 Crs
3768 2476 Crs
3431 2319 Crs
4104 2613 Crs
4158 2826 Crs
3976 2921 Crs
3640 2543 Crs
4343 2864 Crs
3529 2400 Crs
3919 2824 Crs
3640 2730 Crs
4255 2835 Crs
3431 2495 Crs
3768 2551 Crs
4104 2532 Crs
3768 2729 Crs
4383 2431 Crs
3768 2705 Crs
3617 2475 Crs
3768 2723 Crs
3737 2441 Crs
3529 2520 Crs
3896 2609 Crs
4343 2477 Crs
3529 2455 Crs
3504 2131 Crs
4343 2808 Crs
3768 2651 Crs
3511 2483 Crs
3365 2443 Crs
3528 2647 Crs
4255 2686 Crs
3529 2612 Crs
3768 2728 Crs
3529 2481 Crs
3877 2728 Crs
3878 2896 Crs
4104 2456 Crs
4047 2811 Crs
3696 2581 Crs
3976 2704 Crs
3879 2666 Crs
4047 2805 Crs
3768 2549 Crs
3216 2400 Crs
3919 2746 Crs
3904 2792 Crs
4255 2559 Crs
3430 2493 Crs
3711 2689 Crs
3416 2431 Crs
4047 2914 Crs
3695 2265 Crs
3617 2455 Crs
4343 2840 Crs
4246 2558 Crs
4104 2699 Crs
3919 2862 Crs
3528 2618 Crs
3617 2368 Crs
4157 2705 Crs
3919 2614 Crs
4343 2689 Crs
4104 2914 Crs
4255 2635 Crs
4047 2769 Crs
3640 2572 Crs
4343 2640 Crs
3878 2625 Crs
3768 2708 Crs
3919 2753 Crs
3768 2558 Crs
3976 2901 Crs
3976 2537 Crs
3878 2668 Crs
3919 2628 Crs
3738 2648 Crs
3431 2257 Crs
3919 2479 Crs
3904 2898 Crs
3640 2432 Crs
4343 2488 Crs
3431 2400 Crs
3640 2634 Crs
3919 2417 Crs
4103 2835 Crs
3879 2574 Crs
4047 2409 Crs
3825 2626 Crs
4047 2355 Crs
3416 2562 Crs
% End plot #2
% Begin plot #3
1.000 UL
LTb
LT1
0.75 0.75 0.75 C 2171 1633 M
26 19 V
25 19 V
25 19 V
26 19 V
25 20 V
25 19 V
26 19 V
25 19 V
25 19 V
26 19 V
25 20 V
25 19 V
26 19 V
25 19 V
25 19 V
26 20 V
25 19 V
25 19 V
26 19 V
25 19 V
25 19 V
26 20 V
25 19 V
25 19 V
26 19 V
25 19 V
25 19 V
26 20 V
25 19 V
25 19 V
26 19 V
25 19 V
25 19 V
26 20 V
25 19 V
25 19 V
26 19 V
25 19 V
25 20 V
26 19 V
25 19 V
25 19 V
26 19 V
25 19 V
25 20 V
26 19 V
25 19 V
25 19 V
26 19 V
25 19 V
25 20 V
26 19 V
25 19 V
25 19 V
26 19 V
25 20 V
25 19 V
26 19 V
25 19 V
25 19 V
25 19 V
26 20 V
25 19 V
25 19 V
26 19 V
25 19 V
25 19 V
26 20 V
25 19 V
25 19 V
26 19 V
25 19 V
25 19 V
26 20 V
25 19 V
25 19 V
26 19 V
25 19 V
25 20 V
26 19 V
25 19 V
25 19 V
26 19 V
25 19 V
25 20 V
26 19 V
25 19 V
25 19 V
26 19 V
25 19 V
25 20 V
26 19 V
25 19 V
25 19 V
26 19 V
25 19 V
25 20 V
26 19 V
25 19 V
% End plot #3
stroke
2.000 UL
LTb
LCb setrgbcolor
1.000 UL
LTb
LCb setrgbcolor
860 3531 N
860 640 L
3819 0 V
0 2891 V
-3819 0 V
Z stroke
0.500 UP
1.000 UL
LTb
LCb setrgbcolor
stroke
grestore
end
showpage
%%Trailer
%%DocumentFonts: Helvetica
