#FIG 3.2  Produced by xfig version 3.2.5c
Landscape
Center
Metric
A4      
100.00
Single
-2
1200 2
1 3 0 1 0 31 49 -1 20 0.000 1 0.0000 3600 3375 64 64 3600 3375 3645 3330
1 3 0 1 0 8 49 -1 20 0.000 1 0.0000 3600 2700 64 64 3600 2700 3645 2655
1 3 0 1 0 8 49 -1 20 0.000 1 0.0000 3600 2250 64 64 3600 2250 3645 2205
1 3 0 1 0 8 49 -1 20 0.000 1 0.0000 3375 1800 64 64 3375 1800 3420 1755
1 3 0 1 0 27 49 -1 20 0.000 1 0.0000 2025 2025 64 64 2025 2025 2070 1980
1 3 0 1 0 27 49 -1 20 0.000 1 0.0000 1575 1800 64 64 1575 1800 1620 1755
1 3 0 1 0 27 49 -1 20 0.000 1 0.0000 1125 2025 64 64 1125 2025 1170 1980
1 3 0 1 0 27 49 -1 20 0.000 1 0.0000 1350 2700 64 64 1350 2700 1395 2655
1 3 0 1 0 27 49 -1 20 0.000 1 0.0000 1800 2700 64 64 1800 2700 1845 2655
1 3 0 1 0 12 49 -1 20 0.000 1 0.0000 1575 3375 64 64 1575 3375 1620 3330
1 3 0 1 0 12 49 -1 20 0.000 1 0.0000 1125 3600 64 64 1125 3600 1170 3555
1 3 0 1 0 12 49 -1 20 0.000 1 0.0000 1125 4050 64 64 1125 4050 1170 4005
1 3 0 1 0 12 49 -1 20 0.000 1 0.0000 1575 4275 64 64 1575 4275 1620 4230
1 3 0 1 0 12 49 -1 20 0.000 1 0.0000 2025 4050 64 64 2025 4050 2070 4005
1 3 0 1 0 12 49 -1 20 0.000 1 0.0000 2025 3600 64 64 2025 3600 2070 3555
1 3 0 1 0 31 49 -1 20 0.000 1 0.0000 3600 4050 64 64 3600 4050 3645 4005
1 3 0 1 0 27 49 -1 20 0.000 1 0.0000 5175 2025 64 64 5175 2025 5220 1980
1 3 0 1 0 12 49 -1 20 0.000 1 0.0000 5175 3375 64 64 5175 3375 5220 3330
1 3 0 1 0 31 49 -1 20 0.000 1 0.0000 6525 3375 64 64 6525 3375 6570 3330
1 3 0 1 0 8 49 -1 20 0.000 1 0.0000 6525 2025 64 64 6525 2025 6570 1980
2 1 0 1 0 31 50 -1 -1 0.000 0 0 -1 0 0 2
	 3420 1845 3600 2205
2 1 0 1 0 31 50 -1 -1 0.000 0 0 -1 0 0 2
	 3600 2295 3600 2655
2 1 0 1 0 31 50 -1 -1 0.000 0 0 -1 0 0 2
	 3600 3420 3600 4050
2 1 0 1 0 31 50 -1 -1 0.000 0 0 -1 0 0 2
	 1575 1800 1125 2025
2 1 0 1 0 31 50 -1 -1 0.000 0 0 -1 0 0 2
	 1575 1800 1350 2700
2 1 0 1 0 31 50 -1 -1 0.000 0 0 -1 0 0 2
	 1575 1800 3600 2250
2 1 0 1 0 31 50 -1 -1 0.000 0 0 -1 0 0 2
	 1125 2025 2025 2025
2 1 0 1 0 31 50 -1 -1 0.000 0 0 -1 0 0 2
	 1125 2025 3600 2700
2 1 0 1 0 31 50 -1 -1 0.000 0 0 -1 0 0 2
	 1125 2025 1800 2700
2 1 0 1 0 31 50 -1 -1 0.000 0 0 -1 0 0 2
	 1125 2025 1350 2700
2 1 0 1 0 31 50 -1 -1 0.000 0 0 -1 0 0 2
	 1350 2700 2025 2025
2 1 0 1 0 31 50 -1 -1 0.000 0 0 -1 0 0 2
	 1350 2700 2025 4050
2 1 0 1 0 31 50 -1 -1 0.000 0 0 -1 0 0 2
	 2025 2025 3375 1800
2 1 0 1 0 31 50 -1 -1 0.000 0 0 -1 0 0 2
	 2025 2025 1800 2700
2 1 0 1 0 31 50 -1 -1 0.000 0 0 -1 0 0 2
	 1800 2700 3600 2250
2 1 0 1 0 31 50 -1 -1 0.000 0 0 -1 0 0 2
	 1800 2700 3600 3375
2 1 0 1 0 31 50 -1 -1 0.000 0 0 -1 0 0 2
	 3600 3375 1575 3375
2 1 0 1 0 31 50 -1 -1 0.000 0 0 -1 0 0 2
	 3600 3375 2025 4050
2 1 0 1 0 31 50 -1 -1 0.000 0 0 -1 0 0 2
	 2025 4050 3600 4050
2 1 0 1 0 31 50 -1 -1 0.000 0 0 -1 0 0 2
	 1575 3375 1575 4275
2 1 0 1 0 31 50 -1 -1 0.000 0 0 -1 0 0 2
	 1125 3600 2025 4050
2 1 0 1 0 31 50 -1 -1 0.000 0 0 -1 0 0 2
	 2025 3600 2025 4050
2 1 0 1 0 31 50 -1 -1 0.000 0 0 -1 0 0 2
	 2025 3600 1125 4050
2 1 0 1 0 31 50 -1 -1 0.000 0 0 -1 0 0 2
	 1125 4050 1530 4275
2 1 0 1 0 31 50 -1 -1 0.000 0 0 -1 0 0 2
	 1125 4050 1575 3375
2 1 0 1 0 31 50 -1 -1 0.000 0 0 -1 0 0 2
	 2025 4050 1080 4050
2 1 0 1 0 31 50 -1 -1 0.000 0 0 -1 0 0 2
	 1125 3600 1575 4275
2 1 0 1 0 31 50 -1 -1 0.000 0 0 -1 0 0 2
	 1575 3375 2025 3600
2 1 0 1 0 31 50 -1 -1 0.000 0 0 -1 0 0 2
	 3600 2700 3600 3375
2 1 0 1 0 31 50 -1 -1 0.000 0 0 7 0 0 5
	 5175 2025 6525 2025 6525 3375 5175 3375 5175 2025
2 1 0 1 0 31 50 -1 -1 0.000 0 0 -1 0 0 2
	 5175 2025 6525 3375
2 1 0 2 0 31 50 -1 -1 0.000 0 0 7 1 0 2
	1 1 1.00 150.00 120.00
	 3915 2925 4770 2925
