%!PS-Adobe-3.0 EPSF-3.0
%%Title: str.fig
%%Creator: fig2dev Version 3.2 Patchlevel 5e
%%CreationDate: Fri Oct 30 00:26:15 2015
%%BoundingBox: 0 0 442 104
%Magnification: 1.0000
%%EndComments
%%BeginProlog
/$F2psDict 200 dict def
$F2psDict begin
$F2psDict /mtrx matrix put
/col-1 {0 setgray} bind def
/col0 {0.000 0.000 0.000 srgb} bind def
/col1 {0.000 0.000 1.000 srgb} bind def
/col2 {0.000 1.000 0.000 srgb} bind def
/col3 {0.000 1.000 1.000 srgb} bind def
/col4 {1.000 0.000 0.000 srgb} bind def
/col5 {1.000 0.000 1.000 srgb} bind def
/col6 {1.000 1.000 0.000 srgb} bind def
/col7 {1.000 1.000 1.000 srgb} bind def
/col8 {0.000 0.000 0.560 srgb} bind def
/col9 {0.000 0.000 0.690 srgb} bind def
/col10 {0.000 0.000 0.820 srgb} bind def
/col11 {0.530 0.810 1.000 srgb} bind def
/col12 {0.000 0.560 0.000 srgb} bind def
/col13 {0.000 0.690 0.000 srgb} bind def
/col14 {0.000 0.820 0.000 srgb} bind def
/col15 {0.000 0.560 0.560 srgb} bind def
/col16 {0.000 0.690 0.690 srgb} bind def
/col17 {0.000 0.820 0.820 srgb} bind def
/col18 {0.560 0.000 0.000 srgb} bind def
/col19 {0.690 0.000 0.000 srgb} bind def
/col20 {0.820 0.000 0.000 srgb} bind def
/col21 {0.560 0.000 0.560 srgb} bind def
/col22 {0.690 0.000 0.690 srgb} bind def
/col23 {0.820 0.000 0.820 srgb} bind def
/col24 {0.500 0.190 0.000 srgb} bind def
/col25 {0.630 0.250 0.000 srgb} bind def
/col26 {0.750 0.380 0.000 srgb} bind def
/col27 {1.000 0.500 0.500 srgb} bind def
/col28 {1.000 0.630 0.630 srgb} bind def
/col29 {1.000 0.750 0.750 srgb} bind def
/col30 {1.000 0.880 0.880 srgb} bind def
/col31 {1.000 0.840 0.000 srgb} bind def

end

/cp {closepath} bind def
/ef {eofill} bind def
/gr {grestore} bind def
/gs {gsave} bind def
/sa {save} bind def
/rs {restore} bind def
/l {lineto} bind def
/m {moveto} bind def
/rm {rmoveto} bind def
/n {newpath} bind def
/s {stroke} bind def
/sh {show} bind def
/slc {setlinecap} bind def
/slj {setlinejoin} bind def
/slw {setlinewidth} bind def
/srgb {setrgbcolor} bind def
/rot {rotate} bind def
/sc {scale} bind def
/sd {setdash} bind def
/ff {findfont} bind def
/sf {setfont} bind def
/scf {scalefont} bind def
/sw {stringwidth} bind def
/tr {translate} bind def
/tnt {dup dup currentrgbcolor
  4 -2 roll dup 1 exch sub 3 -1 roll mul add
  4 -2 roll dup 1 exch sub 3 -1 roll mul add
  4 -2 roll dup 1 exch sub 3 -1 roll mul add srgb}
  bind def
/shd {dup dup currentrgbcolor 4 -2 roll mul 4 -2 roll mul
  4 -2 roll mul srgb} bind def
 /DrawEllipse {
	/endangle exch def
	/startangle exch def
	/yrad exch def
	/xrad exch def
	/y exch def
	/x exch def
	/savematrix mtrx currentmatrix def
	x y tr xrad yrad sc 0 0 1 startangle endangle arc
	closepath
	savematrix setmatrix
	} def

/$F2psBegin {$F2psDict begin /$F2psEnteredState save def} def
/$F2psEnd {$F2psEnteredState restore end} def

/pageheader {
save
newpath 0 104 moveto 0 0 lineto 442 0 lineto 442 104 lineto closepath clip newpath
-268.3 223.4 translate
1 -1 scale
$F2psBegin
10 setmiterlimit
0 slj 0 slc
 0.06299 0.06299 sc
} bind def
/pagefooter {
$F2psEnd
restore
} bind def
%%EndProlog
pageheader
%
% Fig objects follow
%
% 
% here starts figure with depth 51
% Polyline
0 slj
0 slc
7.500 slw
n 4500 2025 m
 7200 2025 l gs col0 s gr 
% Polyline
n 4500 2475 m
 7200 2475 l gs col0 s gr 
% Polyline
n 4500 3375 m
 7200 3375 l gs col0 s gr 
% Polyline
n 8550 2925 m
 11250 2925 l gs col27 s gr 
% Polyline
n 8550 2025 m
 11250 2025 l gs col12 s gr 
% Polyline
n 8550 2475 m
 11250 2475 l gs col20 s gr 
% Polyline
n 8550 3375 m
 11250 3375 l gs col21 s gr 
% Polyline
n 4500 2925 m
 7200 2925 l gs col0 s gr 
% Arc
n 5422.5 2272.5 697.9 -20.7723 20.7723 arc
gs col27 s gr

% Arc
n 4635.0 2250.0 585.0 -22.6199 22.6199 arc
gs col27 s gr

% Arc
n 7222.5 2497.5 2497.6 -10.9050 10.9050 arc
gs col0 s gr

% Arc
n 9663.8 2700.0 326.2 43.6028 -43.6028 arcn
gs col0 s gr

% Arc
n 9663.8 2250.0 326.2 43.6028 -43.6028 arcn
gs col0 s gr

% Arc
n 9174.4 2700.0 1355.6 -29.8628 29.8628 arc
gs col0 s gr

% Arc
n 8122.5 2925.0 2272.5 -11.4212 11.4212 arc
gs col0 s gr

% Arc
n 6210.0 3150.0 585.0 -22.6199 22.6199 arc
gs col14 s gr

% Arc
n 2463.8 2700.0 2576.2 -15.1893 15.1893 arc
gs col12 s gr

% Arc
n 4860.0 3150.0 585.0 -22.6199 22.6199 arc
gs col12 s gr

% Arc
n 5085.0 2700.0 585.0 -22.6199 22.6199 arc
gs col12 s gr

% Arc
n 5895.0 2475.0 1170.0 22.6199 -22.6199 arcn
gs col20 s gr

% Arc
n 5310.0 2700.0 585.0 -22.6199 22.6199 arc
gs col20 s gr

% Arc
n 5760.0 3150.0 585.0 -22.6199 22.6199 arc
gs col21 s gr

% Arc
n 4297.5 2925.0 2272.5 -11.4212 11.4212 arc
gs col21 s gr

% Ellipse
n 4950 3375 45 45 0 360 DrawEllipse gs col12 1.00 shd ef gr gs col0 s gr

% Ellipse
n 5400 3375 45 45 0 360 DrawEllipse gs col12 1.00 shd ef gr gs col0 s gr

% Ellipse
n 5400 2925 45 45 0 360 DrawEllipse gs col12 1.00 shd ef gr gs col0 s gr

% Ellipse
n 5625 2925 45 45 0 360 DrawEllipse gs col12 1.00 shd ef gr gs col0 s gr

% Ellipse
n 5625 2475 45 45 0 360 DrawEllipse gs col12 1.00 shd ef gr gs col0 s gr

% Ellipse
n 4950 2025 45 45 0 360 DrawEllipse gs col12 1.00 shd ef gr gs col0 s gr

% Ellipse
n 6750 2925 45 45 0 360 DrawEllipse gs col12 1.00 shd ef gr gs col0 s gr

% Ellipse
n 6750 3375 45 45 0 360 DrawEllipse gs col12 1.00 shd ef gr gs col0 s gr

% Ellipse
n 9675 2025 45 45 0 360 DrawEllipse gs col12 1.00 shd ef gr gs col12 s gr

% Ellipse
n 9900 2025 45 45 0 360 DrawEllipse gs col12 1.00 shd ef gr gs col12 s gr

% Ellipse
n 10350 2025 45 45 0 360 DrawEllipse gs col12 1.00 shd ef gr gs col12 s gr

% Ellipse
n 9675 2925 45 45 0 360 DrawEllipse gs col27 1.00 shd ef gr gs col27 s gr

% Ellipse
n 9900 2925 45 45 0 360 DrawEllipse gs col27 1.00 shd ef gr gs col27 s gr

% Ellipse
n 6975 2925 45 45 0 360 DrawEllipse gs col20 1.00 shd ef gr gs col20 s gr

% Ellipse
n 6975 2025 45 45 0 360 DrawEllipse gs col20 1.00 shd ef gr gs col20 s gr

% Ellipse
n 5850 2925 45 45 0 360 DrawEllipse gs col20 1.00 shd ef gr gs col20 s gr

% Ellipse
n 5850 2475 45 45 0 360 DrawEllipse gs col20 1.00 shd ef gr gs col20 s gr

% Ellipse
n 9900 2475 45 45 0 360 DrawEllipse gs col20 1.00 shd ef gr gs col20 s gr

% Ellipse
n 10350 2475 45 45 0 360 DrawEllipse gs col20 1.00 shd ef gr gs col20 s gr

% Ellipse
n 10350 3375 45 45 0 360 DrawEllipse gs col21 1.00 shd ef gr gs col21 s gr

% Ellipse
n 6300 3375 45 45 0 360 DrawEllipse gs col21 1.00 shd ef gr gs col21 s gr

% Ellipse
n 6525 3375 45 45 0 360 DrawEllipse gs col21 1.00 shd ef gr gs col21 s gr

% Ellipse
n 6300 2925 45 45 0 360 DrawEllipse gs col21 1.00 shd ef gr gs col21 s gr

% Ellipse
n 6525 2475 45 45 0 360 DrawEllipse gs col21 1.00 shd ef gr gs col21 s gr

% Ellipse
n 6075 2025 45 45 0 360 DrawEllipse gs col27 1.00 shd ef gr gs col27 s gr

% Ellipse
n 6075 2475 45 45 0 360 DrawEllipse gs col27 1.00 shd ef gr gs col27 s gr

% Ellipse
n 5175 2475 45 45 0 360 DrawEllipse gs col27 1.00 shd ef gr gs col27 s gr

% Ellipse
n 5175 2025 45 45 0 360 DrawEllipse gs col27 1.00 shd ef gr gs col27 s gr

% Polyline
gs  clippath
8198 2775 m 8340 2775 l 8340 2625 l 8198 2625 l 8198 2625 l 8318 2700 l 8198 2775 l cp
eoclip
n 7425 2700 m
 8325 2700 l gs col0 s gr gr

% arrowhead
n 8198 2775 m 8318 2700 l 8198 2625 l 8198 2775 l  cp gs 0.00 setgray ef gr  col0 s
/Times-Roman ff 317.50 scf sf
4275 2070 m
gs 1 -1 sc (u) col0 sh gr
/Times-Roman ff 317.50 scf sf
4275 2565 m
gs 1 -1 sc (v) col0 sh gr
/Times-Roman ff 317.50 scf sf
4275 3015 m
gs 1 -1 sc (x) col0 sh gr
/Times-Roman ff 317.50 scf sf
4275 3465 m
gs 1 -1 sc (y) col0 sh gr
% here ends figure;
pagefooter
showpage
%%Trailer
%EOF
