%!PS-Adobe-2.0 EPSF-2.0
%%Title: mean.eps
%%Creator: gnuplot 5.0 patchlevel 1
%%CreationDate: Fri Oct 30 18:57:07 2015
%%DocumentFonts: (atend)
%%BoundingBox: 50 50 302 238
%%EndComments
%%BeginProlog
/gnudict 256 dict def
gnudict begin
%
% The following true/false flags may be edited by hand if desired.
% The unit line width and grayscale image gamma correction may also be changed.
%
/Color true def
/Blacktext false def
/Solid false def
/Dashlength 1 def
/Landscape false def
/Level1 false def
/Level3 false def
/Rounded false def
/ClipToBoundingBox false def
/SuppressPDFMark false def
/TransparentPatterns false def
/gnulinewidth 5.000 def
/userlinewidth gnulinewidth def
/Gamma 1.0 def
/BackgroundColor {-1.000 -1.000 -1.000} def
%
/vshift -66 def
/dl1 {
  10.0 Dashlength userlinewidth gnulinewidth div mul mul mul
  Rounded { currentlinewidth 0.75 mul sub dup 0 le { pop 0.01 } if } if
} def
/dl2 {
  10.0 Dashlength userlinewidth gnulinewidth div mul mul mul
  Rounded { currentlinewidth 0.75 mul add } if
} def
/hpt_ 31.5 def
/vpt_ 31.5 def
/hpt hpt_ def
/vpt vpt_ def
/doclip {
  ClipToBoundingBox {
    newpath 50 50 moveto 302 50 lineto 302 238 lineto 50 238 lineto closepath
    clip
  } if
} def
%
% Gnuplot Prolog Version 5.0 (Dec 2014)
%
%/SuppressPDFMark true def
%
/M {moveto} bind def
/L {lineto} bind def
/R {rmoveto} bind def
/V {rlineto} bind def
/N {newpath moveto} bind def
/Z {closepath} bind def
/C {setrgbcolor} bind def
/f {rlineto fill} bind def
/g {setgray} bind def
/Gshow {show} def   % May be redefined later in the file to support UTF-8
/vpt2 vpt 2 mul def
/hpt2 hpt 2 mul def
/Lshow {currentpoint stroke M 0 vshift R 
	Blacktext {gsave 0 setgray textshow grestore} {textshow} ifelse} def
/Rshow {currentpoint stroke M dup stringwidth pop neg vshift R
	Blacktext {gsave 0 setgray textshow grestore} {textshow} ifelse} def
/Cshow {currentpoint stroke M dup stringwidth pop -2 div vshift R 
	Blacktext {gsave 0 setgray textshow grestore} {textshow} ifelse} def
/UP {dup vpt_ mul /vpt exch def hpt_ mul /hpt exch def
  /hpt2 hpt 2 mul def /vpt2 vpt 2 mul def} def
/DL {Color {setrgbcolor Solid {pop []} if 0 setdash}
 {pop pop pop 0 setgray Solid {pop []} if 0 setdash} ifelse} def
/BL {stroke userlinewidth 2 mul setlinewidth
	Rounded {1 setlinejoin 1 setlinecap} if} def
/AL {stroke userlinewidth 2 div setlinewidth
	Rounded {1 setlinejoin 1 setlinecap} if} def
/UL {dup gnulinewidth mul /userlinewidth exch def
	dup 1 lt {pop 1} if 10 mul /udl exch def} def
/PL {stroke userlinewidth setlinewidth
	Rounded {1 setlinejoin 1 setlinecap} if} def
3.8 setmiterlimit
% Classic Line colors (version 5.0)
/LCw {1 1 1} def
/LCb {0 0 0} def
/LCa {0 0 0} def
/LC0 {1 0 0} def
/LC1 {0 1 0} def
/LC2 {0 0 1} def
/LC3 {1 0 1} def
/LC4 {0 1 1} def
/LC5 {1 1 0} def
/LC6 {0 0 0} def
/LC7 {1 0.3 0} def
/LC8 {0.5 0.5 0.5} def
% Default dash patterns (version 5.0)
/LTw {PL [] 1 setgray} def
/LTb {BL [] LCb DL} def
/LTa {AL [1 udl mul 2 udl mul] 0 setdash LCa setrgbcolor} def
/LT0 {PL [] LC0 DL} def
/LT1 {PL [2 dl1 3 dl2] LC1 DL} def
/LT2 {PL [1 dl1 1.5 dl2] LC2 DL} def
/LT3 {PL [6 dl1 2 dl2 1 dl1 2 dl2] LC3 DL} def
/LT4 {PL [1 dl1 2 dl2 6 dl1 2 dl2 1 dl1 2 dl2] LC4 DL} def
/LT5 {PL [4 dl1 2 dl2] LC5 DL} def
/LT6 {PL [1.5 dl1 1.5 dl2 1.5 dl1 1.5 dl2 1.5 dl1 6 dl2] LC6 DL} def
/LT7 {PL [3 dl1 3 dl2 1 dl1 3 dl2] LC7 DL} def
/LT8 {PL [2 dl1 2 dl2 2 dl1 6 dl2] LC8 DL} def
/SL {[] 0 setdash} def
/Pnt {stroke [] 0 setdash gsave 1 setlinecap M 0 0 V stroke grestore} def
/Dia {stroke [] 0 setdash 2 copy vpt add M
  hpt neg vpt neg V hpt vpt neg V
  hpt vpt V hpt neg vpt V closepath stroke
  Pnt} def
/Pls {stroke [] 0 setdash vpt sub M 0 vpt2 V
  currentpoint stroke M
  hpt neg vpt neg R hpt2 0 V stroke
 } def
/Box {stroke [] 0 setdash 2 copy exch hpt sub exch vpt add M
  0 vpt2 neg V hpt2 0 V 0 vpt2 V
  hpt2 neg 0 V closepath stroke
  Pnt} def
/Crs {stroke [] 0 setdash exch hpt sub exch vpt add M
  hpt2 vpt2 neg V currentpoint stroke M
  hpt2 neg 0 R hpt2 vpt2 V stroke} def
/TriU {stroke [] 0 setdash 2 copy vpt 1.12 mul add M
  hpt neg vpt -1.62 mul V
  hpt 2 mul 0 V
  hpt neg vpt 1.62 mul V closepath stroke
  Pnt} def
/Star {2 copy Pls Crs} def
/BoxF {stroke [] 0 setdash exch hpt sub exch vpt add M
  0 vpt2 neg V hpt2 0 V 0 vpt2 V
  hpt2 neg 0 V closepath fill} def
/TriUF {stroke [] 0 setdash vpt 1.12 mul add M
  hpt neg vpt -1.62 mul V
  hpt 2 mul 0 V
  hpt neg vpt 1.62 mul V closepath fill} def
/TriD {stroke [] 0 setdash 2 copy vpt 1.12 mul sub M
  hpt neg vpt 1.62 mul V
  hpt 2 mul 0 V
  hpt neg vpt -1.62 mul V closepath stroke
  Pnt} def
/TriDF {stroke [] 0 setdash vpt 1.12 mul sub M
  hpt neg vpt 1.62 mul V
  hpt 2 mul 0 V
  hpt neg vpt -1.62 mul V closepath fill} def
/DiaF {stroke [] 0 setdash vpt add M
  hpt neg vpt neg V hpt vpt neg V
  hpt vpt V hpt neg vpt V closepath fill} def
/Pent {stroke [] 0 setdash 2 copy gsave
  translate 0 hpt M 4 {72 rotate 0 hpt L} repeat
  closepath stroke grestore Pnt} def
/PentF {stroke [] 0 setdash gsave
  translate 0 hpt M 4 {72 rotate 0 hpt L} repeat
  closepath fill grestore} def
/Circle {stroke [] 0 setdash 2 copy
  hpt 0 360 arc stroke Pnt} def
/CircleF {stroke [] 0 setdash hpt 0 360 arc fill} def
/C0 {BL [] 0 setdash 2 copy moveto vpt 90 450 arc} bind def
/C1 {BL [] 0 setdash 2 copy moveto
	2 copy vpt 0 90 arc closepath fill
	vpt 0 360 arc closepath} bind def
/C2 {BL [] 0 setdash 2 copy moveto
	2 copy vpt 90 180 arc closepath fill
	vpt 0 360 arc closepath} bind def
/C3 {BL [] 0 setdash 2 copy moveto
	2 copy vpt 0 180 arc closepath fill
	vpt 0 360 arc closepath} bind def
/C4 {BL [] 0 setdash 2 copy moveto
	2 copy vpt 180 270 arc closepath fill
	vpt 0 360 arc closepath} bind def
/C5 {BL [] 0 setdash 2 copy moveto
	2 copy vpt 0 90 arc
	2 copy moveto
	2 copy vpt 180 270 arc closepath fill
	vpt 0 360 arc} bind def
/C6 {BL [] 0 setdash 2 copy moveto
	2 copy vpt 90 270 arc closepath fill
	vpt 0 360 arc closepath} bind def
/C7 {BL [] 0 setdash 2 copy moveto
	2 copy vpt 0 270 arc closepath fill
	vpt 0 360 arc closepath} bind def
/C8 {BL [] 0 setdash 2 copy moveto
	2 copy vpt 270 360 arc closepath fill
	vpt 0 360 arc closepath} bind def
/C9 {BL [] 0 setdash 2 copy moveto
	2 copy vpt 270 450 arc closepath fill
	vpt 0 360 arc closepath} bind def
/C10 {BL [] 0 setdash 2 copy 2 copy moveto vpt 270 360 arc closepath fill
	2 copy moveto
	2 copy vpt 90 180 arc closepath fill
	vpt 0 360 arc closepath} bind def
/C11 {BL [] 0 setdash 2 copy moveto
	2 copy vpt 0 180 arc closepath fill
	2 copy moveto
	2 copy vpt 270 360 arc closepath fill
	vpt 0 360 arc closepath} bind def
/C12 {BL [] 0 setdash 2 copy moveto
	2 copy vpt 180 360 arc closepath fill
	vpt 0 360 arc closepath} bind def
/C13 {BL [] 0 setdash 2 copy moveto
	2 copy vpt 0 90 arc closepath fill
	2 copy moveto
	2 copy vpt 180 360 arc closepath fill
	vpt 0 360 arc closepath} bind def
/C14 {BL [] 0 setdash 2 copy moveto
	2 copy vpt 90 360 arc closepath fill
	vpt 0 360 arc} bind def
/C15 {BL [] 0 setdash 2 copy vpt 0 360 arc closepath fill
	vpt 0 360 arc closepath} bind def
/Rec {newpath 4 2 roll moveto 1 index 0 rlineto 0 exch rlineto
	neg 0 rlineto closepath} bind def
/Square {dup Rec} bind def
/Bsquare {vpt sub exch vpt sub exch vpt2 Square} bind def
/S0 {BL [] 0 setdash 2 copy moveto 0 vpt rlineto BL Bsquare} bind def
/S1 {BL [] 0 setdash 2 copy vpt Square fill Bsquare} bind def
/S2 {BL [] 0 setdash 2 copy exch vpt sub exch vpt Square fill Bsquare} bind def
/S3 {BL [] 0 setdash 2 copy exch vpt sub exch vpt2 vpt Rec fill Bsquare} bind def
/S4 {BL [] 0 setdash 2 copy exch vpt sub exch vpt sub vpt Square fill Bsquare} bind def
/S5 {BL [] 0 setdash 2 copy 2 copy vpt Square fill
	exch vpt sub exch vpt sub vpt Square fill Bsquare} bind def
/S6 {BL [] 0 setdash 2 copy exch vpt sub exch vpt sub vpt vpt2 Rec fill Bsquare} bind def
/S7 {BL [] 0 setdash 2 copy exch vpt sub exch vpt sub vpt vpt2 Rec fill
	2 copy vpt Square fill Bsquare} bind def
/S8 {BL [] 0 setdash 2 copy vpt sub vpt Square fill Bsquare} bind def
/S9 {BL [] 0 setdash 2 copy vpt sub vpt vpt2 Rec fill Bsquare} bind def
/S10 {BL [] 0 setdash 2 copy vpt sub vpt Square fill 2 copy exch vpt sub exch vpt Square fill
	Bsquare} bind def
/S11 {BL [] 0 setdash 2 copy vpt sub vpt Square fill 2 copy exch vpt sub exch vpt2 vpt Rec fill
	Bsquare} bind def
/S12 {BL [] 0 setdash 2 copy exch vpt sub exch vpt sub vpt2 vpt Rec fill Bsquare} bind def
/S13 {BL [] 0 setdash 2 copy exch vpt sub exch vpt sub vpt2 vpt Rec fill
	2 copy vpt Square fill Bsquare} bind def
/S14 {BL [] 0 setdash 2 copy exch vpt sub exch vpt sub vpt2 vpt Rec fill
	2 copy exch vpt sub exch vpt Square fill Bsquare} bind def
/S15 {BL [] 0 setdash 2 copy Bsquare fill Bsquare} bind def
/D0 {gsave translate 45 rotate 0 0 S0 stroke grestore} bind def
/D1 {gsave translate 45 rotate 0 0 S1 stroke grestore} bind def
/D2 {gsave translate 45 rotate 0 0 S2 stroke grestore} bind def
/D3 {gsave translate 45 rotate 0 0 S3 stroke grestore} bind def
/D4 {gsave translate 45 rotate 0 0 S4 stroke grestore} bind def
/D5 {gsave translate 45 rotate 0 0 S5 stroke grestore} bind def
/D6 {gsave translate 45 rotate 0 0 S6 stroke grestore} bind def
/D7 {gsave translate 45 rotate 0 0 S7 stroke grestore} bind def
/D8 {gsave translate 45 rotate 0 0 S8 stroke grestore} bind def
/D9 {gsave translate 45 rotate 0 0 S9 stroke grestore} bind def
/D10 {gsave translate 45 rotate 0 0 S10 stroke grestore} bind def
/D11 {gsave translate 45 rotate 0 0 S11 stroke grestore} bind def
/D12 {gsave translate 45 rotate 0 0 S12 stroke grestore} bind def
/D13 {gsave translate 45 rotate 0 0 S13 stroke grestore} bind def
/D14 {gsave translate 45 rotate 0 0 S14 stroke grestore} bind def
/D15 {gsave translate 45 rotate 0 0 S15 stroke grestore} bind def
/DiaE {stroke [] 0 setdash vpt add M
  hpt neg vpt neg V hpt vpt neg V
  hpt vpt V hpt neg vpt V closepath stroke} def
/BoxE {stroke [] 0 setdash exch hpt sub exch vpt add M
  0 vpt2 neg V hpt2 0 V 0 vpt2 V
  hpt2 neg 0 V closepath stroke} def
/TriUE {stroke [] 0 setdash vpt 1.12 mul add M
  hpt neg vpt -1.62 mul V
  hpt 2 mul 0 V
  hpt neg vpt 1.62 mul V closepath stroke} def
/TriDE {stroke [] 0 setdash vpt 1.12 mul sub M
  hpt neg vpt 1.62 mul V
  hpt 2 mul 0 V
  hpt neg vpt -1.62 mul V closepath stroke} def
/PentE {stroke [] 0 setdash gsave
  translate 0 hpt M 4 {72 rotate 0 hpt L} repeat
  closepath stroke grestore} def
/CircE {stroke [] 0 setdash 
  hpt 0 360 arc stroke} def
/Opaque {gsave closepath 1 setgray fill grestore 0 setgray closepath} def
/DiaW {stroke [] 0 setdash vpt add M
  hpt neg vpt neg V hpt vpt neg V
  hpt vpt V hpt neg vpt V Opaque stroke} def
/BoxW {stroke [] 0 setdash exch hpt sub exch vpt add M
  0 vpt2 neg V hpt2 0 V 0 vpt2 V
  hpt2 neg 0 V Opaque stroke} def
/TriUW {stroke [] 0 setdash vpt 1.12 mul add M
  hpt neg vpt -1.62 mul V
  hpt 2 mul 0 V
  hpt neg vpt 1.62 mul V Opaque stroke} def
/TriDW {stroke [] 0 setdash vpt 1.12 mul sub M
  hpt neg vpt 1.62 mul V
  hpt 2 mul 0 V
  hpt neg vpt -1.62 mul V Opaque stroke} def
/PentW {stroke [] 0 setdash gsave
  translate 0 hpt M 4 {72 rotate 0 hpt L} repeat
  Opaque stroke grestore} def
/CircW {stroke [] 0 setdash 
  hpt 0 360 arc Opaque stroke} def
/BoxFill {gsave Rec 1 setgray fill grestore} def
/Density {
  /Fillden exch def
  currentrgbcolor
  /ColB exch def /ColG exch def /ColR exch def
  /ColR ColR Fillden mul Fillden sub 1 add def
  /ColG ColG Fillden mul Fillden sub 1 add def
  /ColB ColB Fillden mul Fillden sub 1 add def
  ColR ColG ColB setrgbcolor} def
/BoxColFill {gsave Rec PolyFill} def
/PolyFill {gsave Density fill grestore grestore} def
/h {rlineto rlineto rlineto gsave closepath fill grestore} bind def
%
% PostScript Level 1 Pattern Fill routine for rectangles
% Usage: x y w h s a XX PatternFill
%	x,y = lower left corner of box to be filled
%	w,h = width and height of box
%	  a = angle in degrees between lines and x-axis
%	 XX = 0/1 for no/yes cross-hatch
%
/PatternFill {gsave /PFa [ 9 2 roll ] def
  PFa 0 get PFa 2 get 2 div add PFa 1 get PFa 3 get 2 div add translate
  PFa 2 get -2 div PFa 3 get -2 div PFa 2 get PFa 3 get Rec
  TransparentPatterns {} {gsave 1 setgray fill grestore} ifelse
  clip
  currentlinewidth 0.5 mul setlinewidth
  /PFs PFa 2 get dup mul PFa 3 get dup mul add sqrt def
  0 0 M PFa 5 get rotate PFs -2 div dup translate
  0 1 PFs PFa 4 get div 1 add floor cvi
	{PFa 4 get mul 0 M 0 PFs V} for
  0 PFa 6 get ne {
	0 1 PFs PFa 4 get div 1 add floor cvi
	{PFa 4 get mul 0 2 1 roll M PFs 0 V} for
 } if
  stroke grestore} def
%
/languagelevel where
 {pop languagelevel} {1} ifelse
dup 2 lt
	{/InterpretLevel1 true def
	 /InterpretLevel3 false def}
	{/InterpretLevel1 Level1 def
	 2 gt
	    {/InterpretLevel3 Level3 def}
	    {/InterpretLevel3 false def}
	 ifelse }
 ifelse
%
% PostScript level 2 pattern fill definitions
%
/Level2PatternFill {
/Tile8x8 {/PaintType 2 /PatternType 1 /TilingType 1 /BBox [0 0 8 8] /XStep 8 /YStep 8}
	bind def
/KeepColor {currentrgbcolor [/Pattern /DeviceRGB] setcolorspace} bind def
<< Tile8x8
 /PaintProc {0.5 setlinewidth pop 0 0 M 8 8 L 0 8 M 8 0 L stroke} 
>> matrix makepattern
/Pat1 exch def
<< Tile8x8
 /PaintProc {0.5 setlinewidth pop 0 0 M 8 8 L 0 8 M 8 0 L stroke
	0 4 M 4 8 L 8 4 L 4 0 L 0 4 L stroke}
>> matrix makepattern
/Pat2 exch def
<< Tile8x8
 /PaintProc {0.5 setlinewidth pop 0 0 M 0 8 L
	8 8 L 8 0 L 0 0 L fill}
>> matrix makepattern
/Pat3 exch def
<< Tile8x8
 /PaintProc {0.5 setlinewidth pop -4 8 M 8 -4 L
	0 12 M 12 0 L stroke}
>> matrix makepattern
/Pat4 exch def
<< Tile8x8
 /PaintProc {0.5 setlinewidth pop -4 0 M 8 12 L
	0 -4 M 12 8 L stroke}
>> matrix makepattern
/Pat5 exch def
<< Tile8x8
 /PaintProc {0.5 setlinewidth pop -2 8 M 4 -4 L
	0 12 M 8 -4 L 4 12 M 10 0 L stroke}
>> matrix makepattern
/Pat6 exch def
<< Tile8x8
 /PaintProc {0.5 setlinewidth pop -2 0 M 4 12 L
	0 -4 M 8 12 L 4 -4 M 10 8 L stroke}
>> matrix makepattern
/Pat7 exch def
<< Tile8x8
 /PaintProc {0.5 setlinewidth pop 8 -2 M -4 4 L
	12 0 M -4 8 L 12 4 M 0 10 L stroke}
>> matrix makepattern
/Pat8 exch def
<< Tile8x8
 /PaintProc {0.5 setlinewidth pop 0 -2 M 12 4 L
	-4 0 M 12 8 L -4 4 M 8 10 L stroke}
>> matrix makepattern
/Pat9 exch def
/Pattern1 {PatternBgnd KeepColor Pat1 setpattern} bind def
/Pattern2 {PatternBgnd KeepColor Pat2 setpattern} bind def
/Pattern3 {PatternBgnd KeepColor Pat3 setpattern} bind def
/Pattern4 {PatternBgnd KeepColor Landscape {Pat5} {Pat4} ifelse setpattern} bind def
/Pattern5 {PatternBgnd KeepColor Landscape {Pat4} {Pat5} ifelse setpattern} bind def
/Pattern6 {PatternBgnd KeepColor Landscape {Pat9} {Pat6} ifelse setpattern} bind def
/Pattern7 {PatternBgnd KeepColor Landscape {Pat8} {Pat7} ifelse setpattern} bind def
} def
%
%
%End of PostScript Level 2 code
%
/PatternBgnd {
  TransparentPatterns {} {gsave 1 setgray fill grestore} ifelse
} def
%
% Substitute for Level 2 pattern fill codes with
% grayscale if Level 2 support is not selected.
%
/Level1PatternFill {
/Pattern1 {0.250 Density} bind def
/Pattern2 {0.500 Density} bind def
/Pattern3 {0.750 Density} bind def
/Pattern4 {0.125 Density} bind def
/Pattern5 {0.375 Density} bind def
/Pattern6 {0.625 Density} bind def
/Pattern7 {0.875 Density} bind def
} def
%
% Now test for support of Level 2 code
%
Level1 {Level1PatternFill} {Level2PatternFill} ifelse
%
/Symbol-Oblique /Symbol findfont [1 0 .167 1 0 0] makefont
dup length dict begin {1 index /FID eq {pop pop} {def} ifelse} forall
currentdict end definefont pop
%
/MFshow {
   { dup 5 get 3 ge
     { 5 get 3 eq {gsave} {grestore} ifelse }
     {dup dup 0 get findfont exch 1 get scalefont setfont
     [ currentpoint ] exch dup 2 get 0 exch R dup 5 get 2 ne {dup dup 6
     get exch 4 get {textshow} {stringwidth pop 0 R} ifelse }if dup 5 get 0 eq
     {dup 3 get {2 get neg 0 exch R pop} {pop aload pop M} ifelse} {dup 5
     get 1 eq {dup 2 get exch dup 3 get exch 6 get stringwidth pop -2 div
     dup 0 R} {dup 6 get stringwidth pop -2 div 0 R 6 get
     textshow 2 index {aload pop M neg 3 -1 roll neg R pop pop} {pop pop pop
     pop aload pop M} ifelse }ifelse }ifelse }
     ifelse }
   forall} def
/Gswidth {dup type /stringtype eq {stringwidth} {pop (n) stringwidth} ifelse} def
/MFwidth {0 exch { dup 5 get 3 ge { 5 get 3 eq { 0 } { pop } ifelse }
 {dup 3 get{dup dup 0 get findfont exch 1 get scalefont setfont
     6 get Gswidth pop add} {pop} ifelse} ifelse} forall} def
/MLshow { currentpoint stroke M
  0 exch R
  Blacktext {gsave 0 setgray MFshow grestore} {MFshow} ifelse } bind def
/MRshow { currentpoint stroke M
  exch dup MFwidth neg 3 -1 roll R
  Blacktext {gsave 0 setgray MFshow grestore} {MFshow} ifelse } bind def
/MCshow { currentpoint stroke M
  exch dup MFwidth -2 div 3 -1 roll R
  Blacktext {gsave 0 setgray MFshow grestore} {MFshow} ifelse } bind def
/XYsave    { [( ) 1 2 true false 3 ()] } bind def
/XYrestore { [( ) 1 2 true false 4 ()] } bind def
Level1 SuppressPDFMark or 
{} {
/SDict 10 dict def
systemdict /pdfmark known not {
  userdict /pdfmark systemdict /cleartomark get put
} if
SDict begin [
  /Title (mean.eps)
  /Subject (gnuplot plot)
  /Creator (gnuplot 5.0 patchlevel 1)
  /Author (gaumont)
%  /Producer (gnuplot)
%  /Keywords ()
  /CreationDate (Fri Oct 30 18:57:07 2015)
  /DOCINFO pdfmark
end
} ifelse
end
%
% Support for boxed text - Ethan A Merritt May 2005
%
/InitTextBox { userdict /TBy2 3 -1 roll put userdict /TBx2 3 -1 roll put
           userdict /TBy1 3 -1 roll put userdict /TBx1 3 -1 roll put
	   /Boxing true def } def
/ExtendTextBox { Boxing
    { gsave dup false charpath pathbbox
      dup TBy2 gt {userdict /TBy2 3 -1 roll put} {pop} ifelse
      dup TBx2 gt {userdict /TBx2 3 -1 roll put} {pop} ifelse
      dup TBy1 lt {userdict /TBy1 3 -1 roll put} {pop} ifelse
      dup TBx1 lt {userdict /TBx1 3 -1 roll put} {pop} ifelse
      grestore } if } def
/PopTextBox { newpath TBx1 TBxmargin sub TBy1 TBymargin sub M
               TBx1 TBxmargin sub TBy2 TBymargin add L
	       TBx2 TBxmargin add TBy2 TBymargin add L
	       TBx2 TBxmargin add TBy1 TBymargin sub L closepath } def
/DrawTextBox { PopTextBox stroke /Boxing false def} def
/FillTextBox { gsave PopTextBox 1 1 1 setrgbcolor fill grestore /Boxing false def} def
0 0 0 0 InitTextBox
/TBxmargin 20 def
/TBymargin 20 def
/Boxing false def
/textshow { ExtendTextBox Gshow } def
%
%%EndProlog
%%Page: 1 1
gnudict begin
gsave
doclip
50 50 translate
0.050 0.050 scale
0 setgray
newpath
(Helvetica) findfont 200 scalefont setfont
BackgroundColor 0 lt 3 1 roll 0 lt exch 0 lt or or not {BackgroundColor C 1.000 0 0 5040.00 3772.00 BoxColFill} if
1.000 UL
LTb
LCb setrgbcolor
860 640 M
63 0 V
3756 0 R
-63 0 V
stroke
740 640 M
[ [(Helvetica) 200.0 0.0 true true 0 (10)]
[(Helvetica) 160.0 100.0 true true 0 (-4)]
] -86.7 MRshow
1.000 UL
LTb
LCb setrgbcolor
860 858 M
31 0 V
3788 0 R
-31 0 V
860 985 M
31 0 V
3788 0 R
-31 0 V
860 1075 M
31 0 V
3788 0 R
-31 0 V
860 1145 M
31 0 V
3788 0 R
-31 0 V
860 1202 M
31 0 V
3788 0 R
-31 0 V
860 1251 M
31 0 V
3788 0 R
-31 0 V
860 1293 M
31 0 V
3788 0 R
-31 0 V
860 1330 M
31 0 V
3788 0 R
-31 0 V
860 1363 M
63 0 V
3756 0 R
-63 0 V
stroke
740 1363 M
[ [(Helvetica) 200.0 0.0 true true 0 (10)]
[(Helvetica) 160.0 100.0 true true 0 (-3)]
] -86.7 MRshow
1.000 UL
LTb
LCb setrgbcolor
860 1580 M
31 0 V
3788 0 R
-31 0 V
860 1708 M
31 0 V
3788 0 R
-31 0 V
860 1798 M
31 0 V
3788 0 R
-31 0 V
860 1868 M
31 0 V
3788 0 R
-31 0 V
860 1925 M
31 0 V
3788 0 R
-31 0 V
860 1974 M
31 0 V
3788 0 R
-31 0 V
860 2015 M
31 0 V
3788 0 R
-31 0 V
860 2052 M
31 0 V
3788 0 R
-31 0 V
860 2086 M
63 0 V
3756 0 R
-63 0 V
stroke
740 2086 M
[ [(Helvetica) 200.0 0.0 true true 0 (10)]
[(Helvetica) 160.0 100.0 true true 0 (-2)]
] -86.7 MRshow
1.000 UL
LTb
LCb setrgbcolor
860 2303 M
31 0 V
3788 0 R
-31 0 V
860 2430 M
31 0 V
3788 0 R
-31 0 V
860 2521 M
31 0 V
3788 0 R
-31 0 V
860 2591 M
31 0 V
3788 0 R
-31 0 V
860 2648 M
31 0 V
3788 0 R
-31 0 V
860 2696 M
31 0 V
3788 0 R
-31 0 V
860 2738 M
31 0 V
3788 0 R
-31 0 V
860 2775 M
31 0 V
3788 0 R
-31 0 V
860 2808 M
63 0 V
3756 0 R
-63 0 V
stroke
740 2808 M
[ [(Helvetica) 200.0 0.0 true true 0 (10)]
[(Helvetica) 160.0 100.0 true true 0 (-1)]
] -86.7 MRshow
1.000 UL
LTb
LCb setrgbcolor
860 3026 M
31 0 V
3788 0 R
-31 0 V
860 3153 M
31 0 V
3788 0 R
-31 0 V
860 3243 M
31 0 V
3788 0 R
-31 0 V
860 3313 M
31 0 V
3788 0 R
-31 0 V
860 3371 M
31 0 V
3788 0 R
-31 0 V
860 3419 M
31 0 V
3788 0 R
-31 0 V
860 3461 M
31 0 V
3788 0 R
-31 0 V
860 3498 M
31 0 V
3788 0 R
-31 0 V
860 3531 M
63 0 V
3756 0 R
-63 0 V
stroke
740 3531 M
[ [(Helvetica) 200.0 0.0 true true 0 (10)]
[(Helvetica) 160.0 100.0 true true 0 (0)]
] -86.7 MRshow
1.000 UL
LTb
LCb setrgbcolor
860 640 M
0 63 V
0 2828 R
0 -63 V
stroke
860 440 M
[ [(Helvetica) 200.0 0.0 true true 0 (10)]
[(Helvetica) 160.0 100.0 true true 0 (-4)]
] -86.7 MCshow
1.000 UL
LTb
LCb setrgbcolor
1147 640 M
0 31 V
0 2860 R
0 -31 V
1316 640 M
0 31 V
0 2860 R
0 -31 V
1435 640 M
0 31 V
0 2860 R
0 -31 V
1527 640 M
0 31 V
0 2860 R
0 -31 V
1603 640 M
0 31 V
0 2860 R
0 -31 V
1667 640 M
0 31 V
0 2860 R
0 -31 V
1722 640 M
0 31 V
0 2860 R
0 -31 V
1771 640 M
0 31 V
0 2860 R
0 -31 V
1815 640 M
0 63 V
0 2828 R
0 -63 V
stroke
1815 440 M
[ [(Helvetica) 200.0 0.0 true true 0 (10)]
[(Helvetica) 160.0 100.0 true true 0 (-3)]
] -86.7 MCshow
1.000 UL
LTb
LCb setrgbcolor
2102 640 M
0 31 V
0 2860 R
0 -31 V
2270 640 M
0 31 V
0 2860 R
0 -31 V
2390 640 M
0 31 V
0 2860 R
0 -31 V
2482 640 M
0 31 V
0 2860 R
0 -31 V
2558 640 M
0 31 V
0 2860 R
0 -31 V
2622 640 M
0 31 V
0 2860 R
0 -31 V
2677 640 M
0 31 V
0 2860 R
0 -31 V
2726 640 M
0 31 V
0 2860 R
0 -31 V
2770 640 M
0 63 V
0 2828 R
0 -63 V
stroke
2770 440 M
[ [(Helvetica) 200.0 0.0 true true 0 (10)]
[(Helvetica) 160.0 100.0 true true 0 (-2)]
] -86.7 MCshow
1.000 UL
LTb
LCb setrgbcolor
3057 640 M
0 31 V
0 2860 R
0 -31 V
3225 640 M
0 31 V
0 2860 R
0 -31 V
3344 640 M
0 31 V
0 2860 R
0 -31 V
3437 640 M
0 31 V
0 2860 R
0 -31 V
3512 640 M
0 31 V
0 2860 R
0 -31 V
3576 640 M
0 31 V
0 2860 R
0 -31 V
3632 640 M
0 31 V
0 2860 R
0 -31 V
3681 640 M
0 31 V
0 2860 R
0 -31 V
3724 640 M
0 63 V
0 2828 R
0 -63 V
stroke
3724 440 M
[ [(Helvetica) 200.0 0.0 true true 0 (10)]
[(Helvetica) 160.0 100.0 true true 0 (-1)]
] -86.7 MCshow
1.000 UL
LTb
LCb setrgbcolor
4012 640 M
0 31 V
0 2860 R
0 -31 V
4180 640 M
0 31 V
0 2860 R
0 -31 V
4299 640 M
0 31 V
0 2860 R
0 -31 V
4392 640 M
0 31 V
0 2860 R
0 -31 V
4467 640 M
0 31 V
0 2860 R
0 -31 V
4531 640 M
0 31 V
0 2860 R
0 -31 V
4586 640 M
0 31 V
0 2860 R
0 -31 V
4635 640 M
0 31 V
0 2860 R
0 -31 V
4679 640 M
0 63 V
0 2828 R
0 -63 V
stroke
4679 440 M
[ [(Helvetica) 200.0 0.0 true true 0 (10)]
[(Helvetica) 160.0 100.0 true true 0 (0)]
] -86.7 MCshow
1.000 UL
LTb
LCb setrgbcolor
1.000 UL
LTb
LCb setrgbcolor
860 3531 N
860 640 L
3819 0 V
0 2891 V
-3819 0 V
Z stroke
0.500 UP
1.000 UL
LTb
LCb setrgbcolor
LCb setrgbcolor
160 2085 M
currentpoint gsave translate -270 rotate 0 0 moveto
[ [(Helvetica) 200.0 0.0 true true 0 (Inter-thread density)]
] -66.7 MCshow
grestore
LTb
LCb setrgbcolor
2769 140 M
[ [(Helvetica) 200.0 0.0 true true 0 (Intra-thread density)]
] -66.7 MCshow
LTb
% Begin plot #1
0.500 UP
0.500 UL
LTb
0.82 0.11 0.02 C 1230 1509 Pls
1831 1395 Pls
2138 1644 Pls
2151 1892 Pls
% End plot #1
% Begin plot #2
0.500 UP
0.500 UL
LTb
0.73 0.85 0.33 C 4380 1806 Crs
4076 1626 Crs
4679 1653 Crs
3836 1682 Crs
4068 1026 Crs
4058 1478 Crs
4033 1686 Crs
3911 1824 Crs
3846 1698 Crs
3931 1471 Crs
3880 1485 Crs
3657 1352 Crs
4186 1850 Crs
4411 1685 Crs
3222 1636 Crs
3792 1825 Crs
4057 1719 Crs
3798 1360 Crs
4295 1683 Crs
3970 1698 Crs
3894 1647 Crs
3889 1759 Crs
3559 1723 Crs
3616 1606 Crs
3943 1880 Crs
3823 1519 Crs
3567 1912 Crs
3843 1246 Crs
3314 1450 Crs
3736 1881 Crs
3483 1389 Crs
4131 1477 Crs
3511 1407 Crs
4324 1379 Crs
3603 1337 Crs
3631 1851 Crs
4301 1461 Crs
3817 1526 Crs
4226 1921 Crs
3850 1502 Crs
3880 1743 Crs
3626 1725 Crs
4094 1457 Crs
3943 1710 Crs
3802 1558 Crs
3347 1590 Crs
3995 1415 Crs
3973 1902 Crs
3539 1626 Crs
3391 1516 Crs
3379 1608 Crs
3751 1771 Crs
4340 1717 Crs
3706 1588 Crs
4104 1844 Crs
3809 1383 Crs
4171 1697 Crs
3699 1579 Crs
3328 1671 Crs
3885 1235 Crs
1679 1173 Crs
3771 1485 Crs
4128 1596 Crs
3729 1388 Crs
2617 1767 Crs
2002 951 Crs
3292 1621 Crs
3512 1545 Crs
3876 1511 Crs
4092 1434 Crs
3709 1973 Crs
4271 1503 Crs
2248 1594 Crs
3646 1375 Crs
3853 1513 Crs
4313 1591 Crs
4391 1476 Crs
4043 1565 Crs
3569 1646 Crs
4043 1451 Crs
3590 1405 Crs
3326 1403 Crs
3383 1615 Crs
2798 1266 Crs
3591 1380 Crs
3751 1501 Crs
3844 1585 Crs
3719 1702 Crs
3979 1589 Crs
3962 1550 Crs
4369 1498 Crs
3662 1767 Crs
4164 1530 Crs
3963 1501 Crs
3848 1793 Crs
3239 1520 Crs
4080 1396 Crs
4224 1645 Crs
2988 1426 Crs
4197 1902 Crs
3759 1227 Crs
3405 1702 Crs
3487 1483 Crs
3793 1603 Crs
4056 1817 Crs
3710 1730 Crs
4369 1899 Crs
3975 1485 Crs
4238 1600 Crs
3276 1161 Crs
3983 1621 Crs
3930 1555 Crs
3655 1972 Crs
4203 1614 Crs
3407 1404 Crs
3179 1485 Crs
3894 1487 Crs
3008 1533 Crs
3741 1605 Crs
4015 1694 Crs
3281 1425 Crs
4060 1671 Crs
3959 1653 Crs
4215 1648 Crs
4003 1386 Crs
3684 1552 Crs
3783 1760 Crs
3129 1657 Crs
3776 1758 Crs
4112 1255 Crs
4017 1514 Crs
3930 1511 Crs
2503 1688 Crs
3854 1748 Crs
3988 1639 Crs
3225 1577 Crs
3241 1417 Crs
4388 1932 Crs
4437 1713 Crs
3459 1870 Crs
3973 1502 Crs
3510 1426 Crs
3201 1391 Crs
3564 1591 Crs
3558 1516 Crs
3433 1300 Crs
4267 1422 Crs
3988 1491 Crs
3620 1357 Crs
3609 1325 Crs
3479 1291 Crs
3980 1549 Crs
3121 1646 Crs
4679 1615 Crs
4163 1554 Crs
4067 1509 Crs
4120 1704 Crs
4151 1636 Crs
3604 1712 Crs
3663 1049 Crs
3808 1616 Crs
3877 1723 Crs
3807 1764 Crs
3823 1538 Crs
3992 1808 Crs
3620 1691 Crs
3938 1531 Crs
4083 1750 Crs
4231 1297 Crs
2682 1585 Crs
4147 1609 Crs
3733 1564 Crs
3700 1507 Crs
3791 1466 Crs
3687 1701 Crs
3355 858 Crs
4234 1473 Crs
4035 1617 Crs
4087 1639 Crs
3838 1320 Crs
3874 1322 Crs
3686 1522 Crs
3929 1734 Crs
3733 1712 Crs
3736 1876 Crs
2777 1609 Crs
4408 1953 Crs
3630 1387 Crs
3982 1515 Crs
3914 1827 Crs
4112 1315 Crs
3688 1520 Crs
3934 1558 Crs
4068 1817 Crs
4011 1616 Crs
3833 1558 Crs
4083 1550 Crs
3878 1548 Crs
3834 1291 Crs
4300 1861 Crs
3724 1581 Crs
3227 972 Crs
3783 1377 Crs
4103 1455 Crs
3402 1070 Crs
4298 1508 Crs
3260 1560 Crs
3569 1365 Crs
3899 1733 Crs
4301 1859 Crs
3215 1579 Crs
2889 1685 Crs
3906 1457 Crs
3756 1542 Crs
3744 1136 Crs
3037 1766 Crs
3516 1111 Crs
3169 1113 Crs
3074 1872 Crs
4109 1560 Crs
4095 1572 Crs
4096 1705 Crs
3435 1204 Crs
3942 1469 Crs
4010 1352 Crs
4348 1423 Crs
3717 1750 Crs
3957 1822 Crs
3893 1640 Crs
3878 1677 Crs
3886 1572 Crs
4244 1553 Crs
3874 1417 Crs
3330 1649 Crs
4250 1254 Crs
3987 1636 Crs
3892 1703 Crs
4076 1424 Crs
3651 1569 Crs
4386 1512 Crs
4251 1629 Crs
3811 1553 Crs
4112 1505 Crs
4364 1421 Crs
3876 1669 Crs
4204 1513 Crs
3944 1716 Crs
3638 1721 Crs
3970 1593 Crs
3695 1311 Crs
3612 1596 Crs
4211 1747 Crs
4132 1877 Crs
4223 1411 Crs
3979 1476 Crs
3550 1525 Crs
3946 1367 Crs
3769 1717 Crs
3455 1398 Crs
3909 1415 Crs
4138 1455 Crs
3297 1488 Crs
4285 1729 Crs
3446 1242 Crs
3860 1576 Crs
3832 1352 Crs
3401 1594 Crs
4197 1658 Crs
3601 1493 Crs
3885 1564 Crs
2754 1701 Crs
3760 1670 Crs
3969 1415 Crs
3709 1753 Crs
4313 1515 Crs
4182 1692 Crs
3867 2011 Crs
3898 1801 Crs
3594 1581 Crs
3932 1521 Crs
3040 1340 Crs
3963 2012 Crs
3876 1419 Crs
4045 1819 Crs
3886 1459 Crs
3717 1245 Crs
3985 1606 Crs
3944 1659 Crs
3772 1614 Crs
4148 1675 Crs
3456 969 Crs
3191 1811 Crs
3926 1704 Crs
3596 1737 Crs
3007 1798 Crs
4342 1396 Crs
2953 924 Crs
3855 1561 Crs
3810 1696 Crs
3267 1574 Crs
3661 1410 Crs
3880 1762 Crs
3391 1195 Crs
3575 1836 Crs
4153 1675 Crs
3821 1642 Crs
3671 1422 Crs
4287 1469 Crs
3907 1117 Crs
4252 1559 Crs
3586 1616 Crs
4218 1717 Crs
3463 1679 Crs
3832 1452 Crs
4488 1589 Crs
3840 1403 Crs
3350 1679 Crs
4117 1498 Crs
3855 1460 Crs
4479 1745 Crs
4107 1761 Crs
4030 1703 Crs
3452 1580 Crs
4111 1852 Crs
3847 1788 Crs
3709 1576 Crs
3916 1635 Crs
4268 1732 Crs
3904 1599 Crs
3713 1455 Crs
3489 1784 Crs
4177 1660 Crs
3867 1074 Crs
3114 1149 Crs
3974 1532 Crs
3796 1293 Crs
3955 1729 Crs
4079 1496 Crs
4378 1554 Crs
3698 1668 Crs
3825 1473 Crs
4012 1911 Crs
3680 1390 Crs
3681 1470 Crs
4050 1437 Crs
3906 1545 Crs
3692 1621 Crs
4177 1883 Crs
3295 1351 Crs
3853 1433 Crs
4115 1597 Crs
3965 1528 Crs
3789 1683 Crs
3504 1458 Crs
3777 1435 Crs
3683 1584 Crs
4108 1486 Crs
3719 1479 Crs
3848 1797 Crs
4270 1614 Crs
2792 1882 Crs
4037 1774 Crs
4063 1834 Crs
4031 1378 Crs
3874 1465 Crs
3763 1437 Crs
4135 1451 Crs
4033 1396 Crs
3810 1647 Crs
3988 1558 Crs
4060 1432 Crs
3730 1579 Crs
3463 1494 Crs
4362 1598 Crs
3961 1765 Crs
3645 1475 Crs
3965 1793 Crs
4025 1640 Crs
3770 1425 Crs
4128 1644 Crs
3560 1307 Crs
4059 1572 Crs
4067 1628 Crs
3464 1549 Crs
4118 1804 Crs
4172 1843 Crs
3613 1861 Crs
3866 1545 Crs
3675 1618 Crs
4019 1314 Crs
4240 1521 Crs
3782 1707 Crs
3990 1452 Crs
3916 1395 Crs
3984 1620 Crs
3640 1833 Crs
3950 1651 Crs
3838 1505 Crs
3723 1829 Crs
3372 1278 Crs
4240 1759 Crs
3790 1665 Crs
3520 1686 Crs
3833 1293 Crs
4143 1560 Crs
3839 1567 Crs
3667 1813 Crs
3847 1796 Crs
3690 1584 Crs
3746 821 Crs
4003 1472 Crs
3809 2000 Crs
4001 1494 Crs
3695 1523 Crs
4273 1841 Crs
3727 1620 Crs
2772 1376 Crs
3832 769 Crs
4096 1572 Crs
3471 1751 Crs
3525 1483 Crs
3343 1552 Crs
3878 1561 Crs
3003 1603 Crs
3724 1588 Crs
3625 1536 Crs
4163 1740 Crs
3949 1639 Crs
3962 1673 Crs
4101 1772 Crs
3668 2053 Crs
3461 1742 Crs
4381 1102 Crs
4282 1698 Crs
3936 1713 Crs
4080 1384 Crs
3881 1942 Crs
4147 1619 Crs
3977 1609 Crs
4142 1576 Crs
4087 1539 Crs
3982 1526 Crs
4580 1802 Crs
3659 1594 Crs
3321 1539 Crs
3607 1264 Crs
4194 1781 Crs
3867 1908 Crs
4138 1578 Crs
4032 1419 Crs
4136 1657 Crs
3864 1495 Crs
3781 1402 Crs
3792 1724 Crs
3823 1657 Crs
3747 1722 Crs
4031 1629 Crs
4333 1504 Crs
3703 1521 Crs
3696 1524 Crs
4209 1659 Crs
3119 1718 Crs
4122 1394 Crs
2053 1412 Crs
4097 1526 Crs
4200 1754 Crs
4216 1376 Crs
3846 1426 Crs
4266 1575 Crs
3316 1312 Crs
4079 1296 Crs
3664 1494 Crs
3960 1561 Crs
3912 1484 Crs
3521 1483 Crs
4167 1595 Crs
3494 1525 Crs
4200 1712 Crs
3573 1625 Crs
4214 1455 Crs
3908 1674 Crs
4392 1518 Crs
4018 1463 Crs
3422 1606 Crs
3683 1645 Crs
4036 1384 Crs
3254 1410 Crs
3305 1525 Crs
3752 1442 Crs
3522 1581 Crs
4204 1975 Crs
4002 1738 Crs
4037 1637 Crs
3681 1401 Crs
3848 1396 Crs
3632 1538 Crs
3718 1555 Crs
4491 1851 Crs
3568 1730 Crs
3865 1522 Crs
3557 1186 Crs
4039 1465 Crs
2937 1599 Crs
3574 1537 Crs
3845 1464 Crs
4225 1803 Crs
4451 1444 Crs
4072 1593 Crs
4073 1612 Crs
3467 1593 Crs
4104 1521 Crs
3523 1462 Crs
4262 1857 Crs
3103 1506 Crs
3345 1403 Crs
3928 1516 Crs
3802 1441 Crs
4012 1527 Crs
3149 1880 Crs
3926 1754 Crs
4248 1957 Crs
3749 1454 Crs
3660 1425 Crs
4267 1411 Crs
3195 1552 Crs
3976 1420 Crs
4171 1673 Crs
4147 1538 Crs
3931 1478 Crs
4178 1440 Crs
4105 1663 Crs
3741 1480 Crs
3981 1856 Crs
4175 1305 Crs
3821 1502 Crs
4086 1657 Crs
2612 1454 Crs
4393 1621 Crs
3636 1688 Crs
3040 1460 Crs
3546 1493 Crs
3558 1713 Crs
4330 1587 Crs
3946 1600 Crs
3051 1767 Crs
3232 1567 Crs
4282 1431 Crs
4161 1716 Crs
3492 1540 Crs
3417 1651 Crs
4048 1973 Crs
4109 1701 Crs
3675 1451 Crs
4144 1634 Crs
3995 1496 Crs
3561 1690 Crs
4025 1516 Crs
4371 1618 Crs
3442 1390 Crs
4218 1830 Crs
4077 1640 Crs
4176 1463 Crs
4095 1010 Crs
4170 1577 Crs
3955 1441 Crs
3425 1645 Crs
4020 1771 Crs
3899 1634 Crs
4300 1665 Crs
3783 1566 Crs
3719 1431 Crs
3273 1565 Crs
3956 1634 Crs
3902 1650 Crs
3924 1478 Crs
4080 1366 Crs
3904 1603 Crs
4026 1708 Crs
3589 1760 Crs
3676 1640 Crs
3724 1380 Crs
3437 1595 Crs
3673 1699 Crs
4041 1514 Crs
4058 1512 Crs
3599 1558 Crs
3926 1587 Crs
3689 1831 Crs
4183 1371 Crs
3952 1484 Crs
3779 1399 Crs
3771 1560 Crs
4001 1199 Crs
4138 1785 Crs
3240 1445 Crs
4135 1473 Crs
3665 1532 Crs
4325 1850 Crs
3727 1412 Crs
3797 1498 Crs
4273 1455 Crs
3824 1710 Crs
3811 1470 Crs
3570 1467 Crs
4158 1605 Crs
3368 1387 Crs
3959 1626 Crs
3800 1585 Crs
4449 1379 Crs
3555 1424 Crs
3940 1749 Crs
3171 1660 Crs
3826 1729 Crs
3376 1807 Crs
3510 1574 Crs
3868 1638 Crs
4156 1720 Crs
3970 1819 Crs
3658 1754 Crs
3697 927 Crs
3562 1750 Crs
4222 1552 Crs
3649 1448 Crs
3654 1449 Crs
3229 1313 Crs
4142 1767 Crs
4220 1497 Crs
4028 1673 Crs
3969 1620 Crs
4220 1791 Crs
4398 1628 Crs
4204 1804 Crs
3768 1716 Crs
3778 1640 Crs
3964 1455 Crs
3103 1367 Crs
4006 1667 Crs
4228 1500 Crs
4134 1589 Crs
4040 1661 Crs
3768 1933 Crs
4023 1800 Crs
2875 1934 Crs
3993 1761 Crs
4232 1386 Crs
3896 1503 Crs
3627 1606 Crs
2831 1518 Crs
4032 1600 Crs
3506 1833 Crs
3564 1548 Crs
4067 1632 Crs
3714 1473 Crs
4045 1660 Crs
3434 1281 Crs
4125 1476 Crs
4319 1838 Crs
3964 1970 Crs
4041 1517 Crs
4174 1840 Crs
3057 1286 Crs
4150 1550 Crs
3672 1193 Crs
3877 1279 Crs
4018 1613 Crs
3904 1807 Crs
4080 1604 Crs
3929 1706 Crs
3105 1328 Crs
3748 1454 Crs
3772 1277 Crs
3817 1876 Crs
3527 1484 Crs
4251 1541 Crs
4114 1666 Crs
3663 1490 Crs
3913 1538 Crs
4394 1455 Crs
3430 1372 Crs
3730 1828 Crs
4272 1785 Crs
4055 1466 Crs
3983 1485 Crs
3856 1696 Crs
3758 1517 Crs
3031 1675 Crs
3866 1608 Crs
3264 1554 Crs
3556 1634 Crs
2339 1658 Crs
4322 1636 Crs
3168 1581 Crs
4109 1581 Crs
4035 1182 Crs
3641 1536 Crs
3796 1415 Crs
3961 1822 Crs
3872 1614 Crs
4120 1784 Crs
3438 1702 Crs
3978 1441 Crs
3737 1541 Crs
3596 1813 Crs
4147 1609 Crs
3827 1733 Crs
3901 1625 Crs
3366 1454 Crs
4120 1712 Crs
3886 1791 Crs
4091 1575 Crs
4067 1570 Crs
3485 1621 Crs
3817 1413 Crs
4082 1361 Crs
3820 1317 Crs
3734 1543 Crs
3043 1474 Crs
3893 1605 Crs
4156 1623 Crs
4130 1466 Crs
3189 1264 Crs
3534 1544 Crs
3570 1604 Crs
3948 1566 Crs
4234 1646 Crs
3975 1495 Crs
4166 1814 Crs
3797 1334 Crs
3776 1127 Crs
4026 1609 Crs
4049 1516 Crs
3307 1839 Crs
3882 1726 Crs
4060 1419 Crs
3847 1008 Crs
3742 1430 Crs
3722 1435 Crs
3637 1429 Crs
4059 1806 Crs
4073 1561 Crs
3641 1580 Crs
3598 1530 Crs
3768 1294 Crs
4156 1590 Crs
3458 1357 Crs
3992 1647 Crs
4117 1666 Crs
3853 1753 Crs
3906 1401 Crs
4004 1569 Crs
4024 1777 Crs
3974 1740 Crs
4198 1445 Crs
4041 1706 Crs
3501 1710 Crs
3195 1713 Crs
4041 1619 Crs
3982 1951 Crs
4297 1626 Crs
3733 1257 Crs
3445 1487 Crs
3876 1497 Crs
4013 1689 Crs
3933 1438 Crs
3877 1473 Crs
3907 1361 Crs
3650 1755 Crs
3657 1736 Crs
3884 1570 Crs
3552 1524 Crs
3033 1278 Crs
4053 1766 Crs
4344 1941 Crs
4149 1469 Crs
4195 1527 Crs
4284 1625 Crs
4266 1398 Crs
4679 1473 Crs
3813 1444 Crs
4448 1479 Crs
4050 1588 Crs
3362 1684 Crs
3508 1531 Crs
3930 1577 Crs
4043 1808 Crs
3882 1597 Crs
3595 1570 Crs
3958 1514 Crs
4156 1710 Crs
4198 1332 Crs
3018 1654 Crs
4268 1815 Crs
3278 1375 Crs
3642 1768 Crs
3986 1613 Crs
3450 1829 Crs
3901 1315 Crs
3917 1473 Crs
3093 1414 Crs
3958 1556 Crs
3934 1948 Crs
4185 1420 Crs
4020 1685 Crs
4076 1770 Crs
3934 1714 Crs
3895 1470 Crs
3702 1182 Crs
3811 1463 Crs
4191 1555 Crs
4201 1617 Crs
4428 1582 Crs
3375 1565 Crs
3822 1771 Crs
2716 1500 Crs
4030 1378 Crs
4001 1406 Crs
3748 1258 Crs
4276 1681 Crs
4219 1591 Crs
3975 1589 Crs
3756 1267 Crs
3324 1761 Crs
3649 1687 Crs
3688 1532 Crs
4186 1459 Crs
3883 1848 Crs
3896 1461 Crs
4129 1567 Crs
3544 1396 Crs
3074 1484 Crs
4376 1588 Crs
3763 1455 Crs
3606 1719 Crs
3534 1467 Crs
3931 1104 Crs
4223 1566 Crs
3872 1594 Crs
4087 1391 Crs
4051 1487 Crs
3766 1537 Crs
4320 1193 Crs
4071 1661 Crs
3800 1461 Crs
3974 1478 Crs
3604 1956 Crs
3630 1248 Crs
3833 1607 Crs
3891 1356 Crs
2624 1424 Crs
3794 1085 Crs
3737 1646 Crs
3827 1690 Crs
3697 1904 Crs
3810 1610 Crs
4408 1608 Crs
4086 1131 Crs
4253 1730 Crs
3256 1646 Crs
3762 1819 Crs
4283 1663 Crs
4317 1102 Crs
3759 1465 Crs
3444 1711 Crs
2736 1612 Crs
3579 956 Crs
4449 1745 Crs
3758 1688 Crs
4056 1653 Crs
2984 1696 Crs
3715 1412 Crs
4114 1605 Crs
3788 1542 Crs
4031 1730 Crs
4187 1541 Crs
3575 1607 Crs
4138 1641 Crs
3678 1607 Crs
3327 1458 Crs
2945 1628 Crs
3169 1511 Crs
3995 1452 Crs
3423 1494 Crs
3925 1871 Crs
4053 1554 Crs
3948 1394 Crs
3906 1685 Crs
3900 1474 Crs
3481 2093 Crs
3957 1747 Crs
3564 1334 Crs
3981 1398 Crs
4095 1494 Crs
4157 1909 Crs
4118 1688 Crs
3705 1598 Crs
4039 1709 Crs
3792 1874 Crs
3715 1299 Crs
3821 1214 Crs
4208 1540 Crs
3836 1439 Crs
3966 1648 Crs
4050 1926 Crs
3207 1590 Crs
4086 1154 Crs
3670 1509 Crs
4114 1646 Crs
3787 1593 Crs
3521 1534 Crs
3486 1287 Crs
3332 1286 Crs
3713 1072 Crs
4155 1550 Crs
4092 1347 Crs
3720 1430 Crs
4071 1518 Crs
4000 1562 Crs
4063 1603 Crs
4112 1552 Crs
3078 1558 Crs
3972 1298 Crs
3953 1866 Crs
3926 1692 Crs
4025 1584 Crs
3759 1357 Crs
3946 1316 Crs
3895 1586 Crs
3878 1574 Crs
4307 1559 Crs
3622 1816 Crs
4102 1386 Crs
4201 1876 Crs
4176 1407 Crs
3078 1537 Crs
3692 1560 Crs
3897 1433 Crs
3615 1595 Crs
4279 1604 Crs
3603 1500 Crs
3837 1447 Crs
3504 1680 Crs
3319 1690 Crs
4072 1455 Crs
4087 1568 Crs
4168 1670 Crs
4061 1643 Crs
3567 1475 Crs
3753 1464 Crs
3701 1482 Crs
3888 1901 Crs
3599 1258 Crs
3127 1314 Crs
3691 1870 Crs
2685 1409 Crs
4162 1523 Crs
3954 1608 Crs
3954 1228 Crs
3978 1765 Crs
3867 1696 Crs
4103 1694 Crs
3447 1733 Crs
3888 1573 Crs
3874 1681 Crs
3937 1463 Crs
3613 1843 Crs
4083 1631 Crs
4105 1617 Crs
4078 1564 Crs
4089 1423 Crs
3905 1387 Crs
3963 1626 Crs
3164 1603 Crs
3714 1691 Crs
3487 1493 Crs
3919 1660 Crs
3963 1636 Crs
4006 1454 Crs
4079 1432 Crs
3814 1962 Crs
3868 1642 Crs
3651 1384 Crs
3910 972 Crs
3984 1698 Crs
3735 1352 Crs
3722 1260 Crs
3622 1360 Crs
3859 1613 Crs
3866 1798 Crs
3973 1499 Crs
3993 872 Crs
4113 1472 Crs
3860 1416 Crs
3222 1479 Crs
3726 1723 Crs
3766 1483 Crs
3031 1150 Crs
4056 1564 Crs
4448 1416 Crs
3879 1429 Crs
3951 1381 Crs
3313 1165 Crs
3977 1530 Crs
3720 1694 Crs
3958 1521 Crs
2522 1342 Crs
3581 1547 Crs
3423 1529 Crs
3793 1465 Crs
4020 1865 Crs
3991 1456 Crs
3596 1510 Crs
3828 1703 Crs
3630 1687 Crs
3758 1329 Crs
3949 1547 Crs
3822 1466 Crs
4004 1529 Crs
3929 1554 Crs
3100 1798 Crs
3940 1576 Crs
4056 1504 Crs
3738 1853 Crs
3301 1798 Crs
3988 1653 Crs
4067 964 Crs
3861 1713 Crs
3659 1703 Crs
3835 1695 Crs
3959 1400 Crs
3929 1684 Crs
4679 1726 Crs
3695 1615 Crs
3796 1566 Crs
4401 1738 Crs
3390 1740 Crs
3479 1489 Crs
2341 1630 Crs
3716 1504 Crs
3738 1410 Crs
2959 1772 Crs
4158 1622 Crs
3623 1817 Crs
4261 1310 Crs
3595 1715 Crs
3631 1175 Crs
3633 1489 Crs
3429 1508 Crs
4127 1729 Crs
4125 1636 Crs
3727 1786 Crs
4054 1638 Crs
4034 1490 Crs
4012 1500 Crs
3350 1497 Crs
3964 1609 Crs
3987 1542 Crs
3486 1491 Crs
3933 1706 Crs
2712 1548 Crs
3711 1370 Crs
4112 1422 Crs
3869 1696 Crs
4083 1659 Crs
3754 1519 Crs
3904 1217 Crs
4151 1807 Crs
3644 1511 Crs
3885 1485 Crs
4111 1475 Crs
3703 1746 Crs
3615 1346 Crs
4145 1835 Crs
4061 1901 Crs
3963 1490 Crs
4326 1650 Crs
3882 1547 Crs
4101 1425 Crs
3248 1559 Crs
3830 1806 Crs
4274 1437 Crs
3452 1240 Crs
3671 1618 Crs
4466 1386 Crs
3915 1880 Crs
4059 1283 Crs
3525 1427 Crs
3896 1563 Crs
3974 1721 Crs
3977 1536 Crs
4115 1819 Crs
4270 1551 Crs
3626 1691 Crs
4084 1339 Crs
3946 1683 Crs
3148 1408 Crs
3942 1656 Crs
4138 1847 Crs
3196 1334 Crs
4022 1635 Crs
3860 1647 Crs
4370 1739 Crs
3736 1257 Crs
4057 1493 Crs
3985 1214 Crs
3742 1477 Crs
3072 1529 Crs
3369 1560 Crs
3988 1532 Crs
4042 1774 Crs
3909 1597 Crs
4007 1588 Crs
3456 1578 Crs
3631 1733 Crs
3805 931 Crs
2415 1488 Crs
4049 1393 Crs
4242 1540 Crs
4283 1664 Crs
3649 1183 Crs
4073 1904 Crs
3923 1428 Crs
3448 1272 Crs
4326 1756 Crs
3481 1691 Crs
3278 1757 Crs
3858 1710 Crs
3877 1474 Crs
4402 1720 Crs
3736 1655 Crs
4011 1529 Crs
4386 1460 Crs
4334 1498 Crs
4316 1672 Crs
3476 1680 Crs
4073 1684 Crs
3901 1473 Crs
3886 1954 Crs
3631 1634 Crs
4321 1513 Crs
4036 1529 Crs
3422 2079 Crs
3698 1488 Crs
3666 1727 Crs
3921 1718 Crs
3884 1736 Crs
3617 1595 Crs
3820 1519 Crs
3616 1678 Crs
2935 1363 Crs
3531 1212 Crs
3867 1610 Crs
3806 1518 Crs
3465 1811 Crs
4098 1693 Crs
4594 1663 Crs
3735 1542 Crs
3321 1613 Crs
4227 1431 Crs
4521 1324 Crs
4071 1673 Crs
3802 1692 Crs
3412 1682 Crs
4213 1560 Crs
3871 1504 Crs
4028 1637 Crs
3503 1503 Crs
3466 1531 Crs
3743 1498 Crs
3712 1554 Crs
2632 1606 Crs
3998 1801 Crs
4155 1421 Crs
3770 1352 Crs
4086 1545 Crs
3840 1759 Crs
3874 1770 Crs
4215 1631 Crs
3912 1657 Crs
3871 1669 Crs
4058 1680 Crs
3848 1263 Crs
4025 1728 Crs
4472 1571 Crs
3368 1905 Crs
3258 1559 Crs
3526 1529 Crs
4095 2062 Crs
3586 1381 Crs
3792 1878 Crs
3116 1648 Crs
3911 1316 Crs
3310 1952 Crs
3819 1651 Crs
4144 1634 Crs
3358 1581 Crs
4395 1915 Crs
3763 1653 Crs
4078 1492 Crs
4038 1592 Crs
3334 1630 Crs
3948 1499 Crs
3161 1461 Crs
3056 1764 Crs
4162 2141 Crs
3580 1635 Crs
3820 1388 Crs
3804 1815 Crs
3874 1292 Crs
3562 1579 Crs
3320 1575 Crs
3544 1510 Crs
3777 1701 Crs
4049 1708 Crs
3731 1506 Crs
4031 1534 Crs
3950 1682 Crs
3442 1365 Crs
3582 1144 Crs
3603 1611 Crs
3245 1531 Crs
4018 1627 Crs
3530 1667 Crs
4196 1607 Crs
4106 1746 Crs
3053 1620 Crs
4036 1575 Crs
4192 1816 Crs
3895 1811 Crs
3630 1635 Crs
4244 1774 Crs
4336 1734 Crs
4109 1672 Crs
4064 1471 Crs
3925 1786 Crs
3468 1181 Crs
3839 1770 Crs
4426 1749 Crs
3725 1511 Crs
3927 1723 Crs
4031 1640 Crs
4214 970 Crs
3658 1437 Crs
3735 1000 Crs
4280 1716 Crs
4088 1175 Crs
3784 1616 Crs
3361 1701 Crs
3954 1502 Crs
3840 1395 Crs
3740 1634 Crs
4283 1459 Crs
3876 1405 Crs
3856 1441 Crs
3936 1371 Crs
4008 1830 Crs
3321 1499 Crs
4051 2064 Crs
3880 1828 Crs
3699 1536 Crs
3433 1538 Crs
2856 1683 Crs
3063 1892 Crs
3307 1435 Crs
3722 1458 Crs
4318 1523 Crs
3455 1670 Crs
3996 1675 Crs
3352 1877 Crs
3449 1590 Crs
3926 1676 Crs
3234 1418 Crs
4023 1625 Crs
3631 1554 Crs
4419 1694 Crs
3495 1300 Crs
3255 980 Crs
3160 1619 Crs
3782 1719 Crs
3755 1267 Crs
3848 1354 Crs
3960 1407 Crs
3933 1964 Crs
3131 1464 Crs
4331 1600 Crs
4095 1598 Crs
4085 1631 Crs
4100 1651 Crs
4104 1720 Crs
3090 1255 Crs
4044 1507 Crs
2691 1683 Crs
3778 1514 Crs
3592 1201 Crs
3381 1362 Crs
4127 1625 Crs
3581 1549 Crs
3913 1515 Crs
3455 1296 Crs
3977 1642 Crs
3960 1894 Crs
3292 1587 Crs
3728 1509 Crs
4123 1755 Crs
3774 1724 Crs
3848 1567 Crs
3881 1507 Crs
3967 1660 Crs
4157 1575 Crs
3894 1799 Crs
4075 1423 Crs
3891 1418 Crs
3801 1727 Crs
3600 1662 Crs
4126 1743 Crs
4181 1770 Crs
3642 1688 Crs
3818 1714 Crs
3386 1844 Crs
4005 1815 Crs
4112 2076 Crs
3772 1524 Crs
3232 2100 Crs
3749 1603 Crs
3791 1516 Crs
4131 1752 Crs
4000 1515 Crs
3533 1524 Crs
4288 1704 Crs
3590 1601 Crs
3736 1690 Crs
3143 1438 Crs
4206 1745 Crs
3524 1333 Crs
4268 1818 Crs
3905 1469 Crs
3250 844 Crs
4071 1224 Crs
3567 1527 Crs
3540 1372 Crs
3998 1585 Crs
3673 1634 Crs
3830 1399 Crs
3597 1374 Crs
3976 1465 Crs
3646 1572 Crs
3835 1562 Crs
3438 1452 Crs
4099 1594 Crs
3538 1435 Crs
3881 1473 Crs
3695 1741 Crs
4404 1601 Crs
4118 1243 Crs
3803 1916 Crs
2969 1711 Crs
4295 1752 Crs
3876 1779 Crs
3894 1697 Crs
3664 1730 Crs
4002 1691 Crs
4110 1788 Crs
3743 1479 Crs
3948 1505 Crs
3537 1591 Crs
3731 1910 Crs
4133 1410 Crs
3838 1402 Crs
4330 1689 Crs
3719 1484 Crs
2861 1512 Crs
3475 1544 Crs
3904 1590 Crs
3634 1396 Crs
4142 1512 Crs
3973 1484 Crs
4225 1726 Crs
3363 1421 Crs
3443 1432 Crs
4192 1781 Crs
4217 1747 Crs
3054 1418 Crs
3452 1550 Crs
3844 1906 Crs
4056 1504 Crs
3417 1508 Crs
4049 1524 Crs
3719 1588 Crs
3763 1276 Crs
3839 967 Crs
3960 1826 Crs
2709 1568 Crs
4072 1688 Crs
4170 1716 Crs
4069 1624 Crs
3306 1634 Crs
3945 1744 Crs
3774 1501 Crs
3536 1582 Crs
4055 1594 Crs
3686 1395 Crs
3851 1507 Crs
4004 1708 Crs
3844 1595 Crs
3599 1722 Crs
3600 1523 Crs
3897 1539 Crs
4014 1707 Crs
4028 1499 Crs
3980 2021 Crs
4193 1839 Crs
3864 1386 Crs
3624 1517 Crs
3776 1545 Crs
3926 1757 Crs
4109 1876 Crs
4215 1820 Crs
3426 1503 Crs
3653 1593 Crs
4044 1067 Crs
3892 1596 Crs
3979 1587 Crs
3693 1849 Crs
4148 1731 Crs
3922 1557 Crs
4203 1758 Crs
3463 1675 Crs
4059 1718 Crs
4248 1888 Crs
4104 1847 Crs
3881 1358 Crs
3883 1643 Crs
3901 1276 Crs
3915 1717 Crs
3677 1718 Crs
3938 1609 Crs
4109 1471 Crs
3443 1526 Crs
4091 1691 Crs
3549 1650 Crs
4150 1847 Crs
2787 1588 Crs
3543 1638 Crs
4152 1967 Crs
3934 1146 Crs
3142 1692 Crs
3621 1406 Crs
4003 1713 Crs
3423 1974 Crs
4003 1539 Crs
3780 1413 Crs
4147 1477 Crs
4218 1258 Crs
3438 1839 Crs
3938 1439 Crs
4182 1698 Crs
3760 1694 Crs
3664 1664 Crs
4171 1648 Crs
3543 1409 Crs
4034 1206 Crs
3666 1907 Crs
3748 1345 Crs
3903 1599 Crs
3899 1600 Crs
4056 1645 Crs
4149 1619 Crs
3965 1606 Crs
4019 1757 Crs
3107 1634 Crs
4158 1742 Crs
4375 1592 Crs
4412 1680 Crs
3903 1841 Crs
3943 1605 Crs
4000 1724 Crs
3757 1303 Crs
4057 1515 Crs
4289 1700 Crs
4103 1533 Crs
3244 2002 Crs
3603 1460 Crs
3689 1641 Crs
4093 1384 Crs
3190 1480 Crs
3437 1424 Crs
3919 1205 Crs
4377 1771 Crs
3884 1764 Crs
4165 1244 Crs
3765 1366 Crs
4230 1458 Crs
2628 1781 Crs
3760 1489 Crs
3459 1923 Crs
3636 1462 Crs
3895 1386 Crs
3807 1824 Crs
3579 1018 Crs
3602 1903 Crs
4199 1831 Crs
3522 1479 Crs
4029 1529 Crs
4167 1206 Crs
4413 1661 Crs
3153 1566 Crs
3816 1677 Crs
4431 1493 Crs
3842 1592 Crs
3567 1654 Crs
4076 1812 Crs
3463 1179 Crs
3773 1761 Crs
2412 1368 Crs
3813 1747 Crs
3885 1402 Crs
4117 1549 Crs
3832 1468 Crs
3822 1488 Crs
3929 1698 Crs
4008 1987 Crs
4140 1283 Crs
4014 1707 Crs
3466 1529 Crs
3001 1396 Crs
3963 1647 Crs
2869 1410 Crs
3222 1042 Crs
3822 1514 Crs
3793 1532 Crs
3242 1614 Crs
3190 1464 Crs
3562 1532 Crs
3342 1693 Crs
4226 1598 Crs
3526 1453 Crs
3860 1588 Crs
4153 1383 Crs
3677 1671 Crs
3812 1421 Crs
4087 1487 Crs
4250 1710 Crs
4096 1898 Crs
3232 1618 Crs
3873 1174 Crs
3781 978 Crs
3947 1710 Crs
3521 1513 Crs
2899 1321 Crs
3553 1058 Crs
4111 1773 Crs
2992 1710 Crs
3848 1694 Crs
4147 1643 Crs
3917 1785 Crs
3846 1820 Crs
3583 1183 Crs
4046 1358 Crs
3730 1961 Crs
3620 1540 Crs
4228 1712 Crs
4121 1429 Crs
4427 1671 Crs
3506 1182 Crs
3978 1685 Crs
3385 1395 Crs
3874 1663 Crs
3694 1346 Crs
3771 1509 Crs
3363 1635 Crs
3711 1379 Crs
3911 1388 Crs
4227 1502 Crs
3121 1618 Crs
4315 1599 Crs
4129 1446 Crs
4336 1444 Crs
3716 1431 Crs
2966 1611 Crs
4254 1880 Crs
4154 1450 Crs
3718 1637 Crs
3739 1656 Crs
3867 1854 Crs
3224 1331 Crs
3931 1602 Crs
3399 1422 Crs
3859 1639 Crs
3910 1618 Crs
3614 1852 Crs
3785 1492 Crs
3914 1497 Crs
4671 1601 Crs
3894 1463 Crs
3848 1793 Crs
2681 1553 Crs
3579 1467 Crs
3786 1389 Crs
3940 1635 Crs
3814 1491 Crs
3436 1620 Crs
3730 1423 Crs
3870 1435 Crs
4120 1749 Crs
3506 1443 Crs
3971 1857 Crs
4094 1455 Crs
3984 1688 Crs
3615 1571 Crs
3282 1577 Crs
3616 1574 Crs
4276 1409 Crs
3853 1394 Crs
3093 1690 Crs
4189 1465 Crs
3828 1507 Crs
3489 1423 Crs
3691 1467 Crs
3629 1530 Crs
3704 1837 Crs
3909 1567 Crs
3663 1691 Crs
3472 1525 Crs
4118 1657 Crs
3919 1863 Crs
3283 2039 Crs
3943 1579 Crs
3779 1126 Crs
4207 1159 Crs
2779 1553 Crs
3634 1580 Crs
4046 1606 Crs
4375 1212 Crs
3644 1717 Crs
3549 1411 Crs
3967 1617 Crs
4123 1595 Crs
3882 1234 Crs
3747 1546 Crs
3936 1864 Crs
3902 1543 Crs
4135 1875 Crs
3940 1136 Crs
4004 1734 Crs
3675 1598 Crs
3792 1696 Crs
4423 1590 Crs
4478 1545 Crs
4208 1615 Crs
4108 1459 Crs
3917 1603 Crs
3476 1606 Crs
4016 1699 Crs
4115 1882 Crs
3601 1319 Crs
3980 1527 Crs
4240 1635 Crs
3821 1897 Crs
3492 1724 Crs
3403 1383 Crs
3522 1559 Crs
3865 1417 Crs
3818 1648 Crs
3906 1694 Crs
3607 1874 Crs
3652 1578 Crs
3081 1642 Crs
4152 1721 Crs
4338 1477 Crs
3235 1706 Crs
4106 1485 Crs
4307 1696 Crs
4126 1420 Crs
4071 1583 Crs
3485 1865 Crs
4299 1467 Crs
3936 1642 Crs
3735 1510 Crs
4138 1759 Crs
3287 1598 Crs
3764 1553 Crs
3434 1188 Crs
3697 1774 Crs
3446 1390 Crs
3821 1543 Crs
4205 1636 Crs
4058 1828 Crs
4132 1479 Crs
3116 1622 Crs
3488 1493 Crs
2854 1483 Crs
4239 1655 Crs
3885 1438 Crs
3922 1683 Crs
4261 1572 Crs
3679 1611 Crs
4208 1599 Crs
3765 1701 Crs
3953 1486 Crs
4244 1569 Crs
3646 1727 Crs
4067 1287 Crs
3823 1519 Crs
3829 1459 Crs
3182 1436 Crs
4295 1556 Crs
3565 1636 Crs
3912 1134 Crs
4075 1253 Crs
3309 1450 Crs
3908 1265 Crs
3864 1907 Crs
4040 1553 Crs
4106 1941 Crs
3386 1316 Crs
3060 1246 Crs
4679 1813 Crs
4131 1455 Crs
3840 1662 Crs
4017 1497 Crs
3693 1349 Crs
3689 1450 Crs
3773 1794 Crs
3883 1402 Crs
4214 1470 Crs
3852 1475 Crs
3080 1793 Crs
3498 1902 Crs
3061 1875 Crs
3640 1235 Crs
3794 1438 Crs
3589 1401 Crs
3683 1570 Crs
3424 1396 Crs
3982 1768 Crs
4056 1745 Crs
3482 1362 Crs
3632 1688 Crs
4302 1693 Crs
4224 1977 Crs
3704 1771 Crs
4017 1321 Crs
3512 1323 Crs
4122 1443 Crs
3464 1134 Crs
3405 1406 Crs
4174 1761 Crs
4077 1340 Crs
3911 1616 Crs
3030 1444 Crs
3309 1335 Crs
4390 1744 Crs
4043 1543 Crs
4183 1721 Crs
4186 1620 Crs
4018 1582 Crs
4279 1576 Crs
4233 1725 Crs
3792 1313 Crs
3819 1673 Crs
4050 1364 Crs
3951 1469 Crs
4410 1161 Crs
3908 1756 Crs
3227 1667 Crs
3739 1794 Crs
3760 1268 Crs
3483 1912 Crs
3967 1510 Crs
4105 1634 Crs
2399 1686 Crs
4057 926 Crs
3520 1460 Crs
3804 1610 Crs
3987 1848 Crs
4199 1552 Crs
3385 1517 Crs
4350 1543 Crs
4068 1767 Crs
3973 1660 Crs
3600 1435 Crs
4123 1652 Crs
4439 1803 Crs
3990 1676 Crs
4154 1732 Crs
4087 1622 Crs
4016 2085 Crs
4564 1513 Crs
4137 1585 Crs
3947 1774 Crs
3639 1648 Crs
3812 1395 Crs
3682 1724 Crs
3728 1719 Crs
4145 1367 Crs
4228 1502 Crs
3592 1560 Crs
3673 1500 Crs
3874 1185 Crs
4001 1655 Crs
3665 1341 Crs
4256 1491 Crs
4045 1884 Crs
4133 1718 Crs
4275 1299 Crs
4166 1588 Crs
3530 1790 Crs
4136 1686 Crs
3305 1442 Crs
3642 1570 Crs
3816 1615 Crs
3324 1428 Crs
3281 1825 Crs
3639 1076 Crs
3990 1561 Crs
3815 1668 Crs
3295 1433 Crs
3541 1765 Crs
3874 1580 Crs
4043 1852 Crs
3455 1610 Crs
3597 1299 Crs
4071 1943 Crs
3088 1434 Crs
3986 2023 Crs
3493 1698 Crs
2906 1899 Crs
4110 1518 Crs
3951 1953 Crs
3250 1502 Crs
4189 1590 Crs
4133 1783 Crs
4274 1693 Crs
3846 1550 Crs
3920 1505 Crs
3589 1628 Crs
3374 1545 Crs
3716 1365 Crs
3747 1556 Crs
3363 1433 Crs
4310 1803 Crs
3438 748 Crs
4146 1728 Crs
2739 1565 Crs
4087 1561 Crs
3810 1730 Crs
3971 1596 Crs
3619 1664 Crs
3912 1482 Crs
3424 1764 Crs
2933 1710 Crs
3563 1716 Crs
3888 1632 Crs
3664 1699 Crs
3614 1562 Crs
4188 1496 Crs
3465 1302 Crs
3650 857 Crs
4206 1628 Crs
3065 1592 Crs
3496 1369 Crs
4032 1363 Crs
3598 1369 Crs
3593 1659 Crs
4004 1478 Crs
3983 1487 Crs
3114 1726 Crs
3565 1174 Crs
3802 1858 Crs
3414 1753 Crs
3738 1438 Crs
3893 1196 Crs
3980 1572 Crs
3821 1400 Crs
4090 1877 Crs
4012 1424 Crs
3325 1413 Crs
3887 1811 Crs
3678 1555 Crs
3473 1273 Crs
4087 1728 Crs
3994 1546 Crs
3543 1375 Crs
4134 1443 Crs
3958 1570 Crs
3793 1422 Crs
3726 1641 Crs
3976 1400 Crs
3820 1706 Crs
3762 1899 Crs
3146 1435 Crs
3988 1824 Crs
4115 1561 Crs
3246 1669 Crs
3552 945 Crs
3836 1628 Crs
3714 1764 Crs
3499 1588 Crs
3874 1559 Crs
3461 1888 Crs
3172 1762 Crs
3797 1567 Crs
4105 1587 Crs
4050 1306 Crs
3415 1606 Crs
3982 1704 Crs
3965 1604 Crs
4150 1483 Crs
4019 1480 Crs
4030 1506 Crs
3964 1699 Crs
3251 1711 Crs
4215 1696 Crs
3319 1431 Crs
3838 1723 Crs
4098 1719 Crs
3976 1795 Crs
3227 1471 Crs
3672 1679 Crs
4442 1775 Crs
3950 1094 Crs
3587 1783 Crs
3494 1654 Crs
3270 1858 Crs
3793 1422 Crs
3549 1509 Crs
3826 1528 Crs
3916 1731 Crs
3700 1574 Crs
4361 1628 Crs
3415 1387 Crs
4257 1638 Crs
3180 1770 Crs
3933 1719 Crs
3753 1694 Crs
3912 1462 Crs
4094 1433 Crs
4657 1611 Crs
3427 1408 Crs
3953 1404 Crs
3606 1476 Crs
3660 1486 Crs
3715 1686 Crs
3814 1776 Crs
3673 1787 Crs
3460 1454 Crs
3603 1503 Crs
3881 1987 Crs
4016 1805 Crs
3074 1468 Crs
4103 1483 Crs
4453 1515 Crs
3418 1557 Crs
4224 1453 Crs
4076 1467 Crs
3530 1509 Crs
3910 1446 Crs
4184 1725 Crs
4089 1717 Crs
4030 1695 Crs
3463 1282 Crs
3801 1601 Crs
3958 1636 Crs
4014 1516 Crs
4073 1595 Crs
3980 2010 Crs
4052 1483 Crs
3744 1741 Crs
4175 1749 Crs
4051 1452 Crs
3919 1660 Crs
3461 1508 Crs
3921 1630 Crs
4196 1955 Crs
3602 1569 Crs
3878 1521 Crs
3895 1539 Crs
4367 1931 Crs
3367 1177 Crs
4070 1903 Crs
4093 1771 Crs
3790 1551 Crs
3864 1332 Crs
3783 1575 Crs
4110 1573 Crs
3593 1340 Crs
3765 1615 Crs
3893 1635 Crs
4233 1531 Crs
3803 1555 Crs
3807 1685 Crs
3626 1712 Crs
3646 1467 Crs
4012 1778 Crs
3805 1828 Crs
3914 1518 Crs
3530 1010 Crs
4467 1752 Crs
3345 1432 Crs
3146 1570 Crs
3556 1656 Crs
4087 1476 Crs
2790 1354 Crs
3874 1547 Crs
4121 1450 Crs
3754 1210 Crs
3972 1607 Crs
3750 1340 Crs
4316 1491 Crs
3583 1652 Crs
3937 1420 Crs
4507 1480 Crs
3780 1331 Crs
4003 1623 Crs
4299 1504 Crs
4188 1596 Crs
3053 1721 Crs
4146 1496 Crs
3925 1524 Crs
3942 1597 Crs
3757 1231 Crs
4109 1700 Crs
3913 1412 Crs
4045 1292 Crs
3671 1731 Crs
3562 1852 Crs
3449 1450 Crs
4477 1615 Crs
3968 1461 Crs
2332 1202 Crs
3622 1781 Crs
3494 1683 Crs
3803 1528 Crs
3967 1071 Crs
3816 1703 Crs
4066 1864 Crs
3265 1706 Crs
3938 1547 Crs
4140 1396 Crs
4244 1620 Crs
4346 1598 Crs
3366 1679 Crs
3909 1448 Crs
3826 1832 Crs
3557 1531 Crs
2314 1451 Crs
4287 1593 Crs
3991 1654 Crs
3519 1956 Crs
3943 1526 Crs
3615 1541 Crs
3956 1352 Crs
4028 1431 Crs
3822 1339 Crs
3986 1914 Crs
4053 1700 Crs
3310 1066 Crs
4416 1487 Crs
3700 1829 Crs
3475 1955 Crs
4229 1309 Crs
4281 1969 Crs
4128 1566 Crs
4035 1483 Crs
3902 1681 Crs
3406 1445 Crs
3916 1728 Crs
3956 1707 Crs
3770 1464 Crs
4033 1394 Crs
4334 1444 Crs
4281 1304 Crs
3437 1485 Crs
2056 1461 Crs
3887 1371 Crs
4313 1713 Crs
3870 1780 Crs
3252 1547 Crs
3469 1941 Crs
4149 1416 Crs
3839 1500 Crs
3559 1727 Crs
3701 1622 Crs
4294 1619 Crs
3738 1560 Crs
3885 1533 Crs
3684 1382 Crs
3350 1718 Crs
3692 1823 Crs
3411 1471 Crs
4012 1757 Crs
2981 1724 Crs
4088 1730 Crs
3297 1314 Crs
3689 1497 Crs
3299 1609 Crs
3553 1976 Crs
3657 1737 Crs
4055 1429 Crs
3557 1605 Crs
4186 1515 Crs
4432 1724 Crs
3775 1534 Crs
3562 1361 Crs
4095 1212 Crs
4176 2025 Crs
3496 1966 Crs
4252 1579 Crs
4250 1611 Crs
3541 1674 Crs
3516 1481 Crs
4000 1692 Crs
4029 1668 Crs
3383 1606 Crs
4125 1700 Crs
4103 1776 Crs
3988 1537 Crs
4134 1788 Crs
2801 1473 Crs
4116 1770 Crs
2841 1708 Crs
3768 1679 Crs
4427 1360 Crs
3817 1869 Crs
3955 1593 Crs
3818 1369 Crs
4014 1495 Crs
3739 1670 Crs
4277 1462 Crs
3857 1555 Crs
3966 1825 Crs
3967 1682 Crs
4137 2056 Crs
3715 1477 Crs
4314 1938 Crs
4005 1566 Crs
4350 1594 Crs
3212 1384 Crs
4429 1480 Crs
4164 1366 Crs
3928 1577 Crs
4118 1525 Crs
3693 1547 Crs
3570 1414 Crs
3953 1623 Crs
3632 1608 Crs
4083 1002 Crs
3779 1524 Crs
4503 1654 Crs
4209 1643 Crs
3801 1526 Crs
4071 1524 Crs
3919 1710 Crs
3787 1811 Crs
4283 1835 Crs
4027 1283 Crs
3781 1809 Crs
4042 1683 Crs
4122 1404 Crs
3887 924 Crs
3134 2021 Crs
3980 1653 Crs
2672 1475 Crs
3769 1531 Crs
3749 1696 Crs
3801 1811 Crs
3954 1322 Crs
4036 1552 Crs
4000 1812 Crs
3884 1916 Crs
4184 2181 Crs
4031 1321 Crs
4024 1768 Crs
3126 1615 Crs
4421 1453 Crs
4005 1624 Crs
3354 1651 Crs
3790 1527 Crs
3915 1746 Crs
3865 1075 Crs
3236 1673 Crs
4129 1809 Crs
4022 1600 Crs
3617 1217 Crs
4141 1901 Crs
3591 965 Crs
4111 1556 Crs
3853 1517 Crs
3832 1720 Crs
4117 1653 Crs
4210 1906 Crs
3776 1544 Crs
3196 1713 Crs
3955 1415 Crs
3796 927 Crs
4679 1417 Crs
3638 1656 Crs
4070 1681 Crs
3933 1496 Crs
3613 1587 Crs
3638 1805 Crs
4160 1728 Crs
3438 1575 Crs
4273 1885 Crs
4130 1344 Crs
4047 1686 Crs
3724 1632 Crs
4093 1844 Crs
3936 1925 Crs
3963 1562 Crs
4088 1444 Crs
3993 1477 Crs
4445 1693 Crs
3959 1854 Crs
3495 1824 Crs
3779 1845 Crs
3825 1574 Crs
3734 1606 Crs
3641 1715 Crs
3581 1632 Crs
3385 1469 Crs
3069 1459 Crs
3927 1540 Crs
4056 1624 Crs
4264 1596 Crs
3870 1565 Crs
3485 1836 Crs
4040 1503 Crs
3525 1316 Crs
3827 1635 Crs
3704 1564 Crs
3470 1299 Crs
3973 1133 Crs
2832 1550 Crs
3563 1562 Crs
4052 1796 Crs
4199 1718 Crs
4103 1658 Crs
3032 1910 Crs
3858 1745 Crs
3106 1646 Crs
4055 1245 Crs
3728 1564 Crs
4163 1817 Crs
3777 1556 Crs
3221 1652 Crs
3788 1385 Crs
4011 1435 Crs
3843 1614 Crs
3231 1451 Crs
3550 1439 Crs
3334 1795 Crs
3532 1658 Crs
3686 1523 Crs
4094 1595 Crs
3763 1457 Crs
3490 1382 Crs
2643 1499 Crs
3182 1332 Crs
3930 1661 Crs
4053 1506 Crs
3957 1615 Crs
3863 1631 Crs
3862 1754 Crs
3643 1530 Crs
4166 1760 Crs
4493 1590 Crs
3530 1115 Crs
3349 1499 Crs
3990 1608 Crs
4314 1778 Crs
3949 1574 Crs
3955 1647 Crs
4143 1790 Crs
3763 1662 Crs
3709 1460 Crs
2647 1481 Crs
3873 1587 Crs
3292 1863 Crs
4268 1736 Crs
4082 1517 Crs
3829 1383 Crs
3631 1693 Crs
3496 1942 Crs
3653 1720 Crs
3848 1607 Crs
3061 1527 Crs
3673 1571 Crs
3043 1508 Crs
3941 1055 Crs
3373 1372 Crs
4054 1847 Crs
3948 1521 Crs
3838 1599 Crs
3895 1418 Crs
4037 1391 Crs
4316 1461 Crs
3539 1395 Crs
3901 1476 Crs
3578 1607 Crs
3876 1826 Crs
3704 1325 Crs
3786 1610 Crs
4120 1933 Crs
4054 1370 Crs
3585 1564 Crs
3429 1709 Crs
4190 1439 Crs
3771 1298 Crs
3878 1604 Crs
3550 1655 Crs
3301 1286 Crs
4375 1746 Crs
4165 1400 Crs
3539 1675 Crs
3690 1593 Crs
3337 1474 Crs
4087 1980 Crs
4326 1724 Crs
3996 1429 Crs
3910 1323 Crs
3998 1524 Crs
4168 1806 Crs
3765 1386 Crs
4180 2152 Crs
3969 1892 Crs
3898 1238 Crs
4072 1576 Crs
4035 1531 Crs
4561 1670 Crs
3964 1589 Crs
3863 1530 Crs
4091 1143 Crs
4039 1743 Crs
4223 1814 Crs
3649 1559 Crs
4127 1769 Crs
4037 1891 Crs
3984 1492 Crs
3465 1343 Crs
4208 1585 Crs
3922 1375 Crs
3437 1524 Crs
3721 1512 Crs
3633 1759 Crs
3615 1800 Crs
3650 1541 Crs
3098 1637 Crs
3825 1556 Crs
3907 1652 Crs
3780 1573 Crs
4256 1780 Crs
3952 1119 Crs
3472 1754 Crs
3858 1534 Crs
2563 1482 Crs
3523 1463 Crs
3763 1665 Crs
3654 1847 Crs
4098 1499 Crs
3735 1528 Crs
3707 2138 Crs
3810 1592 Crs
3838 1551 Crs
3634 1487 Crs
3760 1737 Crs
3986 1745 Crs
3883 1493 Crs
3783 1377 Crs
3615 1522 Crs
4119 1669 Crs
3770 1312 Crs
4026 1559 Crs
3313 1674 Crs
3421 1854 Crs
3873 1613 Crs
3879 1694 Crs
4059 1560 Crs
3597 1685 Crs
3874 1685 Crs
4262 1647 Crs
3797 1492 Crs
3885 1456 Crs
3613 1807 Crs
4220 1562 Crs
4062 1628 Crs
2794 1396 Crs
3773 968 Crs
2781 1873 Crs
3207 1469 Crs
3557 795 Crs
3565 1362 Crs
3914 1591 Crs
3583 1846 Crs
3534 1557 Crs
3975 1778 Crs
2788 1479 Crs
3740 1815 Crs
3624 1448 Crs
3747 1645 Crs
3519 1615 Crs
3654 1652 Crs
4305 1839 Crs
4009 1782 Crs
3961 1328 Crs
4206 1945 Crs
3924 1678 Crs
3873 1838 Crs
2904 1563 Crs
4041 1864 Crs
4005 1522 Crs
3663 1795 Crs
3901 1418 Crs
3875 1654 Crs
3918 1486 Crs
3422 1536 Crs
4088 1706 Crs
4094 1416 Crs
3688 1387 Crs
4024 1480 Crs
3662 1096 Crs
3876 1688 Crs
3937 1560 Crs
3325 1439 Crs
3968 1564 Crs
3244 1621 Crs
3802 1360 Crs
3668 1520 Crs
3368 1578 Crs
3914 1176 Crs
3623 1565 Crs
3263 1603 Crs
3966 1406 Crs
4224 1756 Crs
3809 1482 Crs
3789 1452 Crs
3058 1443 Crs
3712 1588 Crs
3981 1142 Crs
4104 1642 Crs
3344 1384 Crs
3786 1725 Crs
4388 1612 Crs
3640 1528 Crs
3988 1608 Crs
3871 1879 Crs
3243 1498 Crs
3946 1540 Crs
3069 1688 Crs
3780 1352 Crs
3452 1469 Crs
3706 1425 Crs
3325 1292 Crs
3714 1480 Crs
4095 1631 Crs
3945 1445 Crs
3456 1563 Crs
3943 1601 Crs
3476 1509 Crs
3589 1586 Crs
3621 1434 Crs
3703 1519 Crs
3058 1758 Crs
4144 1671 Crs
4002 1637 Crs
3960 1607 Crs
3461 1585 Crs
4101 1586 Crs
4212 1311 Crs
3856 1586 Crs
3617 1497 Crs
3833 1329 Crs
4129 1077 Crs
3669 1439 Crs
4162 1749 Crs
3759 1606 Crs
4097 1204 Crs
4217 1437 Crs
4187 1380 Crs
3363 1640 Crs
3844 1012 Crs
3362 1560 Crs
3701 1518 Crs
2966 1590 Crs
3579 1658 Crs
3943 1654 Crs
3823 1539 Crs
4093 1744 Crs
3958 1760 Crs
3778 1602 Crs
3831 1178 Crs
3416 1625 Crs
4162 1674 Crs
3872 1456 Crs
4297 1889 Crs
3647 1514 Crs
3952 1420 Crs
4264 1703 Crs
3424 1434 Crs
3480 1380 Crs
4266 1484 Crs
4119 1760 Crs
3962 1207 Crs
3909 1513 Crs
4295 1781 Crs
3953 1648 Crs
3400 1619 Crs
4128 1514 Crs
3743 1472 Crs
4223 1665 Crs
3182 1363 Crs
3925 1669 Crs
3637 1752 Crs
4119 1159 Crs
4295 1755 Crs
3649 1351 Crs
3637 1486 Crs
4257 1616 Crs
3339 1602 Crs
3633 1628 Crs
3854 1661 Crs
4144 1823 Crs
4268 1775 Crs
3869 1525 Crs
3931 1164 Crs
4026 1734 Crs
3929 1708 Crs
3863 1688 Crs
3237 1613 Crs
3945 1306 Crs
4039 1671 Crs
4155 1599 Crs
3371 1505 Crs
3801 1341 Crs
3538 1858 Crs
3695 1604 Crs
4247 1450 Crs
3669 1773 Crs
4034 1775 Crs
3924 2023 Crs
4031 1393 Crs
4078 1443 Crs
3897 1620 Crs
3449 1676 Crs
4257 1598 Crs
3949 1564 Crs
4329 1683 Crs
3164 1726 Crs
3976 1487 Crs
4205 1615 Crs
3947 1661 Crs
3447 1616 Crs
3348 1741 Crs
3868 1517 Crs
4181 1759 Crs
3884 1558 Crs
3550 1607 Crs
3647 1598 Crs
3568 1229 Crs
4055 1712 Crs
3177 1402 Crs
4078 1669 Crs
3133 1613 Crs
4067 1650 Crs
3259 798 Crs
3087 645 Crs
3347 1262 Crs
3126 1650 Crs
3293 1887 Crs
3969 1600 Crs
3081 1333 Crs
3704 1544 Crs
4023 1118 Crs
3374 1613 Crs
4108 1661 Crs
3331 1597 Crs
4063 1715 Crs
3336 1074 Crs
3951 1418 Crs
4240 1294 Crs
3947 1612 Crs
3427 1358 Crs
3933 1463 Crs
3847 1217 Crs
3981 1495 Crs
3796 1787 Crs
3741 1648 Crs
3885 1814 Crs
3868 1716 Crs
4495 1564 Crs
3466 1301 Crs
3997 1519 Crs
3949 1532 Crs
3759 1580 Crs
3628 1454 Crs
3942 1715 Crs
3842 1766 Crs
3590 1559 Crs
3190 1432 Crs
3704 1227 Crs
4201 1498 Crs
3937 1671 Crs
3693 1584 Crs
4112 1553 Crs
3871 1833 Crs
3953 1458 Crs
3934 1644 Crs
3728 1654 Crs
3766 1391 Crs
4498 1741 Crs
3573 1453 Crs
3939 1553 Crs
3461 1321 Crs
4006 1495 Crs
3485 1921 Crs
3685 1367 Crs
3633 1681 Crs
3934 1396 Crs
3981 1688 Crs
4443 1023 Crs
3781 1507 Crs
3827 1514 Crs
3619 1468 Crs
4290 1741 Crs
2875 1434 Crs
3462 1672 Crs
4083 1486 Crs
3713 1263 Crs
3667 1817 Crs
3322 1359 Crs
3534 1524 Crs
4122 1588 Crs
4583 1235 Crs
3062 1427 Crs
4082 1446 Crs
3894 1278 Crs
3849 1532 Crs
3728 1542 Crs
3674 1491 Crs
4062 1561 Crs
4324 1315 Crs
4147 1512 Crs
4052 1639 Crs
3194 1562 Crs
4574 1603 Crs
4174 1644 Crs
3909 1643 Crs
4019 1805 Crs
3905 1517 Crs
3740 1487 Crs
4147 1805 Crs
3069 1529 Crs
3789 1548 Crs
3261 1491 Crs
3403 1481 Crs
4101 1475 Crs
3834 1625 Crs
4309 1621 Crs
3795 1819 Crs
3435 1325 Crs
3978 1415 Crs
3965 1891 Crs
3848 1787 Crs
4114 1120 Crs
4090 1812 Crs
4103 1479 Crs
4309 1343 Crs
4380 1554 Crs
4147 1771 Crs
3111 1378 Crs
3494 1553 Crs
3519 1588 Crs
4142 1693 Crs
3855 1325 Crs
3967 1523 Crs
4097 1567 Crs
4608 1756 Crs
2876 1653 Crs
4264 1597 Crs
3177 1189 Crs
4679 1623 Crs
3611 1558 Crs
4057 1860 Crs
4021 1634 Crs
4235 1561 Crs
3879 1626 Crs
4091 1523 Crs
4094 1406 Crs
3661 1678 Crs
3918 901 Crs
3935 1630 Crs
3402 1173 Crs
2798 1382 Crs
3927 1587 Crs
3812 1437 Crs
4338 1620 Crs
4218 1565 Crs
3583 1698 Crs
3716 1439 Crs
3677 1887 Crs
3481 1788 Crs
4253 1862 Crs
4620 1627 Crs
4127 1578 Crs
4317 1580 Crs
3462 1301 Crs
4185 2124 Crs
3943 2018 Crs
3818 1736 Crs
4032 1467 Crs
3992 1378 Crs
3713 1675 Crs
4082 1799 Crs
3552 1718 Crs
3550 1552 Crs
3803 1383 Crs
3713 1601 Crs
3869 1636 Crs
3801 1463 Crs
3580 1589 Crs
3288 1656 Crs
4017 1245 Crs
3572 1732 Crs
3261 1680 Crs
4119 1720 Crs
3659 1515 Crs
3999 1594 Crs
4113 1589 Crs
2954 1573 Crs
4021 1736 Crs
3758 1641 Crs
2834 1496 Crs
4017 1893 Crs
3393 1500 Crs
3679 1612 Crs
4208 1575 Crs
4115 1511 Crs
4135 1473 Crs
4293 1464 Crs
3857 1389 Crs
3097 1733 Crs
3556 965 Crs
4180 1741 Crs
3847 1290 Crs
3575 1243 Crs
2941 1430 Crs
4038 1642 Crs
3711 1331 Crs
4390 1773 Crs
3469 986 Crs
4020 1647 Crs
4174 1862 Crs
3307 2110 Crs
3944 1495 Crs
3624 1440 Crs
3203 1543 Crs
4254 1589 Crs
3838 1771 Crs
3916 1493 Crs
4017 1726 Crs
4426 1663 Crs
3672 1444 Crs
3877 1569 Crs
4166 1915 Crs
3261 1462 Crs
4089 1047 Crs
4034 1662 Crs
3692 1479 Crs
2571 1497 Crs
4139 1507 Crs
4352 1577 Crs
4368 1608 Crs
4127 1631 Crs
4087 1716 Crs
3248 1829 Crs
4130 1468 Crs
3760 1711 Crs
3219 1624 Crs
3935 1539 Crs
3811 2009 Crs
3439 1564 Crs
4038 1531 Crs
4322 1355 Crs
3647 1644 Crs
3827 1582 Crs
3341 1617 Crs
3892 1671 Crs
3866 1478 Crs
4191 1650 Crs
4042 1542 Crs
3776 1124 Crs
3500 1502 Crs
3749 1260 Crs
3969 1510 Crs
2581 1612 Crs
3640 1520 Crs
3442 1611 Crs
3894 1544 Crs
4056 1523 Crs
2665 1589 Crs
3759 1345 Crs
3899 1527 Crs
3376 1509 Crs
4117 1882 Crs
4338 1803 Crs
4082 1486 Crs
4048 1623 Crs
3854 1522 Crs
4038 1472 Crs
3623 1573 Crs
4403 1658 Crs
3800 1125 Crs
4435 1599 Crs
3786 1615 Crs
3584 1495 Crs
3841 1839 Crs
3809 1733 Crs
3917 1703 Crs
3852 1487 Crs
2904 1405 Crs
3809 1548 Crs
3596 1675 Crs
4139 1454 Crs
3986 1523 Crs
4260 1551 Crs
3625 1658 Crs
3740 1688 Crs
3949 1597 Crs
3673 1662 Crs
3720 1440 Crs
3900 1686 Crs
3911 1603 Crs
3582 1606 Crs
3815 1423 Crs
3971 1721 Crs
3791 1498 Crs
3911 1272 Crs
3969 1443 Crs
3668 1489 Crs
4249 1655 Crs
4532 1830 Crs
4046 1464 Crs
4097 1760 Crs
4080 1766 Crs
4267 1703 Crs
4024 1543 Crs
3659 1702 Crs
4449 1517 Crs
3593 1323 Crs
3865 1857 Crs
3433 1602 Crs
3273 1557 Crs
3975 1617 Crs
3902 1505 Crs
4353 1321 Crs
3659 1895 Crs
4149 1639 Crs
4229 1519 Crs
4100 1608 Crs
3872 1599 Crs
3520 1653 Crs
3946 1624 Crs
4365 1721 Crs
3985 1732 Crs
3880 1521 Crs
4020 1617 Crs
3932 1381 Crs
3209 1420 Crs
4041 1701 Crs
3958 1387 Crs
3316 1413 Crs
4336 1607 Crs
4273 1804 Crs
3793 1377 Crs
4025 1816 Crs
3977 1495 Crs
3932 1793 Crs
3011 1677 Crs
4679 1743 Crs
3848 1437 Crs
3768 1743 Crs
4119 1504 Crs
3169 1488 Crs
3528 1657 Crs
3777 896 Crs
3906 1446 Crs
4242 1807 Crs
3444 1834 Crs
3476 1484 Crs
3900 1662 Crs
3740 1633 Crs
2959 1769 Crs
4160 2007 Crs
3935 1567 Crs
4227 1615 Crs
3494 1741 Crs
4065 1513 Crs
3633 1327 Crs
4195 1384 Crs
3957 1005 Crs
4113 1529 Crs
2711 1471 Crs
4138 1859 Crs
3872 1707 Crs
3821 1302 Crs
3794 1625 Crs
4161 1334 Crs
3645 1765 Crs
3688 1713 Crs
3487 1503 Crs
3844 1341 Crs
3953 980 Crs
3191 1656 Crs
3747 1548 Crs
3417 1408 Crs
3946 1474 Crs
3872 1281 Crs
2888 1569 Crs
3922 1463 Crs
3880 1382 Crs
3081 1704 Crs
3837 1428 Crs
4122 1336 Crs
4069 1360 Crs
3320 1598 Crs
4303 1583 Crs
3816 1712 Crs
4164 1645 Crs
2796 1385 Crs
4188 1590 Crs
3906 1631 Crs
3907 1296 Crs
3762 1436 Crs
3665 1257 Crs
3935 1518 Crs
3542 1716 Crs
4075 1451 Crs
3875 1588 Crs
4235 2074 Crs
3656 1705 Crs
4091 1648 Crs
3748 1768 Crs
4129 1688 Crs
3744 1506 Crs
3961 1753 Crs
3529 1601 Crs
3789 1489 Crs
4388 1478 Crs
1979 1269 Crs
4211 1676 Crs
3718 1736 Crs
3902 1595 Crs
3852 1542 Crs
4214 1152 Crs
3581 1305 Crs
4091 1690 Crs
2693 1670 Crs
4077 1607 Crs
3515 1445 Crs
3917 1542 Crs
4254 1633 Crs
3979 1603 Crs
3137 1427 Crs
2964 1475 Crs
4093 1512 Crs
3516 1732 Crs
4151 2052 Crs
3612 1709 Crs
4129 1595 Crs
4065 1631 Crs
4061 1750 Crs
4220 1573 Crs
3375 1564 Crs
3639 1730 Crs
3957 1557 Crs
3958 1410 Crs
3605 1606 Crs
4138 1573 Crs
3943 1447 Crs
3857 1886 Crs
3340 1465 Crs
4025 1463 Crs
3858 1497 Crs
4195 1692 Crs
4017 1606 Crs
3396 1329 Crs
3373 1779 Crs
3711 1683 Crs
4180 1468 Crs
3942 1542 Crs
4028 1325 Crs
4011 1396 Crs
3991 1572 Crs
4133 1752 Crs
3371 1536 Crs
4027 1604 Crs
4460 1691 Crs
4187 1594 Crs
3734 818 Crs
3393 1413 Crs
3727 1571 Crs
2979 2012 Crs
3921 1465 Crs
3995 1822 Crs
3890 1715 Crs
3912 1530 Crs
3310 1724 Crs
3375 1612 Crs
3550 1632 Crs
3847 1615 Crs
4110 1526 Crs
3734 1596 Crs
4064 1797 Crs
3410 1489 Crs
3476 1368 Crs
3787 1045 Crs
3906 1686 Crs
3233 1544 Crs
3788 1714 Crs
3266 1500 Crs
4019 1723 Crs
3500 1554 Crs
3873 1631 Crs
3733 1461 Crs
3894 1827 Crs
3490 1641 Crs
3906 1797 Crs
3701 1441 Crs
3975 1542 Crs
3264 1510 Crs
4024 1639 Crs
2029 1362 Crs
3376 1620 Crs
4006 1391 Crs
3434 1504 Crs
3892 940 Crs
3810 1524 Crs
3176 1679 Crs
3695 1877 Crs
4244 1421 Crs
4186 1369 Crs
4075 1525 Crs
3689 1358 Crs
3643 1774 Crs
3404 1581 Crs
3383 1488 Crs
3845 1482 Crs
3336 1578 Crs
4018 1586 Crs
2979 1801 Crs
3831 1474 Crs
3357 1373 Crs
3635 1523 Crs
3783 1757 Crs
3870 1639 Crs
3582 1392 Crs
3677 1452 Crs
3277 1681 Crs
4235 958 Crs
3282 1563 Crs
3793 1371 Crs
2910 1767 Crs
3638 1898 Crs
4276 1855 Crs
4313 1608 Crs
3511 1786 Crs
3967 1590 Crs
3542 1966 Crs
3933 1737 Crs
3303 1612 Crs
3880 1734 Crs
3371 1408 Crs
3659 1343 Crs
3708 1701 Crs
3363 1496 Crs
4078 1876 Crs
2625 1926 Crs
3770 1650 Crs
3995 1490 Crs
3788 1553 Crs
3462 1926 Crs
3264 1984 Crs
2322 1656 Crs
3996 1415 Crs
3719 1710 Crs
3923 1855 Crs
3838 1438 Crs
3892 1514 Crs
4078 1805 Crs
3531 2021 Crs
3634 1369 Crs
4034 1700 Crs
3413 1473 Crs
4053 1296 Crs
3928 1670 Crs
3813 1856 Crs
3586 1604 Crs
4401 1554 Crs
3964 1418 Crs
3698 1581 Crs
4160 1640 Crs
3300 1771 Crs
3380 1878 Crs
2274 1374 Crs
3218 1449 Crs
4339 1670 Crs
3086 1711 Crs
3932 1709 Crs
3745 1707 Crs
4162 1392 Crs
3893 1553 Crs
3681 1690 Crs
4202 1794 Crs
4168 1499 Crs
3924 1300 Crs
4255 1673 Crs
3368 1422 Crs
4243 1543 Crs
3970 1439 Crs
3778 1395 Crs
3555 1641 Crs
4072 1842 Crs
3309 1446 Crs
3381 1666 Crs
4373 1920 Crs
3825 1518 Crs
3761 1478 Crs
3980 1504 Crs
4316 1502 Crs
3841 1368 Crs
3635 1659 Crs
4044 1767 Crs
3860 1570 Crs
4111 1527 Crs
4035 1060 Crs
4033 1796 Crs
3728 1492 Crs
3987 1758 Crs
3744 1850 Crs
3104 1416 Crs
3828 1601 Crs
4156 1546 Crs
4030 1728 Crs
4037 1436 Crs
3978 1771 Crs
4022 1155 Crs
4240 1516 Crs
3781 1576 Crs
3038 1567 Crs
3695 1515 Crs
4025 1715 Crs
4201 1658 Crs
3778 1531 Crs
3581 1639 Crs
3736 1322 Crs
3827 1491 Crs
3907 1396 Crs
3909 1550 Crs
4001 1794 Crs
4295 1495 Crs
3636 1460 Crs
3546 1509 Crs
4175 1571 Crs
3117 1405 Crs
4454 1528 Crs
4018 1482 Crs
3942 1809 Crs
4300 1547 Crs
3929 1677 Crs
3001 1320 Crs
3771 1325 Crs
3556 1523 Crs
2379 1265 Crs
3764 1452 Crs
3554 1605 Crs
3567 1614 Crs
4198 1530 Crs
3726 1573 Crs
4314 1732 Crs
4207 1478 Crs
3343 1288 Crs
3468 876 Crs
3860 1512 Crs
3958 1510 Crs
4337 1315 Crs
3597 1548 Crs
3754 1480 Crs
4110 1557 Crs
4270 1779 Crs
3867 1518 Crs
3857 1323 Crs
4298 1617 Crs
3790 1309 Crs
3794 1566 Crs
3975 1639 Crs
4179 1457 Crs
3873 1517 Crs
3590 1681 Crs
3664 1426 Crs
3618 1772 Crs
3326 1469 Crs
4053 1511 Crs
3847 1520 Crs
4016 1470 Crs
3508 1627 Crs
4169 1622 Crs
3169 1435 Crs
3342 1614 Crs
3274 1597 Crs
3379 1673 Crs
3801 1896 Crs
3960 1591 Crs
3876 1593 Crs
3766 1889 Crs
3450 1707 Crs
3745 1600 Crs
3514 1631 Crs
4046 1603 Crs
4171 1571 Crs
4108 1594 Crs
4073 1555 Crs
3495 1694 Crs
3622 1742 Crs
3673 1662 Crs
4077 1322 Crs
3495 1235 Crs
3630 1732 Crs
4578 1587 Crs
3927 1033 Crs
4259 1638 Crs
3958 1536 Crs
3850 1683 Crs
3811 1535 Crs
3547 1663 Crs
3390 2054 Crs
4167 1546 Crs
3788 1666 Crs
4259 1516 Crs
2826 1656 Crs
3920 1951 Crs
3804 1347 Crs
3804 1579 Crs
2906 1415 Crs
3851 1706 Crs
3027 1323 Crs
4011 1597 Crs
3477 1557 Crs
3424 1087 Crs
3349 1747 Crs
3417 1941 Crs
4002 1486 Crs
4072 1568 Crs
4072 1421 Crs
4192 1465 Crs
3035 1650 Crs
3670 1752 Crs
3591 1413 Crs
3771 1856 Crs
3417 1495 Crs
4375 1746 Crs
3731 1408 Crs
3559 1455 Crs
3635 1390 Crs
4131 1532 Crs
3474 1578 Crs
4144 1525 Crs
3794 1580 Crs
4009 1547 Crs
3809 1566 Crs
3794 1522 Crs
3332 1516 Crs
3925 1570 Crs
4221 1482 Crs
3731 1748 Crs
3700 1109 Crs
3497 1924 Crs
3878 1541 Crs
3838 1711 Crs
4123 1515 Crs
4020 1718 Crs
3790 1481 Crs
3431 1676 Crs
3134 1817 Crs
3743 1849 Crs
4224 1658 Crs
3960 2033 Crs
3682 1558 Crs
4193 1791 Crs
3807 1581 Crs
3972 1203 Crs
3786 1617 Crs
3580 1703 Crs
3924 1653 Crs
3691 1425 Crs
3335 1697 Crs
3832 1288 Crs
4204 1556 Crs
3769 1478 Crs
3486 1523 Crs
3546 1538 Crs
3539 1883 Crs
4293 1793 Crs
4020 1417 Crs
3880 1671 Crs
4289 1775 Crs
3980 1768 Crs
3992 1537 Crs
3444 1622 Crs
3772 1824 Crs
4025 1456 Crs
4192 1623 Crs
4092 1635 Crs
3420 1642 Crs
4156 1464 Crs
3699 1351 Crs
3857 1812 Crs
3933 1642 Crs
3397 1533 Crs
4157 1679 Crs
3832 1614 Crs
3575 1884 Crs
3678 1291 Crs
3105 1215 Crs
4519 1496 Crs
4128 1819 Crs
4173 1594 Crs
3520 1398 Crs
3775 2048 Crs
3519 1482 Crs
3910 1486 Crs
3507 1381 Crs
4051 1400 Crs
4278 1685 Crs
3434 1361 Crs
3905 1601 Crs
4175 1496 Crs
4335 1713 Crs
4068 1799 Crs
3660 1641 Crs
4073 1491 Crs
3977 1605 Crs
4439 1588 Crs
3860 1503 Crs
4128 1704 Crs
4192 1434 Crs
3905 1468 Crs
4150 1419 Crs
3304 2036 Crs
3383 1761 Crs
3862 1631 Crs
4055 1817 Crs
3461 1581 Crs
4287 1800 Crs
4191 1500 Crs
3792 1668 Crs
4153 1646 Crs
3508 1799 Crs
4114 1498 Crs
3643 1963 Crs
3149 1212 Crs
3974 1614 Crs
3416 1796 Crs
4134 1813 Crs
3702 1558 Crs
3947 1449 Crs
3601 1680 Crs
4391 1524 Crs
3986 1675 Crs
3708 1353 Crs
4005 1748 Crs
3670 1620 Crs
4181 1774 Crs
3803 1509 Crs
4064 1757 Crs
3755 1582 Crs
3822 1591 Crs
4078 1541 Crs
3897 1716 Crs
3402 1790 Crs
3244 1310 Crs
4171 1416 Crs
4238 1179 Crs
3558 1667 Crs
4071 1648 Crs
3925 1250 Crs
3588 1539 Crs
3762 1384 Crs
4330 1482 Crs
2625 1291 Crs
3378 1812 Crs
3569 1445 Crs
3854 1726 Crs
3625 1842 Crs
3968 1741 Crs
4374 1785 Crs
3396 1752 Crs
3872 1734 Crs
3783 1742 Crs
3595 1343 Crs
3651 1622 Crs
3727 1645 Crs
4470 1171 Crs
3901 1697 Crs
3513 1770 Crs
4061 1540 Crs
4255 1694 Crs
3884 1664 Crs
2285 1671 Crs
3512 1942 Crs
3875 1928 Crs
4000 1819 Crs
3985 1633 Crs
4009 1501 Crs
4019 1700 Crs
3964 1594 Crs
4242 1597 Crs
3856 1556 Crs
4142 1520 Crs
3551 1681 Crs
3920 1581 Crs
3197 1588 Crs
3418 1400 Crs
4029 1594 Crs
3987 1678 Crs
4165 1625 Crs
3496 1442 Crs
3927 1836 Crs
3866 1574 Crs
3509 1948 Crs
3222 1461 Crs
3636 2018 Crs
4260 1182 Crs
3634 1633 Crs
3833 1771 Crs
3701 1421 Crs
3457 1490 Crs
3526 1481 Crs
3988 1719 Crs
3685 1641 Crs
3846 1105 Crs
3947 1581 Crs
3160 1536 Crs
3764 1656 Crs
4075 1531 Crs
3492 1506 Crs
4168 1438 Crs
4110 1937 Crs
3555 1783 Crs
3694 1696 Crs
4129 1752 Crs
4037 1497 Crs
4376 1352 Crs
3935 1705 Crs
3996 1532 Crs
4056 1668 Crs
4229 1543 Crs
3710 1511 Crs
3948 1571 Crs
3960 1334 Crs
3016 1474 Crs
4257 1727 Crs
3718 1494 Crs
3725 1522 Crs
4481 1461 Crs
3929 1555 Crs
3910 1601 Crs
4008 1713 Crs
3969 1476 Crs
3484 1392 Crs
3934 1331 Crs
3989 1871 Crs
4275 1548 Crs
3225 1455 Crs
3578 1620 Crs
4198 1687 Crs
3666 1670 Crs
4155 1060 Crs
3548 1747 Crs
3977 1536 Crs
4311 1715 Crs
3530 1614 Crs
3346 1671 Crs
2986 1710 Crs
3823 1261 Crs
3873 1570 Crs
4070 1882 Crs
4003 1640 Crs
3559 1706 Crs
3496 1403 Crs
3806 1770 Crs
3759 1352 Crs
3701 1462 Crs
4052 1605 Crs
3983 1246 Crs
3703 1436 Crs
4118 1734 Crs
3930 1643 Crs
4184 1603 Crs
3853 1602 Crs
4167 1582 Crs
3962 1813 Crs
4175 1226 Crs
3219 1448 Crs
3320 1687 Crs
4379 1530 Crs
3865 1365 Crs
4679 1630 Crs
4038 1709 Crs
4180 1891 Crs
3982 1560 Crs
4086 1615 Crs
3928 1642 Crs
3587 1564 Crs
3788 1312 Crs
4031 1634 Crs
4092 1665 Crs
3842 1737 Crs
3905 1736 Crs
4219 1750 Crs
2350 1259 Crs
2930 1501 Crs
3966 1765 Crs
4034 1566 Crs
3841 1356 Crs
4213 1410 Crs
4023 1599 Crs
3029 1150 Crs
4224 1529 Crs
4215 1439 Crs
3812 2071 Crs
4085 1220 Crs
3811 1406 Crs
3745 1359 Crs
3835 1872 Crs
3370 1727 Crs
3618 1114 Crs
4678 1624 Crs
4070 1304 Crs
4196 1302 Crs
3781 1576 Crs
4133 1511 Crs
4070 1531 Crs
3617 1631 Crs
3445 1441 Crs
3458 1869 Crs
3991 1623 Crs
3338 1441 Crs
4261 1536 Crs
4183 1596 Crs
3514 1355 Crs
4016 1462 Crs
4162 1479 Crs
3624 1624 Crs
4046 1648 Crs
3930 1769 Crs
3424 1661 Crs
4060 1706 Crs
3879 1387 Crs
4188 989 Crs
4035 1381 Crs
3949 1734 Crs
3816 1351 Crs
3376 1580 Crs
3617 1555 Crs
3699 1502 Crs
3045 1791 Crs
4046 1128 Crs
4348 1584 Crs
3287 1344 Crs
3962 1629 Crs
4026 1438 Crs
3810 1606 Crs
4026 1704 Crs
3854 1916 Crs
3961 1352 Crs
3628 1521 Crs
3706 1512 Crs
3867 1365 Crs
3784 1684 Crs
3790 1622 Crs
2815 1406 Crs
4074 1607 Crs
3723 1760 Crs
4501 1701 Crs
3893 1663 Crs
4050 1102 Crs
3403 1373 Crs
3768 1441 Crs
4029 1231 Crs
3214 1764 Crs
2784 1415 Crs
3717 1568 Crs
3826 903 Crs
3875 1489 Crs
3877 1385 Crs
3749 1494 Crs
3665 1829 Crs
3540 1830 Crs
4344 1500 Crs
4130 1816 Crs
4679 1667 Crs
3862 1445 Crs
4298 1474 Crs
3556 1484 Crs
3684 1554 Crs
3668 1747 Crs
4171 1630 Crs
3568 1650 Crs
3765 1685 Crs
3903 1525 Crs
3309 1654 Crs
3516 1786 Crs
3456 1356 Crs
3540 1471 Crs
3969 1633 Crs
3934 1555 Crs
3861 1798 Crs
4031 1490 Crs
4034 1205 Crs
3089 1591 Crs
2999 1498 Crs
4410 1810 Crs
3943 1652 Crs
3467 1475 Crs
4152 1733 Crs
3668 839 Crs
4113 1231 Crs
3816 1525 Crs
4018 1513 Crs
3882 1576 Crs
3412 1537 Crs
4007 1349 Crs
3820 1449 Crs
3921 1477 Crs
3097 1635 Crs
4087 1913 Crs
3994 1538 Crs
2994 1755 Crs
3818 939 Crs
3867 1544 Crs
3116 855 Crs
4259 1415 Crs
3761 1662 Crs
3655 1777 Crs
4006 1342 Crs
3705 1489 Crs
3403 1437 Crs
3977 1464 Crs
4222 1451 Crs
3873 1894 Crs
3705 1564 Crs
4040 1857 Crs
4342 1560 Crs
3091 1489 Crs
3336 994 Crs
3954 1741 Crs
2868 1613 Crs
3502 1669 Crs
2951 1444 Crs
3383 2029 Crs
3953 1398 Crs
4416 1595 Crs
4006 1546 Crs
4057 1632 Crs
3843 1394 Crs
3991 1587 Crs
3881 1483 Crs
3720 1387 Crs
3866 1459 Crs
3964 1349 Crs
3993 1523 Crs
3927 1371 Crs
3650 1785 Crs
4620 1615 Crs
4190 1637 Crs
4139 1451 Crs
3856 1850 Crs
4094 1385 Crs
4014 1573 Crs
4201 1719 Crs
3625 1612 Crs
3087 1743 Crs
4095 1576 Crs
2964 1987 Crs
3892 1467 Crs
3720 1450 Crs
4091 1779 Crs
3474 1629 Crs
4324 1489 Crs
3717 1044 Crs
3569 1524 Crs
3163 1277 Crs
4368 1706 Crs
4149 1442 Crs
3151 1868 Crs
4431 1525 Crs
3942 1824 Crs
3594 1666 Crs
3472 1554 Crs
4291 1401 Crs
3690 1583 Crs
3104 1521 Crs
4089 1536 Crs
3432 1571 Crs
3085 1506 Crs
4003 1669 Crs
2915 1469 Crs
4111 1449 Crs
3825 1540 Crs
3044 1344 Crs
4081 1783 Crs
3121 1589 Crs
3816 1575 Crs
4161 1899 Crs
3566 1786 Crs
3375 1615 Crs
3996 1449 Crs
4211 2103 Crs
4061 1661 Crs
2506 1458 Crs
3686 1596 Crs
3402 1772 Crs
3867 1483 Crs
3886 1614 Crs
3717 1579 Crs
3817 1702 Crs
3741 1522 Crs
3852 1118 Crs
3553 1386 Crs
3671 1461 Crs
3861 1287 Crs
3635 1995 Crs
4268 1565 Crs
3241 1608 Crs
3403 1487 Crs
3733 1727 Crs
3616 1942 Crs
4183 1317 Crs
3967 1881 Crs
4232 1449 Crs
4102 1435 Crs
4350 1576 Crs
4034 1590 Crs
3716 1480 Crs
3885 1858 Crs
3594 1324 Crs
3837 1868 Crs
3455 996 Crs
3993 1485 Crs
3812 1388 Crs
3697 1490 Crs
4000 1876 Crs
3265 1548 Crs
4089 1440 Crs
3698 1702 Crs
3940 1385 Crs
4014 1529 Crs
2984 1495 Crs
4163 969 Crs
3618 1921 Crs
3750 1801 Crs
3848 1777 Crs
3742 1416 Crs
4008 1735 Crs
3978 1623 Crs
3373 1653 Crs
3658 1676 Crs
3924 1707 Crs
2528 1500 Crs
4089 1437 Crs
4042 1491 Crs
3486 1837 Crs
2594 1471 Crs
3785 1261 Crs
4121 1659 Crs
3948 1709 Crs
3970 1316 Crs
2761 1553 Crs
3796 1533 Crs
4147 1594 Crs
3917 1715 Crs
3714 1396 Crs
4271 1637 Crs
3327 1637 Crs
3748 1645 Crs
4156 1940 Crs
3434 1475 Crs
4445 1494 Crs
3810 1637 Crs
4174 1686 Crs
3912 1579 Crs
3971 1851 Crs
3570 1625 Crs
4193 1869 Crs
4214 1679 Crs
3827 1354 Crs
4151 1511 Crs
3765 1569 Crs
4213 1861 Crs
3957 1637 Crs
4010 1657 Crs
4173 1680 Crs
3820 1524 Crs
3964 1495 Crs
3935 937 Crs
3125 1509 Crs
4528 1699 Crs
4141 1572 Crs
4285 1802 Crs
3075 1687 Crs
3915 1739 Crs
4218 1842 Crs
4026 1579 Crs
4101 1923 Crs
4513 1604 Crs
3348 1532 Crs
3451 1464 Crs
3947 1788 Crs
4069 1546 Crs
3839 1386 Crs
3899 1504 Crs
3349 1721 Crs
3475 1743 Crs
3623 1521 Crs
4121 1816 Crs
3124 1372 Crs
4041 1452 Crs
3064 1477 Crs
2085 1394 Crs
3537 1978 Crs
3907 1888 Crs
3546 1453 Crs
4102 1703 Crs
3258 1763 Crs
3803 1527 Crs
3888 1662 Crs
3898 1401 Crs
3472 1571 Crs
2798 1320 Crs
3538 1166 Crs
3354 1624 Crs
4026 1745 Crs
3952 1606 Crs
3824 1449 Crs
3892 1471 Crs
3452 1645 Crs
3451 1533 Crs
3882 1443 Crs
4156 1601 Crs
3314 1639 Crs
3768 1672 Crs
4091 1379 Crs
3907 1688 Crs
3898 1751 Crs
4111 1398 Crs
4317 1572 Crs
4027 1489 Crs
3656 1526 Crs
4054 1453 Crs
4301 1236 Crs
4019 1491 Crs
3273 1677 Crs
3138 1989 Crs
3979 1913 Crs
3752 1802 Crs
4048 1592 Crs
3867 1493 Crs
3554 1487 Crs
3852 1743 Crs
3533 1803 Crs
3449 1793 Crs
3519 1400 Crs
4163 1735 Crs
3692 1738 Crs
3549 1688 Crs
3826 1707 Crs
3675 1547 Crs
3960 1762 Crs
3536 1749 Crs
3942 1753 Crs
3965 1582 Crs
4127 1641 Crs
4120 1677 Crs
4093 1527 Crs
4169 1756 Crs
3175 1623 Crs
3843 1771 Crs
3910 1586 Crs
3465 1280 Crs
4484 1601 Crs
3933 1515 Crs
4155 1649 Crs
4010 1427 Crs
3658 1520 Crs
3842 1490 Crs
3762 1548 Crs
4019 1864 Crs
4068 1827 Crs
3042 1247 Crs
4069 1733 Crs
4009 1708 Crs
3903 1343 Crs
3600 1117 Crs
3400 1716 Crs
3764 1505 Crs
3947 1342 Crs
4145 1444 Crs
4016 1644 Crs
3223 1643 Crs
3989 1511 Crs
3878 1416 Crs
4067 1548 Crs
3988 1600 Crs
3875 940 Crs
3838 1324 Crs
4424 1631 Crs
3896 1758 Crs
4079 1838 Crs
3998 1515 Crs
4044 1714 Crs
4424 1645 Crs
3646 1692 Crs
4025 1496 Crs
3525 1534 Crs
4234 1475 Crs
3515 1790 Crs
3327 1538 Crs
4245 1465 Crs
3705 1684 Crs
3055 1785 Crs
3338 1678 Crs
3998 1610 Crs
4080 1634 Crs
4473 1560 Crs
4023 1548 Crs
3395 1800 Crs
4194 1928 Crs
4061 1447 Crs
4129 1462 Crs
3839 1787 Crs
3677 1258 Crs
3609 1004 Crs
3357 1685 Crs
4040 1578 Crs
3836 1879 Crs
3480 1623 Crs
3945 1732 Crs
3721 1636 Crs
4476 1730 Crs
3763 1809 Crs
2591 1369 Crs
3864 1584 Crs
3750 1417 Crs
3386 1655 Crs
4065 1416 Crs
4156 1824 Crs
3970 1543 Crs
3636 1580 Crs
3800 1927 Crs
3649 1567 Crs
4432 1605 Crs
3145 1610 Crs
3374 1497 Crs
3744 1598 Crs
4049 1466 Crs
4023 1427 Crs
3819 1550 Crs
3953 1790 Crs
4497 1418 Crs
4058 1750 Crs
3291 1551 Crs
3943 1351 Crs
3728 1580 Crs
3564 1280 Crs
3816 1404 Crs
2969 1320 Crs
4041 1490 Crs
4345 1376 Crs
3832 1486 Crs
3678 1075 Crs
4437 1665 Crs
4119 1654 Crs
3836 1420 Crs
3532 1659 Crs
3707 1597 Crs
3065 1877 Crs
3333 1556 Crs
3614 1568 Crs
3302 1567 Crs
4239 1519 Crs
3756 1826 Crs
3521 1496 Crs
3640 1894 Crs
3347 1403 Crs
4138 1764 Crs
3985 1291 Crs
3434 1699 Crs
3932 1775 Crs
3920 1749 Crs
4232 1105 Crs
3447 1651 Crs
3744 1620 Crs
3774 1472 Crs
3813 1530 Crs
3912 1649 Crs
3628 1576 Crs
3628 1786 Crs
4046 1381 Crs
4218 1542 Crs
3820 1500 Crs
3007 1494 Crs
3470 1330 Crs
3949 1693 Crs
3893 1808 Crs
4025 1645 Crs
4028 1842 Crs
4029 1478 Crs
3864 1693 Crs
3113 1505 Crs
3191 1506 Crs
3553 1531 Crs
3909 1531 Crs
3110 1576 Crs
3457 1398 Crs
4100 1741 Crs
3843 1070 Crs
3798 1357 Crs
4361 1819 Crs
2571 1538 Crs
3730 1519 Crs
4016 1779 Crs
3408 1426 Crs
3941 1775 Crs
3338 1873 Crs
3247 1546 Crs
3973 1637 Crs
4101 1402 Crs
3998 1757 Crs
4138 1563 Crs
3284 1534 Crs
4332 1719 Crs
4238 1697 Crs
3121 1358 Crs
4114 1404 Crs
3653 1922 Crs
4217 1605 Crs
3626 1490 Crs
4315 1563 Crs
3373 1665 Crs
3659 1602 Crs
3470 1670 Crs
3734 1600 Crs
3889 1756 Crs
3917 1485 Crs
4153 1894 Crs
3575 1439 Crs
4055 1573 Crs
4058 1670 Crs
4165 1484 Crs
3519 1447 Crs
3996 1613 Crs
3442 1640 Crs
3990 1493 Crs
3460 1649 Crs
3156 1526 Crs
3913 1656 Crs
3285 1482 Crs
3490 1256 Crs
4083 1487 Crs
4026 1589 Crs
3744 1774 Crs
3994 1871 Crs
3597 1667 Crs
3594 1810 Crs
4036 1784 Crs
3386 1499 Crs
3829 1571 Crs
4387 1113 Crs
3814 1497 Crs
4102 1527 Crs
3859 1432 Crs
3923 1785 Crs
4051 1416 Crs
3693 1817 Crs
4057 1586 Crs
3999 1860 Crs
4077 1512 Crs
4174 1423 Crs
2733 1914 Crs
3207 1390 Crs
3995 1370 Crs
3956 1666 Crs
3054 1604 Crs
3298 1675 Crs
3874 1606 Crs
3444 1771 Crs
% End plot #2
% Begin plot #3
1.000 UL
LTb
LT1
0.75 0.75 0.75 C 1230 920 M
35 27 V
35 26 V
35 26 V
35 27 V
35 26 V
34 27 V
35 26 V
35 26 V
35 27 V
35 26 V
35 26 V
34 27 V
35 26 V
35 27 V
35 26 V
35 26 V
35 27 V
34 26 V
35 26 V
35 27 V
35 26 V
35 27 V
35 26 V
34 26 V
35 27 V
35 26 V
35 26 V
35 27 V
35 26 V
34 26 V
35 27 V
35 26 V
35 27 V
35 26 V
35 26 V
34 27 V
35 26 V
35 26 V
35 27 V
35 26 V
35 27 V
34 26 V
35 26 V
35 27 V
35 26 V
35 26 V
35 27 V
34 26 V
35 27 V
35 26 V
35 26 V
35 27 V
35 26 V
34 26 V
35 27 V
35 26 V
35 26 V
35 27 V
35 26 V
34 27 V
35 26 V
35 26 V
35 27 V
35 26 V
35 26 V
34 27 V
35 26 V
35 27 V
35 26 V
35 26 V
35 27 V
34 26 V
35 26 V
35 27 V
35 26 V
35 26 V
35 27 V
34 26 V
35 27 V
35 26 V
35 26 V
35 27 V
35 26 V
34 26 V
35 27 V
35 26 V
35 27 V
35 26 V
35 26 V
34 27 V
35 26 V
35 26 V
35 27 V
35 26 V
35 27 V
34 26 V
35 26 V
35 27 V
35 26 V
% End plot #3
stroke
2.000 UL
LTb
LCb setrgbcolor
1.000 UL
LTb
LCb setrgbcolor
860 3531 N
860 640 L
3819 0 V
0 2891 V
-3819 0 V
Z stroke
0.500 UP
1.000 UL
LTb
LCb setrgbcolor
stroke
grestore
end
showpage
%%Trailer
%%DocumentFonts: Helvetica
