%!PS-Adobe-2.0 EPSF-2.0
%%Title: max.eps
%%Creator: gnuplot 5.0 patchlevel 1
%%CreationDate: Fri Oct 30 18:57:08 2015
%%DocumentFonts: (atend)
%%BoundingBox: 50 50 302 238
%%EndComments
%%BeginProlog
/gnudict 256 dict def
gnudict begin
%
% The following true/false flags may be edited by hand if desired.
% The unit line width and grayscale image gamma correction may also be changed.
%
/Color true def
/Blacktext false def
/Solid false def
/Dashlength 1 def
/Landscape false def
/Level1 false def
/Level3 false def
/Rounded false def
/ClipToBoundingBox false def
/SuppressPDFMark false def
/TransparentPatterns false def
/gnulinewidth 5.000 def
/userlinewidth gnulinewidth def
/Gamma 1.0 def
/BackgroundColor {-1.000 -1.000 -1.000} def
%
/vshift -66 def
/dl1 {
  10.0 Dashlength userlinewidth gnulinewidth div mul mul mul
  Rounded { currentlinewidth 0.75 mul sub dup 0 le { pop 0.01 } if } if
} def
/dl2 {
  10.0 Dashlength userlinewidth gnulinewidth div mul mul mul
  Rounded { currentlinewidth 0.75 mul add } if
} def
/hpt_ 31.5 def
/vpt_ 31.5 def
/hpt hpt_ def
/vpt vpt_ def
/doclip {
  ClipToBoundingBox {
    newpath 50 50 moveto 302 50 lineto 302 238 lineto 50 238 lineto closepath
    clip
  } if
} def
%
% Gnuplot Prolog Version 5.0 (Dec 2014)
%
%/SuppressPDFMark true def
%
/M {moveto} bind def
/L {lineto} bind def
/R {rmoveto} bind def
/V {rlineto} bind def
/N {newpath moveto} bind def
/Z {closepath} bind def
/C {setrgbcolor} bind def
/f {rlineto fill} bind def
/g {setgray} bind def
/Gshow {show} def   % May be redefined later in the file to support UTF-8
/vpt2 vpt 2 mul def
/hpt2 hpt 2 mul def
/Lshow {currentpoint stroke M 0 vshift R 
	Blacktext {gsave 0 setgray textshow grestore} {textshow} ifelse} def
/Rshow {currentpoint stroke M dup stringwidth pop neg vshift R
	Blacktext {gsave 0 setgray textshow grestore} {textshow} ifelse} def
/Cshow {currentpoint stroke M dup stringwidth pop -2 div vshift R 
	Blacktext {gsave 0 setgray textshow grestore} {textshow} ifelse} def
/UP {dup vpt_ mul /vpt exch def hpt_ mul /hpt exch def
  /hpt2 hpt 2 mul def /vpt2 vpt 2 mul def} def
/DL {Color {setrgbcolor Solid {pop []} if 0 setdash}
 {pop pop pop 0 setgray Solid {pop []} if 0 setdash} ifelse} def
/BL {stroke userlinewidth 2 mul setlinewidth
	Rounded {1 setlinejoin 1 setlinecap} if} def
/AL {stroke userlinewidth 2 div setlinewidth
	Rounded {1 setlinejoin 1 setlinecap} if} def
/UL {dup gnulinewidth mul /userlinewidth exch def
	dup 1 lt {pop 1} if 10 mul /udl exch def} def
/PL {stroke userlinewidth setlinewidth
	Rounded {1 setlinejoin 1 setlinecap} if} def
3.8 setmiterlimit
% Classic Line colors (version 5.0)
/LCw {1 1 1} def
/LCb {0 0 0} def
/LCa {0 0 0} def
/LC0 {1 0 0} def
/LC1 {0 1 0} def
/LC2 {0 0 1} def
/LC3 {1 0 1} def
/LC4 {0 1 1} def
/LC5 {1 1 0} def
/LC6 {0 0 0} def
/LC7 {1 0.3 0} def
/LC8 {0.5 0.5 0.5} def
% Default dash patterns (version 5.0)
/LTw {PL [] 1 setgray} def
/LTb {BL [] LCb DL} def
/LTa {AL [1 udl mul 2 udl mul] 0 setdash LCa setrgbcolor} def
/LT0 {PL [] LC0 DL} def
/LT1 {PL [2 dl1 3 dl2] LC1 DL} def
/LT2 {PL [1 dl1 1.5 dl2] LC2 DL} def
/LT3 {PL [6 dl1 2 dl2 1 dl1 2 dl2] LC3 DL} def
/LT4 {PL [1 dl1 2 dl2 6 dl1 2 dl2 1 dl1 2 dl2] LC4 DL} def
/LT5 {PL [4 dl1 2 dl2] LC5 DL} def
/LT6 {PL [1.5 dl1 1.5 dl2 1.5 dl1 1.5 dl2 1.5 dl1 6 dl2] LC6 DL} def
/LT7 {PL [3 dl1 3 dl2 1 dl1 3 dl2] LC7 DL} def
/LT8 {PL [2 dl1 2 dl2 2 dl1 6 dl2] LC8 DL} def
/SL {[] 0 setdash} def
/Pnt {stroke [] 0 setdash gsave 1 setlinecap M 0 0 V stroke grestore} def
/Dia {stroke [] 0 setdash 2 copy vpt add M
  hpt neg vpt neg V hpt vpt neg V
  hpt vpt V hpt neg vpt V closepath stroke
  Pnt} def
/Pls {stroke [] 0 setdash vpt sub M 0 vpt2 V
  currentpoint stroke M
  hpt neg vpt neg R hpt2 0 V stroke
 } def
/Box {stroke [] 0 setdash 2 copy exch hpt sub exch vpt add M
  0 vpt2 neg V hpt2 0 V 0 vpt2 V
  hpt2 neg 0 V closepath stroke
  Pnt} def
/Crs {stroke [] 0 setdash exch hpt sub exch vpt add M
  hpt2 vpt2 neg V currentpoint stroke M
  hpt2 neg 0 R hpt2 vpt2 V stroke} def
/TriU {stroke [] 0 setdash 2 copy vpt 1.12 mul add M
  hpt neg vpt -1.62 mul V
  hpt 2 mul 0 V
  hpt neg vpt 1.62 mul V closepath stroke
  Pnt} def
/Star {2 copy Pls Crs} def
/BoxF {stroke [] 0 setdash exch hpt sub exch vpt add M
  0 vpt2 neg V hpt2 0 V 0 vpt2 V
  hpt2 neg 0 V closepath fill} def
/TriUF {stroke [] 0 setdash vpt 1.12 mul add M
  hpt neg vpt -1.62 mul V
  hpt 2 mul 0 V
  hpt neg vpt 1.62 mul V closepath fill} def
/TriD {stroke [] 0 setdash 2 copy vpt 1.12 mul sub M
  hpt neg vpt 1.62 mul V
  hpt 2 mul 0 V
  hpt neg vpt -1.62 mul V closepath stroke
  Pnt} def
/TriDF {stroke [] 0 setdash vpt 1.12 mul sub M
  hpt neg vpt 1.62 mul V
  hpt 2 mul 0 V
  hpt neg vpt -1.62 mul V closepath fill} def
/DiaF {stroke [] 0 setdash vpt add M
  hpt neg vpt neg V hpt vpt neg V
  hpt vpt V hpt neg vpt V closepath fill} def
/Pent {stroke [] 0 setdash 2 copy gsave
  translate 0 hpt M 4 {72 rotate 0 hpt L} repeat
  closepath stroke grestore Pnt} def
/PentF {stroke [] 0 setdash gsave
  translate 0 hpt M 4 {72 rotate 0 hpt L} repeat
  closepath fill grestore} def
/Circle {stroke [] 0 setdash 2 copy
  hpt 0 360 arc stroke Pnt} def
/CircleF {stroke [] 0 setdash hpt 0 360 arc fill} def
/C0 {BL [] 0 setdash 2 copy moveto vpt 90 450 arc} bind def
/C1 {BL [] 0 setdash 2 copy moveto
	2 copy vpt 0 90 arc closepath fill
	vpt 0 360 arc closepath} bind def
/C2 {BL [] 0 setdash 2 copy moveto
	2 copy vpt 90 180 arc closepath fill
	vpt 0 360 arc closepath} bind def
/C3 {BL [] 0 setdash 2 copy moveto
	2 copy vpt 0 180 arc closepath fill
	vpt 0 360 arc closepath} bind def
/C4 {BL [] 0 setdash 2 copy moveto
	2 copy vpt 180 270 arc closepath fill
	vpt 0 360 arc closepath} bind def
/C5 {BL [] 0 setdash 2 copy moveto
	2 copy vpt 0 90 arc
	2 copy moveto
	2 copy vpt 180 270 arc closepath fill
	vpt 0 360 arc} bind def
/C6 {BL [] 0 setdash 2 copy moveto
	2 copy vpt 90 270 arc closepath fill
	vpt 0 360 arc closepath} bind def
/C7 {BL [] 0 setdash 2 copy moveto
	2 copy vpt 0 270 arc closepath fill
	vpt 0 360 arc closepath} bind def
/C8 {BL [] 0 setdash 2 copy moveto
	2 copy vpt 270 360 arc closepath fill
	vpt 0 360 arc closepath} bind def
/C9 {BL [] 0 setdash 2 copy moveto
	2 copy vpt 270 450 arc closepath fill
	vpt 0 360 arc closepath} bind def
/C10 {BL [] 0 setdash 2 copy 2 copy moveto vpt 270 360 arc closepath fill
	2 copy moveto
	2 copy vpt 90 180 arc closepath fill
	vpt 0 360 arc closepath} bind def
/C11 {BL [] 0 setdash 2 copy moveto
	2 copy vpt 0 180 arc closepath fill
	2 copy moveto
	2 copy vpt 270 360 arc closepath fill
	vpt 0 360 arc closepath} bind def
/C12 {BL [] 0 setdash 2 copy moveto
	2 copy vpt 180 360 arc closepath fill
	vpt 0 360 arc closepath} bind def
/C13 {BL [] 0 setdash 2 copy moveto
	2 copy vpt 0 90 arc closepath fill
	2 copy moveto
	2 copy vpt 180 360 arc closepath fill
	vpt 0 360 arc closepath} bind def
/C14 {BL [] 0 setdash 2 copy moveto
	2 copy vpt 90 360 arc closepath fill
	vpt 0 360 arc} bind def
/C15 {BL [] 0 setdash 2 copy vpt 0 360 arc closepath fill
	vpt 0 360 arc closepath} bind def
/Rec {newpath 4 2 roll moveto 1 index 0 rlineto 0 exch rlineto
	neg 0 rlineto closepath} bind def
/Square {dup Rec} bind def
/Bsquare {vpt sub exch vpt sub exch vpt2 Square} bind def
/S0 {BL [] 0 setdash 2 copy moveto 0 vpt rlineto BL Bsquare} bind def
/S1 {BL [] 0 setdash 2 copy vpt Square fill Bsquare} bind def
/S2 {BL [] 0 setdash 2 copy exch vpt sub exch vpt Square fill Bsquare} bind def
/S3 {BL [] 0 setdash 2 copy exch vpt sub exch vpt2 vpt Rec fill Bsquare} bind def
/S4 {BL [] 0 setdash 2 copy exch vpt sub exch vpt sub vpt Square fill Bsquare} bind def
/S5 {BL [] 0 setdash 2 copy 2 copy vpt Square fill
	exch vpt sub exch vpt sub vpt Square fill Bsquare} bind def
/S6 {BL [] 0 setdash 2 copy exch vpt sub exch vpt sub vpt vpt2 Rec fill Bsquare} bind def
/S7 {BL [] 0 setdash 2 copy exch vpt sub exch vpt sub vpt vpt2 Rec fill
	2 copy vpt Square fill Bsquare} bind def
/S8 {BL [] 0 setdash 2 copy vpt sub vpt Square fill Bsquare} bind def
/S9 {BL [] 0 setdash 2 copy vpt sub vpt vpt2 Rec fill Bsquare} bind def
/S10 {BL [] 0 setdash 2 copy vpt sub vpt Square fill 2 copy exch vpt sub exch vpt Square fill
	Bsquare} bind def
/S11 {BL [] 0 setdash 2 copy vpt sub vpt Square fill 2 copy exch vpt sub exch vpt2 vpt Rec fill
	Bsquare} bind def
/S12 {BL [] 0 setdash 2 copy exch vpt sub exch vpt sub vpt2 vpt Rec fill Bsquare} bind def
/S13 {BL [] 0 setdash 2 copy exch vpt sub exch vpt sub vpt2 vpt Rec fill
	2 copy vpt Square fill Bsquare} bind def
/S14 {BL [] 0 setdash 2 copy exch vpt sub exch vpt sub vpt2 vpt Rec fill
	2 copy exch vpt sub exch vpt Square fill Bsquare} bind def
/S15 {BL [] 0 setdash 2 copy Bsquare fill Bsquare} bind def
/D0 {gsave translate 45 rotate 0 0 S0 stroke grestore} bind def
/D1 {gsave translate 45 rotate 0 0 S1 stroke grestore} bind def
/D2 {gsave translate 45 rotate 0 0 S2 stroke grestore} bind def
/D3 {gsave translate 45 rotate 0 0 S3 stroke grestore} bind def
/D4 {gsave translate 45 rotate 0 0 S4 stroke grestore} bind def
/D5 {gsave translate 45 rotate 0 0 S5 stroke grestore} bind def
/D6 {gsave translate 45 rotate 0 0 S6 stroke grestore} bind def
/D7 {gsave translate 45 rotate 0 0 S7 stroke grestore} bind def
/D8 {gsave translate 45 rotate 0 0 S8 stroke grestore} bind def
/D9 {gsave translate 45 rotate 0 0 S9 stroke grestore} bind def
/D10 {gsave translate 45 rotate 0 0 S10 stroke grestore} bind def
/D11 {gsave translate 45 rotate 0 0 S11 stroke grestore} bind def
/D12 {gsave translate 45 rotate 0 0 S12 stroke grestore} bind def
/D13 {gsave translate 45 rotate 0 0 S13 stroke grestore} bind def
/D14 {gsave translate 45 rotate 0 0 S14 stroke grestore} bind def
/D15 {gsave translate 45 rotate 0 0 S15 stroke grestore} bind def
/DiaE {stroke [] 0 setdash vpt add M
  hpt neg vpt neg V hpt vpt neg V
  hpt vpt V hpt neg vpt V closepath stroke} def
/BoxE {stroke [] 0 setdash exch hpt sub exch vpt add M
  0 vpt2 neg V hpt2 0 V 0 vpt2 V
  hpt2 neg 0 V closepath stroke} def
/TriUE {stroke [] 0 setdash vpt 1.12 mul add M
  hpt neg vpt -1.62 mul V
  hpt 2 mul 0 V
  hpt neg vpt 1.62 mul V closepath stroke} def
/TriDE {stroke [] 0 setdash vpt 1.12 mul sub M
  hpt neg vpt 1.62 mul V
  hpt 2 mul 0 V
  hpt neg vpt -1.62 mul V closepath stroke} def
/PentE {stroke [] 0 setdash gsave
  translate 0 hpt M 4 {72 rotate 0 hpt L} repeat
  closepath stroke grestore} def
/CircE {stroke [] 0 setdash 
  hpt 0 360 arc stroke} def
/Opaque {gsave closepath 1 setgray fill grestore 0 setgray closepath} def
/DiaW {stroke [] 0 setdash vpt add M
  hpt neg vpt neg V hpt vpt neg V
  hpt vpt V hpt neg vpt V Opaque stroke} def
/BoxW {stroke [] 0 setdash exch hpt sub exch vpt add M
  0 vpt2 neg V hpt2 0 V 0 vpt2 V
  hpt2 neg 0 V Opaque stroke} def
/TriUW {stroke [] 0 setdash vpt 1.12 mul add M
  hpt neg vpt -1.62 mul V
  hpt 2 mul 0 V
  hpt neg vpt 1.62 mul V Opaque stroke} def
/TriDW {stroke [] 0 setdash vpt 1.12 mul sub M
  hpt neg vpt 1.62 mul V
  hpt 2 mul 0 V
  hpt neg vpt -1.62 mul V Opaque stroke} def
/PentW {stroke [] 0 setdash gsave
  translate 0 hpt M 4 {72 rotate 0 hpt L} repeat
  Opaque stroke grestore} def
/CircW {stroke [] 0 setdash 
  hpt 0 360 arc Opaque stroke} def
/BoxFill {gsave Rec 1 setgray fill grestore} def
/Density {
  /Fillden exch def
  currentrgbcolor
  /ColB exch def /ColG exch def /ColR exch def
  /ColR ColR Fillden mul Fillden sub 1 add def
  /ColG ColG Fillden mul Fillden sub 1 add def
  /ColB ColB Fillden mul Fillden sub 1 add def
  ColR ColG ColB setrgbcolor} def
/BoxColFill {gsave Rec PolyFill} def
/PolyFill {gsave Density fill grestore grestore} def
/h {rlineto rlineto rlineto gsave closepath fill grestore} bind def
%
% PostScript Level 1 Pattern Fill routine for rectangles
% Usage: x y w h s a XX PatternFill
%	x,y = lower left corner of box to be filled
%	w,h = width and height of box
%	  a = angle in degrees between lines and x-axis
%	 XX = 0/1 for no/yes cross-hatch
%
/PatternFill {gsave /PFa [ 9 2 roll ] def
  PFa 0 get PFa 2 get 2 div add PFa 1 get PFa 3 get 2 div add translate
  PFa 2 get -2 div PFa 3 get -2 div PFa 2 get PFa 3 get Rec
  TransparentPatterns {} {gsave 1 setgray fill grestore} ifelse
  clip
  currentlinewidth 0.5 mul setlinewidth
  /PFs PFa 2 get dup mul PFa 3 get dup mul add sqrt def
  0 0 M PFa 5 get rotate PFs -2 div dup translate
  0 1 PFs PFa 4 get div 1 add floor cvi
	{PFa 4 get mul 0 M 0 PFs V} for
  0 PFa 6 get ne {
	0 1 PFs PFa 4 get div 1 add floor cvi
	{PFa 4 get mul 0 2 1 roll M PFs 0 V} for
 } if
  stroke grestore} def
%
/languagelevel where
 {pop languagelevel} {1} ifelse
dup 2 lt
	{/InterpretLevel1 true def
	 /InterpretLevel3 false def}
	{/InterpretLevel1 Level1 def
	 2 gt
	    {/InterpretLevel3 Level3 def}
	    {/InterpretLevel3 false def}
	 ifelse }
 ifelse
%
% PostScript level 2 pattern fill definitions
%
/Level2PatternFill {
/Tile8x8 {/PaintType 2 /PatternType 1 /TilingType 1 /BBox [0 0 8 8] /XStep 8 /YStep 8}
	bind def
/KeepColor {currentrgbcolor [/Pattern /DeviceRGB] setcolorspace} bind def
<< Tile8x8
 /PaintProc {0.5 setlinewidth pop 0 0 M 8 8 L 0 8 M 8 0 L stroke} 
>> matrix makepattern
/Pat1 exch def
<< Tile8x8
 /PaintProc {0.5 setlinewidth pop 0 0 M 8 8 L 0 8 M 8 0 L stroke
	0 4 M 4 8 L 8 4 L 4 0 L 0 4 L stroke}
>> matrix makepattern
/Pat2 exch def
<< Tile8x8
 /PaintProc {0.5 setlinewidth pop 0 0 M 0 8 L
	8 8 L 8 0 L 0 0 L fill}
>> matrix makepattern
/Pat3 exch def
<< Tile8x8
 /PaintProc {0.5 setlinewidth pop -4 8 M 8 -4 L
	0 12 M 12 0 L stroke}
>> matrix makepattern
/Pat4 exch def
<< Tile8x8
 /PaintProc {0.5 setlinewidth pop -4 0 M 8 12 L
	0 -4 M 12 8 L stroke}
>> matrix makepattern
/Pat5 exch def
<< Tile8x8
 /PaintProc {0.5 setlinewidth pop -2 8 M 4 -4 L
	0 12 M 8 -4 L 4 12 M 10 0 L stroke}
>> matrix makepattern
/Pat6 exch def
<< Tile8x8
 /PaintProc {0.5 setlinewidth pop -2 0 M 4 12 L
	0 -4 M 8 12 L 4 -4 M 10 8 L stroke}
>> matrix makepattern
/Pat7 exch def
<< Tile8x8
 /PaintProc {0.5 setlinewidth pop 8 -2 M -4 4 L
	12 0 M -4 8 L 12 4 M 0 10 L stroke}
>> matrix makepattern
/Pat8 exch def
<< Tile8x8
 /PaintProc {0.5 setlinewidth pop 0 -2 M 12 4 L
	-4 0 M 12 8 L -4 4 M 8 10 L stroke}
>> matrix makepattern
/Pat9 exch def
/Pattern1 {PatternBgnd KeepColor Pat1 setpattern} bind def
/Pattern2 {PatternBgnd KeepColor Pat2 setpattern} bind def
/Pattern3 {PatternBgnd KeepColor Pat3 setpattern} bind def
/Pattern4 {PatternBgnd KeepColor Landscape {Pat5} {Pat4} ifelse setpattern} bind def
/Pattern5 {PatternBgnd KeepColor Landscape {Pat4} {Pat5} ifelse setpattern} bind def
/Pattern6 {PatternBgnd KeepColor Landscape {Pat9} {Pat6} ifelse setpattern} bind def
/Pattern7 {PatternBgnd KeepColor Landscape {Pat8} {Pat7} ifelse setpattern} bind def
} def
%
%
%End of PostScript Level 2 code
%
/PatternBgnd {
  TransparentPatterns {} {gsave 1 setgray fill grestore} ifelse
} def
%
% Substitute for Level 2 pattern fill codes with
% grayscale if Level 2 support is not selected.
%
/Level1PatternFill {
/Pattern1 {0.250 Density} bind def
/Pattern2 {0.500 Density} bind def
/Pattern3 {0.750 Density} bind def
/Pattern4 {0.125 Density} bind def
/Pattern5 {0.375 Density} bind def
/Pattern6 {0.625 Density} bind def
/Pattern7 {0.875 Density} bind def
} def
%
% Now test for support of Level 2 code
%
Level1 {Level1PatternFill} {Level2PatternFill} ifelse
%
/Symbol-Oblique /Symbol findfont [1 0 .167 1 0 0] makefont
dup length dict begin {1 index /FID eq {pop pop} {def} ifelse} forall
currentdict end definefont pop
%
/MFshow {
   { dup 5 get 3 ge
     { 5 get 3 eq {gsave} {grestore} ifelse }
     {dup dup 0 get findfont exch 1 get scalefont setfont
     [ currentpoint ] exch dup 2 get 0 exch R dup 5 get 2 ne {dup dup 6
     get exch 4 get {textshow} {stringwidth pop 0 R} ifelse }if dup 5 get 0 eq
     {dup 3 get {2 get neg 0 exch R pop} {pop aload pop M} ifelse} {dup 5
     get 1 eq {dup 2 get exch dup 3 get exch 6 get stringwidth pop -2 div
     dup 0 R} {dup 6 get stringwidth pop -2 div 0 R 6 get
     textshow 2 index {aload pop M neg 3 -1 roll neg R pop pop} {pop pop pop
     pop aload pop M} ifelse }ifelse }ifelse }
     ifelse }
   forall} def
/Gswidth {dup type /stringtype eq {stringwidth} {pop (n) stringwidth} ifelse} def
/MFwidth {0 exch { dup 5 get 3 ge { 5 get 3 eq { 0 } { pop } ifelse }
 {dup 3 get{dup dup 0 get findfont exch 1 get scalefont setfont
     6 get Gswidth pop add} {pop} ifelse} ifelse} forall} def
/MLshow { currentpoint stroke M
  0 exch R
  Blacktext {gsave 0 setgray MFshow grestore} {MFshow} ifelse } bind def
/MRshow { currentpoint stroke M
  exch dup MFwidth neg 3 -1 roll R
  Blacktext {gsave 0 setgray MFshow grestore} {MFshow} ifelse } bind def
/MCshow { currentpoint stroke M
  exch dup MFwidth -2 div 3 -1 roll R
  Blacktext {gsave 0 setgray MFshow grestore} {MFshow} ifelse } bind def
/XYsave    { [( ) 1 2 true false 3 ()] } bind def
/XYrestore { [( ) 1 2 true false 4 ()] } bind def
Level1 SuppressPDFMark or 
{} {
/SDict 10 dict def
systemdict /pdfmark known not {
  userdict /pdfmark systemdict /cleartomark get put
} if
SDict begin [
  /Title (max.eps)
  /Subject (gnuplot plot)
  /Creator (gnuplot 5.0 patchlevel 1)
  /Author (gaumont)
%  /Producer (gnuplot)
%  /Keywords ()
  /CreationDate (Fri Oct 30 18:57:08 2015)
  /DOCINFO pdfmark
end
} ifelse
end
%
% Support for boxed text - Ethan A Merritt May 2005
%
/InitTextBox { userdict /TBy2 3 -1 roll put userdict /TBx2 3 -1 roll put
           userdict /TBy1 3 -1 roll put userdict /TBx1 3 -1 roll put
	   /Boxing true def } def
/ExtendTextBox { Boxing
    { gsave dup false charpath pathbbox
      dup TBy2 gt {userdict /TBy2 3 -1 roll put} {pop} ifelse
      dup TBx2 gt {userdict /TBx2 3 -1 roll put} {pop} ifelse
      dup TBy1 lt {userdict /TBy1 3 -1 roll put} {pop} ifelse
      dup TBx1 lt {userdict /TBx1 3 -1 roll put} {pop} ifelse
      grestore } if } def
/PopTextBox { newpath TBx1 TBxmargin sub TBy1 TBymargin sub M
               TBx1 TBxmargin sub TBy2 TBymargin add L
	       TBx2 TBxmargin add TBy2 TBymargin add L
	       TBx2 TBxmargin add TBy1 TBymargin sub L closepath } def
/DrawTextBox { PopTextBox stroke /Boxing false def} def
/FillTextBox { gsave PopTextBox 1 1 1 setrgbcolor fill grestore /Boxing false def} def
0 0 0 0 InitTextBox
/TBxmargin 20 def
/TBymargin 20 def
/Boxing false def
/textshow { ExtendTextBox Gshow } def
%
%%EndProlog
%%Page: 1 1
gnudict begin
gsave
doclip
50 50 translate
0.050 0.050 scale
0 setgray
newpath
(Helvetica) findfont 200 scalefont setfont
BackgroundColor 0 lt 3 1 roll 0 lt exch 0 lt or or not {BackgroundColor C 1.000 0 0 5040.00 3772.00 BoxColFill} if
1.000 UL
LTb
LCb setrgbcolor
860 640 M
63 0 V
3756 0 R
-63 0 V
stroke
740 640 M
[ [(Helvetica) 200.0 0.0 true true 0 (10)]
[(Helvetica) 160.0 100.0 true true 0 (-2)]
] -86.7 MRshow
1.000 UL
LTb
LCb setrgbcolor
860 1075 M
31 0 V
3788 0 R
-31 0 V
860 1330 M
31 0 V
3788 0 R
-31 0 V
860 1510 M
31 0 V
3788 0 R
-31 0 V
860 1650 M
31 0 V
3788 0 R
-31 0 V
860 1765 M
31 0 V
3788 0 R
-31 0 V
860 1862 M
31 0 V
3788 0 R
-31 0 V
860 1945 M
31 0 V
3788 0 R
-31 0 V
860 2019 M
31 0 V
3788 0 R
-31 0 V
860 2086 M
63 0 V
3756 0 R
-63 0 V
stroke
740 2086 M
[ [(Helvetica) 200.0 0.0 true true 0 (10)]
[(Helvetica) 160.0 100.0 true true 0 (-1)]
] -86.7 MRshow
1.000 UL
LTb
LCb setrgbcolor
860 2521 M
31 0 V
3788 0 R
-31 0 V
860 2775 M
31 0 V
3788 0 R
-31 0 V
860 2956 M
31 0 V
3788 0 R
-31 0 V
860 3096 M
31 0 V
3788 0 R
-31 0 V
860 3210 M
31 0 V
3788 0 R
-31 0 V
860 3307 M
31 0 V
3788 0 R
-31 0 V
860 3391 M
31 0 V
3788 0 R
-31 0 V
860 3465 M
31 0 V
3788 0 R
-31 0 V
860 3531 M
63 0 V
3756 0 R
-63 0 V
stroke
740 3531 M
[ [(Helvetica) 200.0 0.0 true true 0 (10)]
[(Helvetica) 160.0 100.0 true true 0 (0)]
] -86.7 MRshow
1.000 UL
LTb
LCb setrgbcolor
860 640 M
0 63 V
0 2828 R
0 -63 V
stroke
860 440 M
[ [(Helvetica) 200.0 0.0 true true 0 (10)]
[(Helvetica) 160.0 100.0 true true 0 (-2)]
] -86.7 MCshow
1.000 UL
LTb
LCb setrgbcolor
1435 640 M
0 31 V
0 2860 R
0 -31 V
1771 640 M
0 31 V
0 2860 R
0 -31 V
2010 640 M
0 31 V
0 2860 R
0 -31 V
2195 640 M
0 31 V
0 2860 R
0 -31 V
2346 640 M
0 31 V
0 2860 R
0 -31 V
2474 640 M
0 31 V
0 2860 R
0 -31 V
2584 640 M
0 31 V
0 2860 R
0 -31 V
2682 640 M
0 31 V
0 2860 R
0 -31 V
2770 640 M
0 63 V
0 2828 R
0 -63 V
stroke
2770 440 M
[ [(Helvetica) 200.0 0.0 true true 0 (10)]
[(Helvetica) 160.0 100.0 true true 0 (-1)]
] -86.7 MCshow
1.000 UL
LTb
LCb setrgbcolor
3344 640 M
0 31 V
0 2860 R
0 -31 V
3681 640 M
0 31 V
0 2860 R
0 -31 V
3919 640 M
0 31 V
0 2860 R
0 -31 V
4104 640 M
0 31 V
0 2860 R
0 -31 V
4255 640 M
0 31 V
0 2860 R
0 -31 V
4383 640 M
0 31 V
0 2860 R
0 -31 V
4494 640 M
0 31 V
0 2860 R
0 -31 V
4592 640 M
0 31 V
0 2860 R
0 -31 V
4679 640 M
0 63 V
0 2828 R
0 -63 V
stroke
4679 440 M
[ [(Helvetica) 200.0 0.0 true true 0 (10)]
[(Helvetica) 160.0 100.0 true true 0 (0)]
] -86.7 MCshow
1.000 UL
LTb
LCb setrgbcolor
1.000 UL
LTb
LCb setrgbcolor
860 3531 N
860 640 L
3819 0 V
0 2891 V
-3819 0 V
Z stroke
0.500 UP
1.000 UL
LTb
LCb setrgbcolor
LCb setrgbcolor
160 2085 M
currentpoint gsave translate -270 rotate 0 0 moveto
[ [(Helvetica) 200.0 0.0 true true 0 (Max inter-thread density)]
] -66.7 MCshow
grestore
LTb
LCb setrgbcolor
2769 140 M
[ [(Helvetica) 200.0 0.0 true true 0 (Intra-thread density)]
] -66.7 MCshow
LTb
% Begin plot #1
0.500 UP
0.500 UL
LTb
0.82 0.11 0.02 C 4343 3531 Pls
3768 3258 Pls
3768 3232 Pls
3640 3025 Pls
3879 3126 Pls
3919 3476 Pls
3344 3259 Pls
3529 3219 Pls
3768 3210 Pls
3344 3067 Pls
3119 3035 Pls
3919 3496 Pls
4383 3408 Pls
3193 3146 Pls
3768 3446 Pls
4047 3334 Pls
3640 3072 Pls
4104 3376 Pls
3529 3262 Pls
3529 3357 Pls
3640 3357 Pls
3529 3261 Pls
3265 3155 Pls
4047 3432 Pls
3738 3168 Pls
3640 3397 Pls
3344 2964 Pls
3511 3155 Pls
3879 3473 Pls
3640 3081 Pls
3768 3184 Pls
3127 3150 Pls
4343 3344 Pls
3617 3172 Pls
3432 3258 Pls
4104 3155 Pls
3640 3362 Pls
4104 3441 Pls
3265 3098 Pls
3617 3371 Pls
3919 3395 Pls
3617 3210 Pls
3768 3344 Pls
3919 3276 Pls
3008 3016 Pls
3738 3092 Pls
4047 3347 Pls
3768 3331 Pls
3255 3135 Pls
3216 3162 Pls
3193 3278 Pls
4104 3355 Pls
3768 3264 Pls
3825 3357 Pls
3738 3073 Pls
3825 3352 Pls
3768 3239 Pls
3193 3161 Pls
3640 3177 Pls
2808 3018 Pls
3768 3212 Pls
3919 3230 Pls
3265 3055 Pls
2928 3194 Pls
3265 2885 Pls
2924 2915 Pls
3583 3240 Pls
4104 3265 Pls
3640 3146 Pls
3919 3481 Pls
4104 3276 Pls
3529 3299 Pls
3416 3278 Pls
3483 3205 Pls
4047 3263 Pls
4343 3320 Pls
3640 3215 Pls
3193 3080 Pls
3976 3124 Pls
3193 3131 Pls
3332 3052 Pls
3265 3229 Pls
3416 3058 Pls
3091 2887 Pls
3193 3063 Pls
3529 3210 Pls
3640 3225 Pls
3617 3200 Pls
3640 3315 Pls
4104 3377 Pls
3483 3295 Pls
3919 3200 Pls
3529 3215 Pls
3919 3461 Pls
3092 3011 Pls
4104 3331 Pls
4255 3264 Pls
3511 3077 Pls
3919 3513 Pls
3265 2936 Pls
3879 3262 Pls
3065 3063 Pls
3738 3158 Pls
3768 3310 Pls
3463 3162 Pls
3416 3293 Pls
4104 3282 Pls
3127 2856 Pls
3529 3272 Pls
4343 3350 Pls
3617 3336 Pls
4047 3407 Pls
3432 3004 Pls
3265 3117 Pls
3529 3213 Pls
3617 3142 Pls
3508 3271 Pls
3768 3240 Pls
2918 2938 Pls
3768 3243 Pls
3640 3243 Pls
3919 3243 Pls
3738 3106 Pls
3265 3175 Pls
3738 3300 Pls
3344 3285 Pls
3768 3387 Pls
3640 3046 Pls
3529 3210 Pls
3583 3111 Pls
3265 3329 Pls
3432 3215 Pls
3640 3165 Pls
3241 3244 Pls
3065 3033 Pls
4255 3460 Pls
4343 3320 Pls
2760 2912 Pls
3768 3397 Pls
3768 3219 Pls
3184 3058 Pls
3332 3226 Pls
3738 3174 Pls
3344 3123 Pls
3344 3005 Pls
3976 3089 Pls
3768 3347 Pls
3529 3037 Pls
3463 3132 Pls
2978 3092 Pls
3649 3236 Pls
3529 3252 Pls
4104 3304 Pls
3825 3140 Pls
4047 3397 Pls
3976 3129 Pls
3344 3237 Pls
3432 2953 Pls
3483 3234 Pls
3432 3240 Pls
3768 3318 Pls
3919 3377 Pls
3768 3258 Pls
3825 3331 Pls
3919 3193 Pls
3879 3446 Pls
3879 3052 Pls
3193 3225 Pls
4104 3331 Pls
3529 3236 Pls
3432 3159 Pls
3265 3149 Pls
3919 3417 Pls
3265 2877 Pls
3919 3152 Pls
3919 3461 Pls
3768 3299 Pls
3529 3292 Pls
3768 3081 Pls
3332 3135 Pls
3529 3466 Pls
3529 3249 Pls
3529 3264 Pls
3344 3098 Pls
3511 3037 Pls
3976 3292 Pls
3640 3384 Pls
3768 3249 Pls
3617 3212 Pls
3919 3276 Pls
4047 3267 Pls
3768 3334 Pls
3544 3206 Pls
4343 3315 Pls
3432 3138 Pls
3344 3020 Pls
3976 3393 Pls
3511 3099 Pls
3265 2880 Pls
3265 3034 Pls
3768 3108 Pls
3432 2964 Pls
4104 3183 Pls
2618 3005 Pls
3106 3193 Pls
3640 3290 Pls
4255 3488 Pls
2873 3095 Pls
3504 3194 Pls
3432 3155 Pls
3529 3148 Pls
3768 3073 Pls
3640 3202 Pls
3344 2941 Pls
2852 2791 Pls
3283 3190 Pls
3919 3199 Pls
3768 3230 Pls
3617 3248 Pls
3047 2821 Pls
3529 3165 Pls
3879 3083 Pls
4104 3217 Pls
3768 3481 Pls
3640 3357 Pls
3825 3249 Pls
3768 3202 Pls
3640 3292 Pls
3919 3350 Pls
3583 3136 Pls
3919 3331 Pls
4104 3147 Pls
3879 3393 Pls
3768 3446 Pls
3768 3038 Pls
3148 3001 Pls
4104 3247 Pls
4047 3172 Pls
3265 3103 Pls
3919 3168 Pls
4104 3131 Pls
4104 3425 Pls
3919 3133 Pls
3768 3377 Pls
4043 3276 Pls
3529 3167 Pls
3529 3074 Pls
3617 3263 Pls
4158 3426 Pls
4104 3148 Pls
3919 3213 Pls
3583 3121 Pls
3511 3092 Pls
3583 3344 Pls
3169 3001 Pls
3432 3053 Pls
3768 3229 Pls
3332 3071 Pls
4104 3488 Pls
3008 2884 Pls
3504 3177 Pls
3649 3270 Pls
3344 3117 Pls
3919 3290 Pls
3768 3249 Pls
3768 3269 Pls
3344 3303 Pls
3768 3366 Pls
3919 3106 Pls
3768 3310 Pls
4104 3276 Pls
4047 3262 Pls
3529 3458 Pls
3640 3348 Pls
3529 3200 Pls
3879 3202 Pls
3919 3136 Pls
3529 3426 Pls
3432 3107 Pls
3768 3264 Pls
4047 3168 Pls
3265 2996 Pls
3529 3170 Pls
3511 3243 Pls
3738 3357 Pls
3879 3290 Pls
3640 2987 Pls
3416 3329 Pls
3529 3397 Pls
3529 3210 Pls
3738 3200 Pls
3344 2917 Pls
3879 3384 Pls
3976 3284 Pls
3143 3068 Pls
3332 3069 Pls
3640 3506 Pls
2978 2841 Pls
3617 3284 Pls
4104 3408 Pls
3640 3436 Pls
3420 3073 Pls
3919 3145 Pls
3617 2966 Pls
3919 3318 Pls
3193 3071 Pls
3919 3331 Pls
3483 3206 Pls
3529 3078 Pls
4343 3331 Pls
3738 3080 Pls
3184 3088 Pls
4047 3169 Pls
3416 3073 Pls
4343 3356 Pls
3919 3252 Pls
4043 3366 Pls
3120 3319 Pls
3919 3276 Pls
3529 3215 Pls
3265 3198 Pls
3825 3226 Pls
4104 3318 Pls
3640 3269 Pls
3640 3252 Pls
3508 3339 Pls
3976 3355 Pls
3193 2862 Pls
3255 2912 Pls
3919 3311 Pls
3184 3062 Pls
3768 3377 Pls
3919 3373 Pls
4255 3282 Pls
3529 3445 Pls
3511 3121 Pls
3617 3377 Pls
3065 3052 Pls
3529 3240 Pls
3640 3190 Pls
3640 3237 Pls
3768 3334 Pls
4104 3417 Pls
3432 3065 Pls
3529 3193 Pls
4047 3187 Pls
3768 3260 Pls
3696 3292 Pls
3065 2990 Pls
3332 3044 Pls
3483 3384 Pls
3919 3160 Pls
3432 3136 Pls
3365 3251 Pls
3508 3289 Pls
4104 3280 Pls
3640 3055 Pls
3640 3116 Pls
3416 3200 Pls
3768 3210 Pls
3768 3159 Pls
3265 3303 Pls
3738 3285 Pls
3544 3187 Pls
3130 3009 Pls
4343 3434 Pls
3432 3312 Pls
3432 3064 Pls
3919 3237 Pls
3768 3495 Pls
3193 3153 Pls
3904 3292 Pls
3544 3041 Pls
3825 3194 Pls
3529 3417 Pls
3175 3193 Pls
3919 3299 Pls
4104 3531 Pls
3265 3326 Pls
3879 3210 Pls
3344 3199 Pls
3919 3181 Pls
4047 3300 Pls
3265 3264 Pls
3640 3336 Pls
3617 3144 Pls
3617 3311 Pls
3896 3344 Pls
3825 3270 Pls
3511 3221 Pls
3529 3336 Pls
3344 2960 Pls
3919 3270 Pls
3332 3165 Pls
3919 3419 Pls
4104 3203 Pls
3768 3323 Pls
3529 3280 Pls
3529 3303 Pls
3617 3369 Pls
3344 3147 Pls
3432 2907 Pls
3640 3417 Pls
3432 3434 Pls
3879 3219 Pls
3511 3108 Pls
4104 3425 Pls
3655 3200 Pls
3344 3046 Pls
3393 2854 Pls
3919 3407 Pls
3216 3224 Pls
3002 2944 Pls
3529 3249 Pls
3529 3203 Pls
2938 3054 Pls
3617 3108 Pls
3312 3165 Pls
3768 3375 Pls
3640 3306 Pls
3834 3345 Pls
3768 3369 Pls
3455 3276 Pls
3432 3272 Pls
4104 3282 Pls
3529 3276 Pls
3768 3172 Pls
3768 3454 Pls
3919 3171 Pls
3529 3368 Pls
3919 3165 Pls
3640 3127 Pls
3617 3149 Pls
4104 3408 Pls
2846 3029 Pls
3265 2943 Pls
4255 3417 Pls
3919 3393 Pls
3879 3210 Pls
3640 3149 Pls
3919 3276 Pls
3583 3128 Pls
3432 3225 Pls
3919 3334 Pls
3265 3136 Pls
3640 3258 Pls
3649 3249 Pls
4343 3362 Pls
3255 3170 Pls
3768 3163 Pls
4343 3356 Pls
3554 3324 Pls
3879 3144 Pls
3768 3121 Pls
3768 3192 Pls
4104 3460 Pls
3649 3300 Pls
4104 3288 Pls
3106 3018 Pls
3976 3126 Pls
3344 3057 Pls
3617 3348 Pls
3529 3146 Pls
3151 3085 Pls
3919 3236 Pls
3304 3254 Pls
4343 3457 Pls
3529 3276 Pls
4047 3393 Pls
3768 3384 Pls
3879 3202 Pls
4104 3437 Pls
3127 3115 Pls
3640 3065 Pls
3255 2974 Pls
3529 3097 Pls
3169 2989 Pls
3008 3006 Pls
3768 3357 Pls
3919 3259 Pls
3640 3445 Pls
3529 3080 Pls
3529 3228 Pls
3420 3134 Pls
3640 3158 Pls
4343 3432 Pls
3344 3261 Pls
3617 3240 Pls
3344 3114 Pls
3065 3152 Pls
3529 3136 Pls
3511 3147 Pls
4104 3531 Pls
3738 3136 Pls
4255 3276 Pls
3768 3205 Pls
3919 3164 Pls
3193 3119 Pls
4255 3380 Pls
3432 3106 Pls
3013 3185 Pls
3617 3088 Pls
3432 3203 Pls
3640 3381 Pls
3768 3417 Pls
3879 3378 Pls
4104 3531 Pls
3065 2934 Pls
3130 3214 Pls
3919 3156 Pls
3705 3232 Pls
3919 3226 Pls
3768 3219 Pls
3919 3276 Pls
3768 3121 Pls
3768 3189 Pls
3768 3276 Pls
3432 3058 Pls
3617 3387 Pls
3919 3098 Pls
3432 3110 Pls
3738 3300 Pls
3365 3128 Pls
3529 3229 Pls
3529 3062 Pls
3768 3201 Pls
3193 3352 Pls
4104 3299 Pls
3738 3263 Pls
4104 3291 Pls
3265 3121 Pls
4104 3162 Pls
3919 3398 Pls
3450 3268 Pls
3089 3067 Pls
3696 3363 Pls
4047 3163 Pls
3432 3258 Pls
3919 3282 Pls
3640 3303 Pls
3591 3177 Pls
3617 3117 Pls
4343 3373 Pls
3265 3092 Pls
4104 3495 Pls
3879 3432 Pls
3976 3210 Pls
3768 3012 Pls
4047 3133 Pls
3768 3199 Pls
3089 3108 Pls
4104 3508 Pls
3432 3221 Pls
4158 3336 Pls
3432 3236 Pls
3768 3113 Pls
3193 3153 Pls
3529 3384 Pls
4047 3169 Pls
4104 3318 Pls
3834 3033 Pls
4043 3384 Pls
3432 3315 Pls
3511 3155 Pls
3393 3083 Pls
3919 3137 Pls
3127 3040 Pls
3919 3236 Pls
3919 3461 Pls
3825 3090 Pls
3234 3120 Pls
3483 3136 Pls
3602 3391 Pls
3976 3194 Pls
3768 3215 Pls
3919 3130 Pls
3344 3215 Pls
3768 3049 Pls
3768 3288 Pls
3738 3121 Pls
4047 3161 Pls
3640 3381 Pls
4047 3356 Pls
3529 3083 Pls
3583 3191 Pls
4343 3417 Pls
3511 3093 Pls
3738 3175 Pls
3344 3061 Pls
4158 3405 Pls
3058 2996 Pls
3640 3229 Pls
3432 3386 Pls
4343 3276 Pls
3393 3363 Pls
4047 3434 Pls
3002 3165 Pls
3617 3329 Pls
3919 3280 Pls
3393 3132 Pls
3432 3198 Pls
3768 3336 Pls
3738 3276 Pls
3432 3320 Pls
3344 2912 Pls
4047 3336 Pls
3919 3236 Pls
3529 3157 Pls
3825 3026 Pls
3919 3391 Pls
3919 3454 Pls
3617 3158 Pls
3602 3240 Pls
4104 3344 Pls
4343 3356 Pls
3919 3428 Pls
3617 3471 Pls
3640 3280 Pls
3529 3198 Pls
3529 3001 Pls
3768 3347 Pls
4104 3336 Pls
4104 3250 Pls
3529 3180 Pls
3344 3260 Pls
3953 3356 Pls
2813 3322 Pls
4047 3247 Pls
4104 3373 Pls
3976 3262 Pls
3432 3090 Pls
3416 3155 Pls
3640 3198 Pls
3184 3264 Pls
3529 3202 Pls
3825 3247 Pls
3065 3069 Pls
3919 3240 Pls
3344 3049 Pls
3738 3167 Pls
4383 3454 Pls
4104 3419 Pls
3696 3184 Pls
3879 3397 Pls
3106 2931 Pls
4343 3395 Pls
3065 2911 Pls
3529 3178 Pls
4104 3344 Pls
3919 3495 Pls
3768 3217 Pls
3976 3517 Pls
3085 2891 Pls
3768 3220 Pls
3432 3006 Pls
3640 3426 Pls
3237 3093 Pls
3919 3377 Pls
3879 3291 Pls
3504 3251 Pls
3919 3169 Pls
3288 2997 Pls
3768 3381 Pls
4047 3425 Pls
3768 3165 Pls
4104 3460 Pls
3432 3284 Pls
3529 3069 Pls
3013 3146 Pls
3768 3320 Pls
2760 3032 Pls
2955 3148 Pls
2978 3220 Pls
4104 3495 Pls
3119 3275 Pls
3976 3327 Pls
3919 3059 Pls
3640 3290 Pls
3184 2956 Pls
3617 3344 Pls
3768 3165 Pls
4343 3425 Pls
3106 3247 Pls
3768 3276 Pls
3825 3338 Pls
3151 3224 Pls
3976 3186 Pls
3834 3344 Pls
3529 3356 Pls
3640 3213 Pls
3919 3408 Pls
3640 3288 Pls
3768 3301 Pls
3617 3294 Pls
3332 3175 Pls
3738 3357 Pls
3768 3230 Pls
3640 3106 Pls
3919 3172 Pls
3184 3048 Pls
4104 3331 Pls
3919 3320 Pls
3919 3152 Pls
3344 3046 Pls
3879 3210 Pls
3432 3445 Pls
3529 3098 Pls
4104 3441 Pls
3483 3270 Pls
4047 3336 Pls
3511 3068 Pls
3529 3018 Pls
3640 3288 Pls
3919 3360 Pls
3640 3426 Pls
3825 3226 Pls
3768 3174 Pls
3265 2921 Pls
3332 3128 Pls
3738 3174 Pls
4047 3488 Pls
3919 3329 Pls
3265 3118 Pls
3583 3215 Pls
3649 3009 Pls
3768 3329 Pls
3193 3086 Pls
3879 3387 Pls
3825 3350 Pls
3344 3295 Pls
3432 3132 Pls
3640 3220 Pls
4104 3425 Pls
3544 3207 Pls
3768 3142 Pls
3768 3460 Pls
3450 3276 Pls
3184 3235 Pls
3768 3420 Pls
3640 3423 Pls
4343 3315 Pls
3255 2937 Pls
3344 3230 Pls
3919 3405 Pls
3825 3194 Pls
3640 3215 Pls
3919 3128 Pls
3450 3200 Pls
3432 3221 Pls
3265 3182 Pls
3529 3126 Pls
2770 3077 Pls
3768 3348 Pls
4343 3488 Pls
3919 3280 Pls
3919 3194 Pls
4047 3376 Pls
4104 3123 Pls
3344 3165 Pls
3529 3220 Pls
3511 3218 Pls
3432 3101 Pls
3768 3352 Pls
3640 3398 Pls
3640 3259 Pls
3640 3210 Pls
3919 3230 Pls
3919 3344 Pls
3919 3276 Pls
3529 3300 Pls
3919 3457 Pls
3058 3009 Pls
3051 3258 Pls
3919 3262 Pls
3332 3368 Pls
3344 2990 Pls
3768 3290 Pls
3332 3176 Pls
3529 3290 Pls
3529 3492 Pls
3879 3158 Pls
3617 3249 Pls
3879 3301 Pls
3511 3363 Pls
3344 3135 Pls
3416 3046 Pls
3768 3184 Pls
4047 3276 Pls
3919 3395 Pls
4343 3460 Pls
3453 3167 Pls
3976 3450 Pls
3047 3009 Pls
3768 3117 Pls
3768 3311 Pls
3617 3053 Pls
4104 3302 Pls
4104 3408 Pls
4158 3393 Pls
3265 2994 Pls
3583 3174 Pls
4104 3373 Pls
3904 3220 Pls
4104 3248 Pls
3696 3387 Pls
3265 3065 Pls
3919 3300 Pls
3015 3058 Pls
3483 3083 Pls
4343 3408 Pls
3738 3186 Pls
3344 3261 Pls
4104 3276 Pls
3529 2956 Pls
4255 3265 Pls
3640 3329 Pls
3768 3084 Pls
3193 3101 Pls
4104 3128 Pls
3825 3279 Pls
3640 3117 Pls
3617 3128 Pls
3768 3417 Pls
3127 2974 Pls
3344 3223 Pls
3416 3055 Pls
3432 3041 Pls
3265 2907 Pls
3393 3138 Pls
3344 3205 Pls
3344 3279 Pls
3432 3248 Pls
3919 3067 Pls
4343 3488 Pls
2943 3112 Pls
3344 3252 Pls
4104 3336 Pls
4047 3065 Pls
3768 3181 Pls
3071 3223 Pls
3640 3258 Pls
3583 2928 Pls
4494 3439 Pls
3696 3328 Pls
3738 3267 Pls
3738 3221 Pls
3738 3323 Pls
3768 3328 Pls
3529 3334 Pls
3904 3177 Pls
3919 3203 Pls
3071 3021 Pls
3919 3318 Pls
3237 3164 Pls
3529 3109 Pls
3768 3288 Pls
3127 3012 Pls
3640 3294 Pls
3344 3161 Pls
4104 3495 Pls
3768 3244 Pls
3879 3129 Pls
3919 3488 Pls
3768 3145 Pls
3529 3523 Pls
3529 3261 Pls
3919 3187 Pls
3825 3053 Pls
3768 3157 Pls
3768 3496 Pls
3768 3230 Pls
4104 3408 Pls
4047 3299 Pls
3255 3302 Pls
3483 2994 Pls
3463 2970 Pls
3919 3419 Pls
3768 3154 Pls
3768 3323 Pls
3768 3471 Pls
3640 3171 Pls
3919 3129 Pls
3416 3229 Pls
3768 3458 Pls
3529 3191 Pls
3529 3174 Pls
3065 3000 Pls
3193 2911 Pls
3511 2946 Pls
3919 3344 Pls
3768 3103 Pls
3529 3184 Pls
3738 3248 Pls
3640 3182 Pls
3768 3363 Pls
2770 3125 Pls
3529 3021 Pls
3768 3262 Pls
3919 3373 Pls
3768 3270 Pls
3529 3070 Pls
3617 3116 Pls
3511 3289 Pls
3825 3200 Pls
4104 3350 Pls
4255 3476 Pls
3919 3259 Pls
4104 3457 Pls
3825 3077 Pls
3432 3090 Pls
4255 3441 Pls
3332 3008 Pls
3529 3156 Pls
4104 3315 Pls
3583 3087 Pls
3529 3127 Pls
3529 3427 Pls
3768 3244 Pls
3879 3135 Pls
4047 3205 Pls
4343 3373 Pls
4047 3247 Pls
3432 3106 Pls
3511 3134 Pls
3432 3188 Pls
3640 3310 Pls
2955 2982 Pls
3008 3064 Pls
3768 3375 Pls
2811 2973 Pls
3976 3384 Pls
3511 3329 Pls
3640 3057 Pls
3825 3312 Pls
3529 3237 Pls
3919 3201 Pls
3511 3343 Pls
3483 3067 Pls
3432 3193 Pls
3529 3213 Pls
4047 3458 Pls
3768 3282 Pls
3919 3288 Pls
3640 3182 Pls
3768 3377 Pls
3768 3098 Pls
3416 3177 Pls
3065 3207 Pls
3344 3248 Pls
3065 3004 Pls
3640 3286 Pls
4104 3381 Pls
3919 3417 Pls
3879 3177 Pls
3738 3357 Pls
3738 3117 Pls
3127 3088 Pls
3432 3028 Pls
3768 3276 Pls
3463 3014 Pls
3511 2967 Pls
3617 3086 Pls
3529 3203 Pls
3332 3248 Pls
3640 3230 Pls
3640 2977 Pls
3919 3203 Pls
3432 3119 Pls
3416 3147 Pls
3255 3128 Pls
3511 3140 Pls
2718 2675 Pls
3640 3180 Pls
4343 3373 Pls
3463 2966 Pls
3432 3108 Pls
4158 3193 Pls
3640 3410 Pls
3529 3303 Pls
3768 3174 Pls
3255 3017 Pls
3583 3116 Pls
3169 2955 Pls
3432 3061 Pls
3879 3453 Pls
3768 3130 Pls
3271 3244 Pls
3529 3258 Pls
3344 3157 Pls
3265 3114 Pls
3738 3240 Pls
3511 3193 Pls
3696 3320 Pls
3825 3149 Pls
3344 3419 Pls
3649 3398 Pls
3640 3179 Pls
3216 3189 Pls
3602 3284 Pls
3768 3320 Pls
3768 3015 Pls
3640 3312 Pls
3919 3237 Pls
3529 3192 Pls
3583 3174 Pls
3834 3482 Pls
4679 3531 Pls
3640 3434 Pls
3696 3285 Pls
4255 3531 Pls
3583 3237 Pls
3919 3355 Pls
3332 3309 Pls
3344 3120 Pls
3237 3096 Pls
3344 3252 Pls
3919 3304 Pls
3640 3375 Pls
4064 3157 Pls
3344 3320 Pls
3416 2923 Pls
3193 3063 Pls
3821 3269 Pls
3768 3312 Pls
3738 3339 Pls
3768 3344 Pls
3919 3425 Pls
3529 3101 Pls
3529 3206 Pls
3529 3129 Pls
3640 3384 Pls
3738 3270 Pls
3344 3286 Pls
3821 3369 Pls
3143 3079 Pls
3432 3089 Pls
3768 3139 Pls
3640 3146 Pls
3879 3288 Pls
3432 3084 Pls
3529 3062 Pls
4047 3428 Pls
3529 3252 Pls
3953 3299 Pls
3768 3101 Pls
3544 3213 Pls
3344 3038 Pls
3738 3307 Pls
3919 3397 Pls
4158 3237 Pls
4104 3288 Pls
3554 3352 Pls
3768 3084 Pls
3208 3058 Pls
3738 3345 Pls
4104 3247 Pls
3344 2983 Pls
3288 3037 Pls
3738 3252 Pls
3640 3067 Pls
3529 3114 Pls
4104 3226 Pls
3768 3300 Pls
3919 3352 Pls
3879 3226 Pls
4047 3320 Pls
3261 3210 Pls
3919 3231 Pls
3529 3182 Pls
3234 3088 Pls
3879 3300 Pls
3768 3376 Pls
3265 3009 Pls
3696 3286 Pls
3617 3291 Pls
4343 3350 Pls
3216 3092 Pls
3738 3210 Pls
3768 3028 Pls
3529 3158 Pls
2400 2911 Pls
3002 3170 Pls
3640 3182 Pls
3640 3304 Pls
3640 3200 Pls
3825 3221 Pls
3640 3215 Pls
3265 3236 Pls
3768 3015 Pls
3919 3300 Pls
3511 3221 Pls
4104 3168 Pls
4104 3373 Pls
3511 2966 Pls
3640 3463 Pls
3529 3028 Pls
3344 2979 Pls
4158 3408 Pls
3432 3110 Pls
3738 3334 Pls
3919 3276 Pls
3738 3261 Pls
4343 3391 Pls
3335 3244 Pls
3640 3189 Pls
4255 3347 Pls
4343 3391 Pls
3344 3177 Pls
3768 3165 Pls
3583 3105 Pls
3640 3375 Pls
3365 3265 Pls
4104 3176 Pls
3919 3178 Pls
3583 3442 Pls
3640 3166 Pls
3529 3252 Pls
3879 3377 Pls
3696 3331 Pls
3289 3124 Pls
3768 3137 Pls
4047 3262 Pls
3071 3003 Pls
3008 2952 Pls
3768 3417 Pls
3640 3288 Pls
3511 3261 Pls
3879 3300 Pls
3768 3348 Pls
4255 3288 Pls
3919 3432 Pls
3738 3401 Pls
3529 3300 Pls
4255 3362 Pls
4047 3267 Pls
3640 3152 Pls
3261 3025 Pls
3529 3206 Pls
3332 3023 Pls
3432 3210 Pls
3640 3240 Pls
3879 3288 Pls
3919 3408 Pls
3738 3060 Pls
3919 3190 Pls
3919 3457 Pls
3640 3320 Pls
4104 3312 Pls
3768 3417 Pls
3344 3290 Pls
3768 3405 Pls
3265 3085 Pls
3529 3364 Pls
4343 3391 Pls
3168 3274 Pls
3209 3059 Pls
3504 3000 Pls
3879 3531 Pls
3047 2965 Pls
3768 3311 Pls
4255 3232 Pls
3738 3078 Pls
3529 3436 Pls
3640 3320 Pls
3919 3508 Pls
3529 3284 Pls
4343 3517 Pls
3640 3251 Pls
3879 3280 Pls
3976 3162 Pls
3169 3089 Pls
3976 3323 Pls
2830 2940 Pls
3640 3334 Pls
3879 3481 Pls
3344 3100 Pls
3738 3135 Pls
3483 3294 Pls
3640 3046 Pls
3544 3115 Pls
3344 3169 Pls
3344 3177 Pls
4047 3347 Pls
3640 3251 Pls
3640 3108 Pls
3768 3180 Pls
3649 3168 Pls
3040 3032 Pls
3335 2834 Pls
4104 3373 Pls
3089 3338 Pls
3529 3135 Pls
3416 3123 Pls
3879 3168 Pls
3768 3318 Pls
3825 3230 Pls
3879 3184 Pls
4255 3531 Pls
3919 3393 Pls
3234 3123 Pls
4255 3450 Pls
4255 3381 Pls
3640 3318 Pls
3768 3247 Pls
3583 3290 Pls
3193 2885 Pls
3768 3270 Pls
4343 3417 Pls
3529 3103 Pls
3432 3315 Pls
3879 3140 Pls
3602 3077 Pls
3193 2879 Pls
4104 3391 Pls
4255 3276 Pls
3332 3258 Pls
3768 3329 Pls
3768 3210 Pls
3583 3100 Pls
3416 3084 Pls
3768 3150 Pls
3640 3088 Pls
3919 3259 Pls
3696 3482 Pls
3529 3276 Pls
4104 3476 Pls
3834 3408 Pls
3617 3193 Pls
3640 3215 Pls
3904 3252 Pls
3583 3336 Pls
3237 3081 Pls
4383 3318 Pls
4255 3445 Pls
3640 3401 Pls
3768 3180 Pls
3640 3368 Pls
3432 3225 Pls
3768 3441 Pls
3344 3225 Pls
3738 3336 Pls
3738 3378 Pls
4343 3476 Pls
3261 2942 Pls
3768 3012 Pls
3768 3304 Pls
3432 3230 Pls
3432 3075 Pls
3768 3214 Pls
3919 3247 Pls
3768 3336 Pls
2955 3016 Pls
4047 3180 Pls
4047 3252 Pls
3879 3247 Pls
4047 3247 Pls
3768 3316 Pls
3151 2997 Pls
4104 3160 Pls
3312 3180 Pls
3365 3158 Pls
3432 2966 Pls
3768 3181 Pls
3768 3336 Pls
3117 3014 Pls
3617 3108 Pls
3344 3035 Pls
3529 3167 Pls
3768 3357 Pls
3193 3153 Pls
3529 3132 Pls
3768 3357 Pls
4047 3395 Pls
3529 3222 Pls
3432 3320 Pls
3450 3206 Pls
3879 3362 Pls
4343 3468 Pls
3768 3150 Pls
3640 3074 Pls
3583 3237 Pls
3483 3344 Pls
3879 3378 Pls
3919 3393 Pls
3640 3311 Pls
3529 3350 Pls
3738 3397 Pls
3529 3280 Pls
3919 3508 Pls
3617 3092 Pls
3455 3417 Pls
3529 3158 Pls
3640 3115 Pls
3919 3508 Pls
3696 3436 Pls
3265 3097 Pls
4104 3315 Pls
3344 3169 Pls
3261 3096 Pls
2675 2987 Pls
4343 3302 Pls
3432 3138 Pls
3919 3488 Pls
3529 3159 Pls
3193 2854 Pls
3640 3129 Pls
3193 3254 Pls
3617 3059 Pls
3696 3182 Pls
3089 3092 Pls
3768 3180 Pls
3529 3060 Pls
3738 3221 Pls
3529 3276 Pls
3529 3135 Pls
3127 3102 Pls
4343 3377 Pls
3119 3007 Pls
3738 3165 Pls
3649 3276 Pls
4343 3381 Pls
3768 3105 Pls
3423 3360 Pls
3655 3341 Pls
4104 3408 Pls
3432 3228 Pls
4047 3405 Pls
3432 3360 Pls
4104 3328 Pls
3768 3237 Pls
3529 3212 Pls
3640 3142 Pls
3879 3381 Pls
3544 3301 Pls
4104 3300 Pls
3617 3062 Pls
4343 3531 Pls
3184 3022 Pls
3919 3262 Pls
2880 2935 Pls
3640 3229 Pls
3529 3083 Pls
4047 3252 Pls
3640 3197 Pls
3919 3405 Pls
3529 3098 Pls
3193 3147 Pls
4047 3381 Pls
4104 3405 Pls
2770 3039 Pls
3825 3251 Pls
3768 3439 Pls
3919 3156 Pls
3768 3108 Pls
4047 3299 Pls
3237 3307 Pls
3393 3102 Pls
3768 3004 Pls
3696 3300 Pls
3432 3201 Pls
3919 3393 Pls
3919 3531 Pls
3640 3157 Pls
3640 3256 Pls
3640 3310 Pls
3617 3267 Pls
3768 3297 Pls
3768 3345 Pls
3332 3057 Pls
3529 3177 Pls
3529 3320 Pls
3344 3237 Pls
3768 3376 Pls
3332 3077 Pls
3511 3156 Pls
3738 3294 Pls
3904 3175 Pls
3768 3502 Pls
3919 3375 Pls
3896 3200 Pls
3640 3310 Pls
3696 3219 Pls
3768 3393 Pls
4158 3410 Pls
3919 3445 Pls
3463 3359 Pls
3432 3126 Pls
3768 3059 Pls
3825 3220 Pls
3738 3471 Pls
3483 3384 Pls
3919 3331 Pls
3768 3251 Pls
4047 3391 Pls
3432 3194 Pls
3640 3276 Pls
3879 3441 Pls
3738 3357 Pls
4047 3215 Pls
3649 3407 Pls
3640 3021 Pls
3879 3397 Pls
3768 3180 Pls
3344 3109 Pls
3919 3182 Pls
3304 3344 Pls
3768 3323 Pls
3193 3213 Pls
3768 3355 Pls
3416 3158 Pls
3065 3147 Pls
4528 3461 Pls
3640 3023 Pls
3879 3229 Pls
3919 3303 Pls
3432 3290 Pls
3241 3281 Pls
3617 3167 Pls
3919 3096 Pls
3919 3461 Pls
3919 3133 Pls
3393 3434 Pls
3529 3114 Pls
3834 3376 Pls
3511 3339 Pls
3529 3366 Pls
4104 3334 Pls
3255 3083 Pls
3640 3077 Pls
3529 3397 Pls
3879 3116 Pls
3919 3317 Pls
3825 3254 Pls
3919 3344 Pls
4104 3355 Pls
3511 3177 Pls
3919 3312 Pls
4255 3376 Pls
3919 3425 Pls
4104 3373 Pls
4383 3318 Pls
3529 3426 Pls
3640 3369 Pls
3617 3173 Pls
3879 3067 Pls
3768 3168 Pls
4104 3282 Pls
4104 3215 Pls
3393 3420 Pls
3768 3169 Pls
3640 3303 Pls
3879 3142 Pls
3110 3187 Pls
3768 3090 Pls
3416 2971 Pls
4343 3344 Pls
4104 3362 Pls
3649 3116 Pls
4047 3142 Pls
3137 3098 Pls
3617 3147 Pls
3768 3329 Pls
3344 3292 Pls
3919 3108 Pls
3696 3393 Pls
3265 2892 Pls
3825 3407 Pls
4104 3369 Pls
3529 3100 Pls
3432 3295 Pls
4343 3373 Pls
3344 3190 Pls
3529 3276 Pls
3738 3155 Pls
3649 3406 Pls
3640 3285 Pls
3344 3040 Pls
4104 3417 Pls
3529 3077 Pls
3432 3286 Pls
3432 3196 Pls
3640 3184 Pls
3344 3033 Pls
3640 3169 Pls
4104 3508 Pls
3768 3473 Pls
3768 3167 Pls
3919 3348 Pls
2921 3051 Pls
3288 2975 Pls
3640 3240 Pls
2781 3040 Pls
3344 2936 Pls
3768 3253 Pls
3529 3252 Pls
3065 3134 Pls
3127 3159 Pls
3450 3216 Pls
3344 3258 Pls
4104 3247 Pls
3271 2961 Pls
3919 3473 Pls
3768 3126 Pls
3768 3215 Pls
3768 3171 Pls
3768 3291 Pls
3919 3408 Pls
3768 3344 Pls
3193 3117 Pls
3432 2993 Pls
3265 2916 Pls
3649 3190 Pls
3617 3210 Pls
2599 2890 Pls
3768 3025 Pls
4343 3336 Pls
3184 3248 Pls
3640 3240 Pls
3919 3226 Pls
3602 3236 Pls
3738 3191 Pls
3265 2938 Pls
3640 3088 Pls
3879 3434 Pls
3265 3119 Pls
3919 3290 Pls
4104 3210 Pls
4343 3276 Pls
4104 3097 Pls
3529 3245 Pls
2940 2928 Pls
3393 3344 Pls
3602 3114 Pls
3583 3198 Pls
3265 3144 Pls
3529 3190 Pls
3640 3079 Pls
3919 3247 Pls
3047 3243 Pls
4255 3276 Pls
4104 3154 Pls
3768 3112 Pls
3056 2971 Pls
4104 3531 Pls
3919 3336 Pls
3825 3251 Pls
3255 3254 Pls
3768 3442 Pls
3193 3135 Pls
3450 3060 Pls
3504 3193 Pls
3919 3262 Pls
3768 3450 Pls
3344 3215 Pls
3265 3117 Pls
3640 3117 Pls
3640 3186 Pls
3529 3290 Pls
3583 3329 Pls
3344 3182 Pls
3529 3067 Pls
3640 3190 Pls
3768 3213 Pls
3617 3193 Pls
3583 3156 Pls
3529 3114 Pls
3879 3425 Pls
3768 3127 Pls
3768 3471 Pls
3640 3252 Pls
4255 3508 Pls
3193 3113 Pls
3529 3276 Pls
3193 3153 Pls
4104 3105 Pls
3529 3093 Pls
2899 3210 Pls
3919 3171 Pls
3344 3061 Pls
3312 3161 Pls
3511 3249 Pls
3344 3198 Pls
3617 3366 Pls
4047 3393 Pls
3432 3219 Pls
3529 3264 Pls
4104 3300 Pls
3696 3300 Pls
3550 3426 Pls
3768 3471 Pls
3640 3031 Pls
3919 3067 Pls
2873 2987 Pls
3529 3073 Pls
4104 3202 Pls
4343 3276 Pls
3483 3243 Pls
3432 3166 Pls
3583 3238 Pls
3768 3161 Pls
3640 3041 Pls
3127 3114 Pls
3738 3369 Pls
3879 3259 Pls
4158 3407 Pls
3483 3155 Pls
3640 3323 Pls
3432 3219 Pls
3344 3276 Pls
4343 3291 Pls
4383 3331 Pls
3640 3119 Pls
3574 3150 Pls
3265 3121 Pls
3529 3211 Pls
3953 3319 Pls
3738 3058 Pls
3583 3228 Pls
4255 3318 Pls
3640 3381 Pls
3529 3323 Pls
3237 3074 Pls
3432 3192 Pls
3879 3172 Pls
4104 3457 Pls
3511 3458 Pls
3483 3307 Pls
3879 3261 Pls
4047 3471 Pls
4064 3336 Pls
4104 3247 Pls
3008 3063 Pls
3768 3276 Pls
3738 3090 Pls
3825 3259 Pls
3529 3445 Pls
4104 3167 Pls
3529 3136 Pls
3529 3288 Pls
3919 3408 Pls
3144 3048 Pls
3416 3153 Pls
3617 3006 Pls
3511 3300 Pls
3529 3026 Pls
3344 3229 Pls
4104 3417 Pls
3919 3441 Pls
3919 3276 Pls
3265 3132 Pls
2938 2955 Pls
3825 3218 Pls
4104 3425 Pls
3416 3245 Pls
3738 3300 Pls
4255 3247 Pls
3344 3338 Pls
3919 3347 Pls
3640 3125 Pls
3640 3220 Pls
4255 3315 Pls
3184 3225 Pls
3696 3100 Pls
3649 3097 Pls
3511 3107 Pls
2849 3098 Pls
4255 3276 Pls
3529 3248 Pls
3529 2964 Pls
3640 3193 Pls
3393 3245 Pls
3432 3086 Pls
3640 3461 Pls
3768 3140 Pls
3919 3425 Pls
3106 2943 Pls
3288 2949 Pls
4679 3531 Pls
3768 3076 Pls
3768 3320 Pls
3738 3249 Pls
3432 3238 Pls
3529 3180 Pls
4104 3488 Pls
4158 3215 Pls
4047 3136 Pls
3529 3226 Pls
3344 3135 Pls
3504 3447 Pls
3768 3417 Pls
3344 2990 Pls
3640 3236 Pls
3511 3077 Pls
3583 3112 Pls
3344 3042 Pls
3640 3417 Pls
3825 3282 Pls
3058 2940 Pls
3768 3199 Pls
4104 3189 Pls
4255 3517 Pls
3640 3331 Pls
3640 3055 Pls
3416 2989 Pls
3640 3118 Pls
3344 2958 Pls
3640 3252 Pls
4047 3276 Pls
3640 3046 Pls
3432 3276 Pls
3127 3002 Pls
3483 3048 Pls
4343 3334 Pls
4104 3405 Pls
3919 3304 Pls
4104 3252 Pls
3879 3159 Pls
3919 3240 Pls
3919 3362 Pls
3529 3064 Pls
3265 3169 Pls
3904 3080 Pls
3768 3194 Pls
3768 3471 Pls
3529 3320 Pls
3738 3457 Pls
3640 3003 Pls
3544 3272 Pls
3529 3357 Pls
3919 3376 Pls
3640 3210 Pls
3738 2995 Pls
3237 3010 Pls
3344 3088 Pls
3529 3258 Pls
4104 3350 Pls
3193 3053 Pls
4104 3265 Pls
3640 3226 Pls
4158 3391 Pls
3332 3063 Pls
3768 3327 Pls
4343 3398 Pls
3738 3312 Pls
3919 3312 Pls
3768 3226 Pls
4047 3531 Pls
3640 3270 Pls
3529 3291 Pls
3255 3208 Pls
3529 3345 Pls
3529 3508 Pls
3432 3253 Pls
3768 3093 Pls
3919 3168 Pls
3416 3253 Pls
3529 3189 Pls
3640 3025 Pls
3768 3356 Pls
3640 3244 Pls
4047 3318 Pls
3529 3315 Pls
3919 3318 Pls
4343 3276 Pls
3919 3300 Pls
3169 3175 Pls
4104 3300 Pls
3432 3067 Pls
3696 3199 Pls
3976 3376 Pls
3047 3019 Pls
3529 3243 Pls
3529 2979 Pls
3976 3323 Pls
3640 3270 Pls
3193 3077 Pls
3450 3375 Pls
3976 3226 Pls
3825 3484 Pls
3529 3303 Pls
3432 3049 Pls
3768 3448 Pls
3058 3109 Pls
3834 3475 Pls
3255 3136 Pls
3301 3222 Pls
3768 3226 Pls
3825 3407 Pls
3312 3026 Pls
4255 3381 Pls
3768 3441 Pls
3919 3210 Pls
3919 3362 Pls
3529 3089 Pls
3529 3193 Pls
3344 3229 Pls
3529 3074 Pls
3879 3213 Pls
3768 3158 Pls
4343 3439 Pls
3265 2866 Pls
3768 3387 Pls
3265 3295 Pls
3768 3155 Pls
4343 3377 Pls
3511 3229 Pls
3649 3258 Pls
3640 3161 Pls
3159 3317 Pls
3344 3155 Pls
3640 3348 Pls
3768 3286 Pls
3768 3320 Pls
2958 2972 Pls
3919 3432 Pls
3483 2986 Pls
3529 2945 Pls
3879 3369 Pls
3265 3182 Pls
3768 3331 Pls
3919 3265 Pls
3344 3024 Pls
3432 3219 Pls
3617 3352 Pls
3834 3174 Pls
3696 3258 Pls
3344 2984 Pls
3344 3357 Pls
3002 3203 Pls
3919 3203 Pls
3617 3049 Pls
3879 3285 Pls
3919 3288 Pls
3919 3377 Pls
3640 3153 Pls
2801 3086 Pls
3825 3329 Pls
3432 3307 Pls
3529 3026 Pls
3919 3291 Pls
3529 3232 Pls
3432 3232 Pls
3919 3180 Pls
3529 3126 Pls
3193 3084 Pls
4064 3410 Pls
4047 3098 Pls
3312 3182 Pls
3738 3366 Pls
3640 3096 Pls
3640 3357 Pls
3919 3405 Pls
3193 3188 Pls
3065 2781 Pls
3919 3276 Pls
3617 3344 Pls
3529 3177 Pls
3265 3091 Pls
3483 3378 Pls
3065 3053 Pls
3640 3417 Pls
3344 3228 Pls
4047 3375 Pls
3768 3168 Pls
3529 3133 Pls
3511 3251 Pls
3529 3116 Pls
3825 3193 Pls
3529 3276 Pls
3768 3252 Pls
4343 3460 Pls
3768 3377 Pls
3919 3331 Pls
3450 3027 Pls
3738 3329 Pls
3768 3408 Pls
3768 3290 Pls
3335 3188 Pls
3127 3135 Pls
4343 3531 Pls
3640 3028 Pls
3640 3439 Pls
3432 3149 Pls
3511 3397 Pls
3511 3067 Pls
3768 3252 Pls
3432 3348 Pls
3879 3304 Pls
3529 3165 Pls
4343 3317 Pls
3084 2862 Pls
4104 3315 Pls
3344 3219 Pls
3344 3210 Pls
3344 3286 Pls
3640 3240 Pls
3768 3344 Pls
3332 3169 Pls
3834 3058 Pls
3768 3264 Pls
3529 3140 Pls
3768 3292 Pls
3265 3147 Pls
3193 3213 Pls
3640 3311 Pls
3169 2973 Pls
3872 3398 Pls
3879 3417 Pls
3529 3142 Pls
3919 3247 Pls
3649 3184 Pls
4104 3217 Pls
3529 3292 Pls
3602 3112 Pls
3529 3080 Pls
4064 3192 Pls
3768 3345 Pls
3825 3276 Pls
3335 2964 Pls
3879 3300 Pls
3640 3264 Pls
3696 3264 Pls
4104 3199 Pls
3529 3439 Pls
3919 3103 Pls
3919 3393 Pls
4104 3484 Pls
3919 3282 Pls
4104 3304 Pls
3178 3190 Pls
3344 3332 Pls
3919 3393 Pls
3640 3356 Pls
3768 3239 Pls
3640 3381 Pls
4343 3457 Pls
3193 2964 Pls
3696 3357 Pls
3879 3362 Pls
3432 3189 Pls
3529 3162 Pls
3640 3463 Pls
3768 3262 Pls
3193 3182 Pls
3738 3200 Pls
3768 3135 Pls
4104 3288 Pls
3193 3158 Pls
3879 3417 Pls
3423 3312 Pls
3483 3213 Pls
4104 3488 Pls
3432 3329 Pls
3529 3125 Pls
3976 3023 Pls
4343 3391 Pls
3432 3267 Pls
3617 3149 Pls
3640 3226 Pls
3919 3149 Pls
3529 3071 Pls
3879 3203 Pls
3768 3201 Pls
3511 3063 Pls
3738 3306 Pls
3380 2955 Pls
3184 3147 Pls
3640 3239 Pls
4528 3457 Pls
3529 3018 Pls
3768 3347 Pls
4104 3201 Pls
3768 3165 Pls
3432 3312 Pls
3768 3167 Pls
3432 3208 Pls
3640 3193 Pls
3432 3087 Pls
3768 3291 Pls
3617 3152 Pls
3768 3089 Pls
3904 3243 Pls
3617 3471 Pls
3640 3051 Pls
4343 3393 Pls
3696 3084 Pls
2857 2793 Pls
3657 3344 Pls
3617 3320 Pls
3432 3200 Pls
4047 3057 Pls
3416 3261 Pls
3640 3391 Pls
3617 3244 Pls
3640 3391 Pls
3879 3264 Pls
3919 3199 Pls
4104 3320 Pls
3309 3227 Pls
3768 3284 Pls
3768 3299 Pls
3265 3147 Pls
3976 3128 Pls
3919 3173 Pls
3919 3276 Pls
3529 3397 Pls
3511 3177 Pls
3332 3159 Pls
3640 3315 Pls
3640 3105 Pls
3265 3065 Pls
3432 3403 Pls
3976 3362 Pls
3696 2979 Pls
3127 3243 Pls
3237 3339 Pls
4104 3210 Pls
3919 3425 Pls
3768 3288 Pls
3768 3376 Pls
3976 3432 Pls
3416 3120 Pls
3393 3194 Pls
3529 3384 Pls
3655 3243 Pls
3768 3128 Pls
4047 3502 Pls
4104 3180 Pls
3432 3205 Pls
3640 3213 Pls
3344 3080 Pls
4104 3282 Pls
3529 3331 Pls
3137 3004 Pls
3416 3423 Pls
3768 3140 Pls
3583 3283 Pls
3169 3143 Pls
3640 3160 Pls
3976 3158 Pls
3411 3307 Pls
3904 3405 Pls
3234 2934 Pls
3241 3153 Pls
3216 3254 Pls
3184 3135 Pls
3768 3437 Pls
3263 3255 Pls
3919 3265 Pls
3237 3004 Pls
3640 3329 Pls
2899 3061 Pls
3344 3427 Pls
3184 3190 Pls
3768 3264 Pls
3193 3142 Pls
3919 3264 Pls
3602 3193 Pls
3032 2973 Pls
3834 3160 Pls
3768 3510 Pls
3696 3448 Pls
4255 3276 Pls
4047 3355 Pls
3432 3136 Pls
3768 3155 Pls
3696 3284 Pls
3879 3383 Pls
3617 3286 Pls
3919 3461 Pls
3768 3336 Pls
3511 3184 Pls
4104 3495 Pls
2959 3109 Pls
3919 3329 Pls
3344 3198 Pls
3234 3260 Pls
4255 3222 Pls
3640 3288 Pls
3768 3304 Pls
3483 3063 Pls
3640 3312 Pls
3919 3276 Pls
4343 3457 Pls
3640 3419 Pls
3919 3457 Pls
3617 3182 Pls
3919 3531 Pls
3768 3137 Pls
4343 3531 Pls
3617 3230 Pls
4255 3299 Pls
2964 2841 Pls
3919 3100 Pls
3617 3276 Pls
3768 3205 Pls
3689 3245 Pls
3089 3014 Pls
3344 3190 Pls
3193 3134 Pls
3483 3125 Pls
3919 3408 Pls
3640 3108 Pls
3976 3248 Pls
3432 3198 Pls
4343 3331 Pls
4528 3502 Pls
3640 3149 Pls
3617 3376 Pls
3696 3345 Pls
3768 3105 Pls
3768 3025 Pls
3689 3332 Pls
3768 3226 Pls
3209 3014 Pls
3529 3167 Pls
3344 3303 Pls
3879 3436 Pls
3432 3021 Pls
3529 3108 Pls
3617 3244 Pls
3768 3334 Pls
3768 3517 Pls
3432 3011 Pls
3768 3331 Pls
3127 3221 Pls
3919 3259 Pls
3554 3312 Pls
3344 3113 Pls
3344 3364 Pls
3393 2897 Pls
3265 3093 Pls
4047 3484 Pls
3640 3249 Pls
3344 3001 Pls
4158 3405 Pls
3640 3015 Pls
3617 3200 Pls
3529 3157 Pls
3768 3489 Pls
3825 3262 Pls
3768 3404 Pls
3483 3042 Pls
3002 3078 Pls
3640 3106 Pls
3529 2948 Pls
3872 3375 Pls
3919 3334 Pls
3583 3228 Pls
3768 3240 Pls
4047 3441 Pls
3919 3417 Pls
3304 3155 Pls
4104 3473 Pls
3919 3262 Pls
4104 3232 Pls
3825 3220 Pls
3738 3387 Pls
3640 3276 Pls
3919 3291 Pls
3976 3112 Pls
3529 3096 Pls
4343 3441 Pls
3583 3393 Pls
3344 3383 Pls
3768 3418 Pls
3344 3368 Pls
3768 3203 Pls
3216 3318 Pls
3193 3058 Pls
3393 3200 Pls
3058 3046 Pls
3288 3171 Pls
3879 3135 Pls
4104 3345 Pls
3432 3155 Pls
3117 3328 Pls
3738 3210 Pls
3065 2921 Pls
3483 3198 Pls
3583 3300 Pls
3432 3026 Pls
3768 3036 Pls
3127 3041 Pls
3008 3190 Pls
3738 3318 Pls
3768 3291 Pls
4104 3419 Pls
3550 3270 Pls
3583 3286 Pls
3529 3285 Pls
3529 3048 Pls
3344 3265 Pls
3919 3425 Pls
3432 3221 Pls
3432 3202 Pls
3640 3085 Pls
3640 3124 Pls
3529 3205 Pls
2624 2935 Pls
3432 3063 Pls
3265 3316 Pls
3127 3171 Pls
3344 3153 Pls
3640 3230 Pls
3483 3102 Pls
3288 3032 Pls
2718 2912 Pls
3879 3222 Pls
3432 3225 Pls
3640 3184 Pls
3344 3184 Pls
3416 3198 Pls
3529 3345 Pls
3344 3138 Pls
3919 3383 Pls
3344 2901 Pls
4104 3198 Pls
3919 3232 Pls
4343 3391 Pls
3738 3259 Pls
3529 3190 Pls
3919 3373 Pls
3919 3300 Pls
3617 3124 Pls
2845 2983 Pls
4104 3391 Pls
3554 3270 Pls
4158 3408 Pls
3768 3190 Pls
3432 3074 Pls
3583 3360 Pls
4047 3393 Pls
3344 3192 Pls
3504 3108 Pls
2990 3057 Pls
3483 3161 Pls
3738 3210 Pls
3768 3020 Pls
3583 3157 Pls
3738 3303 Pls
3768 3300 Pls
3383 3056 Pls
4104 3158 Pls
4104 3315 Pls
3265 3042 Pls
3432 3106 Pls
3432 3315 Pls
4104 3531 Pls
3529 3067 Pls
3768 3199 Pls
3919 3458 Pls
4047 3103 Pls
3511 3136 Pls
3265 3261 Pls
3529 3125 Pls
3344 3219 Pls
3432 3258 Pls
3365 3077 Pls
4104 3434 Pls
3919 3140 Pls
3529 3197 Pls
3529 3144 Pls
2693 2946 Pls
3919 3531 Pls
4343 3373 Pls
3529 3060 Pls
3529 3233 Pls
3768 3495 Pls
4047 3339 Pls
3127 3030 Pls
4104 3531 Pls
3617 3286 Pls
3432 3023 Pls
3879 3208 Pls
3919 3213 Pls
4528 3484 Pls
3768 3249 Pls
3640 3300 Pls
4104 3230 Pls
3976 3393 Pls
4047 3446 Pls
3696 3276 Pls
3919 3373 Pls
4104 3441 Pls
3768 3109 Pls
3450 3157 Pls
4104 3355 Pls
3344 3040 Pls
3919 3265 Pls
3344 3136 Pls
3738 3366 Pls
3423 3294 Pls
3117 2985 Pls
3265 3276 Pls
3768 3276 Pls
3738 3294 Pls
3344 3228 Pls
4158 3476 Pls
3265 2913 Pls
3919 3300 Pls
3407 3239 Pls
3768 3264 Pls
3084 2966 Pls
3432 3184 Pls
3332 3378 Pls
4104 3236 Pls
3617 3301 Pls
3529 3531 Pls
3344 3206 Pls
4047 3347 Pls
3265 3102 Pls
3193 3301 Pls
3529 3366 Pls
3529 3144 Pls
3640 3091 Pls
3184 3128 Pls
3768 3428 Pls
3640 3202 Pls
4158 3357 Pls
3416 3198 Pls
3265 3322 Pls
3265 3318 Pls
3738 3310 Pls
3976 3300 Pls
3432 3190 Pls
3432 3375 Pls
4158 3366 Pls
3919 3384 Pls
3976 3155 Pls
3416 3129 Pls
3768 3329 Pls
3919 3323 Pls
3640 3154 Pls
2519 2782 Pls
3768 3059 Pls
3432 3371 Pls
2868 2996 Pls
3344 2901 Pls
3640 3104 Pls
3696 3126 Pls
3617 3292 Pls
3344 3245 Pls
3768 3357 Pls
3193 3059 Pls
3265 3254 Pls
3640 3181 Pls
3265 3312 Pls
3538 3149 Pls
3127 3197 Pls
4343 3360 Pls
4104 3425 Pls
3483 3271 Pls
3919 3334 Pls
3432 3344 Pls
3768 3432 Pls
3184 3001 Pls
3919 3531 Pls
3879 3215 Pls
3265 3300 Pls
3696 3155 Pls
3640 3172 Pls
3483 3149 Pls
3432 3165 Pls
3738 3201 Pls
4104 3133 Pls
3288 2995 Pls
4047 3142 Pls
3529 2987 Pls
3423 3283 Pls
3529 3128 Pls
3032 3120 Pls
3768 3161 Pls
3184 3155 Pls
3640 3202 Pls
3640 3199 Pls
2911 3197 Pls
3768 3062 Pls
3617 3063 Pls
3504 3263 Pls
3312 3011 Pls
4047 3454 Pls
3617 3184 Pls
3696 3092 Pls
3312 2994 Pls
3416 3092 Pls
3768 3129 Pls
3640 3288 Pls
3380 3314 Pls
4104 3380 Pls
3304 3289 Pls
4104 3192 Pls
3529 3249 Pls
3455 3142 Pls
3768 3185 Pls
3272 3258 Pls
3640 3186 Pls
2904 3112 Pls
3483 3149 Pls
3008 2980 Pls
4158 3249 Pls
3919 3458 Pls
3640 3105 Pls
3529 3377 Pls
3529 3228 Pls
2966 3211 Pls
3432 3166 Pls
3450 3085 Pls
3265 3276 Pls
3432 3330 Pls
3640 3226 Pls
3879 3345 Pls
3919 3249 Pls
3432 3259 Pls
3640 3098 Pls
3768 3184 Pls
3416 3363 Pls
3344 3045 Pls
3432 3267 Pls
3768 3254 Pls
3529 3135 Pls
3919 3395 Pls
3768 3210 Pls
3821 2987 Pls
3976 3258 Pls
4158 3282 Pls
3344 3384 Pls
3193 2871 Pls
2757 3048 Pls
3432 3124 Pls
2868 2925 Pls
3919 3357 Pls
3432 3180 Pls
3416 3083 Pls
3768 3362 Pls
3640 3248 Pls
3649 3269 Pls
3432 2946 Pls
3696 3334 Pls
3919 3317 Pls
3768 3142 Pls
4104 3391 Pls
3432 3183 Pls
3768 3091 Pls
4047 3297 Pls
3089 2992 Pls
3193 3003 Pls
4104 3162 Pls
3919 3391 Pls
3919 3067 Pls
3768 3331 Pls
4047 3434 Pls
3768 3291 Pls
3529 3167 Pls
4104 3336 Pls
3617 3121 Pls
4104 3508 Pls
3117 3108 Pls
3432 3230 Pls
3583 3357 Pls
3768 3172 Pls
4104 3336 Pls
3265 3033 Pls
3640 3175 Pls
4104 3468 Pls
4255 3369 Pls
3640 3264 Pls
3768 3312 Pls
4255 3460 Pls
3919 3323 Pls
3529 3300 Pls
3529 3150 Pls
3640 3366 Pls
3432 3264 Pls
3529 3142 Pls
3175 3061 Pls
3640 3036 Pls
3768 3334 Pls
3919 3312 Pls
3299 2978 Pls
3483 3194 Pls
2949 3249 Pls
3432 3155 Pls
3455 3247 Pls
3919 3366 Pls
3529 3455 Pls
3879 3142 Pls
3768 3213 Pls
4104 3276 Pls
2904 3171 Pls
4047 3347 Pls
3696 3102 Pls
4343 3288 Pls
3255 3150 Pls
3640 3393 Pls
3919 3282 Pls
3640 3228 Pls
3529 3450 Pls
3879 3267 Pls
3617 3159 Pls
3768 3362 Pls
3529 3195 Pls
3423 3188 Pls
3483 3115 Pls
3193 3043 Pls
3617 3270 Pls
3184 3113 Pls
3976 3198 Pls
2854 3092 Pls
3711 3165 Pls
3127 2810 Pls
2808 2619 Pls
3047 2935 Pls
3265 3198 Pls
3216 3165 Pls
3617 3220 Pls
3529 3072 Pls
3344 3239 Pls
3768 3103 Pls
2813 3053 Pls
3768 3356 Pls
2914 3142 Pls
3768 3267 Pls
3529 3001 Pls
3711 3057 Pls
4104 3147 Pls
3825 3270 Pls
2955 3076 Pls
3529 3193 Pls
3768 3063 Pls
3640 3180 Pls
3583 3312 Pls
3640 3236 Pls
3344 3228 Pls
3432 3254 Pls
4343 3441 Pls
3344 3180 Pls
3768 3156 Pls
3529 3091 Pls
3976 3270 Pls
3768 3130 Pls
3768 3260 Pls
3640 3407 Pls
3265 3208 Pls
2845 3090 Pls
3583 3015 Pls
4047 3270 Pls
3738 3215 Pls
3127 3131 Pls
3904 3356 Pls
3640 3369 Pls
3738 3252 Pls
3617 3227 Pls
3255 3160 Pls
3344 3006 Pls
4528 3457 Pls
4104 3248 Pls
3529 3137 Pls
3193 2985 Pls
3919 3373 Pls
3416 3398 Pls
3640 3075 Pls
3529 3307 Pls
3344 3230 Pls
3768 3228 Pls
3529 3300 Pls
3529 3119 Pls
3640 3226 Pls
4158 3368 Pls
3432 3053 Pls
3119 3213 Pls
4158 3267 Pls
3344 3011 Pls
3768 3405 Pls
3332 3035 Pls
3432 3230 Pls
4104 3395 Pls
3432 3071 Pls
3919 3145 Pls
3529 3016 Pls
3529 3270 Pls
3529 3167 Pls
3602 3276 Pls
3738 3251 Pls
4047 3107 Pls
3825 3174 Pls
3768 3445 Pls
3288 3135 Pls
4679 3531 Pls
3919 3276 Pls
4047 3461 Pls
3919 3373 Pls
3344 3251 Pls
3344 3155 Pls
3976 3384 Pls
2940 2988 Pls
4104 3282 Pls
3768 3091 Pls
3169 3059 Pls
4047 3150 Pls
3508 3409 Pls
4255 3405 Pls
3432 3320 Pls
3085 2820 Pls
4047 3139 Pls
3768 3427 Pls
3640 3457 Pls
3640 3084 Pls
3529 3343 Pls
3768 3383 Pls
3919 3240 Pls
4064 3096 Pls
4343 3495 Pls
2766 2995 Pls
3879 3180 Pls
3047 3026 Pls
4104 3425 Pls
3738 3031 Pls
3768 3248 Pls
4255 3357 Pls
3432 3248 Pls
4104 3247 Pls
2992 2899 Pls
4679 3531 Pls
3119 3317 Pls
3640 3471 Pls
3919 3368 Pls
4104 3381 Pls
3768 3369 Pls
3640 3259 Pls
3919 3101 Pls
3919 3407 Pls
3738 2985 Pls
3640 3202 Pls
3065 2881 Pls
3037 3024 Pls
3432 3336 Pls
3738 3125 Pls
4104 3357 Pls
4255 3248 Pls
3344 3200 Pls
3640 3133 Pls
3879 3502 Pls
3432 3276 Pls
3919 3446 Pls
3640 3219 Pls
4255 3318 Pls
3529 3020 Pls
4158 3531 Pls
3617 3357 Pls
3738 3419 Pls
3640 3136 Pls
3640 3158 Pls
3583 3236 Pls
3768 3369 Pls
3344 3232 Pls
3640 3190 Pls
3432 3094 Pls
3312 3165 Pls
3738 3280 Pls
3312 3139 Pls
3344 3114 Pls
3879 3240 Pls
3738 3053 Pls
3919 3276 Pls
3184 3122 Pls
3919 3457 Pls
3265 3128 Pls
3768 3220 Pls
4343 3408 Pls
3511 3151 Pls
3529 3200 Pls
3529 3258 Pls
2795 3070 Pls
3919 3492 Pls
3335 3248 Pls
3768 3458 Pls
4047 3276 Pls
3919 3168 Pls
3919 3230 Pls
4104 3247 Pls
3529 3074 Pls
3640 3331 Pls
3432 2950 Pls
3919 3317 Pls
3393 3015 Pls
3976 3036 Pls
3344 3082 Pls
4143 3304 Pls
3065 2978 Pls
4343 3434 Pls
3529 2969 Pls
3640 3230 Pls
4343 3531 Pls
3602 3441 Pls
3432 3118 Pls
3143 2985 Pls
3265 3221 Pls
4104 3284 Pls
4104 3318 Pls
3904 3323 Pls
3919 3312 Pls
4343 3417 Pls
3511 3066 Pls
3432 3165 Pls
4104 3437 Pls
3365 3121 Pls
3640 3011 Pls
3768 3315 Pls
3265 3314 Pls
2798 2921 Pls
3768 3205 Pls
4064 3426 Pls
4343 3362 Pls
3919 3282 Pls
3768 3345 Pls
3738 3220 Pls
3825 3088 Pls
3312 3282 Pls
3193 3199 Pls
3617 3283 Pls
3344 3350 Pls
3168 2991 Pls
4104 3191 Pls
4343 3405 Pls
3640 3229 Pls
3265 3200 Pls
3768 3270 Pls
3617 3098 Pls
3768 3425 Pls
3529 3206 Pls
3919 3095 Pls
3255 3032 Pls
3265 2992 Pls
3529 3147 Pls
3529 3123 Pls
3640 3270 Pls
3184 3113 Pls
4104 3437 Pls
4255 3373 Pls
3825 3312 Pls
3529 3090 Pls
3640 3146 Pls
3432 3146 Pls
3825 3393 Pls
4255 3304 Pls
3919 3152 Pls
3529 3138 Pls
3919 3262 Pls
3312 3195 Pls
4343 3391 Pls
3265 2902 Pls
3529 3247 Pls
3312 3232 Pls
3640 3347 Pls
3344 3229 Pls
3416 3231 Pls
3904 3226 Pls
3119 3019 Pls
3640 3144 Pls
3265 3159 Pls
4047 3249 Pls
3640 3344 Pls
4104 3286 Pls
3416 3243 Pls
3511 3310 Pls
3529 3312 Pls
4528 3468 Pls
3768 3320 Pls
3529 3249 Pls
3511 3134 Pls
3426 3395 Pls
3344 3084 Pls
3640 3285 Pls
3529 3128 Pls
3529 3043 Pls
3705 3190 Pls
3344 3037 Pls
4104 3265 Pls
3640 3180 Pls
3919 3366 Pls
4047 3393 Pls
4047 3329 Pls
3919 3213 Pls
3738 3239 Pls
4343 3276 Pls
3312 3063 Pls
3602 3312 Pls
2823 2957 Pls
3030 3144 Pls
3738 3366 Pls
3696 3153 Pls
4104 3100 Pls
3502 3289 Pls
3919 3369 Pls
3919 3154 Pls
3529 3267 Pls
3768 3146 Pls
3696 3147 Pls
4104 3457 Pls
3640 3473 Pls
3768 3303 Pls
3825 3280 Pls
3768 3077 Pls
3265 3162 Pls
3768 3417 Pls
3416 3024 Pls
3065 3042 Pls
4343 3350 Pls
4104 3417 Pls
3640 3063 Pls
3919 3500 Pls
3768 3200 Pls
3879 3439 Pls
3168 3092 Pls
3768 3129 Pls
3127 3176 Pls
4158 3152 Pls
3511 3210 Pls
3640 3230 Pls
3432 2917 Pls
3529 3134 Pls
4104 3434 Pls
3738 3408 Pls
3127 3086 Pls
3432 3206 Pls
3432 3286 Pls
3193 3105 Pls
3879 3496 Pls
3640 3154 Pls
3879 3320 Pls
3193 3349 Pls
3617 3199 Pls
3768 3201 Pls
3768 3210 Pls
3344 2918 Pls
3976 3145 Pls
2940 3018 Pls
3919 3457 Pls
3640 3318 Pls
3655 3161 Pls
3365 3174 Pls
3768 3180 Pls
3432 3251 Pls
3335 3307 Pls
3216 3044 Pls
3640 3034 Pls
3529 2958 Pls
2857 3111 Pls
3265 3129 Pls
3544 3037 Pls
3640 3329 Pls
3344 3126 Pls
3190 3048 Pls
4047 3304 Pls
3265 3011 Pls
3640 3155 Pls
3344 3182 Pls
3768 3115 Pls
3768 3140 Pls
3312 3084 Pls
4104 3327 Pls
3529 3221 Pls
3879 3279 Pls
2801 2987 Pls
4104 3299 Pls
3529 3310 Pls
3265 3031 Pls
3655 3253 Pls
3193 3007 Pls
4104 3288 Pls
3315 3173 Pls
3640 3116 Pls
3432 3174 Pls
4158 3495 Pls
3768 3356 Pls
4104 3276 Pls
3483 3397 Pls
3919 3248 Pls
3332 3035 Pls
3738 3228 Pls
3649 3401 Pls
3768 3123 Pls
3265 3017 Pls
4255 3267 Pls
3193 3286 Pls
3640 3220 Pls
3344 3058 Pls
3919 3084 Pls
3261 3047 Pls
3879 3327 Pls
3432 3124 Pls
3919 3237 Pls
3255 3128 Pls
3825 3300 Pls
4104 3350 Pls
3583 3169 Pls
3976 3142 Pls
3193 3225 Pls
4104 3199 Pls
4255 3425 Pls
3919 3439 Pls
3265 3155 Pls
4047 3239 Pls
4104 3373 Pls
3768 3356 Pls
4104 3375 Pls
2990 3171 Pls
3696 3240 Pls
3768 3239 Pls
4104 3155 Pls
3344 3210 Pls
4047 3441 Pls
3529 3139 Pls
3583 3206 Pls
3504 3231 Pls
3640 3213 Pls
3919 3373 Pls
3768 3318 Pls
3919 3185 Pls
3393 3073 Pls
3879 3348 Pls
3265 3216 Pls
3919 3084 Pls
3768 3230 Pls
3640 3276 Pls
3919 3215 Pls
3879 3276 Pls
4104 3336 Pls
3511 3115 Pls
3640 3261 Pls
4343 3336 Pls
3919 3304 Pls
3432 2923 Pls
3432 3042 Pls
3919 3262 Pls
3255 3324 Pls
3976 3320 Pls
3919 3234 Pls
3432 3115 Pls
3241 3087 Pls
3365 3286 Pls
2857 3053 Pls
3511 3300 Pls
3919 3252 Pls
3529 3210 Pls
4158 3369 Pls
3640 3200 Pls
3265 3037 Pls
3529 2961 Pls
3649 3162 Pls
2757 3041 Pls
4158 3294 Pls
3127 3107 Pls
3529 3276 Pls
3344 3175 Pls
3768 3285 Pls
3344 3220 Pls
3416 3231 Pls
3768 3264 Pls
3738 3369 Pls
3768 3164 Pls
3919 3197 Pls
3344 3147 Pls
3529 3150 Pls
2878 2895 Pls
3529 3407 Pls
3583 3198 Pls
3008 2963 Pls
3432 2936 Pls
3529 3190 Pls
3529 3356 Pls
3312 3332 Pls
4255 3373 Pls
4104 3105 Pls
3919 3264 Pls
3383 3053 Pls
3529 3228 Pls
3879 3300 Pls
2899 3049 Pls
3288 3123 Pls
3879 3248 Pls
4104 3300 Pls
2760 3102 Pls
3640 3219 Pls
3879 3103 Pls
3511 3048 Pls
4104 3496 Pls
3640 3350 Pls
3416 3041 Pls
3511 3200 Pls
3234 3243 Pls
4158 3291 Pls
3332 3071 Pls
4343 3488 Pls
3193 3341 Pls
3919 3366 Pls
4047 3291 Pls
3879 3282 Pls
4104 3191 Pls
3332 3359 Pls
3583 3259 Pls
3209 3247 Pls
3450 3161 Pls
3193 2958 Pls
3529 3186 Pls
3265 3117 Pls
3919 3410 Pls
3768 3312 Pls
3529 3227 Pls
3529 3074 Pls
3255 3221 Pls
3151 3380 Pls
3178 3263 Pls
3529 3249 Pls
3432 3162 Pls
3768 3249 Pls
3483 3243 Pls
3344 3162 Pls
3344 3096 Pls
4158 3391 Pls
3529 3508 Pls
3602 3131 Pls
3879 3295 Pls
3108 3015 Pls
3738 3184 Pls
3640 3369 Pls
3640 3441 Pls
3084 2995 Pls
3332 3056 Pls
3393 3324 Pls
3976 3247 Pls
3332 3314 Pls
3919 3512 Pls
3483 3141 Pls
3640 3200 Pls
4104 3408 Pls
3071 3200 Pls
3738 3336 Pls
3365 3369 Pls
4104 3310 Pls
3768 3217 Pls
3738 3339 Pls
3919 3471 Pls
3768 3190 Pls
3529 3103 Pls
4158 3488 Pls
3255 3047 Pls
4047 3397 Pls
3432 3100 Pls
3432 3086 Pls
3432 3240 Pls
3768 3463 Pls
3265 3135 Pls
3304 3321 Pls
4343 3345 Pls
3919 3280 Pls
3919 3116 Pls
4104 3184 Pls
3450 3116 Pls
3768 3318 Pls
3768 3364 Pls
3696 3226 Pls
4104 3248 Pls
3976 3017 Pls
3919 3441 Pls
3432 3169 Pls
3768 3318 Pls
3768 3391 Pls
3432 3050 Pls
3529 3344 Pls
3919 3162 Pls
3529 3405 Pls
3768 3240 Pls
3640 3300 Pls
3768 3049 Pls
4255 3432 Pls
3193 3080 Pls
3529 3086 Pls
3511 3098 Pls
4047 3303 Pls
4255 3373 Pls
3432 3219 Pls
3255 3318 Pls
3193 3031 Pls
3896 3352 Pls
3432 3336 Pls
3768 3345 Pls
3976 3377 Pls
3738 3215 Pls
3047 3029 Pls
3919 3119 Pls
3919 3167 Pls
3919 3310 Pls
3432 3185 Pls
3511 2980 Pls
3529 3091 Pls
3265 3300 Pls
2955 2966 Pls
3511 3180 Pls
3511 3156 Pls
2997 3066 Pls
4104 3180 Pls
3529 3165 Pls
4104 3300 Pls
4104 3331 Pls
3127 2962 Pls
3265 2880 Pls
3879 3393 Pls
3834 3276 Pls
4104 3136 Pls
3332 3070 Pls
3265 3098 Pls
3919 3291 Pls
4104 3393 Pls
3879 3140 Pls
4047 3124 Pls
4104 3232 Pls
3768 3135 Pls
3432 3240 Pls
3529 3232 Pls
3768 3072 Pls
3919 3226 Pls
3265 3231 Pls
3193 3090 Pls
3344 3286 Pls
3511 3028 Pls
3834 3210 Pls
3416 3138 Pls
3529 3345 Pls
3602 3182 Pls
3768 3276 Pls
3193 3180 Pls
3879 3149 Pls
3030 3165 Pls
3529 3140 Pls
4255 3531 Pls
3768 3320 Pls
3768 3362 Pls
3768 3357 Pls
3825 3345 Pls
3768 3175 Pls
3265 3138 Pls
4104 3384 Pls
4047 3362 Pls
3919 3311 Pls
4104 3362 Pls
2904 3210 Pls
3127 3283 Pls
3529 3161 Pls
3768 3086 Pls
3640 3044 Pls
3265 3265 Pls
3529 3077 Pls
4343 3373 Pls
4255 3250 Pls
3529 3304 Pls
3640 3184 Pls
3529 3247 Pls
3976 3502 Pls
3976 3249 Pls
4104 3476 Pls
4104 3317 Pls
3265 3232 Pls
3629 3324 Pls
3463 3076 Pls
3529 3128 Pls
3065 2979 Pls
3583 3259 Pls
3241 2894 Pls
3919 3496 Pls
3919 3291 Pls
3393 2879 Pls
3288 3221 Pls
3879 3488 Pls
3529 3090 Pls
4047 3357 Pls
3602 3198 Pls
3919 3248 Pls
3544 3139 Pls
3529 3303 Pls
2949 3002 Pls
3768 3267 Pls
3640 3210 Pls
4343 3531 Pls
3544 2953 Pls
3332 3209 Pls
3344 3121 Pls
4047 3209 Pls
3738 3180 Pls
3432 3123 Pls
3768 3432 Pls
3432 3157 Pls
3640 3172 Pls
3335 3332 Pls
3825 3206 Pls
4343 3297 Pls
3738 3293 Pls
3237 2877 Pls
3416 3350 Pls
3432 3311 Pls
3450 3182 Pls
4047 3345 Pls
3768 3265 Pls
3529 3160 Pls
3416 3205 Pls
3463 3248 Pls
3640 3300 Pls
4047 3232 Pls
3768 3442 Pls
3344 3134 Pls
4047 3276 Pls
3602 3075 Pls
3738 3031 Pls
3879 3180 Pls
3184 3191 Pls
3768 3395 Pls
3738 3162 Pls
3265 3165 Pls
3768 3240 Pls
4104 3151 Pls
3640 3101 Pls
3338 3059 Pls
3504 3182 Pls
3919 3471 Pls
3919 3393 Pls
3919 3276 Pls
3768 3311 Pls
4047 3336 Pls
4104 3373 Pls
4104 3199 Pls
3529 3472 Pls
3768 3312 Pls
3825 3303 Pls
3919 3381 Pls
3768 3292 Pls
3617 3270 Pls
4047 3290 Pls
3265 3051 Pls
3529 3280 Pls
3834 3417 Pls
3768 3285 Pls
3738 3220 Pls
3640 3381 Pls
3335 3324 Pls
3529 3016 Pls
3640 3147 Pls
4047 3345 Pls
3312 3021 Pls
3432 3383 Pls
3450 3307 Pls
3640 3198 Pls
3065 3008 Pls
3768 3128 Pls
4104 3325 Pls
3432 3094 Pls
3738 3156 Pls
3738 3155 Pls
4343 3441 Pls
4047 3317 Pls
3432 3270 Pls
3919 3186 Pls
3768 3198 Pls
4343 3276 Pls
3640 3142 Pls
4047 3307 Pls
4104 3180 Pls
3640 3152 Pls
4255 3280 Pls
3617 3445 Pls
3768 3264 Pls
3640 3183 Pls
3904 3439 Pls
3919 3336 Pls
3919 3397 Pls
4104 3299 Pls
3640 3290 Pls
3919 3270 Pls
3738 3407 Pls
4104 3460 Pls
3617 3348 Pls
2942 2834 Pls
3768 3198 Pls
3529 3226 Pls
3919 3405 Pls
3640 3200 Pls
3511 3132 Pls
3344 3221 Pls
3617 3300 Pls
3265 2942 Pls
3919 3376 Pls
3432 3294 Pls
3919 3336 Pls
3432 3088 Pls
3768 3408 Pls
3768 3190 Pls
3529 3105 Pls
4104 3306 Pls
3432 3286 Pls
3344 3168 Pls
3416 3016 Pls
3919 3167 Pls
3879 3020 Pls
3169 3136 Pls
3768 3219 Pls
3640 3098 Pls
3583 3085 Pls
3432 3042 Pls
4104 3264 Pls
3463 2933 Pls
3332 3200 Pls
2940 2952 Pls
3711 3310 Pls
3450 3295 Pls
3879 3450 Pls
3432 3134 Pls
3583 3193 Pls
3768 3391 Pls
3640 3021 Pls
3344 3252 Pls
3483 3200 Pls
4343 3276 Pls
3768 3519 Pls
3529 3292 Pls
3768 3199 Pls
4104 3336 Pls
3879 3454 Pls
3432 3336 Pls
3834 3441 Pls
3738 3495 Pls
3696 3276 Pls
4047 3391 Pls
4047 3262 Pls
4104 3441 Pls
3602 3088 Pls
3919 3147 Pls
3919 3239 Pls
3237 3188 Pls
3768 3282 Pls
3117 3090 Pls
3432 3076 Pls
3529 3101 Pls
3640 3331 Pls
3976 3482 Pls
3265 3147 Pls
3711 3350 Pls
3511 3228 Pls
3738 3420 Pls
3071 3121 Pls
3768 3329 Pls
4104 3175 Pls
4104 3159 Pls
3640 3442 Pls
3432 3182 Pls
3483 3080 Pls
3738 3138 Pls
3919 3297 Pls
3583 3312 Pls
3432 2928 Pls
3529 3230 Pls
3640 3149 Pls
3332 3162 Pls
3768 3245 Pls
3265 3068 Pls
3738 3149 Pls
3976 3473 Pls
4255 3488 Pls
3416 3232 Pls
3640 3376 Pls
3529 3369 Pls
4104 3192 Pls
3640 3157 Pls
3919 3252 Pls
3919 3405 Pls
3879 3344 Pls
3919 3362 Pls
3617 3213 Pls
3640 3136 Pls
3065 3132 Pls
3919 3362 Pls
3344 3108 Pls
3768 3334 Pls
3640 3202 Pls
3640 3226 Pls
3919 3446 Pls
3738 3140 Pls
3344 3047 Pls
3344 3037 Pls
3879 3408 Pls
3032 3003 Pls
3529 3285 Pls
3919 3428 Pls
3529 3276 Pls
3919 3069 Pls
3544 3258 Pls
3617 3202 Pls
4047 3226 Pls
2978 3090 Pls
3483 3102 Pls
3416 3119 Pls
3640 3011 Pls
3768 3323 Pls
4343 3357 Pls
3834 3442 Pls
3711 3269 Pls
3272 3182 Pls
3640 3318 Pls
3265 3115 Pls
3529 3128 Pls
3879 3157 Pls
3919 3116 Pls
3617 3077 Pls
3919 3259 Pls
3344 3105 Pls
3768 3108 Pls
3529 3315 Pls
3919 3158 Pls
3738 3304 Pls
3919 3172 Pls
3261 3042 Pls
3127 3237 Pls
3640 3087 Pls
3640 3229 Pls
3919 3391 Pls
3879 3329 Pls
3640 3190 Pls
3640 3285 Pls
3529 3058 Pls
4064 3393 Pls
3696 3318 Pls
3511 3279 Pls
3919 3476 Pls
4255 3269 Pls
3738 3109 Pls
3037 3156 Pls
3640 3347 Pls
3768 3165 Pls
3265 3042 Pls
4104 3121 Pls
3768 3373 Pls
3106 2878 Pls
3919 3457 Pls
3919 3202 Pls
3432 3398 Pls
3976 3057 Pls
3617 3048 Pls
3511 3177 Pls
3332 3243 Pls
3504 3364 Pls
3450 2904 Pls
3879 3072 Pls
3768 3046 Pls
3383 3036 Pls
4047 3116 Pls
3919 3417 Pls
3511 3298 Pls
3640 3147 Pls
3344 3331 Pls
3640 3362 Pls
3432 3148 Pls
4343 3331 Pls
3265 3188 Pls
3640 3252 Pls
3768 3193 Pls
3640 3348 Pls
3768 3517 Pls
3529 3319 Pls
3504 3260 Pls
3529 3324 Pls
3432 3031 Pls
3640 3262 Pls
3768 3258 Pls
3738 3228 Pls
3344 3170 Pls
3432 3105 Pls
3272 3120 Pls
3344 3364 Pls
3738 2979 Pls
4047 3434 Pls
3640 3174 Pls
3768 3302 Pls
3640 3101 Pls
3312 3157 Pls
4104 3395 Pls
3738 3269 Pls
3617 3044 Pls
3304 3361 Pls
3393 3200 Pls
3344 3265 Pls
3529 3328 Pls
3521 3395 Pls
3432 3026 Pls
4104 3215 Pls
3511 3356 Pls
4343 3381 Pls
3432 3276 Pls
3919 3218 Pls
2955 2960 Pls
3344 3100 Pls
3640 3039 Pls
3008 3244 Pls
3237 3004 Pls
3397 3227 Pls
3529 2940 Pls
3919 3288 Pls
3768 3109 Pls
3344 3102 Pls
3529 3315 Pls
3655 3272 Pls
4255 3247 Pls
3879 3496 Pls
3529 3166 Pls
4343 3315 Pls
3640 3174 Pls
3432 3276 Pls
3450 3163 Pls
3768 3193 Pls
3529 3262 Pls
3738 3357 Pls
3640 3157 Pls
3919 3144 Pls
3879 3391 Pls
3344 3006 Pls
3344 3135 Pls
3640 3220 Pls
3583 3146 Pls
3640 3425 Pls
4143 3186 Pls
3529 3104 Pls
2751 2934 Pls
3879 3210 Pls
4343 3457 Pls
3919 3334 Pls
3554 3307 Pls
4104 3344 Pls
3529 2940 Pls
3825 3060 Pls
3753 3132 Pls
3919 3262 Pls
3649 3169 Pls
3463 3102 Pls
3504 3195 Pls
3416 3251 Pls
4047 3140 Pls
3265 3126 Pls
3768 3436 Pls
3738 3450 Pls
3106 3162 Pls
3529 2934 Pls
3529 3115 Pls
3583 2907 Pls
3919 3131 Pls
3617 3249 Pls
3508 3276 Pls
3768 3182 Pls
3255 3106 Pls
3216 3066 Pls
3879 3113 Pls
3919 3229 Pls
3879 3376 Pls
3919 3216 Pls
3640 3366 Pls
4104 3232 Pls
3529 3096 Pls
3483 2901 Pls
3583 3184 Pls
3312 3270 Pls
3738 3147 Pls
2895 2849 Pls
3504 3435 Pls
3640 3199 Pls
4383 3376 Pls
3768 3184 Pls
3879 3169 Pls
3825 3228 Pls
3879 3323 Pls
3768 3291 Pls
3432 3040 Pls
3768 3193 Pls
3640 3096 Pls
3768 3288 Pls
3432 3132 Pls
4064 3302 Pls
4104 3360 Pls
3919 3123 Pls
3879 3519 Pls
3640 3129 Pls
4104 3318 Pls
3919 3387 Pls
3344 3251 Pls
3768 3450 Pls
3919 3300 Pls
3904 3458 Pls
3696 3272 Pls
3193 3080 Pls
3738 3345 Pls
3332 3171 Pls
4255 3347 Pls
3617 2940 Pls
3216 3083 Pls
3344 3049 Pls
4158 3441 Pls
3919 3323 Pls
3640 3384 Pls
4343 3294 Pls
3529 3357 Pls
3265 3140 Pls
3529 3140 Pls
4158 3164 Pls
3825 3144 Pls
2899 3021 Pls
3738 3122 Pls
3127 3140 Pls
3312 3073 Pls
3529 3265 Pls
3332 3177 Pls
3640 3108 Pls
3432 3118 Pls
3344 2975 Pls
3919 3476 Pls
2933 2947 Pls
3432 3350 Pls
3768 3398 Pls
3463 3208 Pls
3768 3350 Pls
3640 3276 Pls
4104 3531 Pls
3640 3331 Pls
3265 3088 Pls
4528 3468 Pls
3193 3185 Pls
3919 3188 Pls
3529 3248 Pls
3216 3081 Pls
3416 3380 Pls
4104 3473 Pls
3738 3003 Pls
3344 3134 Pls
3089 3140 Pls
3583 3198 Pls
3649 3463 Pls
4104 3381 Pls
3554 3278 Pls
3255 3102 Pls
3834 3276 Pls
3649 3392 Pls
3919 3232 Pls
3768 3376 Pls
4104 3348 Pls
3768 3200 Pls
4343 3476 Pls
3640 3318 Pls
3768 3158 Pls
3617 3481 Pls
3799 3188 Pls
3583 3363 Pls
3216 2831 Pls
3768 3294 Pls
3640 3079 Pls
3511 3071 Pls
4047 3473 Pls
3332 3098 Pls
3919 3155 Pls
3463 3276 Pls
3511 3196 Pls
4104 3255 Pls
3768 3237 Pls
3919 3092 Pls
3640 3423 Pls
4104 3190 Pls
3393 3221 Pls
3511 3048 Pls
3768 3318 Pls
3919 3369 Pls
3193 3166 Pls
3879 3323 Pls
3432 3320 Pls
2877 3003 Pls
3825 3090 Pls
3529 3276 Pls
3432 3220 Pls
3617 3156 Pls
3265 2982 Pls
4255 3457 Pls
3768 3237 Pls
3640 3131 Pls
2892 3095 Pls
3288 3115 Pls
4104 3446 Pls
3432 3276 Pls
3008 3165 Pls
4047 3230 Pls
3127 3220 Pls
3617 3276 Pls
3825 3371 Pls
3344 3116 Pls
3432 3174 Pls
3919 3304 Pls
3696 3288 Pls
3768 3320 Pls
3432 3099 Pls
3919 3437 Pls
3919 3249 Pls
3432 3201 Pls
3768 3157 Pls
3265 3068 Pls
4158 3476 Pls
4104 3495 Pls
4104 3457 Pls
3344 3114 Pls
3432 3076 Pls
3344 2936 Pls
3432 3213 Pls
4383 3391 Pls
3344 3206 Pls
4255 3291 Pls
4383 3468 Pls
3617 3106 Pls
3768 3471 Pls
3216 3164 Pls
2904 3018 Pls
3904 3502 Pls
3768 3252 Pls
3344 3075 Pls
3416 3212 Pls
3359 3102 Pls
3344 3319 Pls
3879 3320 Pls
3879 3471 Pls
3117 3031 Pls
4047 3140 Pls
2958 2973 Pls
2986 3017 Pls
3529 3285 Pls
3821 3405 Pls
3976 3279 Pls
3879 3232 Pls
3483 3329 Pls
3640 3276 Pls
3380 3169 Pls
3529 3192 Pls
3617 3276 Pls
2172 2723 Pls
3738 3036 Pls
3483 3130 Pls
3738 3240 Pls
3738 3294 Pls
3879 3226 Pls
3583 3097 Pls
3432 3245 Pls
3261 3221 Pls
3344 3053 Pls
3529 3377 Pls
3919 3276 Pls
3768 3068 Pls
3529 3282 Pls
3432 3293 Pls
3768 3169 Pls
4255 3304 Pls
3768 3252 Pls
3119 3083 Pls
3919 3155 Pls
4255 3280 Pls
3583 3293 Pls
3193 3373 Pls
3640 3345 Pls
3344 3315 Pls
4047 3210 Pls
3529 3167 Pls
3344 3350 Pls
3511 3312 Pls
3768 3397 Pls
3617 3264 Pls
3058 3099 Pls
3825 3270 Pls
3738 3183 Pls
3640 3304 Pls
3529 3357 Pls
3617 3225 Pls
3640 3366 Pls
3432 3336 Pls
3919 3417 Pls
3511 3090 Pls
3919 3285 Pls
4343 3484 Pls
3768 3210 Pls
3919 3419 Pls
3738 3167 Pls
3640 3290 Pls
3504 3050 Pls
3169 2914 Pls
4343 3417 Pls
4104 3299 Pls
3768 3347 Pls
3738 3213 Pls
3193 3114 Pls
3768 3168 Pls
3423 3254 Pls
3879 3320 Pls
3768 3329 Pls
3193 2976 Pls
4047 3428 Pls
3529 3322 Pls
3529 3069 Pls
3511 3030 Pls
3919 3315 Pls
3344 3232 Pls
3640 3052 Pls
3879 3075 Pls
3711 3137 Pls
3416 3064 Pls
3529 3240 Pls
3504 3065 Pls
3529 3058 Pls
3640 3393 Pls
3696 2940 Pls
3237 3014 Pls
4343 3417 Pls
3753 3231 Pls
3919 3437 Pls
3825 3168 Pls
3919 3425 Pls
4343 3508 Pls
3583 3310 Pls
3529 3248 Pls
3344 3051 Pls
4047 3098 Pls
3365 3286 Pls
3344 3072 Pls
4047 3345 Pls
3879 3323 Pls
3265 3270 Pls
3148 3368 Pls
3879 3357 Pls
3879 3271 Pls
4104 3331 Pls
3834 3346 Pls
4064 3410 Pls
3879 3144 Pls
3768 3186 Pls
3705 3328 Pls
3768 3125 Pls
3432 2956 Pls
2857 3179 Pls
4104 3217 Pls
4158 3300 Pls
3583 3272 Pls
3976 3450 Pls
3640 3066 Pls
4343 3434 Pls
3738 3401 Pls
3265 3055 Pls
3529 3368 Pls
3193 3153 Pls
3738 3404 Pls
3529 3069 Pls
3919 3368 Pls
3640 3276 Pls
3529 3280 Pls
3640 3481 Pls
3255 3121 Pls
4255 3461 Pls
3344 3269 Pls
3432 3159 Pls
3127 3092 Pls
3768 3169 Pls
4104 3250 Pls
3450 3177 Pls
3768 3300 Pls
3768 3215 Pls
3216 3234 Pls
3617 3132 Pls
3768 3291 Pls
3738 3162 Pls
3529 3173 Pls
3193 2971 Pls
3896 3147 Pls
3529 3128 Pls
3504 2859 Pls
4343 3441 Pls
3768 3249 Pls
3511 3100 Pls
3432 3236 Pls
3365 3031 Pls
3261 3225 Pls
3381 3240 Pls
3463 3243 Pls
3529 3210 Pls
4255 3264 Pls
3738 3391 Pls
3432 3248 Pls
3702 3330 Pls
3529 3184 Pls
3768 3300 Pls
3529 3067 Pls
3879 3226 Pls
3640 3383 Pls
3879 3442 Pls
4104 3134 Pls
4047 3315 Pls
3583 3272 Pls
3529 3300 Pls
3696 3096 Pls
3976 3288 Pls
3416 3237 Pls
3825 3476 Pls
3879 3276 Pls
4047 3344 Pls
3768 3133 Pls
3432 3293 Pls
3216 3070 Pls
3640 3345 Pls
3640 3461 Pls
3919 3299 Pls
3904 3329 Pls
3529 3227 Pls
3696 3334 Pls
3432 3057 Pls
3237 3298 Pls
3711 3177 Pls
3193 3076 Pls
3416 3040 Pls
4047 3408 Pls
3696 2961 Pls
3617 3091 Pls
4343 3508 Pls
3508 3270 Pls
4104 3288 Pls
3184 3036 Pls
3919 3468 Pls
3416 3270 Pls
3529 3136 Pls
3640 3285 Pls
3617 3098 Pls
4158 3345 Pls
3919 3259 Pls
2857 3082 Pls
4343 3331 Pls
4104 3502 Pls
2955 3015 Pls
4255 3339 Pls
3344 3251 Pls
4047 3331 Pls
3640 3244 Pls
4343 3299 Pls
3184 3114 Pls
3879 3158 Pls
3265 3204 Pls
3344 3171 Pls
3768 3299 Pls
3768 3276 Pls
3919 3368 Pls
3216 3160 Pls
3768 3186 Pls
3976 3397 Pls
3976 3180 Pls
3312 3047 Pls
3879 3219 Pls
3432 3128 Pls
3919 3217 Pls
3432 3292 Pls
3008 3120 Pls
3738 3184 Pls
3216 3073 Pls
3432 2992 Pls
3919 3145 Pls
3617 3240 Pls
3265 3298 Pls
3529 3284 Pls
3904 3391 Pls
3696 3434 Pls
3738 3418 Pls
3640 3104 Pls
3344 3336 Pls
3432 3088 Pls
3640 3226 Pls
3919 3141 Pls
4104 3417 Pls
3879 3261 Pls
3529 3285 Pls
3529 3212 Pls
3529 3323 Pls
4047 3105 Pls
3825 3236 Pls
3265 3324 Pls
2963 3078 Pls
4047 3091 Pls
3529 3185 Pls
3332 3326 Pls
3416 3128 Pls
3529 3237 Pls
3529 3360 Pls
% End plot #1
% Begin plot #2
0.500 UP
0.500 UL
LTb
0.73 0.85 0.33 C 4679 3336 Crs
4679 3484 Crs
4679 3441 Crs
4528 3355 Crs
4383 3300 Crs
4383 3121 Crs
4528 3304 Crs
4679 3496 Crs
4255 3105 Crs
4343 3128 Crs
4679 3460 Crs
4104 3091 Crs
4528 3355 Crs
4158 3134 Crs
4255 3174 Crs
4255 3199 Crs
4343 3201 Crs
4679 3417 Crs
4343 3149 Crs
4528 3210 Crs
4679 3373 Crs
4343 3250 Crs
4679 3473 Crs
4343 3184 Crs
4255 3136 Crs
4343 3201 Crs
4383 3276 Crs
4528 3217 Crs
4494 3282 Crs
4679 3276 Crs
4064 3009 Crs
4255 3203 Crs
4255 3125 Crs
4104 3095 Crs
4255 3130 Crs
4528 3282 Crs
4679 3302 Crs
4528 3408 Crs
4679 3331 Crs
4343 3173 Crs
4679 3232 Crs
4679 3336 Crs
4255 3186 Crs
4343 3233 Crs
4343 3184 Crs
4679 3373 Crs
4343 3194 Crs
4158 3049 Crs
4679 3276 Crs
4679 3391 Crs
4679 3276 Crs
4679 3484 Crs
4383 3089 Crs
4255 3201 Crs
4143 3112 Crs
4343 3213 Crs
4255 3084 Crs
4679 3276 Crs
4383 3218 Crs
4679 3391 Crs
4679 3425 Crs
4383 3300 Crs
4343 3227 Crs
4679 3434 Crs
4679 3376 Crs
4255 3203 Crs
4679 3408 Crs
4528 3297 Crs
4343 3215 Crs
4383 3086 Crs
4158 3089 Crs
4679 3317 Crs
4528 3229 Crs
4679 3250 Crs
4343 3165 Crs
4343 3254 Crs
4343 3239 Crs
4679 3336 Crs
4255 3203 Crs
4679 3201 Crs
4528 3362 Crs
4679 3299 Crs
4679 3484 Crs
4528 3247 Crs
4383 3282 Crs
4255 3196 Crs
4255 3195 Crs
4679 3508 Crs
4343 3177 Crs
4679 3465 Crs
4343 3226 Crs
4255 3092 Crs
4679 3460 Crs
4679 3508 Crs
4343 3201 Crs
4528 3350 Crs
4679 3327 Crs
4528 3315 Crs
4679 3408 Crs
4255 3183 Crs
4528 3131 Crs
4383 3213 Crs
4383 3144 Crs
4343 3195 Crs
4255 3205 Crs
4255 3192 Crs
4343 3136 Crs
% End plot #2
% Begin plot #3
1.000 UL
LTb
LT1
0.75 0.75 0.75 C 2172 1633 M
25 19 V
25 19 V
26 19 V
25 20 V
25 19 V
26 19 V
25 19 V
25 19 V
26 19 V
25 20 V
25 19 V
26 19 V
25 19 V
25 19 V
25 19 V
26 20 V
25 19 V
25 19 V
26 19 V
25 19 V
25 20 V
26 19 V
25 19 V
25 19 V
26 19 V
25 19 V
25 20 V
26 19 V
25 19 V
25 19 V
26 19 V
25 19 V
25 20 V
26 19 V
25 19 V
25 19 V
26 19 V
25 19 V
25 20 V
26 19 V
25 19 V
25 19 V
26 19 V
25 19 V
25 20 V
26 19 V
25 19 V
25 19 V
26 19 V
25 20 V
25 19 V
26 19 V
25 19 V
25 19 V
26 19 V
25 20 V
25 19 V
26 19 V
25 19 V
25 19 V
26 19 V
25 20 V
25 19 V
26 19 V
25 19 V
25 19 V
26 19 V
25 20 V
25 19 V
26 19 V
25 19 V
25 19 V
25 20 V
26 19 V
25 19 V
25 19 V
26 19 V
25 19 V
25 20 V
26 19 V
25 19 V
25 19 V
26 19 V
25 19 V
25 20 V
26 19 V
25 19 V
25 19 V
26 19 V
25 19 V
25 20 V
26 19 V
25 19 V
25 19 V
26 19 V
25 19 V
25 20 V
26 19 V
25 19 V
% End plot #3
stroke
2.000 UL
LTb
LCb setrgbcolor
1.000 UL
LTb
LCb setrgbcolor
860 3531 N
860 640 L
3819 0 V
0 2891 V
-3819 0 V
Z stroke
0.500 UP
1.000 UL
LTb
LCb setrgbcolor
stroke
grestore
end
showpage
%%Trailer
%%DocumentFonts: Helvetica
