%!PS-Adobe-2.0 EPSF-2.0
%%Title: mean.eps
%%Creator: gnuplot 5.0 patchlevel 1
%%CreationDate: Fri Oct 30 18:57:08 2015
%%DocumentFonts: (atend)
%%BoundingBox: 50 50 302 238
%%EndComments
%%BeginProlog
/gnudict 256 dict def
gnudict begin
%
% The following true/false flags may be edited by hand if desired.
% The unit line width and grayscale image gamma correction may also be changed.
%
/Color true def
/Blacktext false def
/Solid false def
/Dashlength 1 def
/Landscape false def
/Level1 false def
/Level3 false def
/Rounded false def
/ClipToBoundingBox false def
/SuppressPDFMark false def
/TransparentPatterns false def
/gnulinewidth 5.000 def
/userlinewidth gnulinewidth def
/Gamma 1.0 def
/BackgroundColor {-1.000 -1.000 -1.000} def
%
/vshift -66 def
/dl1 {
  10.0 Dashlength userlinewidth gnulinewidth div mul mul mul
  Rounded { currentlinewidth 0.75 mul sub dup 0 le { pop 0.01 } if } if
} def
/dl2 {
  10.0 Dashlength userlinewidth gnulinewidth div mul mul mul
  Rounded { currentlinewidth 0.75 mul add } if
} def
/hpt_ 31.5 def
/vpt_ 31.5 def
/hpt hpt_ def
/vpt vpt_ def
/doclip {
  ClipToBoundingBox {
    newpath 50 50 moveto 302 50 lineto 302 238 lineto 50 238 lineto closepath
    clip
  } if
} def
%
% Gnuplot Prolog Version 5.0 (Dec 2014)
%
%/SuppressPDFMark true def
%
/M {moveto} bind def
/L {lineto} bind def
/R {rmoveto} bind def
/V {rlineto} bind def
/N {newpath moveto} bind def
/Z {closepath} bind def
/C {setrgbcolor} bind def
/f {rlineto fill} bind def
/g {setgray} bind def
/Gshow {show} def   % May be redefined later in the file to support UTF-8
/vpt2 vpt 2 mul def
/hpt2 hpt 2 mul def
/Lshow {currentpoint stroke M 0 vshift R 
	Blacktext {gsave 0 setgray textshow grestore} {textshow} ifelse} def
/Rshow {currentpoint stroke M dup stringwidth pop neg vshift R
	Blacktext {gsave 0 setgray textshow grestore} {textshow} ifelse} def
/Cshow {currentpoint stroke M dup stringwidth pop -2 div vshift R 
	Blacktext {gsave 0 setgray textshow grestore} {textshow} ifelse} def
/UP {dup vpt_ mul /vpt exch def hpt_ mul /hpt exch def
  /hpt2 hpt 2 mul def /vpt2 vpt 2 mul def} def
/DL {Color {setrgbcolor Solid {pop []} if 0 setdash}
 {pop pop pop 0 setgray Solid {pop []} if 0 setdash} ifelse} def
/BL {stroke userlinewidth 2 mul setlinewidth
	Rounded {1 setlinejoin 1 setlinecap} if} def
/AL {stroke userlinewidth 2 div setlinewidth
	Rounded {1 setlinejoin 1 setlinecap} if} def
/UL {dup gnulinewidth mul /userlinewidth exch def
	dup 1 lt {pop 1} if 10 mul /udl exch def} def
/PL {stroke userlinewidth setlinewidth
	Rounded {1 setlinejoin 1 setlinecap} if} def
3.8 setmiterlimit
% Classic Line colors (version 5.0)
/LCw {1 1 1} def
/LCb {0 0 0} def
/LCa {0 0 0} def
/LC0 {1 0 0} def
/LC1 {0 1 0} def
/LC2 {0 0 1} def
/LC3 {1 0 1} def
/LC4 {0 1 1} def
/LC5 {1 1 0} def
/LC6 {0 0 0} def
/LC7 {1 0.3 0} def
/LC8 {0.5 0.5 0.5} def
% Default dash patterns (version 5.0)
/LTw {PL [] 1 setgray} def
/LTb {BL [] LCb DL} def
/LTa {AL [1 udl mul 2 udl mul] 0 setdash LCa setrgbcolor} def
/LT0 {PL [] LC0 DL} def
/LT1 {PL [2 dl1 3 dl2] LC1 DL} def
/LT2 {PL [1 dl1 1.5 dl2] LC2 DL} def
/LT3 {PL [6 dl1 2 dl2 1 dl1 2 dl2] LC3 DL} def
/LT4 {PL [1 dl1 2 dl2 6 dl1 2 dl2 1 dl1 2 dl2] LC4 DL} def
/LT5 {PL [4 dl1 2 dl2] LC5 DL} def
/LT6 {PL [1.5 dl1 1.5 dl2 1.5 dl1 1.5 dl2 1.5 dl1 6 dl2] LC6 DL} def
/LT7 {PL [3 dl1 3 dl2 1 dl1 3 dl2] LC7 DL} def
/LT8 {PL [2 dl1 2 dl2 2 dl1 6 dl2] LC8 DL} def
/SL {[] 0 setdash} def
/Pnt {stroke [] 0 setdash gsave 1 setlinecap M 0 0 V stroke grestore} def
/Dia {stroke [] 0 setdash 2 copy vpt add M
  hpt neg vpt neg V hpt vpt neg V
  hpt vpt V hpt neg vpt V closepath stroke
  Pnt} def
/Pls {stroke [] 0 setdash vpt sub M 0 vpt2 V
  currentpoint stroke M
  hpt neg vpt neg R hpt2 0 V stroke
 } def
/Box {stroke [] 0 setdash 2 copy exch hpt sub exch vpt add M
  0 vpt2 neg V hpt2 0 V 0 vpt2 V
  hpt2 neg 0 V closepath stroke
  Pnt} def
/Crs {stroke [] 0 setdash exch hpt sub exch vpt add M
  hpt2 vpt2 neg V currentpoint stroke M
  hpt2 neg 0 R hpt2 vpt2 V stroke} def
/TriU {stroke [] 0 setdash 2 copy vpt 1.12 mul add M
  hpt neg vpt -1.62 mul V
  hpt 2 mul 0 V
  hpt neg vpt 1.62 mul V closepath stroke
  Pnt} def
/Star {2 copy Pls Crs} def
/BoxF {stroke [] 0 setdash exch hpt sub exch vpt add M
  0 vpt2 neg V hpt2 0 V 0 vpt2 V
  hpt2 neg 0 V closepath fill} def
/TriUF {stroke [] 0 setdash vpt 1.12 mul add M
  hpt neg vpt -1.62 mul V
  hpt 2 mul 0 V
  hpt neg vpt 1.62 mul V closepath fill} def
/TriD {stroke [] 0 setdash 2 copy vpt 1.12 mul sub M
  hpt neg vpt 1.62 mul V
  hpt 2 mul 0 V
  hpt neg vpt -1.62 mul V closepath stroke
  Pnt} def
/TriDF {stroke [] 0 setdash vpt 1.12 mul sub M
  hpt neg vpt 1.62 mul V
  hpt 2 mul 0 V
  hpt neg vpt -1.62 mul V closepath fill} def
/DiaF {stroke [] 0 setdash vpt add M
  hpt neg vpt neg V hpt vpt neg V
  hpt vpt V hpt neg vpt V closepath fill} def
/Pent {stroke [] 0 setdash 2 copy gsave
  translate 0 hpt M 4 {72 rotate 0 hpt L} repeat
  closepath stroke grestore Pnt} def
/PentF {stroke [] 0 setdash gsave
  translate 0 hpt M 4 {72 rotate 0 hpt L} repeat
  closepath fill grestore} def
/Circle {stroke [] 0 setdash 2 copy
  hpt 0 360 arc stroke Pnt} def
/CircleF {stroke [] 0 setdash hpt 0 360 arc fill} def
/C0 {BL [] 0 setdash 2 copy moveto vpt 90 450 arc} bind def
/C1 {BL [] 0 setdash 2 copy moveto
	2 copy vpt 0 90 arc closepath fill
	vpt 0 360 arc closepath} bind def
/C2 {BL [] 0 setdash 2 copy moveto
	2 copy vpt 90 180 arc closepath fill
	vpt 0 360 arc closepath} bind def
/C3 {BL [] 0 setdash 2 copy moveto
	2 copy vpt 0 180 arc closepath fill
	vpt 0 360 arc closepath} bind def
/C4 {BL [] 0 setdash 2 copy moveto
	2 copy vpt 180 270 arc closepath fill
	vpt 0 360 arc closepath} bind def
/C5 {BL [] 0 setdash 2 copy moveto
	2 copy vpt 0 90 arc
	2 copy moveto
	2 copy vpt 180 270 arc closepath fill
	vpt 0 360 arc} bind def
/C6 {BL [] 0 setdash 2 copy moveto
	2 copy vpt 90 270 arc closepath fill
	vpt 0 360 arc closepath} bind def
/C7 {BL [] 0 setdash 2 copy moveto
	2 copy vpt 0 270 arc closepath fill
	vpt 0 360 arc closepath} bind def
/C8 {BL [] 0 setdash 2 copy moveto
	2 copy vpt 270 360 arc closepath fill
	vpt 0 360 arc closepath} bind def
/C9 {BL [] 0 setdash 2 copy moveto
	2 copy vpt 270 450 arc closepath fill
	vpt 0 360 arc closepath} bind def
/C10 {BL [] 0 setdash 2 copy 2 copy moveto vpt 270 360 arc closepath fill
	2 copy moveto
	2 copy vpt 90 180 arc closepath fill
	vpt 0 360 arc closepath} bind def
/C11 {BL [] 0 setdash 2 copy moveto
	2 copy vpt 0 180 arc closepath fill
	2 copy moveto
	2 copy vpt 270 360 arc closepath fill
	vpt 0 360 arc closepath} bind def
/C12 {BL [] 0 setdash 2 copy moveto
	2 copy vpt 180 360 arc closepath fill
	vpt 0 360 arc closepath} bind def
/C13 {BL [] 0 setdash 2 copy moveto
	2 copy vpt 0 90 arc closepath fill
	2 copy moveto
	2 copy vpt 180 360 arc closepath fill
	vpt 0 360 arc closepath} bind def
/C14 {BL [] 0 setdash 2 copy moveto
	2 copy vpt 90 360 arc closepath fill
	vpt 0 360 arc} bind def
/C15 {BL [] 0 setdash 2 copy vpt 0 360 arc closepath fill
	vpt 0 360 arc closepath} bind def
/Rec {newpath 4 2 roll moveto 1 index 0 rlineto 0 exch rlineto
	neg 0 rlineto closepath} bind def
/Square {dup Rec} bind def
/Bsquare {vpt sub exch vpt sub exch vpt2 Square} bind def
/S0 {BL [] 0 setdash 2 copy moveto 0 vpt rlineto BL Bsquare} bind def
/S1 {BL [] 0 setdash 2 copy vpt Square fill Bsquare} bind def
/S2 {BL [] 0 setdash 2 copy exch vpt sub exch vpt Square fill Bsquare} bind def
/S3 {BL [] 0 setdash 2 copy exch vpt sub exch vpt2 vpt Rec fill Bsquare} bind def
/S4 {BL [] 0 setdash 2 copy exch vpt sub exch vpt sub vpt Square fill Bsquare} bind def
/S5 {BL [] 0 setdash 2 copy 2 copy vpt Square fill
	exch vpt sub exch vpt sub vpt Square fill Bsquare} bind def
/S6 {BL [] 0 setdash 2 copy exch vpt sub exch vpt sub vpt vpt2 Rec fill Bsquare} bind def
/S7 {BL [] 0 setdash 2 copy exch vpt sub exch vpt sub vpt vpt2 Rec fill
	2 copy vpt Square fill Bsquare} bind def
/S8 {BL [] 0 setdash 2 copy vpt sub vpt Square fill Bsquare} bind def
/S9 {BL [] 0 setdash 2 copy vpt sub vpt vpt2 Rec fill Bsquare} bind def
/S10 {BL [] 0 setdash 2 copy vpt sub vpt Square fill 2 copy exch vpt sub exch vpt Square fill
	Bsquare} bind def
/S11 {BL [] 0 setdash 2 copy vpt sub vpt Square fill 2 copy exch vpt sub exch vpt2 vpt Rec fill
	Bsquare} bind def
/S12 {BL [] 0 setdash 2 copy exch vpt sub exch vpt sub vpt2 vpt Rec fill Bsquare} bind def
/S13 {BL [] 0 setdash 2 copy exch vpt sub exch vpt sub vpt2 vpt Rec fill
	2 copy vpt Square fill Bsquare} bind def
/S14 {BL [] 0 setdash 2 copy exch vpt sub exch vpt sub vpt2 vpt Rec fill
	2 copy exch vpt sub exch vpt Square fill Bsquare} bind def
/S15 {BL [] 0 setdash 2 copy Bsquare fill Bsquare} bind def
/D0 {gsave translate 45 rotate 0 0 S0 stroke grestore} bind def
/D1 {gsave translate 45 rotate 0 0 S1 stroke grestore} bind def
/D2 {gsave translate 45 rotate 0 0 S2 stroke grestore} bind def
/D3 {gsave translate 45 rotate 0 0 S3 stroke grestore} bind def
/D4 {gsave translate 45 rotate 0 0 S4 stroke grestore} bind def
/D5 {gsave translate 45 rotate 0 0 S5 stroke grestore} bind def
/D6 {gsave translate 45 rotate 0 0 S6 stroke grestore} bind def
/D7 {gsave translate 45 rotate 0 0 S7 stroke grestore} bind def
/D8 {gsave translate 45 rotate 0 0 S8 stroke grestore} bind def
/D9 {gsave translate 45 rotate 0 0 S9 stroke grestore} bind def
/D10 {gsave translate 45 rotate 0 0 S10 stroke grestore} bind def
/D11 {gsave translate 45 rotate 0 0 S11 stroke grestore} bind def
/D12 {gsave translate 45 rotate 0 0 S12 stroke grestore} bind def
/D13 {gsave translate 45 rotate 0 0 S13 stroke grestore} bind def
/D14 {gsave translate 45 rotate 0 0 S14 stroke grestore} bind def
/D15 {gsave translate 45 rotate 0 0 S15 stroke grestore} bind def
/DiaE {stroke [] 0 setdash vpt add M
  hpt neg vpt neg V hpt vpt neg V
  hpt vpt V hpt neg vpt V closepath stroke} def
/BoxE {stroke [] 0 setdash exch hpt sub exch vpt add M
  0 vpt2 neg V hpt2 0 V 0 vpt2 V
  hpt2 neg 0 V closepath stroke} def
/TriUE {stroke [] 0 setdash vpt 1.12 mul add M
  hpt neg vpt -1.62 mul V
  hpt 2 mul 0 V
  hpt neg vpt 1.62 mul V closepath stroke} def
/TriDE {stroke [] 0 setdash vpt 1.12 mul sub M
  hpt neg vpt 1.62 mul V
  hpt 2 mul 0 V
  hpt neg vpt -1.62 mul V closepath stroke} def
/PentE {stroke [] 0 setdash gsave
  translate 0 hpt M 4 {72 rotate 0 hpt L} repeat
  closepath stroke grestore} def
/CircE {stroke [] 0 setdash 
  hpt 0 360 arc stroke} def
/Opaque {gsave closepath 1 setgray fill grestore 0 setgray closepath} def
/DiaW {stroke [] 0 setdash vpt add M
  hpt neg vpt neg V hpt vpt neg V
  hpt vpt V hpt neg vpt V Opaque stroke} def
/BoxW {stroke [] 0 setdash exch hpt sub exch vpt add M
  0 vpt2 neg V hpt2 0 V 0 vpt2 V
  hpt2 neg 0 V Opaque stroke} def
/TriUW {stroke [] 0 setdash vpt 1.12 mul add M
  hpt neg vpt -1.62 mul V
  hpt 2 mul 0 V
  hpt neg vpt 1.62 mul V Opaque stroke} def
/TriDW {stroke [] 0 setdash vpt 1.12 mul sub M
  hpt neg vpt 1.62 mul V
  hpt 2 mul 0 V
  hpt neg vpt -1.62 mul V Opaque stroke} def
/PentW {stroke [] 0 setdash gsave
  translate 0 hpt M 4 {72 rotate 0 hpt L} repeat
  Opaque stroke grestore} def
/CircW {stroke [] 0 setdash 
  hpt 0 360 arc Opaque stroke} def
/BoxFill {gsave Rec 1 setgray fill grestore} def
/Density {
  /Fillden exch def
  currentrgbcolor
  /ColB exch def /ColG exch def /ColR exch def
  /ColR ColR Fillden mul Fillden sub 1 add def
  /ColG ColG Fillden mul Fillden sub 1 add def
  /ColB ColB Fillden mul Fillden sub 1 add def
  ColR ColG ColB setrgbcolor} def
/BoxColFill {gsave Rec PolyFill} def
/PolyFill {gsave Density fill grestore grestore} def
/h {rlineto rlineto rlineto gsave closepath fill grestore} bind def
%
% PostScript Level 1 Pattern Fill routine for rectangles
% Usage: x y w h s a XX PatternFill
%	x,y = lower left corner of box to be filled
%	w,h = width and height of box
%	  a = angle in degrees between lines and x-axis
%	 XX = 0/1 for no/yes cross-hatch
%
/PatternFill {gsave /PFa [ 9 2 roll ] def
  PFa 0 get PFa 2 get 2 div add PFa 1 get PFa 3 get 2 div add translate
  PFa 2 get -2 div PFa 3 get -2 div PFa 2 get PFa 3 get Rec
  TransparentPatterns {} {gsave 1 setgray fill grestore} ifelse
  clip
  currentlinewidth 0.5 mul setlinewidth
  /PFs PFa 2 get dup mul PFa 3 get dup mul add sqrt def
  0 0 M PFa 5 get rotate PFs -2 div dup translate
  0 1 PFs PFa 4 get div 1 add floor cvi
	{PFa 4 get mul 0 M 0 PFs V} for
  0 PFa 6 get ne {
	0 1 PFs PFa 4 get div 1 add floor cvi
	{PFa 4 get mul 0 2 1 roll M PFs 0 V} for
 } if
  stroke grestore} def
%
/languagelevel where
 {pop languagelevel} {1} ifelse
dup 2 lt
	{/InterpretLevel1 true def
	 /InterpretLevel3 false def}
	{/InterpretLevel1 Level1 def
	 2 gt
	    {/InterpretLevel3 Level3 def}
	    {/InterpretLevel3 false def}
	 ifelse }
 ifelse
%
% PostScript level 2 pattern fill definitions
%
/Level2PatternFill {
/Tile8x8 {/PaintType 2 /PatternType 1 /TilingType 1 /BBox [0 0 8 8] /XStep 8 /YStep 8}
	bind def
/KeepColor {currentrgbcolor [/Pattern /DeviceRGB] setcolorspace} bind def
<< Tile8x8
 /PaintProc {0.5 setlinewidth pop 0 0 M 8 8 L 0 8 M 8 0 L stroke} 
>> matrix makepattern
/Pat1 exch def
<< Tile8x8
 /PaintProc {0.5 setlinewidth pop 0 0 M 8 8 L 0 8 M 8 0 L stroke
	0 4 M 4 8 L 8 4 L 4 0 L 0 4 L stroke}
>> matrix makepattern
/Pat2 exch def
<< Tile8x8
 /PaintProc {0.5 setlinewidth pop 0 0 M 0 8 L
	8 8 L 8 0 L 0 0 L fill}
>> matrix makepattern
/Pat3 exch def
<< Tile8x8
 /PaintProc {0.5 setlinewidth pop -4 8 M 8 -4 L
	0 12 M 12 0 L stroke}
>> matrix makepattern
/Pat4 exch def
<< Tile8x8
 /PaintProc {0.5 setlinewidth pop -4 0 M 8 12 L
	0 -4 M 12 8 L stroke}
>> matrix makepattern
/Pat5 exch def
<< Tile8x8
 /PaintProc {0.5 setlinewidth pop -2 8 M 4 -4 L
	0 12 M 8 -4 L 4 12 M 10 0 L stroke}
>> matrix makepattern
/Pat6 exch def
<< Tile8x8
 /PaintProc {0.5 setlinewidth pop -2 0 M 4 12 L
	0 -4 M 8 12 L 4 -4 M 10 8 L stroke}
>> matrix makepattern
/Pat7 exch def
<< Tile8x8
 /PaintProc {0.5 setlinewidth pop 8 -2 M -4 4 L
	12 0 M -4 8 L 12 4 M 0 10 L stroke}
>> matrix makepattern
/Pat8 exch def
<< Tile8x8
 /PaintProc {0.5 setlinewidth pop 0 -2 M 12 4 L
	-4 0 M 12 8 L -4 4 M 8 10 L stroke}
>> matrix makepattern
/Pat9 exch def
/Pattern1 {PatternBgnd KeepColor Pat1 setpattern} bind def
/Pattern2 {PatternBgnd KeepColor Pat2 setpattern} bind def
/Pattern3 {PatternBgnd KeepColor Pat3 setpattern} bind def
/Pattern4 {PatternBgnd KeepColor Landscape {Pat5} {Pat4} ifelse setpattern} bind def
/Pattern5 {PatternBgnd KeepColor Landscape {Pat4} {Pat5} ifelse setpattern} bind def
/Pattern6 {PatternBgnd KeepColor Landscape {Pat9} {Pat6} ifelse setpattern} bind def
/Pattern7 {PatternBgnd KeepColor Landscape {Pat8} {Pat7} ifelse setpattern} bind def
} def
%
%
%End of PostScript Level 2 code
%
/PatternBgnd {
  TransparentPatterns {} {gsave 1 setgray fill grestore} ifelse
} def
%
% Substitute for Level 2 pattern fill codes with
% grayscale if Level 2 support is not selected.
%
/Level1PatternFill {
/Pattern1 {0.250 Density} bind def
/Pattern2 {0.500 Density} bind def
/Pattern3 {0.750 Density} bind def
/Pattern4 {0.125 Density} bind def
/Pattern5 {0.375 Density} bind def
/Pattern6 {0.625 Density} bind def
/Pattern7 {0.875 Density} bind def
} def
%
% Now test for support of Level 2 code
%
Level1 {Level1PatternFill} {Level2PatternFill} ifelse
%
/Symbol-Oblique /Symbol findfont [1 0 .167 1 0 0] makefont
dup length dict begin {1 index /FID eq {pop pop} {def} ifelse} forall
currentdict end definefont pop
%
/MFshow {
   { dup 5 get 3 ge
     { 5 get 3 eq {gsave} {grestore} ifelse }
     {dup dup 0 get findfont exch 1 get scalefont setfont
     [ currentpoint ] exch dup 2 get 0 exch R dup 5 get 2 ne {dup dup 6
     get exch 4 get {textshow} {stringwidth pop 0 R} ifelse }if dup 5 get 0 eq
     {dup 3 get {2 get neg 0 exch R pop} {pop aload pop M} ifelse} {dup 5
     get 1 eq {dup 2 get exch dup 3 get exch 6 get stringwidth pop -2 div
     dup 0 R} {dup 6 get stringwidth pop -2 div 0 R 6 get
     textshow 2 index {aload pop M neg 3 -1 roll neg R pop pop} {pop pop pop
     pop aload pop M} ifelse }ifelse }ifelse }
     ifelse }
   forall} def
/Gswidth {dup type /stringtype eq {stringwidth} {pop (n) stringwidth} ifelse} def
/MFwidth {0 exch { dup 5 get 3 ge { 5 get 3 eq { 0 } { pop } ifelse }
 {dup 3 get{dup dup 0 get findfont exch 1 get scalefont setfont
     6 get Gswidth pop add} {pop} ifelse} ifelse} forall} def
/MLshow { currentpoint stroke M
  0 exch R
  Blacktext {gsave 0 setgray MFshow grestore} {MFshow} ifelse } bind def
/MRshow { currentpoint stroke M
  exch dup MFwidth neg 3 -1 roll R
  Blacktext {gsave 0 setgray MFshow grestore} {MFshow} ifelse } bind def
/MCshow { currentpoint stroke M
  exch dup MFwidth -2 div 3 -1 roll R
  Blacktext {gsave 0 setgray MFshow grestore} {MFshow} ifelse } bind def
/XYsave    { [( ) 1 2 true false 3 ()] } bind def
/XYrestore { [( ) 1 2 true false 4 ()] } bind def
Level1 SuppressPDFMark or 
{} {
/SDict 10 dict def
systemdict /pdfmark known not {
  userdict /pdfmark systemdict /cleartomark get put
} if
SDict begin [
  /Title (mean.eps)
  /Subject (gnuplot plot)
  /Creator (gnuplot 5.0 patchlevel 1)
  /Author (gaumont)
%  /Producer (gnuplot)
%  /Keywords ()
  /CreationDate (Fri Oct 30 18:57:08 2015)
  /DOCINFO pdfmark
end
} ifelse
end
%
% Support for boxed text - Ethan A Merritt May 2005
%
/InitTextBox { userdict /TBy2 3 -1 roll put userdict /TBx2 3 -1 roll put
           userdict /TBy1 3 -1 roll put userdict /TBx1 3 -1 roll put
	   /Boxing true def } def
/ExtendTextBox { Boxing
    { gsave dup false charpath pathbbox
      dup TBy2 gt {userdict /TBy2 3 -1 roll put} {pop} ifelse
      dup TBx2 gt {userdict /TBx2 3 -1 roll put} {pop} ifelse
      dup TBy1 lt {userdict /TBy1 3 -1 roll put} {pop} ifelse
      dup TBx1 lt {userdict /TBx1 3 -1 roll put} {pop} ifelse
      grestore } if } def
/PopTextBox { newpath TBx1 TBxmargin sub TBy1 TBymargin sub M
               TBx1 TBxmargin sub TBy2 TBymargin add L
	       TBx2 TBxmargin add TBy2 TBymargin add L
	       TBx2 TBxmargin add TBy1 TBymargin sub L closepath } def
/DrawTextBox { PopTextBox stroke /Boxing false def} def
/FillTextBox { gsave PopTextBox 1 1 1 setrgbcolor fill grestore /Boxing false def} def
0 0 0 0 InitTextBox
/TBxmargin 20 def
/TBymargin 20 def
/Boxing false def
/textshow { ExtendTextBox Gshow } def
%
%%EndProlog
%%Page: 1 1
gnudict begin
gsave
doclip
50 50 translate
0.050 0.050 scale
0 setgray
newpath
(Helvetica) findfont 200 scalefont setfont
BackgroundColor 0 lt 3 1 roll 0 lt exch 0 lt or or not {BackgroundColor C 1.000 0 0 5040.00 3772.00 BoxColFill} if
1.000 UL
LTb
LCb setrgbcolor
860 640 M
63 0 V
3756 0 R
-63 0 V
stroke
740 640 M
[ [(Helvetica) 200.0 0.0 true true 0 (10)]
[(Helvetica) 160.0 100.0 true true 0 (-2)]
] -86.7 MRshow
1.000 UL
LTb
LCb setrgbcolor
860 1075 M
31 0 V
3788 0 R
-31 0 V
860 1330 M
31 0 V
3788 0 R
-31 0 V
860 1510 M
31 0 V
3788 0 R
-31 0 V
860 1650 M
31 0 V
3788 0 R
-31 0 V
860 1765 M
31 0 V
3788 0 R
-31 0 V
860 1862 M
31 0 V
3788 0 R
-31 0 V
860 1945 M
31 0 V
3788 0 R
-31 0 V
860 2019 M
31 0 V
3788 0 R
-31 0 V
860 2086 M
63 0 V
3756 0 R
-63 0 V
stroke
740 2086 M
[ [(Helvetica) 200.0 0.0 true true 0 (10)]
[(Helvetica) 160.0 100.0 true true 0 (-1)]
] -86.7 MRshow
1.000 UL
LTb
LCb setrgbcolor
860 2521 M
31 0 V
3788 0 R
-31 0 V
860 2775 M
31 0 V
3788 0 R
-31 0 V
860 2956 M
31 0 V
3788 0 R
-31 0 V
860 3096 M
31 0 V
3788 0 R
-31 0 V
860 3210 M
31 0 V
3788 0 R
-31 0 V
860 3307 M
31 0 V
3788 0 R
-31 0 V
860 3391 M
31 0 V
3788 0 R
-31 0 V
860 3465 M
31 0 V
3788 0 R
-31 0 V
860 3531 M
63 0 V
3756 0 R
-63 0 V
stroke
740 3531 M
[ [(Helvetica) 200.0 0.0 true true 0 (10)]
[(Helvetica) 160.0 100.0 true true 0 (0)]
] -86.7 MRshow
1.000 UL
LTb
LCb setrgbcolor
860 640 M
0 63 V
0 2828 R
0 -63 V
stroke
860 440 M
[ [(Helvetica) 200.0 0.0 true true 0 (10)]
[(Helvetica) 160.0 100.0 true true 0 (-2)]
] -86.7 MCshow
1.000 UL
LTb
LCb setrgbcolor
1435 640 M
0 31 V
0 2860 R
0 -31 V
1771 640 M
0 31 V
0 2860 R
0 -31 V
2010 640 M
0 31 V
0 2860 R
0 -31 V
2195 640 M
0 31 V
0 2860 R
0 -31 V
2346 640 M
0 31 V
0 2860 R
0 -31 V
2474 640 M
0 31 V
0 2860 R
0 -31 V
2584 640 M
0 31 V
0 2860 R
0 -31 V
2682 640 M
0 31 V
0 2860 R
0 -31 V
2770 640 M
0 63 V
0 2828 R
0 -63 V
stroke
2770 440 M
[ [(Helvetica) 200.0 0.0 true true 0 (10)]
[(Helvetica) 160.0 100.0 true true 0 (-1)]
] -86.7 MCshow
1.000 UL
LTb
LCb setrgbcolor
3344 640 M
0 31 V
0 2860 R
0 -31 V
3681 640 M
0 31 V
0 2860 R
0 -31 V
3919 640 M
0 31 V
0 2860 R
0 -31 V
4104 640 M
0 31 V
0 2860 R
0 -31 V
4255 640 M
0 31 V
0 2860 R
0 -31 V
4383 640 M
0 31 V
0 2860 R
0 -31 V
4494 640 M
0 31 V
0 2860 R
0 -31 V
4592 640 M
0 31 V
0 2860 R
0 -31 V
4679 640 M
0 63 V
0 2828 R
0 -63 V
stroke
4679 440 M
[ [(Helvetica) 200.0 0.0 true true 0 (10)]
[(Helvetica) 160.0 100.0 true true 0 (0)]
] -86.7 MCshow
1.000 UL
LTb
LCb setrgbcolor
1.000 UL
LTb
LCb setrgbcolor
860 3531 N
860 640 L
3819 0 V
0 2891 V
-3819 0 V
Z stroke
0.500 UP
1.000 UL
LTb
LCb setrgbcolor
LCb setrgbcolor
160 2085 M
currentpoint gsave translate -270 rotate 0 0 moveto
[ [(Helvetica) 200.0 0.0 true true 0 (Inter-thread density)]
] -66.7 MCshow
grestore
LTb
LCb setrgbcolor
2769 140 M
[ [(Helvetica) 200.0 0.0 true true 0 (Intra-thread density)]
] -66.7 MCshow
LTb
% Begin plot #1
0.500 UP
0.500 UL
LTb
0.82 0.11 0.02 C 3344 2893 Pls
3529 2771 Pls
3119 2568 Pls
3919 2978 Pls
3193 2733 Pls
3768 3007 Pls
3529 2813 Pls
3529 2934 Pls
3640 2847 Pls
3529 2758 Pls
3265 2734 Pls
3640 2976 Pls
3511 2690 Pls
3879 3020 Pls
3127 2639 Pls
3432 2781 Pls
3640 2803 Pls
3265 2596 Pls
3617 2954 Pls
3617 2736 Pls
3768 2841 Pls
3008 2524 Pls
3768 2890 Pls
3255 2696 Pls
3216 2804 Pls
3193 2840 Pls
3825 2934 Pls
3193 2696 Pls
2808 2588 Pls
3265 2624 Pls
2928 2844 Pls
2924 2661 Pls
3583 2751 Pls
3919 2984 Pls
3529 2782 Pls
3416 2816 Pls
3483 2757 Pls
3193 2569 Pls
3193 2720 Pls
3265 2831 Pls
3091 2404 Pls
3193 2526 Pls
3529 2704 Pls
3640 2764 Pls
3617 2748 Pls
3640 2829 Pls
3483 2881 Pls
3092 2714 Pls
3919 3032 Pls
3065 2573 Pls
3463 2769 Pls
3416 2838 Pls
3529 2753 Pls
3617 2946 Pls
3265 2577 Pls
3529 2744 Pls
3508 2888 Pls
2918 2615 Pls
3640 2746 Pls
3265 2631 Pls
3344 2887 Pls
3768 2925 Pls
3529 2760 Pls
3265 2979 Pls
3432 2735 Pls
3241 2887 Pls
3065 2529 Pls
2760 2530 Pls
3768 2911 Pls
3184 2556 Pls
3332 2809 Pls
3344 2629 Pls
3768 2861 Pls
3463 2622 Pls
2978 2709 Pls
3649 2800 Pls
3529 2794 Pls
3344 2795 Pls
3483 2785 Pls
3432 2794 Pls
3768 2869 Pls
3768 2884 Pls
3879 2967 Pls
3193 2833 Pls
3529 2755 Pls
3432 2650 Pls
3265 2736 Pls
3768 2844 Pls
3529 2711 Pls
3332 2739 Pls
3529 3070 Pls
3529 2864 Pls
3529 2821 Pls
3344 2619 Pls
3640 2948 Pls
3544 2853 Pls
3432 2599 Pls
3511 2653 Pls
3265 2582 Pls
2618 2663 Pls
3106 2815 Pls
3640 2787 Pls
2873 2881 Pls
3504 2902 Pls
3432 2655 Pls
2852 2191 Pls
3283 2920 Pls
3768 3052 Pls
3640 2967 Pls
3640 2784 Pls
3768 2973 Pls
3148 2623 Pls
3265 2553 Pls
3617 2817 Pls
3583 2861 Pls
3169 2613 Pls
3332 2564 Pls
3008 2371 Pls
3504 2843 Pls
3649 2756 Pls
3344 2600 Pls
3344 2897 Pls
3768 2914 Pls
3529 3035 Pls
3640 2877 Pls
3529 2667 Pls
3529 2992 Pls
3511 2811 Pls
3738 2914 Pls
3416 2875 Pls
3529 2999 Pls
3529 2727 Pls
3143 2714 Pls
3332 2593 Pls
3640 3020 Pls
3617 2832 Pls
3640 2913 Pls
3420 2680 Pls
3193 2579 Pls
3483 2761 Pls
3184 2678 Pls
3416 2611 Pls
3120 3007 Pls
3529 2761 Pls
3265 2711 Pls
3508 3011 Pls
3184 2470 Pls
3768 2909 Pls
3529 2988 Pls
3511 2676 Pls
3617 2987 Pls
3065 2467 Pls
3529 2770 Pls
3696 2822 Pls
3065 2437 Pls
3332 2647 Pls
3483 2974 Pls
3432 2587 Pls
3365 2891 Pls
3508 2940 Pls
3416 2751 Pls
3265 2901 Pls
3738 2821 Pls
3544 2734 Pls
3130 2566 Pls
3432 2890 Pls
3768 2967 Pls
3193 2727 Pls
3529 2980 Pls
3175 2881 Pls
3265 2927 Pls
3344 2773 Pls
3265 2893 Pls
3640 2787 Pls
3617 2812 Pls
3896 2986 Pls
3511 2774 Pls
3529 2877 Pls
3332 2766 Pls
3529 2834 Pls
3529 2813 Pls
3617 2942 Pls
3344 2686 Pls
3640 2923 Pls
3432 2997 Pls
3511 2685 Pls
3655 2853 Pls
3216 2901 Pls
3002 2581 Pls
3529 2753 Pls
3529 2720 Pls
2938 2743 Pls
3312 2743 Pls
3768 2956 Pls
3640 2787 Pls
3834 2912 Pls
3768 2916 Pls
3455 2971 Pls
3432 2902 Pls
3529 2849 Pls
3768 3033 Pls
3529 2859 Pls
2846 2790 Pls
3432 2731 Pls
3265 2702 Pls
3640 2801 Pls
3649 2819 Pls
3255 2723 Pls
3554 2956 Pls
3649 2833 Pls
3106 2576 Pls
3617 2874 Pls
3151 2610 Pls
3304 2861 Pls
3529 2856 Pls
3768 2867 Pls
3127 2711 Pls
3255 2475 Pls
3169 2429 Pls
3008 2565 Pls
3768 2919 Pls
3640 2958 Pls
3529 2696 Pls
3420 2696 Pls
3344 2798 Pls
3617 2774 Pls
3065 2753 Pls
3511 2723 Pls
3193 2557 Pls
3432 2588 Pls
3013 2847 Pls
3432 2754 Pls
3640 2865 Pls
3768 2952 Pls
3065 2419 Pls
3130 2837 Pls
3617 2988 Pls
3738 2892 Pls
3365 2714 Pls
3529 2673 Pls
3193 2989 Pls
3738 2824 Pls
3265 2614 Pls
3450 2860 Pls
3089 2699 Pls
3696 2961 Pls
3432 2717 Pls
3640 2814 Pls
3591 2807 Pls
3265 2575 Pls
3089 2747 Pls
3432 2882 Pls
3432 2683 Pls
3193 2721 Pls
3529 2923 Pls
3432 2848 Pls
3511 2658 Pls
3393 2673 Pls
3127 2567 Pls
3234 2695 Pls
3483 2772 Pls
3602 3016 Pls
3344 2756 Pls
3640 2877 Pls
3511 2661 Pls
3058 2607 Pls
3432 2967 Pls
3393 2965 Pls
3002 2893 Pls
3617 2912 Pls
3393 2602 Pls
3432 2653 Pls
3432 2915 Pls
3529 2689 Pls
3602 2803 Pls
3617 3013 Pls
3640 2827 Pls
3529 2675 Pls
3768 2921 Pls
3529 2731 Pls
3344 2841 Pls
2813 3104 Pls
3432 2605 Pls
3416 2695 Pls
3640 2768 Pls
3184 2917 Pls
3529 2746 Pls
3065 2570 Pls
3106 2370 Pls
3919 3041 Pls
3976 3083 Pls
3085 2476 Pls
3640 2959 Pls
3237 2604 Pls
3504 2808 Pls
3288 2548 Pls
3768 2951 Pls
3432 2881 Pls
3013 2866 Pls
2760 2665 Pls
2955 2718 Pls
2978 2975 Pls
3119 2987 Pls
3184 2445 Pls
3617 2946 Pls
3106 2897 Pls
3151 2904 Pls
3834 2931 Pls
3529 2933 Pls
3640 2817 Pls
3617 2868 Pls
3332 2705 Pls
3184 2607 Pls
3432 2975 Pls
3483 2849 Pls
3640 2755 Pls
3640 2948 Pls
3332 2676 Pls
3265 2768 Pls
3193 2781 Pls
3344 2837 Pls
3432 2667 Pls
3544 2791 Pls
3768 2958 Pls
3450 2904 Pls
3184 2918 Pls
3768 2870 Pls
3640 2990 Pls
3344 2748 Pls
3450 2729 Pls
3432 2705 Pls
3265 2824 Pls
3529 2689 Pls
2770 2634 Pls
3768 2881 Pls
3344 2711 Pls
3529 2683 Pls
3511 2738 Pls
3768 2920 Pls
3640 2906 Pls
3529 2867 Pls
3058 2529 Pls
3051 2965 Pls
3332 2966 Pls
3332 2699 Pls
3529 2804 Pls
3529 3104 Pls
3617 2810 Pls
3511 2916 Pls
3344 2648 Pls
3416 2618 Pls
3453 2834 Pls
3976 3031 Pls
3047 2601 Pls
3583 2778 Pls
3696 2940 Pls
3265 2525 Pls
3015 2493 Pls
3483 2627 Pls
3344 2883 Pls
3193 2621 Pls
3768 2951 Pls
3127 2392 Pls
3344 2720 Pls
3393 2696 Pls
3344 2678 Pls
3344 2869 Pls
3432 2749 Pls
2943 2836 Pls
3344 2882 Pls
3071 2923 Pls
3640 2769 Pls
3696 2874 Pls
3738 2830 Pls
3529 2879 Pls
3071 2593 Pls
3237 2736 Pls
3127 2601 Pls
3640 2789 Pls
3344 2610 Pls
3919 3008 Pls
3529 3125 Pls
3529 2830 Pls
3768 3032 Pls
3255 2914 Pls
3463 2635 Pls
3768 2857 Pls
3768 2988 Pls
3416 2789 Pls
3768 2980 Pls
3065 2516 Pls
3529 2672 Pls
3768 2970 Pls
2770 2730 Pls
3511 2851 Pls
3529 2986 Pls
3432 2698 Pls
3640 2864 Pls
2955 2290 Pls
3008 2629 Pls
3768 2958 Pls
2811 2648 Pls
3511 2884 Pls
3825 2912 Pls
3529 2679 Pls
3511 2900 Pls
3432 2773 Pls
3416 2825 Pls
3065 2828 Pls
3344 2861 Pls
3065 2428 Pls
3640 2767 Pls
3738 2911 Pls
3127 2648 Pls
3529 2805 Pls
3332 2790 Pls
3640 2767 Pls
3432 2655 Pls
3416 2728 Pls
3255 2757 Pls
2718 2120 Pls
3640 2908 Pls
3529 2897 Pls
3255 2487 Pls
3169 2663 Pls
3271 2892 Pls
3529 2877 Pls
3344 2717 Pls
3265 2633 Pls
3511 2666 Pls
3696 2848 Pls
3344 2984 Pls
3649 2972 Pls
3216 2840 Pls
3602 2913 Pls
3640 2870 Pls
3529 2711 Pls
3834 3014 Pls
3640 2989 Pls
3696 2862 Pls
3583 2858 Pls
3332 2902 Pls
3344 2604 Pls
3237 2717 Pls
3344 2886 Pls
3640 2880 Pls
3344 2935 Pls
3640 2923 Pls
3344 2788 Pls
3821 2954 Pls
3143 2728 Pls
3529 2761 Pls
3544 2830 Pls
3554 2967 Pls
3208 2673 Pls
3738 2934 Pls
3288 2634 Pls
3261 2871 Pls
3234 2647 Pls
3768 2891 Pls
3696 2852 Pls
3617 2817 Pls
3216 2587 Pls
2400 2705 Pls
3002 2810 Pls
3640 2884 Pls
3265 2851 Pls
3511 2680 Pls
3640 3020 Pls
3738 2819 Pls
3335 2905 Pls
3344 2730 Pls
3640 2885 Pls
3365 2896 Pls
3583 3072 Pls
3529 2867 Pls
3696 2844 Pls
3289 2795 Pls
3071 2670 Pls
3008 2565 Pls
3768 2939 Pls
3640 2794 Pls
3511 2845 Pls
3738 2991 Pls
3529 2781 Pls
3261 2649 Pls
3432 2762 Pls
3640 2819 Pls
3640 2918 Pls
3768 2884 Pls
3344 2903 Pls
3768 2928 Pls
3265 2591 Pls
3529 2890 Pls
3168 2941 Pls
3209 2627 Pls
3879 3109 Pls
3047 2560 Pls
3768 2933 Pls
3529 3000 Pls
3640 2777 Pls
3529 2789 Pls
3640 2807 Pls
3169 2706 Pls
2830 2734 Pls
3640 2906 Pls
3879 3052 Pls
3344 2709 Pls
3483 2909 Pls
3544 2701 Pls
3344 2720 Pls
3344 2787 Pls
3640 2796 Pls
3040 2692 Pls
3089 2964 Pls
3416 2696 Pls
3768 2900 Pls
3234 2766 Pls
3640 2878 Pls
3583 2888 Pls
3432 2913 Pls
3332 2865 Pls
3416 2584 Pls
3696 3010 Pls
3529 2781 Pls
3834 3012 Pls
3583 2939 Pls
3237 2553 Pls
3640 2967 Pls
3640 2897 Pls
3432 2734 Pls
3768 2942 Pls
3344 2756 Pls
3738 2886 Pls
3738 2857 Pls
3768 2853 Pls
3432 2808 Pls
2955 2547 Pls
3151 2512 Pls
3312 2711 Pls
3365 2744 Pls
3117 2610 Pls
3529 2692 Pls
3768 2908 Pls
3193 2665 Pls
3768 2922 Pls
3529 2743 Pls
3432 2798 Pls
3450 2810 Pls
3583 2776 Pls
3483 2910 Pls
3640 2847 Pls
3529 2880 Pls
3738 2995 Pls
3529 2898 Pls
3919 3050 Pls
3455 3111 Pls
3529 2664 Pls
3919 2969 Pls
3696 2976 Pls
3265 2599 Pls
3344 2770 Pls
3261 2745 Pls
2675 2673 Pls
3919 3031 Pls
3193 2871 Pls
3089 2739 Pls
3529 2767 Pls
3127 2763 Pls
3119 2641 Pls
3649 2822 Pls
3423 2990 Pls
3655 2903 Pls
3432 2817 Pls
3432 2915 Pls
3529 2748 Pls
3544 2905 Pls
3184 2551 Pls
2880 2587 Pls
3640 2787 Pls
3193 2719 Pls
2770 2749 Pls
3768 2937 Pls
3237 2953 Pls
3696 2881 Pls
3432 2692 Pls
3919 2983 Pls
3640 2777 Pls
3640 2881 Pls
3617 2755 Pls
3332 2541 Pls
3529 2683 Pls
3529 2872 Pls
3344 2798 Pls
3768 2970 Pls
3332 2628 Pls
3511 2703 Pls
3768 3075 Pls
3640 2807 Pls
3768 2915 Pls
3463 2933 Pls
3432 2626 Pls
3738 3012 Pls
3483 3030 Pls
3432 2730 Pls
3640 2760 Pls
3879 2986 Pls
3738 2960 Pls
3649 2991 Pls
3879 2947 Pls
3344 2676 Pls
3304 2976 Pls
3768 2856 Pls
3193 2777 Pls
3768 2902 Pls
3416 2649 Pls
3065 2714 Pls
3432 2859 Pls
3241 2991 Pls
3393 3030 Pls
3834 2939 Pls
3511 2905 Pls
3529 2869 Pls
3255 2616 Pls
3529 2914 Pls
3511 2716 Pls
3529 2960 Pls
3640 2905 Pls
3393 3062 Pls
3640 2756 Pls
3110 2918 Pls
3137 2835 Pls
3768 2941 Pls
3344 2821 Pls
3696 3000 Pls
3825 2980 Pls
3432 2834 Pls
3344 2679 Pls
3529 2798 Pls
3649 2978 Pls
3344 2592 Pls
3432 2841 Pls
3432 2688 Pls
3768 3031 Pls
2921 2790 Pls
3288 2552 Pls
3640 2747 Pls
2781 2718 Pls
3529 2682 Pls
3065 2785 Pls
3127 2654 Pls
3450 2815 Pls
3344 2845 Pls
3271 2583 Pls
3768 2888 Pls
3193 2721 Pls
3617 2741 Pls
2599 2695 Pls
3184 2878 Pls
3602 2794 Pls
3879 2977 Pls
3265 2679 Pls
3529 2805 Pls
2940 2287 Pls
3393 2956 Pls
3583 2764 Pls
3265 2631 Pls
3529 2679 Pls
3047 2969 Pls
3056 2663 Pls
3255 2857 Pls
3768 2997 Pls
3193 2639 Pls
3504 2719 Pls
3768 2924 Pls
3344 2869 Pls
3265 2477 Pls
3529 2891 Pls
3583 2860 Pls
3344 2665 Pls
3879 2936 Pls
3768 3024 Pls
3640 2753 Pls
3193 2589 Pls
3529 2807 Pls
3193 2792 Pls
2899 2875 Pls
3312 2702 Pls
3511 2789 Pls
3344 2775 Pls
3617 2934 Pls
3432 2754 Pls
3529 2833 Pls
3696 2895 Pls
3550 3096 Pls
3768 2961 Pls
2873 2717 Pls
3483 2818 Pls
3432 2710 Pls
3583 2784 Pls
3127 2682 Pls
3738 2874 Pls
3483 2654 Pls
3640 2890 Pls
3432 2797 Pls
3344 2859 Pls
3574 2819 Pls
3265 2551 Pls
3529 2783 Pls
3583 2742 Pls
3640 2940 Pls
3529 2881 Pls
3237 2610 Pls
3432 2776 Pls
3511 3049 Pls
3483 2989 Pls
3008 2719 Pls
3529 3047 Pls
3529 2747 Pls
3529 2758 Pls
3144 2688 Pls
3416 2594 Pls
3511 2881 Pls
3344 2761 Pls
3919 2957 Pls
3265 2668 Pls
2938 2693 Pls
3416 2765 Pls
3344 2930 Pls
3184 2906 Pls
2849 2821 Pls
3529 2795 Pls
3393 2768 Pls
3640 3074 Pls
3919 2962 Pls
3106 2449 Pls
3432 2660 Pls
3529 2680 Pls
3529 2724 Pls
3344 2715 Pls
3504 3084 Pls
3768 2913 Pls
3344 2563 Pls
3640 2940 Pls
3058 2461 Pls
3640 2883 Pls
3432 2821 Pls
3127 2496 Pls
3265 2803 Pls
3768 3010 Pls
3529 2919 Pls
3738 3012 Pls
3544 2894 Pls
3529 2900 Pls
3237 2553 Pls
3344 2613 Pls
3529 2862 Pls
3193 2568 Pls
3332 2523 Pls
3738 2874 Pls
4047 3082 Pls
3640 2750 Pls
3529 2866 Pls
3255 2827 Pls
3529 2842 Pls
3529 3000 Pls
3432 2802 Pls
3416 2877 Pls
3529 2708 Pls
3529 2823 Pls
3169 2859 Pls
3047 2559 Pls
3529 2771 Pls
3640 2842 Pls
3193 2498 Pls
3450 3021 Pls
3825 2994 Pls
3529 2795 Pls
3768 3026 Pls
3058 2709 Pls
3834 3080 Pls
3255 2745 Pls
3301 2985 Pls
3825 2980 Pls
3312 2642 Pls
3768 2922 Pls
3344 2791 Pls
3768 2881 Pls
3265 2870 Pls
3511 2812 Pls
3649 2784 Pls
3159 3094 Pls
3344 2750 Pls
3640 2851 Pls
3768 2844 Pls
3768 2864 Pls
2958 2626 Pls
3265 2705 Pls
3432 2782 Pls
3617 2835 Pls
3696 2853 Pls
3344 2897 Pls
3002 2920 Pls
2801 2765 Pls
3432 2823 Pls
3432 2656 Pls
3193 2552 Pls
3312 2796 Pls
3738 2884 Pls
3640 2879 Pls
3193 2719 Pls
3617 2984 Pls
3529 2718 Pls
3265 2594 Pls
3483 3024 Pls
3065 2508 Pls
3640 2928 Pls
3344 2769 Pls
3511 2804 Pls
3529 2744 Pls
3768 2882 Pls
3738 2882 Pls
3768 2948 Pls
3335 2785 Pls
3127 2714 Pls
3640 2971 Pls
3432 2752 Pls
3511 3012 Pls
3432 2907 Pls
3529 2671 Pls
3084 2373 Pls
3344 2907 Pls
3344 2827 Pls
3344 2816 Pls
3332 2726 Pls
3265 2727 Pls
3193 2814 Pls
3169 2528 Pls
3872 2980 Pls
3879 2995 Pls
3529 2732 Pls
3768 2865 Pls
3529 3033 Pls
3178 2834 Pls
3344 2878 Pls
3640 2842 Pls
3640 2897 Pls
3696 2942 Pls
3879 2928 Pls
3432 2637 Pls
3529 2679 Pls
3640 2987 Pls
3193 2751 Pls
3193 2737 Pls
3423 2944 Pls
3483 2697 Pls
3432 2872 Pls
3432 2744 Pls
3184 2721 Pls
3768 2870 Pls
3432 2829 Pls
3432 2694 Pls
3617 3062 Pls
2857 2329 Pls
3657 3009 Pls
3617 2850 Pls
3432 2711 Pls
3416 2869 Pls
3640 2895 Pls
3617 2851 Pls
3640 2860 Pls
3309 2931 Pls
3265 2560 Pls
3529 3029 Pls
3511 2721 Pls
3332 2735 Pls
3265 2524 Pls
3432 2981 Pls
3127 2896 Pls
3237 3027 Pls
3416 2684 Pls
3393 2832 Pls
3529 2937 Pls
3655 2836 Pls
3432 2694 Pls
3529 2893 Pls
3137 2657 Pls
3416 3054 Pls
3583 2779 Pls
3169 2804 Pls
3411 2934 Pls
3234 2475 Pls
3241 2841 Pls
3216 2948 Pls
3184 2711 Pls
3768 2995 Pls
3263 2991 Pls
3237 2461 Pls
3640 2877 Pls
2899 2725 Pls
3344 3082 Pls
3184 2841 Pls
3193 2717 Pls
3602 2764 Pls
3032 2580 Pls
3768 3010 Pls
3696 3019 Pls
3432 2639 Pls
3696 2837 Pls
3879 2926 Pls
3617 2851 Pls
3768 2845 Pls
3511 2678 Pls
2959 2884 Pls
3344 2813 Pls
3234 2965 Pls
3640 2814 Pls
3640 2754 Pls
3640 2958 Pls
3919 2992 Pls
2964 2382 Pls
3617 2896 Pls
3689 2878 Pls
3089 2596 Pls
3344 2667 Pls
3193 2753 Pls
3919 2961 Pls
3432 2767 Pls
3617 3004 Pls
3696 2933 Pls
3689 3009 Pls
3209 2680 Pls
3529 2693 Pls
3344 2922 Pls
3879 3018 Pls
3617 2731 Pls
3768 2898 Pls
3768 3093 Pls
3768 2857 Pls
3127 2795 Pls
3554 2862 Pls
3344 2725 Pls
3344 2960 Pls
3265 2664 Pls
3617 2746 Pls
3768 3035 Pls
3768 2887 Pls
3002 2810 Pls
3872 2921 Pls
3583 2784 Pls
3304 2784 Pls
3738 3014 Pls
3640 2858 Pls
3583 2966 Pls
3344 2960 Pls
3768 2984 Pls
3344 2953 Pls
3216 2983 Pls
3193 2733 Pls
3393 2710 Pls
3058 2657 Pls
3288 2750 Pls
3432 2670 Pls
3117 3066 Pls
3065 2431 Pls
3483 2707 Pls
3583 2852 Pls
3127 2565 Pls
3008 2801 Pls
3738 2859 Pls
3550 2916 Pls
3583 2857 Pls
3529 2798 Pls
3344 2822 Pls
3432 2796 Pls
3432 2748 Pls
3529 2711 Pls
2624 2666 Pls
3265 2850 Pls
3127 2767 Pls
3344 2705 Pls
3288 2580 Pls
2718 2678 Pls
3432 2661 Pls
3344 2741 Pls
3416 2791 Pls
3529 2905 Pls
3344 2560 Pls
3529 2729 Pls
2845 2561 Pls
3554 2868 Pls
3583 2969 Pls
3344 2772 Pls
3504 2649 Pls
2990 2796 Pls
3483 2754 Pls
3738 2865 Pls
3383 2573 Pls
3265 2587 Pls
3432 2869 Pls
3919 2984 Pls
3265 2846 Pls
3344 2638 Pls
3432 2859 Pls
3529 2763 Pls
2693 2582 Pls
3919 3075 Pls
3529 2761 Pls
3768 2960 Pls
3127 2408 Pls
3617 2828 Pls
3696 2844 Pls
3450 2670 Pls
3344 2674 Pls
3738 2869 Pls
3423 2976 Pls
3117 2571 Pls
3265 2826 Pls
3344 2754 Pls
3407 2907 Pls
3084 2606 Pls
3432 2721 Pls
3332 3025 Pls
3617 2818 Pls
3529 3115 Pls
3344 2708 Pls
3265 2661 Pls
3193 2981 Pls
3529 2922 Pls
3184 2804 Pls
3768 2994 Pls
3416 2824 Pls
3265 2931 Pls
3265 2925 Pls
3432 2696 Pls
3432 2922 Pls
3416 2697 Pls
2519 2548 Pls
3432 2961 Pls
2868 2662 Pls
3617 2852 Pls
3344 2737 Pls
3768 2882 Pls
3193 2621 Pls
3265 2846 Pls
3265 2928 Pls
3538 2839 Pls
3127 2776 Pls
3483 2789 Pls
3432 2837 Pls
3768 2974 Pls
3184 2565 Pls
3919 2992 Pls
3265 2837 Pls
3483 2705 Pls
3432 2640 Pls
3423 2893 Pls
3032 2777 Pls
3184 2722 Pls
2911 2946 Pls
3504 2840 Pls
3312 2525 Pls
3416 2713 Pls
3640 2745 Pls
3380 2938 Pls
3304 2919 Pls
3529 2872 Pls
3455 2735 Pls
3272 2940 Pls
2904 2579 Pls
3483 2679 Pls
3008 2415 Pls
3529 2893 Pls
3529 2729 Pls
2966 2941 Pls
3432 2691 Pls
3450 2624 Pls
3265 2888 Pls
3432 2840 Pls
3432 2805 Pls
3416 2963 Pls
3344 2575 Pls
3432 2768 Pls
3344 3011 Pls
2757 2751 Pls
2868 2737 Pls
3432 2669 Pls
3416 2693 Pls
3768 2900 Pls
3640 2791 Pls
3649 2810 Pls
3696 2820 Pls
3432 2658 Pls
3089 2563 Pls
3193 2468 Pls
3529 2683 Pls
3117 2749 Pls
3432 2793 Pls
3583 2950 Pls
3640 2832 Pls
3529 2806 Pls
3640 2864 Pls
3432 2779 Pls
3529 2692 Pls
3175 2722 Pls
3299 2694 Pls
2949 2953 Pls
3432 2801 Pls
3455 2842 Pls
3529 3014 Pls
2904 2885 Pls
3255 2803 Pls
3640 2905 Pls
3640 2765 Pls
3529 2987 Pls
3768 2909 Pls
3423 2860 Pls
3193 2481 Pls
3617 2883 Pls
3184 2687 Pls
2854 2825 Pls
3047 2376 Pls
3265 2829 Pls
3216 2842 Pls
3617 2783 Pls
3344 2785 Pls
2813 2784 Pls
2914 2795 Pls
2955 2655 Pls
3529 2717 Pls
3583 2911 Pls
3344 2823 Pls
3432 2760 Pls
3344 2567 Pls
3768 2848 Pls
3640 2971 Pls
3265 2681 Pls
2845 2807 Pls
3127 2700 Pls
3640 2985 Pls
3617 2744 Pls
3255 2755 Pls
3193 2420 Pls
3416 3003 Pls
3529 2848 Pls
3344 2760 Pls
3529 2814 Pls
3119 2852 Pls
3768 2897 Pls
3332 2513 Pls
3432 2754 Pls
3529 2800 Pls
3602 2852 Pls
3768 2973 Pls
3288 2741 Pls
3344 2789 Pls
3344 2696 Pls
2940 2643 Pls
3169 2712 Pls
3508 3016 Pls
3432 2934 Pls
3085 2441 Pls
3768 2965 Pls
3640 3037 Pls
3529 2915 Pls
3768 2916 Pls
2766 2670 Pls
3047 2686 Pls
3432 2745 Pls
2992 2325 Pls
3119 3021 Pls
3640 2987 Pls
3037 2594 Pls
3432 2936 Pls
3344 2809 Pls
3879 3038 Pls
3432 2879 Pls
3919 3003 Pls
3617 2979 Pls
3738 2924 Pls
3583 2823 Pls
3768 2869 Pls
3344 2724 Pls
3312 2708 Pls
3312 2729 Pls
3344 2671 Pls
3184 2727 Pls
3919 2968 Pls
3265 2738 Pls
3529 2810 Pls
3529 2786 Pls
2795 2844 Pls
3919 3027 Pls
3335 2892 Pls
3768 2970 Pls
3640 2882 Pls
3065 2483 Pls
3602 3103 Pls
3143 2661 Pls
3265 2827 Pls
3432 2625 Pls
3365 2692 Pls
3265 2908 Pls
2798 2615 Pls
3768 2856 Pls
3312 2872 Pls
3193 2889 Pls
3617 2756 Pls
3344 3013 Pls
3168 2577 Pls
3265 2803 Pls
3768 2903 Pls
3529 2732 Pls
3640 2782 Pls
3184 2698 Pls
3825 2959 Pls
3312 2756 Pls
3529 2775 Pls
3312 2793 Pls
3640 2898 Pls
3344 2858 Pls
3416 2820 Pls
3119 2444 Pls
3265 2660 Pls
3640 2817 Pls
3416 2766 Pls
3511 2817 Pls
3529 2798 Pls
3529 2741 Pls
3511 2716 Pls
3426 3047 Pls
3640 2780 Pls
3312 2558 Pls
3602 2941 Pls
2823 2629 Pls
3030 2864 Pls
3738 2857 Pls
3502 2948 Pls
3529 2775 Pls
3640 2998 Pls
3265 2727 Pls
3768 2940 Pls
3065 2579 Pls
3919 2962 Pls
3879 2999 Pls
3168 2737 Pls
3127 2799 Pls
3511 2721 Pls
3640 2775 Pls
3738 3008 Pls
3127 2512 Pls
3432 2751 Pls
3432 2890 Pls
3193 2684 Pls
3879 3061 Pls
3193 3008 Pls
2940 2701 Pls
3640 2898 Pls
3365 2718 Pls
3432 2762 Pls
3335 2975 Pls
3216 2540 Pls
2857 2774 Pls
3265 2563 Pls
3640 2777 Pls
3190 2770 Pls
3344 2683 Pls
3312 2745 Pls
3529 2709 Pls
2801 2562 Pls
3529 2856 Pls
3265 2483 Pls
3655 2782 Pls
3315 2871 Pls
3432 2653 Pls
3768 2882 Pls
3483 2994 Pls
3332 2676 Pls
3649 2979 Pls
3193 2941 Pls
3344 2599 Pls
3261 2566 Pls
3255 2713 Pls
3583 2719 Pls
3193 2791 Pls
3919 3025 Pls
3265 2740 Pls
3768 2880 Pls
2990 2921 Pls
3696 2806 Pls
3344 2739 Pls
3583 2845 Pls
3504 2800 Pls
3768 2905 Pls
3265 2764 Pls
3255 2997 Pls
3241 2723 Pls
3365 2910 Pls
2857 2703 Pls
3511 2883 Pls
3640 2818 Pls
3649 2757 Pls
2757 2772 Pls
3127 2649 Pls
3529 2735 Pls
3344 2620 Pls
3344 2818 Pls
3416 2812 Pls
3738 2920 Pls
3344 2627 Pls
3529 2674 Pls
2878 2638 Pls
3529 2953 Pls
3008 2501 Pls
3529 2664 Pls
3529 2940 Pls
3312 3005 Pls
3383 2594 Pls
3529 2738 Pls
2899 2690 Pls
3288 2707 Pls
2760 2832 Pls
3640 2905 Pls
3511 2733 Pls
3234 2898 Pls
3193 2925 Pls
3332 2992 Pls
3583 2830 Pls
3209 2930 Pls
3450 2760 Pls
3529 2712 Pls
3265 2642 Pls
3768 2895 Pls
3529 2783 Pls
3255 2817 Pls
3151 3085 Pls
3178 2997 Pls
3529 2797 Pls
3432 2669 Pls
3483 2795 Pls
3344 2728 Pls
3344 2540 Pls
3529 3086 Pls
3108 2513 Pls
3640 2845 Pls
3640 3010 Pls
3084 2598 Pls
3393 2909 Pls
3332 2903 Pls
3919 3082 Pls
3071 2894 Pls
3738 2862 Pls
3365 3029 Pls
3738 2857 Pls
3919 2981 Pls
3255 2473 Pls
3432 2809 Pls
3768 3023 Pls
3265 2650 Pls
3304 3012 Pls
3450 2665 Pls
3768 2876 Pls
3696 2805 Pls
3768 2934 Pls
3768 2953 Pls
3529 2854 Pls
3529 2957 Pls
3640 2835 Pls
3193 2565 Pls
3432 2691 Pls
3255 2953 Pls
3432 2879 Pls
3047 2613 Pls
3432 2777 Pls
3265 2882 Pls
2955 2410 Pls
3511 2666 Pls
3511 2681 Pls
2997 2744 Pls
3332 2667 Pls
3265 2691 Pls
3432 2746 Pls
3265 2839 Pls
3193 2489 Pls
3344 2858 Pls
3416 2614 Pls
3529 2828 Pls
3602 2764 Pls
3193 2778 Pls
3030 2843 Pls
3768 2919 Pls
3265 2699 Pls
2904 2882 Pls
3127 2905 Pls
3529 2671 Pls
3265 2887 Pls
3529 2894 Pls
3529 2824 Pls
3976 3034 Pls
3265 2846 Pls
3629 2981 Pls
3065 2352 Pls
3583 2870 Pls
3288 2865 Pls
3879 2981 Pls
3544 2791 Pls
3529 2908 Pls
2949 2397 Pls
3768 2859 Pls
3332 2733 Pls
3344 2620 Pls
3432 2624 Pls
3768 2851 Pls
3432 2733 Pls
3335 2965 Pls
3738 2845 Pls
3237 2466 Pls
3416 2964 Pls
3432 2851 Pls
3450 2799 Pls
3416 2749 Pls
3463 2859 Pls
3640 2869 Pls
3768 3010 Pls
3344 2604 Pls
3184 2813 Pls
3768 2879 Pls
3265 2745 Pls
3338 2712 Pls
3504 2742 Pls
3529 2988 Pls
3768 2863 Pls
3617 2786 Pls
3265 2568 Pls
3529 2840 Pls
3834 2938 Pls
3640 2977 Pls
3335 2995 Pls
3432 3106 Pls
3450 2841 Pls
3065 2417 Pls
3432 2852 Pls
3617 3042 Pls
3904 3017 Pls
3640 2816 Pls
3738 2929 Pls
3617 2909 Pls
2942 2421 Pls
3529 2826 Pls
3344 2743 Pls
3617 2878 Pls
3432 2855 Pls
3768 2855 Pls
3432 2915 Pls
3344 2819 Pls
3169 2765 Pls
3332 2819 Pls
2940 2599 Pls
3711 2915 Pls
3450 2941 Pls
3879 3006 Pls
3432 2677 Pls
3583 2762 Pls
3768 2875 Pls
3344 2882 Pls
3483 2768 Pls
3768 3014 Pls
3529 2908 Pls
3879 2994 Pls
3432 2931 Pls
3834 3007 Pls
3738 3030 Pls
3696 2847 Pls
3237 2765 Pls
3117 2734 Pls
3640 2807 Pls
3976 3026 Pls
3265 2712 Pls
3711 2958 Pls
3511 2826 Pls
3738 2958 Pls
3071 2816 Pls
3768 2847 Pls
3640 2968 Pls
3432 2738 Pls
3583 2895 Pls
3529 2702 Pls
3332 2789 Pls
3265 2627 Pls
3416 2888 Pls
3640 2885 Pls
3529 2858 Pls
3065 2799 Pls
3344 2597 Pls
3768 2861 Pls
3344 2593 Pls
3879 2937 Pls
3032 2686 Pls
3529 2877 Pls
3529 2749 Pls
3544 2883 Pls
3617 2734 Pls
2978 2766 Pls
3483 2729 Pls
3416 2613 Pls
3834 2976 Pls
3711 2864 Pls
3272 2751 Pls
3640 2847 Pls
3265 2513 Pls
3344 2760 Pls
3529 2899 Pls
3738 2871 Pls
3261 2588 Pls
3127 2900 Pls
3640 2767 Pls
3696 2861 Pls
3511 2841 Pls
3919 2978 Pls
3037 2842 Pls
3640 2901 Pls
3432 3016 Pls
3332 2836 Pls
3504 2984 Pls
3383 2643 Pls
3511 2917 Pls
3344 2961 Pls
3640 2918 Pls
3432 2587 Pls
3265 2651 Pls
3640 2881 Pls
3768 3015 Pls
3529 2871 Pls
3504 2851 Pls
3529 2872 Pls
3344 2630 Pls
3432 2632 Pls
3272 2780 Pls
3344 3001 Pls
3312 2704 Pls
3304 3001 Pls
3393 2758 Pls
3344 2706 Pls
3529 2836 Pls
3521 3038 Pls
3511 2909 Pls
3432 2845 Pls
2955 2489 Pls
3344 2543 Pls
3008 2919 Pls
3237 2526 Pls
3397 2846 Pls
3344 2540 Pls
3529 2899 Pls
3655 2923 Pls
3879 3033 Pls
3529 2695 Pls
3432 2778 Pls
3450 2788 Pls
3529 2755 Pls
3738 2884 Pls
3344 2733 Pls
3640 2983 Pls
2751 2634 Pls
3554 2896 Pls
3463 2671 Pls
3504 2761 Pls
3416 2785 Pls
3265 2784 Pls
3768 2977 Pls
3738 2991 Pls
3106 2851 Pls
3617 2866 Pls
3508 2921 Pls
3255 2686 Pls
3216 2606 Pls
3640 2845 Pls
3583 2746 Pls
3312 2894 Pls
2895 2587 Pls
3504 3091 Pls
3432 2613 Pls
3879 3055 Pls
3344 2828 Pls
3768 2958 Pls
3904 3041 Pls
3193 2583 Pls
3738 2876 Pls
3332 2675 Pls
3216 2767 Pls
3640 2896 Pls
3529 2917 Pls
3265 2715 Pls
2899 2546 Pls
3127 2722 Pls
3312 2669 Pls
3529 2819 Pls
3332 2743 Pls
3919 2973 Pls
2933 2654 Pls
3432 2879 Pls
3768 2869 Pls
3463 2895 Pls
3768 2867 Pls
3640 2790 Pls
3640 2882 Pls
3265 2516 Pls
3193 2823 Pls
3529 2829 Pls
3216 2594 Pls
3416 3000 Pls
3344 2585 Pls
3089 2760 Pls
3649 3100 Pls
3554 2866 Pls
3255 2565 Pls
3649 2986 Pls
3768 2924 Pls
3640 2859 Pls
3617 3041 Pls
3583 2942 Pls
3332 2610 Pls
3463 2892 Pls
3640 2952 Pls
3393 2853 Pls
3193 2828 Pls
3432 2890 Pls
2877 2742 Pls
3529 2764 Pls
3432 2767 Pls
3617 2744 Pls
2892 2771 Pls
3288 2708 Pls
3432 2862 Pls
3008 2793 Pls
3127 2823 Pls
3617 2783 Pls
3825 2939 Pls
3344 2696 Pls
3432 2705 Pls
3696 2881 Pls
3432 2591 Pls
3432 2640 Pls
3265 2644 Pls
3344 2618 Pls
3432 2642 Pls
3432 2664 Pls
3344 2766 Pls
3768 3047 Pls
3216 2743 Pls
2904 2649 Pls
3904 3068 Pls
3344 2530 Pls
3416 2783 Pls
3359 2802 Pls
3344 2854 Pls
3879 2999 Pls
3117 2687 Pls
2958 2617 Pls
2986 2669 Pls
3529 2839 Pls
3821 3019 Pls
3483 2878 Pls
3640 2797 Pls
3380 2811 Pls
3617 2818 Pls
2172 2419 Pls
3483 2703 Pls
3738 2884 Pls
3432 2764 Pls
3261 2866 Pls
3529 2953 Pls
3529 2803 Pls
3432 2866 Pls
3119 2645 Pls
3583 2803 Pls
3193 3029 Pls
3640 2923 Pls
3344 2913 Pls
3529 2667 Pls
3344 2891 Pls
3511 2883 Pls
3768 2993 Pls
3617 2779 Pls
3058 2720 Pls
3640 2839 Pls
3529 2935 Pls
3640 2891 Pls
3432 2897 Pls
3919 2961 Pls
3640 2861 Pls
3768 2882 Pls
3193 2599 Pls
3423 2859 Pls
3768 2856 Pls
3529 2856 Pls
3344 2782 Pls
3529 2771 Pls
3640 2902 Pls
3237 2537 Pls
3753 2851 Pls
3919 2993 Pls
3583 2876 Pls
3529 2752 Pls
3344 2536 Pls
3365 2987 Pls
3344 2618 Pls
3265 2883 Pls
3148 3070 Pls
3705 2934 Pls
2857 2912 Pls
3583 2893 Pls
3738 2938 Pls
3265 2528 Pls
3529 2926 Pls
3193 2684 Pls
3738 2959 Pls
3640 2798 Pls
3529 2799 Pls
3640 2992 Pls
3255 2685 Pls
3344 2872 Pls
3127 2750 Pls
3450 2806 Pls
3216 2865 Pls
3193 2442 Pls
3432 2790 Pls
3261 2854 Pls
3381 2948 Pls
3463 2798 Pls
3529 2690 Pls
3738 2899 Pls
3432 2787 Pls
3702 2980 Pls
3529 2682 Pls
3640 2959 Pls
3879 2943 Pls
3583 2766 Pls
3529 2824 Pls
3416 2773 Pls
3825 2998 Pls
3432 2874 Pls
3216 2535 Pls
3640 2925 Pls
3640 3025 Pls
3529 2766 Pls
3696 2904 Pls
3237 2891 Pls
3193 2532 Pls
3508 2828 Pls
3184 2539 Pls
3416 2904 Pls
3529 2668 Pls
3640 2855 Pls
2857 2664 Pls
2955 2491 Pls
3344 2787 Pls
3184 2681 Pls
3265 2767 Pls
3344 2691 Pls
3768 2923 Pls
3216 2756 Pls
3312 2656 Pls
3432 2644 Pls
3432 2825 Pls
3008 2714 Pls
3216 2710 Pls
3617 2830 Pls
3265 2903 Pls
3529 2838 Pls
3904 2959 Pls
3696 3053 Pls
3738 3014 Pls
3344 2908 Pls
3529 2880 Pls
3529 2813 Pls
3529 2918 Pls
3265 2932 Pls
2963 2696 Pls
3529 2716 Pls
3332 2946 Pls
3416 2604 Pls
3529 2740 Pls
3529 2919 Pls
% End plot #1
% Begin plot #2
0.500 UP
0.500 UL
LTb
0.73 0.85 0.33 C 4343 2987 Crs
3768 2760 Crs
4679 2738 Crs
3768 2726 Crs
3640 2293 Crs
3879 2536 Crs
3919 2920 Crs
3768 2630 Crs
3344 2518 Crs
4383 2800 Crs
4047 2825 Crs
3640 2345 Crs
4104 2896 Crs
4047 2946 Crs
3738 2712 Crs
3344 2299 Crs
3640 2331 Crs
3768 2615 Crs
4343 2715 Crs
3617 2643 Crs
4104 2507 Crs
4104 2907 Crs
3919 2802 Crs
3919 2692 Crs
3738 2479 Crs
4047 2869 Crs
4104 2804 Crs
3768 2701 Crs
3825 2833 Crs
3738 2521 Crs
3768 2625 Crs
3640 2427 Crs
3768 2656 Crs
3919 2722 Crs
3265 2197 Crs
4104 2730 Crs
3640 2535 Crs
4104 2746 Crs
4047 2695 Crs
4343 2733 Crs
3640 2665 Crs
3976 2545 Crs
3332 2483 Crs
3416 2445 Crs
4104 2757 Crs
3919 2599 Crs
3529 2624 Crs
3919 2950 Crs
4104 2757 Crs
4255 2821 Crs
3511 2525 Crs
3265 2437 Crs
3879 2751 Crs
3738 2663 Crs
3768 2773 Crs
4679 2944 Crs
4104 2703 Crs
3127 1967 Crs
4343 2753 Crs
4047 2839 Crs
3432 2332 Crs
3617 2661 Crs
3768 2771 Crs
3768 2723 Crs
3919 2645 Crs
3738 2492 Crs
3738 2808 Crs
3640 2244 Crs
3583 2583 Crs
3640 2740 Crs
4255 2982 Crs
4343 2746 Crs
3768 2612 Crs
3738 2668 Crs
3344 2405 Crs
3976 2444 Crs
3529 2296 Crs
4679 2814 Crs
4104 2714 Crs
3825 2543 Crs
4047 2883 Crs
3976 2687 Crs
3432 2107 Crs
3919 2906 Crs
3825 2843 Crs
3919 2608 Crs
3879 2251 Crs
4104 2744 Crs
3919 2920 Crs
3265 2143 Crs
3919 2659 Crs
3919 2917 Crs
3768 2467 Crs
4528 2863 Crs
3511 2513 Crs
3976 2843 Crs
3768 2676 Crs
3617 2628 Crs
3919 2643 Crs
4047 2746 Crs
3768 2817 Crs
4343 2683 Crs
3344 2462 Crs
3976 2871 Crs
3265 2029 Crs
3768 2474 Crs
3432 2361 Crs
4104 2597 Crs
4255 2997 Crs
3529 2587 Crs
3768 2510 Crs
3640 2729 Crs
3344 2259 Crs
3919 2639 Crs
3768 2706 Crs
3617 2723 Crs
3047 2164 Crs
3529 2528 Crs
3879 2398 Crs
4104 2603 Crs
3825 2785 Crs
3768 2685 Crs
3919 2762 Crs
3583 2682 Crs
3919 2877 Crs
4104 2585 Crs
3879 2908 Crs
3768 2521 Crs
4104 2688 Crs
4047 2733 Crs
3919 2535 Crs
4104 2572 Crs
4104 2924 Crs
3919 2525 Crs
3768 2801 Crs
4043 2810 Crs
3529 2592 Crs
3529 2396 Crs
4383 2740 Crs
4158 2892 Crs
4104 2519 Crs
3919 2560 Crs
3583 2660 Crs
3511 2525 Crs
3432 2400 Crs
3768 2676 Crs
4104 2978 Crs
3919 2760 Crs
3768 2736 Crs
3768 2713 Crs
3919 2403 Crs
3768 2781 Crs
4104 2688 Crs
4047 2718 Crs
3879 2666 Crs
3919 2519 Crs
3432 2580 Crs
3768 2672 Crs
4047 2640 Crs
3265 2216 Crs
3529 2656 Crs
3879 2766 Crs
3640 2323 Crs
3738 2671 Crs
4383 2457 Crs
3344 2114 Crs
3879 2850 Crs
3976 2688 Crs
2978 2078 Crs
4104 2798 Crs
3919 2541 Crs
3617 2361 Crs
3919 2717 Crs
3919 2884 Crs
3529 2438 Crs
4343 2696 Crs
3738 2473 Crs
4047 2592 Crs
4343 2700 Crs
3919 2789 Crs
4043 2954 Crs
3919 2815 Crs
3825 2805 Crs
4104 2902 Crs
3640 2716 Crs
3640 2716 Crs
3976 2872 Crs
3193 1951 Crs
3255 2198 Crs
3919 2770 Crs
3919 2712 Crs
4255 2745 Crs
3640 2706 Crs
3640 2656 Crs
3768 2799 Crs
4104 2833 Crs
3432 2497 Crs
3529 2579 Crs
4047 2646 Crs
3768 2783 Crs
3919 2661 Crs
4528 2766 Crs
4104 2729 Crs
4679 2890 Crs
3640 2458 Crs
3640 2582 Crs
3768 2666 Crs
3768 2627 Crs
4255 2420 Crs
4343 2878 Crs
3432 2547 Crs
3919 2770 Crs
3904 2789 Crs
3544 2425 Crs
3825 2623 Crs
3919 2834 Crs
4104 3006 Crs
3879 2704 Crs
3919 2488 Crs
4047 2762 Crs
3617 2595 Crs
3825 2882 Crs
3344 2383 Crs
3919 2820 Crs
3919 2896 Crs
4104 2524 Crs
3768 2821 Crs
3432 2130 Crs
3879 2635 Crs
4104 2862 Crs
3344 2442 Crs
3393 2222 Crs
3919 2844 Crs
3617 2607 Crs
4343 2506 Crs
4104 2772 Crs
3768 2574 Crs
3919 2619 Crs
3919 2705 Crs
3640 2642 Crs
3617 2648 Crs
4679 2952 Crs
4104 2853 Crs
3265 2072 Crs
4255 2888 Crs
3919 2827 Crs
3879 2717 Crs
3640 2563 Crs
3919 2749 Crs
3583 2620 Crs
3919 2868 Crs
4343 2819 Crs
3768 2534 Crs
4343 2767 Crs
3879 2540 Crs
3768 2598 Crs
3768 2610 Crs
4104 2922 Crs
4104 2405 Crs
4104 2769 Crs
3976 2547 Crs
3344 2520 Crs
3529 2659 Crs
3919 2735 Crs
4343 2994 Crs
4047 2846 Crs
4528 2746 Crs
3879 2652 Crs
4104 2843 Crs
3640 2236 Crs
3529 2407 Crs
3919 2740 Crs
3529 2546 Crs
3640 2664 Crs
4343 2944 Crs
3344 2486 Crs
4158 2540 Crs
3529 2524 Crs
4104 3045 Crs
4255 2652 Crs
3738 2591 Crs
4255 2816 Crs
3768 2756 Crs
3919 2499 Crs
4255 2917 Crs
3617 2534 Crs
3879 2822 Crs
4104 2984 Crs
3919 2546 Crs
3705 2754 Crs
3919 2743 Crs
3768 2740 Crs
3919 2745 Crs
3768 2443 Crs
3768 2596 Crs
3768 2776 Crs
3432 2514 Crs
3919 2504 Crs
3432 2481 Crs
4255 2716 Crs
3529 2353 Crs
3768 2583 Crs
4104 2771 Crs
4104 2721 Crs
4104 2607 Crs
3919 2874 Crs
4047 2671 Crs
3919 2695 Crs
3617 2630 Crs
4343 2857 Crs
4104 2982 Crs
3879 2918 Crs
3976 2589 Crs
3768 2279 Crs
4047 2628 Crs
3768 2540 Crs
4104 2919 Crs
4158 2808 Crs
3768 2556 Crs
4047 2500 Crs
4104 2770 Crs
3834 2461 Crs
4043 2891 Crs
3919 2508 Crs
3919 2727 Crs
3919 2903 Crs
3825 2442 Crs
3976 2687 Crs
3768 2570 Crs
3919 2480 Crs
3768 2460 Crs
3768 2753 Crs
3738 2592 Crs
4047 2520 Crs
4047 2852 Crs
3529 2531 Crs
3583 2646 Crs
4343 2794 Crs
3738 2604 Crs
3344 2389 Crs
4158 2885 Crs
3640 2687 Crs
4343 2649 Crs
4047 2880 Crs
3919 2692 Crs
3768 2748 Crs
3738 2778 Crs
3344 2236 Crs
4047 2793 Crs
3919 2530 Crs
4343 2591 Crs
3825 2318 Crs
3919 2935 Crs
3919 2796 Crs
3617 2710 Crs
4104 2775 Crs
4343 2766 Crs
3919 2942 Crs
3529 2349 Crs
4104 2755 Crs
4104 2620 Crs
3953 2935 Crs
4047 2776 Crs
4104 2739 Crs
3976 2693 Crs
3825 2743 Crs
3919 2527 Crs
3344 2517 Crs
3738 2700 Crs
4383 2949 Crs
4104 2923 Crs
3696 2689 Crs
3879 2919 Crs
4343 2810 Crs
3065 2069 Crs
3529 2531 Crs
4104 2724 Crs
3768 2724 Crs
3768 2722 Crs
3432 2293 Crs
3919 2842 Crs
3879 2872 Crs
3919 2629 Crs
4679 2821 Crs
4047 2893 Crs
3768 2565 Crs
4104 2884 Crs
3529 2518 Crs
3768 2787 Crs
4104 2936 Crs
3976 2831 Crs
3919 2438 Crs
3640 2716 Crs
3768 2669 Crs
4343 2892 Crs
3768 2686 Crs
3825 2855 Crs
3976 2639 Crs
3640 2615 Crs
3919 2814 Crs
3768 2740 Crs
3738 2804 Crs
3768 2615 Crs
3640 2521 Crs
3919 2592 Crs
4104 2766 Crs
3919 2812 Crs
3919 2541 Crs
3344 2340 Crs
3879 2570 Crs
3529 2558 Crs
4104 2897 Crs
4047 2885 Crs
3511 2545 Crs
3529 2489 Crs
3919 2837 Crs
3825 2776 Crs
3768 2621 Crs
3265 2312 Crs
3738 2630 Crs
4343 2560 Crs
4047 2958 Crs
3919 2775 Crs
3583 2620 Crs
3649 2415 Crs
3768 2800 Crs
3879 2843 Crs
3825 2874 Crs
3640 2660 Crs
4104 2876 Crs
3768 2554 Crs
4343 2734 Crs
3255 2262 Crs
3919 2846 Crs
3825 2765 Crs
3640 2623 Crs
3919 2443 Crs
4528 2667 Crs
4343 2988 Crs
3919 2713 Crs
3919 2674 Crs
4047 2901 Crs
4104 2458 Crs
4679 2742 Crs
4343 2621 Crs
3432 2535 Crs
3640 2710 Crs
3640 2597 Crs
3919 2723 Crs
3919 2741 Crs
3919 2632 Crs
3919 2925 Crs
3919 2649 Crs
3344 2276 Crs
3768 2674 Crs
3879 2637 Crs
3879 2793 Crs
3768 2648 Crs
4047 2774 Crs
3919 2917 Crs
4343 2822 Crs
3768 2474 Crs
3768 2714 Crs
3617 2447 Crs
4104 2731 Crs
4104 2781 Crs
4158 2885 Crs
3265 2115 Crs
4104 2848 Crs
3904 2742 Crs
4104 2689 Crs
3919 2711 Crs
4343 2849 Crs
3738 2752 Crs
4104 2695 Crs
3529 2289 Crs
4255 2665 Crs
3640 2727 Crs
3768 2414 Crs
4679 2779 Crs
4104 2458 Crs
3825 2787 Crs
3640 2653 Crs
3617 2511 Crs
3416 2322 Crs
3432 2567 Crs
3265 2259 Crs
4343 2656 Crs
3919 2487 Crs
4343 2918 Crs
4104 2734 Crs
4047 2461 Crs
3768 2700 Crs
3583 2410 Crs
4494 2969 Crs
3738 2795 Crs
3738 2665 Crs
3768 2827 Crs
3904 2668 Crs
3919 2589 Crs
3919 2804 Crs
3529 2472 Crs
3768 2776 Crs
4104 2975 Crs
3768 2722 Crs
3879 2537 Crs
3768 2653 Crs
3919 2548 Crs
3825 2307 Crs
3768 2542 Crs
3768 2820 Crs
4104 2889 Crs
4047 2792 Crs
3483 2444 Crs
3919 2897 Crs
3768 2580 Crs
3640 2538 Crs
3919 2543 Crs
3529 2658 Crs
3529 2616 Crs
3193 2170 Crs
3511 2381 Crs
3919 2832 Crs
3768 2407 Crs
3738 2712 Crs
3640 2729 Crs
4255 2600 Crs
3529 2294 Crs
3768 2827 Crs
3919 2876 Crs
3768 2726 Crs
3529 2399 Crs
3617 2531 Crs
3825 2679 Crs
4104 2765 Crs
4255 3009 Crs
3919 2726 Crs
4104 2891 Crs
3825 2481 Crs
3432 2530 Crs
4255 2838 Crs
3332 2393 Crs
3529 2616 Crs
4104 2718 Crs
3583 2378 Crs
3529 2598 Crs
3768 2806 Crs
3879 2640 Crs
4047 2615 Crs
4343 2860 Crs
4047 2795 Crs
3432 2557 Crs
3511 2566 Crs
3976 2795 Crs
3640 2539 Crs
3919 2693 Crs
3483 2558 Crs
3529 2650 Crs
4047 2981 Crs
3768 2779 Crs
3919 2648 Crs
3640 2654 Crs
3768 2831 Crs
3768 2471 Crs
4104 2779 Crs
3919 2809 Crs
3879 2627 Crs
3738 2660 Crs
3432 2535 Crs
3768 2800 Crs
3463 2568 Crs
3511 2262 Crs
3617 2476 Crs
3640 2272 Crs
3919 2695 Crs
3511 2552 Crs
3640 2692 Crs
4343 2759 Crs
3463 2462 Crs
3432 2505 Crs
4158 2665 Crs
3768 2648 Crs
3583 2655 Crs
3432 2429 Crs
3879 2915 Crs
3768 2492 Crs
3738 2736 Crs
3825 2648 Crs
3640 2611 Crs
3768 2823 Crs
3768 2354 Crs
3919 2750 Crs
3583 2666 Crs
4679 2879 Crs
4255 3035 Crs
3919 2752 Crs
3919 2799 Crs
4064 2552 Crs
3416 2221 Crs
3193 2343 Crs
3821 2818 Crs
3768 2809 Crs
3738 2816 Crs
3768 2815 Crs
3919 2851 Crs
3529 2509 Crs
3529 2619 Crs
3529 2640 Crs
3738 2782 Crs
3432 2527 Crs
3768 2539 Crs
3640 2617 Crs
3879 2798 Crs
3432 2550 Crs
3529 2485 Crs
4047 2905 Crs
3953 2816 Crs
3768 2424 Crs
3344 2456 Crs
3738 2812 Crs
3919 2906 Crs
4158 2736 Crs
4104 2765 Crs
3768 2569 Crs
4104 2574 Crs
3344 2378 Crs
4343 2586 Crs
3738 2793 Crs
3640 2514 Crs
3529 2639 Crs
4104 2678 Crs
3768 2731 Crs
3919 2805 Crs
3879 2711 Crs
4047 2767 Crs
3919 2602 Crs
3529 2607 Crs
3879 2730 Crs
3265 2424 Crs
4343 2744 Crs
3738 2759 Crs
3768 2285 Crs
3529 2623 Crs
3640 2726 Crs
3640 2647 Crs
3825 2713 Crs
3640 2735 Crs
3768 2356 Crs
3919 2651 Crs
4104 2566 Crs
4104 2811 Crs
3511 2171 Crs
3529 2406 Crs
3344 2225 Crs
4158 2942 Crs
3432 2585 Crs
3919 2749 Crs
3738 2736 Crs
4343 2849 Crs
3640 2677 Crs
4255 2767 Crs
4383 2673 Crs
4343 2797 Crs
3768 2718 Crs
3583 2604 Crs
4104 2560 Crs
3919 2586 Crs
3640 2585 Crs
3879 2828 Crs
3768 2600 Crs
4047 2731 Crs
3879 2796 Crs
4528 2611 Crs
4494 2741 Crs
3768 2817 Crs
4255 2729 Crs
4679 2742 Crs
3919 2949 Crs
4255 2814 Crs
4047 2650 Crs
3640 2706 Crs
3529 2656 Crs
3332 2404 Crs
3879 2881 Crs
3919 2794 Crs
3738 2324 Crs
3919 2674 Crs
3919 2909 Crs
4104 2705 Crs
4343 2727 Crs
3504 2415 Crs
4255 2804 Crs
3738 2617 Crs
3919 2939 Crs
4343 3002 Crs
3879 2743 Crs
3976 2769 Crs
3976 2799 Crs
3738 2693 Crs
3640 2454 Crs
4047 2862 Crs
3640 2630 Crs
3768 2612 Crs
3649 2711 Crs
3335 2310 Crs
4104 2812 Crs
3529 2619 Crs
3879 2639 Crs
3825 2797 Crs
3879 2624 Crs
4255 3047 Crs
3919 2899 Crs
4255 2935 Crs
4255 2822 Crs
3768 2681 Crs
3193 2071 Crs
3768 2753 Crs
4343 2883 Crs
3529 2583 Crs
3879 2610 Crs
4064 2223 Crs
3602 2572 Crs
3193 2271 Crs
4104 2902 Crs
4255 2636 Crs
3768 2753 Crs
3768 2608 Crs
3583 2549 Crs
4255 2586 Crs
3768 2558 Crs
3640 2418 Crs
3919 2636 Crs
4104 3009 Crs
3617 2640 Crs
3640 2670 Crs
3904 2800 Crs
4383 2624 Crs
4255 2898 Crs
3768 2702 Crs
4343 2957 Crs
3261 2311 Crs
3768 2324 Crs
3432 2473 Crs
3768 2643 Crs
3919 2711 Crs
3768 2789 Crs
4047 2608 Crs
4047 2749 Crs
3879 2760 Crs
4047 2725 Crs
3768 2789 Crs
4104 2590 Crs
3432 2131 Crs
3768 2632 Crs
3768 2812 Crs
3617 2592 Crs
3344 2456 Crs
3529 2577 Crs
4047 2904 Crs
3879 2854 Crs
4343 2963 Crs
3768 2571 Crs
3640 2410 Crs
3879 2872 Crs
3919 2826 Crs
3617 2478 Crs
3640 2534 Crs
4104 2817 Crs
4343 2791 Crs
3432 2518 Crs
3529 2602 Crs
3193 2150 Crs
3640 2508 Crs
3617 2389 Crs
3696 2753 Crs
3768 2563 Crs
3529 2389 Crs
3738 2678 Crs
3529 2586 Crs
4343 2748 Crs
3738 2644 Crs
4343 2867 Crs
3768 2577 Crs
4104 2808 Crs
4047 2878 Crs
4104 2768 Crs
3768 2723 Crs
3640 2489 Crs
3879 2888 Crs
4104 2712 Crs
3617 2505 Crs
4343 2933 Crs
3919 2668 Crs
3529 2588 Crs
4047 2692 Crs
3640 2534 Crs
3919 2914 Crs
3529 2513 Crs
4047 2840 Crs
4104 2810 Crs
3825 2852 Crs
3919 2614 Crs
3768 2579 Crs
4047 2739 Crs
3393 2488 Crs
3768 2173 Crs
3919 2802 Crs
3640 2566 Crs
3768 2766 Crs
3768 2824 Crs
3738 2790 Crs
3904 2685 Crs
3919 2788 Crs
3896 2725 Crs
3696 2783 Crs
4158 2909 Crs
3919 2878 Crs
3768 2397 Crs
3825 2754 Crs
3919 2872 Crs
3768 2773 Crs
4047 2835 Crs
4047 2619 Crs
3640 2289 Crs
3768 2753 Crs
3919 2578 Crs
4528 2937 Crs
3640 2390 Crs
3879 2719 Crs
3919 2611 Crs
3617 2673 Crs
3919 2424 Crs
3919 2895 Crs
3919 2526 Crs
3529 2628 Crs
4104 2754 Crs
3640 2363 Crs
3879 2536 Crs
3919 2754 Crs
3825 2744 Crs
3919 2843 Crs
4104 2867 Crs
3919 2694 Crs
4255 2805 Crs
3919 2873 Crs
4104 2719 Crs
4383 2778 Crs
3617 2698 Crs
3879 2386 Crs
3768 2553 Crs
4104 2875 Crs
4104 2653 Crs
3768 2567 Crs
3879 2465 Crs
3768 2487 Crs
3416 2182 Crs
4343 2739 Crs
4104 2847 Crs
4255 2608 Crs
3649 2550 Crs
4047 2509 Crs
3617 2656 Crs
3919 2466 Crs
3265 2412 Crs
4104 2875 Crs
3529 2477 Crs
4104 2472 Crs
4343 2786 Crs
4255 2484 Crs
3738 2681 Crs
3640 2718 Crs
4104 2881 Crs
3529 2590 Crs
3640 2638 Crs
3344 2481 Crs
3640 2660 Crs
4104 2888 Crs
3768 2620 Crs
3919 2838 Crs
3344 2419 Crs
3768 2770 Crs
4104 2729 Crs
3919 2851 Crs
3768 2479 Crs
3768 2697 Crs
3768 2553 Crs
3768 2744 Crs
3919 2885 Crs
3432 2400 Crs
3265 2373 Crs
3649 2737 Crs
3768 2421 Crs
4343 2773 Crs
3640 2737 Crs
3919 2790 Crs
3738 2790 Crs
3265 2136 Crs
3640 2470 Crs
3919 2772 Crs
4104 2629 Crs
4343 2711 Crs
4104 2428 Crs
3602 2584 Crs
3640 2501 Crs
3919 2650 Crs
4255 2697 Crs
4104 2542 Crs
4528 2681 Crs
3768 2549 Crs
4104 2953 Crs
3919 2768 Crs
3825 2746 Crs
3450 2562 Crs
3919 2760 Crs
3640 2528 Crs
4679 2722 Crs
3640 2581 Crs
3529 2480 Crs
3640 2697 Crs
3768 2699 Crs
3617 2706 Crs
3583 2644 Crs
3529 2573 Crs
3768 2414 Crs
4255 2902 Crs
4104 2399 Crs
3529 2519 Crs
3919 2609 Crs
3344 2506 Crs
4047 2893 Crs
4104 2775 Crs
3640 2387 Crs
3919 2531 Crs
3529 2545 Crs
4104 2675 Crs
4343 2622 Crs
3768 2556 Crs
3640 2350 Crs
3879 2724 Crs
4158 2940 Crs
4528 2868 Crs
4343 2655 Crs
4383 2762 Crs
3640 2596 Crs
3953 2879 Crs
3738 2354 Crs
4255 2843 Crs
3879 2604 Crs
4104 2925 Crs
3879 2681 Crs
4047 2932 Crs
4064 2869 Crs
4104 2696 Crs
3768 2680 Crs
4679 2727 Crs
3738 2523 Crs
3825 2738 Crs
4104 2557 Crs
3919 2883 Crs
3617 2241 Crs
3529 2311 Crs
4104 2804 Crs
3919 2731 Crs
3825 2712 Crs
4104 2880 Crs
3738 2799 Crs
4255 2717 Crs
3919 2884 Crs
3640 2588 Crs
3640 2672 Crs
4255 2843 Crs
3696 2464 Crs
3649 2534 Crs
3511 2527 Crs
4255 2733 Crs
3529 2405 Crs
3640 2674 Crs
3432 2429 Crs
3768 2531 Crs
3288 2328 Crs
4679 2904 Crs
3768 2468 Crs
3768 2803 Crs
3738 2745 Crs
4104 2993 Crs
4158 2582 Crs
4047 2553 Crs
3344 2244 Crs
3640 2650 Crs
3511 2469 Crs
3583 2542 Crs
3825 2777 Crs
3768 2768 Crs
4104 2668 Crs
4255 3069 Crs
3640 2370 Crs
3416 2355 Crs
3640 2518 Crs
3344 2181 Crs
3640 2711 Crs
4047 2780 Crs
3640 2305 Crs
3483 2539 Crs
4343 2824 Crs
4104 2819 Crs
3919 2811 Crs
4104 2662 Crs
3879 2655 Crs
3919 2667 Crs
3919 2760 Crs
3529 2424 Crs
3904 2487 Crs
3768 2655 Crs
4343 2550 Crs
3640 2237 Crs
3919 2854 Crs
3640 2637 Crs
3738 2478 Crs
4104 2727 Crs
4104 2698 Crs
3640 2736 Crs
4158 2894 Crs
3768 2760 Crs
4343 2937 Crs
3919 2853 Crs
3768 2710 Crs
4679 2638 Crs
3768 2411 Crs
3919 2583 Crs
3640 2216 Crs
3768 2824 Crs
3640 2699 Crs
4047 2747 Crs
3919 2777 Crs
4343 2639 Crs
3919 2611 Crs
4104 2736 Crs
3432 2384 Crs
3696 2644 Crs
3976 2900 Crs
3529 2269 Crs
3976 2839 Crs
3976 2604 Crs
3432 2424 Crs
3768 2593 Crs
4255 2823 Crs
3919 2677 Crs
3919 2804 Crs
3529 2624 Crs
3529 2642 Crs
3529 2374 Crs
3879 2704 Crs
3768 2580 Crs
4343 2963 Crs
3265 1978 Crs
3768 2504 Crs
4343 2863 Crs
3640 2593 Crs
3919 2801 Crs
3483 2414 Crs
3529 2272 Crs
3879 2891 Crs
3768 2733 Crs
3919 2713 Crs
3344 2421 Crs
3834 2582 Crs
3344 2472 Crs
3919 2591 Crs
3617 2462 Crs
3879 2792 Crs
3919 2700 Crs
3919 2901 Crs
3640 2589 Crs
3825 2819 Crs
3529 2250 Crs
3919 2707 Crs
3529 2647 Crs
3919 2658 Crs
3529 2631 Crs
4064 2886 Crs
4047 2475 Crs
3640 2443 Crs
3919 2901 Crs
3065 1915 Crs
3919 2800 Crs
4047 2893 Crs
3768 2502 Crs
3529 2597 Crs
3529 2625 Crs
3825 2718 Crs
3768 2662 Crs
4343 2957 Crs
3919 2875 Crs
3450 2458 Crs
3768 2772 Crs
4343 2957 Crs
3640 2303 Crs
3511 2476 Crs
3768 2705 Crs
3879 2853 Crs
4343 2663 Crs
4104 2742 Crs
3640 2657 Crs
3768 2743 Crs
4679 2759 Crs
3834 2561 Crs
3768 2715 Crs
3529 2517 Crs
3768 2811 Crs
3640 2719 Crs
3529 2610 Crs
3919 2691 Crs
4255 2632 Crs
3649 2735 Crs
4104 2616 Crs
3602 2530 Crs
3529 2509 Crs
4064 2724 Crs
3825 2737 Crs
3335 2402 Crs
3879 2823 Crs
3640 2659 Crs
3696 2776 Crs
4104 2620 Crs
3919 2453 Crs
3919 2948 Crs
4104 3007 Crs
3919 2667 Crs
4104 2798 Crs
3919 2905 Crs
3768 2665 Crs
4343 2907 Crs
3193 2333 Crs
3768 2774 Crs
3738 2731 Crs
3768 2483 Crs
4104 2720 Crs
3879 2889 Crs
4104 2886 Crs
3529 2616 Crs
3976 2332 Crs
4343 2831 Crs
3617 2652 Crs
3640 2716 Crs
3919 2579 Crs
3529 2512 Crs
3879 2555 Crs
3768 2618 Crs
3511 2624 Crs
3738 2776 Crs
3380 2510 Crs
4343 2656 Crs
3640 2736 Crs
4528 2833 Crs
3529 2476 Crs
4104 2503 Crs
3768 2689 Crs
3768 2588 Crs
3640 2734 Crs
3432 2416 Crs
3768 2832 Crs
3617 2625 Crs
3768 2430 Crs
3904 2799 Crs
3640 2293 Crs
4343 2881 Crs
3696 2490 Crs
4047 2416 Crs
3879 2695 Crs
3919 2643 Crs
4104 2707 Crs
3768 2815 Crs
3768 2817 Crs
3976 2517 Crs
3919 2655 Crs
3919 2802 Crs
3640 2712 Crs
3640 2488 Crs
3976 2912 Crs
3696 2276 Crs
4343 2622 Crs
4104 2632 Crs
3919 2939 Crs
3768 2644 Crs
3768 2781 Crs
3976 2978 Crs
3768 2556 Crs
4047 2929 Crs
4104 2634 Crs
3640 2718 Crs
3344 2427 Crs
4104 2756 Crs
3768 2537 Crs
3640 2592 Crs
3976 2654 Crs
3904 2922 Crs
3919 2631 Crs
3768 2766 Crs
3919 2735 Crs
4679 2755 Crs
3834 2496 Crs
4255 2812 Crs
4047 2809 Crs
3768 2603 Crs
3919 2951 Crs
4104 3030 Crs
3919 2700 Crs
4255 2612 Crs
3768 2743 Crs
3483 2446 Crs
3919 2771 Crs
4343 2843 Crs
3919 2943 Crs
3617 2691 Crs
3768 2600 Crs
4343 2987 Crs
3617 2712 Crs
4255 2812 Crs
4343 2601 Crs
3919 2417 Crs
3768 2644 Crs
4158 2313 Crs
3483 2598 Crs
4679 2698 Crs
3640 2598 Crs
3976 2826 Crs
4343 2726 Crs
4528 2928 Crs
3640 2571 Crs
3768 2443 Crs
3768 2498 Crs
3768 2610 Crs
3432 2334 Crs
3529 2561 Crs
3432 2383 Crs
4679 2858 Crs
3919 2727 Crs
3393 2399 Crs
4047 2947 Crs
3640 2723 Crs
3344 2298 Crs
4158 2940 Crs
3640 2225 Crs
3529 2565 Crs
3825 2815 Crs
3483 2613 Crs
3640 2534 Crs
3529 2274 Crs
4679 2687 Crs
3919 2835 Crs
3768 2674 Crs
4047 3022 Crs
3919 2905 Crs
4104 2937 Crs
3919 2640 Crs
4104 2680 Crs
3825 2724 Crs
3919 2706 Crs
3976 2508 Crs
3529 2512 Crs
4343 2827 Crs
3768 2691 Crs
3879 2672 Crs
4104 2823 Crs
3738 2697 Crs
3432 2372 Crs
3768 2521 Crs
3768 2820 Crs
4104 2769 Crs
3529 2575 Crs
3919 2945 Crs
3640 2539 Crs
3640 2519 Crs
3432 2465 Crs
3640 2743 Crs
3483 2625 Crs
3879 2737 Crs
3640 2619 Crs
3919 2818 Crs
4679 2862 Crs
3344 2003 Crs
4104 2611 Crs
3919 2678 Crs
4343 2882 Crs
3738 2746 Crs
3919 2839 Crs
3919 2749 Crs
3617 2598 Crs
4104 2866 Crs
4158 2857 Crs
3768 2607 Crs
3432 2375 Crs
4047 2942 Crs
3738 2698 Crs
3768 2370 Crs
3583 2667 Crs
3768 2805 Crs
4104 2466 Crs
4383 2361 Crs
4104 2656 Crs
3432 2491 Crs
4104 2941 Crs
3529 2390 Crs
3768 2731 Crs
4047 2457 Crs
3511 2646 Crs
4255 2668 Crs
3529 2538 Crs
3365 2531 Crs
4104 2908 Crs
3919 2525 Crs
3529 2600 Crs
4343 2811 Crs
3529 2335 Crs
4047 2852 Crs
4104 3051 Crs
3432 2442 Crs
3879 2601 Crs
3919 2636 Crs
4528 2927 Crs
3768 2708 Crs
3640 2735 Crs
4104 2633 Crs
3976 2932 Crs
4047 2966 Crs
3919 2805 Crs
4104 2934 Crs
3768 2477 Crs
4104 2779 Crs
3344 2298 Crs
3919 2747 Crs
3768 2753 Crs
3738 2764 Crs
4158 3018 Crs
3265 2377 Crs
3919 2771 Crs
3768 2726 Crs
4104 2566 Crs
4047 2802 Crs
3529 2643 Crs
3640 2378 Crs
3640 2537 Crs
4158 2837 Crs
3738 2818 Crs
3976 2820 Crs
4158 2853 Crs
3919 2765 Crs
3976 2646 Crs
3768 2796 Crs
3919 2732 Crs
3640 2573 Crs
3768 2452 Crs
3344 2047 Crs
3640 2442 Crs
3696 2723 Crs
3640 2530 Crs
4343 2810 Crs
4104 2830 Crs
3919 2856 Crs
3879 2718 Crs
3696 2702 Crs
3640 2572 Crs
3738 2765 Crs
4104 2550 Crs
3288 2430 Crs
4047 2611 Crs
3529 2447 Crs
3529 2635 Crs
3768 2577 Crs
3640 2603 Crs
3640 2648 Crs
3768 2469 Crs
3617 2589 Crs
3312 2459 Crs
4047 2943 Crs
3617 2719 Crs
3696 2563 Crs
3768 2532 Crs
4143 2495 Crs
4104 2814 Crs
4104 2639 Crs
3768 2586 Crs
3640 2643 Crs
4158 2733 Crs
3919 2917 Crs
3640 2452 Crs
3640 2686 Crs
3879 2889 Crs
3919 2658 Crs
3640 2466 Crs
3768 2559 Crs
3768 2529 Crs
3529 2556 Crs
3919 2914 Crs
3768 2741 Crs
3821 2466 Crs
3976 2666 Crs
4158 2637 Crs
3193 2335 Crs
3432 2570 Crs
3919 2802 Crs
3432 2401 Crs
3919 2761 Crs
3768 2528 Crs
4104 2936 Crs
3768 2497 Crs
4047 2749 Crs
4104 2580 Crs
3919 2864 Crs
3919 2527 Crs
3768 2835 Crs
4047 2857 Crs
3768 2806 Crs
4104 2725 Crs
3617 2397 Crs
4104 2920 Crs
3768 2560 Crs
4104 2901 Crs
3265 2415 Crs
3640 2670 Crs
4104 2891 Crs
4255 2803 Crs
3768 2812 Crs
4255 2940 Crs
3919 2681 Crs
3529 2624 Crs
3640 2271 Crs
3768 2828 Crs
3919 2730 Crs
3483 2620 Crs
4343 2691 Crs
3919 2808 Crs
3879 2582 Crs
3768 2593 Crs
4104 2683 Crs
4047 2856 Crs
3696 2595 Crs
4343 2707 Crs
3919 2765 Crs
3879 2751 Crs
3617 2624 Crs
3529 2626 Crs
3483 2618 Crs
3976 2700 Crs
3711 2704 Crs
3127 1910 Crs
2808 2016 Crs
3529 2311 Crs
3768 2400 Crs
3768 2793 Crs
3768 2805 Crs
3529 2203 Crs
3711 2342 Crs
4104 2622 Crs
3825 2687 Crs
3768 2591 Crs
3640 2698 Crs
3640 2600 Crs
4343 2766 Crs
3768 2618 Crs
3529 2533 Crs
3976 2733 Crs
3768 2474 Crs
3583 2398 Crs
4047 2642 Crs
3738 2696 Crs
3904 2842 Crs
3738 2726 Crs
3344 2374 Crs
4528 2937 Crs
4104 2689 Crs
3529 2574 Crs
3919 2767 Crs
3640 2511 Crs
3768 2748 Crs
4255 2339 Crs
3529 2555 Crs
3640 2669 Crs
4158 2881 Crs
3432 2349 Crs
4158 2777 Crs
3344 2399 Crs
4104 2820 Crs
4679 2737 Crs
3432 2427 Crs
3919 2605 Crs
3529 2431 Crs
3529 2623 Crs
3738 2746 Crs
4047 2559 Crs
3825 2635 Crs
4679 2925 Crs
3919 2729 Crs
4047 3005 Crs
3919 2861 Crs
3976 2842 Crs
4104 2707 Crs
3768 2457 Crs
4047 2392 Crs
4255 2875 Crs
4047 2474 Crs
3640 2550 Crs
3919 2568 Crs
4064 2640 Crs
4383 2681 Crs
4343 2949 Crs
3879 2686 Crs
4104 2873 Crs
3738 2398 Crs
3768 2754 Crs
4255 2832 Crs
4679 2846 Crs
4104 2756 Crs
4679 2880 Crs
3919 2894 Crs
4104 2844 Crs
3768 2799 Crs
3640 2742 Crs
3919 2394 Crs
3919 2927 Crs
3738 2382 Crs
3640 2599 Crs
3065 2279 Crs
3738 2609 Crs
4104 2871 Crs
4255 2714 Crs
3640 2557 Crs
4679 2842 Crs
3640 2693 Crs
4255 2710 Crs
3529 2408 Crs
4158 3096 Crs
3640 2661 Crs
3640 2572 Crs
3640 2721 Crs
3432 2500 Crs
3738 2794 Crs
3879 2794 Crs
3738 2561 Crs
3919 2790 Crs
3768 2757 Crs
4343 2820 Crs
3511 2523 Crs
4047 2703 Crs
3919 2645 Crs
3919 2689 Crs
4104 2726 Crs
3529 2474 Crs
3432 2280 Crs
3919 2899 Crs
3393 2439 Crs
3976 2293 Crs
3344 2437 Crs
4143 2814 Crs
4343 2932 Crs
3529 2391 Crs
3640 2681 Crs
4343 2939 Crs
3432 2566 Crs
4104 2803 Crs
4104 2701 Crs
3904 2786 Crs
3919 2724 Crs
4343 2872 Crs
3511 2450 Crs
4104 2886 Crs
3640 2475 Crs
3768 2751 Crs
3768 2554 Crs
4064 2884 Crs
4343 2794 Crs
3919 2824 Crs
3738 2709 Crs
3825 2501 Crs
4104 2671 Crs
4383 2703 Crs
4343 2765 Crs
3640 2739 Crs
3768 2774 Crs
3617 2453 Crs
3919 2500 Crs
3255 2414 Crs
3265 2391 Crs
3529 2569 Crs
3529 2562 Crs
4104 2907 Crs
4255 2797 Crs
3825 2880 Crs
3529 2545 Crs
3640 2506 Crs
3432 2573 Crs
4255 2873 Crs
4343 2644 Crs
3919 2579 Crs
3529 2585 Crs
3919 2644 Crs
4343 2721 Crs
3265 2355 Crs
4679 2821 Crs
3904 2695 Crs
3640 2477 Crs
4047 2723 Crs
4104 2675 Crs
4528 2888 Crs
3768 2817 Crs
3344 2457 Crs
3529 2542 Crs
3529 2297 Crs
3705 2738 Crs
3344 2476 Crs
4104 2789 Crs
4679 2850 Crs
3640 2659 Crs
3919 2814 Crs
4047 2880 Crs
4047 2847 Crs
3919 2701 Crs
3738 2752 Crs
4343 2668 Crs
3696 2669 Crs
4104 2368 Crs
3919 2867 Crs
3919 2562 Crs
4255 2609 Crs
3768 2486 Crs
3696 2719 Crs
4104 2944 Crs
3768 2762 Crs
3825 2828 Crs
3768 2399 Crs
3416 2467 Crs
4343 2808 Crs
4104 2858 Crs
3640 2376 Crs
3768 2566 Crs
4679 2807 Crs
3768 2603 Crs
4158 2589 Crs
3432 2299 Crs
3529 2526 Crs
4104 2916 Crs
3640 2564 Crs
3879 2813 Crs
3617 2689 Crs
3768 2512 Crs
3768 2659 Crs
3344 2449 Crs
3976 2567 Crs
3919 2934 Crs
3655 2688 Crs
3768 2594 Crs
3640 2221 Crs
3529 2393 Crs
3544 2438 Crs
3344 2463 Crs
4047 2775 Crs
3265 2372 Crs
3640 2714 Crs
3768 2550 Crs
3768 2560 Crs
4104 2789 Crs
3879 2748 Crs
4104 2750 Crs
3193 2322 Crs
4104 2731 Crs
3640 2472 Crs
4158 3044 Crs
4104 2753 Crs
3919 2732 Crs
3738 2748 Crs
3768 2416 Crs
4528 2705 Crs
3265 2385 Crs
4255 2752 Crs
3640 2693 Crs
3919 2590 Crs
3879 2863 Crs
3432 2557 Crs
3919 2732 Crs
3825 2781 Crs
4104 2774 Crs
3976 2632 Crs
4104 2598 Crs
4255 2817 Crs
4047 2719 Crs
4104 2718 Crs
4104 2823 Crs
3768 2736 Crs
4104 2507 Crs
4047 2936 Crs
3529 2492 Crs
3640 2640 Crs
3919 2774 Crs
3919 2757 Crs
3393 2515 Crs
3879 2802 Crs
3919 2349 Crs
3768 2717 Crs
3640 2726 Crs
3919 2586 Crs
3879 2762 Crs
4104 2840 Crs
3511 2578 Crs
3640 2700 Crs
4343 2804 Crs
3919 2738 Crs
3432 2330 Crs
3432 2446 Crs
3919 2635 Crs
4343 2597 Crs
3976 2840 Crs
3919 2715 Crs
3432 2566 Crs
3919 2712 Crs
3529 2625 Crs
4158 2917 Crs
3265 2446 Crs
3529 2340 Crs
4158 2731 Crs
3768 2651 Crs
3768 2706 Crs
3768 2527 Crs
3919 2623 Crs
3583 2701 Crs
3432 2438 Crs
4255 2865 Crs
4104 2430 Crs
3919 2703 Crs
3879 2759 Crs
3879 2626 Crs
4104 2721 Crs
3640 2662 Crs
3879 2519 Crs
3511 2452 Crs
4104 2953 Crs
3416 2446 Crs
4383 2394 Crs
4158 2784 Crs
3332 2274 Crs
4343 2989 Crs
3919 2788 Crs
4047 2766 Crs
3879 2871 Crs
4104 2635 Crs
3193 2343 Crs
4158 2403 Crs
3919 2843 Crs
3529 2553 Crs
3768 2751 Crs
4158 2967 Crs
3602 2636 Crs
3879 2807 Crs
3738 2686 Crs
4679 2713 Crs
3332 2493 Crs
3976 2762 Crs
3483 2624 Crs
3640 2664 Crs
4104 2781 Crs
4104 2729 Crs
3768 2670 Crs
3768 2641 Crs
3529 2528 Crs
4158 2990 Crs
4047 2920 Crs
3432 2310 Crs
3432 2477 Crs
4343 2798 Crs
3919 2677 Crs
3919 2503 Crs
4104 2561 Crs
4528 2707 Crs
3768 2815 Crs
4104 2688 Crs
3976 2327 Crs
3919 2947 Crs
3432 2541 Crs
3432 2495 Crs
3919 2588 Crs
3768 2631 Crs
3768 2529 Crs
4255 2835 Crs
3529 2392 Crs
3511 2614 Crs
4047 2752 Crs
4255 2849 Crs
3193 2322 Crs
3896 2885 Crs
3768 2823 Crs
3976 2950 Crs
4679 2654 Crs
3738 2678 Crs
4343 2553 Crs
3919 2487 Crs
4343 2654 Crs
3919 2517 Crs
3919 2885 Crs
4343 2605 Crs
3511 2327 Crs
3529 2480 Crs
4104 2614 Crs
3529 2634 Crs
4104 2713 Crs
4104 2780 Crs
3127 2350 Crs
3265 2178 Crs
3879 2883 Crs
3834 2822 Crs
4104 2522 Crs
3919 2629 Crs
4104 2883 Crs
3879 2638 Crs
4047 2459 Crs
4104 2715 Crs
3768 2543 Crs
3529 2647 Crs
3768 2362 Crs
3919 2708 Crs
3511 2366 Crs
3834 2748 Crs
3768 2729 Crs
3879 2597 Crs
3529 2625 Crs
4255 2984 Crs
3768 2827 Crs
3768 2828 Crs
3825 2829 Crs
3768 2664 Crs
4104 2803 Crs
4047 2870 Crs
3919 2802 Crs
4104 2783 Crs
3768 2340 Crs
3640 2341 Crs
4679 2705 Crs
3529 2600 Crs
4343 2767 Crs
4255 2733 Crs
3640 2671 Crs
3976 2768 Crs
4104 2927 Crs
4104 2689 Crs
3463 2587 Crs
3529 2535 Crs
3241 2328 Crs
3919 2945 Crs
3919 2730 Crs
3393 2155 Crs
3529 2593 Crs
4047 2799 Crs
3602 2643 Crs
3919 2665 Crs
3640 2673 Crs
4343 2950 Crs
3544 2384 Crs
4255 2605 Crs
4047 2619 Crs
3738 2656 Crs
3640 2638 Crs
3825 2681 Crs
4343 2643 Crs
4047 2846 Crs
3768 2763 Crs
3529 2588 Crs
4047 2619 Crs
4047 2798 Crs
3602 2635 Crs
3738 2433 Crs
3879 2626 Crs
3738 2586 Crs
3768 2644 Crs
4104 2486 Crs
3640 2396 Crs
3919 2938 Crs
3919 2833 Crs
3919 2773 Crs
3768 2806 Crs
4047 2880 Crs
4104 2882 Crs
4104 2650 Crs
3825 2830 Crs
3919 2853 Crs
3768 2717 Crs
4047 2625 Crs
3768 2734 Crs
3738 2816 Crs
3529 2247 Crs
3640 2559 Crs
4679 2675 Crs
4047 2828 Crs
4528 2764 Crs
3312 2438 Crs
3640 2659 Crs
3768 2466 Crs
4104 2804 Crs
3432 2553 Crs
3738 2640 Crs
3738 2635 Crs
4343 2896 Crs
4047 2776 Crs
3919 2714 Crs
3768 2653 Crs
4343 2707 Crs
3640 2701 Crs
4047 2878 Crs
4104 2518 Crs
3640 2608 Crs
4255 2684 Crs
3768 2764 Crs
3640 2726 Crs
3919 2823 Crs
3919 2865 Crs
4104 2662 Crs
3919 2745 Crs
4104 2837 Crs
3768 2569 Crs
3919 2876 Crs
3640 2701 Crs
3511 2422 Crs
4679 2730 Crs
3265 2395 Crs
3919 2863 Crs
3919 2834 Crs
3432 2488 Crs
3768 2642 Crs
3529 2654 Crs
4104 2744 Crs
3416 2368 Crs
3919 2612 Crs
3879 2263 Crs
3768 2728 Crs
3640 2418 Crs
3583 2639 Crs
3432 2425 Crs
4104 2690 Crs
3463 2221 Crs
4679 2967 Crs
3640 2248 Crs
4343 2717 Crs
3768 2573 Crs
4104 2796 Crs
4047 2863 Crs
4047 2745 Crs
4104 2928 Crs
3602 2617 Crs
4528 2672 Crs
3919 2513 Crs
3919 2747 Crs
3768 2796 Crs
3432 2465 Crs
3529 2514 Crs
4104 2539 Crs
4104 2536 Crs
3483 2452 Crs
3738 2669 Crs
3919 2778 Crs
3432 2379 Crs
3640 2667 Crs
3768 2687 Crs
3738 2574 Crs
3976 2986 Crs
4255 2911 Crs
4104 2628 Crs
3640 2666 Crs
3919 2718 Crs
3919 2889 Crs
3879 2879 Crs
3919 2732 Crs
3617 2671 Crs
3640 2512 Crs
3919 2887 Crs
4383 2620 Crs
3640 2585 Crs
3640 2710 Crs
3919 2940 Crs
3738 2644 Crs
3344 2298 Crs
4255 2481 Crs
3919 2878 Crs
3919 2526 Crs
4047 2743 Crs
3640 2492 Crs
3768 2805 Crs
4343 2767 Crs
3529 2444 Crs
3879 2729 Crs
3919 2467 Crs
3617 2371 Crs
3919 2685 Crs
3768 2567 Crs
3919 2652 Crs
3919 2571 Crs
4255 2653 Crs
3640 2462 Crs
4679 2865 Crs
3919 2862 Crs
3879 2817 Crs
4343 2561 Crs
3640 2657 Crs
3640 2724 Crs
3529 2560 Crs
4064 2876 Crs
4255 2766 Crs
3738 2437 Crs
3768 2580 Crs
3265 2375 Crs
4104 2466 Crs
3768 2839 Crs
3106 2189 Crs
3919 2888 Crs
3919 2600 Crs
3976 2450 Crs
3617 2434 Crs
3511 2641 Crs
3450 2333 Crs
4679 2847 Crs
3879 2411 Crs
3768 2303 Crs
4047 2555 Crs
3919 2860 Crs
3640 2665 Crs
4343 2644 Crs
4343 2761 Crs
3640 2665 Crs
3768 2718 Crs
3432 2550 Crs
4255 2451 Crs
3640 2704 Crs
3768 2822 Crs
3738 2670 Crs
3738 2264 Crs
4047 2845 Crs
3640 2606 Crs
3768 2753 Crs
3640 2483 Crs
4104 2882 Crs
3738 2760 Crs
3617 2374 Crs
3432 2416 Crs
4104 2667 Crs
4343 2804 Crs
3919 2657 Crs
3640 2368 Crs
3529 2166 Crs
3919 2736 Crs
3768 2520 Crs
4255 2634 Crs
4679 2824 Crs
4343 2687 Crs
3640 2592 Crs
3768 2724 Crs
3640 2646 Crs
3919 2595 Crs
3879 2887 Crs
3344 2258 Crs
3640 2733 Crs
3583 2676 Crs
4143 2627 Crs
3529 2348 Crs
3879 2616 Crs
4343 2842 Crs
3919 2806 Crs
4104 2775 Crs
3529 2196 Crs
3825 2550 Crs
3753 2733 Crs
3919 2705 Crs
3649 2696 Crs
4047 2568 Crs
3529 2120 Crs
3529 2452 Crs
3583 2145 Crs
3919 2489 Crs
3768 2603 Crs
3879 2385 Crs
3919 2603 Crs
3879 2901 Crs
3919 2640 Crs
4104 2618 Crs
3529 2602 Crs
3483 2025 Crs
3738 2669 Crs
3640 2608 Crs
4383 2828 Crs
3768 2593 Crs
3879 2722 Crs
3825 2751 Crs
3879 2775 Crs
3768 2742 Crs
3432 2316 Crs
3768 2572 Crs
3640 2585 Crs
3768 2714 Crs
4064 2889 Crs
4679 2894 Crs
4104 2775 Crs
3919 2467 Crs
3640 2624 Crs
4104 2696 Crs
3919 2824 Crs
3919 2823 Crs
3696 2735 Crs
4255 2825 Crs
3617 2135 Crs
3344 2503 Crs
4158 2928 Crs
3919 2629 Crs
4343 2683 Crs
3529 2631 Crs
4158 2593 Crs
3825 2584 Crs
3738 2527 Crs
3640 2468 Crs
3432 2484 Crs
3344 2273 Crs
4104 3060 Crs
4528 2898 Crs
3919 2652 Crs
4104 2920 Crs
3738 2471 Crs
3583 2636 Crs
4104 2847 Crs
3834 2840 Crs
3919 2715 Crs
4104 2745 Crs
3768 2578 Crs
4343 2885 Crs
3768 2593 Crs
3799 2717 Crs
3216 2401 Crs
3768 2725 Crs
3640 2417 Crs
3511 2563 Crs
4047 2985 Crs
3919 2574 Crs
3511 2623 Crs
4104 2636 Crs
3768 2618 Crs
3919 2491 Crs
4104 2635 Crs
3511 2466 Crs
3768 2803 Crs
3919 2901 Crs
3879 2840 Crs
3825 2515 Crs
3265 2395 Crs
4255 2841 Crs
3768 2741 Crs
3640 2454 Crs
4104 2897 Crs
4047 2746 Crs
4343 2618 Crs
3919 2757 Crs
3768 2784 Crs
3919 2942 Crs
3919 2695 Crs
3768 2574 Crs
4158 3012 Crs
4528 2710 Crs
4104 2909 Crs
4104 2935 Crs
3344 2457 Crs
4679 2780 Crs
4528 2726 Crs
4383 2943 Crs
4255 2743 Crs
4383 2963 Crs
3617 2631 Crs
4679 2830 Crs
3768 2714 Crs
3879 2785 Crs
4047 2490 Crs
3976 2697 Crs
3879 2762 Crs
3529 2643 Crs
3738 2542 Crs
3738 2812 Crs
3879 2747 Crs
3583 2558 Crs
3344 2398 Crs
4255 2653 Crs
3919 2723 Crs
3768 2470 Crs
3768 2564 Crs
4255 2833 Crs
3768 2687 Crs
3919 2566 Crs
4528 2469 Crs
4255 2582 Crs
4047 2698 Crs
3825 2849 Crs
3738 2681 Crs
3617 2685 Crs
3511 2570 Crs
3919 2844 Crs
4343 2929 Crs
3768 2653 Crs
3919 2847 Crs
3738 2727 Crs
3504 2585 Crs
3169 2258 Crs
4343 2815 Crs
4104 2727 Crs
3738 2707 Crs
3768 2649 Crs
3879 2799 Crs
3193 2327 Crs
4047 2963 Crs
3529 2455 Crs
3511 2356 Crs
3919 2807 Crs
3640 2342 Crs
3879 2386 Crs
3711 2635 Crs
3416 2560 Crs
3504 2603 Crs
3529 2478 Crs
3696 2162 Crs
4343 2758 Crs
3825 2648 Crs
3919 2921 Crs
4343 2970 Crs
4047 2447 Crs
4047 2801 Crs
3879 2790 Crs
3879 2875 Crs
3879 2755 Crs
4383 2640 Crs
4104 2854 Crs
3834 2881 Crs
4064 2894 Crs
3879 2400 Crs
3768 2529 Crs
3768 2585 Crs
3432 2459 Crs
4104 2671 Crs
4158 2866 Crs
3976 2974 Crs
3640 2592 Crs
4343 2915 Crs
3529 2455 Crs
3919 2867 Crs
4255 2880 Crs
3432 2550 Crs
3768 2612 Crs
4104 2600 Crs
3768 2779 Crs
4383 2500 Crs
3768 2762 Crs
3617 2577 Crs
3768 2778 Crs
3738 2525 Crs
3529 2598 Crs
3896 2687 Crs
4343 2548 Crs
3529 2503 Crs
3504 2245 Crs
4343 2870 Crs
3768 2707 Crs
3511 2554 Crs
3365 2488 Crs
4255 2740 Crs
3768 2771 Crs
3529 2564 Crs
3879 2791 Crs
4104 2551 Crs
4047 2852 Crs
3696 2624 Crs
3976 2766 Crs
3879 2767 Crs
4047 2850 Crs
3768 2624 Crs
3919 2801 Crs
3904 2828 Crs
4255 2625 Crs
3432 2546 Crs
3711 2730 Crs
3416 2474 Crs
4047 2963 Crs
3696 2387 Crs
3617 2507 Crs
4343 2891 Crs
4255 2611 Crs
4104 2750 Crs
3919 2908 Crs
3617 2428 Crs
4158 2761 Crs
3919 2672 Crs
4343 2743 Crs
4104 2981 Crs
4255 2696 Crs
4047 2822 Crs
3640 2632 Crs
4343 2687 Crs
3879 2687 Crs
3768 2758 Crs
3919 2795 Crs
3768 2613 Crs
3976 2952 Crs
3976 2600 Crs
3879 2732 Crs
3919 2691 Crs
3738 2701 Crs
3432 2301 Crs
3919 2545 Crs
3640 2475 Crs
4343 2600 Crs
3432 2454 Crs
3640 2682 Crs
3919 2484 Crs
4104 2874 Crs
3879 2677 Crs
4047 2470 Crs
3825 2711 Crs
4047 2431 Crs
% End plot #2
% Begin plot #3
1.000 UL
LTb
LT1
0.75 0.75 0.75 C 2172 1633 M
25 19 V
25 19 V
26 19 V
25 20 V
25 19 V
26 19 V
25 19 V
25 19 V
26 19 V
25 20 V
25 19 V
26 19 V
25 19 V
25 19 V
25 19 V
26 20 V
25 19 V
25 19 V
26 19 V
25 19 V
25 20 V
26 19 V
25 19 V
25 19 V
26 19 V
25 19 V
25 20 V
26 19 V
25 19 V
25 19 V
26 19 V
25 19 V
25 20 V
26 19 V
25 19 V
25 19 V
26 19 V
25 19 V
25 20 V
26 19 V
25 19 V
25 19 V
26 19 V
25 19 V
25 20 V
26 19 V
25 19 V
25 19 V
26 19 V
25 20 V
25 19 V
26 19 V
25 19 V
25 19 V
26 19 V
25 20 V
25 19 V
26 19 V
25 19 V
25 19 V
26 19 V
25 20 V
25 19 V
26 19 V
25 19 V
25 19 V
26 19 V
25 20 V
25 19 V
26 19 V
25 19 V
25 19 V
25 20 V
26 19 V
25 19 V
25 19 V
26 19 V
25 19 V
25 20 V
26 19 V
25 19 V
25 19 V
26 19 V
25 19 V
25 20 V
26 19 V
25 19 V
25 19 V
26 19 V
25 19 V
25 20 V
26 19 V
25 19 V
25 19 V
26 19 V
25 19 V
25 20 V
26 19 V
25 19 V
% End plot #3
stroke
2.000 UL
LTb
LCb setrgbcolor
1.000 UL
LTb
LCb setrgbcolor
860 3531 N
860 640 L
3819 0 V
0 2891 V
-3819 0 V
Z stroke
0.500 UP
1.000 UL
LTb
LCb setrgbcolor
stroke
grestore
end
showpage
%%Trailer
%%DocumentFonts: Helvetica
