%!PS-Adobe-2.0 EPSF-2.0
%%Title: max.eps
%%Creator: gnuplot 5.0 patchlevel 1
%%CreationDate: Fri Oct 30 18:57:07 2015
%%DocumentFonts: (atend)
%%BoundingBox: 50 50 302 238
%%EndComments
%%BeginProlog
/gnudict 256 dict def
gnudict begin
%
% The following true/false flags may be edited by hand if desired.
% The unit line width and grayscale image gamma correction may also be changed.
%
/Color true def
/Blacktext false def
/Solid false def
/Dashlength 1 def
/Landscape false def
/Level1 false def
/Level3 false def
/Rounded false def
/ClipToBoundingBox false def
/SuppressPDFMark false def
/TransparentPatterns false def
/gnulinewidth 5.000 def
/userlinewidth gnulinewidth def
/Gamma 1.0 def
/BackgroundColor {-1.000 -1.000 -1.000} def
%
/vshift -66 def
/dl1 {
  10.0 Dashlength userlinewidth gnulinewidth div mul mul mul
  Rounded { currentlinewidth 0.75 mul sub dup 0 le { pop 0.01 } if } if
} def
/dl2 {
  10.0 Dashlength userlinewidth gnulinewidth div mul mul mul
  Rounded { currentlinewidth 0.75 mul add } if
} def
/hpt_ 31.5 def
/vpt_ 31.5 def
/hpt hpt_ def
/vpt vpt_ def
/doclip {
  ClipToBoundingBox {
    newpath 50 50 moveto 302 50 lineto 302 238 lineto 50 238 lineto closepath
    clip
  } if
} def
%
% Gnuplot Prolog Version 5.0 (Dec 2014)
%
%/SuppressPDFMark true def
%
/M {moveto} bind def
/L {lineto} bind def
/R {rmoveto} bind def
/V {rlineto} bind def
/N {newpath moveto} bind def
/Z {closepath} bind def
/C {setrgbcolor} bind def
/f {rlineto fill} bind def
/g {setgray} bind def
/Gshow {show} def   % May be redefined later in the file to support UTF-8
/vpt2 vpt 2 mul def
/hpt2 hpt 2 mul def
/Lshow {currentpoint stroke M 0 vshift R 
	Blacktext {gsave 0 setgray textshow grestore} {textshow} ifelse} def
/Rshow {currentpoint stroke M dup stringwidth pop neg vshift R
	Blacktext {gsave 0 setgray textshow grestore} {textshow} ifelse} def
/Cshow {currentpoint stroke M dup stringwidth pop -2 div vshift R 
	Blacktext {gsave 0 setgray textshow grestore} {textshow} ifelse} def
/UP {dup vpt_ mul /vpt exch def hpt_ mul /hpt exch def
  /hpt2 hpt 2 mul def /vpt2 vpt 2 mul def} def
/DL {Color {setrgbcolor Solid {pop []} if 0 setdash}
 {pop pop pop 0 setgray Solid {pop []} if 0 setdash} ifelse} def
/BL {stroke userlinewidth 2 mul setlinewidth
	Rounded {1 setlinejoin 1 setlinecap} if} def
/AL {stroke userlinewidth 2 div setlinewidth
	Rounded {1 setlinejoin 1 setlinecap} if} def
/UL {dup gnulinewidth mul /userlinewidth exch def
	dup 1 lt {pop 1} if 10 mul /udl exch def} def
/PL {stroke userlinewidth setlinewidth
	Rounded {1 setlinejoin 1 setlinecap} if} def
3.8 setmiterlimit
% Classic Line colors (version 5.0)
/LCw {1 1 1} def
/LCb {0 0 0} def
/LCa {0 0 0} def
/LC0 {1 0 0} def
/LC1 {0 1 0} def
/LC2 {0 0 1} def
/LC3 {1 0 1} def
/LC4 {0 1 1} def
/LC5 {1 1 0} def
/LC6 {0 0 0} def
/LC7 {1 0.3 0} def
/LC8 {0.5 0.5 0.5} def
% Default dash patterns (version 5.0)
/LTw {PL [] 1 setgray} def
/LTb {BL [] LCb DL} def
/LTa {AL [1 udl mul 2 udl mul] 0 setdash LCa setrgbcolor} def
/LT0 {PL [] LC0 DL} def
/LT1 {PL [2 dl1 3 dl2] LC1 DL} def
/LT2 {PL [1 dl1 1.5 dl2] LC2 DL} def
/LT3 {PL [6 dl1 2 dl2 1 dl1 2 dl2] LC3 DL} def
/LT4 {PL [1 dl1 2 dl2 6 dl1 2 dl2 1 dl1 2 dl2] LC4 DL} def
/LT5 {PL [4 dl1 2 dl2] LC5 DL} def
/LT6 {PL [1.5 dl1 1.5 dl2 1.5 dl1 1.5 dl2 1.5 dl1 6 dl2] LC6 DL} def
/LT7 {PL [3 dl1 3 dl2 1 dl1 3 dl2] LC7 DL} def
/LT8 {PL [2 dl1 2 dl2 2 dl1 6 dl2] LC8 DL} def
/SL {[] 0 setdash} def
/Pnt {stroke [] 0 setdash gsave 1 setlinecap M 0 0 V stroke grestore} def
/Dia {stroke [] 0 setdash 2 copy vpt add M
  hpt neg vpt neg V hpt vpt neg V
  hpt vpt V hpt neg vpt V closepath stroke
  Pnt} def
/Pls {stroke [] 0 setdash vpt sub M 0 vpt2 V
  currentpoint stroke M
  hpt neg vpt neg R hpt2 0 V stroke
 } def
/Box {stroke [] 0 setdash 2 copy exch hpt sub exch vpt add M
  0 vpt2 neg V hpt2 0 V 0 vpt2 V
  hpt2 neg 0 V closepath stroke
  Pnt} def
/Crs {stroke [] 0 setdash exch hpt sub exch vpt add M
  hpt2 vpt2 neg V currentpoint stroke M
  hpt2 neg 0 R hpt2 vpt2 V stroke} def
/TriU {stroke [] 0 setdash 2 copy vpt 1.12 mul add M
  hpt neg vpt -1.62 mul V
  hpt 2 mul 0 V
  hpt neg vpt 1.62 mul V closepath stroke
  Pnt} def
/Star {2 copy Pls Crs} def
/BoxF {stroke [] 0 setdash exch hpt sub exch vpt add M
  0 vpt2 neg V hpt2 0 V 0 vpt2 V
  hpt2 neg 0 V closepath fill} def
/TriUF {stroke [] 0 setdash vpt 1.12 mul add M
  hpt neg vpt -1.62 mul V
  hpt 2 mul 0 V
  hpt neg vpt 1.62 mul V closepath fill} def
/TriD {stroke [] 0 setdash 2 copy vpt 1.12 mul sub M
  hpt neg vpt 1.62 mul V
  hpt 2 mul 0 V
  hpt neg vpt -1.62 mul V closepath stroke
  Pnt} def
/TriDF {stroke [] 0 setdash vpt 1.12 mul sub M
  hpt neg vpt 1.62 mul V
  hpt 2 mul 0 V
  hpt neg vpt -1.62 mul V closepath fill} def
/DiaF {stroke [] 0 setdash vpt add M
  hpt neg vpt neg V hpt vpt neg V
  hpt vpt V hpt neg vpt V closepath fill} def
/Pent {stroke [] 0 setdash 2 copy gsave
  translate 0 hpt M 4 {72 rotate 0 hpt L} repeat
  closepath stroke grestore Pnt} def
/PentF {stroke [] 0 setdash gsave
  translate 0 hpt M 4 {72 rotate 0 hpt L} repeat
  closepath fill grestore} def
/Circle {stroke [] 0 setdash 2 copy
  hpt 0 360 arc stroke Pnt} def
/CircleF {stroke [] 0 setdash hpt 0 360 arc fill} def
/C0 {BL [] 0 setdash 2 copy moveto vpt 90 450 arc} bind def
/C1 {BL [] 0 setdash 2 copy moveto
	2 copy vpt 0 90 arc closepath fill
	vpt 0 360 arc closepath} bind def
/C2 {BL [] 0 setdash 2 copy moveto
	2 copy vpt 90 180 arc closepath fill
	vpt 0 360 arc closepath} bind def
/C3 {BL [] 0 setdash 2 copy moveto
	2 copy vpt 0 180 arc closepath fill
	vpt 0 360 arc closepath} bind def
/C4 {BL [] 0 setdash 2 copy moveto
	2 copy vpt 180 270 arc closepath fill
	vpt 0 360 arc closepath} bind def
/C5 {BL [] 0 setdash 2 copy moveto
	2 copy vpt 0 90 arc
	2 copy moveto
	2 copy vpt 180 270 arc closepath fill
	vpt 0 360 arc} bind def
/C6 {BL [] 0 setdash 2 copy moveto
	2 copy vpt 90 270 arc closepath fill
	vpt 0 360 arc closepath} bind def
/C7 {BL [] 0 setdash 2 copy moveto
	2 copy vpt 0 270 arc closepath fill
	vpt 0 360 arc closepath} bind def
/C8 {BL [] 0 setdash 2 copy moveto
	2 copy vpt 270 360 arc closepath fill
	vpt 0 360 arc closepath} bind def
/C9 {BL [] 0 setdash 2 copy moveto
	2 copy vpt 270 450 arc closepath fill
	vpt 0 360 arc closepath} bind def
/C10 {BL [] 0 setdash 2 copy 2 copy moveto vpt 270 360 arc closepath fill
	2 copy moveto
	2 copy vpt 90 180 arc closepath fill
	vpt 0 360 arc closepath} bind def
/C11 {BL [] 0 setdash 2 copy moveto
	2 copy vpt 0 180 arc closepath fill
	2 copy moveto
	2 copy vpt 270 360 arc closepath fill
	vpt 0 360 arc closepath} bind def
/C12 {BL [] 0 setdash 2 copy moveto
	2 copy vpt 180 360 arc closepath fill
	vpt 0 360 arc closepath} bind def
/C13 {BL [] 0 setdash 2 copy moveto
	2 copy vpt 0 90 arc closepath fill
	2 copy moveto
	2 copy vpt 180 360 arc closepath fill
	vpt 0 360 arc closepath} bind def
/C14 {BL [] 0 setdash 2 copy moveto
	2 copy vpt 90 360 arc closepath fill
	vpt 0 360 arc} bind def
/C15 {BL [] 0 setdash 2 copy vpt 0 360 arc closepath fill
	vpt 0 360 arc closepath} bind def
/Rec {newpath 4 2 roll moveto 1 index 0 rlineto 0 exch rlineto
	neg 0 rlineto closepath} bind def
/Square {dup Rec} bind def
/Bsquare {vpt sub exch vpt sub exch vpt2 Square} bind def
/S0 {BL [] 0 setdash 2 copy moveto 0 vpt rlineto BL Bsquare} bind def
/S1 {BL [] 0 setdash 2 copy vpt Square fill Bsquare} bind def
/S2 {BL [] 0 setdash 2 copy exch vpt sub exch vpt Square fill Bsquare} bind def
/S3 {BL [] 0 setdash 2 copy exch vpt sub exch vpt2 vpt Rec fill Bsquare} bind def
/S4 {BL [] 0 setdash 2 copy exch vpt sub exch vpt sub vpt Square fill Bsquare} bind def
/S5 {BL [] 0 setdash 2 copy 2 copy vpt Square fill
	exch vpt sub exch vpt sub vpt Square fill Bsquare} bind def
/S6 {BL [] 0 setdash 2 copy exch vpt sub exch vpt sub vpt vpt2 Rec fill Bsquare} bind def
/S7 {BL [] 0 setdash 2 copy exch vpt sub exch vpt sub vpt vpt2 Rec fill
	2 copy vpt Square fill Bsquare} bind def
/S8 {BL [] 0 setdash 2 copy vpt sub vpt Square fill Bsquare} bind def
/S9 {BL [] 0 setdash 2 copy vpt sub vpt vpt2 Rec fill Bsquare} bind def
/S10 {BL [] 0 setdash 2 copy vpt sub vpt Square fill 2 copy exch vpt sub exch vpt Square fill
	Bsquare} bind def
/S11 {BL [] 0 setdash 2 copy vpt sub vpt Square fill 2 copy exch vpt sub exch vpt2 vpt Rec fill
	Bsquare} bind def
/S12 {BL [] 0 setdash 2 copy exch vpt sub exch vpt sub vpt2 vpt Rec fill Bsquare} bind def
/S13 {BL [] 0 setdash 2 copy exch vpt sub exch vpt sub vpt2 vpt Rec fill
	2 copy vpt Square fill Bsquare} bind def
/S14 {BL [] 0 setdash 2 copy exch vpt sub exch vpt sub vpt2 vpt Rec fill
	2 copy exch vpt sub exch vpt Square fill Bsquare} bind def
/S15 {BL [] 0 setdash 2 copy Bsquare fill Bsquare} bind def
/D0 {gsave translate 45 rotate 0 0 S0 stroke grestore} bind def
/D1 {gsave translate 45 rotate 0 0 S1 stroke grestore} bind def
/D2 {gsave translate 45 rotate 0 0 S2 stroke grestore} bind def
/D3 {gsave translate 45 rotate 0 0 S3 stroke grestore} bind def
/D4 {gsave translate 45 rotate 0 0 S4 stroke grestore} bind def
/D5 {gsave translate 45 rotate 0 0 S5 stroke grestore} bind def
/D6 {gsave translate 45 rotate 0 0 S6 stroke grestore} bind def
/D7 {gsave translate 45 rotate 0 0 S7 stroke grestore} bind def
/D8 {gsave translate 45 rotate 0 0 S8 stroke grestore} bind def
/D9 {gsave translate 45 rotate 0 0 S9 stroke grestore} bind def
/D10 {gsave translate 45 rotate 0 0 S10 stroke grestore} bind def
/D11 {gsave translate 45 rotate 0 0 S11 stroke grestore} bind def
/D12 {gsave translate 45 rotate 0 0 S12 stroke grestore} bind def
/D13 {gsave translate 45 rotate 0 0 S13 stroke grestore} bind def
/D14 {gsave translate 45 rotate 0 0 S14 stroke grestore} bind def
/D15 {gsave translate 45 rotate 0 0 S15 stroke grestore} bind def
/DiaE {stroke [] 0 setdash vpt add M
  hpt neg vpt neg V hpt vpt neg V
  hpt vpt V hpt neg vpt V closepath stroke} def
/BoxE {stroke [] 0 setdash exch hpt sub exch vpt add M
  0 vpt2 neg V hpt2 0 V 0 vpt2 V
  hpt2 neg 0 V closepath stroke} def
/TriUE {stroke [] 0 setdash vpt 1.12 mul add M
  hpt neg vpt -1.62 mul V
  hpt 2 mul 0 V
  hpt neg vpt 1.62 mul V closepath stroke} def
/TriDE {stroke [] 0 setdash vpt 1.12 mul sub M
  hpt neg vpt 1.62 mul V
  hpt 2 mul 0 V
  hpt neg vpt -1.62 mul V closepath stroke} def
/PentE {stroke [] 0 setdash gsave
  translate 0 hpt M 4 {72 rotate 0 hpt L} repeat
  closepath stroke grestore} def
/CircE {stroke [] 0 setdash 
  hpt 0 360 arc stroke} def
/Opaque {gsave closepath 1 setgray fill grestore 0 setgray closepath} def
/DiaW {stroke [] 0 setdash vpt add M
  hpt neg vpt neg V hpt vpt neg V
  hpt vpt V hpt neg vpt V Opaque stroke} def
/BoxW {stroke [] 0 setdash exch hpt sub exch vpt add M
  0 vpt2 neg V hpt2 0 V 0 vpt2 V
  hpt2 neg 0 V Opaque stroke} def
/TriUW {stroke [] 0 setdash vpt 1.12 mul add M
  hpt neg vpt -1.62 mul V
  hpt 2 mul 0 V
  hpt neg vpt 1.62 mul V Opaque stroke} def
/TriDW {stroke [] 0 setdash vpt 1.12 mul sub M
  hpt neg vpt 1.62 mul V
  hpt 2 mul 0 V
  hpt neg vpt -1.62 mul V Opaque stroke} def
/PentW {stroke [] 0 setdash gsave
  translate 0 hpt M 4 {72 rotate 0 hpt L} repeat
  Opaque stroke grestore} def
/CircW {stroke [] 0 setdash 
  hpt 0 360 arc Opaque stroke} def
/BoxFill {gsave Rec 1 setgray fill grestore} def
/Density {
  /Fillden exch def
  currentrgbcolor
  /ColB exch def /ColG exch def /ColR exch def
  /ColR ColR Fillden mul Fillden sub 1 add def
  /ColG ColG Fillden mul Fillden sub 1 add def
  /ColB ColB Fillden mul Fillden sub 1 add def
  ColR ColG ColB setrgbcolor} def
/BoxColFill {gsave Rec PolyFill} def
/PolyFill {gsave Density fill grestore grestore} def
/h {rlineto rlineto rlineto gsave closepath fill grestore} bind def
%
% PostScript Level 1 Pattern Fill routine for rectangles
% Usage: x y w h s a XX PatternFill
%	x,y = lower left corner of box to be filled
%	w,h = width and height of box
%	  a = angle in degrees between lines and x-axis
%	 XX = 0/1 for no/yes cross-hatch
%
/PatternFill {gsave /PFa [ 9 2 roll ] def
  PFa 0 get PFa 2 get 2 div add PFa 1 get PFa 3 get 2 div add translate
  PFa 2 get -2 div PFa 3 get -2 div PFa 2 get PFa 3 get Rec
  TransparentPatterns {} {gsave 1 setgray fill grestore} ifelse
  clip
  currentlinewidth 0.5 mul setlinewidth
  /PFs PFa 2 get dup mul PFa 3 get dup mul add sqrt def
  0 0 M PFa 5 get rotate PFs -2 div dup translate
  0 1 PFs PFa 4 get div 1 add floor cvi
	{PFa 4 get mul 0 M 0 PFs V} for
  0 PFa 6 get ne {
	0 1 PFs PFa 4 get div 1 add floor cvi
	{PFa 4 get mul 0 2 1 roll M PFs 0 V} for
 } if
  stroke grestore} def
%
/languagelevel where
 {pop languagelevel} {1} ifelse
dup 2 lt
	{/InterpretLevel1 true def
	 /InterpretLevel3 false def}
	{/InterpretLevel1 Level1 def
	 2 gt
	    {/InterpretLevel3 Level3 def}
	    {/InterpretLevel3 false def}
	 ifelse }
 ifelse
%
% PostScript level 2 pattern fill definitions
%
/Level2PatternFill {
/Tile8x8 {/PaintType 2 /PatternType 1 /TilingType 1 /BBox [0 0 8 8] /XStep 8 /YStep 8}
	bind def
/KeepColor {currentrgbcolor [/Pattern /DeviceRGB] setcolorspace} bind def
<< Tile8x8
 /PaintProc {0.5 setlinewidth pop 0 0 M 8 8 L 0 8 M 8 0 L stroke} 
>> matrix makepattern
/Pat1 exch def
<< Tile8x8
 /PaintProc {0.5 setlinewidth pop 0 0 M 8 8 L 0 8 M 8 0 L stroke
	0 4 M 4 8 L 8 4 L 4 0 L 0 4 L stroke}
>> matrix makepattern
/Pat2 exch def
<< Tile8x8
 /PaintProc {0.5 setlinewidth pop 0 0 M 0 8 L
	8 8 L 8 0 L 0 0 L fill}
>> matrix makepattern
/Pat3 exch def
<< Tile8x8
 /PaintProc {0.5 setlinewidth pop -4 8 M 8 -4 L
	0 12 M 12 0 L stroke}
>> matrix makepattern
/Pat4 exch def
<< Tile8x8
 /PaintProc {0.5 setlinewidth pop -4 0 M 8 12 L
	0 -4 M 12 8 L stroke}
>> matrix makepattern
/Pat5 exch def
<< Tile8x8
 /PaintProc {0.5 setlinewidth pop -2 8 M 4 -4 L
	0 12 M 8 -4 L 4 12 M 10 0 L stroke}
>> matrix makepattern
/Pat6 exch def
<< Tile8x8
 /PaintProc {0.5 setlinewidth pop -2 0 M 4 12 L
	0 -4 M 8 12 L 4 -4 M 10 8 L stroke}
>> matrix makepattern
/Pat7 exch def
<< Tile8x8
 /PaintProc {0.5 setlinewidth pop 8 -2 M -4 4 L
	12 0 M -4 8 L 12 4 M 0 10 L stroke}
>> matrix makepattern
/Pat8 exch def
<< Tile8x8
 /PaintProc {0.5 setlinewidth pop 0 -2 M 12 4 L
	-4 0 M 12 8 L -4 4 M 8 10 L stroke}
>> matrix makepattern
/Pat9 exch def
/Pattern1 {PatternBgnd KeepColor Pat1 setpattern} bind def
/Pattern2 {PatternBgnd KeepColor Pat2 setpattern} bind def
/Pattern3 {PatternBgnd KeepColor Pat3 setpattern} bind def
/Pattern4 {PatternBgnd KeepColor Landscape {Pat5} {Pat4} ifelse setpattern} bind def
/Pattern5 {PatternBgnd KeepColor Landscape {Pat4} {Pat5} ifelse setpattern} bind def
/Pattern6 {PatternBgnd KeepColor Landscape {Pat9} {Pat6} ifelse setpattern} bind def
/Pattern7 {PatternBgnd KeepColor Landscape {Pat8} {Pat7} ifelse setpattern} bind def
} def
%
%
%End of PostScript Level 2 code
%
/PatternBgnd {
  TransparentPatterns {} {gsave 1 setgray fill grestore} ifelse
} def
%
% Substitute for Level 2 pattern fill codes with
% grayscale if Level 2 support is not selected.
%
/Level1PatternFill {
/Pattern1 {0.250 Density} bind def
/Pattern2 {0.500 Density} bind def
/Pattern3 {0.750 Density} bind def
/Pattern4 {0.125 Density} bind def
/Pattern5 {0.375 Density} bind def
/Pattern6 {0.625 Density} bind def
/Pattern7 {0.875 Density} bind def
} def
%
% Now test for support of Level 2 code
%
Level1 {Level1PatternFill} {Level2PatternFill} ifelse
%
/Symbol-Oblique /Symbol findfont [1 0 .167 1 0 0] makefont
dup length dict begin {1 index /FID eq {pop pop} {def} ifelse} forall
currentdict end definefont pop
%
/MFshow {
   { dup 5 get 3 ge
     { 5 get 3 eq {gsave} {grestore} ifelse }
     {dup dup 0 get findfont exch 1 get scalefont setfont
     [ currentpoint ] exch dup 2 get 0 exch R dup 5 get 2 ne {dup dup 6
     get exch 4 get {textshow} {stringwidth pop 0 R} ifelse }if dup 5 get 0 eq
     {dup 3 get {2 get neg 0 exch R pop} {pop aload pop M} ifelse} {dup 5
     get 1 eq {dup 2 get exch dup 3 get exch 6 get stringwidth pop -2 div
     dup 0 R} {dup 6 get stringwidth pop -2 div 0 R 6 get
     textshow 2 index {aload pop M neg 3 -1 roll neg R pop pop} {pop pop pop
     pop aload pop M} ifelse }ifelse }ifelse }
     ifelse }
   forall} def
/Gswidth {dup type /stringtype eq {stringwidth} {pop (n) stringwidth} ifelse} def
/MFwidth {0 exch { dup 5 get 3 ge { 5 get 3 eq { 0 } { pop } ifelse }
 {dup 3 get{dup dup 0 get findfont exch 1 get scalefont setfont
     6 get Gswidth pop add} {pop} ifelse} ifelse} forall} def
/MLshow { currentpoint stroke M
  0 exch R
  Blacktext {gsave 0 setgray MFshow grestore} {MFshow} ifelse } bind def
/MRshow { currentpoint stroke M
  exch dup MFwidth neg 3 -1 roll R
  Blacktext {gsave 0 setgray MFshow grestore} {MFshow} ifelse } bind def
/MCshow { currentpoint stroke M
  exch dup MFwidth -2 div 3 -1 roll R
  Blacktext {gsave 0 setgray MFshow grestore} {MFshow} ifelse } bind def
/XYsave    { [( ) 1 2 true false 3 ()] } bind def
/XYrestore { [( ) 1 2 true false 4 ()] } bind def
Level1 SuppressPDFMark or 
{} {
/SDict 10 dict def
systemdict /pdfmark known not {
  userdict /pdfmark systemdict /cleartomark get put
} if
SDict begin [
  /Title (max.eps)
  /Subject (gnuplot plot)
  /Creator (gnuplot 5.0 patchlevel 1)
  /Author (gaumont)
%  /Producer (gnuplot)
%  /Keywords ()
  /CreationDate (Fri Oct 30 18:57:07 2015)
  /DOCINFO pdfmark
end
} ifelse
end
%
% Support for boxed text - Ethan A Merritt May 2005
%
/InitTextBox { userdict /TBy2 3 -1 roll put userdict /TBx2 3 -1 roll put
           userdict /TBy1 3 -1 roll put userdict /TBx1 3 -1 roll put
	   /Boxing true def } def
/ExtendTextBox { Boxing
    { gsave dup false charpath pathbbox
      dup TBy2 gt {userdict /TBy2 3 -1 roll put} {pop} ifelse
      dup TBx2 gt {userdict /TBx2 3 -1 roll put} {pop} ifelse
      dup TBy1 lt {userdict /TBy1 3 -1 roll put} {pop} ifelse
      dup TBx1 lt {userdict /TBx1 3 -1 roll put} {pop} ifelse
      grestore } if } def
/PopTextBox { newpath TBx1 TBxmargin sub TBy1 TBymargin sub M
               TBx1 TBxmargin sub TBy2 TBymargin add L
	       TBx2 TBxmargin add TBy2 TBymargin add L
	       TBx2 TBxmargin add TBy1 TBymargin sub L closepath } def
/DrawTextBox { PopTextBox stroke /Boxing false def} def
/FillTextBox { gsave PopTextBox 1 1 1 setrgbcolor fill grestore /Boxing false def} def
0 0 0 0 InitTextBox
/TBxmargin 20 def
/TBymargin 20 def
/Boxing false def
/textshow { ExtendTextBox Gshow } def
%
%%EndProlog
%%Page: 1 1
gnudict begin
gsave
doclip
50 50 translate
0.050 0.050 scale
0 setgray
newpath
(Helvetica) findfont 200 scalefont setfont
BackgroundColor 0 lt 3 1 roll 0 lt exch 0 lt or or not {BackgroundColor C 1.000 0 0 5040.00 3772.00 BoxColFill} if
1.000 UL
LTb
LCb setrgbcolor
860 640 M
63 0 V
3756 0 R
-63 0 V
stroke
740 640 M
[ [(Helvetica) 200.0 0.0 true true 0 (10)]
[(Helvetica) 160.0 100.0 true true 0 (-5)]
] -86.7 MRshow
1.000 UL
LTb
LCb setrgbcolor
860 814 M
31 0 V
3788 0 R
-31 0 V
860 1044 M
31 0 V
3788 0 R
-31 0 V
860 1162 M
31 0 V
3788 0 R
-31 0 V
860 1218 M
63 0 V
3756 0 R
-63 0 V
stroke
740 1218 M
[ [(Helvetica) 200.0 0.0 true true 0 (10)]
[(Helvetica) 160.0 100.0 true true 0 (-4)]
] -86.7 MRshow
1.000 UL
LTb
LCb setrgbcolor
860 1392 M
31 0 V
3788 0 R
-31 0 V
860 1622 M
31 0 V
3788 0 R
-31 0 V
860 1740 M
31 0 V
3788 0 R
-31 0 V
860 1796 M
63 0 V
3756 0 R
-63 0 V
stroke
740 1796 M
[ [(Helvetica) 200.0 0.0 true true 0 (10)]
[(Helvetica) 160.0 100.0 true true 0 (-3)]
] -86.7 MRshow
1.000 UL
LTb
LCb setrgbcolor
860 1970 M
31 0 V
3788 0 R
-31 0 V
860 2201 M
31 0 V
3788 0 R
-31 0 V
860 2319 M
31 0 V
3788 0 R
-31 0 V
860 2375 M
63 0 V
3756 0 R
-63 0 V
stroke
740 2375 M
[ [(Helvetica) 200.0 0.0 true true 0 (10)]
[(Helvetica) 160.0 100.0 true true 0 (-2)]
] -86.7 MRshow
1.000 UL
LTb
LCb setrgbcolor
860 2549 M
31 0 V
3788 0 R
-31 0 V
860 2779 M
31 0 V
3788 0 R
-31 0 V
860 2897 M
31 0 V
3788 0 R
-31 0 V
860 2953 M
63 0 V
3756 0 R
-63 0 V
stroke
740 2953 M
[ [(Helvetica) 200.0 0.0 true true 0 (10)]
[(Helvetica) 160.0 100.0 true true 0 (-1)]
] -86.7 MRshow
1.000 UL
LTb
LCb setrgbcolor
860 3127 M
31 0 V
3788 0 R
-31 0 V
860 3357 M
31 0 V
3788 0 R
-31 0 V
860 3475 M
31 0 V
3788 0 R
-31 0 V
860 3531 M
63 0 V
3756 0 R
-63 0 V
stroke
740 3531 M
[ [(Helvetica) 200.0 0.0 true true 0 (10)]
[(Helvetica) 160.0 100.0 true true 0 (0)]
] -86.7 MRshow
1.000 UL
LTb
LCb setrgbcolor
860 640 M
0 63 V
0 2828 R
0 -63 V
stroke
860 440 M
[ [(Helvetica) 200.0 0.0 true true 0 (10)]
[(Helvetica) 160.0 100.0 true true 0 (-5)]
] -86.7 MCshow
1.000 UL
LTb
LCb setrgbcolor
1090 640 M
0 31 V
0 2860 R
0 -31 V
1394 640 M
0 31 V
0 2860 R
0 -31 V
1550 640 M
0 31 V
0 2860 R
0 -31 V
1624 640 M
0 63 V
0 2828 R
0 -63 V
stroke
1624 440 M
[ [(Helvetica) 200.0 0.0 true true 0 (10)]
[(Helvetica) 160.0 100.0 true true 0 (-4)]
] -86.7 MCshow
1.000 UL
LTb
LCb setrgbcolor
1854 640 M
0 31 V
0 2860 R
0 -31 V
2158 640 M
0 31 V
0 2860 R
0 -31 V
2314 640 M
0 31 V
0 2860 R
0 -31 V
2388 640 M
0 63 V
0 2828 R
0 -63 V
stroke
2388 440 M
[ [(Helvetica) 200.0 0.0 true true 0 (10)]
[(Helvetica) 160.0 100.0 true true 0 (-3)]
] -86.7 MCshow
1.000 UL
LTb
LCb setrgbcolor
2618 640 M
0 31 V
0 2860 R
0 -31 V
2921 640 M
0 31 V
0 2860 R
0 -31 V
3077 640 M
0 31 V
0 2860 R
0 -31 V
3151 640 M
0 63 V
0 2828 R
0 -63 V
stroke
3151 440 M
[ [(Helvetica) 200.0 0.0 true true 0 (10)]
[(Helvetica) 160.0 100.0 true true 0 (-2)]
] -86.7 MCshow
1.000 UL
LTb
LCb setrgbcolor
3381 640 M
0 31 V
0 2860 R
0 -31 V
3685 640 M
0 31 V
0 2860 R
0 -31 V
3841 640 M
0 31 V
0 2860 R
0 -31 V
3915 640 M
0 63 V
0 2828 R
0 -63 V
stroke
3915 440 M
[ [(Helvetica) 200.0 0.0 true true 0 (10)]
[(Helvetica) 160.0 100.0 true true 0 (-1)]
] -86.7 MCshow
1.000 UL
LTb
LCb setrgbcolor
4145 640 M
0 31 V
0 2860 R
0 -31 V
4449 640 M
0 31 V
0 2860 R
0 -31 V
4605 640 M
0 31 V
0 2860 R
0 -31 V
4679 640 M
0 63 V
0 2828 R
0 -63 V
stroke
4679 440 M
[ [(Helvetica) 200.0 0.0 true true 0 (10)]
[(Helvetica) 160.0 100.0 true true 0 (0)]
] -86.7 MCshow
1.000 UL
LTb
LCb setrgbcolor
1.000 UL
LTb
LCb setrgbcolor
860 3531 N
860 640 L
3819 0 V
0 2891 V
-3819 0 V
Z stroke
0.500 UP
1.000 UL
LTb
LCb setrgbcolor
LCb setrgbcolor
160 2085 M
currentpoint gsave translate -270 rotate 0 0 moveto
[ [(Helvetica) 200.0 0.0 true true 0 (Max inter-thread density)]
] -66.7 MCshow
grestore
LTb
LCb setrgbcolor
2769 140 M
[ [(Helvetica) 200.0 0.0 true true 0 (Intra-thread density)]
] -66.7 MCshow
LTb
% Begin plot #1
0.500 UP
0.500 UL
LTb
0.82 0.11 0.02 C 2592 2035 Pls
2927 2341 Pls
2627 2033 Pls
1231 1417 Pls
2024 2021 Pls
1513 1426 Pls
1699 1926 Pls
2183 1755 Pls
2332 1789 Pls
2358 1913 Pls
1905 1748 Pls
2572 1936 Pls
867 1518 Pls
2784 2205 Pls
2437 1955 Pls
2061 1726 Pls
2120 1924 Pls
2389 1956 Pls
2497 2262 Pls
2175 2004 Pls
3321 2546 Pls
2431 1878 Pls
2517 2098 Pls
2367 2183 Pls
2417 1838 Pls
2199 1929 Pls
2199 1782 Pls
3091 2623 Pls
3259 2646 Pls
2517 2096 Pls
1629 1693 Pls
2873 2214 Pls
2278 1814 Pls
2502 2124 Pls
2496 1891 Pls
1987 1599 Pls
2339 1886 Pls
2680 2107 Pls
2756 2104 Pls
2754 2096 Pls
2307 2260 Pls
2188 1780 Pls
1823 1658 Pls
2425 1831 Pls
2639 2002 Pls
2531 1943 Pls
2392 1878 Pls
2807 2153 Pls
2474 1990 Pls
2102 1759 Pls
2429 1837 Pls
2890 2534 Pls
2080 1663 Pls
2152 1863 Pls
2376 2285 Pls
2333 1960 Pls
2775 2541 Pls
2508 1977 Pls
2439 1888 Pls
2445 1841 Pls
2078 1680 Pls
2479 1957 Pls
1948 1533 Pls
2513 2045 Pls
2654 2000 Pls
1828 1787 Pls
2339 1991 Pls
2821 2270 Pls
2099 1731 Pls
1983 1849 Pls
2791 2130 Pls
2558 2054 Pls
2751 2420 Pls
2831 2260 Pls
2668 2017 Pls
2075 1944 Pls
2716 2190 Pls
2456 1975 Pls
2716 2322 Pls
2632 1982 Pls
2491 2003 Pls
3698 2942 Pls
2589 2051 Pls
3204 2487 Pls
2673 2181 Pls
2225 1845 Pls
2400 2300 Pls
2534 1928 Pls
2428 1866 Pls
2068 2146 Pls
2986 2452 Pls
2646 2460 Pls
2297 1949 Pls
3105 2474 Pls
2273 1918 Pls
2174 1925 Pls
2849 2228 Pls
2145 1914 Pls
3480 2640 Pls
2443 1990 Pls
2829 2273 Pls
2734 2153 Pls
3004 2264 Pls
3016 2483 Pls
2440 1949 Pls
2585 2322 Pls
2073 2005 Pls
2741 2146 Pls
2938 2299 Pls
2480 1903 Pls
1869 1736 Pls
2553 1942 Pls
2345 1908 Pls
3137 2433 Pls
2655 2106 Pls
2061 1702 Pls
3204 2425 Pls
2430 2013 Pls
2634 2401 Pls
2203 1805 Pls
2775 2120 Pls
2445 2029 Pls
2552 2057 Pls
2417 2041 Pls
2227 1854 Pls
2604 2094 Pls
2396 2233 Pls
2665 2016 Pls
1911 1906 Pls
3140 2425 Pls
2588 1967 Pls
2674 2106 Pls
2315 2159 Pls
2251 1893 Pls
2340 1939 Pls
2503 1910 Pls
1383 1676 Pls
2614 2229 Pls
2569 1971 Pls
2382 1843 Pls
2662 2064 Pls
2475 1960 Pls
2250 1718 Pls
2366 2099 Pls
1887 1534 Pls
2624 2118 Pls
1858 1775 Pls
2787 2235 Pls
2858 2245 Pls
1628 1673 Pls
2825 2489 Pls
2382 1850 Pls
2814 2499 Pls
2669 2114 Pls
2256 1841 Pls
3660 2827 Pls
2463 2355 Pls
2460 1866 Pls
2581 1999 Pls
2196 1770 Pls
2376 2023 Pls
2493 1935 Pls
2544 1984 Pls
2722 2215 Pls
2078 1629 Pls
2107 1712 Pls
2710 2224 Pls
2789 2303 Pls
2424 1848 Pls
2777 2108 Pls
3587 2827 Pls
2912 2214 Pls
2413 1867 Pls
2855 2187 Pls
2039 1741 Pls
3157 2655 Pls
2745 2316 Pls
1750 1942 Pls
2204 2152 Pls
2863 2226 Pls
2184 1723 Pls
2280 1964 Pls
2731 2104 Pls
2565 1976 Pls
2417 1886 Pls
2427 2110 Pls
2983 2255 Pls
2475 1983 Pls
2494 1904 Pls
2682 2233 Pls
2797 2265 Pls
2230 1887 Pls
2384 1923 Pls
2415 1870 Pls
1749 1952 Pls
2263 1938 Pls
2171 1747 Pls
2764 2145 Pls
2560 2036 Pls
2335 1941 Pls
2455 2036 Pls
2304 1922 Pls
2667 2515 Pls
2607 1963 Pls
1982 1717 Pls
2522 2430 Pls
2068 2112 Pls
2107 1944 Pls
2277 1736 Pls
3031 2353 Pls
2830 2228 Pls
2368 1821 Pls
2849 2159 Pls
2380 2272 Pls
2158 1779 Pls
3007 2268 Pls
2419 1999 Pls
3285 2651 Pls
1467 1595 Pls
2253 2120 Pls
2704 2194 Pls
2385 2221 Pls
2650 2179 Pls
2592 2026 Pls
1546 1366 Pls
2517 2014 Pls
2746 2133 Pls
2642 1996 Pls
2373 2023 Pls
2609 2098 Pls
2599 1968 Pls
2256 2146 Pls
3027 2522 Pls
2822 2137 Pls
2894 2227 Pls
2050 2241 Pls
2792 2237 Pls
2657 2440 Pls
1859 1856 Pls
2894 2317 Pls
2593 2261 Pls
2666 2109 Pls
1705 1721 Pls
2454 1871 Pls
3066 2421 Pls
2368 1893 Pls
1794 1497 Pls
2862 2226 Pls
2929 2230 Pls
3057 2612 Pls
2742 2534 Pls
2202 1824 Pls
2281 1922 Pls
2741 2248 Pls
2334 1839 Pls
2431 2015 Pls
2644 1997 Pls
2843 2354 Pls
3157 2623 Pls
2592 2317 Pls
2870 2240 Pls
2914 2452 Pls
2068 1730 Pls
2736 2100 Pls
1731 1885 Pls
2891 2282 Pls
3241 2598 Pls
2895 2213 Pls
2851 2228 Pls
2932 2652 Pls
2888 2378 Pls
2753 2160 Pls
2407 1857 Pls
2986 2255 Pls
2384 2021 Pls
2822 2234 Pls
1796 1852 Pls
3262 2593 Pls
2665 2010 Pls
2694 2030 Pls
2465 2047 Pls
3149 2414 Pls
2211 1800 Pls
3098 2413 Pls
2187 1685 Pls
2616 2098 Pls
2398 1839 Pls
2352 1980 Pls
2384 1814 Pls
2218 1827 Pls
2806 2228 Pls
2758 2320 Pls
2373 2037 Pls
2266 2155 Pls
2520 2269 Pls
2442 1907 Pls
1896 1743 Pls
2930 2258 Pls
2388 1981 Pls
3008 2289 Pls
2039 1631 Pls
2757 2153 Pls
2055 1696 Pls
2237 1785 Pls
2439 1892 Pls
2402 1947 Pls
2721 2171 Pls
2795 2215 Pls
1633 1734 Pls
2844 2587 Pls
2789 2154 Pls
2601 2033 Pls
2840 2166 Pls
2586 1955 Pls
2522 2251 Pls
3396 2676 Pls
2813 2140 Pls
2960 2264 Pls
2503 1942 Pls
2445 2015 Pls
1967 1550 Pls
2455 1900 Pls
2401 2222 Pls
2587 1996 Pls
3042 2521 Pls
2369 1820 Pls
2544 1922 Pls
1986 1731 Pls
3335 2519 Pls
2680 2094 Pls
3041 2656 Pls
2304 2118 Pls
% End plot #1
% Begin plot #2
0.500 UP
0.500 UL
LTb
0.73 0.85 0.33 C 3906 2032 Crs
3560 2219 Crs
4557 2319 Crs
3181 2071 Crs
3726 1731 Crs
3443 1810 Crs
3415 2036 Crs
3489 2029 Crs
3190 2020 Crs
3292 1769 Crs
3383 1987 Crs
3091 1548 Crs
3705 2325 Crs
3888 2185 Crs
3209 1986 Crs
3453 2105 Crs
3209 1927 Crs
3857 2028 Crs
3494 2143 Crs
3363 2351 Crs
3418 2178 Crs
2896 2034 Crs
2941 1896 Crs
3376 2178 Crs
3124 1943 Crs
2971 2044 Crs
3320 1899 Crs
2585 1671 Crs
2992 2212 Crs
2778 1883 Crs
3754 1996 Crs
2893 2012 Crs
3753 1946 Crs
2898 1913 Crs
3868 2155 Crs
3162 1796 Crs
3764 2234 Crs
3375 2283 Crs
3195 2104 Crs
3037 2090 Crs
3805 1773 Crs
3308 2260 Crs
3049 2162 Crs
2705 1845 Crs
3397 2036 Crs
3306 2163 Crs
2788 1780 Crs
2685 1896 Crs
2697 1944 Crs
3300 2052 Crs
4057 2255 Crs
3066 1987 Crs
3626 2297 Crs
3120 1839 Crs
3853 2266 Crs
3006 1980 Crs
3252 1881 Crs
3126 1979 Crs
3618 1962 Crs
3117 1763 Crs
2672 1919 Crs
2790 1966 Crs
3195 1840 Crs
3775 1863 Crs
3020 2144 Crs
3826 2095 Crs
2998 1641 Crs
3272 1876 Crs
3983 2268 Crs
3908 2171 Crs
3554 2070 Crs
2925 2104 Crs
3403 1925 Crs
2944 1806 Crs
2637 1828 Crs
2776 1789 Crs
3060 1778 Crs
3243 2167 Crs
3227 1831 Crs
3043 2087 Crs
3434 2027 Crs
3451 2073 Crs
4272 2108 Crs
3023 2215 Crs
3692 1983 Crs
3433 1885 Crs
3121 2164 Crs
2582 1702 Crs
3386 1795 Crs
3553 2050 Crs
3760 2587 Crs
3172 1846 Crs
2695 1967 Crs
2888 1763 Crs
3122 1980 Crs
3591 2241 Crs
3205 2266 Crs
3550 2215 Crs
3606 2012 Crs
3766 2193 Crs
2582 1822 Crs
3550 2174 Crs
3346 2120 Crs
3014 2063 Crs
3702 2124 Crs
2696 1861 Crs
2510 1805 Crs
3344 1769 Crs
3207 1948 Crs
3387 2106 Crs
2677 1617 Crs
3516 2271 Crs
3402 2005 Crs
3804 2180 Crs
3391 1750 Crs
3025 1942 Crs
3107 2098 Crs
2460 1845 Crs
3165 2132 Crs
3862 1900 Crs
3654 2100 Crs
3344 2022 Crs
3340 2089 Crs
3538 2163 Crs
2556 1787 Crs
4008 2276 Crs
4039 2329 Crs
3428 1934 Crs
2830 1710 Crs
2495 1769 Crs
2868 1931 Crs
2879 1955 Crs
2784 1749 Crs
3960 1967 Crs
3405 1997 Crs
2989 2017 Crs
3024 1905 Crs
2870 1850 Crs
3432 1824 Crs
4261 2373 Crs
3502 2059 Crs
3496 1953 Crs
3489 2378 Crs
3611 2072 Crs
2894 1992 Crs
2977 1494 Crs
3192 2139 Crs
3341 2053 Crs
3086 1946 Crs
3281 1985 Crs
3425 2178 Crs
2911 1977 Crs
3328 2152 Crs
3520 2374 Crs
3946 1682 Crs
3537 2076 Crs
3100 1871 Crs
3090 1921 Crs
3259 1893 Crs
2935 2165 Crs
2680 1632 Crs
3896 1850 Crs
3452 1993 Crs
3579 1861 Crs
3270 1667 Crs
3224 2041 Crs
3055 1842 Crs
3380 1991 Crs
3060 2087 Crs
3084 2234 Crs
3850 2562 Crs
2932 1854 Crs
3317 1752 Crs
3242 2096 Crs
3641 1887 Crs
2995 1817 Crs
3333 2074 Crs
3396 2387 Crs
3479 1925 Crs
3195 1934 Crs
3430 2167 Crs
3309 1981 Crs
3298 1792 Crs
4109 2403 Crs
3071 1952 Crs
2588 1661 Crs
3267 1705 Crs
3529 1882 Crs
2714 1802 Crs
3727 1991 Crs
2640 1943 Crs
2986 1817 Crs
3279 2229 Crs
3726 2184 Crs
2608 1759 Crs
2295 1678 Crs
3376 1923 Crs
3149 1951 Crs
3142 1758 Crs
2862 1710 Crs
2523 1680 Crs
3512 2312 Crs
3634 2062 Crs
3790 2072 Crs
2770 1559 Crs
3394 2133 Crs
3373 1955 Crs
4115 2229 Crs
3053 1961 Crs
3343 2150 Crs
3190 2046 Crs
3144 2061 Crs
3208 2055 Crs
3890 2177 Crs
3247 1839 Crs
2750 1795 Crs
3725 1872 Crs
3391 1877 Crs
3235 2206 Crs
3523 1875 Crs
3085 2038 Crs
4400 1926 Crs
3844 1833 Crs
3324 2014 Crs
3575 1984 Crs
4177 1842 Crs
3268 2115 Crs
3765 1927 Crs
3391 2101 Crs
2914 1956 Crs
3385 1972 Crs
3100 1684 Crs
2970 1956 Crs
3444 2191 Crs
3494 2109 Crs
3706 2004 Crs
3385 1881 Crs
2831 2090 Crs
3500 1665 Crs
3161 2052 Crs
2836 1906 Crs
3407 1914 Crs
3840 1981 Crs
2632 1896 Crs
3878 2374 Crs
2790 1787 Crs
3306 1891 Crs
3207 1977 Crs
2695 2010 Crs
3847 2366 Crs
2920 2112 Crs
3238 1990 Crs
3106 1977 Crs
3301 2008 Crs
3092 2106 Crs
4018 1949 Crs
3619 1975 Crs
3328 2037 Crs
2982 2131 Crs
3287 1916 Crs
3529 2444 Crs
3404 1845 Crs
3542 2655 Crs
3184 2059 Crs
3122 1899 Crs
3508 2005 Crs
3445 1958 Crs
3178 1827 Crs
3700 2017 Crs
2722 1675 Crs
3420 1835 Crs
2901 2006 Crs
3733 1835 Crs
2380 1455 Crs
3206 1982 Crs
3130 2210 Crs
2669 1767 Crs
2992 1973 Crs
3317 2213 Crs
2747 1613 Crs
2881 2049 Crs
3547 2218 Crs
3160 2174 Crs
3019 1970 Crs
4214 1947 Crs
3287 1644 Crs
3918 2037 Crs
2927 1987 Crs
3895 2345 Crs
2777 1816 Crs
3234 1994 Crs
4370 2106 Crs
3153 1805 Crs
2698 1910 Crs
3434 1884 Crs
3318 1786 Crs
4272 2693 Crs
3583 2016 Crs
3341 2140 Crs
2786 1846 Crs
3573 2052 Crs
3203 1994 Crs
3084 2047 Crs
3239 2048 Crs
3816 2117 Crs
3307 2094 Crs
2999 1900 Crs
2861 1961 Crs
3598 2074 Crs
3529 1894 Crs
3355 1828 Crs
3332 1795 Crs
3410 2138 Crs
3512 2158 Crs
3901 2030 Crs
3123 2000 Crs
3217 1883 Crs
3516 2169 Crs
3133 1915 Crs
3072 1853 Crs
3661 1700 Crs
3329 1987 Crs
2982 2041 Crs
3506 2451 Crs
2608 1767 Crs
3327 1817 Crs
3530 2296 Crs
3341 2139 Crs
3170 1945 Crs
2851 1889 Crs
3217 1853 Crs
3092 2041 Crs
3588 1920 Crs
3081 2160 Crs
3291 2262 Crs
3601 2277 Crs
3369 2094 Crs
3294 2290 Crs
3544 1923 Crs
3231 2127 Crs
3181 2112 Crs
3719 1975 Crs
3466 1814 Crs
3291 2049 Crs
3438 1788 Crs
3347 1840 Crs
3055 1985 Crs
2790 1749 Crs
3845 1985 Crs
3559 2359 Crs
2944 1818 Crs
3303 2110 Crs
3585 2156 Crs
3333 1981 Crs
3558 2285 Crs
2910 1797 Crs
3518 2129 Crs
3880 2018 Crs
2887 1864 Crs
3575 2033 Crs
3636 2473 Crs
2972 2214 Crs
3233 1953 Crs
3051 2229 Crs
3392 1933 Crs
3771 2441 Crs
3243 2182 Crs
3447 1884 Crs
3261 1877 Crs
3412 2014 Crs
2902 2001 Crs
3290 1874 Crs
3241 1936 Crs
3192 2095 Crs
2694 1729 Crs
3785 2085 Crs
3212 2097 Crs
2930 2196 Crs
3155 1843 Crs
3810 2031 Crs
3287 1935 Crs
3000 2239 Crs
3246 2082 Crs
3027 1921 Crs
3120 1369 Crs
3550 2000 Crs
3243 2415 Crs
3343 1864 Crs
3083 1818 Crs
3839 2192 Crs
3110 1862 Crs
3318 1621 Crs
3486 1974 Crs
2821 2077 Crs
2899 1966 Crs
2644 1951 Crs
3267 2074 Crs
2382 1789 Crs
3002 1800 Crs
2962 1830 Crs
3812 1997 Crs
3318 2296 Crs
3346 2067 Crs
3651 2074 Crs
2766 1949 Crs
3851 1828 Crs
3913 2181 Crs
3393 2182 Crs
3608 1772 Crs
3229 2301 Crs
3571 1997 Crs
3522 1973 Crs
3621 2000 Crs
3739 2001 Crs
3408 1955 Crs
4067 2241 Crs
3049 1982 Crs
2717 1880 Crs
2947 1818 Crs
3555 2473 Crs
3577 2559 Crs
3538 2004 Crs
3600 2045 Crs
3256 2088 Crs
3227 1986 Crs
3090 2066 Crs
3333 2061 Crs
3153 1964 Crs
3509 1954 Crs
3721 2053 Crs
3061 2028 Crs
3140 2089 Crs
3589 2076 Crs
3685 1748 Crs
3638 1978 Crs
3761 2237 Crs
3703 1859 Crs
3213 1706 Crs
3816 2112 Crs
2735 1816 Crs
3363 2029 Crs
3014 1934 Crs
3372 2012 Crs
3361 1894 Crs
2852 1741 Crs
3716 1951 Crs
2861 1826 Crs
3551 2195 Crs
2871 2079 Crs
3728 2016 Crs
3359 1948 Crs
3716 2188 Crs
3329 2028 Crs
2759 2008 Crs
3158 2021 Crs
3568 2100 Crs
2554 1719 Crs
2633 1910 Crs
3240 1864 Crs
3008 2003 Crs
4073 2464 Crs
3474 2169 Crs
3588 2028 Crs
2970 1801 Crs
3265 2244 Crs
2965 1857 Crs
3034 1883 Crs
4305 2236 Crs
3194 2086 Crs
2899 1648 Crs
3322 1931 Crs
2912 2086 Crs
3249 1771 Crs
3766 2119 Crs
4327 1781 Crs
3535 2122 Crs
3343 2084 Crs
2790 1958 Crs
3558 1982 Crs
2850 1949 Crs
3667 2153 Crs
2445 1779 Crs
2703 1577 Crs
3312 1792 Crs
3163 1882 Crs
3520 2040 Crs
3262 2144 Crs
3733 2276 Crs
3293 2045 Crs
3219 1924 Crs
4067 2148 Crs
3339 1730 Crs
3897 2099 Crs
3665 1966 Crs
3269 1979 Crs
3932 2028 Crs
3745 2131 Crs
3142 2180 Crs
3414 2100 Crs
3735 1974 Crs
3193 1872 Crs
3625 2220 Crs
3993 2145 Crs
2934 2054 Crs
2813 1840 Crs
2988 1908 Crs
4112 1885 Crs
3350 1900 Crs
2631 1950 Crs
3814 1793 Crs
3738 2405 Crs
2840 1808 Crs
3593 2151 Crs
3422 2052 Crs
3029 1827 Crs
3715 2301 Crs
3484 1781 Crs
2896 1984 Crs
3527 1756 Crs
3841 1920 Crs
2739 1791 Crs
3711 2178 Crs
3500 2197 Crs
3612 1907 Crs
3633 1481 Crs
3565 1889 Crs
3451 1817 Crs
2772 1926 Crs
3487 2182 Crs
3380 2036 Crs
3768 2089 Crs
3157 2205 Crs
2954 1923 Crs
2578 1846 Crs
3483 2030 Crs
3170 2013 Crs
3224 1844 Crs
3505 1783 Crs
3273 2019 Crs
3850 2116 Crs
2891 2098 Crs
3056 1833 Crs
2953 1729 Crs
2791 2057 Crs
2995 1977 Crs
3476 1919 Crs
3450 2099 Crs
3009 1827 Crs
3417 1989 Crs
3057 1951 Crs
3655 1966 Crs
3255 1997 Crs
3098 1860 Crs
3333 1897 Crs
3414 1911 Crs
3752 2116 Crs
2533 1836 Crs
3525 1858 Crs
3042 2144 Crs
4033 2399 Crs
3050 1697 Crs
3233 1902 Crs
3616 2060 Crs
3201 1950 Crs
3152 1747 Crs
2902 1982 Crs
3437 2186 Crs
2718 1783 Crs
3337 1944 Crs
3227 1970 Crs
4074 2110 Crs
2939 1833 Crs
3250 2165 Crs
2506 1804 Crs
3225 2005 Crs
2817 1984 Crs
3367 1988 Crs
3878 2168 Crs
3366 2253 Crs
3007 2005 Crs
3113 1678 Crs
2911 2114 Crs
3878 1993 Crs
2958 1778 Crs
2969 1848 Crs
2520 1822 Crs
3543 2263 Crs
3904 2188 Crs
3567 2233 Crs
3494 1956 Crs
3716 2276 Crs
3934 2153 Crs
3784 2420 Crs
3149 1953 Crs
3095 1970 Crs
3466 1897 Crs
2503 1651 Crs
3289 2163 Crs
3778 2101 Crs
3521 2011 Crs
3712 2169 Crs
3159 2223 Crs
3398 2123 Crs
3341 2307 Crs
3770 1874 Crs
3195 2168 Crs
2954 1891 Crs
3555 2193 Crs
2881 1882 Crs
2912 1773 Crs
3476 2197 Crs
3244 1930 Crs
3385 2541 Crs
2753 1588 Crs
3707 1972 Crs
3727 2254 Crs
3434 2395 Crs
3503 1975 Crs
3706 2228 Crs
2414 1515 Crs
3692 1939 Crs
3144 1740 Crs
3280 1779 Crs
3436 2021 Crs
3224 2249 Crs
3620 1890 Crs
3282 1978 Crs
2465 1528 Crs
3039 2138 Crs
3180 1659 Crs
3188 2306 Crs
2952 1933 Crs
4044 2276 Crs
3600 1995 Crs
3004 1872 Crs
3261 1965 Crs
3742 2127 Crs
2761 1696 Crs
3052 2159 Crs
3833 2102 Crs
3488 1919 Crs
3321 2045 Crs
3321 2225 Crs
3081 1876 Crs
2472 1753 Crs
3358 2055 Crs
2656 1797 Crs
2998 2024 Crs
3951 1979 Crs
2558 1835 Crs
3538 2166 Crs
3330 1853 Crs
3004 1935 Crs
3314 2141 Crs
3428 2274 Crs
3223 1944 Crs
3362 2161 Crs
2919 2101 Crs
3421 2029 Crs
3048 1862 Crs
2986 2119 Crs
3542 2019 Crs
3150 1981 Crs
3393 2039 Crs
2780 1757 Crs
3597 2229 Crs
3276 2112 Crs
3654 2141 Crs
3685 1987 Crs
2810 1987 Crs
3200 1815 Crs
3605 2025 Crs
3221 1952 Crs
3106 2106 Crs
3205 2137 Crs
3778 2126 Crs
3615 1857 Crs
2482 1710 Crs
2754 1979 Crs
2894 2093 Crs
3468 2008 Crs
3535 2123 Crs
3559 1769 Crs
3604 2060 Crs
3146 1891 Crs
3139 1848 Crs
3568 2052 Crs
3475 1973 Crs
3152 1970 Crs
3534 2075 Crs
3368 1530 Crs
3111 1746 Crs
3008 1775 Crs
2982 1799 Crs
3398 2041 Crs
3499 2328 Crs
2982 2048 Crs
2898 1816 Crs
3099 1821 Crs
3828 1814 Crs
2837 1849 Crs
3348 2216 Crs
3617 1834 Crs
3342 1994 Crs
3371 1918 Crs
3614 2008 Crs
3371 2141 Crs
3516 1923 Crs
4055 2003 Crs
3482 2261 Crs
2805 1873 Crs
3532 2014 Crs
3426 2223 Crs
3680 2159 Crs
3139 1667 Crs
2755 2032 Crs
3169 1951 Crs
3368 2032 Crs
3402 2000 Crs
3197 2144 Crs
3384 1951 Crs
2961 2096 Crs
3065 2132 Crs
3117 2163 Crs
2896 1752 Crs
2419 1775 Crs
3607 2050 Crs
3712 2399 Crs
3636 1956 Crs
3837 1873 Crs
3936 2232 Crs
3814 1854 Crs
4276 2235 Crs
3240 1958 Crs
4125 1973 Crs
3742 2016 Crs
2782 2063 Crs
2845 2075 Crs
3304 1783 Crs
3546 2265 Crs
3308 1882 Crs
2913 1993 Crs
3355 2114 Crs
3754 2110 Crs
3730 2038 Crs
4119 2428 Crs
2590 1742 Crs
3103 2134 Crs
3462 2130 Crs
3457 1883 Crs
3401 1919 Crs
3469 1991 Crs
3408 2035 Crs
3700 2127 Crs
3517 1907 Crs
3501 2218 Crs
3389 2323 Crs
3453 1906 Crs
3012 1605 Crs
3076 1758 Crs
3641 1938 Crs
3696 1953 Crs
3980 2152 Crs
2796 1716 Crs
3068 2010 Crs
3469 2402 Crs
3550 1750 Crs
3080 1730 Crs
3863 2054 Crs
3742 2261 Crs
3266 2201 Crs
3165 1712 Crs
2701 1977 Crs
2943 2147 Crs
2939 2044 Crs
3697 1793 Crs
3338 2435 Crs
3563 2189 Crs
3675 1993 Crs
2980 1846 Crs
3940 1934 Crs
3038 2096 Crs
2917 1934 Crs
3103 2036 Crs
3371 1763 Crs
3586 2028 Crs
3248 2019 Crs
3560 1774 Crs
3514 2119 Crs
3241 2040 Crs
4010 2122 Crs
3473 2231 Crs
3158 1916 Crs
3403 2116 Crs
3028 1731 Crs
3288 2285 Crs
3348 1954 Crs
3252 1698 Crs
3102 2072 Crs
3305 2258 Crs
3068 2238 Crs
3180 2122 Crs
3875 1920 Crs
3434 1719 Crs
3569 2188 Crs
2610 1806 Crs
3224 2076 Crs
3863 2303 Crs
4027 1881 Crs
3078 2083 Crs
2855 1933 Crs
2890 1986 Crs
3887 2171 Crs
3067 2001 Crs
3526 2190 Crs
2980 1733 Crs
3599 2305 Crs
3134 1864 Crs
3393 2310 Crs
3710 2018 Crs
2962 2148 Crs
3727 1911 Crs
3055 1936 Crs
2657 1942 Crs
2481 1738 Crs
3446 1986 Crs
2721 1803 Crs
3189 2155 Crs
3521 2177 Crs
3243 1807 Crs
3313 2045 Crs
3286 1868 Crs
3440 2233 Crs
2905 1705 Crs
3282 1859 Crs
3635 1918 Crs
3878 2283 Crs
3700 2220 Crs
3037 1884 Crs
3310 2088 Crs
3287 2451 Crs
3032 1686 Crs
3299 1806 Crs
3750 2269 Crs
3335 1953 Crs
3331 1824 Crs
3567 2352 Crs
3449 1810 Crs
2996 1917 Crs
3687 2117 Crs
3175 2134 Crs
2854 2038 Crs
2841 1740 Crs
2652 1823 Crs
3037 1758 Crs
3532 1979 Crs
3596 1804 Crs
3114 2044 Crs
3533 1867 Crs
3480 1850 Crs
3523 1955 Crs
3393 2177 Crs
3458 1806 Crs
3396 2218 Crs
3285 2088 Crs
3455 2008 Crs
3092 2009 Crs
3370 2004 Crs
3371 1964 Crs
3181 2009 Crs
4006 2245 Crs
2949 1964 Crs
3549 1898 Crs
3553 2170 Crs
3796 1775 Crs
2452 1816 Crs
3003 1998 Crs
3475 2070 Crs
2893 1954 Crs
3642 1982 Crs
2926 2039 Crs
3285 2053 Crs
2830 2087 Crs
2632 1873 Crs
3467 1880 Crs
3506 2123 Crs
3629 1992 Crs
3385 2027 Crs
3017 1740 Crs
3140 2070 Crs
3017 1767 Crs
3346 2134 Crs
3038 1644 Crs
2970 2020 Crs
3572 2188 Crs
3464 2039 Crs
3438 1629 Crs
3315 2245 Crs
3281 2105 Crs
3597 2123 Crs
2809 2103 Crs
3298 2006 Crs
3300 1946 Crs
3520 2037 Crs
2953 2211 Crs
3626 2219 Crs
3586 2105 Crs
3693 1934 Crs
3584 1697 Crs
3268 1818 Crs
3558 1768 Crs
3079 1983 Crs
2832 1894 Crs
3294 2011 Crs
3354 2030 Crs
3440 2060 Crs
3507 1920 Crs
3126 2302 Crs
3214 2134 Crs
3047 1817 Crs
3393 1871 Crs
3402 2105 Crs
3063 1599 Crs
3040 1837 Crs
2884 1730 Crs
3275 1973 Crs
3398 2338 Crs
3423 1934 Crs
3430 1765 Crs
3603 2048 Crs
3285 1843 Crs
2506 1771 Crs
3230 2050 Crs
3203 2242 Crs
2397 1551 Crs
3618 1954 Crs
4129 1898 Crs
3397 2051 Crs
3514 1787 Crs
2607 1738 Crs
3426 1815 Crs
3075 2135 Crs
3340 2063 Crs
2893 1900 Crs
2828 1632 Crs
3174 2193 Crs
3369 2222 Crs
3393 2093 Crs
3010 1827 Crs
3200 2227 Crs
3053 2056 Crs
3197 1734 Crs
3346 2056 Crs
3267 1928 Crs
3488 1943 Crs
3291 2051 Crs
3415 2049 Crs
3614 1947 Crs
3205 2389 Crs
3393 2131 Crs
3513 1975 Crs
3246 1837 Crs
3114 2009 Crs
3283 2137 Crs
3426 1662 Crs
3250 2058 Crs
4207 2154 Crs
3058 2238 Crs
3117 1894 Crs
4026 2133 Crs
2653 1963 Crs
2985 1816 Crs
3099 1907 Crs
3110 1746 Crs
3632 2058 Crs
2973 1989 Crs
3767 1798 Crs
2948 1914 Crs
2923 1632 Crs
3011 2174 Crs
2728 1828 Crs
3770 2241 Crs
3740 2394 Crs
3185 2229 Crs
3467 2278 Crs
3664 2021 Crs
3625 2165 Crs
2678 1760 Crs
3370 1910 Crs
3418 1923 Crs
3290 2070 Crs
3048 1880 Crs
3629 1929 Crs
3280 2077 Crs
3495 2185 Crs
3136 2004 Crs
3345 1674 Crs
3614 2401 Crs
3014 1967 Crs
3223 1910 Crs
3647 2080 Crs
3046 2026 Crs
2959 1983 Crs
3774 2190 Crs
3546 2271 Crs
3353 2171 Crs
4012 2211 Crs
3367 2145 Crs
3607 2085 Crs
2634 1931 Crs
3198 2076 Crs
3899 1978 Crs
2768 1750 Crs
3005 1826 Crs
3813 2178 Crs
3284 2434 Crs
3536 1728 Crs
2813 1918 Crs
3235 1926 Crs
3386 1994 Crs
3339 2068 Crs
3585 2330 Crs
3819 2124 Crs
2981 1926 Crs
3517 1944 Crs
3455 2130 Crs
2541 1781 Crs
3260 2011 Crs
3696 2263 Crs
2530 1639 Crs
3470 2232 Crs
3245 1943 Crs
3906 2249 Crs
3173 1647 Crs
3514 1912 Crs
3372 1790 Crs
3068 1784 Crs
2489 1597 Crs
2746 1875 Crs
3419 1960 Crs
3551 2201 Crs
3291 2161 Crs
3404 1913 Crs
2770 1879 Crs
3010 2188 Crs
3074 1317 Crs
3801 1901 Crs
3603 2037 Crs
3833 2059 Crs
2932 1679 Crs
3747 2402 Crs
3355 2262 Crs
2803 1766 Crs
3871 2403 Crs
3194 2049 Crs
3226 2085 Crs
3984 2061 Crs
3123 1844 Crs
3540 2158 Crs
4000 2052 Crs
3819 1953 Crs
3785 2253 Crs
2896 2042 Crs
3549 1927 Crs
3303 1813 Crs
3262 2308 Crs
3006 1811 Crs
3958 2123 Crs
3441 1924 Crs
3031 1831 Crs
3034 2044 Crs
3231 2262 Crs
3249 2264 Crs
3031 1869 Crs
3225 1933 Crs
2886 2122 Crs
2272 1698 Crs
2939 1573 Crs
3223 2058 Crs
3170 2272 Crs
3507 2052 Crs
4489 2107 Crs
2922 1866 Crs
3554 1759 Crs
4036 1949 Crs
3462 1946 Crs
3077 2047 Crs
2756 1933 Crs
3514 2094 Crs
3131 1920 Crs
3654 1909 Crs
2827 1554 Crs
2737 2036 Crs
3163 2007 Crs
3093 2049 Crs
3381 2144 Crs
3740 1981 Crs
3068 1886 Crs
3450 1954 Crs
3266 2157 Crs
3327 1964 Crs
3712 2265 Crs
3284 1957 Crs
3400 1795 Crs
3536 2011 Crs
3424 1891 Crs
3627 2011 Crs
3914 2001 Crs
2640 1790 Crs
2892 2009 Crs
3671 2272 Crs
3015 1775 Crs
3097 2049 Crs
3224 1928 Crs
3241 2021 Crs
3679 2223 Crs
3898 2335 Crs
3123 1918 Crs
3530 1933 Crs
3429 1971 Crs
2677 1930 Crs
3268 2164 Crs
2538 1748 Crs
2976 1878 Crs
3122 2092 Crs
3150 1940 Crs
3304 1995 Crs
2941 1822 Crs
2686 1834 Crs
2908 1853 Crs
3107 2033 Crs
3645 2180 Crs
3119 2027 Crs
3443 1992 Crs
3326 1949 Crs
2838 1736 Crs
2962 1834 Crs
2934 1965 Crs
3696 2021 Crs
2849 2023 Crs
3729 2047 Crs
3689 2006 Crs
2503 1772 Crs
3470 2217 Crs
3498 2192 Crs
3356 2025 Crs
3018 2005 Crs
3592 2363 Crs
3741 2387 Crs
3845 2018 Crs
3564 1901 Crs
3375 2022 Crs
2786 1660 Crs
3782 2207 Crs
3097 1978 Crs
3453 2013 Crs
3439 2260 Crs
3607 1434 Crs
2966 1981 Crs
3169 1707 Crs
3721 2037 Crs
3291 1736 Crs
3199 2192 Crs
3371 1900 Crs
3213 1898 Crs
3106 2125 Crs
3742 1893 Crs
3218 1897 Crs
3176 1924 Crs
3284 1915 Crs
3433 2441 Crs
2666 2003 Crs
3346 2355 Crs
3235 2147 Crs
2997 1997 Crs
2768 1952 Crs
2694 1849 Crs
3068 1943 Crs
3770 2175 Crs
2971 1985 Crs
3355 2069 Crs
2838 2065 Crs
2739 1915 Crs
3310 1957 Crs
2597 1952 Crs
3385 1942 Crs
2963 2200 Crs
4056 2587 Crs
2874 1622 Crs
2523 1534 Crs
3231 2125 Crs
3123 1768 Crs
3209 1693 Crs
3318 2014 Crs
3298 2485 Crs
2468 1854 Crs
4088 2129 Crs
3486 2047 Crs
3545 2039 Crs
3425 2206 Crs
3648 2115 Crs
3380 2150 Crs
3175 2003 Crs
2945 1846 Crs
2737 1729 Crs
3735 2013 Crs
2990 1933 Crs
3328 1914 Crs
2767 1729 Crs
3523 2319 Crs
3372 2350 Crs
2616 1963 Crs
3022 1951 Crs
3673 2158 Crs
3054 2181 Crs
3212 2081 Crs
3328 2179 Crs
3647 1908 Crs
3665 1947 Crs
3158 2142 Crs
3644 1987 Crs
3241 1826 Crs
3219 2134 Crs
2915 2080 Crs
3587 2214 Crs
3729 2120 Crs
3196 2264 Crs
2651 1991 Crs
3594 1960 Crs
3554 2348 Crs
3078 1941 Crs
3064 2013 Crs
3089 2001 Crs
3729 2130 Crs
3475 1856 Crs
2864 1890 Crs
3872 1973 Crs
2999 1721 Crs
3186 2133 Crs
2621 1965 Crs
3618 2159 Crs
2851 1652 Crs
4083 2186 Crs
3343 1825 Crs
2572 1438 Crs
3658 1725 Crs
2991 1865 Crs
2796 1818 Crs
3428 2050 Crs
3113 1909 Crs
3104 1759 Crs
2942 2091 Crs
3397 1829 Crs
2985 1912 Crs
3207 1952 Crs
2756 1564 Crs
3294 2004 Crs
2912 1767 Crs
3253 1882 Crs
2996 2044 Crs
4010 2123 Crs
3693 1674 Crs
3206 2216 Crs
3944 2343 Crs
3397 2048 Crs
3210 2158 Crs
2998 2214 Crs
3313 2268 Crs
3667 2291 Crs
3058 1938 Crs
3468 1936 Crs
2960 1975 Crs
3367 1829 Crs
3157 1985 Crs
3717 2348 Crs
3148 2036 Crs
2905 1661 Crs
3313 2192 Crs
2955 1858 Crs
3502 1920 Crs
3396 1975 Crs
3878 2225 Crs
2722 1680 Crs
2838 1608 Crs
3626 2189 Crs
3748 2187 Crs
2496 1687 Crs
2857 1922 Crs
3197 2362 Crs
3480 2231 Crs
2704 1765 Crs
3454 1860 Crs
3149 1815 Crs
3202 1856 Crs
3144 1635 Crs
3359 2312 Crs
3544 2081 Crs
3814 2164 Crs
3697 2034 Crs
2667 1892 Crs
3357 1988 Crs
3066 1943 Crs
3559 2029 Crs
3077 1714 Crs
3310 1831 Crs
3597 2090 Crs
3325 1931 Crs
2879 2060 Crs
2994 2098 Crs
3330 1766 Crs
3422 2181 Crs
3433 2042 Crs
3382 2296 Crs
3839 2557 Crs
3141 1689 Crs
2948 1785 Crs
3062 1802 Crs
3291 2166 Crs
3425 2165 Crs
3881 2327 Crs
2814 2046 Crs
2971 2150 Crs
3578 1591 Crs
3247 2150 Crs
3358 2110 Crs
3023 1968 Crs
3685 1984 Crs
3269 1766 Crs
3568 2252 Crs
2941 2190 Crs
3652 2255 Crs
4033 2287 Crs
3687 2062 Crs
3153 1747 Crs
3275 2059 Crs
3355 1900 Crs
3213 2183 Crs
3006 2032 Crs
3572 2287 Crs
3567 1925 Crs
2799 1974 Crs
3614 1978 Crs
2900 1840 Crs
3687 2263 Crs
2911 1858 Crs
3398 1739 Crs
2897 1742 Crs
3705 2233 Crs
3508 1852 Crs
3176 2047 Crs
3609 1951 Crs
3867 1723 Crs
3449 2160 Crs
3817 1988 Crs
3121 2103 Crs
3672 2212 Crs
2865 1793 Crs
3536 1861 Crs
2991 1926 Crs
3218 2154 Crs
3260 2082 Crs
3422 2140 Crs
3628 1966 Crs
3474 2050 Crs
3464 2587 Crs
3596 2130 Crs
4282 2240 Crs
3896 2237 Crs
3303 2192 Crs
3263 1985 Crs
3452 2372 Crs
3029 1708 Crs
3522 2063 Crs
3799 2095 Crs
3462 2096 Crs
2922 1890 Crs
3039 2088 Crs
3615 2272 Crs
2549 1799 Crs
2749 1904 Crs
3419 1917 Crs
3911 2323 Crs
3171 2258 Crs
3436 1890 Crs
3079 1751 Crs
3697 2061 Crs
3074 1726 Crs
2953 2108 Crs
3204 2044 Crs
3090 1978 Crs
2974 1550 Crs
3687 2248 Crs
2790 1843 Crs
3884 2133 Crs
3544 1804 Crs
3987 2141 Crs
3172 1927 Crs
4151 2064 Crs
3182 1955 Crs
2819 1999 Crs
3753 2240 Crs
2818 1775 Crs
3129 2122 Crs
3233 1926 Crs
3326 1716 Crs
3874 1932 Crs
3285 1781 Crs
3124 1872 Crs
3196 2403 Crs
3459 2390 Crs
3708 1976 Crs
3387 2091 Crs
2872 1846 Crs
2418 1766 Crs
3436 2105 Crs
2296 1711 Crs
2647 1742 Crs
3170 2036 Crs
3174 1872 Crs
2545 1873 Crs
2859 1930 Crs
2700 2032 Crs
3701 1939 Crs
2886 1677 Crs
3279 2221 Crs
3796 1886 Crs
2983 2016 Crs
3104 2162 Crs
3676 2023 Crs
3965 2037 Crs
3596 2274 Crs
2588 1845 Crs
3333 1740 Crs
3249 1566 Crs
3389 1957 Crs
2804 1809 Crs
2313 1432 Crs
2843 1597 Crs
3475 2110 Crs
3252 2111 Crs
3643 2104 Crs
3369 2255 Crs
3222 2075 Crs
2921 1660 Crs
3619 1829 Crs
2988 1878 Crs
3901 2435 Crs
3429 1779 Crs
3996 2146 Crs
2777 1611 Crs
3493 2064 Crs
2760 1916 Crs
3360 1791 Crs
2988 1834 Crs
3099 1906 Crs
3118 2037 Crs
3310 1995 Crs
3939 1914 Crs
2472 1777 Crs
3771 2028 Crs
3516 2087 Crs
3625 2015 Crs
2964 1740 Crs
2374 1701 Crs
3830 2359 Crs
3648 2031 Crs
3018 2163 Crs
3156 2024 Crs
3229 2181 Crs
2604 1561 Crs
3436 2215 Crs
2762 1891 Crs
3157 2071 Crs
3273 1867 Crs
2984 2214 Crs
3245 1929 Crs
3367 2188 Crs
3920 2141 Crs
3335 2055 Crs
3264 2034 Crs
2916 1833 Crs
3130 1780 Crs
3368 2056 Crs
3236 1882 Crs
2734 1990 Crs
3028 2000 Crs
3300 1681 Crs
3603 2071 Crs
2788 1890 Crs
3318 2131 Crs
3759 2104 Crs
3022 2024 Crs
2676 1933 Crs
2976 1869 Crs
3715 2031 Crs
3297 1820 Crs
3883 2031 Crs
3284 1862 Crs
2845 1836 Crs
3020 1954 Crs
2977 1803 Crs
3076 2049 Crs
3152 2171 Crs
2989 2012 Crs
2903 1870 Crs
3455 1987 Crs
3273 2024 Crs
3344 2126 Crs
3155 1750 Crs
3709 2233 Crs
2937 1925 Crs
3386 2335 Crs
3893 1843 Crs
3013 2068 Crs
2837 1797 Crs
3488 1905 Crs
3653 2050 Crs
3238 1611 Crs
3263 1881 Crs
3289 2334 Crs
3190 2009 Crs
3495 2430 Crs
3490 2207 Crs
3508 2178 Crs
2982 1787 Crs
3281 2181 Crs
3794 2173 Crs
4281 1954 Crs
3463 1974 Crs
3825 2016 Crs
3367 2138 Crs
3594 2170 Crs
3525 2210 Crs
2870 1751 Crs
3464 1959 Crs
3602 2186 Crs
3200 2336 Crs
2839 2000 Crs
2708 1739 Crs
2902 1844 Crs
3168 1860 Crs
3106 2209 Crs
3339 2117 Crs
2924 2011 Crs
2976 1884 Crs
3542 2126 Crs
4117 2004 Crs
3633 2252 Crs
3716 2405 Crs
3703 1914 Crs
3550 1932 Crs
2809 2070 Crs
3873 2141 Crs
3395 2144 Crs
3082 2121 Crs
3606 2022 Crs
2666 1887 Crs
3194 1884 Crs
2691 1740 Crs
3053 2072 Crs
2795 1733 Crs
3271 2025 Crs
3694 2090 Crs
3452 2110 Crs
3575 1991 Crs
2940 1810 Crs
3658 2491 Crs
3389 2123 Crs
3351 1943 Crs
3620 1981 Crs
3054 1806 Crs
3625 1934 Crs
3133 2257 Crs
3401 1759 Crs
3651 1860 Crs
3039 1910 Crs
3566 1880 Crs
3138 2006 Crs
3257 2017 Crs
2606 1814 Crs
3742 2017 Crs
2841 1880 Crs
3323 1839 Crs
3689 1974 Crs
3395 1660 Crs
3249 2030 Crs
3523 1956 Crs
3608 2283 Crs
2698 1758 Crs
2421 1626 Crs
4266 2285 Crs
3694 1933 Crs
3251 2090 Crs
3438 2133 Crs
3152 1733 Crs
3010 1865 Crs
3014 2059 Crs
3144 2053 Crs
3698 1801 Crs
3235 2052 Crs
2484 1848 Crs
2870 2026 Crs
2940 1892 Crs
3180 1732 Crs
2895 1996 Crs
3023 1948 Crs
2746 1761 Crs
3420 2189 Crs
3514 2278 Crs
2856 1637 Crs
2988 1958 Crs
3926 2170 Crs
3541 2169 Crs
3039 2100 Crs
3484 1944 Crs
2839 1746 Crs
3895 1863 Crs
2774 1769 Crs
3583 2195 Crs
3717 1883 Crs
3411 1934 Crs
2384 1623 Crs
2636 1604 Crs
3874 2092 Crs
3454 1888 Crs
3756 2041 Crs
3732 2072 Crs
3458 2005 Crs
4136 2051 Crs
3926 2186 Crs
3167 1759 Crs
3298 1977 Crs
3385 1873 Crs
3379 2011 Crs
4064 1881 Crs
3273 1942 Crs
2536 1860 Crs
3093 2204 Crs
3106 2156 Crs
2763 2018 Crs
3477 1992 Crs
3551 2032 Crs
3545 1765 Crs
2922 1837 Crs
3224 1949 Crs
3527 2095 Crs
3585 2024 Crs
2713 1806 Crs
4160 1966 Crs
3631 2252 Crs
3245 2225 Crs
2933 1823 Crs
3837 2320 Crs
4017 2193 Crs
3405 1897 Crs
3712 2103 Crs
3578 2096 Crs
3406 2498 Crs
4029 1947 Crs
4034 1920 Crs
3457 2190 Crs
3014 1932 Crs
3168 1789 Crs
3113 2037 Crs
3760 2022 Crs
3888 1949 Crs
2871 1934 Crs
3044 1998 Crs
3289 1762 Crs
3301 2099 Crs
2989 1942 Crs
3816 1912 Crs
3769 2444 Crs
3614 2184 Crs
3808 2034 Crs
3744 2151 Crs
2962 2106 Crs
3509 2161 Crs
3011 1931 Crs
3154 2073 Crs
2749 1568 Crs
2955 1675 Crs
3404 2019 Crs
3191 1917 Crs
2617 1891 Crs
2879 2061 Crs
3187 2100 Crs
3446 2210 Crs
2811 1879 Crs
2889 1735 Crs
3610 2244 Crs
2404 1675 Crs
3471 2258 Crs
2831 1959 Crs
3627 2166 Crs
3364 2214 Crs
2612 1829 Crs
3564 1970 Crs
3739 2293 Crs
4188 2032 Crs
3102 2119 Crs
3370 2133 Crs
2953 2142 Crs
2755 1941 Crs
3055 1862 Crs
3131 1964 Crs
2676 1923 Crs
3684 2419 Crs
2754 1422 Crs
3746 2151 Crs
3657 2078 Crs
3059 2151 Crs
3516 2097 Crs
2898 1894 Crs
3377 2190 Crs
2870 1787 Crs
2927 2135 Crs
3252 2059 Crs
2881 2029 Crs
3083 1834 Crs
3746 2076 Crs
2759 1656 Crs
2953 1369 Crs
3838 2065 Crs
2430 1812 Crs
2881 2011 Crs
3476 2241 Crs
3003 1982 Crs
2911 2068 Crs
3505 2000 Crs
3390 1999 Crs
2926 1881 Crs
3266 2292 Crs
2811 1939 Crs
3073 1844 Crs
3304 1763 Crs
3282 2131 Crs
3068 1978 Crs
3455 2251 Crs
3539 1780 Crs
2728 1701 Crs
3181 2301 Crs
3078 1962 Crs
2763 1646 Crs
3584 2341 Crs
3527 1927 Crs
2848 2048 Crs
3593 1781 Crs
3428 1993 Crs
3299 2015 Crs
3073 2123 Crs
3219 1829 Crs
3267 1973 Crs
3080 2294 Crs
2577 1929 Crs
3467 2264 Crs
3646 1910 Crs
2627 1966 Crs
2926 1594 Crs
3091 1863 Crs
3069 2165 Crs
2829 1803 Crs
3453 2287 Crs
2828 2028 Crs
2605 1953 Crs
3220 1995 Crs
3455 1950 Crs
3501 1885 Crs
2717 1811 Crs
3537 2153 Crs
3450 2191 Crs
3662 1872 Crs
3641 1787 Crs
3543 1951 Crs
3265 2082 Crs
2732 1988 Crs
3888 1977 Crs
2661 1599 Crs
3213 2188 Crs
3706 2167 Crs
3423 2085 Crs
2623 1714 Crs
3102 1983 Crs
3999 2370 Crs
3389 1735 Crs
2929 2155 Crs
2779 1883 Crs
3132 1755 Crs
2871 1945 Crs
3248 1965 Crs
3343 2120 Crs
2985 1942 Crs
3773 2148 Crs
2746 1965 Crs
3693 2186 Crs
3573 1824 Crs
3120 2013 Crs
3316 2006 Crs
3658 2034 Crs
4510 2008 Crs
2768 1610 Crs
3320 1850 Crs
2955 2190 Crs
3013 2015 Crs
3092 1925 Crs
3347 2155 Crs
3099 2155 Crs
2748 1743 Crs
3034 2002 Crs
3184 2312 Crs
3461 2137 Crs
3490 1867 Crs
4320 2029 Crs
2722 1815 Crs
3667 2090 Crs
3920 2023 Crs
2908 2046 Crs
3377 1812 Crs
3595 2064 Crs
3704 2045 Crs
3412 2051 Crs
2792 1714 Crs
3119 2149 Crs
3370 2210 Crs
3520 1977 Crs
3392 2329 Crs
3505 2459 Crs
3453 2092 Crs
3097 2036 Crs
3390 2103 Crs
3472 1750 Crs
3242 2123 Crs
2917 1876 Crs
3526 1948 Crs
3736 2199 Crs
2927 1870 Crs
3291 2020 Crs
3303 1765 Crs
3889 2167 Crs
2667 1808 Crs
3647 2017 Crs
3499 2177 Crs
3215 1978 Crs
3356 1982 Crs
3123 2193 Crs
3722 2151 Crs
3026 1907 Crs
3086 2021 Crs
3177 1974 Crs
3657 2232 Crs
3370 1799 Crs
3142 2089 Crs
2965 2052 Crs
3036 1871 Crs
3432 2236 Crs
3235 2041 Crs
3382 1821 Crs
2852 1541 Crs
3877 2276 Crs
2854 2021 Crs
3458 1952 Crs
3118 2133 Crs
3676 1904 Crs
3086 1787 Crs
3323 2025 Crs
3104 1942 Crs
3792 2023 Crs
2947 2030 Crs
3370 1896 Crs
4068 2155 Crs
3124 1810 Crs
3454 2012 Crs
3881 2017 Crs
3990 2130 Crs
3873 2169 Crs
3499 1998 Crs
3377 1899 Crs
3082 1626 Crs
3688 2010 Crs
3347 1753 Crs
3500 1797 Crs
3046 2045 Crs
3054 2125 Crs
2839 1895 Crs
3988 2157 Crs
3394 2055 Crs
3084 2172 Crs
2762 1940 Crs
3181 1946 Crs
3290 1549 Crs
3279 2001 Crs
3688 2352 Crs
3371 2492 Crs
3678 2237 Crs
3950 2071 Crs
4004 2021 Crs
2681 1815 Crs
3233 1870 Crs
3143 2286 Crs
2872 1984 Crs
4220 2113 Crs
3384 2081 Crs
3397 2125 Crs
2965 1956 Crs
3388 2091 Crs
3527 1921 Crs
3416 1805 Crs
3663 2444 Crs
3456 2232 Crs
2595 1748 Crs
3905 1909 Crs
3160 2153 Crs
3745 2053 Crs
4193 2247 Crs
3730 1970 Crs
3518 1817 Crs
3221 1976 Crs
2758 1933 Crs
3445 2118 Crs
3472 2086 Crs
3160 1859 Crs
3514 1738 Crs
4176 1867 Crs
3800 1911 Crs
2848 1822 Crs
3416 1899 Crs
3983 2112 Crs
3283 2343 Crs
2683 1760 Crs
3744 2016 Crs
3232 1806 Crs
2934 1942 Crs
3021 2126 Crs
4068 2048 Crs
3145 1956 Crs
3262 1836 Crs
3060 1829 Crs
2708 1954 Crs
3152 2035 Crs
2731 1876 Crs
3565 2096 Crs
3539 2381 Crs
2679 1865 Crs
3013 1912 Crs
2666 1901 Crs
2886 2042 Crs
3148 2036 Crs
3504 1798 Crs
3038 1929 Crs
3792 2101 Crs
3854 2277 Crs
3104 1898 Crs
2988 1592 Crs
3542 1716 Crs
3941 2489 Crs
3683 1826 Crs
3781 2262 Crs
2857 2078 Crs
2869 1801 Crs
3407 2055 Crs
3394 1939 Crs
3580 2193 Crs
3626 2212 Crs
3572 2115 Crs
3479 2128 Crs
2214 1529 Crs
3657 2189 Crs
3245 1986 Crs
4163 1921 Crs
3240 2287 Crs
3428 2030 Crs
3199 1865 Crs
3626 1935 Crs
3106 2299 Crs
3602 2040 Crs
3162 1754 Crs
3418 2178 Crs
3396 2138 Crs
3013 1946 Crs
3762 2612 Crs
3493 1953 Crs
3851 2095 Crs
2556 1628 Crs
4012 2167 Crs
3698 1876 Crs
3349 1747 Crs
3690 2197 Crs
3021 1744 Crs
2961 1864 Crs
3641 2002 Crs
3013 1961 Crs
3426 1760 Crs
3133 2051 Crs
3899 2189 Crs
3791 1993 Crs
3116 1866 Crs
3418 1967 Crs
3434 2204 Crs
3147 2310 Crs
3570 2188 Crs
3505 1733 Crs
3189 2100 Crs
3558 1799 Crs
3730 2083 Crs
3290 1632 Crs
3344 2174 Crs
2119 1565 Crs
3109 2004 Crs
3200 2099 Crs
3138 2134 Crs
3529 1886 Crs
3798 2215 Crs
3473 2206 Crs
3241 2282 Crs
4003 2942 Crs
3891 1572 Crs
3462 2117 Crs
3686 1933 Crs
3360 1977 Crs
2694 1949 Crs
3226 1907 Crs
3492 2045 Crs
3308 1626 Crs
2533 1903 Crs
3456 2252 Crs
3537 2044 Crs
2989 1723 Crs
3462 2114 Crs
2936 1659 Crs
3873 2067 Crs
3245 2119 Crs
3171 2176 Crs
3638 2094 Crs
4135 2462 Crs
3142 2128 Crs
3404 1950 Crs
3131 1363 Crs
4679 2007 Crs
2986 2236 Crs
3521 1924 Crs
3401 2025 Crs
2894 2041 Crs
2858 2071 Crs
3630 2109 Crs
2786 2025 Crs
3863 2472 Crs
3452 1742 Crs
3337 2118 Crs
3003 2138 Crs
3679 2149 Crs
3392 2113 Crs
3378 2027 Crs
3478 1916 Crs
3586 2096 Crs
3972 2341 Crs
3416 2335 Crs
2897 2156 Crs
3130 2148 Crs
3298 1849 Crs
3084 2042 Crs
3041 1890 Crs
2935 1788 Crs
2751 1768 Crs
2447 1704 Crs
3639 2087 Crs
3400 1967 Crs
3800 2035 Crs
3317 1947 Crs
2852 2128 Crs
3473 1911 Crs
2979 2109 Crs
3204 2025 Crs
3111 1945 Crs
2778 1729 Crs
3382 1944 Crs
2983 1959 Crs
3528 2377 Crs
4027 2203 Crs
3400 2069 Crs
3201 1972 Crs
3762 1808 Crs
3083 1730 Crs
3662 2491 Crs
3115 2082 Crs
3141 1850 Crs
3528 1756 Crs
3224 1978 Crs
2664 1639 Crs
2832 1842 Crs
3019 2036 Crs
3042 1708 Crs
3782 2048 Crs
3221 1687 Crs
2824 1874 Crs
2474 1799 Crs
3434 2117 Crs
3656 1896 Crs
3655 1879 Crs
3288 1998 Crs
3277 2078 Crs
2992 1855 Crs
3695 2067 Crs
3870 2328 Crs
2901 1797 Crs
2682 1854 Crs
3371 2213 Crs
3657 2319 Crs
3228 1852 Crs
3425 1967 Crs
3702 2349 Crs
2991 2062 Crs
2982 1984 Crs
3239 1967 Crs
3692 2092 Crs
3587 1949 Crs
3308 1972 Crs
2979 1986 Crs
3007 2056 Crs
3256 1988 Crs
2435 1797 Crs
2967 1927 Crs
3315 1593 Crs
2714 1852 Crs
3541 2249 Crs
3323 1866 Crs
3289 1940 Crs
3258 1820 Crs
3258 1811 Crs
3983 1941 Crs
2930 1622 Crs
3417 2034 Crs
2951 1968 Crs
3137 2138 Crs
3079 1960 Crs
3149 1964 Crs
3614 2184 Crs
3349 1863 Crs
2923 1963 Crs
3557 2051 Crs
3136 1645 Crs
3383 2128 Crs
2860 1968 Crs
2593 1640 Crs
4294 2123 Crs
3679 1817 Crs
2896 1990 Crs
3010 1924 Crs
2755 1780 Crs
3564 2150 Crs
3794 2101 Crs
3553 1935 Crs
3370 1872 Crs
3491 1872 Crs
3531 2236 Crs
3309 1741 Crs
3421 2278 Crs
3377 1739 Crs
3493 1997 Crs
3482 2097 Crs
4279 2329 Crs
3388 1997 Crs
3279 2276 Crs
3470 1802 Crs
3368 2272 Crs
3669 2248 Crs
2935 1827 Crs
3611 2378 Crs
3347 2114 Crs
3374 2143 Crs
2748 1933 Crs
3667 2297 Crs
3612 1994 Crs
2730 1899 Crs
3132 1819 Crs
2992 2073 Crs
3106 1906 Crs
3153 1948 Crs
3346 1966 Crs
3169 1903 Crs
3637 2330 Crs
3852 1740 Crs
3316 1874 Crs
2914 1863 Crs
3130 2111 Crs
3098 1982 Crs
3436 1924 Crs
3096 2077 Crs
3303 1925 Crs
3191 1973 Crs
2954 1692 Crs
3239 2208 Crs
3548 2182 Crs
3290 1780 Crs
3111 1939 Crs
3029 1862 Crs
3700 1965 Crs
3122 1970 Crs
3302 2070 Crs
2606 1865 Crs
3484 2068 Crs
3212 2064 Crs
3383 1829 Crs
2962 2029 Crs
3368 2161 Crs
3763 2209 Crs
3100 1990 Crs
3379 1963 Crs
2988 2196 Crs
3834 1974 Crs
3692 2283 Crs
2205 1517 Crs
3235 1632 Crs
2590 1628 Crs
2883 1490 Crs
2881 1843 Crs
3275 1780 Crs
2890 2050 Crs
3403 1941 Crs
3141 2234 Crs
2973 1819 Crs
3188 2185 Crs
2819 1879 Crs
3101 2032 Crs
3643 2611 Crs
3311 2162 Crs
3551 1681 Crs
3804 2433 Crs
3481 1970 Crs
3224 2194 Crs
3444 2227 Crs
3297 2250 Crs
3079 2228 Crs
3274 1686 Crs
3255 2256 Crs
3428 2101 Crs
3674 2114 Crs
3432 1856 Crs
3064 1621 Crs
3320 2073 Crs
2965 1798 Crs
3379 2156 Crs
3392 1894 Crs
2667 1719 Crs
3386 2053 Crs
3191 1980 Crs
2971 1958 Crs
2806 1999 Crs
3245 1968 Crs
2921 1980 Crs
2572 1899 Crs
3808 1913 Crs
3754 2005 Crs
3140 1859 Crs
3124 1967 Crs
3141 2231 Crs
3413 1870 Crs
3857 2012 Crs
2693 1744 Crs
3188 1934 Crs
4396 2436 Crs
3020 1803 Crs
3321 2122 Crs
3286 2172 Crs
2694 1946 Crs
3413 2044 Crs
2501 1864 Crs
3199 1964 Crs
2852 1858 Crs
3087 1805 Crs
2681 1663 Crs
2936 1793 Crs
3597 2112 Crs
3495 2228 Crs
2780 2019 Crs
3444 2016 Crs
2903 1944 Crs
2894 2083 Crs
2961 2095 Crs
3096 1741 Crs
4054 1984 Crs
3377 1955 Crs
3368 1977 Crs
2845 2044 Crs
3776 2220 Crs
4170 1952 Crs
3363 2277 Crs
3046 2085 Crs
3291 1814 Crs
3739 1671 Crs
2977 1707 Crs
3793 2287 Crs
3049 1994 Crs
3549 1839 Crs
3755 1916 Crs
3512 1810 Crs
2651 1946 Crs
3455 1784 Crs
2785 1909 Crs
3031 2065 Crs
2371 1662 Crs
2854 2005 Crs
3483 2073 Crs
3246 1967 Crs
3601 2054 Crs
3418 2125 Crs
3118 1849 Crs
3231 1755 Crs
2749 1974 Crs
3704 2204 Crs
3283 1903 Crs
3924 2186 Crs
2949 2007 Crs
3371 1905 Crs
3803 2418 Crs
2782 1926 Crs
2819 1754 Crs
3797 2084 Crs
3539 1986 Crs
3334 1842 Crs
3228 1956 Crs
3914 2424 Crs
3323 2065 Crs
2781 2009 Crs
3592 2102 Crs
3024 1870 Crs
3649 2259 Crs
2506 1708 Crs
3477 2004 Crs
3726 1782 Crs
3918 2247 Crs
2993 1774 Crs
2939 1957 Crs
3652 2275 Crs
2649 1975 Crs
2951 1982 Crs
3245 2076 Crs
3510 2352 Crs
4052 2687 Crs
3169 2109 Crs
3389 1828 Crs
3529 2308 Crs
3472 2087 Crs
3252 1981 Crs
2648 1909 Crs
3421 1829 Crs
3488 1921 Crs
3642 2043 Crs
2715 1892 Crs
3238 2135 Crs
3048 2207 Crs
3091 1855 Crs
3692 2053 Crs
3051 2067 Crs
3421 2171 Crs
3382 2292 Crs
3439 1718 Crs
3536 2140 Crs
3240 2104 Crs
2880 1894 Crs
3808 2359 Crs
3357 1997 Crs
3779 2108 Crs
2600 1893 Crs
3462 1955 Crs
3809 2082 Crs
3384 2065 Crs
2834 2066 Crs
2673 2009 Crs
3224 1852 Crs
4008 2176 Crs
3274 2181 Crs
2866 1951 Crs
3098 1889 Crs
2963 1825 Crs
3641 1847 Crs
2574 1627 Crs
3420 2015 Crs
3579 1980 Crs
2564 1489 Crs
2424 1645 Crs
2697 1671 Crs
3428 1951 Crs
2498 1778 Crs
3091 1946 Crs
3454 1692 Crs
2752 1844 Crs
3723 2171 Crs
2679 1870 Crs
3524 2011 Crs
2680 1620 Crs
3294 1923 Crs
3710 2053 Crs
3305 2093 Crs
2793 1849 Crs
3362 1875 Crs
3247 1974 Crs
3404 2101 Crs
3105 2137 Crs
3179 2273 Crs
3420 2189 Crs
3354 2149 Crs
3966 2439 Crs
2851 2004 Crs
3431 1953 Crs
3453 1978 Crs
3061 2245 Crs
2913 1890 Crs
3343 2076 Crs
3152 2033 Crs
2913 2048 Crs
2560 1574 Crs
2976 1629 Crs
3616 2162 Crs
3293 2058 Crs
3165 2127 Crs
3507 2112 Crs
3332 2048 Crs
3264 1921 Crs
3320 2139 Crs
3142 1976 Crs
3197 2075 Crs
4017 2245 Crs
2922 1887 Crs
3397 2014 Crs
2769 1783 Crs
3365 2203 Crs
3083 1732 Crs
2975 2041 Crs
3587 1787 Crs
3384 2034 Crs
4241 1897 Crs
3083 1773 Crs
3149 1955 Crs
3029 2052 Crs
3745 2101 Crs
2840 2110 Crs
3348 1738 Crs
3074 1802 Crs
2981 2204 Crs
2684 1759 Crs
2852 1845 Crs
3698 1882 Crs
4098 1847 Crs
3530 1945 Crs
3344 1784 Crs
3319 2031 Crs
3057 1956 Crs
2978 1875 Crs
3561 1889 Crs
4064 1771 Crs
3661 2007 Crs
3637 2249 Crs
2568 1744 Crs
3890 2241 Crs
3732 2058 Crs
3224 2094 Crs
3387 2275 Crs
3513 1998 Crs
3132 1991 Crs
3588 2276 Crs
3076 1973 Crs
2622 1954 Crs
2731 1982 Crs
3412 2123 Crs
3250 1943 Crs
3693 2315 Crs
3221 1898 Crs
2814 1616 Crs
3361 2077 Crs
3255 2326 Crs
3176 1941 Crs
3843 2207 Crs
3661 2240 Crs
3478 1969 Crs
3927 2233 Crs
3816 2099 Crs
3369 2289 Crs
2599 1830 Crs
2785 2009 Crs
2915 2000 Crs
3432 2045 Crs
3165 1896 Crs
3399 2148 Crs
3496 2245 Crs
4170 2162 Crs
3694 1951 Crs
2513 1697 Crs
4110 2080 Crs
3033 2050 Crs
3624 2339 Crs
3387 1995 Crs
3581 1845 Crs
3437 2168 Crs
3741 1934 Crs
3528 1886 Crs
2963 1840 Crs
3370 1633 Crs
3444 1960 Crs
2764 1782 Crs
3439 1972 Crs
3220 1913 Crs
3774 1919 Crs
3593 2153 Crs
2902 2148 Crs
3091 1854 Crs
2999 2072 Crs
3958 2129 Crs
4165 2144 Crs
3922 1903 Crs
3784 2030 Crs
2759 1716 Crs
3546 2460 Crs
3399 2309 Crs
3179 2028 Crs
3571 1931 Crs
3493 1824 Crs
3018 1927 Crs
3603 2138 Crs
2862 1959 Crs
2826 1934 Crs
3211 1842 Crs
3111 1986 Crs
3181 2201 Crs
3262 1839 Crs
2967 1997 Crs
2582 1839 Crs
3436 1949 Crs
2897 2025 Crs
3664 2245 Crs
3035 1893 Crs
3450 2151 Crs
3475 2154 Crs
3658 2020 Crs
3077 2127 Crs
2211 1652 Crs
3463 2249 Crs
2741 1801 Crs
3086 2116 Crs
3738 1989 Crs
3581 2211 Crs
3657 2086 Crs
3877 1989 Crs
3380 2083 Crs
2930 1664 Crs
3680 2272 Crs
3399 1636 Crs
2817 1788 Crs
3371 2204 Crs
3200 1889 Crs
3910 2267 Crs
2788 1504 Crs
3598 2027 Crs
3524 2196 Crs
3510 1803 Crs
3037 1932 Crs
2571 1797 Crs
3759 2093 Crs
3288 2314 Crs
3236 2125 Crs
3390 2440 Crs
3905 2089 Crs
2983 1914 Crs
3306 1867 Crs
3590 2503 Crs
3743 1690 Crs
3471 2067 Crs
3137 2050 Crs
3803 2011 Crs
4182 2310 Crs
3870 2089 Crs
3737 1999 Crs
3596 2330 Crs
3679 2107 Crs
3283 2312 Crs
2517 1832 Crs
3356 1979 Crs
3258 2337 Crs
2760 1813 Crs
3423 2061 Crs
3661 1979 Crs
3120 2163 Crs
3143 2123 Crs
2632 1936 Crs
3303 1980 Crs
3264 1910 Crs
4040 2184 Crs
3711 1891 Crs
3125 1784 Crs
2809 1984 Crs
3153 1773 Crs
3475 1875 Crs
2986 2074 Crs
2781 2047 Crs
3197 1919 Crs
3455 2112 Crs
3110 1999 Crs
3256 2016 Crs
2734 1925 Crs
3607 2164 Crs
3760 2239 Crs
3326 1940 Crs
3488 1978 Crs
3242 1962 Crs
3452 2104 Crs
2956 1903 Crs
3928 2177 Crs
3263 1641 Crs
3821 2152 Crs
3205 2096 Crs
3003 1786 Crs
3225 2346 Crs
3267 2021 Crs
3413 2001 Crs
3200 1858 Crs
3131 2191 Crs
2935 2116 Crs
3584 1955 Crs
3542 1876 Crs
3805 1931 Crs
2923 2007 Crs
3085 2017 Crs
3381 2001 Crs
3027 2072 Crs
3084 1878 Crs
3445 2039 Crs
3399 1944 Crs
2911 2036 Crs
3290 1968 Crs
3449 2001 Crs
3121 2014 Crs
3360 1775 Crs
3377 1991 Crs
3035 1718 Crs
3826 2287 Crs
3990 2611 Crs
3568 1812 Crs
3477 2515 Crs
3363 2279 Crs
3838 2304 Crs
3439 2070 Crs
2920 2041 Crs
4025 2403 Crs
2937 1645 Crs
3259 2078 Crs
2874 1805 Crs
2615 1785 Crs
3374 2480 Crs
3277 1721 Crs
4123 1874 Crs
3617 2279 Crs
3903 2013 Crs
3480 2108 Crs
3297 1900 Crs
3356 2075 Crs
4213 2441 Crs
3553 2090 Crs
3222 2281 Crs
3430 1922 Crs
3243 1879 Crs
2547 1871 Crs
3591 2103 Crs
3552 2107 Crs
2632 1875 Crs
3744 2195 Crs
3870 2188 Crs
3247 1695 Crs
3524 2125 Crs
3390 1941 Crs
3247 2153 Crs
4463 2296 Crs
3149 1871 Crs
3286 2296 Crs
3505 1982 Crs
2499 1737 Crs
3152 1760 Crs
3349 1997 Crs
3701 2417 Crs
2717 1889 Crs
2870 2064 Crs
3378 1929 Crs
3098 2184 Crs
3691 2434 Crs
3326 2178 Crs
3928 2027 Crs
2824 1943 Crs
3690 1972 Crs
2919 1742 Crs
4042 1786 Crs
3657 1595 Crs
3493 1976 Crs
3713 2217 Crs
3338 2097 Crs
3142 2014 Crs
3201 1935 Crs
3812 1900 Crs
3124 2031 Crs
2804 1932 Crs
3151 2057 Crs
3458 1654 Crs
2538 1800 Crs
3190 1823 Crs
2681 1794 Crs
3389 2062 Crs
3398 2185 Crs
2285 1698 Crs
3208 1749 Crs
3535 1989 Crs
3281 2078 Crs
3730 1873 Crs
3512 1788 Crs
2663 1826 Crs
3971 2068 Crs
3167 2063 Crs
3691 2014 Crs
2170 1619 Crs
3527 2162 Crs
3332 2176 Crs
3574 1886 Crs
3072 1834 Crs
3042 1615 Crs
3183 2138 Crs
2894 1965 Crs
3747 1932 Crs
3316 2027 Crs
3636 2196 Crs
3055 2010 Crs
3469 2126 Crs
3149 2179 Crs
3684 2030 Crs
3161 1713 Crs
2867 1930 Crs
3016 1973 Crs
3778 2098 Crs
3636 1935 Crs
3155 2027 Crs
3286 2243 Crs
3306 2015 Crs
3831 1843 Crs
2922 1690 Crs
3481 2126 Crs
3521 1897 Crs
2867 2091 Crs
3225 1925 Crs
3873 2169 Crs
3544 1962 Crs
2518 1738 Crs
2446 1837 Crs
3498 1874 Crs
2773 2077 Crs
3637 2260 Crs
2941 2047 Crs
3490 2003 Crs
3523 2087 Crs
3568 2195 Crs
3674 2439 Crs
2783 1816 Crs
2926 2131 Crs
3326 2069 Crs
3171 1793 Crs
2953 1919 Crs
3540 1805 Crs
3385 1848 Crs
3242 2260 Crs
2687 1770 Crs
3529 2067 Crs
3163 2229 Crs
3999 2012 Crs
3461 1914 Crs
2723 1907 Crs
3087 2024 Crs
3663 1998 Crs
3303 1945 Crs
3517 1754 Crs
3443 1875 Crs
3293 1882 Crs
3512 2052 Crs
2666 1999 Crs
3506 2218 Crs
4150 2102 Crs
3688 2214 Crs
3126 1547 Crs
2676 1741 Crs
3079 2033 Crs
3238 1877 Crs
3302 2332 Crs
3241 2055 Crs
3386 1943 Crs
2730 1866 Crs
3018 2010 Crs
3326 2034 Crs
3595 2060 Crs
3095 2094 Crs
3350 2183 Crs
2789 1852 Crs
2802 2069 Crs
3133 1650 Crs
3264 2164 Crs
2698 1767 Crs
3069 2097 Crs
2589 1806 Crs
3649 2329 Crs
2820 2036 Crs
3234 2051 Crs
3122 1866 Crs
3378 2187 Crs
2769 2040 Crs
3236 2279 Crs
3071 1987 Crs
3329 2090 Crs
3654 2231 Crs
2684 1991 Crs
3507 1866 Crs
2824 2038 Crs
3339 1847 Crs
3204 2123 Crs
3168 1959 Crs
3603 1900 Crs
3573 1758 Crs
3566 1955 Crs
3039 1730 Crs
3000 2094 Crs
2748 1639 Crs
3351 1911 Crs
3312 1952 Crs
3192 1885 Crs
2597 1711 Crs
2958 1919 Crs
3160 2100 Crs
3224 1920 Crs
2893 1727 Crs
2968 1805 Crs
3452 1500 Crs
3247 2031 Crs
4151 2420 Crs
4048 1918 Crs
3293 2082 Crs
3355 2107 Crs
2682 1884 Crs
3393 1993 Crs
2672 1877 Crs
2982 1688 Crs
3076 2034 Crs
2681 1896 Crs
3534 2495 Crs
3135 1830 Crs
3631 2250 Crs
3360 2286 Crs
3706 1750 Crs
3072 2064 Crs
3389 2357 Crs
3320 1694 Crs
3431 1911 Crs
3361 2282 Crs
2975 1886 Crs
3397 2097 Crs
2776 1990 Crs
3498 1952 Crs
3288 2166 Crs
3151 2261 Crs
3037 1900 Crs
3812 2103 Crs
3732 1834 Crs
3105 1857 Crs
3622 1971 Crs
2508 1763 Crs
3957 2076 Crs
3310 2125 Crs
3151 2142 Crs
3544 1817 Crs
3257 2240 Crs
3031 2004 Crs
3753 2058 Crs
3833 1946 Crs
3400 1952 Crs
3686 2502 Crs
2675 1778 Crs
3805 1876 Crs
3561 2111 Crs
3207 1767 Crs
2886 1896 Crs
3607 2194 Crs
2656 1651 Crs
2791 1903 Crs
3873 2340 Crs
3144 1854 Crs
3121 1976 Crs
3351 1949 Crs
3682 2119 Crs
3313 1754 Crs
2922 1905 Crs
3478 2386 Crs
3196 1961 Crs
3520 1944 Crs
3393 2044 Crs
3421 2296 Crs
3068 1969 Crs
3350 2252 Crs
2478 1801 Crs
3236 2193 Crs
3720 2341 Crs
3651 2288 Crs
3500 2500 Crs
3477 2097 Crs
3451 1905 Crs
3609 2203 Crs
3264 1936 Crs
2993 2024 Crs
3299 2119 Crs
3563 2045 Crs
3138 1984 Crs
2962 1957 Crs
3172 2022 Crs
3158 1879 Crs
3398 2040 Crs
3309 1942 Crs
3380 2072 Crs
3648 2171 Crs
2906 1801 Crs
2963 1927 Crs
3418 2051 Crs
2462 1760 Crs
3919 2309 Crs
3357 2027 Crs
3294 2068 Crs
3790 2165 Crs
3458 2096 Crs
2357 1669 Crs
3116 1787 Crs
2955 1837 Crs
3207 2051 Crs
3020 1916 Crs
3625 2041 Crs
3120 2002 Crs
3949 2191 Crs
3735 2112 Crs
2642 1658 Crs
2767 1480 Crs
3192 1932 Crs
3299 1817 Crs
4139 1823 Crs
2941 1740 Crs
3196 1819 Crs
3666 2008 Crs
3729 2054 Crs
3202 2117 Crs
3175 1898 Crs
3940 2158 Crs
3078 1810 Crs
3170 1975 Crs
3467 2265 Crs
3922 2057 Crs
3204 2115 Crs
2917 1781 Crs
3042 1937 Crs
2644 1862 Crs
3481 1838 Crs
3274 1806 Crs
3619 2071 Crs
2884 1939 Crs
3968 2125 Crs
2490 1698 Crs
2649 1974 Crs
2636 1769 Crs
2724 1993 Crs
3433 1843 Crs
3215 2001 Crs
3150 2120 Crs
2726 2040 Crs
3138 1890 Crs
2868 1921 Crs
3366 1969 Crs
3559 2060 Crs
3577 1908 Crs
3448 1922 Crs
2921 2011 Crs
3019 2234 Crs
3008 2160 Crs
3612 1713 Crs
2841 1961 Crs
3002 1967 Crs
4181 2316 Crs
3378 2147 Crs
3681 1995 Crs
3271 1892 Crs
3267 1995 Crs
3233 2023 Crs
2804 2101 Crs
3567 2088 Crs
3116 1918 Crs
3850 2027 Crs
3351 2155 Crs
3227 1938 Crs
3167 1933 Crs
3251 2288 Crs
2407 1663 Crs
3356 2229 Crs
2759 1959 Crs
2711 1891 Crs
2733 1952 Crs
3558 1954 Crs
3429 1961 Crs
3707 1907 Crs
3847 1958 Crs
3028 2022 Crs
3047 1769 Crs
3085 2141 Crs
2723 1997 Crs
3949 2180 Crs
3027 1771 Crs
2987 1923 Crs
2955 1826 Crs
3468 2018 Crs
2873 1960 Crs
3819 1952 Crs
3188 2097 Crs
3501 2203 Crs
3215 1972 Crs
3108 2229 Crs
2745 1695 Crs
3220 1902 Crs
3630 2095 Crs
3080 2081 Crs
3094 1636 Crs
2871 2099 Crs
3322 1951 Crs
3280 1976 Crs
3512 1799 Crs
3443 2106 Crs
3188 2122 Crs
2792 1996 Crs
3119 2087 Crs
3772 2046 Crs
3336 2247 Crs
3028 1901 Crs
3653 2111 Crs
3157 1865 Crs
3319 1792 Crs
3073 1909 Crs
2928 2044 Crs
3343 2050 Crs
3042 1735 Crs
3124 1845 Crs
3512 2015 Crs
3105 1964 Crs
2856 1858 Crs
2844 2020 Crs
4293 2553 Crs
3424 2226 Crs
3263 2211 Crs
3886 2064 Crs
3260 2370 Crs
3174 1983 Crs
2742 2052 Crs
3066 2054 Crs
3467 1903 Crs
3903 2110 Crs
3585 2107 Crs
2795 2005 Crs
3541 1991 Crs
3068 1753 Crs
3300 2199 Crs
3274 2164 Crs
2763 1949 Crs
3871 2067 Crs
3250 1905 Crs
2936 2013 Crs
3014 1662 Crs
2425 1808 Crs
4046 2235 Crs
3451 2395 Crs
3489 2053 Crs
2821 1942 Crs
2872 1943 Crs
3305 1872 Crs
2871 1855 Crs
3546 1776 Crs
3809 2167 Crs
2728 1718 Crs
3295 2029 Crs
3985 2027 Crs
3830 2076 Crs
3443 2370 Crs
3030 2219 Crs
3462 2004 Crs
3357 1973 Crs
4134 2231 Crs
3350 2226 Crs
3559 2055 Crs
3639 1915 Crs
3293 1697 Crs
3463 1848 Crs
2682 1991 Crs
3323 1983 Crs
3469 2240 Crs
2777 2032 Crs
4242 2150 Crs
3631 2150 Crs
3164 2260 Crs
3697 2478 Crs
3493 1895 Crs
2498 1553 Crs
3428 2168 Crs
2780 1978 Crs
3559 2284 Crs
3053 1861 Crs
3423 1974 Crs
2947 1959 Crs
3704 1908 Crs
3436 2141 Crs
3120 1972 Crs
3336 2100 Crs
2988 1989 Crs
3788 2114 Crs
3190 2160 Crs
3586 2146 Crs
3238 2051 Crs
3212 2160 Crs
3473 2021 Crs
3422 1962 Crs
2772 1988 Crs
2542 1678 Crs
3708 1943 Crs
3960 1872 Crs
3030 2032 Crs
3570 2104 Crs
3347 1933 Crs
2867 1786 Crs
3157 1944 Crs
3962 2016 Crs
3088 1894 Crs
3156 2029 Crs
3016 2018 Crs
3332 1985 Crs
3820 2419 Crs
2725 1970 Crs
3219 2248 Crs
3177 2159 Crs
2944 1876 Crs
3007 1989 Crs
3107 2244 Crs
4215 1973 Crs
3348 2501 Crs
2820 1963 Crs
3588 2042 Crs
3768 2209 Crs
3184 2070 Crs
3558 2187 Crs
3310 2275 Crs
3252 2001 Crs
3454 1982 Crs
3436 2041 Crs
3423 2165 Crs
3164 2047 Crs
3744 1997 Crs
3280 2177 Crs
2527 1758 Crs
2720 1703 Crs
3659 2169 Crs
3523 2083 Crs
3610 2162 Crs
2843 1819 Crs
3275 2084 Crs
3272 1930 Crs
2606 1740 Crs
3692 1800 Crs
3171 2193 Crs
3016 1914 Crs
2743 1948 Crs
2797 1825 Crs
3398 2119 Crs
3030 1993 Crs
3244 1808 Crs
3427 2199 Crs
2509 1779 Crs
3175 1863 Crs
3584 2154 Crs
2810 1695 Crs
3896 1973 Crs
3464 2172 Crs
3072 1975 Crs
3955 2151 Crs
3697 1993 Crs
4283 1874 Crs
3400 2099 Crs
3379 2183 Crs
3472 2164 Crs
3945 2151 Crs
3061 2062 Crs
3446 2018 Crs
3388 1738 Crs
4020 2181 Crs
3167 2011 Crs
2974 1794 Crs
4190 1986 Crs
3364 2093 Crs
3386 2069 Crs
3416 1974 Crs
3369 1962 Crs
2778 1639 Crs
3555 1796 Crs
3378 2084 Crs
3633 2049 Crs
2581 1597 Crs
2910 1943 Crs
3641 2048 Crs
3729 1973 Crs
2848 2024 Crs
3425 1927 Crs
4001 2023 Crs
2954 1848 Crs
2691 1979 Crs
3165 1673 Crs
3238 2214 Crs
3301 2311 Crs
3495 2178 Crs
2831 1890 Crs
3175 2093 Crs
3217 2099 Crs
3016 1940 Crs
3469 1863 Crs
3423 1710 Crs
3041 1795 Crs
3589 2467 Crs
3548 2211 Crs
4024 2072 Crs
3218 1843 Crs
3717 2094 Crs
3308 2256 Crs
3757 1868 Crs
2576 1783 Crs
2646 1888 Crs
3934 1978 Crs
3296 2138 Crs
4309 2150 Crs
3623 2206 Crs
3734 2370 Crs
3334 2142 Crs
3485 2132 Crs
3343 1878 Crs
2886 1893 Crs
3126 1672 Crs
3360 2175 Crs
3641 2034 Crs
3204 2021 Crs
3240 2142 Crs
3605 2271 Crs
2345 1665 Crs
3418 2070 Crs
3440 2051 Crs
3372 2048 Crs
3684 1871 Crs
3541 2309 Crs
2431 1446 Crs
3839 1980 Crs
3821 1972 Crs
3444 2122 Crs
3135 1940 Crs
3109 2071 Crs
3396 2197 Crs
2943 1674 Crs
3869 2263 Crs
3356 1791 Crs
4013 1641 Crs
3192 2017 Crs
3467 2263 Crs
3453 1824 Crs
2980 1915 Crs
2747 1787 Crs
2779 2024 Crs
3471 1804 Crs
2638 1820 Crs
3577 1930 Crs
3412 1969 Crs
2868 1768 Crs
3502 2038 Crs
3794 2099 Crs
2907 1983 Crs
3489 2123 Crs
3429 1983 Crs
2751 2005 Crs
3791 2136 Crs
3377 1894 Crs
3577 1408 Crs
3565 1999 Crs
3364 2151 Crs
3124 1975 Crs
2924 1991 Crs
3075 1820 Crs
3505 1790 Crs
4224 2305 Crs
2676 1788 Crs
3452 2042 Crs
3490 1889 Crs
3273 2006 Crs
3378 1953 Crs
3363 1922 Crs
3019 1781 Crs
3065 1702 Crs
3395 1760 Crs
3154 2131 Crs
3182 2003 Crs
3430 2167 Crs
4447 2087 Crs
3373 1983 Crs
3470 2147 Crs
2751 1700 Crs
3178 1846 Crs
3612 1812 Crs
2595 1855 Crs
3099 2033 Crs
3178 1739 Crs
3138 1961 Crs
3320 1758 Crs
3215 1912 Crs
3019 2130 Crs
2870 1984 Crs
3856 1826 Crs
3615 2150 Crs
4152 2402 Crs
3256 1816 Crs
3667 2085 Crs
2792 1795 Crs
3094 2072 Crs
3047 2042 Crs
3858 1906 Crs
2952 2112 Crs
3063 2005 Crs
3389 1981 Crs
2813 1996 Crs
2801 1871 Crs
2847 1783 Crs
3314 2030 Crs
3336 2195 Crs
3320 2291 Crs
3339 1859 Crs
3691 1925 Crs
2486 1815 Crs
3887 2352 Crs
3308 2153 Crs
2774 1808 Crs
3552 2167 Crs
2983 1531 Crs
3579 1705 Crs
3187 1812 Crs
3442 1942 Crs
3239 2133 Crs
2752 1828 Crs
3630 1956 Crs
3217 2049 Crs
3194 2046 Crs
2446 1745 Crs
3709 2272 Crs
3381 2030 Crs
3204 1412 Crs
3308 2019 Crs
2422 1488 Crs
4055 2002 Crs
3123 1981 Crs
3019 2059 Crs
3351 1821 Crs
3099 1886 Crs
2763 1694 Crs
3296 2021 Crs
3792 2188 Crs
3199 2078 Crs
2985 1988 Crs
3536 2283 Crs
4023 2153 Crs
2608 1421 Crs
3383 1982 Crs
2343 1510 Crs
3460 2015 Crs
3941 2016 Crs
3467 1881 Crs
3457 1816 Crs
3138 1682 Crs
3327 2262 Crs
3311 2079 Crs
3063 2051 Crs
3213 1886 Crs
3398 1885 Crs
3401 1837 Crs
3490 1699 Crs
2950 2072 Crs
4246 2016 Crs
3572 2285 Crs
3440 2053 Crs
3155 2147 Crs
3749 2122 Crs
3283 1949 Crs
3754 2135 Crs
3003 2010 Crs
3533 2041 Crs
3250 2122 Crs
3151 1917 Crs
3561 2215 Crs
2803 2017 Crs
3819 1952 Crs
3037 1796 Crs
2905 1732 Crs
2478 1577 Crs
4101 2417 Crs
3476 2225 Crs
4195 2115 Crs
3440 2253 Crs
2976 1805 Crs
2752 1973 Crs
3794 1730 Crs
2945 1929 Crs
3625 2089 Crs
2753 1943 Crs
2400 1699 Crs
3563 2228 Crs
2258 1667 Crs
3870 2217 Crs
3210 1991 Crs
2382 1698 Crs
3573 2529 Crs
2526 1857 Crs
3247 2175 Crs
3895 2607 Crs
2888 1961 Crs
2699 1853 Crs
3463 2163 Crs
3573 2498 Crs
3622 2220 Crs
3027 2126 Crs
2708 1927 Crs
3155 1842 Crs
3295 1942 Crs
3157 1840 Crs
3214 1854 Crs
3159 2026 Crs
3139 1891 Crs
2919 1761 Crs
3115 1973 Crs
3245 1844 Crs
2954 2048 Crs
3773 1970 Crs
2582 1806 Crs
2707 1884 Crs
3036 2177 Crs
3731 1877 Crs
3353 2436 Crs
3739 1999 Crs
3664 1779 Crs
3763 2430 Crs
3571 2047 Crs
3083 1740 Crs
3272 2236 Crs
2931 1875 Crs
3204 2278 Crs
2799 1619 Crs
3445 2112 Crs
3150 1918 Crs
2981 1973 Crs
3365 2217 Crs
2635 1941 Crs
3529 2099 Crs
3142 2008 Crs
3463 1893 Crs
3424 2146 Crs
3720 1633 Crs
3103 2228 Crs
3314 2125 Crs
3062 1775 Crs
3491 2118 Crs
3322 2114 Crs
2718 2019 Crs
3061 2140 Crs
3434 2000 Crs
3560 1879 Crs
3762 2008 Crs
3222 1884 Crs
3465 2111 Crs
3298 2123 Crs
3278 2151 Crs
3245 1921 Crs
3559 1982 Crs
3468 2112 Crs
3281 1932 Crs
3808 2000 Crs
2679 1946 Crs
3053 2025 Crs
3708 2523 Crs
2836 1945 Crs
4083 1984 Crs
3200 1990 Crs
3697 2424 Crs
3258 1932 Crs
3261 2183 Crs
2886 2032 Crs
3697 2478 Crs
3850 2153 Crs
3309 1755 Crs
3786 1926 Crs
3202 2038 Crs
3619 2354 Crs
3277 2136 Crs
3432 2115 Crs
3666 2019 Crs
3320 1893 Crs
3542 1827 Crs
3531 1515 Crs
3955 2007 Crs
3397 1899 Crs
3624 2267 Crs
3237 2131 Crs
3535 2329 Crs
3547 2205 Crs
3622 2272 Crs
3826 2090 Crs
2824 1734 Crs
3390 2280 Crs
3618 1973 Crs
3310 1884 Crs
3394 1915 Crs
2793 2067 Crs
2857 1869 Crs
3575 2300 Crs
2454 1661 Crs
3458 1970 Crs
2440 1802 Crs
3210 2277 Crs
3564 2100 Crs
3159 1900 Crs
3371 1996 Crs
3411 1923 Crs
2212 1525 Crs
2820 1883 Crs
2718 1853 Crs
3484 1874 Crs
3323 2300 Crs
3129 1908 Crs
3240 1923 Crs
2727 1858 Crs
2840 1761 Crs
3459 2167 Crs
3414 1969 Crs
2657 1886 Crs
3084 2053 Crs
3565 1884 Crs
3291 2147 Crs
3354 2072 Crs
3601 1905 Crs
3791 1958 Crs
3543 2136 Crs
3085 1890 Crs
3423 1840 Crs
3659 1906 Crs
3352 1886 Crs
3200 2064 Crs
3387 1911 Crs
3274 2138 Crs
2896 1964 Crs
3240 2143 Crs
2886 1979 Crs
2900 1781 Crs
3738 2153 Crs
2884 1954 Crs
3190 2062 Crs
3000 2187 Crs
3401 2333 Crs
2844 1914 Crs
3349 2164 Crs
3526 2130 Crs
3603 1946 Crs
3444 2049 Crs
3659 2142 Crs
3735 2162 Crs
2455 1732 Crs
3210 2020 Crs
3406 2172 Crs
2834 1700 Crs
4290 1947 Crs
3302 2137 Crs
3833 1937 Crs
3398 1700 Crs
3033 1975 Crs
3235 1946 Crs
3150 1964 Crs
3400 2146 Crs
3635 2164 Crs
2410 1637 Crs
3465 2420 Crs
3623 2228 Crs
3314 1938 Crs
2901 1842 Crs
2806 2078 Crs
3190 2029 Crs
3415 2033 Crs
3636 1974 Crs
3475 2338 Crs
3552 1817 Crs
3290 1759 Crs
3844 2050 Crs
3468 1956 Crs
3206 1682 Crs
3370 1679 Crs
3721 2133 Crs
3210 1946 Crs
3578 2032 Crs
3344 2112 Crs
3340 2201 Crs
4020 1916 Crs
2955 2108 Crs
3677 1748 Crs
2875 2044 Crs
3742 2021 Crs
2888 1984 Crs
2668 1819 Crs
3769 2095 Crs
2952 2088 Crs
2722 1978 Crs
3338 2165 Crs
3502 2144 Crs
4092 2319 Crs
3416 2077 Crs
2714 2015 Crs
3574 2330 Crs
3499 1905 Crs
3717 2084 Crs
3198 2164 Crs
3032 1937 Crs
2921 1516 Crs
2788 1985 Crs
3440 2047 Crs
3049 2011 Crs
2863 1836 Crs
3255 2187 Crs
3036 2152 Crs
4294 2115 Crs
3062 2263 Crs
3298 2079 Crs
3195 1894 Crs
2703 1817 Crs
3827 1897 Crs
3685 2398 Crs
3468 1975 Crs
2946 1909 Crs
3233 2272 Crs
3061 1872 Crs
4181 1875 Crs
2703 1955 Crs
3236 2217 Crs
3638 1834 Crs
3431 1885 Crs
3223 1848 Crs
3335 2487 Crs
4311 2067 Crs
3693 2297 Crs
2643 1986 Crs
3351 1981 Crs
3082 1789 Crs
2845 1663 Crs
3237 2048 Crs
2310 1652 Crs
3418 1747 Crs
3716 2224 Crs
3319 1906 Crs
3000 1700 Crs
4100 2165 Crs
3636 2044 Crs
3209 1840 Crs
2895 1991 Crs
3084 1906 Crs
2691 1885 Crs
2953 1855 Crs
3677 1903 Crs
3086 2189 Crs
2930 1838 Crs
2977 2185 Crs
2833 1935 Crs
3784 2018 Crs
3497 2047 Crs
2707 1992 Crs
3361 2244 Crs
3284 2179 Crs
3787 1810 Crs
2803 1795 Crs
3043 1974 Crs
3099 1755 Crs
3148 1787 Crs
3213 1996 Crs
2944 1921 Crs
3417 2023 Crs
3663 1914 Crs
3177 2112 Crs
2840 1758 Crs
3387 1972 Crs
3390 2111 Crs
3361 1893 Crs
3394 2040 Crs
3334 2038 Crs
3310 2156 Crs
2396 1784 Crs
2510 1752 Crs
2900 1710 Crs
3280 1762 Crs
2790 1792 Crs
3519 2060 Crs
3136 1891 Crs
3096 1707 Crs
3849 2378 Crs
3091 1948 Crs
2773 1867 Crs
3316 2311 Crs
2567 1757 Crs
3484 2115 Crs
3822 1788 Crs
3269 2204 Crs
3655 1927 Crs
2626 1895 Crs
3773 2200 Crs
3681 2111 Crs
2444 1637 Crs
3358 1744 Crs
3693 2054 Crs
2914 1868 Crs
3653 2051 Crs
2712 2021 Crs
2934 2062 Crs
2829 2003 Crs
3093 2058 Crs
3246 2193 Crs
3265 1729 Crs
3652 2415 Crs
2932 2036 Crs
3662 2138 Crs
3420 2046 Crs
3587 1872 Crs
2865 1786 Crs
3364 2079 Crs
2804 1883 Crs
3312 2035 Crs
2762 1934 Crs
2473 1824 Crs
3277 2013 Crs
2595 1905 Crs
2803 1692 Crs
3518 1918 Crs
3530 1932 Crs
3169 2098 Crs
3593 2311 Crs
2893 2104 Crs
2848 2065 Crs
3508 2025 Crs
2701 1961 Crs
3333 1843 Crs
3929 1858 Crs
3158 1950 Crs
3789 2067 Crs
3163 1905 Crs
3167 2103 Crs
3494 1795 Crs
3012 2166 Crs
3770 1949 Crs
3607 2119 Crs
3387 1975 Crs
3794 2059 Crs
2605 1795 Crs
3360 1758 Crs
3427 1911 Crs
2484 1751 Crs
2621 1923 Crs
3248 2164 Crs
2748 2029 Crs
% End plot #2
% Begin plot #3
1.000 UL
LTb
LT1
0.75 0.75 0.75 C 867 645 M
38 29 V
39 29 V
38 30 V
39 29 V
38 29 V
39 29 V
38 29 V
39 29 V
38 29 V
39 30 V
38 29 V
39 29 V
38 29 V
39 29 V
38 29 V
39 30 V
38 29 V
39 29 V
38 29 V
39 29 V
38 29 V
39 29 V
38 30 V
39 29 V
38 29 V
39 29 V
38 29 V
39 29 V
38 29 V
39 30 V
38 29 V
39 29 V
38 29 V
39 29 V
39 29 V
38 30 V
39 29 V
38 29 V
39 29 V
38 29 V
39 29 V
38 29 V
39 30 V
38 29 V
39 29 V
38 29 V
39 29 V
38 29 V
39 29 V
38 30 V
39 29 V
38 29 V
39 29 V
38 29 V
39 29 V
38 30 V
39 29 V
38 29 V
39 29 V
38 29 V
39 29 V
38 29 V
39 30 V
38 29 V
39 29 V
38 29 V
39 29 V
38 29 V
39 29 V
38 30 V
39 29 V
38 29 V
39 29 V
38 29 V
39 29 V
38 30 V
39 29 V
38 29 V
39 29 V
38 29 V
39 29 V
38 29 V
39 30 V
38 29 V
39 29 V
38 29 V
39 29 V
38 29 V
39 29 V
38 30 V
39 29 V
38 29 V
39 29 V
38 29 V
39 29 V
38 30 V
39 29 V
38 29 V
39 29 V
% End plot #3
stroke
2.000 UL
LTb
LCb setrgbcolor
1.000 UL
LTb
LCb setrgbcolor
860 3531 N
860 640 L
3819 0 V
0 2891 V
-3819 0 V
Z stroke
0.500 UP
1.000 UL
LTb
LCb setrgbcolor
stroke
grestore
end
showpage
%%Trailer
%%DocumentFonts: Helvetica
