%!PS-Adobe-2.0 EPSF-2.0
%%Title: mean.eps
%%Creator: gnuplot 5.0 patchlevel 1
%%CreationDate: Fri Oct 30 18:57:07 2015
%%DocumentFonts: (atend)
%%BoundingBox: 50 50 302 238
%%EndComments
%%BeginProlog
/gnudict 256 dict def
gnudict begin
%
% The following true/false flags may be edited by hand if desired.
% The unit line width and grayscale image gamma correction may also be changed.
%
/Color true def
/Blacktext false def
/Solid false def
/Dashlength 1 def
/Landscape false def
/Level1 false def
/Level3 false def
/Rounded false def
/ClipToBoundingBox false def
/SuppressPDFMark false def
/TransparentPatterns false def
/gnulinewidth 5.000 def
/userlinewidth gnulinewidth def
/Gamma 1.0 def
/BackgroundColor {-1.000 -1.000 -1.000} def
%
/vshift -66 def
/dl1 {
  10.0 Dashlength userlinewidth gnulinewidth div mul mul mul
  Rounded { currentlinewidth 0.75 mul sub dup 0 le { pop 0.01 } if } if
} def
/dl2 {
  10.0 Dashlength userlinewidth gnulinewidth div mul mul mul
  Rounded { currentlinewidth 0.75 mul add } if
} def
/hpt_ 31.5 def
/vpt_ 31.5 def
/hpt hpt_ def
/vpt vpt_ def
/doclip {
  ClipToBoundingBox {
    newpath 50 50 moveto 302 50 lineto 302 238 lineto 50 238 lineto closepath
    clip
  } if
} def
%
% Gnuplot Prolog Version 5.0 (Dec 2014)
%
%/SuppressPDFMark true def
%
/M {moveto} bind def
/L {lineto} bind def
/R {rmoveto} bind def
/V {rlineto} bind def
/N {newpath moveto} bind def
/Z {closepath} bind def
/C {setrgbcolor} bind def
/f {rlineto fill} bind def
/g {setgray} bind def
/Gshow {show} def   % May be redefined later in the file to support UTF-8
/vpt2 vpt 2 mul def
/hpt2 hpt 2 mul def
/Lshow {currentpoint stroke M 0 vshift R 
	Blacktext {gsave 0 setgray textshow grestore} {textshow} ifelse} def
/Rshow {currentpoint stroke M dup stringwidth pop neg vshift R
	Blacktext {gsave 0 setgray textshow grestore} {textshow} ifelse} def
/Cshow {currentpoint stroke M dup stringwidth pop -2 div vshift R 
	Blacktext {gsave 0 setgray textshow grestore} {textshow} ifelse} def
/UP {dup vpt_ mul /vpt exch def hpt_ mul /hpt exch def
  /hpt2 hpt 2 mul def /vpt2 vpt 2 mul def} def
/DL {Color {setrgbcolor Solid {pop []} if 0 setdash}
 {pop pop pop 0 setgray Solid {pop []} if 0 setdash} ifelse} def
/BL {stroke userlinewidth 2 mul setlinewidth
	Rounded {1 setlinejoin 1 setlinecap} if} def
/AL {stroke userlinewidth 2 div setlinewidth
	Rounded {1 setlinejoin 1 setlinecap} if} def
/UL {dup gnulinewidth mul /userlinewidth exch def
	dup 1 lt {pop 1} if 10 mul /udl exch def} def
/PL {stroke userlinewidth setlinewidth
	Rounded {1 setlinejoin 1 setlinecap} if} def
3.8 setmiterlimit
% Classic Line colors (version 5.0)
/LCw {1 1 1} def
/LCb {0 0 0} def
/LCa {0 0 0} def
/LC0 {1 0 0} def
/LC1 {0 1 0} def
/LC2 {0 0 1} def
/LC3 {1 0 1} def
/LC4 {0 1 1} def
/LC5 {1 1 0} def
/LC6 {0 0 0} def
/LC7 {1 0.3 0} def
/LC8 {0.5 0.5 0.5} def
% Default dash patterns (version 5.0)
/LTw {PL [] 1 setgray} def
/LTb {BL [] LCb DL} def
/LTa {AL [1 udl mul 2 udl mul] 0 setdash LCa setrgbcolor} def
/LT0 {PL [] LC0 DL} def
/LT1 {PL [2 dl1 3 dl2] LC1 DL} def
/LT2 {PL [1 dl1 1.5 dl2] LC2 DL} def
/LT3 {PL [6 dl1 2 dl2 1 dl1 2 dl2] LC3 DL} def
/LT4 {PL [1 dl1 2 dl2 6 dl1 2 dl2 1 dl1 2 dl2] LC4 DL} def
/LT5 {PL [4 dl1 2 dl2] LC5 DL} def
/LT6 {PL [1.5 dl1 1.5 dl2 1.5 dl1 1.5 dl2 1.5 dl1 6 dl2] LC6 DL} def
/LT7 {PL [3 dl1 3 dl2 1 dl1 3 dl2] LC7 DL} def
/LT8 {PL [2 dl1 2 dl2 2 dl1 6 dl2] LC8 DL} def
/SL {[] 0 setdash} def
/Pnt {stroke [] 0 setdash gsave 1 setlinecap M 0 0 V stroke grestore} def
/Dia {stroke [] 0 setdash 2 copy vpt add M
  hpt neg vpt neg V hpt vpt neg V
  hpt vpt V hpt neg vpt V closepath stroke
  Pnt} def
/Pls {stroke [] 0 setdash vpt sub M 0 vpt2 V
  currentpoint stroke M
  hpt neg vpt neg R hpt2 0 V stroke
 } def
/Box {stroke [] 0 setdash 2 copy exch hpt sub exch vpt add M
  0 vpt2 neg V hpt2 0 V 0 vpt2 V
  hpt2 neg 0 V closepath stroke
  Pnt} def
/Crs {stroke [] 0 setdash exch hpt sub exch vpt add M
  hpt2 vpt2 neg V currentpoint stroke M
  hpt2 neg 0 R hpt2 vpt2 V stroke} def
/TriU {stroke [] 0 setdash 2 copy vpt 1.12 mul add M
  hpt neg vpt -1.62 mul V
  hpt 2 mul 0 V
  hpt neg vpt 1.62 mul V closepath stroke
  Pnt} def
/Star {2 copy Pls Crs} def
/BoxF {stroke [] 0 setdash exch hpt sub exch vpt add M
  0 vpt2 neg V hpt2 0 V 0 vpt2 V
  hpt2 neg 0 V closepath fill} def
/TriUF {stroke [] 0 setdash vpt 1.12 mul add M
  hpt neg vpt -1.62 mul V
  hpt 2 mul 0 V
  hpt neg vpt 1.62 mul V closepath fill} def
/TriD {stroke [] 0 setdash 2 copy vpt 1.12 mul sub M
  hpt neg vpt 1.62 mul V
  hpt 2 mul 0 V
  hpt neg vpt -1.62 mul V closepath stroke
  Pnt} def
/TriDF {stroke [] 0 setdash vpt 1.12 mul sub M
  hpt neg vpt 1.62 mul V
  hpt 2 mul 0 V
  hpt neg vpt -1.62 mul V closepath fill} def
/DiaF {stroke [] 0 setdash vpt add M
  hpt neg vpt neg V hpt vpt neg V
  hpt vpt V hpt neg vpt V closepath fill} def
/Pent {stroke [] 0 setdash 2 copy gsave
  translate 0 hpt M 4 {72 rotate 0 hpt L} repeat
  closepath stroke grestore Pnt} def
/PentF {stroke [] 0 setdash gsave
  translate 0 hpt M 4 {72 rotate 0 hpt L} repeat
  closepath fill grestore} def
/Circle {stroke [] 0 setdash 2 copy
  hpt 0 360 arc stroke Pnt} def
/CircleF {stroke [] 0 setdash hpt 0 360 arc fill} def
/C0 {BL [] 0 setdash 2 copy moveto vpt 90 450 arc} bind def
/C1 {BL [] 0 setdash 2 copy moveto
	2 copy vpt 0 90 arc closepath fill
	vpt 0 360 arc closepath} bind def
/C2 {BL [] 0 setdash 2 copy moveto
	2 copy vpt 90 180 arc closepath fill
	vpt 0 360 arc closepath} bind def
/C3 {BL [] 0 setdash 2 copy moveto
	2 copy vpt 0 180 arc closepath fill
	vpt 0 360 arc closepath} bind def
/C4 {BL [] 0 setdash 2 copy moveto
	2 copy vpt 180 270 arc closepath fill
	vpt 0 360 arc closepath} bind def
/C5 {BL [] 0 setdash 2 copy moveto
	2 copy vpt 0 90 arc
	2 copy moveto
	2 copy vpt 180 270 arc closepath fill
	vpt 0 360 arc} bind def
/C6 {BL [] 0 setdash 2 copy moveto
	2 copy vpt 90 270 arc closepath fill
	vpt 0 360 arc closepath} bind def
/C7 {BL [] 0 setdash 2 copy moveto
	2 copy vpt 0 270 arc closepath fill
	vpt 0 360 arc closepath} bind def
/C8 {BL [] 0 setdash 2 copy moveto
	2 copy vpt 270 360 arc closepath fill
	vpt 0 360 arc closepath} bind def
/C9 {BL [] 0 setdash 2 copy moveto
	2 copy vpt 270 450 arc closepath fill
	vpt 0 360 arc closepath} bind def
/C10 {BL [] 0 setdash 2 copy 2 copy moveto vpt 270 360 arc closepath fill
	2 copy moveto
	2 copy vpt 90 180 arc closepath fill
	vpt 0 360 arc closepath} bind def
/C11 {BL [] 0 setdash 2 copy moveto
	2 copy vpt 0 180 arc closepath fill
	2 copy moveto
	2 copy vpt 270 360 arc closepath fill
	vpt 0 360 arc closepath} bind def
/C12 {BL [] 0 setdash 2 copy moveto
	2 copy vpt 180 360 arc closepath fill
	vpt 0 360 arc closepath} bind def
/C13 {BL [] 0 setdash 2 copy moveto
	2 copy vpt 0 90 arc closepath fill
	2 copy moveto
	2 copy vpt 180 360 arc closepath fill
	vpt 0 360 arc closepath} bind def
/C14 {BL [] 0 setdash 2 copy moveto
	2 copy vpt 90 360 arc closepath fill
	vpt 0 360 arc} bind def
/C15 {BL [] 0 setdash 2 copy vpt 0 360 arc closepath fill
	vpt 0 360 arc closepath} bind def
/Rec {newpath 4 2 roll moveto 1 index 0 rlineto 0 exch rlineto
	neg 0 rlineto closepath} bind def
/Square {dup Rec} bind def
/Bsquare {vpt sub exch vpt sub exch vpt2 Square} bind def
/S0 {BL [] 0 setdash 2 copy moveto 0 vpt rlineto BL Bsquare} bind def
/S1 {BL [] 0 setdash 2 copy vpt Square fill Bsquare} bind def
/S2 {BL [] 0 setdash 2 copy exch vpt sub exch vpt Square fill Bsquare} bind def
/S3 {BL [] 0 setdash 2 copy exch vpt sub exch vpt2 vpt Rec fill Bsquare} bind def
/S4 {BL [] 0 setdash 2 copy exch vpt sub exch vpt sub vpt Square fill Bsquare} bind def
/S5 {BL [] 0 setdash 2 copy 2 copy vpt Square fill
	exch vpt sub exch vpt sub vpt Square fill Bsquare} bind def
/S6 {BL [] 0 setdash 2 copy exch vpt sub exch vpt sub vpt vpt2 Rec fill Bsquare} bind def
/S7 {BL [] 0 setdash 2 copy exch vpt sub exch vpt sub vpt vpt2 Rec fill
	2 copy vpt Square fill Bsquare} bind def
/S8 {BL [] 0 setdash 2 copy vpt sub vpt Square fill Bsquare} bind def
/S9 {BL [] 0 setdash 2 copy vpt sub vpt vpt2 Rec fill Bsquare} bind def
/S10 {BL [] 0 setdash 2 copy vpt sub vpt Square fill 2 copy exch vpt sub exch vpt Square fill
	Bsquare} bind def
/S11 {BL [] 0 setdash 2 copy vpt sub vpt Square fill 2 copy exch vpt sub exch vpt2 vpt Rec fill
	Bsquare} bind def
/S12 {BL [] 0 setdash 2 copy exch vpt sub exch vpt sub vpt2 vpt Rec fill Bsquare} bind def
/S13 {BL [] 0 setdash 2 copy exch vpt sub exch vpt sub vpt2 vpt Rec fill
	2 copy vpt Square fill Bsquare} bind def
/S14 {BL [] 0 setdash 2 copy exch vpt sub exch vpt sub vpt2 vpt Rec fill
	2 copy exch vpt sub exch vpt Square fill Bsquare} bind def
/S15 {BL [] 0 setdash 2 copy Bsquare fill Bsquare} bind def
/D0 {gsave translate 45 rotate 0 0 S0 stroke grestore} bind def
/D1 {gsave translate 45 rotate 0 0 S1 stroke grestore} bind def
/D2 {gsave translate 45 rotate 0 0 S2 stroke grestore} bind def
/D3 {gsave translate 45 rotate 0 0 S3 stroke grestore} bind def
/D4 {gsave translate 45 rotate 0 0 S4 stroke grestore} bind def
/D5 {gsave translate 45 rotate 0 0 S5 stroke grestore} bind def
/D6 {gsave translate 45 rotate 0 0 S6 stroke grestore} bind def
/D7 {gsave translate 45 rotate 0 0 S7 stroke grestore} bind def
/D8 {gsave translate 45 rotate 0 0 S8 stroke grestore} bind def
/D9 {gsave translate 45 rotate 0 0 S9 stroke grestore} bind def
/D10 {gsave translate 45 rotate 0 0 S10 stroke grestore} bind def
/D11 {gsave translate 45 rotate 0 0 S11 stroke grestore} bind def
/D12 {gsave translate 45 rotate 0 0 S12 stroke grestore} bind def
/D13 {gsave translate 45 rotate 0 0 S13 stroke grestore} bind def
/D14 {gsave translate 45 rotate 0 0 S14 stroke grestore} bind def
/D15 {gsave translate 45 rotate 0 0 S15 stroke grestore} bind def
/DiaE {stroke [] 0 setdash vpt add M
  hpt neg vpt neg V hpt vpt neg V
  hpt vpt V hpt neg vpt V closepath stroke} def
/BoxE {stroke [] 0 setdash exch hpt sub exch vpt add M
  0 vpt2 neg V hpt2 0 V 0 vpt2 V
  hpt2 neg 0 V closepath stroke} def
/TriUE {stroke [] 0 setdash vpt 1.12 mul add M
  hpt neg vpt -1.62 mul V
  hpt 2 mul 0 V
  hpt neg vpt 1.62 mul V closepath stroke} def
/TriDE {stroke [] 0 setdash vpt 1.12 mul sub M
  hpt neg vpt 1.62 mul V
  hpt 2 mul 0 V
  hpt neg vpt -1.62 mul V closepath stroke} def
/PentE {stroke [] 0 setdash gsave
  translate 0 hpt M 4 {72 rotate 0 hpt L} repeat
  closepath stroke grestore} def
/CircE {stroke [] 0 setdash 
  hpt 0 360 arc stroke} def
/Opaque {gsave closepath 1 setgray fill grestore 0 setgray closepath} def
/DiaW {stroke [] 0 setdash vpt add M
  hpt neg vpt neg V hpt vpt neg V
  hpt vpt V hpt neg vpt V Opaque stroke} def
/BoxW {stroke [] 0 setdash exch hpt sub exch vpt add M
  0 vpt2 neg V hpt2 0 V 0 vpt2 V
  hpt2 neg 0 V Opaque stroke} def
/TriUW {stroke [] 0 setdash vpt 1.12 mul add M
  hpt neg vpt -1.62 mul V
  hpt 2 mul 0 V
  hpt neg vpt 1.62 mul V Opaque stroke} def
/TriDW {stroke [] 0 setdash vpt 1.12 mul sub M
  hpt neg vpt 1.62 mul V
  hpt 2 mul 0 V
  hpt neg vpt -1.62 mul V Opaque stroke} def
/PentW {stroke [] 0 setdash gsave
  translate 0 hpt M 4 {72 rotate 0 hpt L} repeat
  Opaque stroke grestore} def
/CircW {stroke [] 0 setdash 
  hpt 0 360 arc Opaque stroke} def
/BoxFill {gsave Rec 1 setgray fill grestore} def
/Density {
  /Fillden exch def
  currentrgbcolor
  /ColB exch def /ColG exch def /ColR exch def
  /ColR ColR Fillden mul Fillden sub 1 add def
  /ColG ColG Fillden mul Fillden sub 1 add def
  /ColB ColB Fillden mul Fillden sub 1 add def
  ColR ColG ColB setrgbcolor} def
/BoxColFill {gsave Rec PolyFill} def
/PolyFill {gsave Density fill grestore grestore} def
/h {rlineto rlineto rlineto gsave closepath fill grestore} bind def
%
% PostScript Level 1 Pattern Fill routine for rectangles
% Usage: x y w h s a XX PatternFill
%	x,y = lower left corner of box to be filled
%	w,h = width and height of box
%	  a = angle in degrees between lines and x-axis
%	 XX = 0/1 for no/yes cross-hatch
%
/PatternFill {gsave /PFa [ 9 2 roll ] def
  PFa 0 get PFa 2 get 2 div add PFa 1 get PFa 3 get 2 div add translate
  PFa 2 get -2 div PFa 3 get -2 div PFa 2 get PFa 3 get Rec
  TransparentPatterns {} {gsave 1 setgray fill grestore} ifelse
  clip
  currentlinewidth 0.5 mul setlinewidth
  /PFs PFa 2 get dup mul PFa 3 get dup mul add sqrt def
  0 0 M PFa 5 get rotate PFs -2 div dup translate
  0 1 PFs PFa 4 get div 1 add floor cvi
	{PFa 4 get mul 0 M 0 PFs V} for
  0 PFa 6 get ne {
	0 1 PFs PFa 4 get div 1 add floor cvi
	{PFa 4 get mul 0 2 1 roll M PFs 0 V} for
 } if
  stroke grestore} def
%
/languagelevel where
 {pop languagelevel} {1} ifelse
dup 2 lt
	{/InterpretLevel1 true def
	 /InterpretLevel3 false def}
	{/InterpretLevel1 Level1 def
	 2 gt
	    {/InterpretLevel3 Level3 def}
	    {/InterpretLevel3 false def}
	 ifelse }
 ifelse
%
% PostScript level 2 pattern fill definitions
%
/Level2PatternFill {
/Tile8x8 {/PaintType 2 /PatternType 1 /TilingType 1 /BBox [0 0 8 8] /XStep 8 /YStep 8}
	bind def
/KeepColor {currentrgbcolor [/Pattern /DeviceRGB] setcolorspace} bind def
<< Tile8x8
 /PaintProc {0.5 setlinewidth pop 0 0 M 8 8 L 0 8 M 8 0 L stroke} 
>> matrix makepattern
/Pat1 exch def
<< Tile8x8
 /PaintProc {0.5 setlinewidth pop 0 0 M 8 8 L 0 8 M 8 0 L stroke
	0 4 M 4 8 L 8 4 L 4 0 L 0 4 L stroke}
>> matrix makepattern
/Pat2 exch def
<< Tile8x8
 /PaintProc {0.5 setlinewidth pop 0 0 M 0 8 L
	8 8 L 8 0 L 0 0 L fill}
>> matrix makepattern
/Pat3 exch def
<< Tile8x8
 /PaintProc {0.5 setlinewidth pop -4 8 M 8 -4 L
	0 12 M 12 0 L stroke}
>> matrix makepattern
/Pat4 exch def
<< Tile8x8
 /PaintProc {0.5 setlinewidth pop -4 0 M 8 12 L
	0 -4 M 12 8 L stroke}
>> matrix makepattern
/Pat5 exch def
<< Tile8x8
 /PaintProc {0.5 setlinewidth pop -2 8 M 4 -4 L
	0 12 M 8 -4 L 4 12 M 10 0 L stroke}
>> matrix makepattern
/Pat6 exch def
<< Tile8x8
 /PaintProc {0.5 setlinewidth pop -2 0 M 4 12 L
	0 -4 M 8 12 L 4 -4 M 10 8 L stroke}
>> matrix makepattern
/Pat7 exch def
<< Tile8x8
 /PaintProc {0.5 setlinewidth pop 8 -2 M -4 4 L
	12 0 M -4 8 L 12 4 M 0 10 L stroke}
>> matrix makepattern
/Pat8 exch def
<< Tile8x8
 /PaintProc {0.5 setlinewidth pop 0 -2 M 12 4 L
	-4 0 M 12 8 L -4 4 M 8 10 L stroke}
>> matrix makepattern
/Pat9 exch def
/Pattern1 {PatternBgnd KeepColor Pat1 setpattern} bind def
/Pattern2 {PatternBgnd KeepColor Pat2 setpattern} bind def
/Pattern3 {PatternBgnd KeepColor Pat3 setpattern} bind def
/Pattern4 {PatternBgnd KeepColor Landscape {Pat5} {Pat4} ifelse setpattern} bind def
/Pattern5 {PatternBgnd KeepColor Landscape {Pat4} {Pat5} ifelse setpattern} bind def
/Pattern6 {PatternBgnd KeepColor Landscape {Pat9} {Pat6} ifelse setpattern} bind def
/Pattern7 {PatternBgnd KeepColor Landscape {Pat8} {Pat7} ifelse setpattern} bind def
} def
%
%
%End of PostScript Level 2 code
%
/PatternBgnd {
  TransparentPatterns {} {gsave 1 setgray fill grestore} ifelse
} def
%
% Substitute for Level 2 pattern fill codes with
% grayscale if Level 2 support is not selected.
%
/Level1PatternFill {
/Pattern1 {0.250 Density} bind def
/Pattern2 {0.500 Density} bind def
/Pattern3 {0.750 Density} bind def
/Pattern4 {0.125 Density} bind def
/Pattern5 {0.375 Density} bind def
/Pattern6 {0.625 Density} bind def
/Pattern7 {0.875 Density} bind def
} def
%
% Now test for support of Level 2 code
%
Level1 {Level1PatternFill} {Level2PatternFill} ifelse
%
/Symbol-Oblique /Symbol findfont [1 0 .167 1 0 0] makefont
dup length dict begin {1 index /FID eq {pop pop} {def} ifelse} forall
currentdict end definefont pop
%
/MFshow {
   { dup 5 get 3 ge
     { 5 get 3 eq {gsave} {grestore} ifelse }
     {dup dup 0 get findfont exch 1 get scalefont setfont
     [ currentpoint ] exch dup 2 get 0 exch R dup 5 get 2 ne {dup dup 6
     get exch 4 get {textshow} {stringwidth pop 0 R} ifelse }if dup 5 get 0 eq
     {dup 3 get {2 get neg 0 exch R pop} {pop aload pop M} ifelse} {dup 5
     get 1 eq {dup 2 get exch dup 3 get exch 6 get stringwidth pop -2 div
     dup 0 R} {dup 6 get stringwidth pop -2 div 0 R 6 get
     textshow 2 index {aload pop M neg 3 -1 roll neg R pop pop} {pop pop pop
     pop aload pop M} ifelse }ifelse }ifelse }
     ifelse }
   forall} def
/Gswidth {dup type /stringtype eq {stringwidth} {pop (n) stringwidth} ifelse} def
/MFwidth {0 exch { dup 5 get 3 ge { 5 get 3 eq { 0 } { pop } ifelse }
 {dup 3 get{dup dup 0 get findfont exch 1 get scalefont setfont
     6 get Gswidth pop add} {pop} ifelse} ifelse} forall} def
/MLshow { currentpoint stroke M
  0 exch R
  Blacktext {gsave 0 setgray MFshow grestore} {MFshow} ifelse } bind def
/MRshow { currentpoint stroke M
  exch dup MFwidth neg 3 -1 roll R
  Blacktext {gsave 0 setgray MFshow grestore} {MFshow} ifelse } bind def
/MCshow { currentpoint stroke M
  exch dup MFwidth -2 div 3 -1 roll R
  Blacktext {gsave 0 setgray MFshow grestore} {MFshow} ifelse } bind def
/XYsave    { [( ) 1 2 true false 3 ()] } bind def
/XYrestore { [( ) 1 2 true false 4 ()] } bind def
Level1 SuppressPDFMark or 
{} {
/SDict 10 dict def
systemdict /pdfmark known not {
  userdict /pdfmark systemdict /cleartomark get put
} if
SDict begin [
  /Title (mean.eps)
  /Subject (gnuplot plot)
  /Creator (gnuplot 5.0 patchlevel 1)
  /Author (gaumont)
%  /Producer (gnuplot)
%  /Keywords ()
  /CreationDate (Fri Oct 30 18:57:07 2015)
  /DOCINFO pdfmark
end
} ifelse
end
%
% Support for boxed text - Ethan A Merritt May 2005
%
/InitTextBox { userdict /TBy2 3 -1 roll put userdict /TBx2 3 -1 roll put
           userdict /TBy1 3 -1 roll put userdict /TBx1 3 -1 roll put
	   /Boxing true def } def
/ExtendTextBox { Boxing
    { gsave dup false charpath pathbbox
      dup TBy2 gt {userdict /TBy2 3 -1 roll put} {pop} ifelse
      dup TBx2 gt {userdict /TBx2 3 -1 roll put} {pop} ifelse
      dup TBy1 lt {userdict /TBy1 3 -1 roll put} {pop} ifelse
      dup TBx1 lt {userdict /TBx1 3 -1 roll put} {pop} ifelse
      grestore } if } def
/PopTextBox { newpath TBx1 TBxmargin sub TBy1 TBymargin sub M
               TBx1 TBxmargin sub TBy2 TBymargin add L
	       TBx2 TBxmargin add TBy2 TBymargin add L
	       TBx2 TBxmargin add TBy1 TBymargin sub L closepath } def
/DrawTextBox { PopTextBox stroke /Boxing false def} def
/FillTextBox { gsave PopTextBox 1 1 1 setrgbcolor fill grestore /Boxing false def} def
0 0 0 0 InitTextBox
/TBxmargin 20 def
/TBymargin 20 def
/Boxing false def
/textshow { ExtendTextBox Gshow } def
%
%%EndProlog
%%Page: 1 1
gnudict begin
gsave
doclip
50 50 translate
0.050 0.050 scale
0 setgray
newpath
(Helvetica) findfont 200 scalefont setfont
BackgroundColor 0 lt 3 1 roll 0 lt exch 0 lt or or not {BackgroundColor C 1.000 0 0 5040.00 3772.00 BoxColFill} if
1.000 UL
LTb
LCb setrgbcolor
860 640 M
63 0 V
3756 0 R
-63 0 V
stroke
740 640 M
[ [(Helvetica) 200.0 0.0 true true 0 (10)]
[(Helvetica) 160.0 100.0 true true 0 (-6)]
] -86.7 MRshow
1.000 UL
LTb
LCb setrgbcolor
860 785 M
31 0 V
3788 0 R
-31 0 V
860 977 M
31 0 V
3788 0 R
-31 0 V
860 1075 M
31 0 V
3788 0 R
-31 0 V
860 1122 M
63 0 V
3756 0 R
-63 0 V
stroke
740 1122 M
[ [(Helvetica) 200.0 0.0 true true 0 (10)]
[(Helvetica) 160.0 100.0 true true 0 (-5)]
] -86.7 MRshow
1.000 UL
LTb
LCb setrgbcolor
860 1267 M
31 0 V
3788 0 R
-31 0 V
860 1459 M
31 0 V
3788 0 R
-31 0 V
860 1557 M
31 0 V
3788 0 R
-31 0 V
860 1604 M
63 0 V
3756 0 R
-63 0 V
stroke
740 1604 M
[ [(Helvetica) 200.0 0.0 true true 0 (10)]
[(Helvetica) 160.0 100.0 true true 0 (-4)]
] -86.7 MRshow
1.000 UL
LTb
LCb setrgbcolor
860 1749 M
31 0 V
3788 0 R
-31 0 V
860 1940 M
31 0 V
3788 0 R
-31 0 V
860 2039 M
31 0 V
3788 0 R
-31 0 V
860 2086 M
63 0 V
3756 0 R
-63 0 V
stroke
740 2086 M
[ [(Helvetica) 200.0 0.0 true true 0 (10)]
[(Helvetica) 160.0 100.0 true true 0 (-3)]
] -86.7 MRshow
1.000 UL
LTb
LCb setrgbcolor
860 2231 M
31 0 V
3788 0 R
-31 0 V
860 2422 M
31 0 V
3788 0 R
-31 0 V
860 2521 M
31 0 V
3788 0 R
-31 0 V
860 2567 M
63 0 V
3756 0 R
-63 0 V
stroke
740 2567 M
[ [(Helvetica) 200.0 0.0 true true 0 (10)]
[(Helvetica) 160.0 100.0 true true 0 (-2)]
] -86.7 MRshow
1.000 UL
LTb
LCb setrgbcolor
860 2712 M
31 0 V
3788 0 R
-31 0 V
860 2904 M
31 0 V
3788 0 R
-31 0 V
860 3002 M
31 0 V
3788 0 R
-31 0 V
860 3049 M
63 0 V
3756 0 R
-63 0 V
stroke
740 3049 M
[ [(Helvetica) 200.0 0.0 true true 0 (10)]
[(Helvetica) 160.0 100.0 true true 0 (-1)]
] -86.7 MRshow
1.000 UL
LTb
LCb setrgbcolor
860 3194 M
31 0 V
3788 0 R
-31 0 V
860 3386 M
31 0 V
3788 0 R
-31 0 V
860 3484 M
31 0 V
3788 0 R
-31 0 V
860 3531 M
63 0 V
3756 0 R
-63 0 V
stroke
740 3531 M
[ [(Helvetica) 200.0 0.0 true true 0 (10)]
[(Helvetica) 160.0 100.0 true true 0 (0)]
] -86.7 MRshow
1.000 UL
LTb
LCb setrgbcolor
860 640 M
0 63 V
0 2828 R
0 -63 V
stroke
860 440 M
[ [(Helvetica) 200.0 0.0 true true 0 (10)]
[(Helvetica) 160.0 100.0 true true 0 (-5)]
] -86.7 MCshow
1.000 UL
LTb
LCb setrgbcolor
1090 640 M
0 31 V
0 2860 R
0 -31 V
1394 640 M
0 31 V
0 2860 R
0 -31 V
1550 640 M
0 31 V
0 2860 R
0 -31 V
1624 640 M
0 63 V
0 2828 R
0 -63 V
stroke
1624 440 M
[ [(Helvetica) 200.0 0.0 true true 0 (10)]
[(Helvetica) 160.0 100.0 true true 0 (-4)]
] -86.7 MCshow
1.000 UL
LTb
LCb setrgbcolor
1854 640 M
0 31 V
0 2860 R
0 -31 V
2158 640 M
0 31 V
0 2860 R
0 -31 V
2314 640 M
0 31 V
0 2860 R
0 -31 V
2388 640 M
0 63 V
0 2828 R
0 -63 V
stroke
2388 440 M
[ [(Helvetica) 200.0 0.0 true true 0 (10)]
[(Helvetica) 160.0 100.0 true true 0 (-3)]
] -86.7 MCshow
1.000 UL
LTb
LCb setrgbcolor
2618 640 M
0 31 V
0 2860 R
0 -31 V
2921 640 M
0 31 V
0 2860 R
0 -31 V
3077 640 M
0 31 V
0 2860 R
0 -31 V
3151 640 M
0 63 V
0 2828 R
0 -63 V
stroke
3151 440 M
[ [(Helvetica) 200.0 0.0 true true 0 (10)]
[(Helvetica) 160.0 100.0 true true 0 (-2)]
] -86.7 MCshow
1.000 UL
LTb
LCb setrgbcolor
3381 640 M
0 31 V
0 2860 R
0 -31 V
3685 640 M
0 31 V
0 2860 R
0 -31 V
3841 640 M
0 31 V
0 2860 R
0 -31 V
3915 640 M
0 63 V
0 2828 R
0 -63 V
stroke
3915 440 M
[ [(Helvetica) 200.0 0.0 true true 0 (10)]
[(Helvetica) 160.0 100.0 true true 0 (-1)]
] -86.7 MCshow
1.000 UL
LTb
LCb setrgbcolor
4145 640 M
0 31 V
0 2860 R
0 -31 V
4449 640 M
0 31 V
0 2860 R
0 -31 V
4605 640 M
0 31 V
0 2860 R
0 -31 V
4679 640 M
0 63 V
0 2828 R
0 -63 V
stroke
4679 440 M
[ [(Helvetica) 200.0 0.0 true true 0 (10)]
[(Helvetica) 160.0 100.0 true true 0 (0)]
] -86.7 MCshow
1.000 UL
LTb
LCb setrgbcolor
1.000 UL
LTb
LCb setrgbcolor
860 3531 N
860 640 L
3819 0 V
0 2891 V
-3819 0 V
Z stroke
0.500 UP
1.000 UL
LTb
LCb setrgbcolor
LCb setrgbcolor
160 2085 M
currentpoint gsave translate -270 rotate 0 0 moveto
[ [(Helvetica) 200.0 0.0 true true 0 (Inter-thread density)]
] -66.7 MCshow
grestore
LTb
LCb setrgbcolor
2769 140 M
[ [(Helvetica) 200.0 0.0 true true 0 (Intra-thread density)]
] -66.7 MCshow
LTb
% Begin plot #1
0.500 UP
0.500 UL
LTb
0.82 0.11 0.02 C 867 1584 Pls
1383 1500 Pls
1750 1693 Pls
1749 1846 Pls
2050 1879 Pls
1731 1678 Pls
% End plot #1
% Begin plot #2
0.500 UP
0.500 UL
LTb
0.73 0.85 0.33 C 3906 1786 Crs
3560 1670 Crs
4557 1686 Crs
3181 1697 Crs
3726 1261 Crs
3443 1549 Crs
3415 1702 Crs
3489 1807 Crs
3190 1722 Crs
3292 1563 Crs
3383 1566 Crs
3091 1473 Crs
3705 1812 Crs
3888 1695 Crs
2592 1671 Crs
3209 1803 Crs
3453 1703 Crs
3209 1476 Crs
3857 1698 Crs
3494 1705 Crs
3363 1686 Crs
3418 1763 Crs
2896 1733 Crs
2941 1651 Crs
3376 1842 Crs
3124 1581 Crs
2971 1859 Crs
3320 1412 Crs
2585 1545 Crs
2992 1846 Crs
2778 1503 Crs
3754 1553 Crs
2893 1520 Crs
3753 1499 Crs
2898 1456 Crs
2927 1845 Crs
3868 1554 Crs
3162 1594 Crs
3764 1882 Crs
3375 1564 Crs
3195 1736 Crs
3037 1732 Crs
3805 1555 Crs
3308 1718 Crs
3049 1614 Crs
2705 1643 Crs
3397 1528 Crs
3306 1864 Crs
2788 1671 Crs
2685 1583 Crs
2697 1639 Crs
3300 1762 Crs
4057 1736 Crs
3066 1632 Crs
3626 1826 Crs
3120 1494 Crs
3853 1715 Crs
3006 1627 Crs
2627 1685 Crs
3252 1399 Crs
1231 1349 Crs
3126 1565 Crs
3618 1642 Crs
3117 1497 Crs
2024 1771 Crs
1513 1202 Crs
2672 1671 Crs
2790 1610 Crs
3195 1583 Crs
3775 1532 Crs
3020 1909 Crs
3826 1576 Crs
1699 1642 Crs
2998 1493 Crs
3272 1588 Crs
3983 1627 Crs
3908 1570 Crs
3554 1608 Crs
2925 1689 Crs
3403 1540 Crs
2944 1505 Crs
2637 1501 Crs
2776 1654 Crs
2183 1410 Crs
3060 1502 Crs
3243 1579 Crs
3227 1641 Crs
3043 1708 Crs
3434 1625 Crs
3451 1612 Crs
4272 1574 Crs
3023 1772 Crs
3692 1605 Crs
3433 1578 Crs
3121 1770 Crs
2582 1587 Crs
3386 1509 Crs
3553 1676 Crs
2332 1522 Crs
3760 1878 Crs
3172 1387 Crs
2695 1720 Crs
2888 1557 Crs
3122 1665 Crs
3591 1802 Crs
3205 1764 Crs
3550 1853 Crs
3606 1551 Crs
3766 1645 Crs
2582 1357 Crs
3550 1664 Crs
3346 1625 Crs
3014 1911 Crs
3702 1658 Crs
2696 1509 Crs
2510 1566 Crs
3344 1573 Crs
2358 1595 Crs
3207 1649 Crs
3387 1721 Crs
2677 1528 Crs
3516 1674 Crs
3402 1690 Crs
3804 1683 Crs
3391 1505 Crs
3025 1610 Crs
3107 1768 Crs
2460 1683 Crs
3165 1755 Crs
3862 1413 Crs
3654 1587 Crs
3344 1583 Crs
1905 1701 Crs
3340 1742 Crs
3538 1680 Crs
2572 1627 Crs
2556 1517 Crs
4008 1888 Crs
4039 1716 Crs
2784 1828 Crs
3428 1587 Crs
2830 1536 Crs
2495 1507 Crs
2868 1635 Crs
2879 1570 Crs
2784 1434 Crs
3960 1521 Crs
3405 1573 Crs
2989 1489 Crs
3024 1458 Crs
2870 1437 Crs
3432 1605 Crs
2437 1668 Crs
4261 1662 Crs
3502 1628 Crs
3496 1579 Crs
3489 1728 Crs
3611 1678 Crs
2894 1731 Crs
2977 1273 Crs
3192 1640 Crs
3341 1731 Crs
3086 1767 Crs
3281 1603 Crs
3425 1793 Crs
2911 1709 Crs
3328 1590 Crs
3520 1774 Crs
3946 1445 Crs
2061 1624 Crs
3537 1660 Crs
3100 1606 Crs
3090 1576 Crs
3259 1543 Crs
2935 1713 Crs
2680 1143 Crs
3896 1555 Crs
3452 1653 Crs
3579 1663 Crs
3270 1457 Crs
3224 1451 Crs
3055 1595 Crs
3380 1740 Crs
3060 1710 Crs
3084 1864 Crs
2120 1652 Crs
3850 1917 Crs
2932 1508 Crs
3317 1593 Crs
3242 1810 Crs
3641 1460 Crs
2995 1590 Crs
3333 1614 Crs
3396 1807 Crs
3479 1663 Crs
3195 1621 Crs
3430 1620 Crs
3309 1594 Crs
3298 1431 Crs
4109 1850 Crs
3071 1637 Crs
2588 1216 Crs
3267 1494 Crs
3529 1550 Crs
2714 1276 Crs
3727 1582 Crs
2640 1613 Crs
2986 1479 Crs
3279 1728 Crs
3726 1839 Crs
2608 1633 Crs
2295 1710 Crs
3376 1545 Crs
3149 1603 Crs
3142 1324 Crs
2389 1765 Crs
2862 1320 Crs
2523 1306 Crs
2497 1867 Crs
3512 1634 Crs
3634 1630 Crs
3790 1722 Crs
2770 1375 Crs
3394 1544 Crs
3373 1479 Crs
4115 1531 Crs
3053 1750 Crs
3343 1802 Crs
3190 1675 Crs
3144 1701 Crs
3208 1629 Crs
3890 1618 Crs
3247 1525 Crs
2750 1678 Crs
3725 1408 Crs
3391 1687 Crs
3235 1704 Crs
3523 1539 Crs
3085 1634 Crs
4400 1599 Crs
3844 1663 Crs
3324 1622 Crs
3575 1579 Crs
4177 1526 Crs
3268 1697 Crs
3765 1580 Crs
3391 1733 Crs
2914 1744 Crs
3385 1652 Crs
3100 1450 Crs
2970 1633 Crs
3444 1739 Crs
3494 1847 Crs
3706 1541 Crs
3385 1562 Crs
2831 1595 Crs
3500 1492 Crs
3161 1721 Crs
2836 1500 Crs
3407 1525 Crs
3840 1535 Crs
2632 1564 Crs
3878 1741 Crs
2790 1392 Crs
3306 1632 Crs
3207 1485 Crs
2695 1655 Crs
3847 1698 Crs
2920 1580 Crs
3238 1617 Crs
2175 1712 Crs
3106 1695 Crs
3301 1522 Crs
3092 1746 Crs
4018 1595 Crs
3619 1700 Crs
3321 1951 Crs
3328 1798 Crs
2982 1636 Crs
3287 1594 Crs
2431 1464 Crs
3529 1951 Crs
3404 1507 Crs
3542 1847 Crs
3184 1560 Crs
3122 1411 Crs
3508 1633 Crs
3445 1674 Crs
3178 1652 Crs
3700 1698 Crs
2722 1222 Crs
2517 1784 Crs
3420 1714 Crs
2901 1739 Crs
2367 1800 Crs
3733 1510 Crs
2380 1191 Crs
3206 1623 Crs
3130 1716 Crs
2669 1629 Crs
2992 1534 Crs
3317 1762 Crs
2747 1363 Crs
2881 1813 Crs
3547 1698 Crs
3160 1668 Crs
3019 1524 Crs
4214 1549 Crs
3287 1312 Crs
3918 1615 Crs
2927 1666 Crs
3895 1743 Crs
2777 1712 Crs
3234 1548 Crs
4370 1633 Crs
3153 1515 Crs
2698 1706 Crs
3434 1580 Crs
3318 1543 Crs
4272 1776 Crs
3583 1761 Crs
3341 1711 Crs
2786 1630 Crs
3573 1830 Crs
3203 1790 Crs
3084 1634 Crs
3239 1682 Crs
3816 1738 Crs
3307 1650 Crs
2999 1567 Crs
2861 1759 Crs
3598 1673 Crs
3529 1291 Crs
2417 1344 Crs
3355 1603 Crs
3332 1436 Crs
3410 1741 Crs
3512 1585 Crs
3901 1620 Crs
3123 1691 Crs
3217 1572 Crs
3516 1861 Crs
3133 1495 Crs
3072 1553 Crs
3661 1528 Crs
3329 1605 Crs
2982 1672 Crs
3506 1850 Crs
2608 1475 Crs
3327 1521 Crs
3530 1648 Crs
3341 1594 Crs
3170 1701 Crs
2851 1540 Crs
3217 1520 Crs
3092 1640 Crs
3588 1569 Crs
3081 1556 Crs
3291 1779 Crs
3601 1660 Crs
2199 1841 Crs
3369 1772 Crs
3294 1817 Crs
3544 1490 Crs
3231 1578 Crs
3181 1549 Crs
3719 1549 Crs
3466 1500 Crs
3291 1661 Crs
3438 1613 Crs
3347 1536 Crs
3055 1624 Crs
2790 1567 Crs
3845 1646 Crs
3559 1762 Crs
2944 1571 Crs
3303 1795 Crs
3585 1685 Crs
3333 1518 Crs
3558 1664 Crs
2910 1442 Crs
3518 1627 Crs
3880 1659 Crs
2887 1612 Crs
3575 1789 Crs
3636 1826 Crs
2972 1836 Crs
3233 1603 Crs
3051 1675 Crs
3392 1446 Crs
3771 1605 Crs
3243 1725 Crs
3447 1554 Crs
3261 1505 Crs
3412 1651 Crs
2902 1819 Crs
3290 1689 Crs
3241 1579 Crs
3192 1822 Crs
2694 1416 Crs
3785 1753 Crs
3212 1689 Crs
2930 1713 Crs
3155 1444 Crs
3810 1609 Crs
3287 1624 Crs
3000 1793 Crs
3246 1782 Crs
3027 1627 Crs
3120 1122 Crs
3550 1560 Crs
3243 1933 Crs
3343 1573 Crs
3083 1603 Crs
3839 1821 Crs
3110 1658 Crs
2199 1485 Crs
3318 1084 Crs
3486 1629 Crs
2821 1737 Crs
2899 1577 Crs
2644 1616 Crs
3267 1633 Crs
2382 1644 Crs
3002 1639 Crs
2962 1600 Crs
3812 1743 Crs
3318 1674 Crs
3346 1705 Crs
3651 1782 Crs
3091 2002 Crs
2766 1754 Crs
3851 1313 Crs
3913 1729 Crs
3393 1723 Crs
3608 1503 Crs
3229 1892 Crs
3571 1657 Crs
3522 1663 Crs
3621 1635 Crs
3739 1602 Crs
3408 1597 Crs
4067 1796 Crs
3049 1633 Crs
2717 1593 Crs
2947 1420 Crs
3555 1797 Crs
3259 1875 Crs
3577 1668 Crs
3538 1519 Crs
3600 1683 Crs
3256 1588 Crs
3227 1520 Crs
3090 1735 Crs
3333 1671 Crs
3153 1729 Crs
3509 1656 Crs
3721 1582 Crs
3061 1589 Crs
3140 1601 Crs
3589 1685 Crs
2517 1742 Crs
3685 1510 Crs
1629 1518 Crs
3638 1592 Crs
3761 1755 Crs
3703 1502 Crs
3213 1522 Crs
3816 1628 Crs
2735 1457 Crs
3363 1444 Crs
3014 1576 Crs
3372 1619 Crs
3361 1563 Crs
2852 1556 Crs
3716 1637 Crs
2861 1589 Crs
3551 1721 Crs
2871 1659 Crs
3728 1552 Crs
3359 1688 Crs
3716 1594 Crs
3329 1541 Crs
2759 1635 Crs
3158 1666 Crs
3568 1502 Crs
2554 1512 Crs
2633 1595 Crs
3240 1538 Crs
3008 1639 Crs
4073 1932 Crs
3474 1748 Crs
3588 1668 Crs
2970 1509 Crs
3265 1516 Crs
2965 1609 Crs
3034 1623 Crs
4305 1835 Crs
2873 1748 Crs
3194 1590 Crs
2899 1356 Crs
3322 1564 Crs
2278 1641 Crs
2912 1596 Crs
3249 1549 Crs
3766 1775 Crs
4327 1544 Crs
3535 1642 Crs
3343 1664 Crs
2790 1635 Crs
3558 1603 Crs
2850 1527 Crs
3667 1824 Crs
2445 1583 Crs
2703 1501 Crs
3312 1589 Crs
3163 1542 Crs
3520 1588 Crs
2502 1835 Crs
3262 1749 Crs
3733 1906 Crs
3293 1554 Crs
3219 1514 Crs
4067 1524 Crs
2496 1621 Crs
3339 1530 Crs
3897 1706 Crs
3665 1596 Crs
3269 1561 Crs
3932 1533 Crs
3745 1694 Crs
3142 1570 Crs
3414 1833 Crs
3735 1442 Crs
3193 1577 Crs
3625 1692 Crs
1987 1536 Crs
3993 1670 Crs
2934 1707 Crs
2339 1560 Crs
2813 1569 Crs
2988 1727 Crs
4112 1624 Crs
3350 1638 Crs
2680 1778 Crs
2631 1613 Crs
3814 1532 Crs
3738 1725 Crs
2840 1607 Crs
2756 1684 Crs
3593 1911 Crs
3422 1713 Crs
3029 1547 Crs
3715 1676 Crs
3484 1578 Crs
2896 1719 Crs
3527 1584 Crs
3841 1652 Crs
2739 1498 Crs
3711 1816 Crs
3500 1668 Crs
3612 1539 Crs
3633 1249 Crs
3565 1646 Crs
3451 1537 Crs
2772 1681 Crs
3487 1767 Crs
3380 1660 Crs
3768 1681 Crs
3157 1632 Crs
2954 1531 Crs
2578 1609 Crs
3483 1663 Crs
3170 1698 Crs
3224 1567 Crs
3505 1485 Crs
3273 1653 Crs
3850 1715 Crs
2891 1765 Crs
3056 1673 Crs
2953 1497 Crs
2791 1635 Crs
2995 1729 Crs
3476 1579 Crs
3450 1606 Crs
3009 1608 Crs
3417 1651 Crs
3057 1811 Crs
3655 1480 Crs
3255 1570 Crs
3098 1502 Crs
3333 1622 Crs
3414 1371 Crs
3752 1778 Crs
2533 1524 Crs
3525 1558 Crs
3042 1595 Crs
4033 1832 Crs
3050 1515 Crs
3233 1569 Crs
3616 1549 Crs
3201 1733 Crs
3152 1560 Crs
2902 1549 Crs
3437 1654 Crs
2718 1486 Crs
3337 1659 Crs
3227 1631 Crs
4074 1496 Crs
2939 1532 Crs
3250 1750 Crs
2506 1697 Crs
3225 1737 Crs
2754 1807 Crs
2817 1622 Crs
3367 1683 Crs
3878 1744 Crs
3366 1806 Crs
3007 1748 Crs
3113 1187 Crs
2911 1753 Crs
3878 1607 Crs
2958 1532 Crs
2969 1546 Crs
2520 1452 Crs
3543 1759 Crs
3904 1577 Crs
3567 1694 Crs
3494 1666 Crs
3716 1794 Crs
3934 1671 Crs
3784 1792 Crs
3149 1728 Crs
3095 1665 Crs
3466 1552 Crs
2503 1479 Crs
3289 1694 Crs
3778 1586 Crs
3521 1646 Crs
3712 1687 Crs
3159 1896 Crs
3398 1791 Crs
2307 1892 Crs
3341 1744 Crs
3770 1497 Crs
3195 1579 Crs
2954 1665 Crs
2188 1590 Crs
3555 1654 Crs
2881 1816 Crs
2912 1607 Crs
3476 1667 Crs
3244 1554 Crs
3385 1715 Crs
2753 1428 Crs
3707 1566 Crs
3727 1820 Crs
3434 1917 Crs
3503 1581 Crs
3706 1812 Crs
2414 1426 Crs
3692 1614 Crs
3144 1370 Crs
3280 1434 Crs
3436 1657 Crs
3224 1791 Crs
3620 1653 Crs
3282 1719 Crs
2465 1455 Crs
3039 1555 Crs
3180 1427 Crs
3188 1840 Crs
2952 1565 Crs
4044 1615 Crs
3600 1704 Crs
3004 1572 Crs
3261 1606 Crs
3742 1550 Crs
2761 1486 Crs
3052 1799 Crs
3833 1780 Crs
3488 1544 Crs
3321 1581 Crs
3321 1719 Crs
3081 1603 Crs
2472 1694 Crs
3358 1658 Crs
2656 1607 Crs
2998 1659 Crs
1823 1679 Crs
3951 1664 Crs
2558 1633 Crs
3538 1619 Crs
3330 1359 Crs
3004 1611 Crs
3314 1531 Crs
3428 1799 Crs
3223 1655 Crs
3362 1776 Crs
2919 1709 Crs
3421 1541 Crs
3048 1612 Crs
2986 1790 Crs
3542 1649 Crs
3150 1744 Crs
3393 1657 Crs
2780 1538 Crs
3597 1717 Crs
3276 1774 Crs
3654 1626 Crs
3685 1610 Crs
2810 1657 Crs
3200 1517 Crs
3605 1488 Crs
3221 1450 Crs
3106 1606 Crs
2425 1557 Crs
3205 1661 Crs
3778 1653 Crs
3615 1557 Crs
2482 1419 Crs
2754 1607 Crs
2894 1640 Crs
3468 1649 Crs
3535 1681 Crs
3559 1559 Crs
3604 1812 Crs
3146 1459 Crs
3139 1315 Crs
3568 1647 Crs
3475 1590 Crs
2639 1810 Crs
3152 1730 Crs
3534 1540 Crs
3368 1239 Crs
3111 1528 Crs
3008 1531 Crs
2982 1532 Crs
3398 1775 Crs
3499 1628 Crs
2982 1645 Crs
2898 1583 Crs
3099 1443 Crs
3828 1643 Crs
2837 1485 Crs
3348 1685 Crs
3617 1694 Crs
3342 1762 Crs
3371 1505 Crs
3614 1620 Crs
3371 1778 Crs
3516 1752 Crs
4055 1540 Crs
3482 1707 Crs
2805 1719 Crs
2531 1732 Crs
3532 1649 Crs
3426 1899 Crs
3680 1657 Crs
3139 1409 Crs
2755 1558 Crs
3169 1572 Crs
3368 1706 Crs
3402 1532 Crs
3197 1557 Crs
3384 1488 Crs
2961 1768 Crs
3065 1742 Crs
3117 1623 Crs
2896 1592 Crs
2419 1417 Crs
3607 1758 Crs
3712 1891 Crs
3636 1557 Crs
3837 1590 Crs
3936 1666 Crs
3814 1510 Crs
4276 1560 Crs
3240 1534 Crs
4125 1571 Crs
3742 1641 Crs
2782 1715 Crs
2845 1609 Crs
3304 1633 Crs
3546 1802 Crs
3308 1651 Crs
2913 1639 Crs
3355 1584 Crs
3754 1725 Crs
3730 1462 Crs
2392 1694 Crs
4119 1804 Crs
2590 1483 Crs
3103 1753 Crs
3462 1655 Crs
2807 1802 Crs
3457 1444 Crs
3401 1572 Crs
2474 1512 Crs
3469 1617 Crs
3408 1885 Crs
3700 1528 Crs
3517 1715 Crs
3501 1775 Crs
3389 1724 Crs
3453 1555 Crs
3012 1343 Crs
3076 1544 Crs
3641 1611 Crs
3696 1653 Crs
3980 1642 Crs
2796 1624 Crs
3068 1759 Crs
2102 1581 Crs
3469 1506 Crs
3550 1516 Crs
3080 1400 Crs
3863 1700 Crs
3742 1636 Crs
3266 1643 Crs
3165 1422 Crs
2701 1768 Crs
2943 1706 Crs
2939 1599 Crs
3697 1554 Crs
3338 1842 Crs
3563 1540 Crs
3675 1611 Crs
2980 1498 Crs
2429 1564 Crs
3940 1647 Crs
3038 1537 Crs
2917 1725 Crs
3103 1555 Crs
3371 1299 Crs
3586 1613 Crs
3248 1636 Crs
3560 1500 Crs
3514 1577 Crs
3241 1599 Crs
4010 1374 Crs
3473 1687 Crs
3158 1548 Crs
3403 1550 Crs
2890 1908 Crs
3028 1402 Crs
3288 1642 Crs
3348 1474 Crs
2080 1541 Crs
3252 1280 Crs
3102 1671 Crs
3305 1719 Crs
3068 1867 Crs
3180 1655 Crs
3875 1662 Crs
3434 1326 Crs
3569 1739 Crs
2610 1675 Crs
3224 1807 Crs
3863 1685 Crs
4027 1303 Crs
3078 1554 Crs
2855 1718 Crs
2152 1653 Crs
2890 1200 Crs
3887 1735 Crs
3067 1696 Crs
3526 1683 Crs
2376 1726 Crs
2980 1517 Crs
3599 1651 Crs
3134 1602 Crs
3393 1749 Crs
3710 1613 Crs
2962 1666 Crs
3727 1681 Crs
3055 1657 Crs
2657 1548 Crs
2333 1647 Crs
2481 1584 Crs
3446 1547 Crs
2721 1560 Crs
3189 1843 Crs
3521 1608 Crs
3243 1502 Crs
3313 1703 Crs
3286 1558 Crs
2775 2008 Crs
3440 1759 Crs
2905 1476 Crs
3282 1524 Crs
3635 1564 Crs
3878 1868 Crs
3700 1716 Crs
3037 1653 Crs
3310 1729 Crs
3287 1836 Crs
3032 1433 Crs
3299 1374 Crs
3750 1616 Crs
3335 1535 Crs
3331 1674 Crs
3567 1883 Crs
2508 1651 Crs
3449 1339 Crs
2996 1585 Crs
3687 1674 Crs
3175 1634 Crs
2854 1599 Crs
2841 1428 Crs
2652 1446 Crs
3037 1282 Crs
3532 1622 Crs
3596 1476 Crs
3114 1534 Crs
3533 1596 Crs
3480 1629 Crs
3523 1638 Crs
3393 1617 Crs
2439 1610 Crs
3458 1434 Crs
3396 1830 Crs
3285 1710 Crs
3455 1622 Crs
3092 1483 Crs
3370 1447 Crs
3371 1636 Crs
3181 1622 Crs
4006 1620 Crs
2949 1792 Crs
3549 1506 Crs
3553 1837 Crs
3796 1516 Crs
2452 1597 Crs
3003 1621 Crs
3475 1533 Crs
2893 1633 Crs
3642 1636 Crs
2926 1584 Crs
3285 1548 Crs
2830 1699 Crs
2632 1709 Crs
3467 1544 Crs
3506 1620 Crs
3629 1687 Crs
3385 1675 Crs
3017 1558 Crs
3140 1560 Crs
3017 1565 Crs
3346 1863 Crs
3038 1406 Crs
2445 1438 Crs
2970 1836 Crs
2078 1517 Crs
3572 1602 Crs
3464 1637 Crs
3438 1382 Crs
3315 1752 Crs
3281 1705 Crs
3597 1712 Crs
2809 1735 Crs
3298 1637 Crs
3300 1701 Crs
3520 1550 Crs
2953 1821 Crs
3626 1674 Crs
3586 1653 Crs
3693 1620 Crs
3584 1518 Crs
3268 1509 Crs
3558 1658 Crs
2479 1644 Crs
3079 1713 Crs
2832 1568 Crs
3294 1691 Crs
3354 1675 Crs
3440 1541 Crs
3507 1526 Crs
3126 1916 Crs
3214 1694 Crs
3047 1507 Crs
3393 1215 Crs
3402 1715 Crs
3063 1481 Crs
3040 1434 Crs
2884 1480 Crs
3275 1660 Crs
3398 1813 Crs
3423 1568 Crs
3430 1165 Crs
3603 1565 Crs
3285 1509 Crs
2506 1559 Crs
3230 1742 Crs
3203 1574 Crs
2397 1333 Crs
3618 1611 Crs
4129 1524 Crs
3397 1531 Crs
3514 1499 Crs
2607 1335 Crs
3426 1589 Crs
3075 1715 Crs
3340 1579 Crs
1948 1473 Crs
2893 1609 Crs
2828 1603 Crs
3174 1551 Crs
3369 1827 Crs
3393 1550 Crs
3010 1578 Crs
3200 1704 Crs
3053 1718 Crs
3197 1472 Crs
3346 1594 Crs
3267 1548 Crs
3488 1587 Crs
3291 1613 Crs
2513 1792 Crs
3415 1630 Crs
3614 1573 Crs
3205 1853 Crs
2654 1786 Crs
3393 1676 Crs
3513 1227 Crs
3246 1732 Crs
3114 1735 Crs
3283 1697 Crs
3426 1505 Crs
3250 1705 Crs
4207 1728 Crs
3058 1654 Crs
3117 1622 Crs
4026 1746 Crs
2653 1743 Crs
2985 1587 Crs
1828 1674 Crs
3099 1571 Crs
3110 1520 Crs
2339 1771 Crs
3632 1671 Crs
2973 1797 Crs
3767 1446 Crs
2948 1739 Crs
2923 1355 Crs
3011 1588 Crs
2728 1586 Crs
3770 1740 Crs
3740 1688 Crs
3185 1770 Crs
3467 1676 Crs
3664 1568 Crs
3625 1570 Crs
2678 1582 Crs
3370 1641 Crs
3418 1604 Crs
2821 1602 Crs
3290 1722 Crs
2099 1608 Crs
3048 1484 Crs
3629 1529 Crs
3280 1729 Crs
3495 1677 Crs
3136 1583 Crs
3345 1376 Crs
3614 1788 Crs
3014 1581 Crs
3223 1569 Crs
3647 1573 Crs
3046 1750 Crs
2959 1461 Crs
3774 1813 Crs
3546 1871 Crs
3353 1581 Crs
4012 1674 Crs
3367 1616 Crs
3607 1522 Crs
2634 1618 Crs
3198 1790 Crs
3899 1543 Crs
2768 1390 Crs
3005 1658 Crs
3813 1511 Crs
3284 1871 Crs
3536 1425 Crs
2813 1520 Crs
3235 1618 Crs
3386 1717 Crs
3339 1603 Crs
3585 1805 Crs
3819 1610 Crs
2981 1719 Crs
3517 1469 Crs
3455 1722 Crs
2541 1499 Crs
3260 1694 Crs
3696 1815 Crs
2530 1464 Crs
3470 1674 Crs
3245 1665 Crs
3906 1762 Crs
3173 1415 Crs
3514 1580 Crs
3372 1388 Crs
3068 1558 Crs
2489 1608 Crs
2746 1610 Crs
3419 1602 Crs
3551 1771 Crs
3291 1638 Crs
3404 1643 Crs
2770 1627 Crs
3010 1742 Crs
3074 1191 Crs
1983 1571 Crs
3801 1515 Crs
3603 1607 Crs
3833 1701 Crs
2932 1365 Crs
3747 1855 Crs
3355 1534 Crs
2803 1419 Crs
3871 1759 Crs
2791 1703 Crs
2558 1754 Crs
3194 1731 Crs
3226 1560 Crs
3984 1724 Crs
3123 1684 Crs
3540 1613 Crs
4000 1548 Crs
3819 1581 Crs
3785 1694 Crs
2896 1698 Crs
3549 1717 Crs
3303 1557 Crs
3262 1909 Crs
3006 1665 Crs
3958 1594 Crs
3441 1599 Crs
2751 1998 Crs
3031 1571 Crs
3034 1738 Crs
3231 1729 Crs
3249 1752 Crs
3031 1632 Crs
3225 1599 Crs
2886 1701 Crs
2272 1476 Crs
2939 1371 Crs
3223 1651 Crs
3170 1599 Crs
2831 1800 Crs
3507 1705 Crs
4489 1700 Crs
2922 1598 Crs
2668 1673 Crs
3554 1530 Crs
4036 1451 Crs
3462 1695 Crs
3077 1705 Crs
2756 1699 Crs
3514 1619 Crs
3131 1587 Crs
3654 1673 Crs
2827 1586 Crs
2737 1609 Crs
3163 1592 Crs
3093 1621 Crs
2075 1645 Crs
3381 1798 Crs
3740 1522 Crs
3068 1474 Crs
3450 1600 Crs
3266 1756 Crs
3327 1775 Crs
3712 1680 Crs
3284 1679 Crs
3400 1687 Crs
3536 1706 Crs
3424 1388 Crs
3627 1737 Crs
3914 1630 Crs
2716 1859 Crs
2640 1616 Crs
2892 1602 Crs
3671 1971 Crs
3015 1492 Crs
3097 1852 Crs
2456 1683 Crs
3224 1448 Crs
2716 1925 Crs
3241 1664 Crs
3679 1670 Crs
2632 1628 Crs
3898 1874 Crs
3123 1677 Crs
3530 1573 Crs
3429 1662 Crs
2677 1673 Crs
3268 1587 Crs
2538 1548 Crs
2491 1777 Crs
3698 2082 Crs
2976 1672 Crs
3122 1507 Crs
3150 1805 Crs
3304 1433 Crs
2941 1641 Crs
2686 1613 Crs
2908 1580 Crs
3107 1714 Crs
3645 1727 Crs
3119 1587 Crs
3443 1595 Crs
3326 1707 Crs
2838 1476 Crs
2962 1332 Crs
2934 1661 Crs
2589 1601 Crs
3696 1650 Crs
2849 1697 Crs
3729 1661 Crs
3689 1746 Crs
2503 1657 Crs
3470 1614 Crs
3498 1787 Crs
3356 1797 Crs
3018 1656 Crs
3592 1776 Crs
3741 1727 Crs
3845 1709 Crs
3564 1568 Crs
3375 1776 Crs
2786 1357 Crs
3204 1794 Crs
3782 1752 Crs
3097 1583 Crs
3453 1725 Crs
3439 1676 Crs
3607 1222 Crs
2966 1535 Crs
3169 1229 Crs
3721 1728 Crs
3291 1350 Crs
3199 1652 Crs
2673 1724 Crs
3371 1584 Crs
3213 1512 Crs
3106 1670 Crs
3742 1546 Crs
3218 1501 Crs
3176 1545 Crs
3284 1486 Crs
3433 1815 Crs
2666 1577 Crs
3346 1968 Crs
3235 1801 Crs
2997 1605 Crs
2768 1610 Crs
2225 1695 Crs
2400 1854 Crs
2694 1531 Crs
3068 1555 Crs
3770 1593 Crs
2971 1692 Crs
3355 1699 Crs
2838 1848 Crs
2739 1644 Crs
3310 1695 Crs
2597 1525 Crs
3385 1663 Crs
2963 1613 Crs
4056 1728 Crs
2874 1433 Crs
2523 1235 Crs
2534 1658 Crs
3231 1739 Crs
3123 1408 Crs
3209 1477 Crs
3318 1517 Crs
3298 1919 Crs
2468 1555 Crs
4088 1652 Crs
3486 1647 Crs
3545 1653 Crs
3425 1686 Crs
3648 1740 Crs
2428 1416 Crs
3380 1583 Crs
2068 1720 Crs
3175 1583 Crs
2945 1379 Crs
2737 1482 Crs
3735 1671 Crs
2990 1604 Crs
3328 1588 Crs
2767 1425 Crs
3523 1675 Crs
3372 1857 Crs
2616 1633 Crs
3022 1585 Crs
3673 1754 Crs
3054 1728 Crs
3212 1620 Crs
3328 1598 Crs
3647 1686 Crs
3665 1627 Crs
3158 1789 Crs
3644 1522 Crs
3241 1520 Crs
3219 1749 Crs
2915 1673 Crs
3587 1761 Crs
3729 1768 Crs
2986 1724 Crs
3196 1724 Crs
2651 1811 Crs
3594 1791 Crs
3554 1975 Crs
3078 1600 Crs
2646 2021 Crs
3064 1656 Crs
3089 1584 Crs
3729 1757 Crs
3475 1577 Crs
2864 1590 Crs
3872 1727 Crs
2999 1658 Crs
3186 1703 Crs
2621 1537 Crs
3618 1739 Crs
2851 1476 Crs
4083 1792 Crs
3343 1553 Crs
2572 1133 Crs
3658 1396 Crs
2991 1604 Crs
2796 1485 Crs
3428 1624 Crs
3113 1667 Crs
3104 1511 Crs
2942 1491 Crs
3397 1551 Crs
2985 1630 Crs
3207 1623 Crs
2756 1540 Crs
3294 1635 Crs
2912 1523 Crs
3253 1559 Crs
2996 1739 Crs
4010 1659 Crs
3693 1400 Crs
3206 1879 Crs
2297 1717 Crs
3944 1746 Crs
3397 1758 Crs
3210 1714 Crs
2998 1739 Crs
3313 1717 Crs
3667 1771 Crs
3058 1563 Crs
3468 1571 Crs
2960 1631 Crs
3105 1890 Crs
3367 1516 Crs
3157 1502 Crs
3717 1718 Crs
3148 1557 Crs
2273 1591 Crs
2905 1623 Crs
3313 1624 Crs
2955 1500 Crs
3502 1582 Crs
3396 1559 Crs
3878 1741 Crs
2722 1528 Crs
2838 1527 Crs
3626 1760 Crs
3748 1754 Crs
2496 1532 Crs
2857 1612 Crs
3197 1869 Crs
3480 1579 Crs
2704 1578 Crs
3454 1611 Crs
3149 1618 Crs
3202 1425 Crs
3144 1222 Crs
3359 1808 Crs
2174 1610 Crs
3544 1712 Crs
3814 1728 Crs
3697 1676 Crs
2667 1665 Crs
3357 1758 Crs
3066 1589 Crs
2849 1629 Crs
3559 1628 Crs
3077 1506 Crs
3310 1587 Crs
3597 1706 Crs
3325 1641 Crs
2879 1730 Crs
2994 1602 Crs
3330 1597 Crs
3422 1708 Crs
3433 1585 Crs
3382 1937 Crs
3839 1838 Crs
3141 1496 Crs
2948 1604 Crs
3062 1597 Crs
3291 1761 Crs
3425 1851 Crs
3881 1808 Crs
2814 1573 Crs
2971 1635 Crs
3578 1289 Crs
3247 1649 Crs
3358 1657 Crs
3023 1818 Crs
3685 1756 Crs
3269 1612 Crs
3568 1763 Crs
2941 1682 Crs
3652 1721 Crs
4033 1845 Crs
3687 1821 Crs
3153 1500 Crs
3275 1661 Crs
3355 1423 Crs
3213 1728 Crs
3006 1743 Crs
3572 1667 Crs
3567 1558 Crs
2799 1589 Crs
3614 1715 Crs
2900 1671 Crs
3687 1826 Crs
2145 1650 Crs
2911 1655 Crs
3480 1934 Crs
3398 1336 Crs
2443 1713 Crs
2897 1513 Crs
3705 1733 Crs
2829 1930 Crs
3508 1595 Crs
3176 1515 Crs
3609 1569 Crs
3867 1412 Crs
2734 1794 Crs
3449 1539 Crs
3817 1709 Crs
3121 1693 Crs
3004 1689 Crs
3672 1692 Crs
2865 1525 Crs
3536 1368 Crs
3016 1873 Crs
2991 1471 Crs
3218 1666 Crs
3260 1637 Crs
3422 1681 Crs
3628 1661 Crs
3474 1648 Crs
3464 1791 Crs
2440 1682 Crs
3596 1728 Crs
4282 1637 Crs
3896 1699 Crs
3303 1818 Crs
3263 1656 Crs
3452 1744 Crs
3029 1449 Crs
3522 1585 Crs
3799 1715 Crs
3462 1599 Crs
2585 1936 Crs
2922 1554 Crs
3039 1682 Crs
3615 1498 Crs
2549 1562 Crs
2749 1528 Crs
3419 1370 Crs
3911 1780 Crs
3171 1772 Crs
3436 1394 Crs
3079 1482 Crs
3697 1554 Crs
2073 1784 Crs
3074 1565 Crs
2741 1878 Crs
2953 1549 Crs
3204 1505 Crs
3090 1807 Crs
2974 1238 Crs
2938 1867 Crs
3687 1822 Crs
2790 1572 Crs
3884 1585 Crs
3544 1390 Crs
3987 1686 Crs
2480 1612 Crs
3172 1692 Crs
4151 1579 Crs
3182 1646 Crs
2819 1679 Crs
3753 1818 Crs
2818 1339 Crs
3129 1751 Crs
1869 1495 Crs
3233 1756 Crs
3326 1504 Crs
3874 1608 Crs
3285 1562 Crs
3124 1576 Crs
3196 1725 Crs
3459 1907 Crs
3708 1416 Crs
3387 1725 Crs
2872 1599 Crs
2418 1514 Crs
3436 1683 Crs
2296 1519 Crs
2647 1260 Crs
3170 1581 Crs
3174 1596 Crs
2553 1645 Crs
2545 1550 Crs
2859 1595 Crs
2700 1697 Crs
3701 1647 Crs
2886 1548 Crs
3279 1642 Crs
3796 1505 Crs
2983 1688 Crs
3104 1534 Crs
3676 1565 Crs
3965 1729 Crs
3596 1854 Crs
2588 1663 Crs
3333 1361 Crs
3249 1213 Crs
3389 1717 Crs
2804 1584 Crs
2313 1451 Crs
2843 1270 Crs
3475 1758 Crs
2345 1732 Crs
3252 1717 Crs
3643 1686 Crs
3369 1789 Crs
3222 1819 Crs
2921 1364 Crs
3619 1482 Crs
3137 1926 Crs
2988 1616 Crs
3901 1720 Crs
3429 1535 Crs
3996 1693 Crs
2777 1363 Crs
3493 1702 Crs
2760 1498 Crs
3360 1683 Crs
2988 1479 Crs
3099 1593 Crs
2655 1663 Crs
3118 1498 Crs
3310 1498 Crs
3939 1579 Crs
2472 1662 Crs
3771 1650 Crs
3516 1531 Crs
3625 1532 Crs
2964 1530 Crs
2374 1660 Crs
3830 1853 Crs
3648 1554 Crs
3018 1686 Crs
3156 1686 Crs
3229 1810 Crs
2604 1458 Crs
3436 1645 Crs
2762 1516 Crs
3157 1667 Crs
3273 1664 Crs
2984 1844 Crs
3245 1568 Crs
3367 1578 Crs
3920 1643 Crs
3335 1545 Crs
3264 1774 Crs
2061 1609 Crs
2916 1540 Crs
3130 1505 Crs
3368 1659 Crs
3236 1583 Crs
2734 1668 Crs
3028 1531 Crs
3300 1534 Crs
3603 1760 Crs
2788 1546 Crs
3318 1828 Crs
3759 1545 Crs
3204 1709 Crs
3022 1648 Crs
2676 1622 Crs
2976 1634 Crs
3715 1519 Crs
3297 1502 Crs
2430 1695 Crs
3883 1547 Crs
3284 1575 Crs
2845 1535 Crs
3020 1550 Crs
2977 1596 Crs
3076 1809 Crs
3152 1623 Crs
2989 1688 Crs
2903 1594 Crs
3455 1691 Crs
3273 1832 Crs
2634 1973 Crs
3344 1622 Crs
3155 1318 Crs
3709 1346 Crs
2203 1597 Crs
2937 1641 Crs
3386 1661 Crs
3893 1381 Crs
3013 1721 Crs
2837 1514 Crs
3488 1646 Crs
3653 1637 Crs
3238 1398 Crs
3263 1606 Crs
3289 1835 Crs
3190 1602 Crs
3495 1847 Crs
3490 1327 Crs
3508 1736 Crs
2982 1639 Crs
3281 1719 Crs
3794 1651 Crs
4281 1603 Crs
3463 1647 Crs
3825 1557 Crs
3367 1642 Crs
2775 1660 Crs
3594 1709 Crs
3525 1849 Crs
2870 1458 Crs
3464 1599 Crs
3602 1659 Crs
3200 1854 Crs
2839 1728 Crs
2708 1499 Crs
2902 1604 Crs
3168 1522 Crs
3106 1686 Crs
3339 1716 Crs
2924 1837 Crs
2976 1634 Crs
2445 1665 Crs
3542 1736 Crs
4117 1562 Crs
2552 1735 Crs
3633 1573 Crs
3716 1730 Crs
3703 1511 Crs
3550 1638 Crs
2809 1824 Crs
3873 1556 Crs
3395 1684 Crs
3082 1593 Crs
3606 1752 Crs
2666 1646 Crs
3194 1610 Crs
2691 1364 Crs
3053 1779 Crs
2795 1508 Crs
3271 1615 Crs
3694 1661 Crs
3452 1816 Crs
3575 1558 Crs
2417 1650 Crs
2940 1571 Crs
2227 1570 Crs
3658 1699 Crs
3389 1536 Crs
3351 1698 Crs
3620 1624 Crs
3054 1641 Crs
3625 1646 Crs
3133 1728 Crs
3401 1560 Crs
3651 1617 Crs
3039 1745 Crs
3566 1432 Crs
3138 1583 Crs
3257 1538 Crs
2606 1524 Crs
3742 1626 Crs
2841 1671 Crs
3323 1318 Crs
3689 1391 Crs
2604 1538 Crs
3395 1417 Crs
3249 1859 Crs
3523 1629 Crs
3608 1889 Crs
2698 1444 Crs
2421 1416 Crs
4266 1807 Crs
3694 1560 Crs
3251 1697 Crs
3438 1583 Crs
3152 1471 Crs
3010 1546 Crs
3014 1772 Crs
3144 1524 Crs
3698 1555 Crs
3235 1547 Crs
2484 1791 Crs
2870 1855 Crs
2396 1837 Crs
2940 1395 Crs
3180 1540 Crs
2895 1511 Crs
3023 1618 Crs
2746 1505 Crs
3420 1762 Crs
3514 1749 Crs
2856 1490 Crs
2988 1694 Crs
3926 1727 Crs
3541 1900 Crs
3039 1765 Crs
3484 1453 Crs
2839 1461 Crs
3895 1544 Crs
2774 1326 Crs
2665 1526 Crs
3583 1755 Crs
3717 1474 Crs
3411 1650 Crs
2384 1534 Crs
2636 1462 Crs
3874 1756 Crs
3454 1614 Crs
3756 1740 Crs
3732 1662 Crs
3458 1643 Crs
4136 1632 Crs
3926 1740 Crs
3167 1452 Crs
3298 1695 Crs
3385 1474 Crs
3379 1557 Crs
4064 1352 Crs
3273 1751 Crs
2536 1677 Crs
3093 1783 Crs
3106 1426 Crs
2763 1867 Crs
3477 1582 Crs
3551 1669 Crs
1911 1706 Crs
3545 1186 Crs
2922 1555 Crs
3224 1653 Crs
3527 1810 Crs
3585 1626 Crs
2713 1580 Crs
4160 1604 Crs
3631 1753 Crs
3245 1682 Crs
2933 1534 Crs
3837 1678 Crs
4017 1801 Crs
3405 1698 Crs
3712 1738 Crs
3578 1651 Crs
3406 1987 Crs
4029 1588 Crs
4034 1643 Crs
3457 1775 Crs
3014 1681 Crs
3168 1498 Crs
3140 1727 Crs
3113 1735 Crs
3760 1491 Crs
3888 1571 Crs
2871 1612 Crs
3044 1579 Crs
3289 1364 Crs
3301 1667 Crs
2989 1475 Crs
3816 1563 Crs
3769 1870 Crs
3614 1730 Crs
3808 1444 Crs
3744 1655 Crs
2962 1783 Crs
3509 1703 Crs
2588 1537 Crs
3011 1623 Crs
3154 1656 Crs
2749 1527 Crs
2674 1814 Crs
2955 1294 Crs
3404 1611 Crs
3191 1688 Crs
2617 1539 Crs
2879 1766 Crs
3187 1625 Crs
3446 1813 Crs
2811 1635 Crs
2889 1436 Crs
3610 1884 Crs
2404 1526 Crs
3471 1941 Crs
2831 1699 Crs
2315 1871 Crs
3627 1609 Crs
3364 1900 Crs
2612 1588 Crs
3564 1633 Crs
3739 1773 Crs
4188 1719 Crs
3102 1612 Crs
3370 1589 Crs
2953 1676 Crs
2755 1621 Crs
3055 1491 Crs
3131 1617 Crs
2676 1525 Crs
3684 1788 Crs
2754 1076 Crs
3746 1745 Crs
2251 1634 Crs
3657 1633 Crs
3059 1745 Crs
3516 1645 Crs
2898 1697 Crs
3377 1575 Crs
2870 1761 Crs
2340 1723 Crs
2927 1728 Crs
3252 1657 Crs
2881 1724 Crs
3083 1618 Crs
3746 1589 Crs
2759 1437 Crs
2953 1145 Crs
3838 1652 Crs
2430 1641 Crs
2881 1483 Crs
3476 1501 Crs
3003 1488 Crs
2911 1697 Crs
3505 1568 Crs
3390 1562 Crs
2503 1727 Crs
2926 1365 Crs
3266 1826 Crs
2811 1765 Crs
3073 1536 Crs
3304 1359 Crs
3282 1623 Crs
3068 1502 Crs
3455 1861 Crs
3539 1517 Crs
2728 1532 Crs
3181 1787 Crs
3078 1618 Crs
2763 1428 Crs
3584 1750 Crs
3527 1609 Crs
2848 1486 Crs
3593 1538 Crs
3428 1618 Crs
3299 1516 Crs
3073 1674 Crs
3219 1519 Crs
3267 1724 Crs
3080 1872 Crs
2577 1543 Crs
3467 1799 Crs
3646 1614 Crs
2627 1695 Crs
2926 1203 Crs
3091 1663 Crs
3069 1765 Crs
2829 1633 Crs
3453 1614 Crs
2828 1839 Crs
2605 1756 Crs
3220 1637 Crs
3455 1639 Crs
3501 1441 Crs
2717 1656 Crs
3537 1721 Crs
3450 1659 Crs
3662 1562 Crs
3641 1558 Crs
3543 1576 Crs
3265 1728 Crs
2732 1721 Crs
3888 1719 Crs
2661 1549 Crs
3213 1733 Crs
3706 1736 Crs
3423 1786 Crs
2623 1561 Crs
3102 1708 Crs
3999 1770 Crs
3389 1307 Crs
2929 1771 Crs
2779 1694 Crs
2614 1833 Crs
3132 1527 Crs
2871 1608 Crs
3248 1592 Crs
3343 1752 Crs
2985 1623 Crs
3773 1673 Crs
2746 1510 Crs
3693 1674 Crs
2569 1766 Crs
3573 1733 Crs
3120 1713 Crs
3316 1562 Crs
3658 1530 Crs
4510 1652 Crs
2768 1509 Crs
3320 1528 Crs
2955 1564 Crs
3013 1554 Crs
3092 1704 Crs
3347 1785 Crs
3099 1780 Crs
2748 1545 Crs
3034 1588 Crs
3184 1921 Crs
3461 1788 Crs
2382 1551 Crs
3490 1563 Crs
4320 1579 Crs
2722 1618 Crs
3667 1537 Crs
3920 1568 Crs
2908 1595 Crs
3377 1548 Crs
3595 1749 Crs
3704 1709 Crs
3412 1700 Crs
2792 1428 Crs
3119 1648 Crs
3370 1688 Crs
3520 1593 Crs
3392 1647 Crs
3505 1949 Crs
3453 1561 Crs
3097 1746 Crs
3390 1744 Crs
3472 1545 Crs
3242 1704 Crs
2917 1589 Crs
3526 1648 Crs
3736 1905 Crs
2927 1629 Crs
3291 1582 Crs
3303 1606 Crs
3889 1864 Crs
2667 1362 Crs
3647 1859 Crs
3499 1764 Crs
3215 1616 Crs
3356 1465 Crs
3123 1650 Crs
3722 1631 Crs
3026 1450 Crs
3086 1661 Crs
3177 1684 Crs
3657 1606 Crs
3370 1613 Crs
3142 1694 Crs
2965 1711 Crs
3036 1547 Crs
3432 1775 Crs
3235 1800 Crs
3382 1594 Crs
2852 1243 Crs
3877 1754 Crs
2662 1532 Crs
2475 1626 Crs
2854 1687 Crs
3458 1558 Crs
2250 1477 Crs
3118 1606 Crs
3676 1538 Crs
3086 1388 Crs
3323 1642 Crs
3104 1465 Crs
3792 1581 Crs
2947 1674 Crs
3370 1526 Crs
4068 1566 Crs
3124 1471 Crs
3454 1664 Crs
3881 1582 Crs
3990 1648 Crs
2366 1741 Crs
3873 1583 Crs
3499 1592 Crs
3377 1648 Crs
3082 1396 Crs
3688 1725 Crs
3347 1521 Crs
3500 1434 Crs
3046 1745 Crs
3054 1819 Crs
2839 1552 Crs
3988 1655 Crs
3394 1562 Crs
1887 1378 Crs
3084 1784 Crs
2762 1685 Crs
3181 1609 Crs
3290 1289 Crs
3279 1713 Crs
3688 1846 Crs
2624 1732 Crs
3371 1631 Crs
3678 1502 Crs
3950 1669 Crs
4004 1640 Crs
2681 1701 Crs
3233 1543 Crs
3143 1830 Crs
2872 1593 Crs
1858 1546 Crs
4220 1642 Crs
3384 1686 Crs
2787 1897 Crs
3397 1593 Crs
2965 1591 Crs
3388 1479 Crs
3527 1535 Crs
3416 1465 Crs
3663 1876 Crs
3456 1716 Crs
2595 1280 Crs
3905 1574 Crs
3160 1818 Crs
2858 1906 Crs
3745 1451 Crs
4193 1928 Crs
3730 1619 Crs
3518 1574 Crs
3221 1701 Crs
2758 1546 Crs
3445 1724 Crs
3472 1702 Crs
3160 1548 Crs
3514 1510 Crs
4176 1540 Crs
3800 1444 Crs
2848 1578 Crs
1628 1548 Crs
3416 1500 Crs
3983 1725 Crs
3283 1759 Crs
2683 1623 Crs
2825 1911 Crs
3744 1516 Crs
3232 1562 Crs
2934 1727 Crs
3021 1653 Crs
4068 1666 Crs
3145 1630 Crs
3262 1602 Crs
3060 1496 Crs
2708 1705 Crs
3152 1805 Crs
2731 1558 Crs
3565 1739 Crs
2382 1729 Crs
3539 1756 Crs
2679 1446 Crs
3013 1580 Crs
2666 1641 Crs
2886 1912 Crs
3148 1745 Crs
3504 1525 Crs
3038 1650 Crs
3792 1595 Crs
3854 1750 Crs
3104 1605 Crs
2988 1476 Crs
3542 1385 Crs
3941 1959 Crs
2814 1919 Crs
3683 1625 Crs
3781 1656 Crs
2857 1687 Crs
2869 1563 Crs
3407 1710 Crs
3394 1696 Crs
2669 1650 Crs
3580 1709 Crs
3626 1778 Crs
3572 1608 Crs
3479 1779 Crs
2214 1554 Crs
3657 1778 Crs
2256 1733 Crs
3245 1697 Crs
4163 1477 Crs
3240 1845 Crs
3428 1653 Crs
3199 1490 Crs
3626 1576 Crs
3106 1713 Crs
3602 1568 Crs
3162 1605 Crs
3418 1804 Crs
3396 1703 Crs
3660 2015 Crs
3013 1560 Crs
3762 1910 Crs
3493 1626 Crs
3851 1649 Crs
2556 1498 Crs
4012 1564 Crs
3698 1489 Crs
3349 1623 Crs
3690 1603 Crs
3021 1610 Crs
2961 1526 Crs
3641 1653 Crs
3013 1655 Crs
3426 1245 Crs
3133 1585 Crs
3899 1683 Crs
3791 1677 Crs
3116 1607 Crs
3418 1581 Crs
3434 1716 Crs
3147 1819 Crs
3570 1811 Crs
3505 1445 Crs
3189 1797 Crs
3558 1705 Crs
3730 1528 Crs
3290 1192 Crs
2463 1972 Crs
3344 1684 Crs
2119 1556 Crs
3109 1595 Crs
3200 1713 Crs
3138 1789 Crs
3529 1453 Crs
3798 1606 Crs
3473 1796 Crs
3241 1874 Crs
4003 2097 Crs
3891 1448 Crs
3462 1764 Crs
2460 1654 Crs
3686 1543 Crs
3360 1657 Crs
2694 1675 Crs
3226 1604 Crs
3492 1743 Crs
3308 1286 Crs
2533 1691 Crs
3456 1794 Crs
3537 1642 Crs
2989 1382 Crs
3462 1867 Crs
2936 1218 Crs
3873 1608 Crs
3245 1588 Crs
3171 1712 Crs
3638 1690 Crs
4135 1876 Crs
3142 1616 Crs
2581 1731 Crs
3404 1535 Crs
3131 1187 Crs
4679 1522 Crs
2986 1690 Crs
3521 1701 Crs
3401 1577 Crs
2894 1646 Crs
2858 1787 Crs
3630 1732 Crs
2786 1621 Crs
3863 1859 Crs
3452 1472 Crs
3337 1702 Crs
3003 1662 Crs
3679 1821 Crs
3392 1886 Crs
3378 1608 Crs
3478 1547 Crs
3586 1560 Crs
3972 1716 Crs
3416 1819 Crs
2897 1796 Crs
3130 1812 Crs
3298 1639 Crs
3084 1663 Crs
3041 1724 Crs
2935 1665 Crs
2751 1546 Crs
2447 1541 Crs
3639 1608 Crs
3400 1663 Crs
3800 1639 Crs
3317 1609 Crs
2852 1804 Crs
3473 1590 Crs
2979 1470 Crs
3204 1668 Crs
3111 1625 Crs
2778 1436 Crs
3382 1333 Crs
2196 1626 Crs
2983 1613 Crs
3528 1778 Crs
4027 1709 Crs
3400 1689 Crs
2376 1881 Crs
3201 1745 Crs
2493 1676 Crs
3762 1388 Crs
3083 1613 Crs
3662 1794 Crs
3115 1637 Crs
2544 1699 Crs
3141 1506 Crs
3528 1530 Crs
3224 1652 Crs
2664 1543 Crs
2832 1540 Crs
2722 1801 Crs
3019 1683 Crs
3042 1596 Crs
3782 1642 Crs
3221 1543 Crs
2824 1490 Crs
2078 1579 Crs
2474 1437 Crs
3434 1678 Crs
3656 1575 Crs
3655 1659 Crs
3288 1652 Crs
3277 1761 Crs
2992 1595 Crs
3695 1757 Crs
3870 1649 Crs
2901 1320 Crs
2682 1579 Crs
3371 1643 Crs
3657 1774 Crs
3228 1621 Crs
3425 1677 Crs
3702 1788 Crs
2991 1690 Crs
2982 1551 Crs
2107 1565 Crs
3239 1627 Crs
2710 1858 Crs
3692 1726 Crs
3587 1584 Crs
3308 1499 Crs
2979 1705 Crs
2789 1890 Crs
3007 1716 Crs
3256 1665 Crs
2435 1600 Crs
2967 1623 Crs
2424 1580 Crs
3315 1280 Crs
2714 1496 Crs
3541 1823 Crs
3323 1600 Crs
3289 1649 Crs
3258 1522 Crs
3258 1510 Crs
3983 1557 Crs
2930 1505 Crs
3417 1553 Crs
2951 1649 Crs
3137 1797 Crs
3079 1459 Crs
3149 1658 Crs
3614 1889 Crs
3349 1492 Crs
2923 1625 Crs
2777 1718 Crs
3557 1545 Crs
3136 1442 Crs
3383 1656 Crs
2860 1680 Crs
2593 1430 Crs
4294 1758 Crs
3679 1508 Crs
2896 1680 Crs
3010 1649 Crs
2755 1548 Crs
3564 1911 Crs
3794 1725 Crs
3553 1528 Crs
3370 1450 Crs
3491 1589 Crs
3531 1801 Crs
3309 1495 Crs
3587 2070 Crs
3421 1867 Crs
3377 1396 Crs
3493 1627 Crs
3482 1596 Crs
4279 1695 Crs
3388 1647 Crs
3279 1587 Crs
3470 1338 Crs
3368 1742 Crs
3669 1802 Crs
2935 1618 Crs
3611 1772 Crs
3347 1859 Crs
3374 1571 Crs
2748 1467 Crs
3667 1638 Crs
3612 1497 Crs
2730 1581 Crs
3132 1588 Crs
2912 1758 Crs
2992 1777 Crs
3106 1595 Crs
2413 1667 Crs
3153 1608 Crs
3346 1683 Crs
3169 1630 Crs
3637 1772 Crs
3852 1311 Crs
2855 1756 Crs
3316 1588 Crs
2039 1573 Crs
2914 1555 Crs
3130 1696 Crs
3098 1820 Crs
3436 1576 Crs
3096 1598 Crs
3157 2056 Crs
3303 1638 Crs
3191 1622 Crs
2954 1559 Crs
3239 1743 Crs
3548 1758 Crs
3290 1577 Crs
3111 1495 Crs
3029 1589 Crs
3700 1676 Crs
3122 1450 Crs
3302 1612 Crs
2606 1695 Crs
2745 1838 Crs
3484 1651 Crs
3212 1706 Crs
3383 1606 Crs
2962 1723 Crs
3368 1694 Crs
3763 1688 Crs
3100 1563 Crs
3379 1545 Crs
2988 1808 Crs
3834 1613 Crs
3692 1664 Crs
2205 1505 Crs
3235 1218 Crs
2204 1837 Crs
2590 1565 Crs
2883 1104 Crs
2881 1489 Crs
3275 1644 Crs
2863 1821 Crs
2890 1622 Crs
3403 1777 Crs
2184 1570 Crs
3141 1789 Crs
2973 1541 Crs
3188 1680 Crs
2819 1657 Crs
3101 1682 Crs
3643 1832 Crs
3311 1777 Crs
3551 1459 Crs
3804 1894 Crs
3481 1691 Crs
3224 1808 Crs
2280 1635 Crs
3444 1833 Crs
3297 1593 Crs
3079 1790 Crs
3274 1522 Crs
3255 1684 Crs
3428 1551 Crs
2731 1609 Crs
3674 1716 Crs
3432 1523 Crs
3064 1501 Crs
3320 1574 Crs
2965 1299 Crs
3379 1696 Crs
3392 1623 Crs
2667 1533 Crs
3386 1625 Crs
2565 1654 Crs
3191 1482 Crs
2971 1592 Crs
2806 1628 Crs
3245 1362 Crs
2921 1616 Crs
2572 1638 Crs
3808 1510 Crs
3754 1763 Crs
3140 1560 Crs
3124 1543 Crs
2417 1544 Crs
3141 1659 Crs
3413 1327 Crs
3857 1665 Crs
2693 1493 Crs
3188 1737 Crs
4396 1663 Crs
3020 1602 Crs
3321 1647 Crs
3286 1857 Crs
2694 1584 Crs
3413 1599 Crs
2501 1709 Crs
3199 1472 Crs
2852 1538 Crs
3087 1522 Crs
2681 1442 Crs
2936 1563 Crs
3597 1684 Crs
3495 1547 Crs
2780 1628 Crs
3444 1627 Crs
2903 1573 Crs
2894 1638 Crs
2961 1533 Crs
3096 1578 Crs
2427 1766 Crs
4054 1690 Crs
3377 1681 Crs
3368 1641 Crs
2845 1629 Crs
3776 1649 Crs
4170 1462 Crs
3363 1653 Crs
3046 1594 Crs
3291 1469 Crs
3739 1293 Crs
2977 1524 Crs
3793 1764 Crs
3049 1638 Crs
3549 1364 Crs
3755 1545 Crs
3512 1501 Crs
2651 1663 Crs
3455 1238 Crs
2785 1615 Crs
3031 1591 Crs
2371 1639 Crs
2854 1684 Crs
3483 1697 Crs
3246 1616 Crs
3601 1749 Crs
3418 1762 Crs
3118 1642 Crs
3231 1355 Crs
2749 1654 Crs
3704 1707 Crs
3283 1550 Crs
3924 1850 Crs
2949 1581 Crs
3371 1531 Crs
3803 1706 Crs
2782 1543 Crs
2819 1500 Crs
3797 1572 Crs
3539 1769 Crs
3334 1388 Crs
3228 1594 Crs
3914 1776 Crs
3323 1674 Crs
2781 1647 Crs
3592 1594 Crs
3024 1557 Crs
3649 1707 Crs
2506 1492 Crs
3477 1701 Crs
2983 1758 Crs
3726 1348 Crs
3918 1760 Crs
2993 1471 Crs
2939 1566 Crs
3652 1659 Crs
2649 1640 Crs
2951 1652 Crs
3245 1691 Crs
3510 1803 Crs
4052 1792 Crs
3169 1602 Crs
3389 1331 Crs
3529 1743 Crs
3472 1713 Crs
3252 1705 Crs
2648 1649 Crs
3421 1450 Crs
3488 1691 Crs
3642 1647 Crs
2715 1578 Crs
3238 1475 Crs
3048 1839 Crs
3091 1649 Crs
3692 1537 Crs
3051 1754 Crs
3421 1780 Crs
3382 1960 Crs
3439 1509 Crs
3536 1545 Crs
3240 1645 Crs
2880 1703 Crs
3808 1653 Crs
3357 1617 Crs
3779 1699 Crs
2600 1733 Crs
3462 1566 Crs
3809 1656 Crs
3384 1688 Crs
2834 1659 Crs
2673 1749 Crs
3224 1584 Crs
4008 1771 Crs
3274 1609 Crs
2866 1654 Crs
3098 1668 Crs
2963 1385 Crs
3641 1725 Crs
2574 1502 Crs
3420 1709 Crs
2475 1652 Crs
3579 1671 Crs
2564 1108 Crs
2424 1010 Crs
2697 1405 Crs
2494 1693 Crs
2682 1867 Crs
3428 1639 Crs
2498 1469 Crs
3091 1589 Crs
3454 1317 Crs
2752 1651 Crs
3723 1685 Crs
2679 1651 Crs
3524 1734 Crs
2680 1291 Crs
3294 1517 Crs
3710 1435 Crs
3305 1670 Crs
2793 1480 Crs
3362 1551 Crs
3247 1366 Crs
3404 1564 Crs
3105 1777 Crs
3179 1697 Crs
3420 1811 Crs
3354 1741 Crs
3966 1634 Crs
2851 1441 Crs
3431 1583 Crs
3453 1596 Crs
3061 1642 Crs
2913 1539 Crs
3343 1732 Crs
3152 1762 Crs
2913 1607 Crs
2560 1529 Crs
2976 1390 Crs
3616 1578 Crs
3293 1686 Crs
3165 1636 Crs
3507 1609 Crs
3332 1813 Crs
3264 1547 Crs
3320 1672 Crs
3142 1676 Crs
3197 1509 Crs
4017 1761 Crs
2922 1548 Crs
3397 1608 Crs
2769 1442 Crs
3365 1596 Crs
2797 1884 Crs
3083 1494 Crs
2975 1691 Crs
3587 1503 Crs
3384 1711 Crs
4241 1261 Crs
3083 1581 Crs
3149 1576 Crs
3029 1550 Crs
3745 1748 Crs
2230 1537 Crs
2840 1698 Crs
3348 1564 Crs
3074 1427 Crs
2981 1791 Crs
2684 1475 Crs
2852 1589 Crs
3698 1645 Crs
4098 1394 Crs
2384 1525 Crs
3530 1541 Crs
3344 1418 Crs
3319 1605 Crs
3057 1597 Crs
2978 1571 Crs
3561 1616 Crs
4064 1446 Crs
3661 1580 Crs
3637 1665 Crs
2568 1617 Crs
3890 1665 Crs
3732 1683 Crs
3224 1666 Crs
3387 1793 Crs
3513 1579 Crs
3132 1564 Crs
3588 1804 Crs
2415 1592 Crs
3076 1608 Crs
2622 1569 Crs
2731 1559 Crs
3412 1561 Crs
3250 1651 Crs
3693 1661 Crs
3221 1800 Crs
2814 1460 Crs
3361 1527 Crs
3255 1858 Crs
3176 1779 Crs
3843 1318 Crs
3661 1802 Crs
3478 1551 Crs
3927 1479 Crs
3816 1611 Crs
3369 1767 Crs
2599 1495 Crs
2785 1611 Crs
2915 1631 Crs
3432 1712 Crs
3165 1457 Crs
3399 1582 Crs
3496 1641 Crs
4170 1759 Crs
2263 1663 Crs
3694 1652 Crs
2513 1364 Crs
4110 1663 Crs
3033 1611 Crs
3624 1825 Crs
3387 1663 Crs
3581 1623 Crs
3437 1689 Crs
3741 1598 Crs
3528 1515 Crs
2963 1693 Crs
3370 1162 Crs
3444 1679 Crs
2764 1353 Crs
2171 1502 Crs
3439 1628 Crs
3220 1531 Crs
3774 1655 Crs
3593 1620 Crs
2902 1724 Crs
3091 1544 Crs
2999 1840 Crs
2764 1769 Crs
3958 1832 Crs
4165 1667 Crs
3922 1626 Crs
3784 1635 Crs
2759 1443 Crs
3546 2018 Crs
3399 1946 Crs
3179 1738 Crs
3571 1549 Crs
3493 1497 Crs
3018 1703 Crs
3603 1802 Crs
2862 1733 Crs
2826 1598 Crs
3211 1494 Crs
3111 1647 Crs
3181 1690 Crs
3262 1546 Crs
2967 1628 Crs
2582 1669 Crs
3436 1399 Crs
2897 1746 Crs
2560 1699 Crs
3664 1714 Crs
3035 1584 Crs
3450 1657 Crs
3475 1649 Crs
2335 1624 Crs
3658 1731 Crs
3077 1666 Crs
2211 1577 Crs
3463 1863 Crs
2741 1568 Crs
3086 1662 Crs
3738 1628 Crs
3581 1576 Crs
3657 1563 Crs
3877 1556 Crs
3380 1497 Crs
2455 1740 Crs
2930 1222 Crs
3680 1747 Crs
3399 1435 Crs
2817 1411 Crs
2304 1534 Crs
3371 1696 Crs
3200 1458 Crs
3910 1770 Crs
2788 1223 Crs
3598 1673 Crs
3524 1839 Crs
2667 2035 Crs
3510 1570 Crs
3037 1527 Crs
2571 1603 Crs
3759 1637 Crs
3288 1783 Crs
3236 1577 Crs
3390 1745 Crs
3905 1695 Crs
2983 1534 Crs
3306 1632 Crs
3590 1869 Crs
2607 1556 Crs
3743 1270 Crs
3471 1674 Crs
3137 1562 Crs
1982 1579 Crs
3803 1581 Crs
4182 1629 Crs
3870 1650 Crs
3737 1672 Crs
3596 1705 Crs
2522 1835 Crs
3679 1555 Crs
3283 1726 Crs
2517 1662 Crs
3356 1599 Crs
3258 1940 Crs
2760 1650 Crs
3423 1600 Crs
3661 1484 Crs
3120 1683 Crs
3143 1637 Crs
2632 1655 Crs
3303 1700 Crs
3264 1560 Crs
4040 1674 Crs
3711 1599 Crs
3125 1325 Crs
2809 1578 Crs
3153 1399 Crs
3475 1584 Crs
2068 1671 Crs
2986 1593 Crs
2781 1652 Crs
3197 1607 Crs
3455 1602 Crs
2107 1647 Crs
3110 1474 Crs
3256 1583 Crs
2734 1577 Crs
3607 1850 Crs
3760 1790 Crs
3326 1574 Crs
3488 1659 Crs
3242 1581 Crs
3452 1563 Crs
2956 1614 Crs
3928 1687 Crs
3263 1324 Crs
3821 1669 Crs
3205 1657 Crs
3003 1585 Crs
3225 1809 Crs
3267 1736 Crs
3413 1726 Crs
3200 1579 Crs
2277 1512 Crs
3131 1614 Crs
2935 1706 Crs
3584 1556 Crs
3542 1591 Crs
3805 1604 Crs
2923 1684 Crs
3085 1700 Crs
3381 1632 Crs
3027 1681 Crs
3084 1538 Crs
3445 1698 Crs
3399 1649 Crs
2911 1644 Crs
3290 1519 Crs
3449 1732 Crs
3121 1576 Crs
3360 1427 Crs
3377 1534 Crs
3035 1583 Crs
3826 1693 Crs
3990 1824 Crs
3568 1554 Crs
3477 1785 Crs
3363 1776 Crs
3838 1730 Crs
3439 1623 Crs
2920 1708 Crs
4025 1608 Crs
2937 1455 Crs
3259 1826 Crs
2874 1634 Crs
2615 1619 Crs
3374 1663 Crs
3277 1569 Crs
4123 1466 Crs
3031 1868 Crs
3617 1677 Crs
3903 1583 Crs
3480 1664 Crs
3297 1648 Crs
2830 1718 Crs
3356 1666 Crs
4213 1740 Crs
3553 1744 Crs
3222 1592 Crs
3430 1650 Crs
3243 1495 Crs
2547 1522 Crs
3591 1716 Crs
3552 1501 Crs
2632 1514 Crs
3744 1648 Crs
3870 1773 Crs
3247 1492 Crs
3524 1791 Crs
3390 1577 Crs
3247 1772 Crs
2368 1698 Crs
4463 1752 Crs
3149 1535 Crs
3286 1750 Crs
3505 1577 Crs
2499 1562 Crs
2849 1693 Crs
3152 1166 Crs
3349 1540 Crs
3701 1801 Crs
2717 1813 Crs
2870 1558 Crs
3378 1688 Crs
3098 1671 Crs
2380 1799 Crs
3691 1945 Crs
3326 1627 Crs
3928 1664 Crs
2824 1735 Crs
3690 1579 Crs
2919 1463 Crs
4042 1497 Crs
3657 1229 Crs
3493 1597 Crs
2158 1549 Crs
3713 1830 Crs
3338 1716 Crs
3142 1434 Crs
3201 1662 Crs
3812 1455 Crs
3007 1774 Crs
3124 1708 Crs
2804 1573 Crs
3151 1472 Crs
3458 1218 Crs
2538 1686 Crs
3190 1602 Crs
2681 1514 Crs
3389 1564 Crs
3398 1428 Crs
2285 1630 Crs
3208 1554 Crs
3535 1508 Crs
2419 1711 Crs
3281 1523 Crs
3730 1467 Crs
3512 1478 Crs
2663 1646 Crs
3971 1642 Crs
3167 1721 Crs
3691 1685 Crs
2170 1495 Crs
3527 1649 Crs
3332 1659 Crs
3574 1433 Crs
3072 1536 Crs
3042 1406 Crs
3183 1595 Crs
2894 1734 Crs
3747 1551 Crs
3316 1626 Crs
3636 1980 Crs
3055 1713 Crs
3469 1675 Crs
3149 1768 Crs
3684 1721 Crs
3161 1576 Crs
3285 1787 Crs
2867 1654 Crs
3016 1563 Crs
3778 1566 Crs
1467 1422 Crs
3636 1697 Crs
3155 1737 Crs
3286 1637 Crs
3306 1619 Crs
3831 1341 Crs
2922 1439 Crs
3481 1706 Crs
2253 1708 Crs
3521 1657 Crs
2867 1547 Crs
3225 1601 Crs
3873 1658 Crs
3544 1652 Crs
2518 1536 Crs
2446 1561 Crs
3498 1589 Crs
2773 1734 Crs
3637 1973 Crs
2941 1738 Crs
3490 1642 Crs
3523 1673 Crs
3568 1747 Crs
3674 1653 Crs
2783 1625 Crs
2926 1745 Crs
3326 1612 Crs
3171 1520 Crs
2953 1647 Crs
3540 1631 Crs
3385 1547 Crs
3242 1860 Crs
2687 1559 Crs
3529 1536 Crs
3163 1580 Crs
3999 1716 Crs
3461 1652 Crs
2723 1453 Crs
2704 1774 Crs
3087 1704 Crs
3663 1564 Crs
3303 1603 Crs
3517 1458 Crs
3443 1513 Crs
3293 1616 Crs
3512 1753 Crs
2666 1602 Crs
3506 1658 Crs
4150 1712 Crs
3688 1651 Crs
3126 1115 Crs
2676 1515 Crs
3079 1639 Crs
2385 1927 Crs
3238 1557 Crs
3302 1799 Crs
3241 1718 Crs
3386 1612 Crs
2730 1745 Crs
2650 1671 Crs
3018 1677 Crs
3326 1661 Crs
3595 1589 Crs
3095 1635 Crs
3350 1783 Crs
2789 1572 Crs
2802 1489 Crs
3133 1265 Crs
3264 1703 Crs
2698 1604 Crs
3069 1723 Crs
2589 1573 Crs
3649 1742 Crs
2820 1604 Crs
3234 1675 Crs
3122 1554 Crs
3378 1807 Crs
2769 1672 Crs
3236 1784 Crs
3071 1539 Crs
3329 1609 Crs
2592 1584 Crs
3654 1675 Crs
1546 1463 Crs
2684 1662 Crs
3507 1506 Crs
2824 1578 Crs
3339 1191 Crs
3204 1597 Crs
2517 1704 Crs
3168 1839 Crs
3603 1523 Crs
3573 1495 Crs
3566 1591 Crs
3039 1480 Crs
3000 1777 Crs
2746 1625 Crs
2748 1574 Crs
3351 1555 Crs
2642 1627 Crs
3312 1637 Crs
2373 1788 Crs
3192 1552 Crs
2597 1488 Crs
2958 1608 Crs
3160 1777 Crs
3224 1665 Crs
2893 1513 Crs
2968 1532 Crs
2609 1707 Crs
3452 1218 Crs
2599 1636 Crs
3247 1492 Crs
2256 1762 Crs
3027 1868 Crs
4151 1839 Crs
4048 1659 Crs
2822 1775 Crs
3293 1635 Crs
2894 1891 Crs
3355 1741 Crs
2682 1645 Crs
3393 1747 Crs
2672 1520 Crs
2982 1478 Crs
3076 1721 Crs
2681 1586 Crs
3534 1854 Crs
3135 1680 Crs
3631 1585 Crs
3360 1627 Crs
2792 1866 Crs
2657 1951 Crs
1859 1683 Crs
3706 1517 Crs
3072 1711 Crs
3389 1854 Crs
3320 1522 Crs
3431 1576 Crs
3361 1789 Crs
2894 1941 Crs
2975 1496 Crs
3397 1720 Crs
2776 1565 Crs
3498 1442 Crs
3288 1692 Crs
3151 1802 Crs
3037 1658 Crs
3812 1625 Crs
3732 1523 Crs
3105 1627 Crs
3622 1671 Crs
2593 1781 Crs
2666 1822 Crs
1705 1488 Crs
2508 1548 Crs
3957 1696 Crs
2454 1728 Crs
3310 1717 Crs
3151 1710 Crs
3544 1512 Crs
3257 1620 Crs
3031 1705 Crs
3753 1790 Crs
3833 1577 Crs
3400 1444 Crs
3686 1707 Crs
2675 1528 Crs
3805 1612 Crs
3561 1550 Crs
3207 1515 Crs
2886 1682 Crs
3607 1819 Crs
2656 1545 Crs
2791 1682 Crs
3873 1882 Crs
3144 1590 Crs
3121 1564 Crs
3351 1589 Crs
3682 1585 Crs
3313 1482 Crs
2922 1678 Crs
3478 1764 Crs
3196 1633 Crs
3520 1600 Crs
3393 1284 Crs
3421 1782 Crs
3068 1567 Crs
3350 1762 Crs
3066 1849 Crs
2478 1516 Crs
3236 1649 Crs
3720 1621 Crs
3651 1720 Crs
3500 1554 Crs
3477 1748 Crs
3451 1336 Crs
3609 1596 Crs
3264 1627 Crs
2368 1629 Crs
2993 1570 Crs
3299 1727 Crs
3563 1691 Crs
3138 1584 Crs
2962 1655 Crs
3172 1476 Crs
3158 1579 Crs
3398 1496 Crs
3309 1616 Crs
3380 1780 Crs
3648 1579 Crs
2906 1543 Crs
2963 1584 Crs
3418 1630 Crs
2462 1512 Crs
3919 1601 Crs
3357 1569 Crs
3294 1795 Crs
3790 1618 Crs
3458 1700 Crs
2357 1456 Crs
3116 1460 Crs
2955 1590 Crs
1794 1412 Crs
3207 1552 Crs
2862 1647 Crs
3020 1645 Crs
3625 1595 Crs
3120 1636 Crs
3949 1757 Crs
3735 1567 Crs
2642 1430 Crs
2767 1153 Crs
3192 1577 Crs
3299 1585 Crs
4139 1451 Crs
2941 1619 Crs
3196 1552 Crs
3666 1621 Crs
3729 1774 Crs
3202 1592 Crs
3175 1454 Crs
3940 1661 Crs
3078 1446 Crs
3170 1623 Crs
3467 1685 Crs
3922 1551 Crs
3204 1602 Crs
2917 1709 Crs
3042 1523 Crs
2929 1754 Crs
2644 1561 Crs
3481 1590 Crs
3274 1589 Crs
3619 1561 Crs
2884 1666 Crs
3968 1665 Crs
2490 1541 Crs
2649 1667 Crs
2636 1640 Crs
2724 1704 Crs
3057 1887 Crs
3433 1638 Crs
3215 1642 Crs
3150 1859 Crs
2726 1728 Crs
3138 1643 Crs
2868 1659 Crs
3366 1649 Crs
3559 1649 Crs
3577 1648 Crs
3448 1616 Crs
2921 1699 Crs
3019 1749 Crs
3008 1691 Crs
3612 1463 Crs
2841 1398 Crs
3002 1734 Crs
4181 1641 Crs
3378 1280 Crs
3681 1676 Crs
3271 1595 Crs
3267 1702 Crs
3233 1603 Crs
2804 1680 Crs
2742 1995 Crs
3567 1618 Crs
3116 1688 Crs
3850 1593 Crs
2202 1687 Crs
3351 1886 Crs
3227 1473 Crs
3167 1616 Crs
2281 1524 Crs
3251 1726 Crs
2407 1450 Crs
3356 1649 Crs
2759 1620 Crs
2711 1297 Crs
2733 1749 Crs
2741 1872 Crs
3558 1556 Crs
3429 1620 Crs
3707 1529 Crs
3847 1553 Crs
2334 1682 Crs
3028 1753 Crs
3047 1511 Crs
3085 1827 Crs
2723 1572 Crs
3949 1744 Crs
3027 1531 Crs
2987 1535 Crs
2955 1501 Crs
3468 1608 Crs
2873 1625 Crs
3819 1582 Crs
3188 1639 Crs
3501 1615 Crs
3215 1627 Crs
3108 1591 Crs
2745 1599 Crs
3220 1622 Crs
3630 1571 Crs
3080 1752 Crs
3094 1298 Crs
2871 1872 Crs
3322 1604 Crs
3280 1729 Crs
3512 1578 Crs
3443 1734 Crs
3188 1563 Crs
2792 1702 Crs
2431 1801 Crs
3119 1833 Crs
3772 1692 Crs
3336 1964 Crs
3028 1618 Crs
3653 1789 Crs
3157 1631 Crs
3319 1369 Crs
3073 1655 Crs
2928 1705 Crs
3343 1680 Crs
3042 1530 Crs
2644 1721 Crs
3124 1429 Crs
3512 1613 Crs
3105 1568 Crs
2856 1588 Crs
2844 1608 Crs
2843 1841 Crs
4293 1799 Crs
3424 1521 Crs
3263 1684 Crs
3886 1779 Crs
3260 1783 Crs
3174 1611 Crs
2742 1652 Crs
3066 1811 Crs
3467 1548 Crs
3903 1658 Crs
3585 1670 Crs
2795 1682 Crs
3541 1553 Crs
3068 1467 Crs
3300 1803 Crs
3274 1681 Crs
2763 1590 Crs
3871 1706 Crs
3250 1655 Crs
2936 1846 Crs
3014 1440 Crs
2425 1369 Crs
4046 1573 Crs
3451 1805 Crs
3489 1651 Crs
2821 1505 Crs
3157 1990 Crs
2872 1576 Crs
3305 1561 Crs
2871 1493 Crs
3546 1514 Crs
3809 1696 Crs
2728 1471 Crs
3295 1656 Crs
3985 1573 Crs
3830 1722 Crs
3443 1800 Crs
3030 1676 Crs
3462 1576 Crs
3357 1637 Crs
4134 1631 Crs
3350 1588 Crs
3559 1723 Crs
3639 1528 Crs
3293 1558 Crs
3463 1523 Crs
2592 1952 Crs
2682 1771 Crs
3323 1659 Crs
3469 1804 Crs
2777 1627 Crs
4242 1788 Crs
3631 1600 Crs
3164 1704 Crs
3697 1684 Crs
2870 1782 Crs
3493 1573 Crs
2914 1913 Crs
2498 1387 Crs
3428 1653 Crs
2780 1784 Crs
3559 1797 Crs
3053 1620 Crs
3423 1542 Crs
2947 1702 Crs
3704 1596 Crs
3436 1707 Crs
3120 1476 Crs
3336 1739 Crs
2988 1654 Crs
3788 1774 Crs
3190 1582 Crs
3586 1759 Crs
3238 1629 Crs
3212 1659 Crs
3473 1612 Crs
3422 1728 Crs
2772 1794 Crs
2542 1455 Crs
3708 1500 Crs
3960 1362 Crs
3030 1691 Crs
3570 1678 Crs
3347 1411 Crs
2867 1620 Crs
3157 1495 Crs
3962 1567 Crs
2068 1433 Crs
2736 1799 Crs
3088 1530 Crs
3156 1738 Crs
3016 1815 Crs
3332 1747 Crs
3820 1787 Crs
2725 1761 Crs
3219 1744 Crs
3177 1737 Crs
2944 1469 Crs
3007 1654 Crs
3107 1681 Crs
4215 1355 Crs
3348 1741 Crs
2820 1756 Crs
3588 1611 Crs
3768 1714 Crs
3184 1674 Crs
2891 1893 Crs
3241 1908 Crs
3558 1805 Crs
3310 1675 Crs
3252 1584 Crs
3454 1716 Crs
3436 1658 Crs
3423 1648 Crs
3164 1608 Crs
3744 1591 Crs
2895 1711 Crs
3280 1639 Crs
2527 1630 Crs
2720 1510 Crs
3659 1645 Crs
3523 1696 Crs
3610 1657 Crs
2843 1534 Crs
3275 1820 Crs
3272 1628 Crs
2851 1888 Crs
2606 1532 Crs
2932 1988 Crs
3692 1365 Crs
2888 1691 Crs
3171 1756 Crs
3016 1543 Crs
2743 1569 Crs
2797 1561 Crs
3398 1728 Crs
3030 1684 Crs
3244 1290 Crs
3427 1624 Crs
2509 1603 Crs
3175 1697 Crs
3584 1600 Crs
2810 1579 Crs
3896 1527 Crs
3464 1877 Crs
2753 1774 Crs
3072 1713 Crs
3955 1736 Crs
3697 1581 Crs
4283 1475 Crs
3400 1727 Crs
3379 1603 Crs
3472 1689 Crs
3945 1605 Crs
3061 1578 Crs
3446 1613 Crs
3388 1467 Crs
2407 1555 Crs
4020 1731 Crs
3167 1584 Crs
2974 1597 Crs
4190 1561 Crs
3364 1618 Crs
3386 1646 Crs
3416 1725 Crs
3369 1551 Crs
2778 1492 Crs
3555 1458 Crs
3378 1840 Crs
3633 1612 Crs
2581 1540 Crs
2910 1661 Crs
3641 1723 Crs
2986 1709 Crs
3729 1272 Crs
2848 1737 Crs
3425 1597 Crs
4001 1737 Crs
2954 1671 Crs
2691 1708 Crs
2384 1737 Crs
3165 1404 Crs
3238 1635 Crs
3301 1846 Crs
3495 1685 Crs
2822 1726 Crs
2831 1513 Crs
3175 1761 Crs
3217 1473 Crs
3016 1551 Crs
3469 1656 Crs
3423 1404 Crs
3041 1524 Crs
3589 1762 Crs
3548 1684 Crs
4024 1664 Crs
3218 1643 Crs
3717 1638 Crs
3308 1805 Crs
3757 1387 Crs
2576 1529 Crs
2646 1705 Crs
3934 1592 Crs
3296 1492 Crs
4309 1676 Crs
3623 1712 Crs
3734 1858 Crs
3334 1617 Crs
3485 1657 Crs
3343 1681 Crs
2886 1623 Crs
3126 1438 Crs
3360 1672 Crs
3641 1683 Crs
3204 1752 Crs
3240 1745 Crs
3605 1749 Crs
1796 1416 Crs
2345 1586 Crs
3418 1759 Crs
3440 1629 Crs
3372 1477 Crs
3684 1516 Crs
3541 1658 Crs
2431 1340 Crs
3839 1598 Crs
3821 1536 Crs
3262 2000 Crs
3444 1393 Crs
3135 1515 Crs
3109 1482 Crs
3396 1857 Crs
2665 1727 Crs
2943 1311 Crs
3869 1672 Crs
3356 1434 Crs
4013 1448 Crs
3192 1633 Crs
3467 1602 Crs
3453 1600 Crs
2980 1664 Crs
2747 1544 Crs
2779 1826 Crs
3471 1671 Crs
2638 1542 Crs
3577 1606 Crs
3412 1649 Crs
2868 1487 Crs
3502 1554 Crs
3794 1565 Crs
2907 1660 Crs
3489 1688 Crs
3429 1763 Crs
2751 1690 Crs
3791 1716 Crs
3377 1510 Crs
3577 1237 Crs
3565 1481 Crs
3364 1744 Crs
3124 1478 Crs
2694 1637 Crs
2924 1613 Crs
3075 1572 Crs
2465 1784 Crs
3505 1329 Crs
4224 1635 Crs
2676 1474 Crs
3452 1655 Crs
3490 1544 Crs
3273 1669 Crs
3378 1719 Crs
3149 1888 Crs
3363 1488 Crs
3019 1590 Crs
3065 1588 Crs
3395 1477 Crs
3154 1711 Crs
3182 1652 Crs
2211 1502 Crs
3430 1658 Crs
3098 1800 Crs
4447 1720 Crs
3373 1681 Crs
3470 1314 Crs
2751 1480 Crs
3178 1543 Crs
3612 1384 Crs
2595 1766 Crs
2187 1520 Crs
3099 1622 Crs
3178 1179 Crs
3138 1559 Crs
3320 1498 Crs
3215 1572 Crs
3019 1813 Crs
2870 1811 Crs
3856 1575 Crs
3615 1793 Crs
4152 1696 Crs
3256 1536 Crs
3667 1560 Crs
2792 1562 Crs
3094 1625 Crs
3047 1756 Crs
3858 1680 Crs
2952 1685 Crs
3063 1700 Crs
3389 1593 Crs
2616 1700 Crs
2813 1767 Crs
2801 1478 Crs
2847 1564 Crs
3314 1666 Crs
3336 1621 Crs
3320 1785 Crs
3339 1573 Crs
3691 1374 Crs
2486 1653 Crs
2398 1570 Crs
3887 1800 Crs
3308 1685 Crs
2774 1564 Crs
3552 1734 Crs
2983 1132 Crs
3579 1385 Crs
3187 1599 Crs
3442 1591 Crs
3239 1630 Crs
2752 1595 Crs
3630 1468 Crs
3217 1549 Crs
3194 1566 Crs
2446 1672 Crs
3709 1871 Crs
3381 1604 Crs
2352 1762 Crs
3204 1202 Crs
3308 1601 Crs
2422 1144 Crs
4055 1523 Crs
3123 1694 Crs
3019 1775 Crs
3351 1475 Crs
3099 1579 Crs
2763 1520 Crs
3296 1556 Crs
3792 1551 Crs
3199 1856 Crs
2985 1618 Crs
3536 1842 Crs
4023 1625 Crs
2384 1569 Crs
2608 1240 Crs
3383 1739 Crs
2218 1652 Crs
2806 1709 Crs
2343 1535 Crs
2758 1959 Crs
3460 1498 Crs
3941 1631 Crs
3467 1617 Crs
3457 1677 Crs
3138 1511 Crs
3327 1640 Crs
3311 1569 Crs
3063 1504 Crs
3213 1555 Crs
3398 1472 Crs
3401 1586 Crs
3490 1484 Crs
2950 1775 Crs
4246 1645 Crs
3572 1666 Crs
3440 1548 Crs
3155 1816 Crs
3749 1500 Crs
3283 1633 Crs
3754 1739 Crs
3003 1649 Crs
2373 1752 Crs
3533 1629 Crs
2266 1929 Crs
3250 1554 Crs
3151 1543 Crs
3561 1757 Crs
2803 1656 Crs
3819 1583 Crs
3037 1271 Crs
2905 1598 Crs
2478 1427 Crs
4101 1719 Crs
3476 1543 Crs
2520 1839 Crs
4195 1598 Crs
3440 1824 Crs
2976 1707 Crs
2752 1626 Crs
3794 1512 Crs
2945 1657 Crs
2442 1597 Crs
3625 1602 Crs
2753 1621 Crs
2400 1582 Crs
3563 1694 Crs
2258 1556 Crs
3870 1544 Crs
3210 1605 Crs
2382 1475 Crs
3573 1794 Crs
2526 1631 Crs
3247 1627 Crs
3895 1883 Crs
2888 1780 Crs
2699 1648 Crs
3463 1553 Crs
3573 1998 Crs
3622 1682 Crs
1896 1555 Crs
3027 1652 Crs
2708 1766 Crs
3155 1560 Crs
3295 1643 Crs
3157 1622 Crs
3214 1722 Crs
3159 1604 Crs
3139 1313 Crs
2919 1497 Crs
3115 1555 Crs
3245 1442 Crs
2954 1922 Crs
3773 1617 Crs
2582 1664 Crs
2707 1567 Crs
3036 1734 Crs
2930 1894 Crs
3731 1450 Crs
3353 1848 Crs
3739 1549 Crs
3664 1534 Crs
3763 1633 Crs
3571 1638 Crs
3083 1551 Crs
3272 1825 Crs
2931 1458 Crs
3204 1841 Crs
2799 1223 Crs
3445 1575 Crs
3150 1503 Crs
2981 1567 Crs
3365 1834 Crs
2635 1613 Crs
3529 1552 Crs
3142 1706 Crs
3463 1505 Crs
3424 1602 Crs
2388 1585 Crs
3720 1224 Crs
3008 1863 Crs
3103 1809 Crs
3314 1771 Crs
3062 1525 Crs
3491 1724 Crs
3322 1659 Crs
2718 1680 Crs
3061 1713 Crs
3434 1722 Crs
2039 1581 Crs
3560 1535 Crs
3762 1577 Crs
2757 1824 Crs
2055 1555 Crs
3222 1416 Crs
3465 1680 Crs
3298 1712 Crs
3278 1460 Crs
2237 1612 Crs
3245 1615 Crs
3559 1643 Crs
3468 1727 Crs
3281 1504 Crs
3808 1689 Crs
2679 1658 Crs
3053 1671 Crs
3708 1900 Crs
2836 1571 Crs
4083 1578 Crs
3200 1677 Crs
3697 1712 Crs
3258 1627 Crs
3261 1833 Crs
2886 1664 Crs
3697 1844 Crs
3850 1713 Crs
3309 1478 Crs
3786 1593 Crs
3202 1635 Crs
3619 1828 Crs
3277 1668 Crs
3432 1687 Crs
3666 1713 Crs
3320 1586 Crs
3542 1575 Crs
3531 1187 Crs
2439 1578 Crs
3955 1703 Crs
3397 1627 Crs
3624 1782 Crs
2402 1712 Crs
3237 1749 Crs
3535 1826 Crs
3547 1638 Crs
3622 1886 Crs
3826 1650 Crs
2721 1603 Crs
2824 1546 Crs
3390 1778 Crs
3618 1607 Crs
3310 1497 Crs
3394 1571 Crs
2793 1750 Crs
2795 1741 Crs
2857 1590 Crs
3575 1802 Crs
2454 1488 Crs
3458 1546 Crs
2440 1558 Crs
1633 1510 Crs
2844 1940 Crs
3210 1852 Crs
2789 1538 Crs
3564 1723 Crs
2601 1749 Crs
3159 1596 Crs
3371 1687 Crs
3411 1517 Crs
2840 1643 Crs
2212 1463 Crs
2820 1359 Crs
2718 1658 Crs
3484 1746 Crs
3323 1653 Crs
3129 1550 Crs
3240 1565 Crs
2727 1678 Crs
2840 1602 Crs
3459 1543 Crs
3414 1647 Crs
2657 1681 Crs
3084 1703 Crs
3565 1500 Crs
3291 1700 Crs
3354 1754 Crs
3601 1513 Crs
3791 1645 Crs
3543 1576 Crs
3085 1598 Crs
3423 1547 Crs
3659 1399 Crs
3352 1574 Crs
2586 1701 Crs
2522 1927 Crs
3396 1886 Crs
3200 1788 Crs
3387 1657 Crs
3274 1568 Crs
2896 1566 Crs
3240 1748 Crs
2886 1797 Crs
2813 1793 Crs
2900 1511 Crs
3738 1728 Crs
2960 1745 Crs
2884 1703 Crs
3190 1714 Crs
3000 1639 Crs
3401 1756 Crs
2844 1740 Crs
3349 1747 Crs
3526 1622 Crs
3603 1679 Crs
3444 1694 Crs
3659 1590 Crs
3735 1757 Crs
2455 1676 Crs
3210 1763 Crs
3406 1649 Crs
2834 1430 Crs
4290 1649 Crs
3302 1596 Crs
3833 1678 Crs
3398 1526 Crs
3033 1581 Crs
3235 1573 Crs
3150 1601 Crs
3400 1840 Crs
3635 1810 Crs
2410 1407 Crs
3465 1740 Crs
3623 1729 Crs
3314 1460 Crs
2901 1319 Crs
2806 1735 Crs
3190 1591 Crs
3415 1473 Crs
3636 1542 Crs
3475 1698 Crs
2503 1691 Crs
3552 1589 Crs
3290 1526 Crs
3844 1620 Crs
3468 1649 Crs
3206 1210 Crs
3370 1451 Crs
3721 1676 Crs
3210 1768 Crs
3578 1815 Crs
3344 1581 Crs
3340 1722 Crs
4020 1668 Crs
2955 1700 Crs
3677 1562 Crs
2875 1596 Crs
3742 1555 Crs
2888 1781 Crs
2668 1609 Crs
3769 1555 Crs
2952 1702 Crs
2445 1779 Crs
2722 1700 Crs
3338 1644 Crs
3502 1659 Crs
4092 1621 Crs
3416 1612 Crs
2714 1789 Crs
3574 1889 Crs
3499 1553 Crs
3717 1550 Crs
3198 1780 Crs
3032 1411 Crs
2921 1228 Crs
2788 1716 Crs
3440 1616 Crs
3049 1843 Crs
2863 1660 Crs
3255 1744 Crs
3036 1674 Crs
4294 1746 Crs
3062 1792 Crs
1967 1475 Crs
3298 1630 Crs
3195 1516 Crs
2703 1669 Crs
3827 1519 Crs
3685 1811 Crs
3468 1605 Crs
2946 1632 Crs
3233 1883 Crs
3061 1614 Crs
4181 1647 Crs
2455 1647 Crs
2703 1575 Crs
3236 1652 Crs
3638 1558 Crs
3431 1525 Crs
3223 1600 Crs
3335 1794 Crs
4311 1518 Crs
3693 1759 Crs
2643 1613 Crs
3351 1493 Crs
3082 1624 Crs
2845 1431 Crs
3237 1509 Crs
2310 1450 Crs
3418 1585 Crs
3716 1500 Crs
3319 1575 Crs
3000 1293 Crs
4100 1696 Crs
3636 1685 Crs
3209 1515 Crs
2895 1681 Crs
3084 1648 Crs
2401 1852 Crs
2691 1627 Crs
2953 1607 Crs
2587 1622 Crs
3677 1607 Crs
3086 1810 Crs
2930 1574 Crs
2977 1855 Crs
2833 1507 Crs
3784 1769 Crs
3497 1428 Crs
2707 1712 Crs
3361 1769 Crs
3284 1756 Crs
3787 1311 Crs
2803 1682 Crs
3043 1662 Crs
3099 1577 Crs
3148 1599 Crs
3213 1683 Crs
2944 1625 Crs
3042 1820 Crs
3417 1495 Crs
3663 1606 Crs
3177 1573 Crs
2369 1575 Crs
2840 1455 Crs
3387 1707 Crs
3390 1778 Crs
3361 1682 Crs
3394 1825 Crs
3334 1565 Crs
3310 1716 Crs
2396 1564 Crs
2510 1599 Crs
2900 1595 Crs
3280 1599 Crs
2544 1638 Crs
2790 1507 Crs
3519 1729 Crs
3136 1274 Crs
3096 1472 Crs
3849 1796 Crs
1986 1602 Crs
3091 1591 Crs
3335 1795 Crs
2773 1525 Crs
3316 1773 Crs
2680 1846 Crs
2567 1612 Crs
3484 1656 Crs
3822 1510 Crs
3269 1750 Crs
3655 1619 Crs
2626 1583 Crs
3773 1731 Crs
3681 1711 Crs
2444 1477 Crs
3358 1512 Crs
3041 1896 Crs
3693 1653 Crs
2914 1570 Crs
3653 1634 Crs
2712 1681 Crs
2934 1652 Crs
2829 1709 Crs
3093 1677 Crs
3246 1746 Crs
3265 1561 Crs
3652 1860 Crs
2932 1549 Crs
3662 1627 Crs
3420 1697 Crs
3587 1559 Crs
2865 1547 Crs
3364 1664 Crs
2804 1674 Crs
3312 1563 Crs
2762 1675 Crs
2473 1581 Crs
3277 1702 Crs
2595 1571 Crs
2803 1413 Crs
3518 1564 Crs
3530 1635 Crs
3169 1769 Crs
3593 1853 Crs
2893 1699 Crs
2848 1792 Crs
3508 1781 Crs
2701 1579 Crs
3333 1636 Crs
3929 1317 Crs
3158 1572 Crs
3789 1593 Crs
3163 1533 Crs
3167 1769 Crs
3494 1533 Crs
3012 1792 Crs
3770 1621 Crs
3607 1828 Crs
3387 1593 Crs
3794 1531 Crs
2304 1884 Crs
2605 1503 Crs
3360 1502 Crs
3427 1686 Crs
2484 1648 Crs
2621 1701 Crs
3248 1651 Crs
2748 1760 Crs
% End plot #2
% Begin plot #3
1.000 UL
LTb
LT1
0.75 0.75 0.75 C 867 1126 M
38 24 V
39 25 V
38 24 V
39 24 V
38 25 V
39 24 V
38 24 V
39 24 V
38 25 V
39 24 V
38 24 V
39 25 V
38 24 V
39 24 V
38 24 V
39 25 V
38 24 V
39 24 V
38 25 V
39 24 V
38 24 V
39 25 V
38 24 V
39 24 V
38 24 V
39 25 V
38 24 V
39 24 V
38 25 V
39 24 V
38 24 V
39 24 V
38 25 V
39 24 V
39 24 V
38 25 V
39 24 V
38 24 V
39 24 V
38 25 V
39 24 V
38 24 V
39 25 V
38 24 V
39 24 V
38 25 V
39 24 V
38 24 V
39 24 V
38 25 V
39 24 V
38 24 V
39 25 V
38 24 V
39 24 V
38 24 V
39 25 V
38 24 V
39 24 V
38 25 V
39 24 V
38 24 V
39 24 V
38 25 V
39 24 V
38 24 V
39 25 V
38 24 V
39 24 V
38 25 V
39 24 V
38 24 V
39 24 V
38 25 V
39 24 V
38 24 V
39 25 V
38 24 V
39 24 V
38 24 V
39 25 V
38 24 V
39 24 V
38 25 V
39 24 V
38 24 V
39 24 V
38 25 V
39 24 V
38 24 V
39 25 V
38 24 V
39 24 V
38 25 V
39 24 V
38 24 V
39 24 V
38 25 V
39 24 V
% End plot #3
stroke
2.000 UL
LTb
LCb setrgbcolor
1.000 UL
LTb
LCb setrgbcolor
860 3531 N
860 640 L
3819 0 V
0 2891 V
-3819 0 V
Z stroke
0.500 UP
1.000 UL
LTb
LCb setrgbcolor
stroke
grestore
end
showpage
%%Trailer
%%DocumentFonts: Helvetica
