%!PS-Adobe-2.0 EPSF-2.0
%%Title: max.eps
%%Creator: gnuplot 5.0 patchlevel 1
%%CreationDate: Fri Oct 30 18:57:07 2015
%%DocumentFonts: (atend)
%%BoundingBox: 50 50 302 238
%%EndComments
%%BeginProlog
/gnudict 256 dict def
gnudict begin
%
% The following true/false flags may be edited by hand if desired.
% The unit line width and grayscale image gamma correction may also be changed.
%
/Color true def
/Blacktext false def
/Solid false def
/Dashlength 1 def
/Landscape false def
/Level1 false def
/Level3 false def
/Rounded false def
/ClipToBoundingBox false def
/SuppressPDFMark false def
/TransparentPatterns false def
/gnulinewidth 5.000 def
/userlinewidth gnulinewidth def
/Gamma 1.0 def
/BackgroundColor {-1.000 -1.000 -1.000} def
%
/vshift -66 def
/dl1 {
  10.0 Dashlength userlinewidth gnulinewidth div mul mul mul
  Rounded { currentlinewidth 0.75 mul sub dup 0 le { pop 0.01 } if } if
} def
/dl2 {
  10.0 Dashlength userlinewidth gnulinewidth div mul mul mul
  Rounded { currentlinewidth 0.75 mul add } if
} def
/hpt_ 31.5 def
/vpt_ 31.5 def
/hpt hpt_ def
/vpt vpt_ def
/doclip {
  ClipToBoundingBox {
    newpath 50 50 moveto 302 50 lineto 302 238 lineto 50 238 lineto closepath
    clip
  } if
} def
%
% Gnuplot Prolog Version 5.0 (Dec 2014)
%
%/SuppressPDFMark true def
%
/M {moveto} bind def
/L {lineto} bind def
/R {rmoveto} bind def
/V {rlineto} bind def
/N {newpath moveto} bind def
/Z {closepath} bind def
/C {setrgbcolor} bind def
/f {rlineto fill} bind def
/g {setgray} bind def
/Gshow {show} def   % May be redefined later in the file to support UTF-8
/vpt2 vpt 2 mul def
/hpt2 hpt 2 mul def
/Lshow {currentpoint stroke M 0 vshift R 
	Blacktext {gsave 0 setgray textshow grestore} {textshow} ifelse} def
/Rshow {currentpoint stroke M dup stringwidth pop neg vshift R
	Blacktext {gsave 0 setgray textshow grestore} {textshow} ifelse} def
/Cshow {currentpoint stroke M dup stringwidth pop -2 div vshift R 
	Blacktext {gsave 0 setgray textshow grestore} {textshow} ifelse} def
/UP {dup vpt_ mul /vpt exch def hpt_ mul /hpt exch def
  /hpt2 hpt 2 mul def /vpt2 vpt 2 mul def} def
/DL {Color {setrgbcolor Solid {pop []} if 0 setdash}
 {pop pop pop 0 setgray Solid {pop []} if 0 setdash} ifelse} def
/BL {stroke userlinewidth 2 mul setlinewidth
	Rounded {1 setlinejoin 1 setlinecap} if} def
/AL {stroke userlinewidth 2 div setlinewidth
	Rounded {1 setlinejoin 1 setlinecap} if} def
/UL {dup gnulinewidth mul /userlinewidth exch def
	dup 1 lt {pop 1} if 10 mul /udl exch def} def
/PL {stroke userlinewidth setlinewidth
	Rounded {1 setlinejoin 1 setlinecap} if} def
3.8 setmiterlimit
% Classic Line colors (version 5.0)
/LCw {1 1 1} def
/LCb {0 0 0} def
/LCa {0 0 0} def
/LC0 {1 0 0} def
/LC1 {0 1 0} def
/LC2 {0 0 1} def
/LC3 {1 0 1} def
/LC4 {0 1 1} def
/LC5 {1 1 0} def
/LC6 {0 0 0} def
/LC7 {1 0.3 0} def
/LC8 {0.5 0.5 0.5} def
% Default dash patterns (version 5.0)
/LTw {PL [] 1 setgray} def
/LTb {BL [] LCb DL} def
/LTa {AL [1 udl mul 2 udl mul] 0 setdash LCa setrgbcolor} def
/LT0 {PL [] LC0 DL} def
/LT1 {PL [2 dl1 3 dl2] LC1 DL} def
/LT2 {PL [1 dl1 1.5 dl2] LC2 DL} def
/LT3 {PL [6 dl1 2 dl2 1 dl1 2 dl2] LC3 DL} def
/LT4 {PL [1 dl1 2 dl2 6 dl1 2 dl2 1 dl1 2 dl2] LC4 DL} def
/LT5 {PL [4 dl1 2 dl2] LC5 DL} def
/LT6 {PL [1.5 dl1 1.5 dl2 1.5 dl1 1.5 dl2 1.5 dl1 6 dl2] LC6 DL} def
/LT7 {PL [3 dl1 3 dl2 1 dl1 3 dl2] LC7 DL} def
/LT8 {PL [2 dl1 2 dl2 2 dl1 6 dl2] LC8 DL} def
/SL {[] 0 setdash} def
/Pnt {stroke [] 0 setdash gsave 1 setlinecap M 0 0 V stroke grestore} def
/Dia {stroke [] 0 setdash 2 copy vpt add M
  hpt neg vpt neg V hpt vpt neg V
  hpt vpt V hpt neg vpt V closepath stroke
  Pnt} def
/Pls {stroke [] 0 setdash vpt sub M 0 vpt2 V
  currentpoint stroke M
  hpt neg vpt neg R hpt2 0 V stroke
 } def
/Box {stroke [] 0 setdash 2 copy exch hpt sub exch vpt add M
  0 vpt2 neg V hpt2 0 V 0 vpt2 V
  hpt2 neg 0 V closepath stroke
  Pnt} def
/Crs {stroke [] 0 setdash exch hpt sub exch vpt add M
  hpt2 vpt2 neg V currentpoint stroke M
  hpt2 neg 0 R hpt2 vpt2 V stroke} def
/TriU {stroke [] 0 setdash 2 copy vpt 1.12 mul add M
  hpt neg vpt -1.62 mul V
  hpt 2 mul 0 V
  hpt neg vpt 1.62 mul V closepath stroke
  Pnt} def
/Star {2 copy Pls Crs} def
/BoxF {stroke [] 0 setdash exch hpt sub exch vpt add M
  0 vpt2 neg V hpt2 0 V 0 vpt2 V
  hpt2 neg 0 V closepath fill} def
/TriUF {stroke [] 0 setdash vpt 1.12 mul add M
  hpt neg vpt -1.62 mul V
  hpt 2 mul 0 V
  hpt neg vpt 1.62 mul V closepath fill} def
/TriD {stroke [] 0 setdash 2 copy vpt 1.12 mul sub M
  hpt neg vpt 1.62 mul V
  hpt 2 mul 0 V
  hpt neg vpt -1.62 mul V closepath stroke
  Pnt} def
/TriDF {stroke [] 0 setdash vpt 1.12 mul sub M
  hpt neg vpt 1.62 mul V
  hpt 2 mul 0 V
  hpt neg vpt -1.62 mul V closepath fill} def
/DiaF {stroke [] 0 setdash vpt add M
  hpt neg vpt neg V hpt vpt neg V
  hpt vpt V hpt neg vpt V closepath fill} def
/Pent {stroke [] 0 setdash 2 copy gsave
  translate 0 hpt M 4 {72 rotate 0 hpt L} repeat
  closepath stroke grestore Pnt} def
/PentF {stroke [] 0 setdash gsave
  translate 0 hpt M 4 {72 rotate 0 hpt L} repeat
  closepath fill grestore} def
/Circle {stroke [] 0 setdash 2 copy
  hpt 0 360 arc stroke Pnt} def
/CircleF {stroke [] 0 setdash hpt 0 360 arc fill} def
/C0 {BL [] 0 setdash 2 copy moveto vpt 90 450 arc} bind def
/C1 {BL [] 0 setdash 2 copy moveto
	2 copy vpt 0 90 arc closepath fill
	vpt 0 360 arc closepath} bind def
/C2 {BL [] 0 setdash 2 copy moveto
	2 copy vpt 90 180 arc closepath fill
	vpt 0 360 arc closepath} bind def
/C3 {BL [] 0 setdash 2 copy moveto
	2 copy vpt 0 180 arc closepath fill
	vpt 0 360 arc closepath} bind def
/C4 {BL [] 0 setdash 2 copy moveto
	2 copy vpt 180 270 arc closepath fill
	vpt 0 360 arc closepath} bind def
/C5 {BL [] 0 setdash 2 copy moveto
	2 copy vpt 0 90 arc
	2 copy moveto
	2 copy vpt 180 270 arc closepath fill
	vpt 0 360 arc} bind def
/C6 {BL [] 0 setdash 2 copy moveto
	2 copy vpt 90 270 arc closepath fill
	vpt 0 360 arc closepath} bind def
/C7 {BL [] 0 setdash 2 copy moveto
	2 copy vpt 0 270 arc closepath fill
	vpt 0 360 arc closepath} bind def
/C8 {BL [] 0 setdash 2 copy moveto
	2 copy vpt 270 360 arc closepath fill
	vpt 0 360 arc closepath} bind def
/C9 {BL [] 0 setdash 2 copy moveto
	2 copy vpt 270 450 arc closepath fill
	vpt 0 360 arc closepath} bind def
/C10 {BL [] 0 setdash 2 copy 2 copy moveto vpt 270 360 arc closepath fill
	2 copy moveto
	2 copy vpt 90 180 arc closepath fill
	vpt 0 360 arc closepath} bind def
/C11 {BL [] 0 setdash 2 copy moveto
	2 copy vpt 0 180 arc closepath fill
	2 copy moveto
	2 copy vpt 270 360 arc closepath fill
	vpt 0 360 arc closepath} bind def
/C12 {BL [] 0 setdash 2 copy moveto
	2 copy vpt 180 360 arc closepath fill
	vpt 0 360 arc closepath} bind def
/C13 {BL [] 0 setdash 2 copy moveto
	2 copy vpt 0 90 arc closepath fill
	2 copy moveto
	2 copy vpt 180 360 arc closepath fill
	vpt 0 360 arc closepath} bind def
/C14 {BL [] 0 setdash 2 copy moveto
	2 copy vpt 90 360 arc closepath fill
	vpt 0 360 arc} bind def
/C15 {BL [] 0 setdash 2 copy vpt 0 360 arc closepath fill
	vpt 0 360 arc closepath} bind def
/Rec {newpath 4 2 roll moveto 1 index 0 rlineto 0 exch rlineto
	neg 0 rlineto closepath} bind def
/Square {dup Rec} bind def
/Bsquare {vpt sub exch vpt sub exch vpt2 Square} bind def
/S0 {BL [] 0 setdash 2 copy moveto 0 vpt rlineto BL Bsquare} bind def
/S1 {BL [] 0 setdash 2 copy vpt Square fill Bsquare} bind def
/S2 {BL [] 0 setdash 2 copy exch vpt sub exch vpt Square fill Bsquare} bind def
/S3 {BL [] 0 setdash 2 copy exch vpt sub exch vpt2 vpt Rec fill Bsquare} bind def
/S4 {BL [] 0 setdash 2 copy exch vpt sub exch vpt sub vpt Square fill Bsquare} bind def
/S5 {BL [] 0 setdash 2 copy 2 copy vpt Square fill
	exch vpt sub exch vpt sub vpt Square fill Bsquare} bind def
/S6 {BL [] 0 setdash 2 copy exch vpt sub exch vpt sub vpt vpt2 Rec fill Bsquare} bind def
/S7 {BL [] 0 setdash 2 copy exch vpt sub exch vpt sub vpt vpt2 Rec fill
	2 copy vpt Square fill Bsquare} bind def
/S8 {BL [] 0 setdash 2 copy vpt sub vpt Square fill Bsquare} bind def
/S9 {BL [] 0 setdash 2 copy vpt sub vpt vpt2 Rec fill Bsquare} bind def
/S10 {BL [] 0 setdash 2 copy vpt sub vpt Square fill 2 copy exch vpt sub exch vpt Square fill
	Bsquare} bind def
/S11 {BL [] 0 setdash 2 copy vpt sub vpt Square fill 2 copy exch vpt sub exch vpt2 vpt Rec fill
	Bsquare} bind def
/S12 {BL [] 0 setdash 2 copy exch vpt sub exch vpt sub vpt2 vpt Rec fill Bsquare} bind def
/S13 {BL [] 0 setdash 2 copy exch vpt sub exch vpt sub vpt2 vpt Rec fill
	2 copy vpt Square fill Bsquare} bind def
/S14 {BL [] 0 setdash 2 copy exch vpt sub exch vpt sub vpt2 vpt Rec fill
	2 copy exch vpt sub exch vpt Square fill Bsquare} bind def
/S15 {BL [] 0 setdash 2 copy Bsquare fill Bsquare} bind def
/D0 {gsave translate 45 rotate 0 0 S0 stroke grestore} bind def
/D1 {gsave translate 45 rotate 0 0 S1 stroke grestore} bind def
/D2 {gsave translate 45 rotate 0 0 S2 stroke grestore} bind def
/D3 {gsave translate 45 rotate 0 0 S3 stroke grestore} bind def
/D4 {gsave translate 45 rotate 0 0 S4 stroke grestore} bind def
/D5 {gsave translate 45 rotate 0 0 S5 stroke grestore} bind def
/D6 {gsave translate 45 rotate 0 0 S6 stroke grestore} bind def
/D7 {gsave translate 45 rotate 0 0 S7 stroke grestore} bind def
/D8 {gsave translate 45 rotate 0 0 S8 stroke grestore} bind def
/D9 {gsave translate 45 rotate 0 0 S9 stroke grestore} bind def
/D10 {gsave translate 45 rotate 0 0 S10 stroke grestore} bind def
/D11 {gsave translate 45 rotate 0 0 S11 stroke grestore} bind def
/D12 {gsave translate 45 rotate 0 0 S12 stroke grestore} bind def
/D13 {gsave translate 45 rotate 0 0 S13 stroke grestore} bind def
/D14 {gsave translate 45 rotate 0 0 S14 stroke grestore} bind def
/D15 {gsave translate 45 rotate 0 0 S15 stroke grestore} bind def
/DiaE {stroke [] 0 setdash vpt add M
  hpt neg vpt neg V hpt vpt neg V
  hpt vpt V hpt neg vpt V closepath stroke} def
/BoxE {stroke [] 0 setdash exch hpt sub exch vpt add M
  0 vpt2 neg V hpt2 0 V 0 vpt2 V
  hpt2 neg 0 V closepath stroke} def
/TriUE {stroke [] 0 setdash vpt 1.12 mul add M
  hpt neg vpt -1.62 mul V
  hpt 2 mul 0 V
  hpt neg vpt 1.62 mul V closepath stroke} def
/TriDE {stroke [] 0 setdash vpt 1.12 mul sub M
  hpt neg vpt 1.62 mul V
  hpt 2 mul 0 V
  hpt neg vpt -1.62 mul V closepath stroke} def
/PentE {stroke [] 0 setdash gsave
  translate 0 hpt M 4 {72 rotate 0 hpt L} repeat
  closepath stroke grestore} def
/CircE {stroke [] 0 setdash 
  hpt 0 360 arc stroke} def
/Opaque {gsave closepath 1 setgray fill grestore 0 setgray closepath} def
/DiaW {stroke [] 0 setdash vpt add M
  hpt neg vpt neg V hpt vpt neg V
  hpt vpt V hpt neg vpt V Opaque stroke} def
/BoxW {stroke [] 0 setdash exch hpt sub exch vpt add M
  0 vpt2 neg V hpt2 0 V 0 vpt2 V
  hpt2 neg 0 V Opaque stroke} def
/TriUW {stroke [] 0 setdash vpt 1.12 mul add M
  hpt neg vpt -1.62 mul V
  hpt 2 mul 0 V
  hpt neg vpt 1.62 mul V Opaque stroke} def
/TriDW {stroke [] 0 setdash vpt 1.12 mul sub M
  hpt neg vpt 1.62 mul V
  hpt 2 mul 0 V
  hpt neg vpt -1.62 mul V Opaque stroke} def
/PentW {stroke [] 0 setdash gsave
  translate 0 hpt M 4 {72 rotate 0 hpt L} repeat
  Opaque stroke grestore} def
/CircW {stroke [] 0 setdash 
  hpt 0 360 arc Opaque stroke} def
/BoxFill {gsave Rec 1 setgray fill grestore} def
/Density {
  /Fillden exch def
  currentrgbcolor
  /ColB exch def /ColG exch def /ColR exch def
  /ColR ColR Fillden mul Fillden sub 1 add def
  /ColG ColG Fillden mul Fillden sub 1 add def
  /ColB ColB Fillden mul Fillden sub 1 add def
  ColR ColG ColB setrgbcolor} def
/BoxColFill {gsave Rec PolyFill} def
/PolyFill {gsave Density fill grestore grestore} def
/h {rlineto rlineto rlineto gsave closepath fill grestore} bind def
%
% PostScript Level 1 Pattern Fill routine for rectangles
% Usage: x y w h s a XX PatternFill
%	x,y = lower left corner of box to be filled
%	w,h = width and height of box
%	  a = angle in degrees between lines and x-axis
%	 XX = 0/1 for no/yes cross-hatch
%
/PatternFill {gsave /PFa [ 9 2 roll ] def
  PFa 0 get PFa 2 get 2 div add PFa 1 get PFa 3 get 2 div add translate
  PFa 2 get -2 div PFa 3 get -2 div PFa 2 get PFa 3 get Rec
  TransparentPatterns {} {gsave 1 setgray fill grestore} ifelse
  clip
  currentlinewidth 0.5 mul setlinewidth
  /PFs PFa 2 get dup mul PFa 3 get dup mul add sqrt def
  0 0 M PFa 5 get rotate PFs -2 div dup translate
  0 1 PFs PFa 4 get div 1 add floor cvi
	{PFa 4 get mul 0 M 0 PFs V} for
  0 PFa 6 get ne {
	0 1 PFs PFa 4 get div 1 add floor cvi
	{PFa 4 get mul 0 2 1 roll M PFs 0 V} for
 } if
  stroke grestore} def
%
/languagelevel where
 {pop languagelevel} {1} ifelse
dup 2 lt
	{/InterpretLevel1 true def
	 /InterpretLevel3 false def}
	{/InterpretLevel1 Level1 def
	 2 gt
	    {/InterpretLevel3 Level3 def}
	    {/InterpretLevel3 false def}
	 ifelse }
 ifelse
%
% PostScript level 2 pattern fill definitions
%
/Level2PatternFill {
/Tile8x8 {/PaintType 2 /PatternType 1 /TilingType 1 /BBox [0 0 8 8] /XStep 8 /YStep 8}
	bind def
/KeepColor {currentrgbcolor [/Pattern /DeviceRGB] setcolorspace} bind def
<< Tile8x8
 /PaintProc {0.5 setlinewidth pop 0 0 M 8 8 L 0 8 M 8 0 L stroke} 
>> matrix makepattern
/Pat1 exch def
<< Tile8x8
 /PaintProc {0.5 setlinewidth pop 0 0 M 8 8 L 0 8 M 8 0 L stroke
	0 4 M 4 8 L 8 4 L 4 0 L 0 4 L stroke}
>> matrix makepattern
/Pat2 exch def
<< Tile8x8
 /PaintProc {0.5 setlinewidth pop 0 0 M 0 8 L
	8 8 L 8 0 L 0 0 L fill}
>> matrix makepattern
/Pat3 exch def
<< Tile8x8
 /PaintProc {0.5 setlinewidth pop -4 8 M 8 -4 L
	0 12 M 12 0 L stroke}
>> matrix makepattern
/Pat4 exch def
<< Tile8x8
 /PaintProc {0.5 setlinewidth pop -4 0 M 8 12 L
	0 -4 M 12 8 L stroke}
>> matrix makepattern
/Pat5 exch def
<< Tile8x8
 /PaintProc {0.5 setlinewidth pop -2 8 M 4 -4 L
	0 12 M 8 -4 L 4 12 M 10 0 L stroke}
>> matrix makepattern
/Pat6 exch def
<< Tile8x8
 /PaintProc {0.5 setlinewidth pop -2 0 M 4 12 L
	0 -4 M 8 12 L 4 -4 M 10 8 L stroke}
>> matrix makepattern
/Pat7 exch def
<< Tile8x8
 /PaintProc {0.5 setlinewidth pop 8 -2 M -4 4 L
	12 0 M -4 8 L 12 4 M 0 10 L stroke}
>> matrix makepattern
/Pat8 exch def
<< Tile8x8
 /PaintProc {0.5 setlinewidth pop 0 -2 M 12 4 L
	-4 0 M 12 8 L -4 4 M 8 10 L stroke}
>> matrix makepattern
/Pat9 exch def
/Pattern1 {PatternBgnd KeepColor Pat1 setpattern} bind def
/Pattern2 {PatternBgnd KeepColor Pat2 setpattern} bind def
/Pattern3 {PatternBgnd KeepColor Pat3 setpattern} bind def
/Pattern4 {PatternBgnd KeepColor Landscape {Pat5} {Pat4} ifelse setpattern} bind def
/Pattern5 {PatternBgnd KeepColor Landscape {Pat4} {Pat5} ifelse setpattern} bind def
/Pattern6 {PatternBgnd KeepColor Landscape {Pat9} {Pat6} ifelse setpattern} bind def
/Pattern7 {PatternBgnd KeepColor Landscape {Pat8} {Pat7} ifelse setpattern} bind def
} def
%
%
%End of PostScript Level 2 code
%
/PatternBgnd {
  TransparentPatterns {} {gsave 1 setgray fill grestore} ifelse
} def
%
% Substitute for Level 2 pattern fill codes with
% grayscale if Level 2 support is not selected.
%
/Level1PatternFill {
/Pattern1 {0.250 Density} bind def
/Pattern2 {0.500 Density} bind def
/Pattern3 {0.750 Density} bind def
/Pattern4 {0.125 Density} bind def
/Pattern5 {0.375 Density} bind def
/Pattern6 {0.625 Density} bind def
/Pattern7 {0.875 Density} bind def
} def
%
% Now test for support of Level 2 code
%
Level1 {Level1PatternFill} {Level2PatternFill} ifelse
%
/Symbol-Oblique /Symbol findfont [1 0 .167 1 0 0] makefont
dup length dict begin {1 index /FID eq {pop pop} {def} ifelse} forall
currentdict end definefont pop
%
/MFshow {
   { dup 5 get 3 ge
     { 5 get 3 eq {gsave} {grestore} ifelse }
     {dup dup 0 get findfont exch 1 get scalefont setfont
     [ currentpoint ] exch dup 2 get 0 exch R dup 5 get 2 ne {dup dup 6
     get exch 4 get {textshow} {stringwidth pop 0 R} ifelse }if dup 5 get 0 eq
     {dup 3 get {2 get neg 0 exch R pop} {pop aload pop M} ifelse} {dup 5
     get 1 eq {dup 2 get exch dup 3 get exch 6 get stringwidth pop -2 div
     dup 0 R} {dup 6 get stringwidth pop -2 div 0 R 6 get
     textshow 2 index {aload pop M neg 3 -1 roll neg R pop pop} {pop pop pop
     pop aload pop M} ifelse }ifelse }ifelse }
     ifelse }
   forall} def
/Gswidth {dup type /stringtype eq {stringwidth} {pop (n) stringwidth} ifelse} def
/MFwidth {0 exch { dup 5 get 3 ge { 5 get 3 eq { 0 } { pop } ifelse }
 {dup 3 get{dup dup 0 get findfont exch 1 get scalefont setfont
     6 get Gswidth pop add} {pop} ifelse} ifelse} forall} def
/MLshow { currentpoint stroke M
  0 exch R
  Blacktext {gsave 0 setgray MFshow grestore} {MFshow} ifelse } bind def
/MRshow { currentpoint stroke M
  exch dup MFwidth neg 3 -1 roll R
  Blacktext {gsave 0 setgray MFshow grestore} {MFshow} ifelse } bind def
/MCshow { currentpoint stroke M
  exch dup MFwidth -2 div 3 -1 roll R
  Blacktext {gsave 0 setgray MFshow grestore} {MFshow} ifelse } bind def
/XYsave    { [( ) 1 2 true false 3 ()] } bind def
/XYrestore { [( ) 1 2 true false 4 ()] } bind def
Level1 SuppressPDFMark or 
{} {
/SDict 10 dict def
systemdict /pdfmark known not {
  userdict /pdfmark systemdict /cleartomark get put
} if
SDict begin [
  /Title (max.eps)
  /Subject (gnuplot plot)
  /Creator (gnuplot 5.0 patchlevel 1)
  /Author (gaumont)
%  /Producer (gnuplot)
%  /Keywords ()
  /CreationDate (Fri Oct 30 18:57:07 2015)
  /DOCINFO pdfmark
end
} ifelse
end
%
% Support for boxed text - Ethan A Merritt May 2005
%
/InitTextBox { userdict /TBy2 3 -1 roll put userdict /TBx2 3 -1 roll put
           userdict /TBy1 3 -1 roll put userdict /TBx1 3 -1 roll put
	   /Boxing true def } def
/ExtendTextBox { Boxing
    { gsave dup false charpath pathbbox
      dup TBy2 gt {userdict /TBy2 3 -1 roll put} {pop} ifelse
      dup TBx2 gt {userdict /TBx2 3 -1 roll put} {pop} ifelse
      dup TBy1 lt {userdict /TBy1 3 -1 roll put} {pop} ifelse
      dup TBx1 lt {userdict /TBx1 3 -1 roll put} {pop} ifelse
      grestore } if } def
/PopTextBox { newpath TBx1 TBxmargin sub TBy1 TBymargin sub M
               TBx1 TBxmargin sub TBy2 TBymargin add L
	       TBx2 TBxmargin add TBy2 TBymargin add L
	       TBx2 TBxmargin add TBy1 TBymargin sub L closepath } def
/DrawTextBox { PopTextBox stroke /Boxing false def} def
/FillTextBox { gsave PopTextBox 1 1 1 setrgbcolor fill grestore /Boxing false def} def
0 0 0 0 InitTextBox
/TBxmargin 20 def
/TBymargin 20 def
/Boxing false def
/textshow { ExtendTextBox Gshow } def
%
%%EndProlog
%%Page: 1 1
gnudict begin
gsave
doclip
50 50 translate
0.050 0.050 scale
0 setgray
newpath
(Helvetica) findfont 200 scalefont setfont
BackgroundColor 0 lt 3 1 roll 0 lt exch 0 lt or or not {BackgroundColor C 1.000 0 0 5040.00 3772.00 BoxColFill} if
1.000 UL
LTb
LCb setrgbcolor
860 640 M
63 0 V
3756 0 R
-63 0 V
stroke
740 640 M
[ [(Helvetica) 200.0 0.0 true true 0 (10)]
[(Helvetica) 160.0 100.0 true true 0 (-7)]
] -86.7 MRshow
1.000 UL
LTb
LCb setrgbcolor
860 785 M
31 0 V
3788 0 R
-31 0 V
860 977 M
31 0 V
3788 0 R
-31 0 V
860 1075 M
31 0 V
3788 0 R
-31 0 V
860 1122 M
63 0 V
3756 0 R
-63 0 V
stroke
740 1122 M
[ [(Helvetica) 200.0 0.0 true true 0 (10)]
[(Helvetica) 160.0 100.0 true true 0 (-6)]
] -86.7 MRshow
1.000 UL
LTb
LCb setrgbcolor
860 1267 M
31 0 V
3788 0 R
-31 0 V
860 1459 M
31 0 V
3788 0 R
-31 0 V
860 1557 M
31 0 V
3788 0 R
-31 0 V
860 1604 M
63 0 V
3756 0 R
-63 0 V
stroke
740 1604 M
[ [(Helvetica) 200.0 0.0 true true 0 (10)]
[(Helvetica) 160.0 100.0 true true 0 (-5)]
] -86.7 MRshow
1.000 UL
LTb
LCb setrgbcolor
860 1749 M
31 0 V
3788 0 R
-31 0 V
860 1940 M
31 0 V
3788 0 R
-31 0 V
860 2039 M
31 0 V
3788 0 R
-31 0 V
860 2086 M
63 0 V
3756 0 R
-63 0 V
stroke
740 2086 M
[ [(Helvetica) 200.0 0.0 true true 0 (10)]
[(Helvetica) 160.0 100.0 true true 0 (-4)]
] -86.7 MRshow
1.000 UL
LTb
LCb setrgbcolor
860 2231 M
31 0 V
3788 0 R
-31 0 V
860 2422 M
31 0 V
3788 0 R
-31 0 V
860 2521 M
31 0 V
3788 0 R
-31 0 V
860 2567 M
63 0 V
3756 0 R
-63 0 V
stroke
740 2567 M
[ [(Helvetica) 200.0 0.0 true true 0 (10)]
[(Helvetica) 160.0 100.0 true true 0 (-3)]
] -86.7 MRshow
1.000 UL
LTb
LCb setrgbcolor
860 2712 M
31 0 V
3788 0 R
-31 0 V
860 2904 M
31 0 V
3788 0 R
-31 0 V
860 3002 M
31 0 V
3788 0 R
-31 0 V
860 3049 M
63 0 V
3756 0 R
-63 0 V
stroke
740 3049 M
[ [(Helvetica) 200.0 0.0 true true 0 (10)]
[(Helvetica) 160.0 100.0 true true 0 (-2)]
] -86.7 MRshow
1.000 UL
LTb
LCb setrgbcolor
860 3194 M
31 0 V
3788 0 R
-31 0 V
860 3386 M
31 0 V
3788 0 R
-31 0 V
860 3484 M
31 0 V
3788 0 R
-31 0 V
860 3531 M
63 0 V
3756 0 R
-63 0 V
stroke
740 3531 M
[ [(Helvetica) 200.0 0.0 true true 0 (10)]
[(Helvetica) 160.0 100.0 true true 0 (-1)]
] -86.7 MRshow
1.000 UL
LTb
LCb setrgbcolor
860 640 M
0 63 V
0 2828 R
0 -63 V
stroke
860 440 M
[ [(Helvetica) 200.0 0.0 true true 0 (10)]
[(Helvetica) 160.0 100.0 true true 0 (-7)]
] -86.7 MCshow
1.000 UL
LTb
LCb setrgbcolor
1052 640 M
0 31 V
0 2860 R
0 -31 V
1305 640 M
0 31 V
0 2860 R
0 -31 V
1435 640 M
0 31 V
0 2860 R
0 -31 V
1497 640 M
0 63 V
0 2828 R
0 -63 V
stroke
1497 440 M
[ [(Helvetica) 200.0 0.0 true true 0 (10)]
[(Helvetica) 160.0 100.0 true true 0 (-6)]
] -86.7 MCshow
1.000 UL
LTb
LCb setrgbcolor
1688 640 M
0 31 V
0 2860 R
0 -31 V
1941 640 M
0 31 V
0 2860 R
0 -31 V
2071 640 M
0 31 V
0 2860 R
0 -31 V
2133 640 M
0 63 V
0 2828 R
0 -63 V
stroke
2133 440 M
[ [(Helvetica) 200.0 0.0 true true 0 (10)]
[(Helvetica) 160.0 100.0 true true 0 (-5)]
] -86.7 MCshow
1.000 UL
LTb
LCb setrgbcolor
2325 640 M
0 31 V
0 2860 R
0 -31 V
2578 640 M
0 31 V
0 2860 R
0 -31 V
2708 640 M
0 31 V
0 2860 R
0 -31 V
2770 640 M
0 63 V
0 2828 R
0 -63 V
stroke
2770 440 M
[ [(Helvetica) 200.0 0.0 true true 0 (10)]
[(Helvetica) 160.0 100.0 true true 0 (-4)]
] -86.7 MCshow
1.000 UL
LTb
LCb setrgbcolor
2961 640 M
0 31 V
0 2860 R
0 -31 V
3214 640 M
0 31 V
0 2860 R
0 -31 V
3344 640 M
0 31 V
0 2860 R
0 -31 V
3406 640 M
0 63 V
0 2828 R
0 -63 V
stroke
3406 440 M
[ [(Helvetica) 200.0 0.0 true true 0 (10)]
[(Helvetica) 160.0 100.0 true true 0 (-3)]
] -86.7 MCshow
1.000 UL
LTb
LCb setrgbcolor
3598 640 M
0 31 V
0 2860 R
0 -31 V
3851 640 M
0 31 V
0 2860 R
0 -31 V
3981 640 M
0 31 V
0 2860 R
0 -31 V
4043 640 M
0 63 V
0 2828 R
0 -63 V
stroke
4043 440 M
[ [(Helvetica) 200.0 0.0 true true 0 (10)]
[(Helvetica) 160.0 100.0 true true 0 (-2)]
] -86.7 MCshow
1.000 UL
LTb
LCb setrgbcolor
4234 640 M
0 31 V
0 2860 R
0 -31 V
4487 640 M
0 31 V
0 2860 R
0 -31 V
4617 640 M
0 31 V
0 2860 R
0 -31 V
4679 640 M
0 63 V
0 2828 R
0 -63 V
stroke
4679 440 M
[ [(Helvetica) 200.0 0.0 true true 0 (10)]
[(Helvetica) 160.0 100.0 true true 0 (-1)]
] -86.7 MCshow
1.000 UL
LTb
LCb setrgbcolor
1.000 UL
LTb
LCb setrgbcolor
860 3531 N
860 640 L
3819 0 V
0 2891 V
-3819 0 V
Z stroke
0.500 UP
1.000 UL
LTb
LCb setrgbcolor
LCb setrgbcolor
160 2085 M
currentpoint gsave translate -270 rotate 0 0 moveto
[ [(Helvetica) 200.0 0.0 true true 0 (Max inter-thread density)]
] -66.7 MCshow
grestore
LTb
LCb setrgbcolor
2769 140 M
[ [(Helvetica) 200.0 0.0 true true 0 (Intra-thread density)]
] -66.7 MCshow
LTb
% Begin plot #1
0.500 UP
0.500 UL
LTb
0.82 0.11 0.02 C 2447 1939 Pls
2781 2129 Pls
2730 2246 Pls
2477 1985 Pls
1319 1420 Pls
1996 1960 Pls
1545 1432 Pls
1733 1887 Pls
2114 1712 Pls
2824 2140 Pls
2260 1768 Pls
2532 1917 Pls
2250 1845 Pls
1872 1726 Pls
2455 1861 Pls
1009 1524 Pls
2606 2125 Pls
2317 1862 Pls
2002 1692 Pls
2081 1854 Pls
2286 1862 Pls
2436 2176 Pls
2554 1989 Pls
2145 1962 Pls
3133 2427 Pls
2379 1808 Pls
3250 2535 Pls
2408 2038 Pls
2315 2101 Pls
2319 1795 Pls
2164 1861 Pls
2805 2125 Pls
2850 2155 Pls
2734 2085 Pls
2130 1735 Pls
2301 1731 Pls
2933 2474 Pls
3033 2506 Pls
2429 1994 Pls
1796 1672 Pls
2710 2143 Pls
2184 1750 Pls
2387 1996 Pls
2386 1838 Pls
1978 1585 Pls
2234 1836 Pls
2591 2036 Pls
2586 1978 Pls
2663 2031 Pls
2281 2172 Pls
2124 1757 Pls
3168 2433 Pls
1823 1654 Pls
2516 1915 Pls
2397 1866 Pls
2584 1958 Pls
2638 2007 Pls
2291 1829 Pls
2661 2051 Pls
2364 1900 Pls
2045 1693 Pls
2319 1786 Pls
2740 2415 Pls
2023 1645 Pls
2851 2162 Pls
2107 1801 Pls
2324 2204 Pls
2282 1884 Pls
2601 2412 Pls
3088 2331 Pls
2443 1957 Pls
2320 1806 Pls
2325 1773 Pls
2017 1648 Pls
2674 2042 Pls
2370 1884 Pls
2906 2218 Pls
1923 1535 Pls
2392 1988 Pls
2996 2282 Pls
2531 1925 Pls
2518 1925 Pls
1824 1746 Pls
2243 1926 Pls
2812 2124 Pls
2639 2154 Pls
2040 1714 Pls
3070 2328 Pls
1952 1804 Pls
2614 2022 Pls
2430 1993 Pls
2665 2316 Pls
2673 2173 Pls
2031 1873 Pls
2558 2120 Pls
2463 1899 Pls
2627 2206 Pls
2495 1888 Pls
2397 1968 Pls
3448 2778 Pls
2462 1963 Pls
2996 2376 Pls
2553 2109 Pls
2508 1917 Pls
2158 1778 Pls
2285 2211 Pls
2469 1890 Pls
2442 1856 Pls
3041 2366 Pls
2344 1798 Pls
2310 1820 Pls
2024 2089 Pls
2828 2323 Pls
2521 1902 Pls
2575 2334 Pls
2238 1907 Pls
2789 2107 Pls
2929 2362 Pls
2186 1897 Pls
2160 1877 Pls
2805 2138 Pls
2095 1894 Pls
3320 2526 Pls
2335 1917 Pls
2699 2171 Pls
2582 2063 Pls
2793 2144 Pls
2893 2367 Pls
3245 2478 Pls
2318 1887 Pls
2477 2240 Pls
2056 1949 Pls
2630 2062 Pls
2749 2210 Pls
2352 1824 Pls
1842 1699 Pls
2981 2254 Pls
2415 1856 Pls
2407 1838 Pls
2579 1961 Pls
2253 1824 Pls
2911 2326 Pls
2500 2027 Pls
2804 2116 Pls
2836 2145 Pls
2002 1661 Pls
2567 1951 Pls
2957 2262 Pls
2315 1898 Pls
2539 2291 Pls
2133 1744 Pls
2602 2057 Pls
2419 1934 Pls
2429 1958 Pls
2300 1953 Pls
2145 1807 Pls
2910 2193 Pls
2457 1997 Pls
2302 2110 Pls
2506 1932 Pls
2400 1807 Pls
1892 1841 Pls
2969 2262 Pls
2443 1884 Pls
2631 2039 Pls
2269 2080 Pls
2751 2081 Pls
2168 1837 Pls
2240 1847 Pls
2416 1843 Pls
2895 2198 Pls
2446 1847 Pls
1453 1669 Pls
2475 1889 Pls
2729 2087 Pls
2497 2110 Pls
2440 1895 Pls
2288 1767 Pls
2517 1974 Pls
2367 1895 Pls
2193 1694 Pls
2299 2031 Pls
1899 1525 Pls
2533 2007 Pls
3105 2345 Pls
1844 1717 Pls
2639 2141 Pls
2719 2161 Pls
1646 1632 Pls
2700 2370 Pls
2302 1774 Pls
2681 2377 Pls
2670 2025 Pls
2510 2005 Pls
2224 1809 Pls
3377 2687 Pls
2386 2260 Pls
2086 1583 Pls
2337 1793 Pls
2537 1910 Pls
2437 1864 Pls
2451 1946 Pls
2115 1768 Pls
2322 1965 Pls
2389 1895 Pls
2447 1910 Pls
2574 2103 Pls
2032 1610 Pls
2074 1667 Pls
2585 2122 Pls
2636 2185 Pls
2334 1827 Pls
2615 2063 Pls
3438 2687 Pls
2715 2101 Pls
2313 1809 Pls
2031 1713 Pls
3002 2506 Pls
2587 2224 Pls
1753 1900 Pls
2158 2081 Pls
2682 2154 Pls
2105 1688 Pls
2213 1902 Pls
2860 2165 Pls
2563 1991 Pls
2485 1937 Pls
2443 1860 Pls
2328 1807 Pls
2346 2044 Pls
2813 2135 Pls
2493 1889 Pls
2513 1958 Pls
2350 1888 Pls
2417 1841 Pls
2582 2141 Pls
2651 2175 Pls
2169 1821 Pls
2272 1853 Pls
2299 1817 Pls
2482 1871 Pls
2576 1940 Pls
1783 1883 Pls
2176 1868 Pls
2144 1693 Pls
2709 2042 Pls
2613 2043 Pls
2421 1961 Pls
2231 1860 Pls
2143 1637 Pls
2405 1960 Pls
2239 1847 Pls
2587 2395 Pls
2483 1885 Pls
1955 1704 Pls
2409 2317 Pls
2481 1873 Pls
2025 2056 Pls
2091 1880 Pls
2205 1699 Pls
2877 2257 Pls
2734 2156 Pls
2320 1779 Pls
2691 2062 Pls
2269 2197 Pls
2097 1728 Pls
2830 2197 Pls
2223 1678 Pls
2319 1901 Pls
2113 1593 Pls
3033 2524 Pls
1508 1611 Pls
2193 2061 Pls
2339 1784 Pls
2596 1962 Pls
2611 2116 Pls
2508 1920 Pls
2335 2131 Pls
2496 2070 Pls
2593 2000 Pls
2480 1935 Pls
1626 1392 Pls
2431 1945 Pls
2574 2024 Pls
2487 1950 Pls
2291 1981 Pls
2536 1991 Pls
2453 1893 Pls
2182 2034 Pls
2846 2393 Pls
2644 2085 Pls
2727 2146 Pls
2157 2167 Pls
2659 2098 Pls
2581 2329 Pls
1846 1792 Pls
2709 2219 Pls
2455 2189 Pls
2530 2053 Pls
1705 1686 Pls
2366 1806 Pls
2854 2271 Pls
2259 1861 Pls
1780 1491 Pls
2673 2146 Pls
2733 2077 Pls
2493 1892 Pls
2858 2429 Pls
2571 1989 Pls
2817 2161 Pls
2625 2000 Pls
2580 2412 Pls
2139 1783 Pls
2187 1881 Pls
2585 2128 Pls
2231 1823 Pls
2311 1944 Pls
2491 1906 Pls
2751 2256 Pls
2572 1994 Pls
2616 1973 Pls
2327 1752 Pls
3026 2496 Pls
2446 2206 Pls
2703 2102 Pls
2738 2348 Pls
2022 1691 Pls
2607 2034 Pls
1739 1833 Pls
2758 2192 Pls
3042 2426 Pls
2761 2101 Pls
2674 2152 Pls
2775 2504 Pls
2781 2305 Pls
2589 2085 Pls
2308 1804 Pls
2822 2198 Pls
2290 1928 Pls
2639 2128 Pls
1810 1798 Pls
3071 2478 Pls
2546 1932 Pls
2378 1956 Pls
2962 2305 Pls
2146 1744 Pls
2884 2275 Pls
2128 1660 Pls
2514 2017 Pls
2284 1837 Pls
2271 1895 Pls
2301 1759 Pls
2166 1767 Pls
2625 2109 Pls
2611 2201 Pls
2284 1941 Pls
2174 2083 Pls
2454 2188 Pls
2339 1811 Pls
1865 1697 Pls
2783 2178 Pls
2310 1907 Pls
2837 2207 Pls
2557 1962 Pls
2004 1630 Pls
2611 2078 Pls
2028 1674 Pls
2189 1762 Pls
2318 1829 Pls
2287 1896 Pls
2575 2058 Pls
2622 2140 Pls
1680 1694 Pls
2665 2457 Pls
2634 2068 Pls
2454 1974 Pls
2661 2048 Pls
2441 1881 Pls
2412 2157 Pls
3186 2522 Pls
2690 2072 Pls
2769 2120 Pls
2635 1992 Pls
2392 1890 Pls
2346 1960 Pls
2853 2171 Pls
1949 1561 Pls
2365 1839 Pls
2522 1903 Pls
2326 2135 Pls
2459 1910 Pls
2873 2363 Pls
2289 1762 Pls
2282 1763 Pls
2499 1891 Pls
1944 1707 Pls
3088 2402 Pls
2528 2001 Pls
2844 2519 Pls
2551 1936 Pls
2348 1782 Pls
2462 1877 Pls
2241 2046 Pls
2470 1860 Pls
% End plot #1
% Begin plot #2
0.500 UP
0.500 UL
LTb
0.73 0.85 0.33 C 3659 2049 Crs
3363 2081 Crs
4298 2203 Crs
2940 1934 Crs
3445 1779 Crs
3179 1765 Crs
3207 1920 Crs
3228 1970 Crs
2975 1952 Crs
3053 1709 Crs
3132 1919 Crs
2884 1534 Crs
3419 2191 Crs
3583 2048 Crs
3026 1896 Crs
3227 1995 Crs
2966 1836 Crs
3655 1939 Crs
3260 2029 Crs
3116 2203 Crs
3148 2073 Crs
2751 1997 Crs
2785 1830 Crs
3217 2069 Crs
2927 1920 Crs
2840 1947 Crs
3083 1830 Crs
2440 1646 Crs
2601 1800 Crs
3527 1893 Crs
2738 1969 Crs
3435 1860 Crs
2722 1840 Crs
3625 2056 Crs
2953 1775 Crs
3442 2149 Crs
3128 2110 Crs
2999 2011 Crs
2950 1996 Crs
3625 1740 Crs
3081 2122 Crs
2853 2042 Crs
2544 1798 Crs
3150 1948 Crs
3161 2089 Crs
2683 1744 Crs
2526 1819 Crs
2550 1881 Crs
3114 1986 Crs
3836 2124 Crs
2852 1910 Crs
3412 2204 Crs
2891 1815 Crs
3594 2116 Crs
2833 1906 Crs
3013 1800 Crs
2935 1881 Crs
3385 1870 Crs
2896 1705 Crs
2567 1887 Crs
2644 1898 Crs
3033 1830 Crs
3548 1815 Crs
2813 2080 Crs
3524 2127 Crs
2804 1596 Crs
3054 1830 Crs
3723 2148 Crs
3730 2068 Crs
3330 1972 Crs
2747 2051 Crs
3143 1835 Crs
2761 1768 Crs
2519 1783 Crs
2615 1745 Crs
2878 1729 Crs
3006 2043 Crs
3049 1787 Crs
2826 1963 Crs
3223 1908 Crs
3231 1969 Crs
4082 2039 Crs
3527 1960 Crs
3193 1829 Crs
2973 2058 Crs
2470 1690 Crs
3124 1717 Crs
3257 1978 Crs
3501 2397 Crs
2944 1782 Crs
2797 1708 Crs
2933 1906 Crs
3367 2132 Crs
3072 2166 Crs
3299 2140 Crs
3361 1949 Crs
3487 2068 Crs
2457 1750 Crs
3286 2130 Crs
3108 2020 Crs
2830 1988 Crs
3404 2076 Crs
2547 1806 Crs
2378 1747 Crs
3116 1709 Crs
3088 1883 Crs
3184 1983 Crs
2604 1593 Crs
3295 2113 Crs
3136 1923 Crs
3569 2078 Crs
3141 1741 Crs
2815 1866 Crs
2904 1991 Crs
2407 1809 Crs
2994 2012 Crs
3593 1840 Crs
3406 2017 Crs
3088 1895 Crs
3140 1992 Crs
3325 2099 Crs
2435 1722 Crs
3716 2152 Crs
3865 2205 Crs
3234 1859 Crs
2650 1653 Crs
2383 1729 Crs
2680 1906 Crs
2719 1855 Crs
2641 1704 Crs
3718 1925 Crs
3138 1918 Crs
2792 1946 Crs
2866 1830 Crs
2697 1769 Crs
3170 1765 Crs
4022 2236 Crs
3243 1985 Crs
3235 1858 Crs
3260 2239 Crs
3344 1930 Crs
2702 1893 Crs
2790 1479 Crs
2962 2003 Crs
3087 1995 Crs
2859 1926 Crs
3047 1920 Crs
3215 2106 Crs
2732 1896 Crs
3061 2075 Crs
3259 2220 Crs
3672 1694 Crs
3276 1987 Crs
2914 1794 Crs
2892 1837 Crs
3090 1824 Crs
2916 2057 Crs
2542 1636 Crs
3594 1792 Crs
3182 1897 Crs
3365 1767 Crs
3069 1621 Crs
3000 1925 Crs
2858 1808 Crs
3143 1932 Crs
2842 1999 Crs
2915 2139 Crs
3578 2431 Crs
2780 1801 Crs
3068 1714 Crs
2997 1990 Crs
3498 1809 Crs
2791 1804 Crs
3199 2007 Crs
3133 2238 Crs
3272 1891 Crs
2973 1828 Crs
3184 2040 Crs
3062 1863 Crs
3059 1733 Crs
3919 2296 Crs
2880 1848 Crs
2478 1613 Crs
3044 1652 Crs
3273 1811 Crs
2564 1746 Crs
3422 1913 Crs
2491 1856 Crs
2791 1829 Crs
3054 2113 Crs
3430 2111 Crs
2530 1719 Crs
2224 1651 Crs
3173 1879 Crs
2967 1871 Crs
2922 1688 Crs
2697 1644 Crs
2397 1638 Crs
3287 2154 Crs
3340 1884 Crs
3552 1989 Crs
2611 1596 Crs
3134 2021 Crs
3145 1849 Crs
4024 2086 Crs
2926 1886 Crs
3094 2023 Crs
2954 1959 Crs
2912 2009 Crs
2974 1959 Crs
3625 2097 Crs
3020 1814 Crs
2633 1750 Crs
3459 1788 Crs
3161 1819 Crs
3112 2096 Crs
3276 1815 Crs
2898 1952 Crs
4226 1875 Crs
3575 1796 Crs
3099 1979 Crs
3340 1904 Crs
4060 1793 Crs
3108 2010 Crs
3556 1892 Crs
3156 2002 Crs
2727 1887 Crs
3177 1928 Crs
2889 1637 Crs
2763 1858 Crs
3161 2070 Crs
3226 2015 Crs
3458 1885 Crs
3151 1812 Crs
2697 2014 Crs
3232 1670 Crs
2986 1979 Crs
2681 1833 Crs
3185 1813 Crs
3557 1887 Crs
2498 1837 Crs
3712 2194 Crs
2616 1714 Crs
3116 1879 Crs
2974 1913 Crs
3613 2245 Crs
2730 2013 Crs
3095 1921 Crs
2876 1913 Crs
3094 1917 Crs
2900 2054 Crs
3763 1930 Crs
3326 1909 Crs
3154 1950 Crs
2799 2050 Crs
3072 1847 Crs
3312 2326 Crs
3172 1820 Crs
2971 1929 Crs
2907 1816 Crs
3238 1899 Crs
3182 1872 Crs
2938 1784 Crs
3424 1891 Crs
2607 1661 Crs
3166 1803 Crs
2713 1947 Crs
3433 1755 Crs
2295 1471 Crs
3005 1883 Crs
2912 2133 Crs
2555 1728 Crs
2805 1887 Crs
3175 2075 Crs
2619 1621 Crs
2734 1952 Crs
3251 2085 Crs
3088 2088 Crs
2830 1898 Crs
4122 1886 Crs
3037 1641 Crs
3704 2029 Crs
2732 1901 Crs
3583 2177 Crs
2616 1782 Crs
3031 1864 Crs
4204 2017 Crs
2918 1745 Crs
2536 1811 Crs
3173 1863 Crs
3078 1736 Crs
4074 2547 Crs
3436 1973 Crs
3129 2031 Crs
2614 1782 Crs
3331 1969 Crs
2993 1945 Crs
2867 1953 Crs
3000 1976 Crs
3643 1976 Crs
3055 2005 Crs
2811 1846 Crs
2716 1900 Crs
3325 1981 Crs
3281 1835 Crs
3115 1769 Crs
3131 1744 Crs
3179 2048 Crs
3357 2056 Crs
3718 1953 Crs
2961 1888 Crs
3021 1855 Crs
3281 2063 Crs
2914 1848 Crs
2905 1804 Crs
3416 1684 Crs
3138 1912 Crs
2807 2016 Crs
3256 2347 Crs
2482 1710 Crs
3088 1732 Crs
3272 2170 Crs
3103 2052 Crs
2947 1863 Crs
2668 1795 Crs
3054 1804 Crs
2888 1946 Crs
3369 1827 Crs
2884 2052 Crs
3064 2113 Crs
3315 2133 Crs
3124 2027 Crs
3042 2198 Crs
3293 1890 Crs
3055 2038 Crs
2946 2000 Crs
3630 1934 Crs
3243 1727 Crs
3048 1965 Crs
3172 1748 Crs
3105 1776 Crs
2864 1888 Crs
2624 1722 Crs
3589 1908 Crs
3296 2209 Crs
2744 1770 Crs
3087 2034 Crs
3301 2036 Crs
3125 1903 Crs
3290 2121 Crs
2722 1721 Crs
3278 2001 Crs
3713 1911 Crs
2753 1792 Crs
3272 1920 Crs
3338 2329 Crs
3092 1923 Crs
3188 1821 Crs
3467 2295 Crs
3031 2046 Crs
3208 1846 Crs
3014 1822 Crs
3143 1943 Crs
2733 1925 Crs
3084 1815 Crs
3062 1860 Crs
2981 2034 Crs
2584 1710 Crs
3460 2001 Crs
2991 1997 Crs
2956 1791 Crs
3622 1966 Crs
3081 1879 Crs
2800 2108 Crs
3010 2004 Crs
2816 1853 Crs
2904 1491 Crs
3284 1889 Crs
3032 2238 Crs
3119 1842 Crs
2953 1753 Crs
3548 2123 Crs
2892 1797 Crs
3077 1566 Crs
3312 1916 Crs
2658 1969 Crs
2710 1890 Crs
2507 1860 Crs
3065 2005 Crs
2792 1749 Crs
2775 1752 Crs
3605 1910 Crs
3062 2270 Crs
3123 2051 Crs
3478 2033 Crs
2593 1920 Crs
3521 1739 Crs
3613 2045 Crs
3137 2054 Crs
3351 1742 Crs
3051 2207 Crs
3305 1886 Crs
3259 1898 Crs
3389 1955 Crs
3516 1899 Crs
3146 1898 Crs
3902 2110 Crs
2854 1878 Crs
2596 1803 Crs
2748 1787 Crs
3256 2329 Crs
3328 2397 Crs
3298 1913 Crs
3326 1932 Crs
3059 2030 Crs
3018 1895 Crs
2963 1975 Crs
3208 1972 Crs
2932 1897 Crs
3236 1862 Crs
3406 1929 Crs
2846 2002 Crs
2947 2016 Crs
3322 1947 Crs
3430 1738 Crs
3448 1893 Crs
3507 2096 Crs
3415 1808 Crs
3047 1644 Crs
3527 1923 Crs
2573 1746 Crs
3098 1945 Crs
2804 1857 Crs
3179 1918 Crs
3123 1856 Crs
2669 1683 Crs
3458 1858 Crs
2707 1776 Crs
3295 2044 Crs
2705 1968 Crs
3441 1935 Crs
3132 1913 Crs
3450 2059 Crs
3067 1954 Crs
2727 1920 Crs
2945 1925 Crs
3368 2018 Crs
2454 1675 Crs
2514 1819 Crs
3013 1812 Crs
2849 1894 Crs
3910 2352 Crs
3201 2060 Crs
3342 1912 Crs
2792 1716 Crs
3053 2126 Crs
2778 1792 Crs
2862 1822 Crs
4250 2158 Crs
2957 1979 Crs
2717 1624 Crs
3078 1853 Crs
2715 2010 Crs
3028 1721 Crs
3532 2028 Crs
4127 1750 Crs
3256 2036 Crs
3098 1987 Crs
2622 1869 Crs
3282 1928 Crs
2708 1911 Crs
3371 2019 Crs
2329 1711 Crs
2565 1563 Crs
3059 1769 Crs
2954 1812 Crs
3304 1962 Crs
3011 2082 Crs
3548 2169 Crs
3077 1943 Crs
3077 1836 Crs
3986 2039 Crs
3140 1692 Crs
3697 2069 Crs
3401 1878 Crs
3043 1943 Crs
3668 1968 Crs
3457 2019 Crs
2912 2056 Crs
3164 1984 Crs
3463 1926 Crs
2957 1804 Crs
3433 2115 Crs
3742 2040 Crs
2759 2002 Crs
2800 1834 Crs
2838 1839 Crs
3787 1850 Crs
3159 1837 Crs
2505 1878 Crs
3664 1758 Crs
3456 2247 Crs
2689 1759 Crs
3334 2047 Crs
3210 1931 Crs
2849 1773 Crs
3534 2207 Crs
3259 1744 Crs
2707 1895 Crs
3269 1759 Crs
3525 1841 Crs
2571 1728 Crs
3545 2104 Crs
3231 2060 Crs
3343 1776 Crs
3418 1477 Crs
3333 1879 Crs
3317 1817 Crs
2612 1861 Crs
3280 2054 Crs
3139 1938 Crs
3452 2029 Crs
2927 2091 Crs
2750 1811 Crs
2504 1766 Crs
3269 1968 Crs
2930 1939 Crs
3027 1792 Crs
3250 1791 Crs
3077 1935 Crs
3630 2028 Crs
2777 2023 Crs
2852 1764 Crs
2748 1705 Crs
2628 1954 Crs
2833 1906 Crs
3200 1873 Crs
3236 2027 Crs
2833 1761 Crs
3208 1927 Crs
2881 1887 Crs
3351 1802 Crs
3005 1882 Crs
2869 1775 Crs
3094 1832 Crs
3169 1834 Crs
3459 2002 Crs
2474 1776 Crs
3253 1805 Crs
2823 2058 Crs
3854 2244 Crs
2872 1678 Crs
3078 1835 Crs
3318 1948 Crs
3026 1892 Crs
2918 1722 Crs
2766 1948 Crs
3159 2073 Crs
2563 1734 Crs
3147 1848 Crs
3017 1896 Crs
3764 2008 Crs
2771 1799 Crs
3044 2088 Crs
2416 1751 Crs
3003 1916 Crs
2669 1901 Crs
3128 1963 Crs
3616 2038 Crs
3103 2170 Crs
2804 1913 Crs
2887 1641 Crs
2737 2046 Crs
3638 1910 Crs
2789 1746 Crs
2800 1790 Crs
2386 1790 Crs
3281 2126 Crs
3662 2053 Crs
3318 2106 Crs
3246 1856 Crs
3536 2152 Crs
3704 2033 Crs
3575 2260 Crs
2956 1876 Crs
2869 1880 Crs
3303 1836 Crs
2408 1642 Crs
3082 2099 Crs
3451 1996 Crs
3257 1957 Crs
3469 2135 Crs
2974 2134 Crs
3153 1999 Crs
3109 2219 Crs
3614 1805 Crs
2954 2074 Crs
2775 1833 Crs
3320 2115 Crs
2713 1825 Crs
2732 1753 Crs
3200 2078 Crs
3026 1843 Crs
2582 1634 Crs
3431 1895 Crs
3420 2156 Crs
3272 2274 Crs
3259 1761 Crs
3461 2161 Crs
2335 1525 Crs
3417 1886 Crs
2934 1712 Crs
3028 1735 Crs
3154 1960 Crs
3032 2159 Crs
3351 1836 Crs
3036 1901 Crs
2380 1509 Crs
2821 1999 Crs
2951 1599 Crs
2966 2182 Crs
2807 1922 Crs
3793 2118 Crs
3372 1890 Crs
2862 1821 Crs
3037 1904 Crs
3451 2021 Crs
2648 1678 Crs
2854 2063 Crs
3621 2035 Crs
3338 1829 Crs
3065 1966 Crs
3069 2096 Crs
2858 1798 Crs
2386 1693 Crs
3096 1937 Crs
2511 1766 Crs
2796 1919 Crs
3645 1881 Crs
2435 1789 Crs
3282 2106 Crs
3139 1790 Crs
2808 1874 Crs
3085 2045 Crs
3240 2174 Crs
3023 1897 Crs
3126 2038 Crs
2765 1990 Crs
3147 1925 Crs
2831 1822 Crs
2785 1977 Crs
3255 1915 Crs
2988 1911 Crs
3155 1955 Crs
2712 1745 Crs
3369 2115 Crs
3060 2006 Crs
3354 2023 Crs
3449 1898 Crs
2630 1883 Crs
2955 1761 Crs
3315 1938 Crs
2992 1846 Crs
2993 2017 Crs
2378 1784 Crs
2965 2021 Crs
3521 2040 Crs
3362 1853 Crs
2382 1683 Crs
2581 1881 Crs
2722 1982 Crs
3291 1870 Crs
3311 2038 Crs
3369 1721 Crs
3412 1987 Crs
2916 1809 Crs
2946 1788 Crs
3328 1933 Crs
3220 1958 Crs
2919 1934 Crs
3302 1979 Crs
3122 1532 Crs
2889 1703 Crs
2797 1697 Crs
2828 1750 Crs
3190 1945 Crs
3267 2203 Crs
2779 1964 Crs
2739 1757 Crs
2947 1786 Crs
3554 1758 Crs
2684 1820 Crs
3167 2102 Crs
3368 1785 Crs
3114 1947 Crs
3119 1885 Crs
3380 2028 Crs
3173 2034 Crs
3309 1900 Crs
3908 1898 Crs
3198 2160 Crs
2638 1822 Crs
3265 1976 Crs
3179 2098 Crs
3432 2047 Crs
2925 1740 Crs
2929 1889 Crs
3104 1921 Crs
3133 1916 Crs
2969 2043 Crs
3171 1923 Crs
2810 2030 Crs
2883 2011 Crs
2946 2042 Crs
2745 1735 Crs
2328 1727 Crs
3378 1982 Crs
3419 2255 Crs
3390 1869 Crs
3667 1857 Crs
3706 2084 Crs
3543 1801 Crs
3959 2113 Crs
3033 1876 Crs
3844 1908 Crs
3549 1983 Crs
2659 1991 Crs
3093 1740 Crs
3331 2176 Crs
3178 1827 Crs
2730 1969 Crs
3129 2052 Crs
3461 2008 Crs
3542 1974 Crs
3882 2301 Crs
2447 1748 Crs
2943 2029 Crs
3199 2020 Crs
3212 1798 Crs
3176 1890 Crs
3219 1907 Crs
3159 1975 Crs
3419 2038 Crs
3343 1837 Crs
3236 2085 Crs
3145 2181 Crs
3213 1858 Crs
2907 1625 Crs
2895 1736 Crs
3337 1860 Crs
3596 1836 Crs
3741 2044 Crs
2687 1693 Crs
2911 1915 Crs
3314 2261 Crs
3429 1736 Crs
2865 1673 Crs
3550 1956 Crs
3461 2113 Crs
3056 2088 Crs
2938 1646 Crs
2575 1903 Crs
2752 2048 Crs
2776 1946 Crs
3509 1758 Crs
3143 2351 Crs
3324 2025 Crs
3415 1927 Crs
2785 1792 Crs
3618 1850 Crs
2865 1978 Crs
2752 1855 Crs
2947 1945 Crs
3157 1694 Crs
3317 2012 Crs
3019 1926 Crs
3318 1702 Crs
3220 2019 Crs
3023 1949 Crs
3802 2036 Crs
3212 2107 Crs
2946 1830 Crs
3180 1991 Crs
2827 1672 Crs
3044 2152 Crs
3098 1853 Crs
3014 1632 Crs
2889 1970 Crs
3091 2172 Crs
2948 2018 Crs
3564 1889 Crs
3183 1714 Crs
3261 2056 Crs
2484 1777 Crs
3039 1982 Crs
3641 2138 Crs
3753 1916 Crs
2900 1974 Crs
2703 1828 Crs
2754 1876 Crs
3601 2019 Crs
2846 1923 Crs
3283 2063 Crs
2818 1683 Crs
3332 2175 Crs
2986 1798 Crs
3151 2241 Crs
3441 1942 Crs
2777 2084 Crs
3509 1851 Crs
2866 1858 Crs
2514 1887 Crs
2369 1697 Crs
3218 1921 Crs
2585 1746 Crs
2968 2024 Crs
3402 2103 Crs
3044 1756 Crs
3108 1960 Crs
3035 1813 Crs
3225 2106 Crs
2725 1645 Crs
3027 1841 Crs
3362 1849 Crs
3661 2157 Crs
3472 2115 Crs
2817 1821 Crs
3062 1966 Crs
2829 1640 Crs
3154 1801 Crs
3457 2144 Crs
3110 1870 Crs
3115 1774 Crs
3343 2241 Crs
3223 1796 Crs
2798 1851 Crs
3414 1976 Crs
2939 2024 Crs
2666 1937 Crs
2658 1708 Crs
2503 1760 Crs
2866 1695 Crs
3302 1916 Crs
3347 1735 Crs
2886 1944 Crs
3302 1804 Crs
3219 1788 Crs
3292 1884 Crs
3217 2113 Crs
3220 1741 Crs
3145 2131 Crs
3048 1978 Crs
3297 1890 Crs
2868 1909 Crs
3123 1939 Crs
3156 1910 Crs
2954 1929 Crs
3769 2154 Crs
2775 1920 Crs
3319 1799 Crs
3304 2094 Crs
3610 1857 Crs
2366 1759 Crs
2832 1932 Crs
3208 1988 Crs
2714 1889 Crs
3326 1898 Crs
2803 1980 Crs
3034 1929 Crs
2663 2005 Crs
2535 1818 Crs
3187 1784 Crs
3238 2042 Crs
3348 1901 Crs
3159 1880 Crs
2821 1724 Crs
2909 2034 Crs
2832 1723 Crs
3160 2012 Crs
2832 1615 Crs
2816 1933 Crs
3344 2059 Crs
3226 1963 Crs
3211 1600 Crs
3062 2133 Crs
3052 2009 Crs
3338 2020 Crs
3048 1911 Crs
3055 1853 Crs
3311 1937 Crs
2800 2099 Crs
3373 2081 Crs
3325 2034 Crs
3452 1853 Crs
3360 1666 Crs
3039 1786 Crs
3314 1705 Crs
2859 1911 Crs
2670 1840 Crs
3075 1953 Crs
3090 1991 Crs
3236 1966 Crs
3221 1920 Crs
3019 2005 Crs
2837 1768 Crs
3163 1822 Crs
3131 2015 Crs
2878 1590 Crs
2834 1785 Crs
2718 1743 Crs
3044 1863 Crs
3186 2232 Crs
3181 1859 Crs
3161 1688 Crs
3333 1938 Crs
3054 1794 Crs
2375 1735 Crs
3011 1957 Crs
2999 2122 Crs
2305 1530 Crs
3357 1857 Crs
3859 1799 Crs
3192 1932 Crs
3293 1723 Crs
2457 1689 Crs
3180 1765 Crs
2880 2029 Crs
3096 1920 Crs
2746 1842 Crs
2681 1605 Crs
2972 2063 Crs
3104 2116 Crs
3144 2007 Crs
2853 1768 Crs
2963 2111 Crs
2841 1953 Crs
2982 1712 Crs
3099 1962 Crs
3083 1879 Crs
3264 1888 Crs
3066 1985 Crs
3155 1961 Crs
3401 1855 Crs
3123 2012 Crs
3230 1887 Crs
3113 1783 Crs
3012 1972 Crs
3086 2011 Crs
3236 1659 Crs
3031 1960 Crs
3868 2045 Crs
2855 2129 Crs
2930 1822 Crs
3696 2040 Crs
2840 1815 Crs
2876 1844 Crs
2901 1764 Crs
3450 1997 Crs
2802 1934 Crs
3533 1745 Crs
2746 1858 Crs
2759 1611 Crs
2560 1766 Crs
3504 2128 Crs
3493 2224 Crs
2942 2079 Crs
3203 2150 Crs
3415 1944 Crs
3391 2021 Crs
2551 1702 Crs
3108 1890 Crs
3222 1848 Crs
3066 1963 Crs
2905 1776 Crs
3436 1883 Crs
3101 2021 Crs
3255 2068 Crs
2975 1890 Crs
3140 1700 Crs
3333 2268 Crs
2801 1928 Crs
3009 1853 Crs
3396 1972 Crs
2847 1921 Crs
2783 1875 Crs
3562 2096 Crs
3285 2132 Crs
3210 2041 Crs
3713 2069 Crs
3160 2060 Crs
3415 1982 Crs
2529 1854 Crs
2971 1992 Crs
3597 1898 Crs
2595 1702 Crs
2798 1795 Crs
3511 2071 Crs
3273 1664 Crs
2643 1898 Crs
2998 1907 Crs
3168 1931 Crs
3122 2044 Crs
3358 2203 Crs
3591 2103 Crs
2785 1854 Crs
3340 1872 Crs
3246 2038 Crs
2461 1747 Crs
3020 1958 Crs
3428 2198 Crs
2418 1634 Crs
3224 2086 Crs
3096 1886 Crs
3558 2168 Crs
2987 1575 Crs
3257 1822 Crs
3133 1791 Crs
2869 1724 Crs
2367 1587 Crs
2594 1830 Crs
3209 1873 Crs
3327 2078 Crs
3037 2046 Crs
3151 1856 Crs
2620 1818 Crs
2802 2065 Crs
2873 1401 Crs
3609 1843 Crs
3342 1951 Crs
3649 1991 Crs
2733 1638 Crs
3457 2253 Crs
3099 2161 Crs
2637 1705 Crs
3636 2247 Crs
2950 1973 Crs
3013 1990 Crs
3677 1991 Crs
2935 1845 Crs
3325 2113 Crs
3741 1994 Crs
3558 1888 Crs
3458 2186 Crs
2752 1974 Crs
3374 1909 Crs
3075 1773 Crs
3024 2211 Crs
2831 1744 Crs
3668 2011 Crs
3297 1854 Crs
2815 1827 Crs
2828 1957 Crs
2983 2143 Crs
3012 2130 Crs
2873 1797 Crs
3002 1883 Crs
2710 2019 Crs
2218 1666 Crs
2820 1544 Crs
3009 1955 Crs
2984 2145 Crs
3263 1931 Crs
4387 2067 Crs
2758 1847 Crs
2633 1952 Crs
3306 1728 Crs
3735 1865 Crs
3272 1918 Crs
2879 1995 Crs
2584 1872 Crs
3401 1996 Crs
2963 1898 Crs
3381 1847 Crs
2654 1559 Crs
2592 1948 Crs
2969 1968 Crs
2893 1981 Crs
3149 2068 Crs
3459 1845 Crs
2863 1832 Crs
3197 1876 Crs
3141 2070 Crs
3074 1875 Crs
3464 2203 Crs
3037 1899 Crs
3183 1745 Crs
3327 1975 Crs
3241 1809 Crs
3379 1926 Crs
3555 1970 Crs
2542 1725 Crs
2743 1892 Crs
3412 2174 Crs
2831 1714 Crs
2871 1980 Crs
3007 1830 Crs
2993 1952 Crs
3442 2086 Crs
3646 2238 Crs
2901 1845 Crs
3252 1874 Crs
3246 1855 Crs
2522 1862 Crs
3022 2058 Crs
2434 1702 Crs
2836 1815 Crs
2927 1993 Crs
2921 1886 Crs
3046 1925 Crs
2807 1766 Crs
2620 1767 Crs
2716 1808 Crs
2961 1942 Crs
3341 2134 Crs
2956 1880 Crs
3194 1914 Crs
3089 1892 Crs
2680 1717 Crs
2785 1744 Crs
2782 1895 Crs
3445 1927 Crs
2768 1903 Crs
3427 1947 Crs
3413 1937 Crs
2410 1739 Crs
3222 2094 Crs
3207 2088 Crs
3136 1937 Crs
2857 1905 Crs
3347 2266 Crs
3441 2398 Crs
3570 1952 Crs
3269 1845 Crs
3119 1920 Crs
2611 1621 Crs
3512 2093 Crs
2872 1900 Crs
3228 1938 Crs
3207 2122 Crs
3314 1487 Crs
2772 1930 Crs
2964 1695 Crs
3469 1932 Crs
3060 1751 Crs
2972 2081 Crs
3233 1808 Crs
2977 1846 Crs
2886 2007 Crs
3431 1813 Crs
3001 1812 Crs
2945 1871 Crs
3070 1842 Crs
3195 2295 Crs
3125 2249 Crs
2992 2027 Crs
2790 1912 Crs
2736 1902 Crs
2547 1782 Crs
2866 1913 Crs
3623 2076 Crs
2793 1905 Crs
3116 1998 Crs
2666 1981 Crs
2615 1892 Crs
3083 1888 Crs
3116 1867 Crs
2766 2078 Crs
3880 2339 Crs
2701 1607 Crs
2388 1616 Crs
2990 2043 Crs
2920 1709 Crs
3015 1651 Crs
3056 1930 Crs
3872 2029 Crs
3256 1962 Crs
3256 1963 Crs
3151 2151 Crs
3417 1990 Crs
3159 2036 Crs
2952 1911 Crs
2762 1797 Crs
2642 1689 Crs
3545 1912 Crs
2906 1873 Crs
3095 1880 Crs
2645 1684 Crs
3258 2164 Crs
3173 2229 Crs
2493 1876 Crs
2867 1895 Crs
3392 2069 Crs
2840 2053 Crs
3044 1967 Crs
3075 2084 Crs
3418 1846 Crs
3415 1860 Crs
2933 2053 Crs
3550 1925 Crs
2995 1773 Crs
3027 2035 Crs
2725 2021 Crs
3315 2132 Crs
3503 2056 Crs
2985 2115 Crs
3396 1881 Crs
3309 2206 Crs
2868 1855 Crs
2844 1920 Crs
2921 1879 Crs
3488 2083 Crs
3408 1781 Crs
2676 1812 Crs
3714 1876 Crs
2789 1697 Crs
2959 2011 Crs
2483 1857 Crs
3379 2047 Crs
2706 1624 Crs
3829 2059 Crs
3106 1779 Crs
2430 1424 Crs
3410 1616 Crs
2859 1832 Crs
2618 1731 Crs
3227 1978 Crs
2914 1825 Crs
2891 1755 Crs
2740 2001 Crs
3129 1775 Crs
2798 1843 Crs
2968 1864 Crs
2587 1554 Crs
3046 1939 Crs
2774 1758 Crs
3003 1829 Crs
2808 1978 Crs
3752 2022 Crs
3425 1700 Crs
3015 2108 Crs
3662 2170 Crs
3133 1974 Crs
3032 2059 Crs
3156 2148 Crs
3397 2194 Crs
2880 1858 Crs
3242 1902 Crs
2892 1888 Crs
3171 1794 Crs
2939 1884 Crs
3425 2211 Crs
2934 1939 Crs
2735 1641 Crs
3089 2081 Crs
2801 1765 Crs
3229 1837 Crs
3178 1865 Crs
3642 2117 Crs
2584 1632 Crs
2708 1591 Crs
3407 2052 Crs
3527 2062 Crs
2374 1653 Crs
2697 1858 Crs
3022 2255 Crs
3196 2103 Crs
2587 1739 Crs
3186 1798 Crs
2949 1753 Crs
3022 1821 Crs
2981 1642 Crs
3161 2174 Crs
3367 1953 Crs
3565 2059 Crs
3451 1983 Crs
2509 1840 Crs
3117 1891 Crs
2896 1879 Crs
3318 1911 Crs
2900 1674 Crs
3088 1758 Crs
3395 1998 Crs
3107 1845 Crs
2686 1983 Crs
2865 1998 Crs
3090 1753 Crs
3178 2097 Crs
3171 1931 Crs
3165 2153 Crs
3604 2444 Crs
2927 1651 Crs
2771 1729 Crs
2854 1723 Crs
3146 2079 Crs
3157 2054 Crs
3601 2187 Crs
2703 1940 Crs
2778 2008 Crs
3365 1589 Crs
3028 2044 Crs
3109 2003 Crs
2815 1881 Crs
3419 1888 Crs
3047 1742 Crs
3271 2128 Crs
2769 2071 Crs
3421 2125 Crs
3810 2198 Crs
3463 1971 Crs
2940 1692 Crs
3175 1962 Crs
3123 1829 Crs
2993 2061 Crs
2826 1971 Crs
3338 2206 Crs
3332 1896 Crs
2647 1928 Crs
3365 1949 Crs
2709 1806 Crs
3496 2204 Crs
2718 1786 Crs
3133 1669 Crs
2745 1715 Crs
3468 2178 Crs
3233 1786 Crs
3016 1935 Crs
3412 1923 Crs
3726 1680 Crs
3312 2061 Crs
3573 1877 Crs
2894 1972 Crs
3385 2106 Crs
2707 1755 Crs
3327 1771 Crs
2781 1856 Crs
2971 2081 Crs
3036 1961 Crs
3321 2045 Crs
3397 1819 Crs
3212 1948 Crs
3388 2013 Crs
4098 2104 Crs
3627 2087 Crs
3053 2095 Crs
3014 1855 Crs
3184 2272 Crs
2824 1688 Crs
3259 1955 Crs
3512 1938 Crs
3197 1985 Crs
2742 1887 Crs
2840 2049 Crs
3376 2132 Crs
2469 1767 Crs
2590 1857 Crs
3163 1851 Crs
3704 2235 Crs
2989 2178 Crs
3169 1790 Crs
2863 1719 Crs
3416 1974 Crs
2853 1700 Crs
2753 2029 Crs
3051 2002 Crs
2888 1879 Crs
2796 1556 Crs
3409 2097 Crs
2629 1835 Crs
3668 2022 Crs
3358 1724 Crs
3739 2026 Crs
2949 1858 Crs
3976 1945 Crs
2963 1860 Crs
2636 1906 Crs
3485 2144 Crs
2659 1723 Crs
2972 2066 Crs
2998 1860 Crs
3101 1677 Crs
3622 1855 Crs
3082 1754 Crs
2895 1816 Crs
3187 2255 Crs
3518 1893 Crs
3240 2046 Crs
2706 1785 Crs
2392 1729 Crs
3196 1986 Crs
2228 1664 Crs
2536 1712 Crs
2952 1942 Crs
2995 1796 Crs
2708 1875 Crs
3453 1885 Crs
2719 1632 Crs
3070 2136 Crs
3628 1890 Crs
2799 1918 Crs
2928 2026 Crs
3398 1911 Crs
3736 2049 Crs
3346 2143 Crs
2444 1778 Crs
3092 1679 Crs
3018 1583 Crs
3154 1892 Crs
2658 1758 Crs
2256 1443 Crs
2681 1594 Crs
3205 2005 Crs
3113 2034 Crs
3431 2017 Crs
3173 2127 Crs
3094 1993 Crs
2742 1626 Crs
3431 1739 Crs
2788 1825 Crs
3626 2351 Crs
3180 1765 Crs
3680 2064 Crs
2644 1588 Crs
3217 1960 Crs
2601 1844 Crs
3161 1767 Crs
2780 1776 Crs
2873 1832 Crs
2993 1961 Crs
3081 1909 Crs
3714 1813 Crs
2356 1747 Crs
3617 2007 Crs
3323 1999 Crs
3375 1925 Crs
2758 1708 Crs
2305 1680 Crs
3585 2218 Crs
3375 1943 Crs
2934 1939 Crs
2996 2086 Crs
2490 1570 Crs
3217 2092 Crs
2633 1816 Crs
2964 1966 Crs
3023 1805 Crs
3007 1882 Crs
3154 2101 Crs
3630 2058 Crs
3091 1974 Crs
3027 1932 Crs
2748 1771 Crs
2901 1759 Crs
3128 1961 Crs
3028 1808 Crs
2814 1955 Crs
3080 1653 Crs
3462 2066 Crs
2653 1867 Crs
3123 2039 Crs
3541 2055 Crs
2813 1956 Crs
2531 1852 Crs
2805 1855 Crs
3469 1954 Crs
3195 1774 Crs
3594 1930 Crs
3041 1818 Crs
2659 1804 Crs
2811 1892 Crs
2844 1745 Crs
2868 1966 Crs
2948 2019 Crs
2789 1912 Crs
2724 1801 Crs
3320 1956 Crs
3067 1976 Crs
3155 2026 Crs
2918 1690 Crs
3410 2139 Crs
2737 1864 Crs
3218 2238 Crs
3679 1767 Crs
2827 1955 Crs
2668 1816 Crs
3300 1830 Crs
3409 2000 Crs
3020 1561 Crs
3078 1828 Crs
3035 2172 Crs
2965 1956 Crs
3271 2276 Crs
3315 2192 Crs
3317 2060 Crs
2777 1724 Crs
3055 2042 Crs
3499 2129 Crs
3980 1859 Crs
3177 1862 Crs
3566 1930 Crs
3161 2049 Crs
3349 2041 Crs
3255 2125 Crs
2695 1706 Crs
3224 1882 Crs
3333 2064 Crs
2979 2242 Crs
2696 1941 Crs
2556 1695 Crs
2817 1792 Crs
2967 1795 Crs
2924 2113 Crs
3095 2014 Crs
2736 1932 Crs
2792 1883 Crs
3248 2030 Crs
4004 1912 Crs
3473 2132 Crs
3492 2323 Crs
3437 1846 Crs
3259 1855 Crs
2678 1982 Crs
3661 2032 Crs
3135 2046 Crs
2859 2021 Crs
3310 1942 Crs
2548 1810 Crs
2972 1811 Crs
2530 1705 Crs
2852 1960 Crs
2672 1722 Crs
3085 1926 Crs
3430 2029 Crs
3193 2014 Crs
3277 1891 Crs
2803 1759 Crs
3455 2312 Crs
3159 2017 Crs
3122 1894 Crs
3343 1898 Crs
2875 1757 Crs
3388 1867 Crs
3184 1715 Crs
3436 1843 Crs
2873 1834 Crs
3299 1788 Crs
2915 1922 Crs
3014 1993 Crs
2526 1784 Crs
3495 1925 Crs
2679 1799 Crs
3097 1751 Crs
3488 1873 Crs
3143 1637 Crs
3064 1941 Crs
3337 1939 Crs
3387 2220 Crs
2564 1717 Crs
2333 1627 Crs
3942 2153 Crs
3451 1852 Crs
3025 1989 Crs
3188 2024 Crs
2922 1697 Crs
2868 1796 Crs
2798 1973 Crs
3015 1961 Crs
3388 1758 Crs
3004 1933 Crs
2415 1807 Crs
2763 1934 Crs
2765 1826 Crs
2961 1736 Crs
2732 1907 Crs
2862 1866 Crs
2592 1706 Crs
3245 2043 Crs
3241 2154 Crs
2706 1641 Crs
2847 1894 Crs
3668 2054 Crs
3291 2063 Crs
2882 2003 Crs
3264 1867 Crs
2669 1754 Crs
3684 1827 Crs
2600 1713 Crs
3366 2113 Crs
3470 1808 Crs
3153 1864 Crs
2294 1633 Crs
2525 1596 Crs
3662 2029 Crs
3246 1862 Crs
3503 1975 Crs
3572 1972 Crs
3264 1949 Crs
3956 1990 Crs
3755 2112 Crs
2933 1750 Crs
3057 1884 Crs
3178 1796 Crs
3193 1925 Crs
3940 1916 Crs
3126 1888 Crs
2949 2092 Crs
2910 2045 Crs
2614 1929 Crs
3277 1902 Crs
3320 1912 Crs
3333 1688 Crs
2760 1764 Crs
3024 1898 Crs
3261 2022 Crs
3330 1955 Crs
2550 1764 Crs
3919 1874 Crs
3429 2128 Crs
3011 2126 Crs
2764 1790 Crs
3568 2214 Crs
3663 2084 Crs
3194 1838 Crs
3486 1974 Crs
3333 1978 Crs
3159 2351 Crs
3823 1896 Crs
3834 1846 Crs
3208 2063 Crs
2805 1875 Crs
2991 1809 Crs
2915 1937 Crs
3536 1989 Crs
3649 1937 Crs
2682 1845 Crs
2861 1937 Crs
3086 1708 Crs
3051 2007 Crs
2806 1908 Crs
3510 1811 Crs
3551 2326 Crs
3383 2071 Crs
3703 1970 Crs
3499 2055 Crs
2765 2012 Crs
3224 2042 Crs
2856 1851 Crs
2954 1953 Crs
2597 1540 Crs
2775 1620 Crs
3179 1933 Crs
3010 1859 Crs
2472 1802 Crs
2708 1962 Crs
2957 2019 Crs
3197 2036 Crs
2713 1812 Crs
2718 1689 Crs
3336 2156 Crs
2290 1644 Crs
3233 2134 Crs
2690 1884 Crs
3324 2054 Crs
3176 2137 Crs
2475 1735 Crs
3378 1929 Crs
3425 2175 Crs
4020 1918 Crs
2875 2007 Crs
3109 2028 Crs
2584 1850 Crs
2888 1836 Crs
2956 1896 Crs
2516 1833 Crs
3532 2255 Crs
2584 1400 Crs
3443 2037 Crs
3410 2004 Crs
2835 2089 Crs
3275 1985 Crs
2705 1865 Crs
3111 2075 Crs
2771 1719 Crs
2728 2054 Crs
3013 1948 Crs
2726 1958 Crs
2898 1812 Crs
3542 1978 Crs
2617 1661 Crs
2764 1391 Crs
3563 1999 Crs
2350 1745 Crs
2748 1907 Crs
3264 2151 Crs
2810 1896 Crs
2743 1973 Crs
3267 1929 Crs
3181 1929 Crs
2728 1801 Crs
3161 2217 Crs
2653 1861 Crs
2855 1804 Crs
3061 1694 Crs
3085 2012 Crs
2924 1901 Crs
3186 2099 Crs
3267 1709 Crs
2579 1639 Crs
2943 2215 Crs
2894 1881 Crs
2615 1648 Crs
3400 2231 Crs
3314 1874 Crs
2661 1949 Crs
3372 1728 Crs
3182 1910 Crs
3055 1922 Crs
2878 2011 Crs
2995 1777 Crs
3043 1879 Crs
3221 2176 Crs
3384 1845 Crs
2523 1880 Crs
2763 1588 Crs
2907 1791 Crs
2884 2061 Crs
2692 1779 Crs
3225 2198 Crs
2698 1958 Crs
3005 1953 Crs
3203 1921 Crs
3272 1807 Crs
2607 1753 Crs
3291 2045 Crs
3185 2078 Crs
3399 1832 Crs
3473 1760 Crs
3277 1893 Crs
3067 2002 Crs
2633 1921 Crs
3569 1900 Crs
2517 1649 Crs
2987 2040 Crs
3431 2058 Crs
3164 1993 Crs
2503 1678 Crs
2889 1901 Crs
3699 2309 Crs
3148 1669 Crs
2603 1823 Crs
2920 1716 Crs
2681 1875 Crs
3012 1922 Crs
3154 2043 Crs
2778 1842 Crs
3469 2050 Crs
2594 1916 Crs
3479 2041 Crs
3307 1780 Crs
2896 1913 Crs
3129 1906 Crs
3409 1921 Crs
4220 1979 Crs
2671 1605 Crs
3081 1801 Crs
2801 2094 Crs
2800 1909 Crs
2868 1847 Crs
3157 2058 Crs
2888 2050 Crs
2597 1701 Crs
2849 1918 Crs
2988 2205 Crs
3261 2041 Crs
3330 1802 Crs
4231 1987 Crs
2559 1761 Crs
3408 1957 Crs
3779 1953 Crs
2758 1952 Crs
3172 1719 Crs
3345 2000 Crs
3427 1904 Crs
3162 1936 Crs
2618 1678 Crs
2955 2056 Crs
3252 2121 Crs
3299 1892 Crs
3148 2249 Crs
3254 2352 Crs
3253 1975 Crs
2892 1949 Crs
3141 2000 Crs
3199 1721 Crs
3065 2012 Crs
2800 1816 Crs
3264 1888 Crs
3492 2093 Crs
2729 1807 Crs
3040 1927 Crs
3077 1717 Crs
3612 2083 Crs
2511 1756 Crs
3393 1957 Crs
3327 2071 Crs
2994 1884 Crs
3145 1888 Crs
2894 2083 Crs
3467 2049 Crs
2846 1836 Crs
2884 1915 Crs
3007 1900 Crs
3348 2113 Crs
3159 1761 Crs
2970 1988 Crs
2815 1998 Crs
2893 1828 Crs
3164 2106 Crs
2992 1945 Crs
3162 1766 Crs
2734 1587 Crs
3529 2169 Crs
2666 1921 Crs
3237 1875 Crs
2887 1987 Crs
3517 1828 Crs
2871 1734 Crs
3093 1947 Crs
2951 1873 Crs
3503 1960 Crs
2779 1912 Crs
3148 1831 Crs
3723 2039 Crs
2897 1764 Crs
3254 1918 Crs
3656 1913 Crs
3780 2036 Crs
3609 2043 Crs
3264 1905 Crs
3128 1828 Crs
2878 1644 Crs
3490 1934 Crs
3123 1774 Crs
3230 1742 Crs
2845 1977 Crs
2876 2018 Crs
2653 1833 Crs
3680 2036 Crs
3168 1958 Crs
2922 2066 Crs
2618 1869 Crs
2947 1876 Crs
3057 1510 Crs
3102 1932 Crs
3467 2252 Crs
3422 2118 Crs
3693 2024 Crs
3740 1933 Crs
2594 1769 Crs
3001 1802 Crs
2919 2150 Crs
2684 1911 Crs
4182 2135 Crs
3112 1985 Crs
3140 2052 Crs
2762 1852 Crs
3168 2001 Crs
3289 1871 Crs
3223 1762 Crs
3472 2350 Crs
3198 2103 Crs
2449 1679 Crs
3902 1874 Crs
2982 2095 Crs
3509 2029 Crs
4083 2162 Crs
3443 1912 Crs
3238 1756 Crs
3025 1893 Crs
2610 1843 Crs
3195 2025 Crs
3217 1983 Crs
3086 1842 Crs
3284 1702 Crs
3927 1795 Crs
3665 1834 Crs
2691 1762 Crs
3227 1839 Crs
3833 1923 Crs
3069 2170 Crs
2583 1720 Crs
3512 1953 Crs
3016 1733 Crs
2749 1872 Crs
2846 2038 Crs
3872 1935 Crs
2988 1883 Crs
3050 1809 Crs
2878 1769 Crs
2575 1889 Crs
2998 1950 Crs
2572 1846 Crs
3288 1985 Crs
3326 2286 Crs
2529 1784 Crs
2837 1824 Crs
2520 1820 Crs
2749 1943 Crs
2971 1987 Crs
3247 1745 Crs
2862 1882 Crs
3519 2001 Crs
3561 2205 Crs
2905 1821 Crs
2808 1577 Crs
3298 1710 Crs
3828 2384 Crs
3401 1775 Crs
3497 2113 Crs
2771 1800 Crs
3154 1955 Crs
3126 1827 Crs
3304 2076 Crs
3393 2136 Crs
3355 2035 Crs
3212 2040 Crs
2161 1530 Crs
3395 2111 Crs
3071 1932 Crs
3924 1832 Crs
3027 2188 Crs
3161 1963 Crs
2962 1772 Crs
3332 1881 Crs
3044 2170 Crs
3329 2103 Crs
2925 1721 Crs
3213 2106 Crs
3188 2025 Crs
2902 1858 Crs
3436 2429 Crs
3289 1924 Crs
3579 2127 Crs
2435 1590 Crs
3765 2075 Crs
3480 1783 Crs
3110 1711 Crs
3403 2060 Crs
2836 1722 Crs
2802 1821 Crs
3409 1887 Crs
2811 1849 Crs
3180 1683 Crs
2927 1980 Crs
3554 2066 Crs
3474 1925 Crs
2915 1851 Crs
3192 1925 Crs
3202 2123 Crs
3060 2223 Crs
3368 2056 Crs
3256 1694 Crs
3014 1994 Crs
3311 1786 Crs
3548 2006 Crs
3077 1633 Crs
3078 2029 Crs
2884 1939 Crs
3006 1976 Crs
2922 2031 Crs
3300 1792 Crs
3624 2092 Crs
3253 2128 Crs
3024 2201 Crs
3855 2778 Crs
3725 1600 Crs
3220 2012 Crs
3376 1885 Crs
3107 1898 Crs
3057 1814 Crs
3257 1956 Crs
3081 1578 Crs
3215 2125 Crs
3342 1930 Crs
2783 1699 Crs
3202 2020 Crs
2735 1641 Crs
3677 2014 Crs
3114 2010 Crs
2980 2045 Crs
3451 2028 Crs
3993 2350 Crs
2986 2007 Crs
3184 1847 Crs
2941 1491 Crs
4531 1912 Crs
2846 2106 Crs
3322 1860 Crs
3194 1929 Crs
2775 1999 Crs
2680 1978 Crs
3403 2009 Crs
2647 1937 Crs
3620 2354 Crs
3224 1744 Crs
3115 2044 Crs
2792 2039 Crs
3430 2042 Crs
3137 2008 Crs
3121 1926 Crs
3217 1856 Crs
3320 1993 Crs
3603 2217 Crs
3158 2169 Crs
2758 2068 Crs
2907 2067 Crs
3064 1791 Crs
2880 1992 Crs
2857 1837 Crs
2786 1739 Crs
2612 1712 Crs
2368 1652 Crs
3414 1981 Crs
3128 1905 Crs
3613 1946 Crs
3067 1885 Crs
2697 2015 Crs
3224 1858 Crs
2844 2033 Crs
2966 1958 Crs
2948 1861 Crs
2620 1707 Crs
3240 1839 Crs
2796 1869 Crs
3272 2244 Crs
3948 2127 Crs
3133 1979 Crs
2982 1944 Crs
3547 1728 Crs
2865 1719 Crs
3417 2322 Crs
2887 1972 Crs
2920 1804 Crs
3452 1746 Crs
2983 1890 Crs
2528 1625 Crs
2649 1826 Crs
2848 1922 Crs
2856 1697 Crs
3536 1979 Crs
3014 1672 Crs
2687 1812 Crs
2347 1745 Crs
3177 2057 Crs
3419 1802 Crs
3401 1835 Crs
3044 1892 Crs
3103 2003 Crs
2786 1793 Crs
3418 2003 Crs
3517 2203 Crs
2711 1796 Crs
2545 1806 Crs
3103 2087 Crs
3449 2217 Crs
2984 1793 Crs
3162 1880 Crs
3440 2247 Crs
2810 2007 Crs
2776 1892 Crs
2997 1925 Crs
3418 2010 Crs
3432 1876 Crs
3070 1820 Crs
2772 1874 Crs
2799 1953 Crs
3064 1909 Crs
2350 1758 Crs
2764 1850 Crs
3127 1580 Crs
2573 1803 Crs
3302 2144 Crs
3099 1809 Crs
3056 1845 Crs
3106 1761 Crs
3018 1805 Crs
3774 1863 Crs
2788 1624 Crs
3256 1889 Crs
2852 1899 Crs
2924 2041 Crs
2921 1928 Crs
2974 1892 Crs
3346 2084 Crs
3083 1757 Crs
2731 1893 Crs
3274 1936 Crs
2922 1616 Crs
3155 2038 Crs
2692 1892 Crs
2456 1619 Crs
4189 2005 Crs
3441 1757 Crs
2701 1922 Crs
2799 1875 Crs
2594 1703 Crs
3292 2056 Crs
3488 2007 Crs
3352 1876 Crs
3130 1815 Crs
3275 1790 Crs
3240 2132 Crs
3139 1706 Crs
3191 2205 Crs
3188 1669 Crs
3231 1918 Crs
3214 1988 Crs
3996 2201 Crs
3120 1914 Crs
3058 2117 Crs
3292 1746 Crs
3114 2145 Crs
3412 2097 Crs
2737 1780 Crs
3367 2201 Crs
3081 2015 Crs
3126 2031 Crs
2578 1887 Crs
3421 2165 Crs
3361 1901 Crs
2584 1834 Crs
2991 1737 Crs
2834 1965 Crs
2891 1852 Crs
2942 1855 Crs
3091 1878 Crs
2940 1797 Crs
3395 2201 Crs
3658 1692 Crs
2771 2062 Crs
3121 1834 Crs
2768 1800 Crs
2969 2022 Crs
2898 1911 Crs
3187 1837 Crs
2911 1984 Crs
3118 1878 Crs
3037 1884 Crs
2754 1679 Crs
3017 2067 Crs
3279 2076 Crs
3090 1728 Crs
2898 1900 Crs
2839 1767 Crs
3437 1910 Crs
2892 1947 Crs
3047 1978 Crs
2495 1842 Crs
3322 1991 Crs
2997 1930 Crs
3139 1843 Crs
2825 1972 Crs
3200 2116 Crs
3493 2124 Crs
2881 1911 Crs
3150 1903 Crs
2875 2113 Crs
3604 1932 Crs
3420 2135 Crs
2146 1515 Crs
3063 1633 Crs
2463 1591 Crs
2700 1475 Crs
2708 1817 Crs
3043 1779 Crs
2735 1981 Crs
3153 1877 Crs
2915 2100 Crs
2771 1766 Crs
2993 2055 Crs
2670 1799 Crs
2897 1929 Crs
3345 2394 Crs
3141 2091 Crs
3382 1639 Crs
3556 2282 Crs
3262 1878 Crs
3016 2084 Crs
3246 2110 Crs
3061 2098 Crs
3024 1649 Crs
3065 2160 Crs
3188 1916 Crs
3463 2086 Crs
3255 1798 Crs
2865 1630 Crs
3118 2018 Crs
2795 1769 Crs
3132 2031 Crs
3132 1806 Crs
2546 1684 Crs
3133 1999 Crs
3036 1894 Crs
2764 1909 Crs
2662 1906 Crs
3067 1899 Crs
2723 1896 Crs
3668 1819 Crs
3504 1930 Crs
3021 1790 Crs
2924 1888 Crs
2910 2103 Crs
3194 1847 Crs
3616 1910 Crs
2560 1719 Crs
2976 1887 Crs
4564 2288 Crs
2852 1727 Crs
3057 2034 Crs
3061 2052 Crs
2580 1864 Crs
3190 1955 Crs
2411 1788 Crs
2967 1915 Crs
2702 1789 Crs
2924 1746 Crs
2549 1622 Crs
2779 1750 Crs
3489 2070 Crs
3249 2071 Crs
2611 1929 Crs
3195 1942 Crs
2747 1841 Crs
2700 1963 Crs
2851 1997 Crs
2913 1714 Crs
3993 1879 Crs
3125 1889 Crs
3118 1887 Crs
2658 1953 Crs
3615 2155 Crs
4086 1873 Crs
3140 2156 Crs
2907 1992 Crs
3085 1745 Crs
3540 1668 Crs
2772 1704 Crs
3515 2131 Crs
2829 1896 Crs
3293 1751 Crs
3590 1870 Crs
3313 1773 Crs
2517 1866 Crs
3204 1745 Crs
2662 1834 Crs
2832 1954 Crs
2289 1635 Crs
2718 1956 Crs
3258 2006 Crs
3068 1865 Crs
3460 1990 Crs
3220 1979 Crs
2921 1803 Crs
2992 1699 Crs
2577 1897 Crs
3537 2108 Crs
3038 1837 Crs
3695 2112 Crs
2755 1987 Crs
3208 2000 Crs
3543 2253 Crs
2626 1895 Crs
2639 1702 Crs
3529 1962 Crs
3287 1910 Crs
3123 1840 Crs
2987 1904 Crs
3768 2334 Crs
3211 1969 Crs
2606 1952 Crs
3295 1994 Crs
2812 1815 Crs
3413 2126 Crs
2389 1656 Crs
3235 1904 Crs
3448 1723 Crs
3680 2136 Crs
2788 1758 Crs
2789 1907 Crs
3436 2148 Crs
2784 1989 Crs
3018 2024 Crs
3306 2241 Crs
3846 2544 Crs
2984 2016 Crs
3192 1739 Crs
3289 2192 Crs
3277 2011 Crs
3041 1887 Crs
2541 1837 Crs
3230 1769 Crs
3256 1858 Crs
3412 1920 Crs
2550 1810 Crs
3011 1988 Crs
2891 2074 Crs
2897 1758 Crs
3436 1937 Crs
2841 2000 Crs
3181 2051 Crs
3228 2192 Crs
3221 1660 Crs
3375 2039 Crs
3018 2003 Crs
2704 1835 Crs
3489 2218 Crs
3121 1899 Crs
3516 1989 Crs
2486 1840 Crs
3280 1873 Crs
3606 1972 Crs
3157 1950 Crs
2653 1975 Crs
2982 1794 Crs
3820 2036 Crs
3027 2055 Crs
2710 1868 Crs
2939 1795 Crs
2785 1771 Crs
3375 1835 Crs
2447 1605 Crs
3244 1970 Crs
3322 1910 Crs
2424 1469 Crs
2307 1611 Crs
2546 1576 Crs
3221 1885 Crs
2375 1745 Crs
2869 1897 Crs
3224 1640 Crs
2590 1773 Crs
3411 2067 Crs
2521 1800 Crs
3270 1936 Crs
2561 1628 Crs
3042 1878 Crs
3464 2029 Crs
3062 2048 Crs
2619 1813 Crs
3136 1816 Crs
3012 1873 Crs
3160 1953 Crs
2878 2011 Crs
2996 2206 Crs
3208 2066 Crs
3118 2086 Crs
3642 2288 Crs
2723 1944 Crs
3208 1886 Crs
3256 1925 Crs
2854 2127 Crs
2736 1811 Crs
3106 1982 Crs
2919 1962 Crs
2719 1959 Crs
2457 1550 Crs
2770 1590 Crs
3342 2070 Crs
3079 1977 Crs
2983 2022 Crs
3281 2015 Crs
3080 1970 Crs
3015 1841 Crs
3109 2030 Crs
2931 1928 Crs
2961 1988 Crs
3705 2134 Crs
2765 1841 Crs
3155 1939 Crs
2609 1791 Crs
3120 2090 Crs
2997 1723 Crs
2827 1968 Crs
3364 1747 Crs
3116 1935 Crs
4136 1808 Crs
2884 1731 Crs
2917 1854 Crs
2874 1996 Crs
3459 2020 Crs
2695 2016 Crs
3081 1702 Crs
2856 1774 Crs
2809 2082 Crs
2525 1705 Crs
2665 1818 Crs
3478 1831 Crs
3741 1787 Crs
3255 1908 Crs
3095 1725 Crs
3102 1922 Crs
2843 1906 Crs
2804 1816 Crs
3299 1856 Crs
3863 1718 Crs
3388 1908 Crs
3371 2121 Crs
2432 1730 Crs
3636 2151 Crs
3423 1974 Crs
2976 1993 Crs
3138 2162 Crs
3328 1932 Crs
2938 1902 Crs
3293 2186 Crs
2952 1933 Crs
3137 2022 Crs
3049 1865 Crs
3529 2187 Crs
2982 1837 Crs
2692 1602 Crs
3176 1981 Crs
3077 2188 Crs
2952 1909 Crs
3670 2192 Crs
3458 2155 Crs
3270 1896 Crs
3704 2139 Crs
3495 2002 Crs
3178 2165 Crs
2513 1801 Crs
2625 1905 Crs
2722 1897 Crs
3148 1971 Crs
2941 1860 Crs
3143 2039 Crs
3222 2133 Crs
4044 2072 Crs
3462 1896 Crs
2397 1664 Crs
3764 2015 Crs
2837 1952 Crs
3443 2214 Crs
3136 1914 Crs
3301 1799 Crs
3167 2038 Crs
3566 1872 Crs
3301 1811 Crs
2842 1775 Crs
3123 1577 Crs
3210 1916 Crs
2658 1721 Crs
3302 1872 Crs
3006 1846 Crs
3465 1827 Crs
3342 2017 Crs
2890 1890 Crs
2859 1988 Crs
3798 2029 Crs
3853 2046 Crs
3728 1830 Crs
3469 1950 Crs
2587 1679 Crs
3273 2362 Crs
3201 2183 Crs
2958 1921 Crs
3291 1849 Crs
3307 1793 Crs
2808 1892 Crs
3347 2048 Crs
2675 1894 Crs
2642 1866 Crs
3046 1758 Crs
2905 1907 Crs
2954 2158 Crs
3030 1757 Crs
2771 1891 Crs
2491 1775 Crs
3188 1853 Crs
2749 1935 Crs
3394 2154 Crs
2839 1824 Crs
3249 2043 Crs
3241 2097 Crs
3377 1924 Crs
2876 2011 Crs
3240 2159 Crs
2595 1738 Crs
2880 2007 Crs
3437 1916 Crs
3385 2115 Crs
3377 2039 Crs
3641 1900 Crs
3137 2006 Crs
2730 1620 Crs
3475 2133 Crs
3190 1639 Crs
2694 1739 Crs
3121 2099 Crs
2973 1846 Crs
3669 2113 Crs
2658 1498 Crs
3381 1938 Crs
3356 2087 Crs
3269 1760 Crs
2863 1880 Crs
2452 1750 Crs
3488 2010 Crs
3075 2225 Crs
3016 2015 Crs
3141 2350 Crs
3655 1984 Crs
2794 1872 Crs
3060 1827 Crs
3303 2378 Crs
3473 1678 Crs
3214 1971 Crs
2927 1966 Crs
3595 1948 Crs
3957 2171 Crs
3602 1987 Crs
3438 1928 Crs
3322 2190 Crs
3388 2027 Crs
3065 2154 Crs
2396 1772 Crs
3097 1865 Crs
3016 2246 Crs
2635 1792 Crs
3147 1954 Crs
3363 1921 Crs
2898 2111 Crs
2911 2012 Crs
3141 1945 Crs
3030 1853 Crs
3727 2064 Crs
3498 1879 Crs
3067 1777 Crs
2646 1898 Crs
2927 1722 Crs
3230 1790 Crs
2828 1980 Crs
2617 1958 Crs
2977 1835 Crs
3298 2007 Crs
2905 1953 Crs
3008 1930 Crs
2596 1839 Crs
3377 2047 Crs
3477 2204 Crs
3109 1879 Crs
3273 1929 Crs
2999 1893 Crs
3181 2010 Crs
2755 1846 Crs
3627 2065 Crs
3038 1595 Crs
3505 2050 Crs
2997 2030 Crs
2817 1733 Crs
2996 2181 Crs
3033 1954 Crs
3179 1895 Crs
2970 1836 Crs
2899 2122 Crs
2743 2026 Crs
3358 1898 Crs
3328 1804 Crs
3502 1838 Crs
2726 1929 Crs
2871 1944 Crs
3122 1919 Crs
2813 1960 Crs
2934 1803 Crs
3172 1917 Crs
3165 1875 Crs
2748 1948 Crs
3096 1928 Crs
3221 1922 Crs
2905 1891 Crs
3151 1706 Crs
3116 1891 Crs
2897 1725 Crs
3540 2206 Crs
3648 2394 Crs
3331 1747 Crs
3263 2371 Crs
3147 2162 Crs
3548 2137 Crs
3161 1948 Crs
2764 1934 Crs
3927 2261 Crs
2760 1645 Crs
3053 1988 Crs
2722 1739 Crs
2493 1727 Crs
3164 2322 Crs
3026 1711 Crs
3870 1814 Crs
3405 2162 Crs
3631 1915 Crs
3231 2064 Crs
3044 1838 Crs
3124 1994 Crs
3985 2293 Crs
3297 2024 Crs
3006 2149 Crs
3176 1825 Crs
3074 1855 Crs
2444 1791 Crs
3374 2011 Crs
3286 1997 Crs
2501 1843 Crs
3486 2036 Crs
3560 2078 Crs
3028 1691 Crs
3295 2005 Crs
3133 1861 Crs
3049 2036 Crs
4091 2151 Crs
3017 1829 Crs
3051 2119 Crs
3237 1856 Crs
2369 1720 Crs
2921 1705 Crs
3107 1876 Crs
3491 2312 Crs
2572 1837 Crs
2719 1953 Crs
3177 1911 Crs
2915 2076 Crs
3416 2324 Crs
3160 2088 Crs
3705 1940 Crs
2643 1867 Crs
3477 1895 Crs
2780 1708 Crs
3804 1738 Crs
3425 1571 Crs
3260 1920 Crs
3514 2094 Crs
3175 1985 Crs
2950 1926 Crs
2967 1846 Crs
3706 1830 Crs
2927 1920 Crs
2636 1864 Crs
2918 1957 Crs
3238 1649 Crs
2408 1778 Crs
2957 1766 Crs
2521 1736 Crs
3199 1940 Crs
3162 2066 Crs
3010 1727 Crs
3281 1898 Crs
3039 2014 Crs
3486 1799 Crs
3261 1787 Crs
2544 1771 Crs
3630 2044 Crs
2956 1976 Crs
3434 1917 Crs
3229 2059 Crs
3120 2036 Crs
3322 1822 Crs
2863 1765 Crs
2832 1604 Crs
2940 2024 Crs
2723 1877 Crs
3483 1869 Crs
3070 1944 Crs
3414 2074 Crs
2958 1934 Crs
3197 2025 Crs
2920 2056 Crs
3448 1985 Crs
2993 1663 Crs
2693 1862 Crs
2801 1892 Crs
3505 1986 Crs
3374 1898 Crs
3013 1934 Crs
3105 2121 Crs
3060 1945 Crs
3511 1767 Crs
2727 1651 Crs
3201 2015 Crs
3267 1883 Crs
2708 2037 Crs
3000 1851 Crs
3648 2128 Crs
3371 1907 Crs
2478 1731 Crs
3207 1853 Crs
3356 2146 Crs
2744 1992 Crs
3221 1920 Crs
3357 2034 Crs
3299 2069 Crs
3417 2284 Crs
2660 1764 Crs
2744 2039 Crs
3125 1994 Crs
3038 1772 Crs
2758 1835 Crs
3247 1759 Crs
3156 1819 Crs
3034 2180 Crs
2571 1727 Crs
3336 1983 Crs
3124 2215 Crs
3843 1938 Crs
3223 1834 Crs
2556 1833 Crs
2870 1941 Crs
3411 1944 Crs
3045 1841 Crs
3239 1749 Crs
3201 1817 Crs
3036 1792 Crs
3219 1978 Crs
3257 2162 Crs
3822 2012 Crs
3467 2099 Crs
2904 1530 Crs
2536 1690 Crs
2878 1956 Crs
3003 1827 Crs
3090 2216 Crs
2993 1954 Crs
3132 1906 Crs
2598 1810 Crs
2824 1962 Crs
3085 1954 Crs
3344 1954 Crs
2871 1975 Crs
3171 2061 Crs
2643 1797 Crs
2625 1962 Crs
2929 1655 Crs
3058 2073 Crs
2582 1723 Crs
2883 2007 Crs
2450 1749 Crs
3404 2237 Crs
2654 1974 Crs
3044 1973 Crs
2915 1862 Crs
3123 2089 Crs
3003 2135 Crs
2848 1900 Crs
3063 1998 Crs
3399 2055 Crs
2612 1909 Crs
3236 1862 Crs
2685 1928 Crs
3090 1787 Crs
3009 2012 Crs
2994 1859 Crs
3321 1832 Crs
3286 1719 Crs
3271 1858 Crs
2873 1687 Crs
2812 2037 Crs
2601 1628 Crs
3112 1861 Crs
3049 1926 Crs
2978 1896 Crs
2475 1662 Crs
2784 1835 Crs
2936 2002 Crs
3004 1837 Crs
2715 1727 Crs
2792 1755 Crs
3168 1483 Crs
3019 1956 Crs
4019 2339 Crs
3805 1854 Crs
3031 1970 Crs
3112 2018 Crs
2542 1800 Crs
3133 1885 Crs
2515 1804 Crs
2782 1697 Crs
2867 1933 Crs
2566 1824 Crs
3289 2377 Crs
2906 1775 Crs
3343 2097 Crs
3159 2169 Crs
3446 1712 Crs
2902 2000 Crs
3230 2254 Crs
3074 1688 Crs
3205 1843 Crs
3107 2163 Crs
2814 1803 Crs
3128 2015 Crs
2614 1914 Crs
3222 1881 Crs
3033 2066 Crs
2940 2160 Crs
2835 1808 Crs
3480 2011 Crs
3550 1765 Crs
2902 1788 Crs
3362 1873 Crs
2401 1720 Crs
3688 1984 Crs
3068 2011 Crs
2955 2029 Crs
3280 1753 Crs
3031 2109 Crs
2814 1918 Crs
3508 1997 Crs
3561 1910 Crs
3224 1878 Crs
3394 2345 Crs
2533 1769 Crs
3564 1833 Crs
3298 2069 Crs
2974 1749 Crs
2694 1813 Crs
3428 2112 Crs
2534 1638 Crs
2676 1833 Crs
3584 2247 Crs
2999 1807 Crs
2913 1883 Crs
3107 1931 Crs
3433 1982 Crs
3121 1713 Crs
2762 1803 Crs
3291 2221 Crs
3001 1937 Crs
3322 1867 Crs
3134 2035 Crs
3143 2150 Crs
2849 1885 Crs
3095 2079 Crs
2415 1751 Crs
3055 2082 Crs
3452 2231 Crs
3375 2117 Crs
3268 2360 Crs
3207 1997 Crs
3236 1807 Crs
3301 2078 Crs
3028 1885 Crs
2784 1944 Crs
3040 2008 Crs
3284 1956 Crs
2931 1856 Crs
2787 1905 Crs
2962 1947 Crs
2934 1804 Crs
3138 1962 Crs
3064 1902 Crs
3177 2023 Crs
3454 2063 Crs
2709 1711 Crs
2783 1840 Crs
3171 1970 Crs
2337 1751 Crs
3657 2152 Crs
3115 1921 Crs
3035 1984 Crs
3474 2070 Crs
3218 1968 Crs
2267 1655 Crs
2917 1705 Crs
2789 1763 Crs
2996 1949 Crs
2829 1837 Crs
3359 1953 Crs
2967 1942 Crs
3647 2115 Crs
3466 2000 Crs
2490 1628 Crs
2595 1508 Crs
2979 1850 Crs
3100 1758 Crs
3934 1776 Crs
2765 1697 Crs
2968 1814 Crs
3363 1984 Crs
3503 2014 Crs
2991 1988 Crs
2952 1852 Crs
3764 2069 Crs
2935 1749 Crs
2951 1873 Crs
3200 2183 Crs
3663 1937 Crs
3026 2017 Crs
2770 1737 Crs
2831 1853 Crs
2522 1815 Crs
3220 1779 Crs
3056 1733 Crs
3411 2007 Crs
2710 1891 Crs
3879 1934 Crs
2362 1673 Crs
2497 1720 Crs
2572 1913 Crs
3159 1816 Crs
3095 1967 Crs
2926 2023 Crs
2928 1832 Crs
2698 1860 Crs
3122 1964 Crs
3289 1971 Crs
3283 1847 Crs
3216 1896 Crs
2766 1933 Crs
2805 2036 Crs
3399 1693 Crs
2762 1871 Crs
2831 1861 Crs
3862 2198 Crs
3179 2066 Crs
3492 1913 Crs
3076 1820 Crs
3037 1920 Crs
2995 1949 Crs
3306 1986 Crs
2891 1858 Crs
3536 2012 Crs
3141 2065 Crs
3002 1883 Crs
2989 1848 Crs
3015 2117 Crs
2318 1628 Crs
3155 2215 Crs
2648 1930 Crs
2559 1807 Crs
2664 1888 Crs
3370 1847 Crs
3188 1906 Crs
3468 1848 Crs
3633 1887 Crs
2863 1931 Crs
2847 1733 Crs
2923 2039 Crs
2602 1934 Crs
3636 2134 Crs
2814 1704 Crs
2825 1864 Crs
2781 1811 Crs
3364 1974 Crs
2683 1872 Crs
3552 1846 Crs
2953 1969 Crs
3271 2092 Crs
2990 1896 Crs
3003 2155 Crs
2609 1656 Crs
3042 1876 Crs
3376 1999 Crs
2857 1968 Crs
2875 1639 Crs
2735 2012 Crs
3085 1837 Crs
3045 1874 Crs
3241 1781 Crs
3167 1985 Crs
3002 2001 Crs
2636 1959 Crs
2924 2021 Crs
3457 1944 Crs
3136 2162 Crs
2835 1820 Crs
3422 2019 Crs
2940 1826 Crs
3093 1736 Crs
2870 1825 Crs
2762 1928 Crs
3096 1952 Crs
2867 1731 Crs
2911 1752 Crs
3244 1955 Crs
2877 1890 Crs
2693 1810 Crs
2704 1961 Crs
4291 2447 Crs
3214 2148 Crs
3108 2069 Crs
3595 1945 Crs
3075 2309 Crs
2931 1879 Crs
2926 1994 Crs
3229 1849 Crs
3630 2021 Crs
3294 1986 Crs
3247 1935 Crs
2853 1734 Crs
3095 2127 Crs
3036 2086 Crs
2647 1858 Crs
3703 2051 Crs
3023 1847 Crs
2765 1926 Crs
2824 1662 Crs
3805 2114 Crs
3187 2274 Crs
3271 1984 Crs
2655 1855 Crs
2706 1888 Crs
3062 1822 Crs
2761 1795 Crs
3341 1754 Crs
3500 2090 Crs
2637 1674 Crs
3063 1961 Crs
3845 1948 Crs
3507 1992 Crs
3211 2223 Crs
2816 2107 Crs
3237 1847 Crs
3124 1887 Crs
3854 2107 Crs
3127 2148 Crs
3277 1924 Crs
3373 1850 Crs
3055 1646 Crs
3230 1757 Crs
2542 1888 Crs
3062 1896 Crs
3232 2110 Crs
2690 1936 Crs
4155 2054 Crs
3350 2034 Crs
2931 2145 Crs
3432 2302 Crs
3227 1838 Crs
2383 1580 Crs
3208 2074 Crs
2614 1879 Crs
3295 2168 Crs
2870 1810 Crs
3171 1869 Crs
2768 1871 Crs
3443 1870 Crs
3212 2032 Crs
2897 1876 Crs
3137 2007 Crs
2797 1902 Crs
3546 2042 Crs
2963 2099 Crs
3452 2041 Crs
3052 1953 Crs
2983 2050 Crs
3241 1935 Crs
3278 1885 Crs
2643 1918 Crs
2405 1629 Crs
3473 1877 Crs
3713 1845 Crs
2835 1931 Crs
3303 2013 Crs
3111 1869 Crs
2676 1751 Crs
2932 1868 Crs
3701 1928 Crs
2894 1821 Crs
2952 1962 Crs
2867 1936 Crs
3092 1909 Crs
3534 2255 Crs
2558 1899 Crs
3019 2114 Crs
2945 2042 Crs
2758 1819 Crs
2814 1898 Crs
2914 2123 Crs
3961 1865 Crs
3223 2331 Crs
2696 1902 Crs
3300 2006 Crs
3492 2081 Crs
3020 1978 Crs
3386 2123 Crs
3174 2162 Crs
3001 1908 Crs
3225 1970 Crs
3244 1934 Crs
3157 2078 Crs
2955 1962 Crs
3476 1931 Crs
3068 2063 Crs
2407 1710 Crs
2618 1708 Crs
3392 2021 Crs
3330 1972 Crs
3374 2070 Crs
2686 1752 Crs
3038 2012 Crs
3039 1856 Crs
2502 1699 Crs
3436 1795 Crs
2956 2076 Crs
2806 1846 Crs
2573 1904 Crs
2618 1776 Crs
3161 2012 Crs
2857 1950 Crs
3005 1728 Crs
3207 2127 Crs
2400 1727 Crs
2992 1826 Crs
3287 2033 Crs
2644 1682 Crs
3648 1867 Crs
3251 2071 Crs
2861 1876 Crs
3744 2055 Crs
3491 1909 Crs
4144 1809 Crs
3162 1969 Crs
3153 2097 Crs
3189 2059 Crs
3673 2043 Crs
2838 1965 Crs
3208 1907 Crs
3124 1710 Crs
3880 2045 Crs
2943 1913 Crs
2768 1754 Crs
3970 1911 Crs
3140 1965 Crs
3154 1975 Crs
3178 1891 Crs
3105 1928 Crs
2655 1639 Crs
3292 1732 Crs
3190 1982 Crs
3330 1945 Crs
2453 1572 Crs
2781 1871 Crs
3389 1959 Crs
3534 1865 Crs
2666 1944 Crs
3178 1840 Crs
3727 1976 Crs
2792 1812 Crs
2593 1892 Crs
2955 1635 Crs
3036 2104 Crs
3038 2218 Crs
3239 2084 Crs
2674 1803 Crs
2960 1967 Crs
3000 2002 Crs
2862 1846 Crs
3227 1770 Crs
3167 1644 Crs
2823 1739 Crs
3312 2370 Crs
3336 2115 Crs
3845 1930 Crs
3012 1784 Crs
3440 2011 Crs
3075 2128 Crs
3597 1818 Crs
2458 1722 Crs
2550 1877 Crs
3651 1889 Crs
3098 2053 Crs
3983 2041 Crs
3395 2084 Crs
3474 2223 Crs
3096 2042 Crs
3197 2068 Crs
3096 1791 Crs
2713 1832 Crs
2963 1654 Crs
3110 2039 Crs
3357 1889 Crs
2998 1943 Crs
3092 2053 Crs
3302 2113 Crs
2256 1640 Crs
3190 1967 Crs
3185 1930 Crs
3123 1949 Crs
3430 1805 Crs
3324 2152 Crs
2337 1463 Crs
3675 1900 Crs
3773 1846 Crs
3166 2036 Crs
2967 1888 Crs
2927 1973 Crs
3215 2119 Crs
2755 1622 Crs
3573 2116 Crs
3092 1732 Crs
3861 1630 Crs
2978 1942 Crs
3229 2168 Crs
3213 1761 Crs
2805 1844 Crs
2575 1747 Crs
2653 1948 Crs
3273 1771 Crs
2537 1822 Crs
3324 1874 Crs
3129 1894 Crs
2692 1715 Crs
3305 1950 Crs
3509 1979 Crs
2710 1881 Crs
3202 2067 Crs
3205 1925 Crs
2609 1939 Crs
3577 2051 Crs
3157 1830 Crs
3317 1435 Crs
3320 1882 Crs
3127 2010 Crs
2916 1956 Crs
2550 1908 Crs
2765 1937 Crs
2858 1793 Crs
3246 1727 Crs
4081 2175 Crs
2602 1734 Crs
3173 1960 Crs
3225 1880 Crs
3050 1921 Crs
3126 1886 Crs
3107 1821 Crs
2869 1744 Crs
2945 1678 Crs
3167 1703 Crs
2936 2072 Crs
2978 1864 Crs
3190 2065 Crs
4420 2046 Crs
3143 1892 Crs
3336 2066 Crs
2598 1654 Crs
2946 1785 Crs
3336 1791 Crs
2479 1807 Crs
2923 1926 Crs
2962 1684 Crs
2904 1887 Crs
3097 1683 Crs
3023 1828 Crs
2860 2008 Crs
2740 1913 Crs
3589 1817 Crs
3319 2078 Crs
3775 2253 Crs
3012 1745 Crs
3348 1978 Crs
2613 1785 Crs
2904 2084 Crs
2884 1928 Crs
3642 1844 Crs
2799 2015 Crs
2843 1908 Crs
3234 1882 Crs
2678 1925 Crs
2634 1796 Crs
2662 1796 Crs
3056 1967 Crs
3080 2063 Crs
3150 2194 Crs
3109 1793 Crs
3434 1849 Crs
2389 1780 Crs
3658 2258 Crs
3085 2033 Crs
2614 1749 Crs
3449 2072 Crs
2777 1515 Crs
3321 1667 Crs
3045 1734 Crs
3299 1888 Crs
2995 2024 Crs
2631 1777 Crs
3395 1859 Crs
3011 1971 Crs
2951 1933 Crs
2324 1688 Crs
3503 2187 Crs
3136 1928 Crs
2974 1448 Crs
3099 1914 Crs
2330 1508 Crs
3835 1888 Crs
2931 1891 Crs
2846 1977 Crs
3107 1712 Crs
2895 1815 Crs
2637 1648 Crs
3066 1979 Crs
3648 2052 Crs
3004 2007 Crs
2795 1895 Crs
3312 2196 Crs
3883 2052 Crs
2461 1415 Crs
3134 1910 Crs
2281 1493 Crs
3256 1935 Crs
3624 1976 Crs
3251 1866 Crs
3192 1775 Crs
2905 1653 Crs
3162 2142 Crs
3088 1982 Crs
2889 1953 Crs
2988 1815 Crs
3181 1814 Crs
3176 1758 Crs
3233 1673 Crs
2810 1988 Crs
3963 1976 Crs
3324 2111 Crs
3238 1940 Crs
2934 2065 Crs
3545 2054 Crs
3052 1886 Crs
3437 2082 Crs
2821 1926 Crs
3252 1934 Crs
3036 2021 Crs
2971 1826 Crs
3290 2095 Crs
2624 1920 Crs
3572 1886 Crs
2836 1742 Crs
2723 1688 Crs
2351 1587 Crs
3812 2312 Crs
3188 2110 Crs
3868 2063 Crs
3219 2148 Crs
2771 1737 Crs
2580 1868 Crs
3527 1673 Crs
2742 1902 Crs
3355 1999 Crs
2596 1869 Crs
2286 1657 Crs
3335 2138 Crs
2239 1650 Crs
3617 2079 Crs
3007 1879 Crs
2288 1674 Crs
3310 2350 Crs
2420 1779 Crs
3076 2039 Crs
3728 2479 Crs
2748 1872 Crs
2634 1805 Crs
3218 2030 Crs
3321 2351 Crs
3378 2088 Crs
2846 2012 Crs
2609 1865 Crs
2970 1773 Crs
3143 1886 Crs
2956 1751 Crs
3022 1806 Crs
2960 1940 Crs
2935 1844 Crs
2723 1721 Crs
2919 1908 Crs
3013 1800 Crs
2852 1963 Crs
3501 1896 Crs
2455 1746 Crs
2544 1804 Crs
2827 2052 Crs
3434 1811 Crs
3148 2335 Crs
3439 1923 Crs
3388 1759 Crs
3478 2276 Crs
3342 1995 Crs
2935 1772 Crs
3045 2132 Crs
2778 1807 Crs
2978 2125 Crs
2677 1602 Crs
3199 2070 Crs
2934 1830 Crs
2812 1905 Crs
3156 2094 Crs
2528 1868 Crs
3266 2004 Crs
2983 1916 Crs
3288 1814 Crs
3329 2118 Crs
3423 1577 Crs
2905 2155 Crs
3084 1989 Crs
2857 1716 Crs
3377 2057 Crs
3075 1997 Crs
2890 2035 Crs
3184 1910 Crs
3274 1816 Crs
3547 1921 Crs
2988 1832 Crs
3249 2011 Crs
3041 2001 Crs
3045 2037 Crs
3017 1844 Crs
3357 1888 Crs
3258 2032 Crs
3082 1888 Crs
3543 1914 Crs
2540 1872 Crs
2836 1969 Crs
3478 2413 Crs
2654 1882 Crs
3920 1932 Crs
2963 1908 Crs
3395 2398 Crs
3077 1950 Crs
3008 2108 Crs
2717 1966 Crs
3551 2302 Crs
3514 2087 Crs
3055 1691 Crs
3617 1873 Crs
3014 1951 Crs
3357 2220 Crs
3024 2027 Crs
3233 2014 Crs
3370 1946 Crs
3092 1797 Crs
3302 1766 Crs
3291 1477 Crs
3590 1927 Crs
3140 1842 Crs
3353 2113 Crs
3002 2027 Crs
3239 2207 Crs
3286 2113 Crs
3327 2181 Crs
3499 2021 Crs
2647 1702 Crs
3157 2125 Crs
3319 1899 Crs
3083 1832 Crs
3163 1845 Crs
2700 1980 Crs
2712 1824 Crs
3399 2144 Crs
2349 1635 Crs
3200 1890 Crs
2320 1738 Crs
2991 2133 Crs
3311 1990 Crs
2923 1833 Crs
3121 1910 Crs
3140 1845 Crs
2137 1541 Crs
2705 1841 Crs
2568 1777 Crs
3211 1815 Crs
3133 2144 Crs
2949 1813 Crs
3014 1861 Crs
2561 1793 Crs
2674 1712 Crs
3195 2043 Crs
3144 1883 Crs
2500 1827 Crs
2923 1959 Crs
3280 1821 Crs
3069 2098 Crs
3103 1968 Crs
3422 2000 Crs
3489 1902 Crs
3276 2066 Crs
2877 1818 Crs
3238 1835 Crs
3381 1865 Crs
3085 1877 Crs
2974 1979 Crs
3115 1854 Crs
3077 2018 Crs
2749 1872 Crs
3044 2061 Crs
2694 1898 Crs
2722 1723 Crs
3499 2017 Crs
2690 1864 Crs
2979 1950 Crs
2823 2066 Crs
3212 2181 Crs
2657 1851 Crs
3162 2060 Crs
3314 2036 Crs
3421 1908 Crs
3169 2005 Crs
3384 2067 Crs
3420 2041 Crs
2355 1706 Crs
2983 1933 Crs
3217 2081 Crs
2656 1661 Crs
4080 1860 Crs
3083 2024 Crs
3598 1859 Crs
3181 1679 Crs
2847 1897 Crs
3056 1886 Crs
2952 1869 Crs
3172 2064 Crs
3451 2067 Crs
2325 1608 Crs
3253 2260 Crs
3379 2100 Crs
3106 1860 Crs
2707 1801 Crs
2966 1912 Crs
3186 1945 Crs
3350 1932 Crs
3242 2270 Crs
3276 1764 Crs
3064 1709 Crs
3625 1970 Crs
3243 1859 Crs
2966 1661 Crs
3125 1659 Crs
3423 2085 Crs
2977 1870 Crs
3343 1986 Crs
3083 1999 Crs
3094 2082 Crs
3832 1857 Crs
2752 1974 Crs
3435 1707 Crs
2700 1988 Crs
3474 1944 Crs
2708 1894 Crs
2511 1747 Crs
3512 1941 Crs
2819 2042 Crs
2590 1901 Crs
3103 2065 Crs
3244 2044 Crs
3746 2164 Crs
3240 1986 Crs
2589 1941 Crs
3311 2236 Crs
3247 1814 Crs
3483 1962 Crs
2979 2075 Crs
2855 1830 Crs
2724 1478 Crs
2656 1925 Crs
3222 1966 Crs
2882 1933 Crs
2693 1771 Crs
3019 2067 Crs
2870 2082 Crs
4057 1979 Crs
3101 1978 Crs
2967 1819 Crs
2587 1786 Crs
3654 1885 Crs
3430 2316 Crs
3190 1911 Crs
2745 1849 Crs
3072 2175 Crs
2870 1819 Crs
4015 1851 Crs
2549 1876 Crs
3067 2091 Crs
3335 1831 Crs
3204 1812 Crs
2999 1782 Crs
3209 2373 Crs
4099 1983 Crs
3457 2159 Crs
3099 1900 Crs
2857 1769 Crs
2681 1633 Crs
3035 1953 Crs
2248 1618 Crs
3144 1705 Crs
3403 2099 Crs
3123 1880 Crs
2792 1663 Crs
3800 2070 Crs
3390 1922 Crs
3000 1770 Crs
2739 1881 Crs
2873 1828 Crs
2730 1814 Crs
2759 1811 Crs
3490 1881 Crs
2879 2120 Crs
2729 1812 Crs
2859 2072 Crs
2722 1863 Crs
3504 1955 Crs
3279 2012 Crs
2563 1898 Crs
3152 2132 Crs
3107 2075 Crs
3527 1710 Crs
2678 1758 Crs
2867 1941 Crs
2874 1699 Crs
2970 1732 Crs
2985 1916 Crs
2744 1905 Crs
3166 1911 Crs
3419 1907 Crs
2950 2015 Crs
2687 1725 Crs
3207 1907 Crs
3202 1992 Crs
3147 1847 Crs
3187 1952 Crs
3067 1950 Crs
3055 2034 Crs
2399 1713 Crs
2737 1690 Crs
3064 1742 Crs
2648 1727 Crs
3266 1983 Crs
2907 1844 Crs
2873 1684 Crs
3506 2201 Crs
2883 1883 Crs
2623 1803 Crs
3052 2186 Crs
2441 1699 Crs
3238 2042 Crs
3621 1775 Crs
3029 2108 Crs
3405 1850 Crs
2483 1814 Crs
3439 2074 Crs
3390 2004 Crs
2324 1614 Crs
3090 1703 Crs
3453 1960 Crs
2741 1821 Crs
3442 1977 Crs
2747 1976 Crs
2677 1918 Crs
2910 1946 Crs
3070 2080 Crs
3023 1675 Crs
3425 2270 Crs
2756 2011 Crs
3367 2008 Crs
3192 1949 Crs
3296 1806 Crs
2710 1732 Crs
3153 1978 Crs
2644 1823 Crs
3083 1940 Crs
2607 1843 Crs
3044 1978 Crs
2639 1655 Crs
3285 1846 Crs
3272 1847 Crs
2963 2032 Crs
3401 2238 Crs
2734 2011 Crs
2660 1977 Crs
3256 1974 Crs
2546 1896 Crs
3098 1770 Crs
3747 1822 Crs
2928 1872 Crs
3612 2015 Crs
2971 1854 Crs
2926 2026 Crs
3266 1737 Crs
2821 2052 Crs
3556 1940 Crs
3381 2003 Crs
3172 1914 Crs
3588 1983 Crs
2472 1823 Crs
3140 1718 Crs
3179 1865 Crs
2372 1713 Crs
3038 2070 Crs
2596 1937 Crs
% End plot #2
% Begin plot #3
1.000 UL
LTb
LT1
0.75 0.75 0.75 C 1009 753 M
36 27 V
36 27 V
36 28 V
36 27 V
36 27 V
36 27 V
36 27 V
36 27 V
35 28 V
36 27 V
36 27 V
36 27 V
36 27 V
36 28 V
36 27 V
36 27 V
36 27 V
36 27 V
35 27 V
36 28 V
36 27 V
36 27 V
36 27 V
36 27 V
36 28 V
36 27 V
36 27 V
36 27 V
36 27 V
35 27 V
36 28 V
36 27 V
36 27 V
36 27 V
36 27 V
36 28 V
36 27 V
36 27 V
36 27 V
35 27 V
36 27 V
36 28 V
36 27 V
36 27 V
36 27 V
36 27 V
36 27 V
36 28 V
36 27 V
36 27 V
35 27 V
36 27 V
36 28 V
36 27 V
36 27 V
36 27 V
36 27 V
36 27 V
36 28 V
36 27 V
35 27 V
36 27 V
36 27 V
36 28 V
36 27 V
36 27 V
36 27 V
36 27 V
36 27 V
36 28 V
36 27 V
35 27 V
36 27 V
36 27 V
36 28 V
36 27 V
36 27 V
36 27 V
36 27 V
36 27 V
36 28 V
36 27 V
35 27 V
36 27 V
36 27 V
36 28 V
36 27 V
36 27 V
36 27 V
36 27 V
36 27 V
36 28 V
35 27 V
36 27 V
36 27 V
36 27 V
36 28 V
36 27 V
36 27 V
% End plot #3
stroke
2.000 UL
LTb
LCb setrgbcolor
1.000 UL
LTb
LCb setrgbcolor
860 3531 N
860 640 L
3819 0 V
0 2891 V
-3819 0 V
Z stroke
0.500 UP
1.000 UL
LTb
LCb setrgbcolor
stroke
grestore
end
showpage
%%Trailer
%%DocumentFonts: Helvetica
