%!PS-Adobe-2.0 EPSF-2.0
%%Title: mean.eps
%%Creator: gnuplot 5.0 patchlevel 1
%%CreationDate: Fri Oct 30 18:57:07 2015
%%DocumentFonts: (atend)
%%BoundingBox: 50 50 302 238
%%EndComments
%%BeginProlog
/gnudict 256 dict def
gnudict begin
%
% The following true/false flags may be edited by hand if desired.
% The unit line width and grayscale image gamma correction may also be changed.
%
/Color true def
/Blacktext false def
/Solid false def
/Dashlength 1 def
/Landscape false def
/Level1 false def
/Level3 false def
/Rounded false def
/ClipToBoundingBox false def
/SuppressPDFMark false def
/TransparentPatterns false def
/gnulinewidth 5.000 def
/userlinewidth gnulinewidth def
/Gamma 1.0 def
/BackgroundColor {-1.000 -1.000 -1.000} def
%
/vshift -66 def
/dl1 {
  10.0 Dashlength userlinewidth gnulinewidth div mul mul mul
  Rounded { currentlinewidth 0.75 mul sub dup 0 le { pop 0.01 } if } if
} def
/dl2 {
  10.0 Dashlength userlinewidth gnulinewidth div mul mul mul
  Rounded { currentlinewidth 0.75 mul add } if
} def
/hpt_ 31.5 def
/vpt_ 31.5 def
/hpt hpt_ def
/vpt vpt_ def
/doclip {
  ClipToBoundingBox {
    newpath 50 50 moveto 302 50 lineto 302 238 lineto 50 238 lineto closepath
    clip
  } if
} def
%
% Gnuplot Prolog Version 5.0 (Dec 2014)
%
%/SuppressPDFMark true def
%
/M {moveto} bind def
/L {lineto} bind def
/R {rmoveto} bind def
/V {rlineto} bind def
/N {newpath moveto} bind def
/Z {closepath} bind def
/C {setrgbcolor} bind def
/f {rlineto fill} bind def
/g {setgray} bind def
/Gshow {show} def   % May be redefined later in the file to support UTF-8
/vpt2 vpt 2 mul def
/hpt2 hpt 2 mul def
/Lshow {currentpoint stroke M 0 vshift R 
	Blacktext {gsave 0 setgray textshow grestore} {textshow} ifelse} def
/Rshow {currentpoint stroke M dup stringwidth pop neg vshift R
	Blacktext {gsave 0 setgray textshow grestore} {textshow} ifelse} def
/Cshow {currentpoint stroke M dup stringwidth pop -2 div vshift R 
	Blacktext {gsave 0 setgray textshow grestore} {textshow} ifelse} def
/UP {dup vpt_ mul /vpt exch def hpt_ mul /hpt exch def
  /hpt2 hpt 2 mul def /vpt2 vpt 2 mul def} def
/DL {Color {setrgbcolor Solid {pop []} if 0 setdash}
 {pop pop pop 0 setgray Solid {pop []} if 0 setdash} ifelse} def
/BL {stroke userlinewidth 2 mul setlinewidth
	Rounded {1 setlinejoin 1 setlinecap} if} def
/AL {stroke userlinewidth 2 div setlinewidth
	Rounded {1 setlinejoin 1 setlinecap} if} def
/UL {dup gnulinewidth mul /userlinewidth exch def
	dup 1 lt {pop 1} if 10 mul /udl exch def} def
/PL {stroke userlinewidth setlinewidth
	Rounded {1 setlinejoin 1 setlinecap} if} def
3.8 setmiterlimit
% Classic Line colors (version 5.0)
/LCw {1 1 1} def
/LCb {0 0 0} def
/LCa {0 0 0} def
/LC0 {1 0 0} def
/LC1 {0 1 0} def
/LC2 {0 0 1} def
/LC3 {1 0 1} def
/LC4 {0 1 1} def
/LC5 {1 1 0} def
/LC6 {0 0 0} def
/LC7 {1 0.3 0} def
/LC8 {0.5 0.5 0.5} def
% Default dash patterns (version 5.0)
/LTw {PL [] 1 setgray} def
/LTb {BL [] LCb DL} def
/LTa {AL [1 udl mul 2 udl mul] 0 setdash LCa setrgbcolor} def
/LT0 {PL [] LC0 DL} def
/LT1 {PL [2 dl1 3 dl2] LC1 DL} def
/LT2 {PL [1 dl1 1.5 dl2] LC2 DL} def
/LT3 {PL [6 dl1 2 dl2 1 dl1 2 dl2] LC3 DL} def
/LT4 {PL [1 dl1 2 dl2 6 dl1 2 dl2 1 dl1 2 dl2] LC4 DL} def
/LT5 {PL [4 dl1 2 dl2] LC5 DL} def
/LT6 {PL [1.5 dl1 1.5 dl2 1.5 dl1 1.5 dl2 1.5 dl1 6 dl2] LC6 DL} def
/LT7 {PL [3 dl1 3 dl2 1 dl1 3 dl2] LC7 DL} def
/LT8 {PL [2 dl1 2 dl2 2 dl1 6 dl2] LC8 DL} def
/SL {[] 0 setdash} def
/Pnt {stroke [] 0 setdash gsave 1 setlinecap M 0 0 V stroke grestore} def
/Dia {stroke [] 0 setdash 2 copy vpt add M
  hpt neg vpt neg V hpt vpt neg V
  hpt vpt V hpt neg vpt V closepath stroke
  Pnt} def
/Pls {stroke [] 0 setdash vpt sub M 0 vpt2 V
  currentpoint stroke M
  hpt neg vpt neg R hpt2 0 V stroke
 } def
/Box {stroke [] 0 setdash 2 copy exch hpt sub exch vpt add M
  0 vpt2 neg V hpt2 0 V 0 vpt2 V
  hpt2 neg 0 V closepath stroke
  Pnt} def
/Crs {stroke [] 0 setdash exch hpt sub exch vpt add M
  hpt2 vpt2 neg V currentpoint stroke M
  hpt2 neg 0 R hpt2 vpt2 V stroke} def
/TriU {stroke [] 0 setdash 2 copy vpt 1.12 mul add M
  hpt neg vpt -1.62 mul V
  hpt 2 mul 0 V
  hpt neg vpt 1.62 mul V closepath stroke
  Pnt} def
/Star {2 copy Pls Crs} def
/BoxF {stroke [] 0 setdash exch hpt sub exch vpt add M
  0 vpt2 neg V hpt2 0 V 0 vpt2 V
  hpt2 neg 0 V closepath fill} def
/TriUF {stroke [] 0 setdash vpt 1.12 mul add M
  hpt neg vpt -1.62 mul V
  hpt 2 mul 0 V
  hpt neg vpt 1.62 mul V closepath fill} def
/TriD {stroke [] 0 setdash 2 copy vpt 1.12 mul sub M
  hpt neg vpt 1.62 mul V
  hpt 2 mul 0 V
  hpt neg vpt -1.62 mul V closepath stroke
  Pnt} def
/TriDF {stroke [] 0 setdash vpt 1.12 mul sub M
  hpt neg vpt 1.62 mul V
  hpt 2 mul 0 V
  hpt neg vpt -1.62 mul V closepath fill} def
/DiaF {stroke [] 0 setdash vpt add M
  hpt neg vpt neg V hpt vpt neg V
  hpt vpt V hpt neg vpt V closepath fill} def
/Pent {stroke [] 0 setdash 2 copy gsave
  translate 0 hpt M 4 {72 rotate 0 hpt L} repeat
  closepath stroke grestore Pnt} def
/PentF {stroke [] 0 setdash gsave
  translate 0 hpt M 4 {72 rotate 0 hpt L} repeat
  closepath fill grestore} def
/Circle {stroke [] 0 setdash 2 copy
  hpt 0 360 arc stroke Pnt} def
/CircleF {stroke [] 0 setdash hpt 0 360 arc fill} def
/C0 {BL [] 0 setdash 2 copy moveto vpt 90 450 arc} bind def
/C1 {BL [] 0 setdash 2 copy moveto
	2 copy vpt 0 90 arc closepath fill
	vpt 0 360 arc closepath} bind def
/C2 {BL [] 0 setdash 2 copy moveto
	2 copy vpt 90 180 arc closepath fill
	vpt 0 360 arc closepath} bind def
/C3 {BL [] 0 setdash 2 copy moveto
	2 copy vpt 0 180 arc closepath fill
	vpt 0 360 arc closepath} bind def
/C4 {BL [] 0 setdash 2 copy moveto
	2 copy vpt 180 270 arc closepath fill
	vpt 0 360 arc closepath} bind def
/C5 {BL [] 0 setdash 2 copy moveto
	2 copy vpt 0 90 arc
	2 copy moveto
	2 copy vpt 180 270 arc closepath fill
	vpt 0 360 arc} bind def
/C6 {BL [] 0 setdash 2 copy moveto
	2 copy vpt 90 270 arc closepath fill
	vpt 0 360 arc closepath} bind def
/C7 {BL [] 0 setdash 2 copy moveto
	2 copy vpt 0 270 arc closepath fill
	vpt 0 360 arc closepath} bind def
/C8 {BL [] 0 setdash 2 copy moveto
	2 copy vpt 270 360 arc closepath fill
	vpt 0 360 arc closepath} bind def
/C9 {BL [] 0 setdash 2 copy moveto
	2 copy vpt 270 450 arc closepath fill
	vpt 0 360 arc closepath} bind def
/C10 {BL [] 0 setdash 2 copy 2 copy moveto vpt 270 360 arc closepath fill
	2 copy moveto
	2 copy vpt 90 180 arc closepath fill
	vpt 0 360 arc closepath} bind def
/C11 {BL [] 0 setdash 2 copy moveto
	2 copy vpt 0 180 arc closepath fill
	2 copy moveto
	2 copy vpt 270 360 arc closepath fill
	vpt 0 360 arc closepath} bind def
/C12 {BL [] 0 setdash 2 copy moveto
	2 copy vpt 180 360 arc closepath fill
	vpt 0 360 arc closepath} bind def
/C13 {BL [] 0 setdash 2 copy moveto
	2 copy vpt 0 90 arc closepath fill
	2 copy moveto
	2 copy vpt 180 360 arc closepath fill
	vpt 0 360 arc closepath} bind def
/C14 {BL [] 0 setdash 2 copy moveto
	2 copy vpt 90 360 arc closepath fill
	vpt 0 360 arc} bind def
/C15 {BL [] 0 setdash 2 copy vpt 0 360 arc closepath fill
	vpt 0 360 arc closepath} bind def
/Rec {newpath 4 2 roll moveto 1 index 0 rlineto 0 exch rlineto
	neg 0 rlineto closepath} bind def
/Square {dup Rec} bind def
/Bsquare {vpt sub exch vpt sub exch vpt2 Square} bind def
/S0 {BL [] 0 setdash 2 copy moveto 0 vpt rlineto BL Bsquare} bind def
/S1 {BL [] 0 setdash 2 copy vpt Square fill Bsquare} bind def
/S2 {BL [] 0 setdash 2 copy exch vpt sub exch vpt Square fill Bsquare} bind def
/S3 {BL [] 0 setdash 2 copy exch vpt sub exch vpt2 vpt Rec fill Bsquare} bind def
/S4 {BL [] 0 setdash 2 copy exch vpt sub exch vpt sub vpt Square fill Bsquare} bind def
/S5 {BL [] 0 setdash 2 copy 2 copy vpt Square fill
	exch vpt sub exch vpt sub vpt Square fill Bsquare} bind def
/S6 {BL [] 0 setdash 2 copy exch vpt sub exch vpt sub vpt vpt2 Rec fill Bsquare} bind def
/S7 {BL [] 0 setdash 2 copy exch vpt sub exch vpt sub vpt vpt2 Rec fill
	2 copy vpt Square fill Bsquare} bind def
/S8 {BL [] 0 setdash 2 copy vpt sub vpt Square fill Bsquare} bind def
/S9 {BL [] 0 setdash 2 copy vpt sub vpt vpt2 Rec fill Bsquare} bind def
/S10 {BL [] 0 setdash 2 copy vpt sub vpt Square fill 2 copy exch vpt sub exch vpt Square fill
	Bsquare} bind def
/S11 {BL [] 0 setdash 2 copy vpt sub vpt Square fill 2 copy exch vpt sub exch vpt2 vpt Rec fill
	Bsquare} bind def
/S12 {BL [] 0 setdash 2 copy exch vpt sub exch vpt sub vpt2 vpt Rec fill Bsquare} bind def
/S13 {BL [] 0 setdash 2 copy exch vpt sub exch vpt sub vpt2 vpt Rec fill
	2 copy vpt Square fill Bsquare} bind def
/S14 {BL [] 0 setdash 2 copy exch vpt sub exch vpt sub vpt2 vpt Rec fill
	2 copy exch vpt sub exch vpt Square fill Bsquare} bind def
/S15 {BL [] 0 setdash 2 copy Bsquare fill Bsquare} bind def
/D0 {gsave translate 45 rotate 0 0 S0 stroke grestore} bind def
/D1 {gsave translate 45 rotate 0 0 S1 stroke grestore} bind def
/D2 {gsave translate 45 rotate 0 0 S2 stroke grestore} bind def
/D3 {gsave translate 45 rotate 0 0 S3 stroke grestore} bind def
/D4 {gsave translate 45 rotate 0 0 S4 stroke grestore} bind def
/D5 {gsave translate 45 rotate 0 0 S5 stroke grestore} bind def
/D6 {gsave translate 45 rotate 0 0 S6 stroke grestore} bind def
/D7 {gsave translate 45 rotate 0 0 S7 stroke grestore} bind def
/D8 {gsave translate 45 rotate 0 0 S8 stroke grestore} bind def
/D9 {gsave translate 45 rotate 0 0 S9 stroke grestore} bind def
/D10 {gsave translate 45 rotate 0 0 S10 stroke grestore} bind def
/D11 {gsave translate 45 rotate 0 0 S11 stroke grestore} bind def
/D12 {gsave translate 45 rotate 0 0 S12 stroke grestore} bind def
/D13 {gsave translate 45 rotate 0 0 S13 stroke grestore} bind def
/D14 {gsave translate 45 rotate 0 0 S14 stroke grestore} bind def
/D15 {gsave translate 45 rotate 0 0 S15 stroke grestore} bind def
/DiaE {stroke [] 0 setdash vpt add M
  hpt neg vpt neg V hpt vpt neg V
  hpt vpt V hpt neg vpt V closepath stroke} def
/BoxE {stroke [] 0 setdash exch hpt sub exch vpt add M
  0 vpt2 neg V hpt2 0 V 0 vpt2 V
  hpt2 neg 0 V closepath stroke} def
/TriUE {stroke [] 0 setdash vpt 1.12 mul add M
  hpt neg vpt -1.62 mul V
  hpt 2 mul 0 V
  hpt neg vpt 1.62 mul V closepath stroke} def
/TriDE {stroke [] 0 setdash vpt 1.12 mul sub M
  hpt neg vpt 1.62 mul V
  hpt 2 mul 0 V
  hpt neg vpt -1.62 mul V closepath stroke} def
/PentE {stroke [] 0 setdash gsave
  translate 0 hpt M 4 {72 rotate 0 hpt L} repeat
  closepath stroke grestore} def
/CircE {stroke [] 0 setdash 
  hpt 0 360 arc stroke} def
/Opaque {gsave closepath 1 setgray fill grestore 0 setgray closepath} def
/DiaW {stroke [] 0 setdash vpt add M
  hpt neg vpt neg V hpt vpt neg V
  hpt vpt V hpt neg vpt V Opaque stroke} def
/BoxW {stroke [] 0 setdash exch hpt sub exch vpt add M
  0 vpt2 neg V hpt2 0 V 0 vpt2 V
  hpt2 neg 0 V Opaque stroke} def
/TriUW {stroke [] 0 setdash vpt 1.12 mul add M
  hpt neg vpt -1.62 mul V
  hpt 2 mul 0 V
  hpt neg vpt 1.62 mul V Opaque stroke} def
/TriDW {stroke [] 0 setdash vpt 1.12 mul sub M
  hpt neg vpt 1.62 mul V
  hpt 2 mul 0 V
  hpt neg vpt -1.62 mul V Opaque stroke} def
/PentW {stroke [] 0 setdash gsave
  translate 0 hpt M 4 {72 rotate 0 hpt L} repeat
  Opaque stroke grestore} def
/CircW {stroke [] 0 setdash 
  hpt 0 360 arc Opaque stroke} def
/BoxFill {gsave Rec 1 setgray fill grestore} def
/Density {
  /Fillden exch def
  currentrgbcolor
  /ColB exch def /ColG exch def /ColR exch def
  /ColR ColR Fillden mul Fillden sub 1 add def
  /ColG ColG Fillden mul Fillden sub 1 add def
  /ColB ColB Fillden mul Fillden sub 1 add def
  ColR ColG ColB setrgbcolor} def
/BoxColFill {gsave Rec PolyFill} def
/PolyFill {gsave Density fill grestore grestore} def
/h {rlineto rlineto rlineto gsave closepath fill grestore} bind def
%
% PostScript Level 1 Pattern Fill routine for rectangles
% Usage: x y w h s a XX PatternFill
%	x,y = lower left corner of box to be filled
%	w,h = width and height of box
%	  a = angle in degrees between lines and x-axis
%	 XX = 0/1 for no/yes cross-hatch
%
/PatternFill {gsave /PFa [ 9 2 roll ] def
  PFa 0 get PFa 2 get 2 div add PFa 1 get PFa 3 get 2 div add translate
  PFa 2 get -2 div PFa 3 get -2 div PFa 2 get PFa 3 get Rec
  TransparentPatterns {} {gsave 1 setgray fill grestore} ifelse
  clip
  currentlinewidth 0.5 mul setlinewidth
  /PFs PFa 2 get dup mul PFa 3 get dup mul add sqrt def
  0 0 M PFa 5 get rotate PFs -2 div dup translate
  0 1 PFs PFa 4 get div 1 add floor cvi
	{PFa 4 get mul 0 M 0 PFs V} for
  0 PFa 6 get ne {
	0 1 PFs PFa 4 get div 1 add floor cvi
	{PFa 4 get mul 0 2 1 roll M PFs 0 V} for
 } if
  stroke grestore} def
%
/languagelevel where
 {pop languagelevel} {1} ifelse
dup 2 lt
	{/InterpretLevel1 true def
	 /InterpretLevel3 false def}
	{/InterpretLevel1 Level1 def
	 2 gt
	    {/InterpretLevel3 Level3 def}
	    {/InterpretLevel3 false def}
	 ifelse }
 ifelse
%
% PostScript level 2 pattern fill definitions
%
/Level2PatternFill {
/Tile8x8 {/PaintType 2 /PatternType 1 /TilingType 1 /BBox [0 0 8 8] /XStep 8 /YStep 8}
	bind def
/KeepColor {currentrgbcolor [/Pattern /DeviceRGB] setcolorspace} bind def
<< Tile8x8
 /PaintProc {0.5 setlinewidth pop 0 0 M 8 8 L 0 8 M 8 0 L stroke} 
>> matrix makepattern
/Pat1 exch def
<< Tile8x8
 /PaintProc {0.5 setlinewidth pop 0 0 M 8 8 L 0 8 M 8 0 L stroke
	0 4 M 4 8 L 8 4 L 4 0 L 0 4 L stroke}
>> matrix makepattern
/Pat2 exch def
<< Tile8x8
 /PaintProc {0.5 setlinewidth pop 0 0 M 0 8 L
	8 8 L 8 0 L 0 0 L fill}
>> matrix makepattern
/Pat3 exch def
<< Tile8x8
 /PaintProc {0.5 setlinewidth pop -4 8 M 8 -4 L
	0 12 M 12 0 L stroke}
>> matrix makepattern
/Pat4 exch def
<< Tile8x8
 /PaintProc {0.5 setlinewidth pop -4 0 M 8 12 L
	0 -4 M 12 8 L stroke}
>> matrix makepattern
/Pat5 exch def
<< Tile8x8
 /PaintProc {0.5 setlinewidth pop -2 8 M 4 -4 L
	0 12 M 8 -4 L 4 12 M 10 0 L stroke}
>> matrix makepattern
/Pat6 exch def
<< Tile8x8
 /PaintProc {0.5 setlinewidth pop -2 0 M 4 12 L
	0 -4 M 8 12 L 4 -4 M 10 8 L stroke}
>> matrix makepattern
/Pat7 exch def
<< Tile8x8
 /PaintProc {0.5 setlinewidth pop 8 -2 M -4 4 L
	12 0 M -4 8 L 12 4 M 0 10 L stroke}
>> matrix makepattern
/Pat8 exch def
<< Tile8x8
 /PaintProc {0.5 setlinewidth pop 0 -2 M 12 4 L
	-4 0 M 12 8 L -4 4 M 8 10 L stroke}
>> matrix makepattern
/Pat9 exch def
/Pattern1 {PatternBgnd KeepColor Pat1 setpattern} bind def
/Pattern2 {PatternBgnd KeepColor Pat2 setpattern} bind def
/Pattern3 {PatternBgnd KeepColor Pat3 setpattern} bind def
/Pattern4 {PatternBgnd KeepColor Landscape {Pat5} {Pat4} ifelse setpattern} bind def
/Pattern5 {PatternBgnd KeepColor Landscape {Pat4} {Pat5} ifelse setpattern} bind def
/Pattern6 {PatternBgnd KeepColor Landscape {Pat9} {Pat6} ifelse setpattern} bind def
/Pattern7 {PatternBgnd KeepColor Landscape {Pat8} {Pat7} ifelse setpattern} bind def
} def
%
%
%End of PostScript Level 2 code
%
/PatternBgnd {
  TransparentPatterns {} {gsave 1 setgray fill grestore} ifelse
} def
%
% Substitute for Level 2 pattern fill codes with
% grayscale if Level 2 support is not selected.
%
/Level1PatternFill {
/Pattern1 {0.250 Density} bind def
/Pattern2 {0.500 Density} bind def
/Pattern3 {0.750 Density} bind def
/Pattern4 {0.125 Density} bind def
/Pattern5 {0.375 Density} bind def
/Pattern6 {0.625 Density} bind def
/Pattern7 {0.875 Density} bind def
} def
%
% Now test for support of Level 2 code
%
Level1 {Level1PatternFill} {Level2PatternFill} ifelse
%
/Symbol-Oblique /Symbol findfont [1 0 .167 1 0 0] makefont
dup length dict begin {1 index /FID eq {pop pop} {def} ifelse} forall
currentdict end definefont pop
%
/MFshow {
   { dup 5 get 3 ge
     { 5 get 3 eq {gsave} {grestore} ifelse }
     {dup dup 0 get findfont exch 1 get scalefont setfont
     [ currentpoint ] exch dup 2 get 0 exch R dup 5 get 2 ne {dup dup 6
     get exch 4 get {textshow} {stringwidth pop 0 R} ifelse }if dup 5 get 0 eq
     {dup 3 get {2 get neg 0 exch R pop} {pop aload pop M} ifelse} {dup 5
     get 1 eq {dup 2 get exch dup 3 get exch 6 get stringwidth pop -2 div
     dup 0 R} {dup 6 get stringwidth pop -2 div 0 R 6 get
     textshow 2 index {aload pop M neg 3 -1 roll neg R pop pop} {pop pop pop
     pop aload pop M} ifelse }ifelse }ifelse }
     ifelse }
   forall} def
/Gswidth {dup type /stringtype eq {stringwidth} {pop (n) stringwidth} ifelse} def
/MFwidth {0 exch { dup 5 get 3 ge { 5 get 3 eq { 0 } { pop } ifelse }
 {dup 3 get{dup dup 0 get findfont exch 1 get scalefont setfont
     6 get Gswidth pop add} {pop} ifelse} ifelse} forall} def
/MLshow { currentpoint stroke M
  0 exch R
  Blacktext {gsave 0 setgray MFshow grestore} {MFshow} ifelse } bind def
/MRshow { currentpoint stroke M
  exch dup MFwidth neg 3 -1 roll R
  Blacktext {gsave 0 setgray MFshow grestore} {MFshow} ifelse } bind def
/MCshow { currentpoint stroke M
  exch dup MFwidth -2 div 3 -1 roll R
  Blacktext {gsave 0 setgray MFshow grestore} {MFshow} ifelse } bind def
/XYsave    { [( ) 1 2 true false 3 ()] } bind def
/XYrestore { [( ) 1 2 true false 4 ()] } bind def
Level1 SuppressPDFMark or 
{} {
/SDict 10 dict def
systemdict /pdfmark known not {
  userdict /pdfmark systemdict /cleartomark get put
} if
SDict begin [
  /Title (mean.eps)
  /Subject (gnuplot plot)
  /Creator (gnuplot 5.0 patchlevel 1)
  /Author (gaumont)
%  /Producer (gnuplot)
%  /Keywords ()
  /CreationDate (Fri Oct 30 18:57:07 2015)
  /DOCINFO pdfmark
end
} ifelse
end
%
% Support for boxed text - Ethan A Merritt May 2005
%
/InitTextBox { userdict /TBy2 3 -1 roll put userdict /TBx2 3 -1 roll put
           userdict /TBy1 3 -1 roll put userdict /TBx1 3 -1 roll put
	   /Boxing true def } def
/ExtendTextBox { Boxing
    { gsave dup false charpath pathbbox
      dup TBy2 gt {userdict /TBy2 3 -1 roll put} {pop} ifelse
      dup TBx2 gt {userdict /TBx2 3 -1 roll put} {pop} ifelse
      dup TBy1 lt {userdict /TBy1 3 -1 roll put} {pop} ifelse
      dup TBx1 lt {userdict /TBx1 3 -1 roll put} {pop} ifelse
      grestore } if } def
/PopTextBox { newpath TBx1 TBxmargin sub TBy1 TBymargin sub M
               TBx1 TBxmargin sub TBy2 TBymargin add L
	       TBx2 TBxmargin add TBy2 TBymargin add L
	       TBx2 TBxmargin add TBy1 TBymargin sub L closepath } def
/DrawTextBox { PopTextBox stroke /Boxing false def} def
/FillTextBox { gsave PopTextBox 1 1 1 setrgbcolor fill grestore /Boxing false def} def
0 0 0 0 InitTextBox
/TBxmargin 20 def
/TBymargin 20 def
/Boxing false def
/textshow { ExtendTextBox Gshow } def
%
%%EndProlog
%%Page: 1 1
gnudict begin
gsave
doclip
50 50 translate
0.050 0.050 scale
0 setgray
newpath
(Helvetica) findfont 200 scalefont setfont
BackgroundColor 0 lt 3 1 roll 0 lt exch 0 lt or or not {BackgroundColor C 1.000 0 0 5040.00 3772.00 BoxColFill} if
1.000 UL
LTb
LCb setrgbcolor
860 640 M
63 0 V
3756 0 R
-63 0 V
stroke
740 640 M
[ [(Helvetica) 200.0 0.0 true true 0 (10)]
[(Helvetica) 160.0 100.0 true true 0 (-7)]
] -86.7 MRshow
1.000 UL
LTb
LCb setrgbcolor
860 785 M
31 0 V
3788 0 R
-31 0 V
860 977 M
31 0 V
3788 0 R
-31 0 V
860 1075 M
31 0 V
3788 0 R
-31 0 V
860 1122 M
63 0 V
3756 0 R
-63 0 V
stroke
740 1122 M
[ [(Helvetica) 200.0 0.0 true true 0 (10)]
[(Helvetica) 160.0 100.0 true true 0 (-6)]
] -86.7 MRshow
1.000 UL
LTb
LCb setrgbcolor
860 1267 M
31 0 V
3788 0 R
-31 0 V
860 1459 M
31 0 V
3788 0 R
-31 0 V
860 1557 M
31 0 V
3788 0 R
-31 0 V
860 1604 M
63 0 V
3756 0 R
-63 0 V
stroke
740 1604 M
[ [(Helvetica) 200.0 0.0 true true 0 (10)]
[(Helvetica) 160.0 100.0 true true 0 (-5)]
] -86.7 MRshow
1.000 UL
LTb
LCb setrgbcolor
860 1749 M
31 0 V
3788 0 R
-31 0 V
860 1940 M
31 0 V
3788 0 R
-31 0 V
860 2039 M
31 0 V
3788 0 R
-31 0 V
860 2086 M
63 0 V
3756 0 R
-63 0 V
stroke
740 2086 M
[ [(Helvetica) 200.0 0.0 true true 0 (10)]
[(Helvetica) 160.0 100.0 true true 0 (-4)]
] -86.7 MRshow
1.000 UL
LTb
LCb setrgbcolor
860 2231 M
31 0 V
3788 0 R
-31 0 V
860 2422 M
31 0 V
3788 0 R
-31 0 V
860 2521 M
31 0 V
3788 0 R
-31 0 V
860 2567 M
63 0 V
3756 0 R
-63 0 V
stroke
740 2567 M
[ [(Helvetica) 200.0 0.0 true true 0 (10)]
[(Helvetica) 160.0 100.0 true true 0 (-3)]
] -86.7 MRshow
1.000 UL
LTb
LCb setrgbcolor
860 2712 M
31 0 V
3788 0 R
-31 0 V
860 2904 M
31 0 V
3788 0 R
-31 0 V
860 3002 M
31 0 V
3788 0 R
-31 0 V
860 3049 M
63 0 V
3756 0 R
-63 0 V
stroke
740 3049 M
[ [(Helvetica) 200.0 0.0 true true 0 (10)]
[(Helvetica) 160.0 100.0 true true 0 (-2)]
] -86.7 MRshow
1.000 UL
LTb
LCb setrgbcolor
860 3194 M
31 0 V
3788 0 R
-31 0 V
860 3386 M
31 0 V
3788 0 R
-31 0 V
860 3484 M
31 0 V
3788 0 R
-31 0 V
860 3531 M
63 0 V
3756 0 R
-63 0 V
stroke
740 3531 M
[ [(Helvetica) 200.0 0.0 true true 0 (10)]
[(Helvetica) 160.0 100.0 true true 0 (-1)]
] -86.7 MRshow
1.000 UL
LTb
LCb setrgbcolor
860 640 M
0 63 V
0 2828 R
0 -63 V
stroke
860 440 M
[ [(Helvetica) 200.0 0.0 true true 0 (10)]
[(Helvetica) 160.0 100.0 true true 0 (-7)]
] -86.7 MCshow
1.000 UL
LTb
LCb setrgbcolor
1052 640 M
0 31 V
0 2860 R
0 -31 V
1305 640 M
0 31 V
0 2860 R
0 -31 V
1435 640 M
0 31 V
0 2860 R
0 -31 V
1497 640 M
0 63 V
0 2828 R
0 -63 V
stroke
1497 440 M
[ [(Helvetica) 200.0 0.0 true true 0 (10)]
[(Helvetica) 160.0 100.0 true true 0 (-6)]
] -86.7 MCshow
1.000 UL
LTb
LCb setrgbcolor
1688 640 M
0 31 V
0 2860 R
0 -31 V
1941 640 M
0 31 V
0 2860 R
0 -31 V
2071 640 M
0 31 V
0 2860 R
0 -31 V
2133 640 M
0 63 V
0 2828 R
0 -63 V
stroke
2133 440 M
[ [(Helvetica) 200.0 0.0 true true 0 (10)]
[(Helvetica) 160.0 100.0 true true 0 (-5)]
] -86.7 MCshow
1.000 UL
LTb
LCb setrgbcolor
2325 640 M
0 31 V
0 2860 R
0 -31 V
2578 640 M
0 31 V
0 2860 R
0 -31 V
2708 640 M
0 31 V
0 2860 R
0 -31 V
2770 640 M
0 63 V
0 2828 R
0 -63 V
stroke
2770 440 M
[ [(Helvetica) 200.0 0.0 true true 0 (10)]
[(Helvetica) 160.0 100.0 true true 0 (-4)]
] -86.7 MCshow
1.000 UL
LTb
LCb setrgbcolor
2961 640 M
0 31 V
0 2860 R
0 -31 V
3214 640 M
0 31 V
0 2860 R
0 -31 V
3344 640 M
0 31 V
0 2860 R
0 -31 V
3406 640 M
0 63 V
0 2828 R
0 -63 V
stroke
3406 440 M
[ [(Helvetica) 200.0 0.0 true true 0 (10)]
[(Helvetica) 160.0 100.0 true true 0 (-3)]
] -86.7 MCshow
1.000 UL
LTb
LCb setrgbcolor
3598 640 M
0 31 V
0 2860 R
0 -31 V
3851 640 M
0 31 V
0 2860 R
0 -31 V
3981 640 M
0 31 V
0 2860 R
0 -31 V
4043 640 M
0 63 V
0 2828 R
0 -63 V
stroke
4043 440 M
[ [(Helvetica) 200.0 0.0 true true 0 (10)]
[(Helvetica) 160.0 100.0 true true 0 (-2)]
] -86.7 MCshow
1.000 UL
LTb
LCb setrgbcolor
4234 640 M
0 31 V
0 2860 R
0 -31 V
4487 640 M
0 31 V
0 2860 R
0 -31 V
4617 640 M
0 31 V
0 2860 R
0 -31 V
4679 640 M
0 63 V
0 2828 R
0 -63 V
stroke
4679 440 M
[ [(Helvetica) 200.0 0.0 true true 0 (10)]
[(Helvetica) 160.0 100.0 true true 0 (-1)]
] -86.7 MCshow
1.000 UL
LTb
LCb setrgbcolor
1.000 UL
LTb
LCb setrgbcolor
860 3531 N
860 640 L
3819 0 V
0 2891 V
-3819 0 V
Z stroke
0.500 UP
1.000 UL
LTb
LCb setrgbcolor
LCb setrgbcolor
160 2085 M
currentpoint gsave translate -270 rotate 0 0 moveto
[ [(Helvetica) 200.0 0.0 true true 0 (Inter-thread density)]
] -66.7 MCshow
grestore
LTb
LCb setrgbcolor
2769 140 M
[ [(Helvetica) 200.0 0.0 true true 0 (Intra-thread density)]
] -66.7 MCshow
LTb
% Begin plot #1
0.500 UP
0.500 UL
LTb
0.82 0.11 0.02 C 1319 997 Pls
1733 1305 Pls
1009 1245 Pls
1453 1164 Pls
1753 1358 Pls
1783 1502 Pls
1739 1332 Pls
% End plot #1
% Begin plot #2
0.500 UP
0.500 UL
LTb
0.73 0.85 0.33 C 3659 1448 Crs
3363 1333 Crs
4298 1340 Crs
2940 1352 Crs
3445 920 Crs
3179 1205 Crs
3207 1354 Crs
3228 1474 Crs
2975 1391 Crs
3053 1226 Crs
3132 1225 Crs
2884 1128 Crs
3419 1464 Crs
3583 1346 Crs
2447 1317 Crs
3026 1464 Crs
3227 1349 Crs
2966 1129 Crs
3655 1351 Crs
3260 1371 Crs
3116 1344 Crs
3148 1423 Crs
2751 1409 Crs
2785 1311 Crs
3217 1504 Crs
2927 1252 Crs
2840 1524 Crs
3083 1073 Crs
2440 1198 Crs
2781 1521 Crs
2601 1153 Crs
3527 1211 Crs
2738 1187 Crs
3435 1160 Crs
2722 1118 Crs
2730 1510 Crs
3625 1213 Crs
2953 1257 Crs
3442 1547 Crs
3128 1219 Crs
2999 1391 Crs
2950 1392 Crs
3625 1217 Crs
3081 1364 Crs
2853 1271 Crs
2544 1304 Crs
3150 1194 Crs
3161 1548 Crs
2683 1336 Crs
2526 1232 Crs
2550 1295 Crs
3114 1437 Crs
3836 1387 Crs
2852 1283 Crs
3412 1494 Crs
2891 1151 Crs
3594 1376 Crs
2833 1290 Crs
2477 1337 Crs
3013 1056 Crs
2935 1220 Crs
3385 1296 Crs
2896 1147 Crs
1996 1440 Crs
1545 857 Crs
2567 1347 Crs
2644 1270 Crs
3033 1241 Crs
3548 1197 Crs
2813 1573 Crs
3524 1241 Crs
2804 1141 Crs
3054 1246 Crs
3723 1277 Crs
3730 1232 Crs
3330 1260 Crs
2747 1359 Crs
3143 1194 Crs
2761 1164 Crs
2519 1161 Crs
2615 1310 Crs
2114 1061 Crs
2878 1153 Crs
3006 1228 Crs
3049 1304 Crs
2826 1353 Crs
3223 1278 Crs
3231 1274 Crs
4082 1231 Crs
2824 1443 Crs
3527 1269 Crs
3193 1237 Crs
2973 1427 Crs
2470 1247 Crs
3124 1161 Crs
3257 1338 Crs
2260 1180 Crs
3501 1541 Crs
2944 1041 Crs
2532 1378 Crs
2797 1205 Crs
2933 1332 Crs
3367 1469 Crs
3072 1425 Crs
3299 1516 Crs
3361 1214 Crs
3487 1296 Crs
2457 1012 Crs
3286 1322 Crs
3108 1286 Crs
2830 1575 Crs
3404 1320 Crs
2547 1159 Crs
2378 1216 Crs
3116 1223 Crs
2250 1245 Crs
3088 1310 Crs
3184 1373 Crs
2604 1196 Crs
3295 1320 Crs
3136 1362 Crs
3569 1345 Crs
3141 1168 Crs
2815 1258 Crs
2904 1420 Crs
2407 1336 Crs
2994 1414 Crs
3593 1071 Crs
3406 1249 Crs
3088 1239 Crs
1872 1356 Crs
3140 1403 Crs
3325 1342 Crs
2455 1283 Crs
2435 1170 Crs
3716 1558 Crs
3865 1368 Crs
2606 1492 Crs
3234 1252 Crs
2650 1202 Crs
2383 1157 Crs
2680 1295 Crs
2719 1217 Crs
2641 1088 Crs
3718 1180 Crs
3138 1233 Crs
2792 1159 Crs
2866 1110 Crs
2697 1099 Crs
3170 1254 Crs
2317 1325 Crs
4022 1320 Crs
3243 1287 Crs
3235 1231 Crs
3260 1388 Crs
3344 1341 Crs
2702 1387 Crs
2790 931 Crs
2962 1287 Crs
3087 1386 Crs
2859 1440 Crs
3047 1260 Crs
3215 1455 Crs
2732 1361 Crs
3061 1247 Crs
3259 1441 Crs
3672 1107 Crs
2002 1283 Crs
3276 1320 Crs
2914 1255 Crs
2892 1227 Crs
3090 1198 Crs
2916 1371 Crs
2542 799 Crs
3594 1215 Crs
3182 1316 Crs
3365 1321 Crs
3069 1112 Crs
3000 1101 Crs
2858 1256 Crs
3143 1397 Crs
2842 1361 Crs
2915 1556 Crs
2081 1303 Crs
3578 1601 Crs
2780 1164 Crs
3068 1250 Crs
2997 1464 Crs
3498 1114 Crs
2791 1255 Crs
3199 1268 Crs
3133 1475 Crs
3272 1323 Crs
2973 1277 Crs
3184 1279 Crs
3062 1244 Crs
3059 1081 Crs
3919 1528 Crs
2880 1286 Crs
2478 871 Crs
3044 1148 Crs
3273 1208 Crs
2564 941 Crs
3422 1236 Crs
2491 1267 Crs
2791 1135 Crs
3054 1374 Crs
3430 1526 Crs
2530 1297 Crs
2224 1370 Crs
3173 1205 Crs
2967 1254 Crs
2922 979 Crs
2286 1415 Crs
2697 972 Crs
2397 956 Crs
2436 1557 Crs
3287 1285 Crs
3340 1284 Crs
3552 1381 Crs
2611 1035 Crs
3134 1194 Crs
3145 1137 Crs
4024 1188 Crs
2926 1408 Crs
3094 1462 Crs
2954 1335 Crs
2912 1365 Crs
2974 1292 Crs
3625 1278 Crs
3020 1187 Crs
2633 1343 Crs
3459 1063 Crs
3161 1352 Crs
3112 1359 Crs
3276 1201 Crs
2898 1282 Crs
4226 1262 Crs
3575 1327 Crs
3099 1279 Crs
3340 1231 Crs
4060 1193 Crs
3108 1358 Crs
3556 1240 Crs
3156 1390 Crs
2727 1413 Crs
3177 1316 Crs
2889 1106 Crs
2763 1283 Crs
3161 1391 Crs
3226 1510 Crs
3458 1196 Crs
3151 1216 Crs
2697 1270 Crs
3232 1150 Crs
2986 1388 Crs
2681 1159 Crs
3185 1182 Crs
3557 1183 Crs
2498 1216 Crs
3712 1405 Crs
2616 1039 Crs
3116 1294 Crs
2974 1142 Crs
2554 1326 Crs
3613 1356 Crs
2730 1242 Crs
3095 1274 Crs
2145 1381 Crs
2876 1355 Crs
3094 1177 Crs
2900 1410 Crs
3763 1261 Crs
3326 1358 Crs
3133 1639 Crs
3154 1469 Crs
2799 1297 Crs
3072 1252 Crs
2379 1125 Crs
3312 1636 Crs
3172 1159 Crs
3250 1549 Crs
2971 1219 Crs
2907 1065 Crs
3238 1283 Crs
3182 1327 Crs
2938 1310 Crs
3424 1351 Crs
2607 881 Crs
2408 1450 Crs
3166 1375 Crs
2713 1401 Crs
2315 1466 Crs
3433 1172 Crs
2295 848 Crs
3005 1281 Crs
2912 1382 Crs
2555 1296 Crs
2805 1196 Crs
3175 1422 Crs
2619 1024 Crs
2734 1477 Crs
3251 1357 Crs
3088 1337 Crs
2830 1177 Crs
4122 1205 Crs
3037 971 Crs
3704 1280 Crs
2732 1324 Crs
3583 1406 Crs
2616 1375 Crs
3031 1205 Crs
4204 1290 Crs
2918 1179 Crs
2536 1359 Crs
3173 1243 Crs
3078 1193 Crs
4074 1461 Crs
3436 1425 Crs
3129 1371 Crs
2614 1286 Crs
3331 1496 Crs
2993 1459 Crs
2867 1299 Crs
3000 1346 Crs
3643 1398 Crs
3055 1307 Crs
2811 1230 Crs
2716 1419 Crs
3325 1331 Crs
3281 948 Crs
2319 1004 Crs
3115 1265 Crs
3131 1096 Crs
3179 1396 Crs
3357 1248 Crs
3718 1278 Crs
2961 1348 Crs
3021 1235 Crs
3281 1523 Crs
2914 1149 Crs
2905 1208 Crs
3416 1189 Crs
3138 1264 Crs
2807 1342 Crs
3256 1520 Crs
2482 1128 Crs
3088 1172 Crs
3272 1295 Crs
3103 1244 Crs
2947 1351 Crs
2668 1197 Crs
3054 1169 Crs
2888 1290 Crs
3369 1224 Crs
2884 1204 Crs
3064 1431 Crs
3315 1315 Crs
2164 1504 Crs
3124 1432 Crs
3042 1483 Crs
3293 1153 Crs
3055 1249 Crs
2946 1205 Crs
3630 1209 Crs
3243 1160 Crs
3048 1311 Crs
3172 1273 Crs
3105 1198 Crs
2864 1274 Crs
2624 1219 Crs
3589 1304 Crs
3296 1420 Crs
2744 1236 Crs
3087 1466 Crs
3301 1342 Crs
3125 1174 Crs
3290 1314 Crs
2722 1095 Crs
3278 1286 Crs
3713 1319 Crs
2753 1275 Crs
3272 1443 Crs
3338 1478 Crs
2805 1509 Crs
3092 1266 Crs
2850 1349 Crs
3188 1102 Crs
3467 1274 Crs
3031 1386 Crs
3208 1229 Crs
3014 1159 Crs
3143 1309 Crs
2733 1495 Crs
3084 1354 Crs
3062 1235 Crs
2981 1491 Crs
2584 1071 Crs
3460 1415 Crs
2991 1346 Crs
2734 1372 Crs
2956 1103 Crs
3622 1267 Crs
3081 1295 Crs
2800 1444 Crs
3010 1438 Crs
2816 1282 Crs
2904 780 Crs
3284 1211 Crs
3032 1599 Crs
3119 1236 Crs
2953 1262 Crs
3548 1498 Crs
2892 1321 Crs
2130 1137 Crs
3077 738 Crs
3312 1292 Crs
2658 1385 Crs
2710 1236 Crs
2507 1279 Crs
3065 1289 Crs
2301 1299 Crs
2792 1304 Crs
2775 1256 Crs
3605 1412 Crs
3062 1336 Crs
3123 1370 Crs
3478 1458 Crs
2933 1692 Crs
2593 1422 Crs
3521 972 Crs
3613 1399 Crs
3137 1376 Crs
3351 1165 Crs
3051 1555 Crs
3305 1313 Crs
3259 1320 Crs
3389 1299 Crs
3516 1262 Crs
3146 1255 Crs
3902 1460 Crs
2854 1282 Crs
2596 1245 Crs
2748 1081 Crs
3256 1458 Crs
3033 1571 Crs
3328 1347 Crs
3298 1173 Crs
3326 1330 Crs
3059 1259 Crs
3018 1179 Crs
2963 1404 Crs
3208 1323 Crs
2932 1389 Crs
3236 1308 Crs
3406 1242 Crs
2846 1258 Crs
2947 1274 Crs
3322 1348 Crs
2429 1400 Crs
3430 1172 Crs
1796 1177 Crs
3448 1257 Crs
3507 1421 Crs
3415 1165 Crs
3047 1180 Crs
3527 1284 Crs
2573 1114 Crs
3098 1105 Crs
2804 1227 Crs
3179 1284 Crs
3123 1222 Crs
2669 1204 Crs
3458 1292 Crs
2707 1240 Crs
3295 1377 Crs
2705 1306 Crs
3441 1205 Crs
3132 1348 Crs
3450 1252 Crs
3067 1194 Crs
2727 1286 Crs
2945 1321 Crs
3368 1157 Crs
2454 1171 Crs
2514 1250 Crs
3013 1200 Crs
2849 1302 Crs
3910 1619 Crs
3201 1412 Crs
3342 1324 Crs
2792 1170 Crs
3053 1182 Crs
2778 1262 Crs
2862 1291 Crs
4250 1512 Crs
2710 1418 Crs
2957 1245 Crs
2717 1014 Crs
3078 1220 Crs
2184 1288 Crs
2715 1244 Crs
3028 1204 Crs
3532 1432 Crs
4127 1207 Crs
3256 1304 Crs
3098 1324 Crs
2622 1281 Crs
3282 1256 Crs
2708 1177 Crs
3371 1479 Crs
2329 1240 Crs
2565 1156 Crs
3059 1251 Crs
2954 1200 Crs
3304 1243 Crs
2387 1488 Crs
3011 1413 Crs
3548 1566 Crs
3077 1220 Crs
3077 1166 Crs
3986 1185 Crs
2386 1285 Crs
3140 1183 Crs
3697 1365 Crs
3401 1245 Crs
3043 1211 Crs
3668 1189 Crs
3457 1347 Crs
2912 1220 Crs
3164 1496 Crs
3463 1102 Crs
2957 1233 Crs
3433 1352 Crs
1978 1191 Crs
3742 1338 Crs
2759 1372 Crs
2234 1216 Crs
2800 1232 Crs
2838 1389 Crs
3787 1282 Crs
3159 1288 Crs
2591 1440 Crs
2505 1265 Crs
3664 1196 Crs
3456 1378 Crs
2689 1263 Crs
2586 1332 Crs
3334 1579 Crs
3210 1366 Crs
2849 1199 Crs
3534 1342 Crs
3259 1227 Crs
2707 1379 Crs
3269 1247 Crs
3525 1306 Crs
2571 1146 Crs
3545 1488 Crs
3231 1321 Crs
3343 1189 Crs
3418 908 Crs
3333 1314 Crs
3317 1199 Crs
2612 1339 Crs
3280 1423 Crs
3139 1324 Crs
3452 1335 Crs
2927 1277 Crs
2750 1187 Crs
2504 1258 Crs
3269 1321 Crs
2930 1364 Crs
3027 1232 Crs
3250 1149 Crs
3077 1318 Crs
3630 1383 Crs
2777 1426 Crs
2852 1324 Crs
2748 1156 Crs
2628 1281 Crs
2833 1399 Crs
3200 1244 Crs
3236 1282 Crs
2833 1263 Crs
3208 1318 Crs
2881 1475 Crs
3351 1135 Crs
3005 1219 Crs
2869 1157 Crs
3094 1287 Crs
3169 1033 Crs
3459 1437 Crs
2474 1178 Crs
3253 1214 Crs
2823 1248 Crs
3854 1495 Crs
2872 1169 Crs
3078 1222 Crs
3318 1208 Crs
3026 1406 Crs
2918 1220 Crs
2766 1207 Crs
3159 1313 Crs
2563 1150 Crs
3147 1312 Crs
3017 1282 Crs
3764 1152 Crs
2771 1183 Crs
3044 1416 Crs
2416 1361 Crs
3003 1399 Crs
2663 1472 Crs
2669 1282 Crs
3128 1363 Crs
3616 1404 Crs
3103 1479 Crs
2804 1395 Crs
2887 847 Crs
2737 1418 Crs
3638 1259 Crs
2789 1186 Crs
2800 1207 Crs
2386 1109 Crs
3281 1420 Crs
3662 1251 Crs
3318 1348 Crs
3246 1325 Crs
3536 1454 Crs
3704 1334 Crs
3575 1449 Crs
2956 1393 Crs
2869 1317 Crs
3303 1217 Crs
2408 1139 Crs
3082 1360 Crs
3451 1248 Crs
3257 1311 Crs
3469 1356 Crs
2974 1569 Crs
3153 1448 Crs
2281 1572 Crs
3109 1395 Crs
3614 1157 Crs
2954 1236 Crs
2775 1319 Crs
2124 1248 Crs
3320 1321 Crs
2713 1485 Crs
2732 1267 Crs
3200 1312 Crs
3026 1203 Crs
3168 1404 Crs
2582 1086 Crs
3431 1223 Crs
3420 1481 Crs
3272 1585 Crs
3259 1241 Crs
3461 1479 Crs
2335 1083 Crs
3417 1275 Crs
2934 1025 Crs
3028 1092 Crs
3154 1320 Crs
3032 1451 Crs
3351 1311 Crs
3036 1378 Crs
2380 1113 Crs
2821 1216 Crs
2951 1084 Crs
2966 1504 Crs
2807 1221 Crs
3793 1266 Crs
3372 1367 Crs
2862 1232 Crs
3037 1267 Crs
3451 1206 Crs
2648 1143 Crs
2854 1468 Crs
3621 1443 Crs
3338 1201 Crs
3065 1241 Crs
3069 1381 Crs
2858 1252 Crs
2386 1345 Crs
3096 1315 Crs
2511 1259 Crs
2796 1309 Crs
1823 1339 Crs
3645 1318 Crs
2435 1292 Crs
3282 1279 Crs
3139 1020 Crs
2808 1267 Crs
3085 1196 Crs
3240 1460 Crs
3023 1318 Crs
3126 1436 Crs
2765 1360 Crs
3147 1202 Crs
2831 1269 Crs
2785 1439 Crs
3255 1300 Crs
2988 1408 Crs
3155 1313 Crs
2712 1198 Crs
3369 1372 Crs
3060 1423 Crs
3354 1279 Crs
3449 1265 Crs
2630 1314 Crs
2955 1173 Crs
3315 1148 Crs
2992 1100 Crs
2993 1260 Crs
2378 1213 Crs
2965 1315 Crs
3521 1307 Crs
3362 1221 Crs
2382 1077 Crs
2581 1265 Crs
2722 1295 Crs
3291 1319 Crs
3311 1341 Crs
3369 1219 Crs
3412 1485 Crs
2916 1109 Crs
2946 969 Crs
3328 1298 Crs
3220 1243 Crs
2516 1464 Crs
2919 1402 Crs
3302 1202 Crs
3122 895 Crs
2889 1190 Crs
2797 1190 Crs
2828 1194 Crs
3190 1423 Crs
3267 1291 Crs
2779 1311 Crs
2739 1231 Crs
2947 1104 Crs
3554 1304 Crs
2684 1147 Crs
3167 1354 Crs
3368 1358 Crs
3114 1440 Crs
3119 1165 Crs
3380 1280 Crs
3173 1440 Crs
3309 1420 Crs
3908 1193 Crs
3198 1361 Crs
2638 1384 Crs
2397 1394 Crs
3265 1308 Crs
3179 1562 Crs
3432 1312 Crs
2925 1067 Crs
2584 1215 Crs
2929 1226 Crs
3104 1363 Crs
3133 1186 Crs
2969 1211 Crs
3171 1141 Crs
2810 1445 Crs
2883 1410 Crs
2946 1274 Crs
2745 1254 Crs
2328 1072 Crs
3378 1417 Crs
3419 1556 Crs
3390 1217 Crs
3667 1253 Crs
3706 1326 Crs
3543 1171 Crs
3959 1217 Crs
3033 1190 Crs
3844 1233 Crs
3549 1302 Crs
2638 1380 Crs
2659 1266 Crs
3093 1290 Crs
3331 1473 Crs
3178 1314 Crs
2730 1310 Crs
3129 1241 Crs
3461 1390 Crs
3542 1121 Crs
2291 1357 Crs
3882 1457 Crs
2447 1142 Crs
2943 1411 Crs
3199 1304 Crs
2661 1463 Crs
3212 1096 Crs
3176 1246 Crs
2364 1161 Crs
3219 1275 Crs
3159 1547 Crs
3419 1189 Crs
3343 1384 Crs
3236 1431 Crs
3145 1375 Crs
3213 1215 Crs
2907 993 Crs
2895 1204 Crs
3337 1273 Crs
3596 1312 Crs
3741 1302 Crs
2687 1286 Crs
2911 1420 Crs
2045 1226 Crs
3314 1169 Crs
3429 1170 Crs
2865 1053 Crs
3550 1354 Crs
3461 1288 Crs
3056 1300 Crs
2938 1081 Crs
2575 1439 Crs
2752 1353 Crs
2776 1249 Crs
3509 1214 Crs
3143 1520 Crs
3324 1191 Crs
3415 1266 Crs
2785 1144 Crs
2319 1226 Crs
3618 1306 Crs
2865 1190 Crs
2752 1383 Crs
2947 1215 Crs
3157 954 Crs
3317 1274 Crs
3019 1291 Crs
3318 1162 Crs
3220 1237 Crs
3023 1241 Crs
3802 1033 Crs
3212 1335 Crs
2946 1194 Crs
3180 1201 Crs
2740 1605 Crs
2827 1060 Crs
3044 1297 Crs
3098 1127 Crs
2023 1202 Crs
3014 929 Crs
2889 1322 Crs
3091 1387 Crs
2851 1553 Crs
2948 1305 Crs
3564 1329 Crs
3183 982 Crs
3261 1391 Crs
2484 1337 Crs
3039 1471 Crs
3641 1337 Crs
3753 961 Crs
2900 1214 Crs
2703 1365 Crs
2107 1305 Crs
2754 853 Crs
3601 1398 Crs
2846 1348 Crs
3283 1340 Crs
2324 1400 Crs
2818 1171 Crs
3332 1306 Crs
2986 1258 Crs
3151 1406 Crs
3441 1279 Crs
2777 1327 Crs
3509 1336 Crs
2866 1308 Crs
2514 1200 Crs
2282 1301 Crs
2369 1239 Crs
3218 1206 Crs
2585 1213 Crs
2968 1499 Crs
3402 1269 Crs
3044 1160 Crs
3108 1362 Crs
3035 1212 Crs
2601 1701 Crs
3225 1415 Crs
2725 1131 Crs
3027 1193 Crs
3362 1219 Crs
3661 1537 Crs
3472 1378 Crs
2817 1309 Crs
3062 1387 Crs
3088 1506 Crs
2829 1080 Crs
3154 1040 Crs
3457 1280 Crs
3110 1192 Crs
3115 1335 Crs
3343 1550 Crs
2443 1335 Crs
3223 994 Crs
2798 1237 Crs
3414 1329 Crs
2939 1284 Crs
2666 1247 Crs
2658 1094 Crs
2503 1108 Crs
2866 938 Crs
3302 1295 Crs
3347 1138 Crs
2886 1196 Crs
3302 1258 Crs
3219 1283 Crs
3292 1294 Crs
3217 1272 Crs
2320 1252 Crs
3220 1088 Crs
3145 1482 Crs
3048 1357 Crs
3297 1273 Crs
2868 1141 Crs
3123 1107 Crs
3156 1292 Crs
2954 1272 Crs
3769 1279 Crs
2775 1457 Crs
3319 1159 Crs
3304 1495 Crs
3610 1181 Crs
2366 1250 Crs
2832 1277 Crs
3208 1189 Crs
2714 1288 Crs
3326 1287 Crs
2803 1254 Crs
3034 1203 Crs
2663 1356 Crs
2535 1371 Crs
3187 1197 Crs
3238 1274 Crs
3348 1341 Crs
3159 1335 Crs
2821 1219 Crs
2909 1221 Crs
2832 1217 Crs
3160 1521 Crs
2832 1058 Crs
2325 1085 Crs
2816 1503 Crs
2017 1178 Crs
3344 1261 Crs
3226 1296 Crs
3211 1036 Crs
3062 1403 Crs
3052 1360 Crs
3338 1370 Crs
2674 1405 Crs
3048 1298 Crs
3055 1353 Crs
3311 1214 Crs
2800 1482 Crs
3373 1337 Crs
3325 1302 Crs
3452 1273 Crs
3360 1172 Crs
3039 1171 Crs
3314 1315 Crs
2370 1299 Crs
2859 1368 Crs
2670 1223 Crs
3075 1350 Crs
3090 1338 Crs
3236 1194 Crs
3221 1184 Crs
2906 1587 Crs
3019 1367 Crs
2837 1165 Crs
3163 869 Crs
3131 1377 Crs
2878 1140 Crs
2834 1088 Crs
2718 1136 Crs
3044 1317 Crs
3186 1482 Crs
3181 1226 Crs
3161 822 Crs
3333 1224 Crs
3054 1162 Crs
2375 1222 Crs
3011 1395 Crs
2999 1232 Crs
2305 981 Crs
3357 1262 Crs
3859 1177 Crs
3192 1190 Crs
3293 1156 Crs
2457 993 Crs
3180 1241 Crs
2880 1379 Crs
3096 1231 Crs
1923 1130 Crs
2746 1270 Crs
2681 1272 Crs
2972 1207 Crs
3104 1496 Crs
3144 1207 Crs
2853 1237 Crs
2963 1353 Crs
2841 1369 Crs
2982 1142 Crs
3099 1244 Crs
3083 1209 Crs
3264 1245 Crs
3066 1279 Crs
2392 1459 Crs
3155 1286 Crs
3401 1224 Crs
2996 1538 Crs
2531 1442 Crs
3123 1332 Crs
3230 883 Crs
3113 1396 Crs
3012 1405 Crs
3086 1347 Crs
3236 1160 Crs
3031 1366 Crs
3868 1381 Crs
2855 1309 Crs
2930 1283 Crs
3696 1404 Crs
2518 1412 Crs
2840 1254 Crs
1824 1328 Crs
2876 1220 Crs
2901 1185 Crs
2243 1437 Crs
3450 1344 Crs
2802 1458 Crs
3533 1106 Crs
2746 1406 Crs
2759 1013 Crs
2812 1260 Crs
2560 1244 Crs
3504 1404 Crs
3493 1348 Crs
2942 1417 Crs
3203 1334 Crs
3415 1224 Crs
3391 1231 Crs
2551 1236 Crs
3108 1301 Crs
3222 1263 Crs
2639 1258 Crs
3066 1384 Crs
2040 1270 Crs
2905 1143 Crs
3436 1197 Crs
3101 1402 Crs
3255 1325 Crs
2975 1235 Crs
3140 1031 Crs
3333 1452 Crs
2801 1242 Crs
3009 1233 Crs
3396 1227 Crs
2847 1407 Crs
2783 1110 Crs
3562 1480 Crs
3285 1545 Crs
3210 1235 Crs
3713 1334 Crs
3160 1282 Crs
3415 1172 Crs
2529 1269 Crs
2971 1456 Crs
3597 1204 Crs
2595 1045 Crs
2798 1325 Crs
3511 1171 Crs
3070 1566 Crs
3273 1074 Crs
2643 1177 Crs
2998 1280 Crs
3168 1374 Crs
3122 1266 Crs
3358 1463 Crs
3591 1279 Crs
2785 1372 Crs
3340 1122 Crs
3246 1384 Crs
2461 1156 Crs
3020 1355 Crs
3428 1479 Crs
2418 1124 Crs
3224 1335 Crs
3096 1322 Crs
3558 1427 Crs
2987 1066 Crs
3257 1242 Crs
3133 1053 Crs
2869 1220 Crs
2367 1271 Crs
2594 1263 Crs
3209 1267 Crs
3327 1439 Crs
3037 1288 Crs
3151 1302 Crs
2620 1288 Crs
2802 1403 Crs
2873 849 Crs
1952 1233 Crs
3609 1179 Crs
3342 1260 Crs
3649 1385 Crs
2733 1019 Crs
3457 1513 Crs
3099 1196 Crs
2637 1072 Crs
3636 1423 Crs
2614 1350 Crs
2430 1413 Crs
2950 1391 Crs
3013 1218 Crs
3677 1377 Crs
2935 1347 Crs
3325 1275 Crs
3741 1207 Crs
3558 1241 Crs
3458 1343 Crs
2752 1360 Crs
3374 1388 Crs
3075 1218 Crs
3024 1583 Crs
2831 1317 Crs
3668 1251 Crs
3297 1253 Crs
2665 1687 Crs
2815 1237 Crs
2828 1403 Crs
2983 1380 Crs
3012 1406 Crs
2873 1283 Crs
3002 1263 Crs
2710 1354 Crs
2218 1122 Crs
2820 1017 Crs
3009 1311 Crs
2984 1254 Crs
2673 1467 Crs
3263 1357 Crs
4387 1382 Crs
2758 1257 Crs
2633 1360 Crs
3306 1185 Crs
3735 1110 Crs
3272 1347 Crs
2879 1366 Crs
2584 1356 Crs
3401 1280 Crs
2963 1253 Crs
3381 1332 Crs
2654 1251 Crs
2592 1263 Crs
2969 1259 Crs
2893 1285 Crs
2031 1303 Crs
3149 1471 Crs
3459 1177 Crs
2863 1132 Crs
3197 1255 Crs
3141 1422 Crs
3074 1441 Crs
3464 1352 Crs
3037 1336 Crs
3183 1349 Crs
3327 1372 Crs
3241 1038 Crs
3379 1385 Crs
3555 1295 Crs
2558 1530 Crs
2542 1274 Crs
2743 1250 Crs
3412 1638 Crs
2831 1155 Crs
2871 1522 Crs
2463 1344 Crs
3007 1095 Crs
2627 1609 Crs
2993 1315 Crs
3442 1332 Crs
2495 1280 Crs
3646 1547 Crs
2901 1335 Crs
3252 1231 Crs
3246 1327 Crs
2522 1337 Crs
3022 1240 Crs
2434 1207 Crs
2397 1453 Crs
3448 1786 Crs
2836 1335 Crs
2927 1163 Crs
2921 1472 Crs
3046 1088 Crs
2807 1308 Crs
2620 1268 Crs
2716 1236 Crs
2961 1373 Crs
3341 1378 Crs
2956 1254 Crs
3194 1254 Crs
3089 1364 Crs
2680 1130 Crs
2785 988 Crs
2782 1323 Crs
2462 1256 Crs
3445 1301 Crs
2768 1356 Crs
3427 1332 Crs
3413 1401 Crs
2410 1318 Crs
3222 1261 Crs
3207 1447 Crs
3136 1456 Crs
2857 1304 Crs
3347 1443 Crs
3441 1393 Crs
3570 1377 Crs
3269 1226 Crs
3119 1441 Crs
2611 1009 Crs
2996 1471 Crs
3512 1415 Crs
2872 1230 Crs
3228 1386 Crs
3207 1335 Crs
3314 884 Crs
2772 1188 Crs
2964 880 Crs
3469 1383 Crs
3060 1004 Crs
2972 1296 Crs
2553 1390 Crs
3233 1248 Crs
2977 1171 Crs
2886 1322 Crs
3431 1203 Crs
3001 1153 Crs
2945 1208 Crs
3070 1140 Crs
3195 1477 Crs
2508 1227 Crs
3125 1631 Crs
2992 1450 Crs
2790 1256 Crs
2736 1288 Crs
2158 1347 Crs
2285 1531 Crs
2547 1177 Crs
2866 1218 Crs
3623 1245 Crs
2793 1350 Crs
3116 1362 Crs
2666 1512 Crs
2615 1313 Crs
3083 1350 Crs
2469 1188 Crs
3116 1321 Crs
2766 1263 Crs
3880 1401 Crs
2701 1088 Crs
2388 893 Crs
2442 1318 Crs
2990 1403 Crs
2920 1061 Crs
3015 1132 Crs
3056 1176 Crs
3041 1603 Crs
2344 1219 Crs
3872 1319 Crs
3256 1307 Crs
3256 1309 Crs
3151 1345 Crs
3417 1392 Crs
2310 1073 Crs
3159 1237 Crs
2024 1412 Crs
2952 1243 Crs
2762 1035 Crs
2642 1137 Crs
3545 1328 Crs
2906 1259 Crs
3095 1243 Crs
2645 1074 Crs
3258 1326 Crs
3173 1522 Crs
2493 1274 Crs
2867 1246 Crs
3392 1422 Crs
2840 1377 Crs
3044 1272 Crs
3075 1261 Crs
3418 1344 Crs
3415 1292 Crs
2933 1441 Crs
3550 1188 Crs
2995 1171 Crs
3027 1406 Crs
2725 1320 Crs
3315 1428 Crs
3503 1435 Crs
2828 1393 Crs
2985 1375 Crs
2521 1480 Crs
3396 1458 Crs
3309 1637 Crs
2868 1254 Crs
2575 1706 Crs
2844 1314 Crs
2921 1237 Crs
3488 1430 Crs
3408 1232 Crs
2676 1242 Crs
3714 1393 Crs
2789 1327 Crs
2959 1354 Crs
2483 1178 Crs
3379 1394 Crs
2706 1137 Crs
3829 1458 Crs
3106 1207 Crs
2430 789 Crs
3410 1051 Crs
2859 1269 Crs
2618 1145 Crs
3227 1291 Crs
2914 1322 Crs
2891 1175 Crs
2740 1144 Crs
3129 1208 Crs
2798 1285 Crs
2968 1275 Crs
2587 1196 Crs
3046 1292 Crs
2774 1180 Crs
3003 1212 Crs
2808 1401 Crs
3752 1320 Crs
3425 1056 Crs
3015 1554 Crs
2238 1390 Crs
3662 1396 Crs
3133 1414 Crs
3032 1382 Crs
2789 1381 Crs
3156 1383 Crs
3397 1430 Crs
2880 1215 Crs
3242 1223 Crs
2892 1286 Crs
2929 1579 Crs
3171 1175 Crs
2939 1157 Crs
3425 1380 Crs
2934 1205 Crs
2186 1253 Crs
2735 1289 Crs
3089 1275 Crs
2801 1156 Crs
3229 1243 Crs
3178 1210 Crs
3642 1404 Crs
2584 1185 Crs
2708 1186 Crs
3407 1416 Crs
3527 1417 Crs
2374 1188 Crs
2697 1266 Crs
3022 1538 Crs
3196 1229 Crs
2587 1232 Crs
3186 1267 Crs
2949 1273 Crs
3022 1089 Crs
2981 882 Crs
3161 1475 Crs
2160 1264 Crs
3367 1370 Crs
3565 1387 Crs
3451 1340 Crs
2509 1324 Crs
3117 1421 Crs
2896 1246 Crs
2805 1293 Crs
3318 1285 Crs
2900 1167 Crs
3088 1245 Crs
3395 1357 Crs
3107 1297 Crs
2686 1389 Crs
2865 1273 Crs
3090 1254 Crs
3178 1366 Crs
3171 1244 Crs
3165 1599 Crs
3604 1516 Crs
2927 1152 Crs
2771 1253 Crs
2854 1248 Crs
3146 1434 Crs
3157 1517 Crs
3601 1470 Crs
2703 1234 Crs
2778 1285 Crs
3365 946 Crs
3028 1312 Crs
3109 1312 Crs
2815 1481 Crs
3419 1418 Crs
3047 1271 Crs
3271 1413 Crs
2769 1330 Crs
3421 1373 Crs
3810 1511 Crs
3463 1477 Crs
2940 1157 Crs
3175 1313 Crs
3123 1077 Crs
2993 1394 Crs
2826 1416 Crs
3338 1336 Crs
3332 1218 Crs
2647 1257 Crs
3365 1388 Crs
2709 1325 Crs
3496 1496 Crs
2095 1322 Crs
2718 1303 Crs
3320 1621 Crs
3133 992 Crs
2335 1362 Crs
2745 1175 Crs
3468 1394 Crs
2699 1606 Crs
3233 1246 Crs
3016 1169 Crs
3412 1229 Crs
3726 1072 Crs
2582 1448 Crs
3312 1195 Crs
3573 1364 Crs
2894 1341 Crs
2793 1344 Crs
3385 1351 Crs
2707 1184 Crs
3327 1021 Crs
2893 1542 Crs
2781 1130 Crs
2971 1342 Crs
3036 1283 Crs
3321 1341 Crs
3397 1317 Crs
3212 1299 Crs
3245 1490 Crs
2318 1341 Crs
3388 1377 Crs
4098 1289 Crs
3627 1360 Crs
3053 1492 Crs
3014 1311 Crs
3184 1423 Crs
2824 1107 Crs
3259 1234 Crs
3512 1373 Crs
3197 1255 Crs
2477 1619 Crs
2742 1213 Crs
2840 1361 Crs
3376 1153 Crs
2469 1222 Crs
2590 1188 Crs
3163 1025 Crs
3704 1463 Crs
2989 1441 Crs
3169 1048 Crs
2863 1140 Crs
3416 1214 Crs
2056 1463 Crs
2853 1218 Crs
2630 1547 Crs
2753 1196 Crs
3051 1165 Crs
2888 1476 Crs
2796 889 Crs
2749 1549 Crs
3409 1494 Crs
2629 1237 Crs
3668 1243 Crs
3358 1046 Crs
3739 1349 Crs
2352 1260 Crs
2949 1346 Crs
3976 1244 Crs
2963 1298 Crs
2636 1339 Crs
3485 1503 Crs
2659 994 Crs
2972 1413 Crs
1842 1151 Crs
2998 1424 Crs
3101 1156 Crs
3622 1269 Crs
3082 1229 Crs
2895 1244 Crs
2981 1391 Crs
3187 1570 Crs
3518 1073 Crs
3240 1403 Crs
2706 1266 Crs
2392 1183 Crs
3196 1338 Crs
2228 1173 Crs
2536 916 Crs
2952 1227 Crs
2995 1256 Crs
2415 1295 Crs
2407 1211 Crs
2708 1259 Crs
2579 1354 Crs
3453 1307 Crs
2719 1212 Crs
3070 1294 Crs
3628 1169 Crs
2799 1342 Crs
2928 1198 Crs
3398 1223 Crs
3736 1404 Crs
3346 1514 Crs
2444 1312 Crs
3092 1021 Crs
3018 865 Crs
3154 1382 Crs
2658 1243 Crs
2256 1109 Crs
2681 926 Crs
3205 1418 Crs
2253 1389 Crs
3113 1383 Crs
3431 1357 Crs
3173 1472 Crs
3094 1487 Crs
2742 1023 Crs
3431 1140 Crs
2911 1618 Crs
2788 1270 Crs
3626 1372 Crs
3180 1194 Crs
3680 1346 Crs
2644 1020 Crs
3217 1353 Crs
2601 1147 Crs
3161 1343 Crs
2780 1134 Crs
2873 1247 Crs
2500 1305 Crs
2993 1164 Crs
3081 1151 Crs
3714 1238 Crs
2356 1323 Crs
3617 1316 Crs
3323 1197 Crs
3375 1185 Crs
2758 1187 Crs
2305 1325 Crs
3585 1509 Crs
3375 1215 Crs
2804 1356 Crs
2934 1339 Crs
2996 1463 Crs
2490 1116 Crs
3217 1305 Crs
2633 1171 Crs
2964 1315 Crs
3023 1313 Crs
2836 1528 Crs
3007 1222 Crs
3154 1233 Crs
3630 1301 Crs
3091 1196 Crs
3027 1438 Crs
2002 1263 Crs
2748 1194 Crs
2901 1161 Crs
3128 1309 Crs
3028 1232 Crs
2567 1331 Crs
2814 1194 Crs
3080 1195 Crs
3462 1424 Crs
2653 1211 Crs
3123 1485 Crs
3541 1206 Crs
2957 1359 Crs
2813 1313 Crs
2531 1276 Crs
2805 1301 Crs
3469 1175 Crs
3195 1162 Crs
2315 1345 Crs
3594 1202 Crs
3041 1233 Crs
2659 1204 Crs
2811 1203 Crs
2844 1255 Crs
2868 1467 Crs
2948 1280 Crs
2789 1341 Crs
2724 1250 Crs
3320 1358 Crs
3067 1498 Crs
2539 1660 Crs
3155 1284 Crs
2918 973 Crs
3410 1005 Crs
2133 1251 Crs
2737 1308 Crs
3218 1335 Crs
3679 1035 Crs
2827 1367 Crs
2668 1170 Crs
3300 1309 Crs
3409 1289 Crs
3020 1050 Crs
3078 1261 Crs
3035 1494 Crs
2965 1255 Crs
3271 1503 Crs
3315 1003 Crs
3317 1398 Crs
2777 1294 Crs
3055 1373 Crs
3499 1325 Crs
3980 1258 Crs
3177 1294 Crs
3566 1213 Crs
3161 1308 Crs
2602 1327 Crs
3349 1362 Crs
3255 1511 Crs
2695 1118 Crs
3224 1253 Crs
3333 1308 Crs
2979 1520 Crs
2696 1382 Crs
2556 1152 Crs
2817 1265 Crs
2967 1185 Crs
2924 1347 Crs
3095 1382 Crs
2736 1503 Crs
2792 1297 Crs
2419 1321 Crs
3248 1398 Crs
4004 1220 Crs
2429 1404 Crs
3473 1232 Crs
3492 1405 Crs
3437 1160 Crs
3259 1297 Crs
2678 1481 Crs
3661 1210 Crs
3135 1350 Crs
2859 1252 Crs
3310 1413 Crs
2548 1299 Crs
2972 1261 Crs
2530 1021 Crs
2852 1434 Crs
2672 1173 Crs
3085 1275 Crs
3430 1315 Crs
3193 1488 Crs
3277 1209 Crs
2300 1299 Crs
2803 1232 Crs
2145 1233 Crs
3455 1364 Crs
3159 1192 Crs
3122 1357 Crs
3343 1276 Crs
2875 1300 Crs
3388 1304 Crs
2910 1409 Crs
3184 1218 Crs
3436 1271 Crs
2873 1413 Crs
3299 1088 Crs
2915 1238 Crs
3014 1192 Crs
2526 1185 Crs
3495 1281 Crs
2679 1328 Crs
3097 975 Crs
3488 1047 Crs
2457 1200 Crs
3143 1070 Crs
3064 1525 Crs
3337 1310 Crs
3387 1561 Crs
2564 1100 Crs
2333 1077 Crs
3942 1468 Crs
3451 1224 Crs
3025 1361 Crs
3188 1241 Crs
2922 1131 Crs
2868 1206 Crs
2798 1427 Crs
3015 1183 Crs
3388 1211 Crs
3004 1214 Crs
2415 1460 Crs
2763 1518 Crs
2302 1496 Crs
2765 1047 Crs
2961 1205 Crs
2732 1162 Crs
2862 1280 Crs
2592 1165 Crs
3245 1414 Crs
3241 1404 Crs
2706 1153 Crs
2847 1348 Crs
3668 1397 Crs
3291 1561 Crs
2882 1435 Crs
3264 1109 Crs
2669 1129 Crs
3684 1203 Crs
2600 978 Crs
2506 1184 Crs
3366 1418 Crs
3470 1131 Crs
3153 1304 Crs
2294 1195 Crs
2525 1122 Crs
3662 1420 Crs
3246 1274 Crs
3503 1415 Crs
3572 1322 Crs
3264 1306 Crs
3956 1297 Crs
3755 1403 Crs
2933 1114 Crs
3057 1348 Crs
3178 1130 Crs
3193 1219 Crs
3940 1013 Crs
3126 1407 Crs
2400 1339 Crs
2949 1439 Crs
2910 1082 Crs
2614 1533 Crs
3277 1239 Crs
3320 1329 Crs
1892 1366 Crs
3333 840 Crs
2760 1222 Crs
3024 1328 Crs
3261 1471 Crs
3330 1282 Crs
2550 1236 Crs
3919 1259 Crs
3429 1412 Crs
3011 1340 Crs
2764 1194 Crs
3568 1333 Crs
3663 1473 Crs
3194 1352 Crs
3486 1406 Crs
3333 1299 Crs
3159 1657 Crs
3823 1248 Crs
3834 1300 Crs
3208 1431 Crs
2805 1331 Crs
2991 1152 Crs
2969 1378 Crs
2915 1399 Crs
3536 1153 Crs
3649 1229 Crs
2682 1268 Crs
2861 1231 Crs
3086 1021 Crs
3051 1318 Crs
2806 1146 Crs
3510 1226 Crs
3551 1537 Crs
3383 1391 Crs
3703 1102 Crs
3499 1321 Crs
2765 1440 Crs
3224 1352 Crs
2443 1187 Crs
2856 1276 Crs
2954 1314 Crs
2597 1177 Crs
2631 1482 Crs
2775 953 Crs
3179 1265 Crs
3010 1345 Crs
2472 1193 Crs
2708 1423 Crs
2957 1277 Crs
3197 1460 Crs
2713 1290 Crs
2718 1087 Crs
3336 1545 Crs
2290 1189 Crs
3233 1606 Crs
2690 1351 Crs
2269 1553 Crs
3324 1269 Crs
3176 1572 Crs
2475 1247 Crs
3378 1287 Crs
3425 1430 Crs
4020 1386 Crs
2875 1267 Crs
3109 1247 Crs
2751 1355 Crs
2584 1280 Crs
2888 1153 Crs
2956 1276 Crs
2516 1176 Crs
3532 1449 Crs
2584 736 Crs
3443 1413 Crs
2168 1286 Crs
3410 1301 Crs
2835 1405 Crs
3275 1305 Crs
2705 1363 Crs
3111 1232 Crs
2771 1415 Crs
2240 1378 Crs
2728 1390 Crs
3013 1313 Crs
2726 1390 Crs
2898 1277 Crs
3542 1246 Crs
2617 1097 Crs
2764 803 Crs
3563 1311 Crs
2350 1291 Crs
2748 1139 Crs
3264 1163 Crs
2810 1145 Crs
2743 1353 Crs
3267 1227 Crs
3181 1221 Crs
2416 1396 Crs
2728 1020 Crs
3161 1496 Crs
2653 1427 Crs
2855 1199 Crs
3061 1009 Crs
3085 1281 Crs
2924 1158 Crs
3186 1526 Crs
3267 1171 Crs
2579 1181 Crs
2943 1451 Crs
2894 1276 Crs
2615 1086 Crs
3400 1416 Crs
3314 1274 Crs
2661 1139 Crs
3372 1192 Crs
3182 1277 Crs
3055 1167 Crs
2878 1330 Crs
2995 1178 Crs
3043 1386 Crs
2895 1549 Crs
2446 1197 Crs
3221 1471 Crs
3384 1272 Crs
2523 1351 Crs
2763 859 Crs
2907 1315 Crs
2884 1427 Crs
2692 1298 Crs
3225 1280 Crs
2698 1497 Crs
2475 1412 Crs
3005 1293 Crs
3203 1301 Crs
3272 1096 Crs
2607 1308 Crs
3291 1387 Crs
3185 1322 Crs
3399 1223 Crs
3473 1213 Crs
3277 1228 Crs
3067 1395 Crs
2633 1383 Crs
3569 1382 Crs
2517 1221 Crs
2987 1396 Crs
3431 1400 Crs
3164 1445 Crs
2503 1217 Crs
2889 1364 Crs
3699 1434 Crs
3148 965 Crs
2729 1432 Crs
2603 1360 Crs
2497 1486 Crs
2920 1186 Crs
2681 1270 Crs
3012 1251 Crs
3154 1425 Crs
2778 1272 Crs
3469 1336 Crs
2594 1177 Crs
3479 1339 Crs
2440 1422 Crs
3307 1398 Crs
2896 1362 Crs
3129 1222 Crs
3409 1184 Crs
4220 1318 Crs
2671 1174 Crs
3081 1186 Crs
2801 1215 Crs
2800 1205 Crs
2868 1354 Crs
3157 1455 Crs
2888 1432 Crs
2597 1205 Crs
2849 1249 Crs
2988 1588 Crs
3261 1447 Crs
2288 1203 Crs
3330 1222 Crs
4231 1237 Crs
2559 1281 Crs
3408 1189 Crs
3779 1232 Crs
2758 1256 Crs
3172 1209 Crs
3345 1426 Crs
3427 1354 Crs
3162 1346 Crs
2618 1082 Crs
2955 1315 Crs
3252 1356 Crs
3299 1264 Crs
3148 1299 Crs
3254 1639 Crs
3253 1218 Crs
2892 1399 Crs
3141 1405 Crs
3199 1203 Crs
3065 1370 Crs
2800 1252 Crs
3264 1293 Crs
3492 1575 Crs
2729 1287 Crs
3040 1237 Crs
3077 1265 Crs
3612 1529 Crs
2511 1018 Crs
3393 1521 Crs
3327 1427 Crs
2994 1265 Crs
3145 1120 Crs
2894 1310 Crs
3467 1287 Crs
2846 1099 Crs
2884 1329 Crs
3007 1336 Crs
3348 1263 Crs
3159 1277 Crs
2970 1357 Crs
2815 1368 Crs
2893 1208 Crs
3164 1427 Crs
2992 1461 Crs
3162 1252 Crs
2734 900 Crs
3529 1404 Crs
2517 1189 Crs
2367 1281 Crs
2666 1338 Crs
3237 1212 Crs
2193 1140 Crs
2887 1256 Crs
3517 1203 Crs
2871 1053 Crs
3093 1294 Crs
2951 1126 Crs
3503 1244 Crs
2779 1331 Crs
3148 1186 Crs
3723 1220 Crs
2897 1126 Crs
3254 1322 Crs
3656 1235 Crs
3780 1307 Crs
2299 1407 Crs
3609 1245 Crs
3264 1244 Crs
3128 1310 Crs
2878 1053 Crs
3490 1401 Crs
3123 1184 Crs
3230 1089 Crs
2845 1411 Crs
2876 1472 Crs
2653 1214 Crs
3680 1312 Crs
3168 1226 Crs
1899 1031 Crs
2922 1442 Crs
2618 1336 Crs
2947 1265 Crs
3057 949 Crs
3102 1375 Crs
3467 1518 Crs
2533 1391 Crs
3105 1294 Crs
3422 1155 Crs
3693 1335 Crs
3740 1292 Crs
2594 1367 Crs
3001 1199 Crs
2919 1490 Crs
2684 1240 Crs
1844 1196 Crs
4182 1301 Crs
3112 1343 Crs
2639 1566 Crs
3140 1254 Crs
2762 1240 Crs
3168 1137 Crs
3289 1201 Crs
3223 1128 Crs
3472 1557 Crs
3198 1374 Crs
2449 934 Crs
3902 1238 Crs
2982 1500 Crs
2719 1588 Crs
3509 1113 Crs
4083 1616 Crs
3443 1268 Crs
3238 1236 Crs
3025 1352 Crs
2610 1199 Crs
3195 1374 Crs
3217 1358 Crs
3086 1205 Crs
3284 1171 Crs
3927 1199 Crs
3665 1097 Crs
2691 1232 Crs
1646 1200 Crs
3227 1163 Crs
3833 1383 Crs
3069 1407 Crs
2583 1291 Crs
2700 1600 Crs
3512 1176 Crs
3016 1216 Crs
2749 1380 Crs
2846 1314 Crs
3872 1335 Crs
2988 1291 Crs
3050 1266 Crs
2878 1155 Crs
2575 1351 Crs
2998 1464 Crs
2572 1219 Crs
3288 1384 Crs
2302 1378 Crs
3326 1441 Crs
2529 1104 Crs
2837 1237 Crs
2520 1289 Crs
2749 1574 Crs
2971 1396 Crs
3247 1176 Crs
2862 1318 Crs
3519 1257 Crs
3561 1418 Crs
2905 1261 Crs
2808 1129 Crs
3298 1040 Crs
3828 1640 Crs
2681 1604 Crs
3401 1280 Crs
3497 1306 Crs
2670 1341 Crs
2771 1225 Crs
3154 1358 Crs
3126 1361 Crs
2510 1311 Crs
3304 1370 Crs
3393 1451 Crs
3355 1272 Crs
3212 1433 Crs
2161 1210 Crs
3395 1440 Crs
2224 1402 Crs
3071 1363 Crs
3924 1132 Crs
3027 1508 Crs
3161 1314 Crs
2962 1149 Crs
3332 1229 Crs
3044 1380 Crs
3329 1234 Crs
2925 1260 Crs
3213 1462 Crs
3188 1367 Crs
3377 1715 Crs
2902 1223 Crs
3436 1566 Crs
3289 1289 Crs
3579 1318 Crs
2435 1146 Crs
3765 1223 Crs
3480 1144 Crs
3110 1273 Crs
3403 1263 Crs
2836 1271 Crs
2802 1188 Crs
3409 1304 Crs
2811 1313 Crs
3180 903 Crs
2927 1239 Crs
3554 1337 Crs
3474 1333 Crs
2915 1276 Crs
3192 1239 Crs
3202 1381 Crs
3060 1507 Crs
3368 1461 Crs
3256 1099 Crs
3014 1462 Crs
3311 1368 Crs
3548 1188 Crs
3077 854 Crs
2386 1667 Crs
3078 1330 Crs
2086 1221 Crs
2884 1245 Crs
3006 1380 Crs
2922 1450 Crs
3300 1109 Crs
3624 1267 Crs
3253 1476 Crs
3024 1545 Crs
3855 1794 Crs
3725 1109 Crs
3220 1432 Crs
2337 1304 Crs
3376 1200 Crs
3107 1306 Crs
2537 1337 Crs
3057 1267 Crs
3257 1395 Crs
3081 935 Crs
2437 1347 Crs
3215 1454 Crs
3342 1299 Crs
2783 1038 Crs
3202 1531 Crs
2735 878 Crs
3677 1269 Crs
3114 1247 Crs
2980 1367 Crs
3451 1359 Crs
3993 1555 Crs
2986 1278 Crs
2451 1391 Crs
3184 1199 Crs
2941 843 Crs
4531 1180 Crs
2846 1347 Crs
3322 1355 Crs
3194 1234 Crs
2775 1306 Crs
2680 1452 Crs
3403 1390 Crs
2647 1285 Crs
3620 1531 Crs
3224 1137 Crs
3115 1352 Crs
2792 1312 Crs
3430 1482 Crs
3137 1554 Crs
3121 1259 Crs
3217 1208 Crs
3320 1227 Crs
3603 1376 Crs
3158 1477 Crs
2758 1456 Crs
2907 1481 Crs
3064 1297 Crs
2880 1323 Crs
2857 1388 Crs
2786 1332 Crs
2612 1197 Crs
2368 1195 Crs
3414 1264 Crs
3128 1319 Crs
3613 1296 Crs
3067 1267 Crs
2697 1459 Crs
3224 1245 Crs
2844 1128 Crs
2966 1316 Crs
2948 1281 Crs
2620 1097 Crs
3240 988 Crs
2115 1293 Crs
2796 1273 Crs
3272 1431 Crs
3948 1371 Crs
3133 1349 Crs
2322 1558 Crs
2982 1405 Crs
2389 1341 Crs
3547 1036 Crs
2865 1270 Crs
3417 1448 Crs
2887 1292 Crs
2447 1365 Crs
2920 1165 Crs
3452 1192 Crs
2983 1302 Crs
2528 1204 Crs
2649 1202 Crs
2574 1473 Crs
2848 1335 Crs
2856 1252 Crs
3536 1301 Crs
3014 1200 Crs
2687 1145 Crs
2032 1244 Crs
2347 1086 Crs
3177 1338 Crs
3419 1236 Crs
3401 1330 Crs
3044 1300 Crs
3103 1425 Crs
2786 1246 Crs
3418 1418 Crs
3517 1308 Crs
2711 977 Crs
2545 1242 Crs
3103 1292 Crs
3449 1445 Crs
2984 1282 Crs
3162 1325 Crs
3440 1452 Crs
2810 1354 Crs
2776 1199 Crs
2074 1218 Crs
2997 1287 Crs
2585 1545 Crs
3418 1376 Crs
3432 1245 Crs
3070 1154 Crs
2772 1368 Crs
2636 1554 Crs
2799 1369 Crs
3064 1334 Crs
2350 1259 Crs
2764 1272 Crs
2334 1236 Crs
3127 937 Crs
2573 1160 Crs
3302 1485 Crs
3099 1260 Crs
3056 1304 Crs
3106 1179 Crs
3018 1173 Crs
3774 1215 Crs
2788 1166 Crs
3256 1203 Crs
2852 1308 Crs
2924 1453 Crs
2921 1121 Crs
2974 1325 Crs
3346 1560 Crs
3083 1155 Crs
2731 1288 Crs
2615 1376 Crs
3274 1200 Crs
2922 1101 Crs
3155 1325 Crs
2692 1339 Crs
2456 1087 Crs
4189 1433 Crs
3441 1168 Crs
2701 1327 Crs
2799 1303 Crs
2594 1194 Crs
3292 1575 Crs
3488 1383 Crs
3352 1187 Crs
3130 1120 Crs
3275 1239 Crs
3240 1478 Crs
3139 1150 Crs
3438 1772 Crs
3191 1542 Crs
3188 1047 Crs
3231 1276 Crs
3214 1248 Crs
3996 1359 Crs
3120 1304 Crs
3058 1238 Crs
3292 997 Crs
3114 1401 Crs
3412 1466 Crs
2737 1279 Crs
3367 1425 Crs
3081 1528 Crs
3126 1221 Crs
2578 1124 Crs
3421 1287 Crs
3361 1147 Crs
2584 1240 Crs
2991 1247 Crs
2715 1416 Crs
2834 1424 Crs
2891 1249 Crs
2313 1329 Crs
2942 1263 Crs
3091 1345 Crs
2940 1288 Crs
3395 1442 Crs
3658 970 Crs
2771 1416 Crs
3121 1242 Crs
2031 1232 Crs
2768 1219 Crs
2969 1358 Crs
2898 1487 Crs
3187 1239 Crs
2911 1250 Crs
3002 1746 Crs
3118 1298 Crs
3037 1283 Crs
2754 1215 Crs
3017 1402 Crs
3279 1418 Crs
3090 1233 Crs
2898 1154 Crs
2839 1247 Crs
3437 1332 Crs
2892 1105 Crs
3047 1266 Crs
2495 1363 Crs
2587 1519 Crs
3322 1309 Crs
2997 1354 Crs
3139 1272 Crs
2825 1390 Crs
3200 1346 Crs
3493 1349 Crs
2881 1219 Crs
3150 1207 Crs
2875 1483 Crs
3604 1267 Crs
3420 1320 Crs
2146 1165 Crs
3063 875 Crs
2158 1502 Crs
2463 1225 Crs
2700 761 Crs
2708 1150 Crs
3043 1306 Crs
2682 1496 Crs
2735 1286 Crs
3153 1442 Crs
2105 1220 Crs
2915 1462 Crs
2771 1201 Crs
2993 1350 Crs
2670 1317 Crs
2897 1326 Crs
3345 1480 Crs
3141 1447 Crs
3382 1111 Crs
3556 1569 Crs
3262 1346 Crs
3016 1476 Crs
2213 1303 Crs
3246 1493 Crs
3061 1243 Crs
2860 1468 Crs
3024 1181 Crs
3065 1335 Crs
3188 1200 Crs
2563 1263 Crs
3463 1371 Crs
3255 1184 Crs
2865 1161 Crs
3118 1237 Crs
2795 961 Crs
3132 1354 Crs
3132 1284 Crs
2546 1190 Crs
3133 1280 Crs
2485 1318 Crs
3036 1144 Crs
2764 1250 Crs
2662 1282 Crs
3067 1019 Crs
2723 1271 Crs
2443 1296 Crs
3668 1161 Crs
3504 1422 Crs
3021 1211 Crs
2924 1197 Crs
2328 1199 Crs
2910 1310 Crs
3194 981 Crs
3616 1318 Crs
2560 1154 Crs
2976 1401 Crs
4564 1337 Crs
2852 1259 Crs
3057 1302 Crs
3061 1523 Crs
2580 1235 Crs
3190 1251 Crs
2411 1367 Crs
2967 1125 Crs
2702 1183 Crs
2924 1180 Crs
2549 1105 Crs
2779 1218 Crs
3489 1349 Crs
3249 1202 Crs
2611 1289 Crs
3195 1278 Crs
2747 1225 Crs
2700 1289 Crs
2851 1193 Crs
2913 1228 Crs
2346 1431 Crs
3993 1343 Crs
3125 1347 Crs
3118 1295 Crs
2658 1278 Crs
3615 1322 Crs
4086 1121 Crs
3140 1310 Crs
2907 1252 Crs
3085 1118 Crs
3540 950 Crs
2772 1180 Crs
3515 1426 Crs
2829 1280 Crs
3293 1018 Crs
3590 1204 Crs
3313 1154 Crs
2517 1324 Crs
3204 892 Crs
2662 1266 Crs
2832 1242 Crs
2289 1301 Crs
2718 1342 Crs
3258 1371 Crs
3068 1281 Crs
3460 1429 Crs
3220 1426 Crs
2921 1302 Crs
2992 1009 Crs
2577 1305 Crs
3537 1372 Crs
3038 1206 Crs
3695 1518 Crs
2755 1230 Crs
3208 1195 Crs
3543 1357 Crs
2626 1207 Crs
2639 1158 Crs
3529 1225 Crs
3287 1438 Crs
3123 1066 Crs
2987 1257 Crs
3768 1448 Crs
3211 1326 Crs
2606 1297 Crs
3295 1248 Crs
2812 1211 Crs
3413 1358 Crs
2389 1147 Crs
3235 1370 Crs
2813 1411 Crs
3448 1003 Crs
3680 1424 Crs
2788 1130 Crs
2789 1229 Crs
3436 1327 Crs
2493 1290 Crs
2784 1305 Crs
3018 1354 Crs
3306 1473 Crs
3846 1470 Crs
2984 1258 Crs
3192 986 Crs
3289 1404 Crs
3277 1364 Crs
3041 1360 Crs
2541 1295 Crs
3230 1110 Crs
3256 1348 Crs
3412 1303 Crs
2550 1234 Crs
3011 1128 Crs
2891 1507 Crs
2897 1308 Crs
3436 1190 Crs
2841 1414 Crs
3181 1443 Crs
3228 1643 Crs
3221 1166 Crs
3375 1208 Crs
3018 1295 Crs
2704 1367 Crs
3489 1321 Crs
3121 1267 Crs
3516 1352 Crs
2486 1397 Crs
3280 1224 Crs
3606 1311 Crs
3157 1340 Crs
2653 1316 Crs
2513 1411 Crs
2982 1237 Crs
3820 1437 Crs
3027 1256 Crs
2710 1313 Crs
2939 1322 Crs
2785 1046 Crs
3375 1392 Crs
2447 1152 Crs
3244 1379 Crs
2350 1310 Crs
3322 1320 Crs
2424 765 Crs
2307 667 Crs
2546 1055 Crs
2417 1362 Crs
2582 1548 Crs
3221 1295 Crs
2375 1124 Crs
2869 1236 Crs
3224 972 Crs
2590 1302 Crs
3411 1345 Crs
2521 1301 Crs
3270 1400 Crs
2561 949 Crs
3042 1164 Crs
3464 1090 Crs
3062 1348 Crs
2619 1138 Crs
3136 1208 Crs
3012 1015 Crs
3160 1223 Crs
2878 1429 Crs
2996 1374 Crs
3208 1475 Crs
3118 1410 Crs
3642 1288 Crs
2723 1098 Crs
3208 1234 Crs
3256 1257 Crs
2854 1296 Crs
2736 1192 Crs
3106 1398 Crs
2919 1433 Crs
2719 1258 Crs
2457 1184 Crs
2770 1040 Crs
3342 1238 Crs
3079 1340 Crs
2983 1297 Crs
3281 1270 Crs
3080 1477 Crs
3015 1201 Crs
3109 1325 Crs
2931 1334 Crs
2961 1174 Crs
3705 1444 Crs
2765 1206 Crs
3155 1264 Crs
2609 1094 Crs
3120 1258 Crs
2651 1564 Crs
2997 1155 Crs
2827 1348 Crs
3364 1165 Crs
3116 1368 Crs
4136 920 Crs
2884 1243 Crs
2917 1223 Crs
2874 1207 Crs
3459 1416 Crs
2169 1201 Crs
2695 1347 Crs
3081 1222 Crs
2856 1076 Crs
2809 1443 Crs
2525 1134 Crs
2665 1244 Crs
3478 1308 Crs
3741 1060 Crs
2272 1175 Crs
3255 1197 Crs
3095 1071 Crs
3102 1264 Crs
2843 1245 Crs
2804 1232 Crs
3299 1277 Crs
3863 1102 Crs
3388 1241 Crs
3371 1317 Crs
2432 1276 Crs
3636 1324 Crs
3423 1347 Crs
2976 1315 Crs
3138 1451 Crs
3328 1241 Crs
2938 1215 Crs
3293 1474 Crs
2299 1244 Crs
2952 1266 Crs
2482 1218 Crs
2576 1213 Crs
3137 1214 Crs
3049 1303 Crs
3529 1326 Crs
2982 1462 Crs
2692 1119 Crs
3176 1193 Crs
3077 1521 Crs
2952 1448 Crs
3670 987 Crs
3458 1464 Crs
3270 1207 Crs
3704 1161 Crs
3495 1268 Crs
3178 1431 Crs
2513 1160 Crs
2625 1263 Crs
2722 1287 Crs
3148 1368 Crs
2941 1111 Crs
3143 1236 Crs
3222 1302 Crs
4044 1420 Crs
2176 1305 Crs
3462 1318 Crs
2397 1018 Crs
3764 1330 Crs
2837 1263 Crs
3443 1485 Crs
3136 1318 Crs
3301 1279 Crs
3167 1349 Crs
3566 1255 Crs
3301 1172 Crs
2842 1348 Crs
3123 818 Crs
3210 1344 Crs
2658 1006 Crs
2144 1158 Crs
3302 1287 Crs
3006 1185 Crs
3465 1309 Crs
3342 1275 Crs
2709 1384 Crs
2890 1226 Crs
2859 1500 Crs
2613 1419 Crs
3798 1500 Crs
3853 1328 Crs
3728 1282 Crs
3469 1297 Crs
2587 1100 Crs
3273 1697 Crs
3201 1614 Crs
2958 1384 Crs
3291 1198 Crs
3307 1157 Crs
2808 1376 Crs
3347 1488 Crs
2675 1398 Crs
2642 1252 Crs
3046 1150 Crs
2905 1308 Crs
2954 1360 Crs
3030 1193 Crs
2771 1270 Crs
2491 1323 Crs
3188 1053 Crs
2749 1413 Crs
2421 1349 Crs
3394 1376 Crs
2839 1239 Crs
3249 1316 Crs
3241 1315 Crs
2231 1269 Crs
3377 1390 Crs
2876 1313 Crs
2143 1234 Crs
3240 1524 Crs
2595 1224 Crs
2880 1320 Crs
3437 1285 Crs
3385 1234 Crs
3377 1219 Crs
3641 1216 Crs
3137 1156 Crs
2405 1403 Crs
2730 873 Crs
3475 1402 Crs
3190 1091 Crs
2694 1071 Crs
2239 1194 Crs
3121 1364 Crs
2973 1119 Crs
3669 1439 Crs
2658 878 Crs
3381 1329 Crs
3356 1498 Crs
2587 1732 Crs
3269 1230 Crs
2863 1181 Crs
2452 1257 Crs
3488 1300 Crs
3075 1463 Crs
3016 1233 Crs
3141 1417 Crs
3655 1361 Crs
2794 1192 Crs
3060 1285 Crs
3303 1534 Crs
2483 1214 Crs
3473 928 Crs
3214 1320 Crs
2927 1223 Crs
1955 1240 Crs
3595 1237 Crs
3957 1286 Crs
3602 1310 Crs
3438 1333 Crs
3322 1351 Crs
2409 1520 Crs
3388 1214 Crs
3065 1378 Crs
2396 1325 Crs
3097 1257 Crs
3016 1627 Crs
2635 1322 Crs
3147 1253 Crs
3363 1138 Crs
2898 1350 Crs
2911 1292 Crs
2481 1305 Crs
3141 1367 Crs
3030 1210 Crs
3727 1326 Crs
3498 1263 Crs
3067 984 Crs
2646 1226 Crs
2927 1047 Crs
3230 1240 Crs
2025 1348 Crs
2828 1251 Crs
2617 1299 Crs
2977 1263 Crs
3298 1265 Crs
2091 1314 Crs
2905 1129 Crs
3008 1232 Crs
2596 1222 Crs
3377 1514 Crs
3477 1457 Crs
3109 1232 Crs
3273 1324 Crs
2999 1230 Crs
3181 1222 Crs
2755 1258 Crs
3627 1338 Crs
3038 987 Crs
3505 1335 Crs
2997 1320 Crs
2817 1234 Crs
2996 1458 Crs
3033 1394 Crs
3179 1391 Crs
2970 1236 Crs
2205 1161 Crs
2899 1264 Crs
2743 1376 Crs
3358 1213 Crs
3328 1247 Crs
3502 1257 Crs
2726 1337 Crs
2871 1355 Crs
3122 1283 Crs
2813 1331 Crs
2934 1195 Crs
3172 1343 Crs
3165 1311 Crs
2748 1297 Crs
3096 1173 Crs
3221 1388 Crs
2905 1227 Crs
3151 1087 Crs
3116 1185 Crs
2897 1247 Crs
3540 1361 Crs
3648 1484 Crs
3331 1212 Crs
3263 1449 Crs
3147 1446 Crs
3548 1391 Crs
3161 1291 Crs
2764 1357 Crs
3927 1269 Crs
2760 1119 Crs
3053 1483 Crs
2722 1289 Crs
2493 1276 Crs
3164 1318 Crs
3026 1223 Crs
3870 1126 Crs
2877 1544 Crs
3405 1349 Crs
3631 1238 Crs
3231 1328 Crs
3044 1311 Crs
2734 1390 Crs
3124 1331 Crs
3985 1402 Crs
3297 1399 Crs
3006 1248 Crs
3176 1305 Crs
3074 1156 Crs
2444 1182 Crs
3374 1371 Crs
3286 1158 Crs
2501 1178 Crs
3486 1305 Crs
3560 1426 Crs
3028 1152 Crs
3295 1450 Crs
3133 1238 Crs
3049 1426 Crs
2320 1356 Crs
4091 1412 Crs
3017 1197 Crs
3051 1413 Crs
3237 1229 Crs
2369 1212 Crs
2691 1361 Crs
2921 827 Crs
3107 1199 Crs
3491 1482 Crs
2572 1479 Crs
2719 1205 Crs
3177 1349 Crs
2915 1333 Crs
2269 1502 Crs
3416 1630 Crs
3160 1288 Crs
3705 1324 Crs
2643 1390 Crs
3477 1240 Crs
2780 1120 Crs
3804 1151 Crs
3425 880 Crs
3260 1261 Crs
2097 1203 Crs
3514 1503 Crs
3175 1379 Crs
2950 1082 Crs
2967 1319 Crs
3706 1113 Crs
2830 1453 Crs
2927 1362 Crs
2636 1233 Crs
2918 1130 Crs
3238 878 Crs
2408 1336 Crs
2957 1254 Crs
2521 1173 Crs
3199 1221 Crs
3162 1084 Crs
2223 1297 Crs
3010 1212 Crs
3281 1164 Crs
2319 1359 Crs
3039 1185 Crs
3486 1119 Crs
3261 1136 Crs
2544 1312 Crs
3630 1300 Crs
2956 1374 Crs
3434 1353 Crs
2113 1153 Crs
3229 1305 Crs
3120 1313 Crs
3322 1090 Crs
2863 1188 Crs
2832 1064 Crs
2940 1251 Crs
2723 1391 Crs
3483 1215 Crs
3070 1275 Crs
3414 1646 Crs
2958 1371 Crs
3197 1335 Crs
2920 1425 Crs
3448 1392 Crs
2993 1237 Crs
3033 1473 Crs
2693 1312 Crs
2801 1213 Crs
3505 1223 Crs
1508 1081 Crs
3374 1354 Crs
3013 1402 Crs
3105 1292 Crs
3060 1276 Crs
3511 998 Crs
2727 1098 Crs
3201 1362 Crs
2193 1383 Crs
3267 1324 Crs
2708 1220 Crs
3000 1260 Crs
3648 1311 Crs
3371 1304 Crs
2478 1199 Crs
2339 1216 Crs
3207 1249 Crs
2596 1380 Crs
3356 1641 Crs
2744 1401 Crs
3221 1304 Crs
3357 1341 Crs
3299 1406 Crs
3417 1314 Crs
2660 1286 Crs
2744 1396 Crs
3125 1277 Crs
3038 1183 Crs
2758 1297 Crs
3247 1280 Crs
3156 1207 Crs
3034 1535 Crs
2571 1217 Crs
3336 1188 Crs
3124 1238 Crs
3843 1383 Crs
3223 1316 Crs
2556 1108 Crs
2611 1438 Crs
2870 1362 Crs
3411 1227 Crs
3045 1260 Crs
3239 1116 Crs
3201 1173 Crs
3036 1261 Crs
3219 1422 Crs
2508 1260 Crs
3257 1318 Crs
3822 1370 Crs
3467 1314 Crs
2904 775 Crs
2536 1162 Crs
2878 1298 Crs
2335 1595 Crs
3003 1218 Crs
3090 1465 Crs
2993 1361 Crs
3132 1286 Crs
2598 1415 Crs
2496 1334 Crs
2824 1344 Crs
3085 1318 Crs
3344 1247 Crs
2871 1283 Crs
3171 1439 Crs
2643 1228 Crs
2625 1143 Crs
2929 917 Crs
3058 1365 Crs
2582 1263 Crs
2883 1381 Crs
2450 1228 Crs
3404 1419 Crs
2654 1249 Crs
3044 1349 Crs
2915 1219 Crs
3123 1473 Crs
2593 1335 Crs
3003 1437 Crs
2848 1194 Crs
3063 1261 Crs
2480 1233 Crs
3399 1322 Crs
1626 1113 Crs
2612 1322 Crs
3236 1166 Crs
2685 1236 Crs
3090 846 Crs
3009 1262 Crs
2431 1368 Crs
2994 1503 Crs
3321 1186 Crs
3286 1158 Crs
3271 1242 Crs
2873 1141 Crs
2812 1442 Crs
2574 1272 Crs
2601 1234 Crs
3112 1203 Crs
2487 1289 Crs
3049 1299 Crs
2291 1461 Crs
2978 1212 Crs
2475 1146 Crs
2784 1256 Crs
2936 1437 Crs
3004 1323 Crs
2715 1182 Crs
2792 1188 Crs
2536 1363 Crs
3168 878 Crs
2453 1299 Crs
3019 1144 Crs
2182 1423 Crs
2846 1552 Crs
4019 1526 Crs
3805 1322 Crs
2644 1434 Crs
3031 1286 Crs
2727 1559 Crs
3112 1406 Crs
2542 1303 Crs
3133 1406 Crs
2515 1181 Crs
2782 1138 Crs
2867 1376 Crs
2566 1248 Crs
3289 1533 Crs
2157 1555 Crs
2906 1338 Crs
3343 1237 Crs
3159 1292 Crs
2659 1521 Crs
2581 1644 Crs
1846 1333 Crs
3446 1174 Crs
2902 1365 Crs
3230 1530 Crs
3074 1175 Crs
3205 1232 Crs
3107 1450 Crs
2709 1608 Crs
2814 1156 Crs
3128 1372 Crs
2614 1218 Crs
3222 1099 Crs
3033 1346 Crs
2940 1458 Crs
2835 1311 Crs
3480 1287 Crs
3550 1184 Crs
2902 1284 Crs
3362 1326 Crs
2455 1464 Crs
2530 1487 Crs
1705 1139 Crs
2401 1203 Crs
3688 1348 Crs
2366 1390 Crs
3068 1373 Crs
2955 1364 Crs
3280 1168 Crs
3031 1272 Crs
2814 1362 Crs
3508 1453 Crs
3561 1229 Crs
3224 1096 Crs
3394 1370 Crs
2533 1192 Crs
3564 1276 Crs
3298 1208 Crs
2974 1174 Crs
2694 1334 Crs
3428 1483 Crs
2534 1201 Crs
2676 1341 Crs
3584 1553 Crs
2999 1250 Crs
2913 1215 Crs
3107 1255 Crs
3433 1240 Crs
3121 1134 Crs
2762 1344 Crs
3291 1420 Crs
3001 1288 Crs
3322 1262 Crs
3134 954 Crs
3143 1438 Crs
2849 1215 Crs
3095 1419 Crs
2854 1508 Crs
2415 1169 Crs
3055 1299 Crs
3452 1291 Crs
3375 1369 Crs
3268 1221 Crs
3207 1394 Crs
3236 989 Crs
3301 1253 Crs
3028 1280 Crs
2259 1291 Crs
2784 1226 Crs
3040 1371 Crs
3284 1351 Crs
2931 1233 Crs
2787 1301 Crs
2962 1140 Crs
2934 1240 Crs
3138 1151 Crs
3064 1272 Crs
3177 1446 Crs
3454 1242 Crs
2709 1196 Crs
2783 1228 Crs
3171 1292 Crs
2337 1169 Crs
3657 1262 Crs
3115 1220 Crs
3035 1461 Crs
3474 1281 Crs
3218 1363 Crs
2267 1118 Crs
2917 1117 Crs
2789 1243 Crs
1780 1064 Crs
2996 1215 Crs
2673 1293 Crs
2829 1301 Crs
3359 1249 Crs
2967 1298 Crs
3647 1424 Crs
3466 1226 Crs
2490 1080 Crs
2595 809 Crs
2979 1235 Crs
3100 1242 Crs
3934 1109 Crs
2765 1283 Crs
2968 1206 Crs
3363 1291 Crs
3503 1442 Crs
2991 1252 Crs
2952 1112 Crs
3764 1321 Crs
2935 1102 Crs
2951 1280 Crs
3200 1357 Crs
3663 1203 Crs
3026 1261 Crs
2770 1377 Crs
2831 1173 Crs
2733 1402 Crs
2522 1225 Crs
3220 1251 Crs
3056 1251 Crs
3411 1226 Crs
2710 1335 Crs
3879 1320 Crs
2362 1192 Crs
2493 1326 Crs
2497 1302 Crs
2572 1365 Crs
2858 1545 Crs
3159 1299 Crs
3095 1299 Crs
2926 1525 Crs
2571 1395 Crs
2928 1300 Crs
2698 1309 Crs
3122 1310 Crs
3289 1320 Crs
3283 1313 Crs
3216 1277 Crs
2766 1346 Crs
2817 1416 Crs
2805 1342 Crs
3399 1125 Crs
2762 1055 Crs
2831 1402 Crs
3862 1295 Crs
3179 947 Crs
3492 1335 Crs
3076 1253 Crs
3037 1369 Crs
2995 1265 Crs
2625 1335 Crs
2580 1695 Crs
3306 1279 Crs
2891 1343 Crs
3536 1245 Crs
2139 1349 Crs
3141 1551 Crs
3002 1136 Crs
2989 1271 Crs
2187 1189 Crs
3015 1382 Crs
2318 1102 Crs
3155 1311 Crs
2648 1279 Crs
2559 950 Crs
2664 1416 Crs
2585 1525 Crs
3370 1207 Crs
3188 1286 Crs
3468 1192 Crs
3633 1208 Crs
2231 1350 Crs
2863 1420 Crs
2847 1158 Crs
2923 1491 Crs
2602 1221 Crs
3636 1406 Crs
2814 1198 Crs
2825 1185 Crs
2781 1163 Crs
3364 1272 Crs
2683 1273 Crs
3552 1233 Crs
2953 1290 Crs
3271 1274 Crs
2990 1283 Crs
3003 1251 Crs
2609 1258 Crs
3042 1281 Crs
3376 1223 Crs
2857 1405 Crs
2875 953 Crs
2735 1539 Crs
3085 1267 Crs
3045 1387 Crs
3241 1234 Crs
3167 1381 Crs
3002 1219 Crs
2636 1359 Crs
2311 1461 Crs
2924 1500 Crs
3457 1351 Crs
3136 1645 Crs
2835 1270 Crs
3422 1458 Crs
2940 1293 Crs
3093 1023 Crs
2870 1310 Crs
2762 1358 Crs
3096 1342 Crs
2867 1187 Crs
2491 1373 Crs
2911 1085 Crs
3244 1262 Crs
2877 1224 Crs
2693 1246 Crs
2704 1275 Crs
2751 1517 Crs
4291 1478 Crs
3214 1195 Crs
3108 1344 Crs
3595 1449 Crs
3075 1456 Crs
2931 1272 Crs
2572 1315 Crs
2926 1479 Crs
3229 1202 Crs
3630 1321 Crs
3294 1317 Crs
2616 1340 Crs
3247 1208 Crs
2853 1123 Crs
3095 1470 Crs
3036 1346 Crs
2647 1243 Crs
3703 1373 Crs
3023 1318 Crs
2765 1506 Crs
2824 1101 Crs
2327 1020 Crs
3805 1228 Crs
3187 1468 Crs
3271 1316 Crs
2655 1152 Crs
3026 1681 Crs
2706 1236 Crs
3062 1222 Crs
2761 1146 Crs
3341 1175 Crs
3500 1345 Crs
2637 1125 Crs
3063 1326 Crs
3845 1243 Crs
3507 1385 Crs
3211 1457 Crs
2816 1329 Crs
3237 1228 Crs
3124 1283 Crs
3854 1286 Crs
3127 1247 Crs
3277 1380 Crs
3373 1182 Crs
3055 1212 Crs
3230 1178 Crs
2446 1621 Crs
2542 1430 Crs
3062 1310 Crs
3232 1467 Crs
2690 1286 Crs
4155 1453 Crs
3350 1263 Crs
2931 1368 Crs
3432 1345 Crs
2703 1423 Crs
3227 1229 Crs
2738 1598 Crs
2383 1051 Crs
3208 1303 Crs
2614 1446 Crs
3295 1442 Crs
2870 1278 Crs
3171 1189 Crs
2768 1349 Crs
3443 1258 Crs
3212 1361 Crs
2897 1133 Crs
3137 1394 Crs
2797 1308 Crs
3546 1441 Crs
2963 1247 Crs
3452 1412 Crs
3052 1282 Crs
2983 1324 Crs
3241 1272 Crs
3278 1391 Crs
2643 1458 Crs
2405 1111 Crs
3473 1156 Crs
3713 1019 Crs
2835 1350 Crs
3303 1340 Crs
3111 1069 Crs
2676 1290 Crs
2932 1148 Crs
3701 1221 Crs
2022 1090 Crs
2607 1466 Crs
2894 1189 Crs
2952 1406 Crs
2867 1482 Crs
3092 1404 Crs
3534 1451 Crs
2558 1412 Crs
3019 1398 Crs
2945 1382 Crs
2758 1125 Crs
2814 1300 Crs
2914 1337 Crs
3961 1013 Crs
3223 1410 Crs
2696 1418 Crs
3300 1278 Crs
3492 1369 Crs
3020 1325 Crs
2758 1566 Crs
3042 1570 Crs
3386 1466 Crs
3174 1333 Crs
3001 1242 Crs
3225 1372 Crs
3244 1322 Crs
3157 1306 Crs
2955 1259 Crs
3476 1254 Crs
2761 1364 Crs
3068 1313 Crs
2407 1285 Crs
2618 1164 Crs
3392 1292 Crs
3330 1347 Crs
3374 1309 Crs
2686 1191 Crs
3038 1490 Crs
3039 1289 Crs
2674 1565 Crs
2502 1185 Crs
2775 1696 Crs
3436 1023 Crs
2781 1376 Crs
2956 1408 Crs
2806 1197 Crs
2573 1224 Crs
2618 1214 Crs
3161 1381 Crs
2857 1343 Crs
3005 942 Crs
3207 1287 Crs
2400 1257 Crs
2992 1379 Crs
3287 1255 Crs
2644 1243 Crs
3648 1185 Crs
3251 1532 Crs
2589 1432 Crs
2861 1373 Crs
3744 1388 Crs
3491 1242 Crs
4144 1130 Crs
3162 1384 Crs
3153 1265 Crs
3189 1347 Crs
3673 1271 Crs
2838 1232 Crs
3208 1260 Crs
3124 1128 Crs
2308 1211 Crs
3880 1400 Crs
2943 1242 Crs
2768 1261 Crs
3970 1219 Crs
3140 1265 Crs
3154 1295 Crs
3178 1384 Crs
3105 1211 Crs
2655 1151 Crs
3292 1104 Crs
3190 1508 Crs
3330 1262 Crs
2453 1201 Crs
2781 1319 Crs
3389 1390 Crs
2822 1393 Crs
3534 929 Crs
2666 1387 Crs
3178 1253 Crs
3727 1406 Crs
2792 1336 Crs
2593 1370 Crs
2290 1397 Crs
2955 1055 Crs
3036 1295 Crs
3038 1514 Crs
3239 1355 Crs
2639 1387 Crs
2674 1173 Crs
2960 1408 Crs
3000 1128 Crs
2862 1204 Crs
3227 1314 Crs
3167 1059 Crs
2823 1176 Crs
3312 1438 Crs
3336 1346 Crs
3845 1330 Crs
3012 1301 Crs
3440 1299 Crs
3075 1473 Crs
3597 1043 Crs
2458 1176 Crs
2550 1373 Crs
3651 1253 Crs
3098 1149 Crs
3983 1333 Crs
3395 1363 Crs
3474 1516 Crs
3096 1277 Crs
3197 1315 Crs
3096 1345 Crs
2713 1275 Crs
2963 1094 Crs
3110 1328 Crs
3357 1334 Crs
2998 1433 Crs
3092 1410 Crs
3302 1401 Crs
1810 1072 Crs
2256 1242 Crs
3190 1424 Crs
3185 1284 Crs
3123 1129 Crs
3430 1171 Crs
3324 1316 Crs
2337 996 Crs
3675 1255 Crs
3773 1197 Crs
3071 1699 Crs
3166 1065 Crs
2967 1175 Crs
2927 1140 Crs
3215 1540 Crs
2546 1380 Crs
2755 971 Crs
3573 1323 Crs
3092 1084 Crs
3861 1108 Crs
2978 1305 Crs
3229 1265 Crs
3213 1252 Crs
2805 1317 Crs
2575 1199 Crs
2653 1494 Crs
3273 1338 Crs
2537 1213 Crs
3324 1271 Crs
3129 1308 Crs
2692 1135 Crs
3305 1212 Crs
3509 1219 Crs
2710 1317 Crs
3202 1360 Crs
3205 1425 Crs
2609 1365 Crs
3577 1372 Crs
3157 1172 Crs
3317 896 Crs
3320 1132 Crs
3127 1398 Crs
2916 1136 Crs
2550 1288 Crs
2765 1279 Crs
2858 1232 Crs
2378 1440 Crs
3246 1001 Crs
4081 1298 Crs
2602 1126 Crs
3173 1302 Crs
3225 1211 Crs
3050 1344 Crs
3126 1376 Crs
2962 1571 Crs
3107 1148 Crs
2869 1248 Crs
2945 1251 Crs
3167 1131 Crs
2936 1386 Crs
2978 1306 Crs
2146 1156 Crs
3190 1317 Crs
2884 1466 Crs
4420 1389 Crs
3143 1334 Crs
3336 990 Crs
2598 1129 Crs
2946 1198 Crs
3336 1041 Crs
2479 1435 Crs
2128 1182 Crs
2923 1279 Crs
2962 836 Crs
2904 1211 Crs
3097 1167 Crs
3023 1225 Crs
2860 1471 Crs
2740 1482 Crs
3589 1243 Crs
3319 1451 Crs
3775 1355 Crs
3012 1199 Crs
3348 1222 Crs
2613 1228 Crs
2904 1294 Crs
2884 1411 Crs
3642 1351 Crs
2799 1338 Crs
2843 1353 Crs
3234 1249 Crs
2514 1355 Crs
2678 1428 Crs
2634 1127 Crs
2662 1222 Crs
3056 1331 Crs
3080 1274 Crs
3150 1445 Crs
3109 1234 Crs
3434 1032 Crs
2389 1317 Crs
2284 1234 Crs
3658 1468 Crs
3085 1338 Crs
2614 1226 Crs
3449 1397 Crs
2777 789 Crs
3321 1037 Crs
3045 1256 Crs
3299 1253 Crs
2995 1288 Crs
2631 1254 Crs
3395 1128 Crs
3011 1205 Crs
2951 1219 Crs
2324 1330 Crs
3503 1547 Crs
3136 1261 Crs
2271 1415 Crs
2974 867 Crs
3099 1255 Crs
2330 803 Crs
3835 1181 Crs
2931 1358 Crs
2846 1441 Crs
3107 1135 Crs
2895 1241 Crs
2637 1171 Crs
3066 1208 Crs
3648 1209 Crs
3004 1519 Crs
2795 1274 Crs
3312 1525 Crs
3883 1282 Crs
2301 1230 Crs
2461 896 Crs
3134 1399 Crs
2166 1298 Crs
2625 1361 Crs
2281 1195 Crs
2611 1625 Crs
3256 1150 Crs
3624 1291 Crs
3251 1282 Crs
3192 1338 Crs
2905 1166 Crs
3162 1296 Crs
3088 1226 Crs
2889 1157 Crs
2988 1215 Crs
3181 1125 Crs
3176 1239 Crs
3233 1142 Crs
2810 1442 Crs
3963 1303 Crs
3324 1320 Crs
3238 1211 Crs
2934 1486 Crs
3545 1166 Crs
3052 1293 Crs
3437 1416 Crs
2821 1297 Crs
2284 1409 Crs
3252 1280 Crs
2174 1598 Crs
3036 1215 Crs
2971 1194 Crs
3290 1406 Crs
2624 1305 Crs
3572 1244 Crs
2836 928 Crs
2723 1260 Crs
2351 1088 Crs
3812 1374 Crs
3188 1200 Crs
2454 1511 Crs
3868 1257 Crs
3219 1492 Crs
2771 1379 Crs
2580 1281 Crs
3527 1166 Crs
2742 1333 Crs
2339 1248 Crs
3355 1260 Crs
2596 1272 Crs
2286 1245 Crs
3335 1362 Crs
2239 1214 Crs
3617 1194 Crs
3007 1252 Crs
2288 1132 Crs
3310 1450 Crs
2420 1276 Crs
3076 1280 Crs
3728 1567 Crs
2748 1443 Crs
2634 1306 Crs
3218 1209 Crs
3321 1666 Crs
3378 1345 Crs
1865 1208 Crs
2846 1304 Crs
2609 1433 Crs
2970 1213 Crs
3143 1298 Crs
2956 1273 Crs
3022 1387 Crs
2960 1261 Crs
2935 976 Crs
2723 1159 Crs
2919 1213 Crs
3013 1099 Crs
2852 1588 Crs
3501 1275 Crs
2455 1318 Crs
2544 1213 Crs
2827 1381 Crs
2783 1574 Crs
3434 1108 Crs
3148 1521 Crs
3439 1209 Crs
3388 1193 Crs
3478 1291 Crs
3342 1294 Crs
2935 1208 Crs
3045 1495 Crs
2778 1113 Crs
2978 1505 Crs
2677 877 Crs
3199 1234 Crs
2934 1157 Crs
2812 1228 Crs
3156 1502 Crs
2528 1267 Crs
3266 1210 Crs
2983 1363 Crs
3288 1165 Crs
3329 1270 Crs
2310 1245 Crs
3423 883 Crs
2837 1527 Crs
2905 1477 Crs
3084 1419 Crs
2857 1189 Crs
3377 1375 Crs
3075 1316 Crs
2557 1346 Crs
2890 1377 Crs
3184 1376 Crs
2004 1246 Crs
3274 1192 Crs
3547 1232 Crs
2611 1511 Crs
2028 1221 Crs
2988 1069 Crs
3249 1335 Crs
3041 1364 Crs
3045 1119 Crs
2189 1276 Crs
3017 1282 Crs
3357 1302 Crs
3258 1387 Crs
3082 1159 Crs
3543 1358 Crs
2540 1302 Crs
2836 1330 Crs
3478 1587 Crs
2654 1231 Crs
3920 1238 Crs
2963 1338 Crs
3395 1391 Crs
3077 1287 Crs
3008 1497 Crs
2717 1333 Crs
3551 1511 Crs
3514 1372 Crs
3055 1130 Crs
3617 1256 Crs
3014 1302 Crs
3357 1486 Crs
3024 1318 Crs
3233 1346 Crs
3370 1369 Crs
3092 1238 Crs
3302 1233 Crs
3291 840 Crs
2318 1232 Crs
3590 1361 Crs
3140 1283 Crs
3353 1441 Crs
2287 1382 Crs
3002 1417 Crs
3239 1475 Crs
3286 1297 Crs
3327 1559 Crs
3499 1305 Crs
2575 1254 Crs
2647 1205 Crs
3157 1441 Crs
3319 1261 Crs
3083 1146 Crs
3163 1222 Crs
2700 1424 Crs
2622 1408 Crs
2712 1252 Crs
3399 1460 Crs
2349 1138 Crs
3200 1210 Crs
2320 1208 Crs
1680 1166 Crs
2665 1635 Crs
2991 1498 Crs
2634 1189 Crs
3311 1380 Crs
2454 1404 Crs
2923 1250 Crs
3121 1339 Crs
3140 1170 Crs
2661 1297 Crs
2137 1129 Crs
2705 1022 Crs
2568 1309 Crs
3211 1407 Crs
3133 1308 Crs
2949 1208 Crs
3014 1229 Crs
2561 1329 Crs
2674 1261 Crs
3195 1198 Crs
3144 1307 Crs
2500 1342 Crs
2923 1363 Crs
3280 1159 Crs
3069 1360 Crs
3103 1415 Crs
3422 1173 Crs
3489 1308 Crs
3276 1232 Crs
2877 1259 Crs
3238 1209 Crs
3381 1058 Crs
3085 1235 Crs
2441 1358 Crs
2412 1596 Crs
3186 1571 Crs
2974 1445 Crs
3115 1323 Crs
3077 1221 Crs
2749 1219 Crs
3044 1412 Crs
2694 1460 Crs
2690 1469 Crs
2722 1166 Crs
3499 1382 Crs
2769 1400 Crs
2690 1354 Crs
2979 1371 Crs
2823 1299 Crs
3212 1412 Crs
2657 1389 Crs
3162 1406 Crs
3314 1287 Crs
3421 1341 Crs
3169 1347 Crs
3384 1257 Crs
3420 1418 Crs
2355 1343 Crs
2983 1414 Crs
3217 1321 Crs
2656 1084 Crs
4080 1306 Crs
3083 1254 Crs
3598 1333 Crs
3181 1183 Crs
2847 1229 Crs
3056 1236 Crs
2952 1249 Crs
3172 1516 Crs
3451 1475 Crs
2325 1062 Crs
3253 1408 Crs
3379 1383 Crs
3106 1115 Crs
2707 977 Crs
2635 1393 Crs
2966 1247 Crs
3186 1126 Crs
3350 1194 Crs
3242 1374 Crs
2392 1379 Crs
3276 1252 Crs
3064 1183 Crs
3625 1285 Crs
3243 1310 Crs
2966 868 Crs
3125 1106 Crs
3423 1343 Crs
2977 1434 Crs
3343 1486 Crs
3083 1233 Crs
3094 1379 Crs
3832 1327 Crs
2752 1349 Crs
3435 1219 Crs
2700 1257 Crs
3474 1207 Crs
2708 1448 Crs
2511 1275 Crs
3512 1207 Crs
2819 1378 Crs
2346 1445 Crs
2590 1352 Crs
3103 1293 Crs
3244 1318 Crs
3746 1276 Crs
3240 1271 Crs
2589 1452 Crs
3311 1570 Crs
3247 1222 Crs
3483 1208 Crs
2979 1448 Crs
2855 1063 Crs
2724 880 Crs
2656 1383 Crs
3222 1274 Crs
2882 1507 Crs
2693 1313 Crs
3019 1408 Crs
2870 1338 Crs
4057 1404 Crs
2853 1467 Crs
1949 1127 Crs
3101 1284 Crs
2967 1168 Crs
2587 1326 Crs
3654 1180 Crs
3430 1481 Crs
3190 1263 Crs
2745 1292 Crs
3072 1548 Crs
2870 1266 Crs
4015 1309 Crs
2365 1308 Crs
2549 1224 Crs
3067 1300 Crs
3335 1218 Crs
3204 1180 Crs
2999 1256 Crs
3209 1474 Crs
4099 1172 Crs
3457 1416 Crs
2522 1267 Crs
3099 1159 Crs
2857 1280 Crs
2681 1092 Crs
3035 1172 Crs
2248 1105 Crs
3144 1243 Crs
3403 1155 Crs
3123 1245 Crs
2792 959 Crs
3800 1366 Crs
3390 1352 Crs
3000 1172 Crs
2739 1330 Crs
2873 1305 Crs
2326 1526 Crs
2730 1286 Crs
2759 1251 Crs
2459 1275 Crs
3490 1272 Crs
2879 1478 Crs
2729 1227 Crs
2859 1521 Crs
2722 1161 Crs
3504 1433 Crs
3279 1095 Crs
2563 1358 Crs
3152 1432 Crs
3107 1421 Crs
3527 968 Crs
2678 1345 Crs
2867 1337 Crs
2874 1234 Crs
2970 1263 Crs
2985 1339 Crs
2744 1278 Crs
2873 1485 Crs
3166 1146 Crs
3419 1263 Crs
2950 1228 Crs
2289 1231 Crs
2687 1112 Crs
3207 1369 Crs
3202 1436 Crs
3147 1345 Crs
3187 1492 Crs
3067 1220 Crs
3055 1364 Crs
2282 1213 Crs
2399 1264 Crs
2737 1254 Crs
3064 1263 Crs
2499 1303 Crs
2648 1160 Crs
3266 1381 Crs
2907 942 Crs
2873 1128 Crs
3506 1439 Crs
1944 1262 Crs
2883 1239 Crs
3088 1482 Crs
2623 1188 Crs
3052 1432 Crs
2528 1512 Crs
2441 1270 Crs
3238 1312 Crs
3621 1172 Crs
3029 1406 Crs
3405 1277 Crs
2483 1230 Crs
3439 1391 Crs
3390 1373 Crs
2324 1136 Crs
3090 1169 Crs
2844 1595 Crs
3453 1312 Crs
2741 1232 Crs
3442 1294 Crs
2551 1340 Crs
2747 1305 Crs
2677 1377 Crs
2910 1333 Crs
3070 1413 Crs
3023 1217 Crs
3425 1528 Crs
2756 1212 Crs
3367 1278 Crs
3192 1354 Crs
3296 1214 Crs
2710 1206 Crs
3153 1330 Crs
2644 1328 Crs
3083 1217 Crs
2607 1331 Crs
2348 1237 Crs
3044 1377 Crs
2462 1242 Crs
2639 1071 Crs
3285 1216 Crs
3272 1297 Crs
2963 1434 Crs
3401 1530 Crs
2734 1356 Crs
2660 1452 Crs
3256 1445 Crs
2546 1240 Crs
3098 1302 Crs
3747 980 Crs
2928 1220 Crs
3612 1251 Crs
2971 1190 Crs
2926 1433 Crs
3266 1200 Crs
2821 1452 Crs
3556 1280 Crs
3381 1492 Crs
3172 1257 Crs
3588 1191 Crs
2241 1552 Crs
2472 1169 Crs
3140 1161 Crs
3179 1336 Crs
2372 1309 Crs
2470 1358 Crs
3038 1310 Crs
2596 1412 Crs
% End plot #2
% Begin plot #3
1.000 UL
LTb
LT1
0.75 0.75 0.75 C 1009 753 M
36 27 V
36 27 V
36 28 V
36 27 V
36 27 V
36 27 V
36 27 V
36 27 V
35 28 V
36 27 V
36 27 V
36 27 V
36 27 V
36 28 V
36 27 V
36 27 V
36 27 V
36 27 V
35 27 V
36 28 V
36 27 V
36 27 V
36 27 V
36 27 V
36 28 V
36 27 V
36 27 V
36 27 V
36 27 V
35 27 V
36 28 V
36 27 V
36 27 V
36 27 V
36 27 V
36 28 V
36 27 V
36 27 V
36 27 V
35 27 V
36 27 V
36 28 V
36 27 V
36 27 V
36 27 V
36 27 V
36 27 V
36 28 V
36 27 V
36 27 V
35 27 V
36 27 V
36 28 V
36 27 V
36 27 V
36 27 V
36 27 V
36 27 V
36 28 V
36 27 V
35 27 V
36 27 V
36 27 V
36 28 V
36 27 V
36 27 V
36 27 V
36 27 V
36 27 V
36 28 V
36 27 V
35 27 V
36 27 V
36 27 V
36 28 V
36 27 V
36 27 V
36 27 V
36 27 V
36 27 V
36 28 V
36 27 V
35 27 V
36 27 V
36 27 V
36 28 V
36 27 V
36 27 V
36 27 V
36 27 V
36 27 V
36 28 V
35 27 V
36 27 V
36 27 V
36 27 V
36 28 V
36 27 V
36 27 V
% End plot #3
stroke
2.000 UL
LTb
LCb setrgbcolor
1.000 UL
LTb
LCb setrgbcolor
860 3531 N
860 640 L
3819 0 V
0 2891 V
-3819 0 V
Z stroke
0.500 UP
1.000 UL
LTb
LCb setrgbcolor
stroke
grestore
end
showpage
%%Trailer
%%DocumentFonts: Helvetica
