%!PS-Adobe-2.0 EPSF-2.0
%%Title: max.eps
%%Creator: gnuplot 5.0 patchlevel 1
%%CreationDate: Fri Oct 30 18:57:08 2015
%%DocumentFonts: (atend)
%%BoundingBox: 50 50 302 238
%%EndComments
%%BeginProlog
/gnudict 256 dict def
gnudict begin
%
% The following true/false flags may be edited by hand if desired.
% The unit line width and grayscale image gamma correction may also be changed.
%
/Color true def
/Blacktext false def
/Solid false def
/Dashlength 1 def
/Landscape false def
/Level1 false def
/Level3 false def
/Rounded false def
/ClipToBoundingBox false def
/SuppressPDFMark false def
/TransparentPatterns false def
/gnulinewidth 5.000 def
/userlinewidth gnulinewidth def
/Gamma 1.0 def
/BackgroundColor {-1.000 -1.000 -1.000} def
%
/vshift -66 def
/dl1 {
  10.0 Dashlength userlinewidth gnulinewidth div mul mul mul
  Rounded { currentlinewidth 0.75 mul sub dup 0 le { pop 0.01 } if } if
} def
/dl2 {
  10.0 Dashlength userlinewidth gnulinewidth div mul mul mul
  Rounded { currentlinewidth 0.75 mul add } if
} def
/hpt_ 31.5 def
/vpt_ 31.5 def
/hpt hpt_ def
/vpt vpt_ def
/doclip {
  ClipToBoundingBox {
    newpath 50 50 moveto 302 50 lineto 302 238 lineto 50 238 lineto closepath
    clip
  } if
} def
%
% Gnuplot Prolog Version 5.0 (Dec 2014)
%
%/SuppressPDFMark true def
%
/M {moveto} bind def
/L {lineto} bind def
/R {rmoveto} bind def
/V {rlineto} bind def
/N {newpath moveto} bind def
/Z {closepath} bind def
/C {setrgbcolor} bind def
/f {rlineto fill} bind def
/g {setgray} bind def
/Gshow {show} def   % May be redefined later in the file to support UTF-8
/vpt2 vpt 2 mul def
/hpt2 hpt 2 mul def
/Lshow {currentpoint stroke M 0 vshift R 
	Blacktext {gsave 0 setgray textshow grestore} {textshow} ifelse} def
/Rshow {currentpoint stroke M dup stringwidth pop neg vshift R
	Blacktext {gsave 0 setgray textshow grestore} {textshow} ifelse} def
/Cshow {currentpoint stroke M dup stringwidth pop -2 div vshift R 
	Blacktext {gsave 0 setgray textshow grestore} {textshow} ifelse} def
/UP {dup vpt_ mul /vpt exch def hpt_ mul /hpt exch def
  /hpt2 hpt 2 mul def /vpt2 vpt 2 mul def} def
/DL {Color {setrgbcolor Solid {pop []} if 0 setdash}
 {pop pop pop 0 setgray Solid {pop []} if 0 setdash} ifelse} def
/BL {stroke userlinewidth 2 mul setlinewidth
	Rounded {1 setlinejoin 1 setlinecap} if} def
/AL {stroke userlinewidth 2 div setlinewidth
	Rounded {1 setlinejoin 1 setlinecap} if} def
/UL {dup gnulinewidth mul /userlinewidth exch def
	dup 1 lt {pop 1} if 10 mul /udl exch def} def
/PL {stroke userlinewidth setlinewidth
	Rounded {1 setlinejoin 1 setlinecap} if} def
3.8 setmiterlimit
% Classic Line colors (version 5.0)
/LCw {1 1 1} def
/LCb {0 0 0} def
/LCa {0 0 0} def
/LC0 {1 0 0} def
/LC1 {0 1 0} def
/LC2 {0 0 1} def
/LC3 {1 0 1} def
/LC4 {0 1 1} def
/LC5 {1 1 0} def
/LC6 {0 0 0} def
/LC7 {1 0.3 0} def
/LC8 {0.5 0.5 0.5} def
% Default dash patterns (version 5.0)
/LTw {PL [] 1 setgray} def
/LTb {BL [] LCb DL} def
/LTa {AL [1 udl mul 2 udl mul] 0 setdash LCa setrgbcolor} def
/LT0 {PL [] LC0 DL} def
/LT1 {PL [2 dl1 3 dl2] LC1 DL} def
/LT2 {PL [1 dl1 1.5 dl2] LC2 DL} def
/LT3 {PL [6 dl1 2 dl2 1 dl1 2 dl2] LC3 DL} def
/LT4 {PL [1 dl1 2 dl2 6 dl1 2 dl2 1 dl1 2 dl2] LC4 DL} def
/LT5 {PL [4 dl1 2 dl2] LC5 DL} def
/LT6 {PL [1.5 dl1 1.5 dl2 1.5 dl1 1.5 dl2 1.5 dl1 6 dl2] LC6 DL} def
/LT7 {PL [3 dl1 3 dl2 1 dl1 3 dl2] LC7 DL} def
/LT8 {PL [2 dl1 2 dl2 2 dl1 6 dl2] LC8 DL} def
/SL {[] 0 setdash} def
/Pnt {stroke [] 0 setdash gsave 1 setlinecap M 0 0 V stroke grestore} def
/Dia {stroke [] 0 setdash 2 copy vpt add M
  hpt neg vpt neg V hpt vpt neg V
  hpt vpt V hpt neg vpt V closepath stroke
  Pnt} def
/Pls {stroke [] 0 setdash vpt sub M 0 vpt2 V
  currentpoint stroke M
  hpt neg vpt neg R hpt2 0 V stroke
 } def
/Box {stroke [] 0 setdash 2 copy exch hpt sub exch vpt add M
  0 vpt2 neg V hpt2 0 V 0 vpt2 V
  hpt2 neg 0 V closepath stroke
  Pnt} def
/Crs {stroke [] 0 setdash exch hpt sub exch vpt add M
  hpt2 vpt2 neg V currentpoint stroke M
  hpt2 neg 0 R hpt2 vpt2 V stroke} def
/TriU {stroke [] 0 setdash 2 copy vpt 1.12 mul add M
  hpt neg vpt -1.62 mul V
  hpt 2 mul 0 V
  hpt neg vpt 1.62 mul V closepath stroke
  Pnt} def
/Star {2 copy Pls Crs} def
/BoxF {stroke [] 0 setdash exch hpt sub exch vpt add M
  0 vpt2 neg V hpt2 0 V 0 vpt2 V
  hpt2 neg 0 V closepath fill} def
/TriUF {stroke [] 0 setdash vpt 1.12 mul add M
  hpt neg vpt -1.62 mul V
  hpt 2 mul 0 V
  hpt neg vpt 1.62 mul V closepath fill} def
/TriD {stroke [] 0 setdash 2 copy vpt 1.12 mul sub M
  hpt neg vpt 1.62 mul V
  hpt 2 mul 0 V
  hpt neg vpt -1.62 mul V closepath stroke
  Pnt} def
/TriDF {stroke [] 0 setdash vpt 1.12 mul sub M
  hpt neg vpt 1.62 mul V
  hpt 2 mul 0 V
  hpt neg vpt -1.62 mul V closepath fill} def
/DiaF {stroke [] 0 setdash vpt add M
  hpt neg vpt neg V hpt vpt neg V
  hpt vpt V hpt neg vpt V closepath fill} def
/Pent {stroke [] 0 setdash 2 copy gsave
  translate 0 hpt M 4 {72 rotate 0 hpt L} repeat
  closepath stroke grestore Pnt} def
/PentF {stroke [] 0 setdash gsave
  translate 0 hpt M 4 {72 rotate 0 hpt L} repeat
  closepath fill grestore} def
/Circle {stroke [] 0 setdash 2 copy
  hpt 0 360 arc stroke Pnt} def
/CircleF {stroke [] 0 setdash hpt 0 360 arc fill} def
/C0 {BL [] 0 setdash 2 copy moveto vpt 90 450 arc} bind def
/C1 {BL [] 0 setdash 2 copy moveto
	2 copy vpt 0 90 arc closepath fill
	vpt 0 360 arc closepath} bind def
/C2 {BL [] 0 setdash 2 copy moveto
	2 copy vpt 90 180 arc closepath fill
	vpt 0 360 arc closepath} bind def
/C3 {BL [] 0 setdash 2 copy moveto
	2 copy vpt 0 180 arc closepath fill
	vpt 0 360 arc closepath} bind def
/C4 {BL [] 0 setdash 2 copy moveto
	2 copy vpt 180 270 arc closepath fill
	vpt 0 360 arc closepath} bind def
/C5 {BL [] 0 setdash 2 copy moveto
	2 copy vpt 0 90 arc
	2 copy moveto
	2 copy vpt 180 270 arc closepath fill
	vpt 0 360 arc} bind def
/C6 {BL [] 0 setdash 2 copy moveto
	2 copy vpt 90 270 arc closepath fill
	vpt 0 360 arc closepath} bind def
/C7 {BL [] 0 setdash 2 copy moveto
	2 copy vpt 0 270 arc closepath fill
	vpt 0 360 arc closepath} bind def
/C8 {BL [] 0 setdash 2 copy moveto
	2 copy vpt 270 360 arc closepath fill
	vpt 0 360 arc closepath} bind def
/C9 {BL [] 0 setdash 2 copy moveto
	2 copy vpt 270 450 arc closepath fill
	vpt 0 360 arc closepath} bind def
/C10 {BL [] 0 setdash 2 copy 2 copy moveto vpt 270 360 arc closepath fill
	2 copy moveto
	2 copy vpt 90 180 arc closepath fill
	vpt 0 360 arc closepath} bind def
/C11 {BL [] 0 setdash 2 copy moveto
	2 copy vpt 0 180 arc closepath fill
	2 copy moveto
	2 copy vpt 270 360 arc closepath fill
	vpt 0 360 arc closepath} bind def
/C12 {BL [] 0 setdash 2 copy moveto
	2 copy vpt 180 360 arc closepath fill
	vpt 0 360 arc closepath} bind def
/C13 {BL [] 0 setdash 2 copy moveto
	2 copy vpt 0 90 arc closepath fill
	2 copy moveto
	2 copy vpt 180 360 arc closepath fill
	vpt 0 360 arc closepath} bind def
/C14 {BL [] 0 setdash 2 copy moveto
	2 copy vpt 90 360 arc closepath fill
	vpt 0 360 arc} bind def
/C15 {BL [] 0 setdash 2 copy vpt 0 360 arc closepath fill
	vpt 0 360 arc closepath} bind def
/Rec {newpath 4 2 roll moveto 1 index 0 rlineto 0 exch rlineto
	neg 0 rlineto closepath} bind def
/Square {dup Rec} bind def
/Bsquare {vpt sub exch vpt sub exch vpt2 Square} bind def
/S0 {BL [] 0 setdash 2 copy moveto 0 vpt rlineto BL Bsquare} bind def
/S1 {BL [] 0 setdash 2 copy vpt Square fill Bsquare} bind def
/S2 {BL [] 0 setdash 2 copy exch vpt sub exch vpt Square fill Bsquare} bind def
/S3 {BL [] 0 setdash 2 copy exch vpt sub exch vpt2 vpt Rec fill Bsquare} bind def
/S4 {BL [] 0 setdash 2 copy exch vpt sub exch vpt sub vpt Square fill Bsquare} bind def
/S5 {BL [] 0 setdash 2 copy 2 copy vpt Square fill
	exch vpt sub exch vpt sub vpt Square fill Bsquare} bind def
/S6 {BL [] 0 setdash 2 copy exch vpt sub exch vpt sub vpt vpt2 Rec fill Bsquare} bind def
/S7 {BL [] 0 setdash 2 copy exch vpt sub exch vpt sub vpt vpt2 Rec fill
	2 copy vpt Square fill Bsquare} bind def
/S8 {BL [] 0 setdash 2 copy vpt sub vpt Square fill Bsquare} bind def
/S9 {BL [] 0 setdash 2 copy vpt sub vpt vpt2 Rec fill Bsquare} bind def
/S10 {BL [] 0 setdash 2 copy vpt sub vpt Square fill 2 copy exch vpt sub exch vpt Square fill
	Bsquare} bind def
/S11 {BL [] 0 setdash 2 copy vpt sub vpt Square fill 2 copy exch vpt sub exch vpt2 vpt Rec fill
	Bsquare} bind def
/S12 {BL [] 0 setdash 2 copy exch vpt sub exch vpt sub vpt2 vpt Rec fill Bsquare} bind def
/S13 {BL [] 0 setdash 2 copy exch vpt sub exch vpt sub vpt2 vpt Rec fill
	2 copy vpt Square fill Bsquare} bind def
/S14 {BL [] 0 setdash 2 copy exch vpt sub exch vpt sub vpt2 vpt Rec fill
	2 copy exch vpt sub exch vpt Square fill Bsquare} bind def
/S15 {BL [] 0 setdash 2 copy Bsquare fill Bsquare} bind def
/D0 {gsave translate 45 rotate 0 0 S0 stroke grestore} bind def
/D1 {gsave translate 45 rotate 0 0 S1 stroke grestore} bind def
/D2 {gsave translate 45 rotate 0 0 S2 stroke grestore} bind def
/D3 {gsave translate 45 rotate 0 0 S3 stroke grestore} bind def
/D4 {gsave translate 45 rotate 0 0 S4 stroke grestore} bind def
/D5 {gsave translate 45 rotate 0 0 S5 stroke grestore} bind def
/D6 {gsave translate 45 rotate 0 0 S6 stroke grestore} bind def
/D7 {gsave translate 45 rotate 0 0 S7 stroke grestore} bind def
/D8 {gsave translate 45 rotate 0 0 S8 stroke grestore} bind def
/D9 {gsave translate 45 rotate 0 0 S9 stroke grestore} bind def
/D10 {gsave translate 45 rotate 0 0 S10 stroke grestore} bind def
/D11 {gsave translate 45 rotate 0 0 S11 stroke grestore} bind def
/D12 {gsave translate 45 rotate 0 0 S12 stroke grestore} bind def
/D13 {gsave translate 45 rotate 0 0 S13 stroke grestore} bind def
/D14 {gsave translate 45 rotate 0 0 S14 stroke grestore} bind def
/D15 {gsave translate 45 rotate 0 0 S15 stroke grestore} bind def
/DiaE {stroke [] 0 setdash vpt add M
  hpt neg vpt neg V hpt vpt neg V
  hpt vpt V hpt neg vpt V closepath stroke} def
/BoxE {stroke [] 0 setdash exch hpt sub exch vpt add M
  0 vpt2 neg V hpt2 0 V 0 vpt2 V
  hpt2 neg 0 V closepath stroke} def
/TriUE {stroke [] 0 setdash vpt 1.12 mul add M
  hpt neg vpt -1.62 mul V
  hpt 2 mul 0 V
  hpt neg vpt 1.62 mul V closepath stroke} def
/TriDE {stroke [] 0 setdash vpt 1.12 mul sub M
  hpt neg vpt 1.62 mul V
  hpt 2 mul 0 V
  hpt neg vpt -1.62 mul V closepath stroke} def
/PentE {stroke [] 0 setdash gsave
  translate 0 hpt M 4 {72 rotate 0 hpt L} repeat
  closepath stroke grestore} def
/CircE {stroke [] 0 setdash 
  hpt 0 360 arc stroke} def
/Opaque {gsave closepath 1 setgray fill grestore 0 setgray closepath} def
/DiaW {stroke [] 0 setdash vpt add M
  hpt neg vpt neg V hpt vpt neg V
  hpt vpt V hpt neg vpt V Opaque stroke} def
/BoxW {stroke [] 0 setdash exch hpt sub exch vpt add M
  0 vpt2 neg V hpt2 0 V 0 vpt2 V
  hpt2 neg 0 V Opaque stroke} def
/TriUW {stroke [] 0 setdash vpt 1.12 mul add M
  hpt neg vpt -1.62 mul V
  hpt 2 mul 0 V
  hpt neg vpt 1.62 mul V Opaque stroke} def
/TriDW {stroke [] 0 setdash vpt 1.12 mul sub M
  hpt neg vpt 1.62 mul V
  hpt 2 mul 0 V
  hpt neg vpt -1.62 mul V Opaque stroke} def
/PentW {stroke [] 0 setdash gsave
  translate 0 hpt M 4 {72 rotate 0 hpt L} repeat
  Opaque stroke grestore} def
/CircW {stroke [] 0 setdash 
  hpt 0 360 arc Opaque stroke} def
/BoxFill {gsave Rec 1 setgray fill grestore} def
/Density {
  /Fillden exch def
  currentrgbcolor
  /ColB exch def /ColG exch def /ColR exch def
  /ColR ColR Fillden mul Fillden sub 1 add def
  /ColG ColG Fillden mul Fillden sub 1 add def
  /ColB ColB Fillden mul Fillden sub 1 add def
  ColR ColG ColB setrgbcolor} def
/BoxColFill {gsave Rec PolyFill} def
/PolyFill {gsave Density fill grestore grestore} def
/h {rlineto rlineto rlineto gsave closepath fill grestore} bind def
%
% PostScript Level 1 Pattern Fill routine for rectangles
% Usage: x y w h s a XX PatternFill
%	x,y = lower left corner of box to be filled
%	w,h = width and height of box
%	  a = angle in degrees between lines and x-axis
%	 XX = 0/1 for no/yes cross-hatch
%
/PatternFill {gsave /PFa [ 9 2 roll ] def
  PFa 0 get PFa 2 get 2 div add PFa 1 get PFa 3 get 2 div add translate
  PFa 2 get -2 div PFa 3 get -2 div PFa 2 get PFa 3 get Rec
  TransparentPatterns {} {gsave 1 setgray fill grestore} ifelse
  clip
  currentlinewidth 0.5 mul setlinewidth
  /PFs PFa 2 get dup mul PFa 3 get dup mul add sqrt def
  0 0 M PFa 5 get rotate PFs -2 div dup translate
  0 1 PFs PFa 4 get div 1 add floor cvi
	{PFa 4 get mul 0 M 0 PFs V} for
  0 PFa 6 get ne {
	0 1 PFs PFa 4 get div 1 add floor cvi
	{PFa 4 get mul 0 2 1 roll M PFs 0 V} for
 } if
  stroke grestore} def
%
/languagelevel where
 {pop languagelevel} {1} ifelse
dup 2 lt
	{/InterpretLevel1 true def
	 /InterpretLevel3 false def}
	{/InterpretLevel1 Level1 def
	 2 gt
	    {/InterpretLevel3 Level3 def}
	    {/InterpretLevel3 false def}
	 ifelse }
 ifelse
%
% PostScript level 2 pattern fill definitions
%
/Level2PatternFill {
/Tile8x8 {/PaintType 2 /PatternType 1 /TilingType 1 /BBox [0 0 8 8] /XStep 8 /YStep 8}
	bind def
/KeepColor {currentrgbcolor [/Pattern /DeviceRGB] setcolorspace} bind def
<< Tile8x8
 /PaintProc {0.5 setlinewidth pop 0 0 M 8 8 L 0 8 M 8 0 L stroke} 
>> matrix makepattern
/Pat1 exch def
<< Tile8x8
 /PaintProc {0.5 setlinewidth pop 0 0 M 8 8 L 0 8 M 8 0 L stroke
	0 4 M 4 8 L 8 4 L 4 0 L 0 4 L stroke}
>> matrix makepattern
/Pat2 exch def
<< Tile8x8
 /PaintProc {0.5 setlinewidth pop 0 0 M 0 8 L
	8 8 L 8 0 L 0 0 L fill}
>> matrix makepattern
/Pat3 exch def
<< Tile8x8
 /PaintProc {0.5 setlinewidth pop -4 8 M 8 -4 L
	0 12 M 12 0 L stroke}
>> matrix makepattern
/Pat4 exch def
<< Tile8x8
 /PaintProc {0.5 setlinewidth pop -4 0 M 8 12 L
	0 -4 M 12 8 L stroke}
>> matrix makepattern
/Pat5 exch def
<< Tile8x8
 /PaintProc {0.5 setlinewidth pop -2 8 M 4 -4 L
	0 12 M 8 -4 L 4 12 M 10 0 L stroke}
>> matrix makepattern
/Pat6 exch def
<< Tile8x8
 /PaintProc {0.5 setlinewidth pop -2 0 M 4 12 L
	0 -4 M 8 12 L 4 -4 M 10 8 L stroke}
>> matrix makepattern
/Pat7 exch def
<< Tile8x8
 /PaintProc {0.5 setlinewidth pop 8 -2 M -4 4 L
	12 0 M -4 8 L 12 4 M 0 10 L stroke}
>> matrix makepattern
/Pat8 exch def
<< Tile8x8
 /PaintProc {0.5 setlinewidth pop 0 -2 M 12 4 L
	-4 0 M 12 8 L -4 4 M 8 10 L stroke}
>> matrix makepattern
/Pat9 exch def
/Pattern1 {PatternBgnd KeepColor Pat1 setpattern} bind def
/Pattern2 {PatternBgnd KeepColor Pat2 setpattern} bind def
/Pattern3 {PatternBgnd KeepColor Pat3 setpattern} bind def
/Pattern4 {PatternBgnd KeepColor Landscape {Pat5} {Pat4} ifelse setpattern} bind def
/Pattern5 {PatternBgnd KeepColor Landscape {Pat4} {Pat5} ifelse setpattern} bind def
/Pattern6 {PatternBgnd KeepColor Landscape {Pat9} {Pat6} ifelse setpattern} bind def
/Pattern7 {PatternBgnd KeepColor Landscape {Pat8} {Pat7} ifelse setpattern} bind def
} def
%
%
%End of PostScript Level 2 code
%
/PatternBgnd {
  TransparentPatterns {} {gsave 1 setgray fill grestore} ifelse
} def
%
% Substitute for Level 2 pattern fill codes with
% grayscale if Level 2 support is not selected.
%
/Level1PatternFill {
/Pattern1 {0.250 Density} bind def
/Pattern2 {0.500 Density} bind def
/Pattern3 {0.750 Density} bind def
/Pattern4 {0.125 Density} bind def
/Pattern5 {0.375 Density} bind def
/Pattern6 {0.625 Density} bind def
/Pattern7 {0.875 Density} bind def
} def
%
% Now test for support of Level 2 code
%
Level1 {Level1PatternFill} {Level2PatternFill} ifelse
%
/Symbol-Oblique /Symbol findfont [1 0 .167 1 0 0] makefont
dup length dict begin {1 index /FID eq {pop pop} {def} ifelse} forall
currentdict end definefont pop
%
/MFshow {
   { dup 5 get 3 ge
     { 5 get 3 eq {gsave} {grestore} ifelse }
     {dup dup 0 get findfont exch 1 get scalefont setfont
     [ currentpoint ] exch dup 2 get 0 exch R dup 5 get 2 ne {dup dup 6
     get exch 4 get {textshow} {stringwidth pop 0 R} ifelse }if dup 5 get 0 eq
     {dup 3 get {2 get neg 0 exch R pop} {pop aload pop M} ifelse} {dup 5
     get 1 eq {dup 2 get exch dup 3 get exch 6 get stringwidth pop -2 div
     dup 0 R} {dup 6 get stringwidth pop -2 div 0 R 6 get
     textshow 2 index {aload pop M neg 3 -1 roll neg R pop pop} {pop pop pop
     pop aload pop M} ifelse }ifelse }ifelse }
     ifelse }
   forall} def
/Gswidth {dup type /stringtype eq {stringwidth} {pop (n) stringwidth} ifelse} def
/MFwidth {0 exch { dup 5 get 3 ge { 5 get 3 eq { 0 } { pop } ifelse }
 {dup 3 get{dup dup 0 get findfont exch 1 get scalefont setfont
     6 get Gswidth pop add} {pop} ifelse} ifelse} forall} def
/MLshow { currentpoint stroke M
  0 exch R
  Blacktext {gsave 0 setgray MFshow grestore} {MFshow} ifelse } bind def
/MRshow { currentpoint stroke M
  exch dup MFwidth neg 3 -1 roll R
  Blacktext {gsave 0 setgray MFshow grestore} {MFshow} ifelse } bind def
/MCshow { currentpoint stroke M
  exch dup MFwidth -2 div 3 -1 roll R
  Blacktext {gsave 0 setgray MFshow grestore} {MFshow} ifelse } bind def
/XYsave    { [( ) 1 2 true false 3 ()] } bind def
/XYrestore { [( ) 1 2 true false 4 ()] } bind def
Level1 SuppressPDFMark or 
{} {
/SDict 10 dict def
systemdict /pdfmark known not {
  userdict /pdfmark systemdict /cleartomark get put
} if
SDict begin [
  /Title (max.eps)
  /Subject (gnuplot plot)
  /Creator (gnuplot 5.0 patchlevel 1)
  /Author (gaumont)
%  /Producer (gnuplot)
%  /Keywords ()
  /CreationDate (Fri Oct 30 18:57:08 2015)
  /DOCINFO pdfmark
end
} ifelse
end
%
% Support for boxed text - Ethan A Merritt May 2005
%
/InitTextBox { userdict /TBy2 3 -1 roll put userdict /TBx2 3 -1 roll put
           userdict /TBy1 3 -1 roll put userdict /TBx1 3 -1 roll put
	   /Boxing true def } def
/ExtendTextBox { Boxing
    { gsave dup false charpath pathbbox
      dup TBy2 gt {userdict /TBy2 3 -1 roll put} {pop} ifelse
      dup TBx2 gt {userdict /TBx2 3 -1 roll put} {pop} ifelse
      dup TBy1 lt {userdict /TBy1 3 -1 roll put} {pop} ifelse
      dup TBx1 lt {userdict /TBx1 3 -1 roll put} {pop} ifelse
      grestore } if } def
/PopTextBox { newpath TBx1 TBxmargin sub TBy1 TBymargin sub M
               TBx1 TBxmargin sub TBy2 TBymargin add L
	       TBx2 TBxmargin add TBy2 TBymargin add L
	       TBx2 TBxmargin add TBy1 TBymargin sub L closepath } def
/DrawTextBox { PopTextBox stroke /Boxing false def} def
/FillTextBox { gsave PopTextBox 1 1 1 setrgbcolor fill grestore /Boxing false def} def
0 0 0 0 InitTextBox
/TBxmargin 20 def
/TBymargin 20 def
/Boxing false def
/textshow { ExtendTextBox Gshow } def
%
%%EndProlog
%%Page: 1 1
gnudict begin
gsave
doclip
50 50 translate
0.050 0.050 scale
0 setgray
newpath
(Helvetica) findfont 200 scalefont setfont
BackgroundColor 0 lt 3 1 roll 0 lt exch 0 lt or or not {BackgroundColor C 1.000 0 0 5040.00 3772.00 BoxColFill} if
1.000 UL
LTb
LCb setrgbcolor
860 640 M
63 0 V
3756 0 R
-63 0 V
stroke
740 640 M
[ [(Helvetica) 200.0 0.0 true true 0 (10)]
[(Helvetica) 160.0 100.0 true true 0 (-3)]
] -86.7 MRshow
1.000 UL
LTb
LCb setrgbcolor
860 930 M
31 0 V
3788 0 R
-31 0 V
860 1100 M
31 0 V
3788 0 R
-31 0 V
860 1220 M
31 0 V
3788 0 R
-31 0 V
860 1314 M
31 0 V
3788 0 R
-31 0 V
860 1390 M
31 0 V
3788 0 R
-31 0 V
860 1454 M
31 0 V
3788 0 R
-31 0 V
860 1510 M
31 0 V
3788 0 R
-31 0 V
860 1560 M
31 0 V
3788 0 R
-31 0 V
860 1604 M
63 0 V
3756 0 R
-63 0 V
stroke
740 1604 M
[ [(Helvetica) 200.0 0.0 true true 0 (10)]
[(Helvetica) 160.0 100.0 true true 0 (-2)]
] -86.7 MRshow
1.000 UL
LTb
LCb setrgbcolor
860 1894 M
31 0 V
3788 0 R
-31 0 V
860 2063 M
31 0 V
3788 0 R
-31 0 V
860 2184 M
31 0 V
3788 0 R
-31 0 V
860 2277 M
31 0 V
3788 0 R
-31 0 V
860 2354 M
31 0 V
3788 0 R
-31 0 V
860 2418 M
31 0 V
3788 0 R
-31 0 V
860 2474 M
31 0 V
3788 0 R
-31 0 V
860 2523 M
31 0 V
3788 0 R
-31 0 V
860 2567 M
63 0 V
3756 0 R
-63 0 V
stroke
740 2567 M
[ [(Helvetica) 200.0 0.0 true true 0 (10)]
[(Helvetica) 160.0 100.0 true true 0 (-1)]
] -86.7 MRshow
1.000 UL
LTb
LCb setrgbcolor
860 2857 M
31 0 V
3788 0 R
-31 0 V
860 3027 M
31 0 V
3788 0 R
-31 0 V
860 3148 M
31 0 V
3788 0 R
-31 0 V
860 3241 M
31 0 V
3788 0 R
-31 0 V
860 3317 M
31 0 V
3788 0 R
-31 0 V
860 3382 M
31 0 V
3788 0 R
-31 0 V
860 3438 M
31 0 V
3788 0 R
-31 0 V
860 3487 M
31 0 V
3788 0 R
-31 0 V
860 3531 M
63 0 V
3756 0 R
-63 0 V
stroke
740 3531 M
[ [(Helvetica) 200.0 0.0 true true 0 (10)]
[(Helvetica) 160.0 100.0 true true 0 (0)]
] -86.7 MRshow
1.000 UL
LTb
LCb setrgbcolor
860 640 M
0 63 V
0 2828 R
0 -63 V
stroke
860 440 M
[ [(Helvetica) 200.0 0.0 true true 0 (10)]
[(Helvetica) 160.0 100.0 true true 0 (-3)]
] -86.7 MCshow
1.000 UL
LTb
LCb setrgbcolor
1243 640 M
0 31 V
0 2860 R
0 -31 V
1467 640 M
0 31 V
0 2860 R
0 -31 V
1626 640 M
0 31 V
0 2860 R
0 -31 V
1750 640 M
0 31 V
0 2860 R
0 -31 V
1851 640 M
0 31 V
0 2860 R
0 -31 V
1936 640 M
0 31 V
0 2860 R
0 -31 V
2010 640 M
0 31 V
0 2860 R
0 -31 V
2075 640 M
0 31 V
0 2860 R
0 -31 V
2133 640 M
0 63 V
0 2828 R
0 -63 V
stroke
2133 440 M
[ [(Helvetica) 200.0 0.0 true true 0 (10)]
[(Helvetica) 160.0 100.0 true true 0 (-2)]
] -86.7 MCshow
1.000 UL
LTb
LCb setrgbcolor
2516 640 M
0 31 V
0 2860 R
0 -31 V
2740 640 M
0 31 V
0 2860 R
0 -31 V
2899 640 M
0 31 V
0 2860 R
0 -31 V
3023 640 M
0 31 V
0 2860 R
0 -31 V
3124 640 M
0 31 V
0 2860 R
0 -31 V
3209 640 M
0 31 V
0 2860 R
0 -31 V
3283 640 M
0 31 V
0 2860 R
0 -31 V
3348 640 M
0 31 V
0 2860 R
0 -31 V
3406 640 M
0 63 V
0 2828 R
0 -63 V
stroke
3406 440 M
[ [(Helvetica) 200.0 0.0 true true 0 (10)]
[(Helvetica) 160.0 100.0 true true 0 (-1)]
] -86.7 MCshow
1.000 UL
LTb
LCb setrgbcolor
3789 640 M
0 31 V
0 2860 R
0 -31 V
4013 640 M
0 31 V
0 2860 R
0 -31 V
4172 640 M
0 31 V
0 2860 R
0 -31 V
4296 640 M
0 31 V
0 2860 R
0 -31 V
4397 640 M
0 31 V
0 2860 R
0 -31 V
4482 640 M
0 31 V
0 2860 R
0 -31 V
4556 640 M
0 31 V
0 2860 R
0 -31 V
4621 640 M
0 31 V
0 2860 R
0 -31 V
4679 640 M
0 63 V
0 2828 R
0 -63 V
stroke
4679 440 M
[ [(Helvetica) 200.0 0.0 true true 0 (10)]
[(Helvetica) 160.0 100.0 true true 0 (0)]
] -86.7 MCshow
1.000 UL
LTb
LCb setrgbcolor
1.000 UL
LTb
LCb setrgbcolor
860 3531 N
860 640 L
3819 0 V
0 2891 V
-3819 0 V
Z stroke
0.500 UP
1.000 UL
LTb
LCb setrgbcolor
LCb setrgbcolor
160 2085 M
currentpoint gsave translate -270 rotate 0 0 moveto
[ [(Helvetica) 200.0 0.0 true true 0 (Max inter-thread density)]
] -66.7 MCshow
grestore
LTb
LCb setrgbcolor
2769 140 M
[ [(Helvetica) 200.0 0.0 true true 0 (Intra-thread density)]
] -66.7 MCshow
LTb
% Begin plot #1
0.500 UP
0.500 UL
LTb
0.82 0.11 0.02 C 3778 2920 Pls
3775 2852 Pls
3525 2893 Pls
3897 3067 Pls
3882 3010 Pls
3810 2905 Pls
3682 2859 Pls
3867 3022 Pls
4027 3087 Pls
3581 2727 Pls
3781 3046 Pls
3480 2685 Pls
3622 2820 Pls
3598 2840 Pls
3663 2907 Pls
4091 3127 Pls
3570 2892 Pls
2091 2117 Pls
3076 2878 Pls
2503 2224 Pls
3416 2643 Pls
3809 2950 Pls
2735 2752 Pls
3634 2910 Pls
3617 2745 Pls
3344 2598 Pls
3666 2820 Pls
3914 3003 Pls
3961 2987 Pls
3814 3039 Pls
4094 3178 Pls
4161 3211 Pls
3811 2983 Pls
3830 2990 Pls
3899 2950 Pls
3883 2994 Pls
3534 2727 Pls
3567 2737 Pls
4053 3060 Pls
3696 2839 Pls
3984 3045 Pls
3554 2743 Pls
3997 3138 Pls
3067 2647 Pls
3823 3016 Pls
3551 2744 Pls
3477 2677 Pls
1522 2211 Pls
3888 3098 Pls
3709 2870 Pls
3617 2873 Pls
3722 2929 Pls
3826 3052 Pls
4120 3124 Pls
3124 2764 Pls
3857 2976 Pls
3858 3057 Pls
3321 2809 Pls
3951 3001 Pls
4208 3233 Pls
3244 2666 Pls
3953 3066 Pls
3599 2883 Pls
3482 3026 Pls
3960 3027 Pls
4025 3078 Pls
3620 2812 Pls
3717 2869 Pls
4021 3111 Pls
3819 2903 Pls
3894 3021 Pls
3620 2795 Pls
3670 2809 Pls
3291 2857 Pls
3973 3014 Pls
3883 3323 Pls
3805 2938 Pls
3644 2831 Pls
3894 3187 Pls
4047 3210 Pls
3614 3042 Pls
3597 2959 Pls
3949 3097 Pls
3937 3017 Pls
3638 2804 Pls
4164 3141 Pls
3570 2817 Pls
3559 2771 Pls
3703 2925 Pls
3759 2975 Pls
4029 3082 Pls
3956 2993 Pls
3580 2736 Pls
4263 3273 Pls
3797 2949 Pls
3783 3000 Pls
3308 2954 Pls
3718 2954 Pls
3837 3082 Pls
4044 3086 Pls
3595 2711 Pls
4258 3220 Pls
3684 3105 Pls
3741 3047 Pls
3714 2898 Pls
3835 2928 Pls
3753 2842 Pls
3873 3041 Pls
3836 3133 Pls
3926 3017 Pls
3814 3265 Pls
3275 2642 Pls
3617 3042 Pls
3518 2691 Pls
3720 2912 Pls
3319 2618 Pls
3958 3069 Pls
3795 3278 Pls
4016 3044 Pls
3385 2737 Pls
4102 3261 Pls
3720 2887 Pls
3614 2913 Pls
2591 2416 Pls
3655 2778 Pls
3817 3007 Pls
4006 3069 Pls
3615 2887 Pls
3516 2762 Pls
4070 3205 Pls
3718 3026 Pls
3333 2747 Pls
3803 2932 Pls
3625 2861 Pls
3753 3080 Pls
4276 3244 Pls
3614 2856 Pls
3729 2844 Pls
3951 2988 Pls
3146 2574 Pls
3833 2918 Pls
3524 2712 Pls
3626 2788 Pls
3686 3028 Pls
3558 2844 Pls
3538 2891 Pls
4007 3073 Pls
3830 2953 Pls
3542 2727 Pls
3551 2733 Pls
3845 3006 Pls
3813 2959 Pls
3562 2853 Pls
3876 2955 Pls
3754 2891 Pls
3893 3095 Pls
3776 2940 Pls
4163 3145 Pls
3755 3088 Pls
3194 3077 Pls
3371 2625 Pls
3608 2804 Pls
4220 3186 Pls
4102 3106 Pls
3935 3018 Pls
3648 2820 Pls
3823 3000 Pls
3348 2741 Pls
3324 2700 Pls
3494 2890 Pls
2810 2582 Pls
3444 2804 Pls
3947 3085 Pls
3533 2933 Pls
3610 3015 Pls
3887 3018 Pls
4141 3167 Pls
3946 3037 Pls
3687 2920 Pls
3431 2699 Pls
3763 3023 Pls
3721 2970 Pls
4107 3105 Pls
3771 2904 Pls
4045 3132 Pls
3514 2845 Pls
3965 3082 Pls
3682 2955 Pls
3785 2909 Pls
3688 2895 Pls
3252 2673 Pls
3907 2950 Pls
3712 2891 Pls
3974 3137 Pls
3533 2709 Pls
4169 3244 Pls
3566 3019 Pls
3673 3000 Pls
3527 2911 Pls
3892 3032 Pls
3882 3030 Pls
3177 2638 Pls
3750 2939 Pls
3978 3193 Pls
3729 2825 Pls
3526 2668 Pls
3720 2924 Pls
3940 3000 Pls
3907 3261 Pls
3768 3026 Pls
3166 2474 Pls
3781 2885 Pls
3767 3024 Pls
3746 3075 Pls
3816 2908 Pls
3420 2667 Pls
3533 2841 Pls
3330 2784 Pls
3954 3029 Pls
3585 3010 Pls
3566 2817 Pls
3681 2843 Pls
3581 2903 Pls
3676 2782 Pls
3788 3383 Pls
3895 3008 Pls
4064 3246 Pls
3709 3170 Pls
4050 3134 Pls
3678 2803 Pls
3862 2963 Pls
3274 2752 Pls
4031 3125 Pls
4102 3097 Pls
3552 2720 Pls
3823 2892 Pls
3787 2889 Pls
3950 3064 Pls
3407 2727 Pls
3087 2468 Pls
4074 3144 Pls
3880 3027 Pls
3765 2976 Pls
3826 2906 Pls
4079 3099 Pls
3448 2763 Pls
3744 2898 Pls
3546 2675 Pls
3985 3115 Pls
3765 3046 Pls
3697 2909 Pls
3048 2355 Pls
4110 3108 Pls
3876 2990 Pls
3730 2815 Pls
3428 2932 Pls
3678 2984 Pls
3723 2977 Pls
3877 2963 Pls
3780 2994 Pls
2878 2649 Pls
3435 2902 Pls
3886 2993 Pls
3647 2924 Pls
4043 3051 Pls
3973 3152 Pls
4138 3171 Pls
3682 3073 Pls
3213 2619 Pls
3854 2962 Pls
3729 2813 Pls
4045 3061 Pls
4139 3124 Pls
3535 2812 Pls
3994 3044 Pls
4006 3142 Pls
4125 3121 Pls
3685 2846 Pls
4061 3077 Pls
3080 2395 Pls
3481 2833 Pls
3974 3006 Pls
3946 2977 Pls
3688 2965 Pls
2923 2668 Pls
3977 3202 Pls
3732 3004 Pls
3790 2896 Pls
3687 2869 Pls
3945 3219 Pls
3789 3270 Pls
3980 3075 Pls
3340 2620 Pls
3932 3033 Pls
3762 3096 Pls
3842 2920 Pls
3247 2853 Pls
4093 3138 Pls
3722 2875 Pls
3904 3007 Pls
3564 3052 Pls
3546 2678 Pls
4121 3185 Pls
3687 3207 Pls
3935 3017 Pls
4154 3196 Pls
3558 2692 Pls
3323 2534 Pls
3584 2848 Pls
4133 3408 Pls
3482 2967 Pls
3746 2960 Pls
4006 3110 Pls
3833 2954 Pls
3752 2892 Pls
3843 2993 Pls
4002 3117 Pls
4236 3329 Pls
4051 3113 Pls
3822 2918 Pls
3509 2740 Pls
3598 3143 Pls
3763 3010 Pls
3603 2746 Pls
3933 3077 Pls
4029 3268 Pls
3377 2608 Pls
3452 2646 Pls
3238 2919 Pls
4037 3095 Pls
3555 2910 Pls
4126 3152 Pls
3826 2960 Pls
3901 3007 Pls
3800 2983 Pls
3893 3021 Pls
3872 3080 Pls
3817 3001 Pls
4149 3329 Pls
3607 3326 Pls
3704 2932 Pls
3238 2639 Pls
3594 2758 Pls
3837 2926 Pls
3809 3111 Pls
3548 2866 Pls
3826 3019 Pls
3784 3077 Pls
3865 3108 Pls
3656 2896 Pls
3424 2724 Pls
3952 3042 Pls
4006 3166 Pls
3265 2883 Pls
4156 3154 Pls
3920 3073 Pls
3902 3000 Pls
3939 3012 Pls
3715 2808 Pls
4040 3192 Pls
4160 3256 Pls
3705 3045 Pls
3786 2988 Pls
3719 3026 Pls
4142 3171 Pls
3655 2831 Pls
3630 2757 Pls
4063 3124 Pls
3335 2724 Pls
3554 2767 Pls
3729 2847 Pls
3842 2986 Pls
3599 3076 Pls
3705 3096 Pls
3852 3047 Pls
3834 3131 Pls
3842 3267 Pls
3691 2909 Pls
4156 3188 Pls
3888 3042 Pls
3954 3082 Pls
3594 3139 Pls
3464 2777 Pls
3119 2826 Pls
3891 3049 Pls
3734 2851 Pls
3972 3164 Pls
3845 2932 Pls
3566 2908 Pls
3978 3115 Pls
2950 2589 Pls
4175 3347 Pls
4044 3245 Pls
3183 2467 Pls
3478 2822 Pls
3472 2678 Pls
3630 3038 Pls
4095 3159 Pls
3985 3030 Pls
3532 2741 Pls
3402 2691 Pls
3930 3052 Pls
4002 3233 Pls
3897 2952 Pls
3453 2678 Pls
3618 2952 Pls
3422 2606 Pls
3335 2534 Pls
3701 2861 Pls
4014 3144 Pls
3726 3057 Pls
3714 2823 Pls
3288 2593 Pls
4288 3353 Pls
3643 2777 Pls
3712 2859 Pls
3337 2853 Pls
3834 2938 Pls
3892 2988 Pls
3788 2999 Pls
3710 3286 Pls
3158 2687 Pls
3808 3050 Pls
4013 3062 Pls
3761 2949 Pls
3915 2954 Pls
3652 2881 Pls
3903 3025 Pls
3936 3222 Pls
3781 2924 Pls
3803 2873 Pls
3745 3080 Pls
3441 2782 Pls
3790 3008 Pls
3514 2836 Pls
3829 2962 Pls
3515 2900 Pls
3496 2703 Pls
3817 2983 Pls
3917 3018 Pls
3338 2591 Pls
3645 2919 Pls
3946 3014 Pls
3525 2796 Pls
3774 2935 Pls
3621 3157 Pls
3966 3149 Pls
4085 3084 Pls
3831 2901 Pls
3719 2879 Pls
3680 2796 Pls
3967 3089 Pls
3784 2947 Pls
2990 2804 Pls
3899 3013 Pls
3977 3036 Pls
4205 3267 Pls
3683 2905 Pls
3822 3353 Pls
3801 2945 Pls
4041 3059 Pls
3906 3116 Pls
3608 2938 Pls
3650 2786 Pls
3702 2963 Pls
3559 2741 Pls
3757 3001 Pls
4083 3168 Pls
4053 3174 Pls
4079 3175 Pls
3646 2900 Pls
3379 3031 Pls
4048 3135 Pls
3578 2704 Pls
4061 3103 Pls
3813 2915 Pls
3204 2871 Pls
3573 2760 Pls
3430 2889 Pls
3840 3008 Pls
3486 2801 Pls
3892 2986 Pls
3764 2907 Pls
3612 2881 Pls
3764 3139 Pls
3489 2739 Pls
3361 2587 Pls
4056 3182 Pls
3786 2902 Pls
3742 2915 Pls
3974 3148 Pls
3689 2830 Pls
3966 3176 Pls
3539 2778 Pls
3882 3022 Pls
3726 2857 Pls
3732 2982 Pls
2278 2418 Pls
3661 2935 Pls
3888 3010 Pls
3765 3002 Pls
3992 3032 Pls
3615 2861 Pls
3869 3090 Pls
3688 3119 Pls
3554 2875 Pls
3754 2989 Pls
3929 3118 Pls
3718 2928 Pls
3653 3046 Pls
3627 2745 Pls
4081 3216 Pls
3592 2767 Pls
3910 3097 Pls
3899 3214 Pls
3583 2772 Pls
3780 2919 Pls
4158 3142 Pls
3811 2948 Pls
3929 2992 Pls
3636 2759 Pls
3764 3027 Pls
4215 3249 Pls
3815 2964 Pls
3670 2927 Pls
3657 2819 Pls
3371 2563 Pls
3632 2914 Pls
3519 2942 Pls
3815 2960 Pls
2791 2281 Pls
3870 3016 Pls
3976 3185 Pls
3685 2917 Pls
3955 3043 Pls
4001 3118 Pls
3672 2910 Pls
2856 2588 Pls
3802 3103 Pls
3960 3097 Pls
3840 3110 Pls
3620 2942 Pls
3623 3079 Pls
3809 3007 Pls
3895 2965 Pls
2556 2522 Pls
3881 3086 Pls
3710 3181 Pls
3619 2771 Pls
3911 3058 Pls
3598 2900 Pls
3670 2892 Pls
3578 2779 Pls
4037 3073 Pls
3426 2800 Pls
3407 2727 Pls
3703 3009 Pls
3643 2961 Pls
3629 2816 Pls
4067 3313 Pls
3840 3302 Pls
3751 2990 Pls
3791 2983 Pls
4058 3075 Pls
3187 2435 Pls
3363 2733 Pls
3923 3069 Pls
4121 3202 Pls
4151 3488 Pls
4423 3402 Pls
3783 2901 Pls
3647 2819 Pls
3832 2991 Pls
3916 2973 Pls
3650 3133 Pls
3754 2844 Pls
3954 3048 Pls
4020 3150 Pls
4068 3483 Pls
4047 3088 Pls
3460 2761 Pls
3721 2845 Pls
3779 2958 Pls
3571 2831 Pls
4225 3200 Pls
4070 3230 Pls
3416 2824 Pls
3972 3117 Pls
3654 2857 Pls
4282 3276 Pls
3952 3071 Pls
3928 3063 Pls
3693 3027 Pls
3994 3069 Pls
3389 2601 Pls
3746 2929 Pls
3572 3020 Pls
3295 2535 Pls
3528 2815 Pls
4033 3162 Pls
3553 2833 Pls
3539 2841 Pls
4156 3146 Pls
3617 2919 Pls
3241 2482 Pls
3604 3057 Pls
3583 2859 Pls
3021 2482 Pls
3721 2873 Pls
3834 2946 Pls
3882 3036 Pls
4147 3191 Pls
3068 2577 Pls
3693 3069 Pls
4023 3169 Pls
3737 2902 Pls
3755 2861 Pls
4163 3233 Pls
4151 3168 Pls
3633 2969 Pls
3774 2926 Pls
3802 2874 Pls
3304 2555 Pls
4141 3177 Pls
3888 2936 Pls
4269 3488 Pls
3950 3060 Pls
3945 3154 Pls
4149 3239 Pls
3742 2828 Pls
3944 2993 Pls
3770 3004 Pls
3606 2755 Pls
3506 2844 Pls
4313 3275 Pls
3954 3086 Pls
3809 2897 Pls
3174 2554 Pls
3808 2961 Pls
3720 2938 Pls
3836 3479 Pls
3765 2901 Pls
3668 2857 Pls
3628 3070 Pls
3726 2861 Pls
3826 3080 Pls
2460 2748 Pls
3974 3006 Pls
3035 2369 Pls
3302 3078 Pls
3866 3077 Pls
3701 2841 Pls
3256 2531 Pls
3707 2968 Pls
3611 2850 Pls
4162 3214 Pls
3832 3023 Pls
3354 2731 Pls
4139 3169 Pls
3693 3085 Pls
3946 3065 Pls
4038 3054 Pls
3820 2937 Pls
3535 2819 Pls
3430 2726 Pls
3685 2873 Pls
3501 2732 Pls
3788 2860 Pls
3981 3030 Pls
3883 3006 Pls
3577 2791 Pls
3482 2792 Pls
3447 2715 Pls
3753 2933 Pls
3484 2897 Pls
3757 2908 Pls
3535 2958 Pls
3705 2942 Pls
3814 2980 Pls
3723 2852 Pls
3657 2857 Pls
3345 2677 Pls
3264 2524 Pls
3817 2972 Pls
3781 2889 Pls
3541 2677 Pls
3749 2943 Pls
4266 3249 Pls
3863 3037 Pls
4169 3247 Pls
3877 2930 Pls
3970 3073 Pls
3833 3049 Pls
3501 2880 Pls
3481 2965 Pls
3798 2980 Pls
3891 3187 Pls
3444 2649 Pls
3487 2776 Pls
3957 3005 Pls
3766 2983 Pls
3885 2974 Pls
3749 2868 Pls
3335 2755 Pls
3519 2734 Pls
3567 2981 Pls
3745 2848 Pls
3380 2662 Pls
3423 2687 Pls
3470 2675 Pls
3897 3006 Pls
3901 3057 Pls
3775 3017 Pls
3825 2972 Pls
3687 2858 Pls
3680 2973 Pls
3618 2742 Pls
3698 2887 Pls
3729 3143 Pls
3833 2895 Pls
3411 2731 Pls
3567 2874 Pls
3969 3134 Pls
3512 2804 Pls
3853 2937 Pls
4050 3153 Pls
4129 3144 Pls
3344 2676 Pls
3776 2898 Pls
3577 2840 Pls
3864 2995 Pls
4032 3245 Pls
2681 2889 Pls
3268 2480 Pls
3540 2858 Pls
3407 2933 Pls
3598 2817 Pls
3975 3256 Pls
3241 2593 Pls
3720 2882 Pls
4028 3054 Pls
3740 3020 Pls
4300 3333 Pls
3946 3134 Pls
3712 2830 Pls
4004 3027 Pls
3542 2903 Pls
3496 2876 Pls
3850 3041 Pls
3175 2424 Pls
3638 2950 Pls
3399 2868 Pls
3719 3283 Pls
3551 2711 Pls
4119 3206 Pls
4260 3292 Pls
3591 2739 Pls
3696 2818 Pls
3005 2488 Pls
3774 3164 Pls
3735 3048 Pls
3529 2696 Pls
3764 3190 Pls
4068 3071 Pls
3650 2786 Pls
3165 2861 Pls
3597 2861 Pls
3304 2722 Pls
3712 2823 Pls
3867 2943 Pls
3940 3115 Pls
3337 2616 Pls
3925 2984 Pls
3675 2911 Pls
3772 2882 Pls
3842 2957 Pls
3894 2947 Pls
3885 2940 Pls
3764 2992 Pls
4143 3178 Pls
3946 2985 Pls
3923 3008 Pls
3396 2655 Pls
3467 2648 Pls
4021 3094 Pls
3815 3093 Pls
3917 2974 Pls
3963 2998 Pls
3534 2733 Pls
4135 3242 Pls
3418 2691 Pls
3629 2951 Pls
3575 2854 Pls
3385 3012 Pls
4132 3301 Pls
3617 2864 Pls
3147 2593 Pls
3781 3022 Pls
3737 2975 Pls
3347 2670 Pls
3773 2944 Pls
3306 2614 Pls
3591 2925 Pls
3870 3027 Pls
3146 2461 Pls
3688 2847 Pls
3825 3074 Pls
4018 3113 Pls
2488 2287 Pls
3662 2927 Pls
3953 3073 Pls
3193 2906 Pls
3656 2832 Pls
3346 2634 Pls
4107 3149 Pls
4154 3149 Pls
3468 2661 Pls
3920 3020 Pls
3721 2815 Pls
3910 3047 Pls
3850 3039 Pls
3703 2849 Pls
3738 2852 Pls
3971 3031 Pls
3436 3156 Pls
3667 2993 Pls
3437 2796 Pls
3855 2955 Pls
3516 2655 Pls
3903 3106 Pls
3687 2914 Pls
3820 2908 Pls
3613 2798 Pls
2495 2201 Pls
3749 2829 Pls
3500 2826 Pls
3666 2795 Pls
3725 2864 Pls
3831 2990 Pls
3898 3031 Pls
3228 2865 Pls
3564 2914 Pls
3510 3057 Pls
3643 3200 Pls
4170 3208 Pls
3958 3000 Pls
3704 3138 Pls
3924 3039 Pls
3584 2742 Pls
3850 2948 Pls
4139 3238 Pls
3262 3048 Pls
3587 3151 Pls
3536 3174 Pls
2815 2742 Pls
3863 3073 Pls
3796 3218 Pls
3950 3037 Pls
3936 3152 Pls
3574 2721 Pls
3599 3104 Pls
3885 3082 Pls
2846 2615 Pls
3395 2745 Pls
4012 3092 Pls
3765 2983 Pls
3945 3007 Pls
4053 3092 Pls
3617 2851 Pls
4131 3138 Pls
3797 2885 Pls
3978 3175 Pls
3564 2737 Pls
3876 3065 Pls
3905 2998 Pls
3671 2837 Pls
3507 2659 Pls
3666 2926 Pls
3830 2890 Pls
3545 2687 Pls
2856 2329 Pls
3790 2988 Pls
3522 2803 Pls
3898 3044 Pls
3730 3023 Pls
3743 2881 Pls
4242 3402 Pls
3455 2959 Pls
3607 2991 Pls
3681 2825 Pls
3803 2956 Pls
3921 3363 Pls
3327 2643 Pls
3949 3016 Pls
3290 2673 Pls
3911 2963 Pls
3618 2870 Pls
3926 3199 Pls
3497 2702 Pls
3825 2892 Pls
3688 2788 Pls
3953 3020 Pls
3732 2976 Pls
3701 2833 Pls
3592 2903 Pls
3917 2971 Pls
4027 3122 Pls
3743 2854 Pls
3626 2848 Pls
3605 2888 Pls
3992 3236 Pls
4172 3242 Pls
3768 3063 Pls
3802 2974 Pls
3881 3009 Pls
3706 2886 Pls
3640 2869 Pls
3810 3263 Pls
3752 2922 Pls
3550 2791 Pls
3784 2941 Pls
3752 3233 Pls
4129 3153 Pls
3963 3018 Pls
3928 3014 Pls
3888 3134 Pls
3884 3200 Pls
4143 3140 Pls
3726 2906 Pls
3952 3043 Pls
3787 2896 Pls
4051 3112 Pls
3871 2960 Pls
3828 2988 Pls
3666 2785 Pls
3616 2828 Pls
3198 2464 Pls
3655 2935 Pls
3786 2944 Pls
3706 2909 Pls
3997 3086 Pls
3735 2913 Pls
3825 2999 Pls
4023 3107 Pls
4086 3118 Pls
2853 2848 Pls
3925 3181 Pls
4004 3362 Pls
3653 2998 Pls
3484 2706 Pls
3885 3153 Pls
3954 3254 Pls
3936 2989 Pls
3895 2987 Pls
4184 3158 Pls
4068 3083 Pls
3983 3085 Pls
4139 3154 Pls
3365 2825 Pls
3842 3049 Pls
3806 3004 Pls
3493 2867 Pls
3935 3012 Pls
4148 3184 Pls
3781 2894 Pls
4014 3096 Pls
3529 2673 Pls
4159 3183 Pls
2955 2493 Pls
3963 3031 Pls
3816 3290 Pls
3760 3076 Pls
3735 2952 Pls
3688 2971 Pls
3754 2921 Pls
3908 3082 Pls
3971 3042 Pls
3486 2916 Pls
4000 3159 Pls
3863 2985 Pls
3372 2704 Pls
3838 3182 Pls
3829 2932 Pls
3437 2838 Pls
3292 2540 Pls
3780 2982 Pls
3840 3047 Pls
3798 3025 Pls
3934 3116 Pls
3259 2615 Pls
3809 2970 Pls
3499 2686 Pls
4056 3150 Pls
3380 2819 Pls
3972 3109 Pls
3380 2781 Pls
3895 3039 Pls
3721 3164 Pls
4105 3117 Pls
4070 3126 Pls
3731 2907 Pls
3678 3022 Pls
3617 3027 Pls
3662 2822 Pls
4038 3125 Pls
3685 2830 Pls
3670 3141 Pls
3894 3152 Pls
3339 2679 Pls
3561 2875 Pls
3901 3071 Pls
3817 2911 Pls
4142 3274 Pls
3355 2730 Pls
4065 3265 Pls
4270 3267 Pls
3063 2599 Pls
3593 2834 Pls
3887 3010 Pls
3614 2773 Pls
4014 3102 Pls
3892 3120 Pls
4031 3184 Pls
3933 3063 Pls
3908 3073 Pls
3611 2798 Pls
3808 2897 Pls
3592 2752 Pls
3872 3162 Pls
3797 3048 Pls
4045 3103 Pls
3581 2786 Pls
4008 3046 Pls
3833 2914 Pls
2968 2400 Pls
3731 2982 Pls
3154 2569 Pls
3129 2613 Pls
3728 2816 Pls
3832 2895 Pls
3551 2744 Pls
3533 2864 Pls
3909 2959 Pls
4100 3180 Pls
3661 2832 Pls
3766 2905 Pls
4160 3138 Pls
3568 2866 Pls
3520 2921 Pls
3583 2957 Pls
4105 3099 Pls
3621 2864 Pls
3689 3064 Pls
3351 2722 Pls
2552 2506 Pls
3797 3192 Pls
4057 3163 Pls
4028 3123 Pls
3668 2944 Pls
2883 2219 Pls
3884 3039 Pls
3830 2931 Pls
3723 2833 Pls
3487 3112 Pls
3965 3252 Pls
3752 2873 Pls
3714 2847 Pls
3869 2986 Pls
3787 3025 Pls
3875 2981 Pls
3962 3054 Pls
3939 3002 Pls
3652 2865 Pls
4052 3060 Pls
3902 2964 Pls
3636 2826 Pls
3865 3003 Pls
3706 2855 Pls
3710 2845 Pls
3470 2837 Pls
3537 2895 Pls
4106 3162 Pls
3978 3004 Pls
3394 2706 Pls
3971 3041 Pls
3143 2410 Pls
4156 3145 Pls
3933 3192 Pls
3684 2795 Pls
3562 2716 Pls
3701 2826 Pls
3626 2772 Pls
4031 3215 Pls
3550 2802 Pls
3746 2978 Pls
3487 3072 Pls
3659 2771 Pls
3792 2879 Pls
3705 2972 Pls
3971 3035 Pls
3914 2972 Pls
3910 2969 Pls
3957 3105 Pls
3771 2880 Pls
3963 3344 Pls
3502 2749 Pls
3949 3090 Pls
3471 2740 Pls
3235 2534 Pls
4215 3183 Pls
3654 2993 Pls
3960 3011 Pls
3383 2840 Pls
3734 3152 Pls
3580 2882 Pls
3648 2917 Pls
4155 3223 Pls
3725 2911 Pls
3418 2700 Pls
3708 2982 Pls
3900 3114 Pls
3895 3022 Pls
3848 3094 Pls
3901 3066 Pls
3230 3030 Pls
3412 2658 Pls
3461 2714 Pls
3655 2771 Pls
3882 2959 Pls
3775 2987 Pls
% End plot #1
% Begin plot #2
0.500 UP
0.500 UL
LTb
0.73 0.85 0.33 C 4438 3017 Crs
4054 2920 Crs
4679 3077 Crs
3991 2924 Crs
3976 2497 Crs
4118 2586 Crs
4136 3001 Crs
3876 2793 Crs
4030 2582 Crs
3607 2359 Crs
4159 3089 Crs
4467 3061 Crs
3993 2916 Crs
4214 3158 Crs
3929 2680 Crs
4284 2943 Crs
3947 2951 Crs
4189 3043 Crs
3994 2876 Crs
3769 2587 Crs
3715 2434 Crs
3815 2694 Crs
4062 2815 Crs
4411 2852 Crs
3872 2797 Crs
4283 2914 Crs
3934 2700 Crs
4273 3068 Crs
3723 2759 Crs
3933 2882 Crs
4025 3028 Crs
3965 2556 Crs
4033 3008 Crs
4043 3036 Crs
4025 2680 Crs
4196 3029 Crs
3928 2612 Crs
4290 3136 Crs
3966 2966 Crs
3985 2703 Crs
4101 2989 Crs
3972 2873 Crs
3945 2637 Crs
3979 2753 Crs
4150 2848 Crs
3706 2573 Crs
4201 2663 Crs
3979 2603 Crs
4061 3057 Crs
4281 2910 Crs
3770 2475 Crs
3853 2720 Crs
4253 3050 Crs
4442 2904 Crs
3974 2836 Crs
4168 2816 Crs
3639 2467 Crs
3637 2737 Crs
3578 2627 Crs
3877 2687 Crs
3951 2919 Crs
4293 2966 Crs
4156 2789 Crs
3895 2807 Crs
3483 2456 Crs
4230 2659 Crs
4364 2673 Crs
3554 2650 Crs
3711 2696 Crs
3919 2883 Crs
3541 2665 Crs
3986 2749 Crs
4049 3032 Crs
4628 3163 Crs
4274 2971 Crs
3520 2406 Crs
4330 2809 Crs
4238 2977 Crs
3715 2685 Crs
3886 2637 Crs
3844 2787 Crs
4041 2826 Crs
3407 2399 Crs
3962 2929 Crs
4162 3036 Crs
4027 2614 Crs
3981 2673 Crs
3903 2798 Crs
3924 2818 Crs
3966 2839 Crs
4388 3154 Crs
4446 3162 Crs
4038 2698 Crs
3617 2398 Crs
3585 2500 Crs
3912 2761 Crs
3677 2611 Crs
4204 2692 Crs
4041 2804 Crs
3825 2791 Crs
3786 2821 Crs
3492 2553 Crs
3969 2721 Crs
4679 3195 Crs
4253 3070 Crs
4087 2868 Crs
4226 3147 Crs
4188 2757 Crs
3789 2269 Crs
3846 2886 Crs
3994 2814 Crs
4058 2900 Crs
4041 3036 Crs
3981 2904 Crs
4074 2888 Crs
4141 2381 Crs
4252 2975 Crs
3858 2825 Crs
3796 2735 Crs
3715 2710 Crs
4061 3008 Crs
3615 2540 Crs
4165 2604 Crs
4131 3055 Crs
4055 2885 Crs
3871 2530 Crs
4014 2910 Crs
3736 2716 Crs
3891 2857 Crs
4551 3322 Crs
3824 2551 Crs
4154 2601 Crs
4059 2690 Crs
3887 2658 Crs
4118 2975 Crs
4210 3055 Crs
4043 2718 Crs
3886 2694 Crs
4365 3007 Crs
3827 2837 Crs
3768 2699 Crs
3844 2732 Crs
3558 2402 Crs
3713 2549 Crs
4057 2714 Crs
3700 2545 Crs
4280 2880 Crs
3583 2478 Crs
4375 3081 Crs
3368 2471 Crs
3449 2506 Crs
3831 2613 Crs
3861 2902 Crs
3976 2684 Crs
3691 2289 Crs
3343 2451 Crs
4147 2935 Crs
4055 2878 Crs
3966 2914 Crs
3524 2358 Crs
3894 2923 Crs
4110 2633 Crs
4291 3003 Crs
3983 2919 Crs
4053 2908 Crs
4014 2869 Crs
3947 2837 Crs
4166 2990 Crs
3915 2610 Crs
3893 2731 Crs
4274 2958 Crs
4103 2838 Crs
4055 2659 Crs
4295 2751 Crs
4245 2744 Crs
4145 2823 Crs
4293 2559 Crs
4198 3055 Crs
4162 2781 Crs
4077 2849 Crs
3895 2740 Crs
3842 2528 Crs
3865 2747 Crs
4428 3115 Crs
4288 3054 Crs
4269 2747 Crs
4118 2712 Crs
3883 2421 Crs
3591 2578 Crs
3831 2536 Crs
4062 3010 Crs
4284 3077 Crs
3505 2574 Crs
3862 2600 Crs
3943 2716 Crs
4160 3060 Crs
3939 2889 Crs
4023 2928 Crs
3965 2831 Crs
4122 2822 Crs
4287 2734 Crs
4236 2992 Crs
3951 2961 Crs
4094 2702 Crs
3826 2688 Crs
4172 2822 Crs
3703 2617 Crs
3899 2893 Crs
3883 2888 Crs
3971 2774 Crs
4130 2886 Crs
3833 2598 Crs
3891 2754 Crs
3811 2841 Crs
4459 2590 Crs
3417 2221 Crs
4075 2959 Crs
4104 3026 Crs
3517 2599 Crs
3732 2724 Crs
3465 2262 Crs
3860 2853 Crs
4251 3129 Crs
3782 2794 Crs
4171 2790 Crs
3940 2620 Crs
4167 2914 Crs
3739 2724 Crs
3875 2698 Crs
4453 2952 Crs
3991 2668 Crs
4222 2665 Crs
3813 2750 Crs
4452 3201 Crs
4149 2829 Crs
4201 2929 Crs
4148 3031 Crs
3880 2843 Crs
4056 2797 Crs
4281 2993 Crs
3942 2780 Crs
3908 2625 Crs
4193 2916 Crs
3681 2504 Crs
3510 2549 Crs
4118 2673 Crs
3667 2486 Crs
4139 2998 Crs
4387 2944 Crs
3836 2764 Crs
3864 2676 Crs
3823 2721 Crs
3973 2483 Crs
3953 2973 Crs
3943 2971 Crs
3648 2627 Crs
3878 2651 Crs
4220 2945 Crs
4038 2861 Crs
3959 2904 Crs
3549 2635 Crs
3752 2689 Crs
3817 2811 Crs
4149 2835 Crs
4519 3078 Crs
4234 2986 Crs
4540 3217 Crs
3972 2660 Crs
3946 2688 Crs
3794 2693 Crs
4062 2849 Crs
4049 2760 Crs
4023 2743 Crs
4326 2731 Crs
3866 2857 Crs
3576 2578 Crs
4428 2919 Crs
3784 2667 Crs
4108 2996 Crs
3668 2709 Crs
4144 3055 Crs
3804 2630 Crs
4086 2858 Crs
3909 2800 Crs
4143 2941 Crs
4075 2900 Crs
4135 2773 Crs
4244 3067 Crs
3966 2789 Crs
3940 2666 Crs
3949 2831 Crs
4004 2922 Crs
4068 2656 Crs
3866 2864 Crs
3659 2446 Crs
4164 3050 Crs
4175 2718 Crs
4063 2927 Crs
3876 2888 Crs
3745 2816 Crs
3805 2260 Crs
3966 2764 Crs
4103 2763 Crs
3834 2665 Crs
4281 3044 Crs
3924 2674 Crs
3796 2459 Crs
4142 2796 Crs
3883 2884 Crs
3905 2634 Crs
3713 2691 Crs
4065 2920 Crs
4073 3034 Crs
4057 2918 Crs
3733 2805 Crs
4436 2755 Crs
4281 2859 Crs
3892 2857 Crs
4054 2556 Crs
4153 2884 Crs
3898 2934 Crs
4154 2776 Crs
3979 2785 Crs
3952 2638 Crs
4667 3177 Crs
4124 2943 Crs
3682 2680 Crs
4355 3190 Crs
4128 3042 Crs
3972 2762 Crs
4152 2986 Crs
3913 2792 Crs
3810 2793 Crs
4077 2921 Crs
3918 2832 Crs
3978 2927 Crs
4427 2686 Crs
3692 2700 Crs
3956 2936 Crs
4403 2974 Crs
4127 2595 Crs
4057 2842 Crs
4265 3101 Crs
4274 2654 Crs
3946 2535 Crs
4280 2869 Crs
3516 2583 Crs
4176 2687 Crs
3739 2740 Crs
3948 2749 Crs
3889 2769 Crs
3601 2625 Crs
4157 2903 Crs
4398 3046 Crs
4240 2791 Crs
4021 2843 Crs
4548 3058 Crs
4107 2861 Crs
3973 2852 Crs
3574 2572 Crs
3715 2659 Crs
3652 2691 Crs
4125 3037 Crs
3972 2895 Crs
3847 2602 Crs
3879 2911 Crs
3769 2653 Crs
3915 2625 Crs
4453 3119 Crs
3934 2911 Crs
3706 2546 Crs
4275 2730 Crs
3866 2609 Crs
4275 3058 Crs
4395 2546 Crs
4036 2993 Crs
4327 2814 Crs
3875 2891 Crs
4142 2891 Crs
4370 3152 Crs
3563 2681 Crs
3482 2341 Crs
3943 2676 Crs
3813 2740 Crs
3964 2959 Crs
4094 3030 Crs
3590 2593 Crs
4169 2724 Crs
4116 2600 Crs
4066 2896 Crs
4154 2900 Crs
4025 2924 Crs
4067 2831 Crs
4057 2985 Crs
3802 2788 Crs
4158 2759 Crs
3815 2737 Crs
4037 2754 Crs
4389 2856 Crs
3928 2665 Crs
4288 2768 Crs
4017 2850 Crs
4282 2626 Crs
4152 3093 Crs
3751 2767 Crs
4223 2904 Crs
3789 2852 Crs
4153 2954 Crs
3966 2770 Crs
3957 2581 Crs
4436 2932 Crs
3643 2738 Crs
4271 3101 Crs
4120 3020 Crs
4193 2757 Crs
4056 2420 Crs
4235 2666 Crs
4034 2678 Crs
4234 3039 Crs
3829 2842 Crs
4318 3004 Crs
3811 2842 Crs
3961 2691 Crs
3895 2914 Crs
4176 2810 Crs
4242 2737 Crs
4095 2591 Crs
4178 2820 Crs
3766 2765 Crs
4024 2415 Crs
4045 2896 Crs
4138 2801 Crs
4082 2857 Crs
3659 2706 Crs
3864 2828 Crs
4193 2626 Crs
4028 2914 Crs
4075 2778 Crs
4041 2665 Crs
4062 3034 Crs
3768 2748 Crs
4227 2902 Crs
4254 3101 Crs
3852 2464 Crs
3897 2731 Crs
4397 3118 Crs
3864 2848 Crs
3989 2684 Crs
3719 2732 Crs
4294 3008 Crs
3508 2641 Crs
3958 2926 Crs
3813 2661 Crs
4446 2998 Crs
3739 2592 Crs
4186 3018 Crs
3421 2546 Crs
3923 2779 Crs
3904 2911 Crs
3729 2779 Crs
3825 2806 Crs
4065 2892 Crs
4021 3023 Crs
3743 2515 Crs
4056 2954 Crs
4164 2938 Crs
3836 2757 Crs
4202 2733 Crs
3791 2681 Crs
4152 3048 Crs
3958 2981 Crs
3940 2764 Crs
4269 3094 Crs
4441 2942 Crs
4162 3063 Crs
3911 2900 Crs
3912 2884 Crs
3897 2715 Crs
3620 2523 Crs
4040 2914 Crs
4271 3017 Crs
4251 2984 Crs
3906 2920 Crs
4151 3007 Crs
4194 3079 Crs
4276 2902 Crs
4138 2968 Crs
3779 2709 Crs
3972 2840 Crs
3797 2594 Crs
4088 3032 Crs
3585 2698 Crs
4134 3109 Crs
3674 2261 Crs
4043 2943 Crs
4453 3222 Crs
4007 2721 Crs
4134 3090 Crs
3415 2375 Crs
4392 2778 Crs
3579 2540 Crs
3880 2568 Crs
4218 3017 Crs
4055 2802 Crs
4145 2924 Crs
3426 2239 Crs
3975 2842 Crs
3810 2359 Crs
4167 3116 Crs
4126 2993 Crs
3827 2695 Crs
4084 2722 Crs
4625 3070 Crs
3647 2345 Crs
3974 2996 Crs
4248 3063 Crs
4052 2856 Crs
4226 2827 Crs
3854 2781 Crs
3994 2813 Crs
4288 2964 Crs
4183 3027 Crs
4134 2736 Crs
3889 2824 Crs
3667 2699 Crs
4012 2780 Crs
4369 3099 Crs
4039 2895 Crs
4013 2763 Crs
4187 2901 Crs
4042 2775 Crs
3779 2629 Crs
4055 3014 Crs
3962 2851 Crs
3974 2747 Crs
4054 2756 Crs
3935 2653 Crs
4064 2840 Crs
4144 3027 Crs
4154 2942 Crs
4152 2669 Crs
3584 2382 Crs
3951 2952 Crs
3893 2786 Crs
4264 3059 Crs
3870 2622 Crs
4234 2964 Crs
3860 2681 Crs
3867 2792 Crs
3971 2917 Crs
4129 2720 Crs
4053 2828 Crs
4052 2843 Crs
3723 2496 Crs
3747 2620 Crs
3969 2638 Crs
4243 2752 Crs
4214 3147 Crs
4144 3066 Crs
3690 2721 Crs
3847 2759 Crs
3926 2554 Crs
4065 2718 Crs
3601 2582 Crs
4094 2806 Crs
3831 2525 Crs
3967 2935 Crs
4232 3121 Crs
3907 2832 Crs
4069 2692 Crs
3753 2769 Crs
4050 2883 Crs
4422 3143 Crs
3700 2324 Crs
4086 2826 Crs
4078 2839 Crs
3956 2769 Crs
4091 2941 Crs
3842 2637 Crs
4419 2881 Crs
3809 2682 Crs
4050 3048 Crs
4429 3219 Crs
4152 2808 Crs
4160 2720 Crs
4249 2998 Crs
4280 2611 Crs
4679 3151 Crs
3765 2733 Crs
4448 2777 Crs
3746 2805 Crs
4031 2625 Crs
3948 2858 Crs
3866 2807 Crs
4111 2910 Crs
4155 3049 Crs
4162 2813 Crs
3486 2466 Crs
4127 3060 Crs
3777 2685 Crs
4027 2819 Crs
3895 2850 Crs
4134 2589 Crs
3957 2802 Crs
4121 3090 Crs
3776 2593 Crs
3780 2587 Crs
4006 2684 Crs
4237 2840 Crs
4161 2738 Crs
4445 3030 Crs
3686 2611 Crs
4118 2997 Crs
4046 3019 Crs
4043 2628 Crs
3902 2632 Crs
4281 2949 Crs
4270 3008 Crs
4250 3045 Crs
3710 2511 Crs
4072 3061 Crs
4034 2804 Crs
4267 2611 Crs
4149 3027 Crs
3564 2669 Crs
4438 2842 Crs
3980 2963 Crs
4007 2962 Crs
3892 2571 Crs
4363 2917 Crs
4056 2527 Crs
4679 2929 Crs
3669 2721 Crs
4288 2769 Crs
4089 2923 Crs
3933 2780 Crs
3951 2848 Crs
3606 2485 Crs
3819 2710 Crs
3715 2432 Crs
4440 2786 Crs
4139 2683 Crs
4386 3157 Crs
3755 2827 Crs
4281 3025 Crs
4253 2553 Crs
3993 2758 Crs
3845 2724 Crs
4539 3016 Crs
4034 2908 Crs
3968 2596 Crs
4058 2976 Crs
3863 2734 Crs
4124 3012 Crs
4158 2840 Crs
4153 2770 Crs
3722 2803 Crs
3479 2602 Crs
3967 2853 Crs
4200 3109 Crs
4051 2975 Crs
4099 2627 Crs
4089 2947 Crs
4023 2728 Crs
3990 2464 Crs
4066 2620 Crs
4057 2898 Crs
4060 2736 Crs
4137 2767 Crs
4197 2954 Crs
3828 2644 Crs
3833 2705 Crs
4162 2933 Crs
4007 2929 Crs
4034 2735 Crs
4143 2679 Crs
3779 2679 Crs
4059 2986 Crs
3780 2792 Crs
3541 2562 Crs
3571 2461 Crs
3843 2472 Crs
4154 2871 Crs
4056 2582 Crs
3853 2870 Crs
4036 2862 Crs
3968 2732 Crs
4053 2923 Crs
4345 2927 Crs
3898 2623 Crs
4047 2924 Crs
3855 2698 Crs
3945 2790 Crs
3876 2861 Crs
4054 2905 Crs
4286 2935 Crs
4176 2935 Crs
4149 2754 Crs
4260 3188 Crs
4102 2526 Crs
4192 2873 Crs
3768 2771 Crs
4273 2947 Crs
3854 2764 Crs
3877 2713 Crs
3812 2726 Crs
4118 2719 Crs
4220 2944 Crs
4404 2964 Crs
4216 2882 Crs
3758 2575 Crs
3848 2826 Crs
3796 2608 Crs
3503 2505 Crs
3973 2962 Crs
4191 3017 Crs
3884 2866 Crs
3961 2549 Crs
4148 3044 Crs
3857 2834 Crs
3892 2878 Crs
4053 3028 Crs
4147 3033 Crs
3978 2825 Crs
4057 2615 Crs
4014 2687 Crs
3828 2682 Crs
3950 2863 Crs
4180 2909 Crs
4122 2952 Crs
4119 2830 Crs
4003 2843 Crs
3612 2620 Crs
3831 2787 Crs
4039 2863 Crs
3815 2480 Crs
3845 2555 Crs
3878 2504 Crs
3880 2792 Crs
3964 2812 Crs
3966 2583 Crs
4145 2853 Crs
3824 2559 Crs
3631 2597 Crs
3852 2762 Crs
3232 2268 Crs
3975 2856 Crs
4448 2645 Crs
3843 2673 Crs
3836 2559 Crs
3945 2709 Crs
3964 2806 Crs
3847 2864 Crs
4031 2738 Crs
3790 2777 Crs
3578 2415 Crs
3814 2723 Crs
4035 2790 Crs
3672 2749 Crs
3710 2504 Crs
4015 2820 Crs
3862 2784 Crs
4000 2930 Crs
4060 2911 Crs
3961 2819 Crs
3975 2793 Crs
4039 2915 Crs
4052 2696 Crs
3945 2717 Crs
4027 2808 Crs
3927 2537 Crs
4061 2941 Crs
4679 3233 Crs
3898 2843 Crs
3961 2644 Crs
4390 3074 Crs
3872 2802 Crs
3746 2665 Crs
3687 2409 Crs
4155 2787 Crs
4257 2684 Crs
3712 2798 Crs
3769 2488 Crs
3877 2665 Crs
4061 2933 Crs
3905 2740 Crs
3903 2870 Crs
3716 2577 Crs
3961 2819 Crs
4024 2849 Crs
4059 2962 Crs
3799 2628 Crs
4060 2595 Crs
3940 2843 Crs
4122 3045 Crs
3806 2844 Crs
3888 2511 Crs
4229 3083 Crs
3834 2851 Crs
4125 2936 Crs
4059 2796 Crs
4254 2968 Crs
4289 3000 Crs
3898 2836 Crs
4058 2808 Crs
4281 2898 Crs
3686 2650 Crs
3707 2707 Crs
4444 2854 Crs
3974 2589 Crs
3804 2632 Crs
4157 2866 Crs
4038 2935 Crs
4117 2697 Crs
4247 2901 Crs
4145 2828 Crs
3892 2931 Crs
3512 2626 Crs
4089 2816 Crs
3551 2381 Crs
4004 2908 Crs
3932 2917 Crs
4430 3074 Crs
3677 2415 Crs
4034 2589 Crs
4040 2563 Crs
3850 2636 Crs
3965 2790 Crs
4069 2810 Crs
3828 2880 Crs
3997 2317 Crs
3895 2844 Crs
4275 2886 Crs
4284 2983 Crs
3829 2483 Crs
3891 2794 Crs
3671 2570 Crs
4322 3161 Crs
4076 2947 Crs
4003 2880 Crs
4442 3030 Crs
3747 2726 Crs
3968 2807 Crs
4388 2990 Crs
4455 2872 Crs
4415 3179 Crs
4054 2771 Crs
3919 2632 Crs
3734 2700 Crs
4288 2914 Crs
4124 2853 Crs
3905 2672 Crs
3828 2860 Crs
4085 3019 Crs
3694 2727 Crs
4003 2580 Crs
4054 3037 Crs
3520 2356 Crs
4009 2822 Crs
4124 3015 Crs
4577 2908 Crs
4284 2746 Crs
4366 2603 Crs
4656 2962 Crs
4141 2951 Crs
3989 2748 Crs
3752 2799 Crs
4364 2964 Crs
4169 2756 Crs
3971 2744 Crs
3653 2453 Crs
3784 2776 Crs
3744 2762 Crs
3798 2847 Crs
4106 2855 Crs
4155 2746 Crs
3977 2790 Crs
4139 2826 Crs
3941 2780 Crs
4270 3033 Crs
4025 2925 Crs
3773 2665 Crs
4051 2921 Crs
4447 2824 Crs
3781 2738 Crs
3554 2526 Crs
3999 2948 Crs
3827 2838 Crs
4012 2717 Crs
3747 2768 Crs
4438 3226 Crs
3914 2771 Crs
4120 2853 Crs
4169 2759 Crs
4127 2919 Crs
3720 2689 Crs
3991 2753 Crs
3844 2868 Crs
3943 2875 Crs
3817 2703 Crs
3636 2674 Crs
3711 2616 Crs
4138 3008 Crs
3972 2895 Crs
3915 2718 Crs
4047 2893 Crs
3966 2922 Crs
3520 2536 Crs
3711 2574 Crs
4104 2877 Crs
3903 2932 Crs
4136 2848 Crs
4057 3004 Crs
3638 2697 Crs
4111 3065 Crs
4353 3162 Crs
4103 3040 Crs
3669 2732 Crs
4367 3132 Crs
4380 3126 Crs
3981 2811 Crs
4050 2792 Crs
3923 2954 Crs
3609 2455 Crs
4442 3119 Crs
3854 2731 Crs
4112 3044 Crs
4251 2232 Crs
3874 2598 Crs
3664 2438 Crs
4282 3033 Crs
4323 2738 Crs
4036 2642 Crs
3904 2575 Crs
3795 2810 Crs
4372 2909 Crs
4015 2964 Crs
3932 2774 Crs
4114 2870 Crs
3697 2710 Crs
3898 2792 Crs
3571 2626 Crs
4266 2803 Crs
4379 3152 Crs
3811 2802 Crs
4040 2986 Crs
3730 2784 Crs
4028 2996 Crs
4023 2902 Crs
4445 3211 Crs
3650 2426 Crs
3777 2631 Crs
3768 2775 Crs
3807 2821 Crs
3807 2663 Crs
4011 2508 Crs
4118 2881 Crs
4254 2829 Crs
4217 2782 Crs
4122 2864 Crs
4219 3039 Crs
4057 2905 Crs
4239 2831 Crs
3772 2750 Crs
3769 2518 Crs
3853 2601 Crs
4061 2929 Crs
3592 2648 Crs
3937 2833 Crs
3684 2586 Crs
3898 2932 Crs
3853 2895 Crs
4060 2920 Crs
3880 2898 Crs
3849 2832 Crs
4132 2799 Crs
4305 3078 Crs
4054 2885 Crs
3949 2684 Crs
4128 3064 Crs
4158 2993 Crs
3902 2858 Crs
3915 2787 Crs
3857 2905 Crs
3933 2908 Crs
4149 3026 Crs
4001 2670 Crs
3660 2711 Crs
4283 2875 Crs
3719 2496 Crs
4397 3143 Crs
3752 2463 Crs
4169 3103 Crs
3889 2765 Crs
3541 2247 Crs
3977 2464 Crs
3631 2583 Crs
3853 2451 Crs
4001 2703 Crs
3988 2505 Crs
3811 2843 Crs
4022 2702 Crs
3876 2800 Crs
3568 2470 Crs
4378 3118 Crs
3586 2549 Crs
4001 2698 Crs
3914 2933 Crs
4443 2955 Crs
4060 2516 Crs
4283 3115 Crs
4179 3059 Crs
4213 3117 Crs
4059 3006 Crs
3849 2792 Crs
3958 2913 Crs
3967 2967 Crs
4260 2759 Crs
3922 2820 Crs
4418 3098 Crs
3438 2486 Crs
3833 2775 Crs
4226 2705 Crs
3962 2783 Crs
4165 3069 Crs
3729 2538 Crs
3597 2464 Crs
4237 3171 Crs
4271 3171 Crs
3252 2380 Crs
3897 2784 Crs
4139 2822 Crs
3882 2573 Crs
4209 2676 Crs
3685 2767 Crs
3785 2742 Crs
4014 2421 Crs
3994 2973 Crs
4143 3033 Crs
3976 2894 Crs
3733 2771 Crs
3957 2860 Crs
3911 2899 Crs
4049 2847 Crs
3734 2510 Crs
3878 2587 Crs
3769 2787 Crs
3876 2636 Crs
4028 2926 Crs
4124 2774 Crs
4087 2706 Crs
3879 2636 Crs
3960 2665 Crs
4025 3030 Crs
4289 3104 Crs
4163 3086 Crs
4049 2448 Crs
4054 2913 Crs
4021 2920 Crs
3822 2842 Crs
4154 2889 Crs
4030 2635 Crs
4235 3090 Crs
3974 2983 Crs
4040 2925 Crs
4173 2541 Crs
3955 2928 Crs
3952 2611 Crs
4091 2893 Crs
3962 2941 Crs
3782 2747 Crs
4144 2807 Crs
4056 2820 Crs
4504 3363 Crs
3956 2438 Crs
4022 2481 Crs
3954 2784 Crs
4074 2785 Crs
4155 2851 Crs
4164 2722 Crs
3892 2894 Crs
4108 2912 Crs
4265 3025 Crs
3663 2577 Crs
3972 2647 Crs
4039 2812 Crs
4100 2994 Crs
4056 3035 Crs
4137 3012 Crs
4259 2785 Crs
3886 2883 Crs
4132 3107 Crs
4294 3082 Crs
4468 3061 Crs
3954 2903 Crs
4045 2528 Crs
4050 2832 Crs
4283 2900 Crs
4239 2801 Crs
3945 2568 Crs
3894 2911 Crs
4123 3056 Crs
3844 2805 Crs
3823 2697 Crs
4438 3071 Crs
4208 3019 Crs
4346 2790 Crs
3931 2661 Crs
4242 2917 Crs
3912 2567 Crs
4110 2640 Crs
3967 2905 Crs
3676 2495 Crs
4265 2987 Crs
3793 2666 Crs
4267 2586 Crs
4443 3108 Crs
3874 2907 Crs
4393 2823 Crs
3997 2716 Crs
3866 2821 Crs
3685 2750 Crs
4162 2999 Crs
3817 2874 Crs
3828 2628 Crs
3982 2765 Crs
3768 2640 Crs
3933 2696 Crs
4063 2945 Crs
4134 2928 Crs
3459 2545 Crs
3441 2571 Crs
3961 2967 Crs
3554 2578 Crs
4006 2966 Crs
3863 2806 Crs
3774 2679 Crs
4274 2794 Crs
3666 2467 Crs
4064 2541 Crs
3968 2990 Crs
4062 2885 Crs
4167 3017 Crs
4057 3034 Crs
3825 2525 Crs
3714 2353 Crs
3965 2917 Crs
3841 2603 Crs
3121 2190 Crs
3920 2562 Crs
4379 3022 Crs
3942 2953 Crs
4155 2836 Crs
3998 2945 Crs
3676 2307 Crs
3972 2621 Crs
3682 2646 Crs
4165 3072 Crs
4230 2616 Crs
4444 3069 Crs
4045 2656 Crs
3803 2766 Crs
3889 2651 Crs
3885 2711 Crs
3852 2780 Crs
3954 2750 Crs
4165 2751 Crs
4377 2908 Crs
4260 2888 Crs
4537 3045 Crs
3970 2471 Crs
4278 3169 Crs
4153 2899 Crs
4010 2943 Crs
3524 2383 Crs
3845 2846 Crs
3736 2807 Crs
4094 2945 Crs
3998 2756 Crs
3952 2869 Crs
4679 3163 Crs
3950 2896 Crs
3878 2812 Crs
3708 2675 Crs
3866 2644 Crs
3955 2927 Crs
3996 2727 Crs
3785 2851 Crs
3883 2661 Crs
3882 2543 Crs
4126 2975 Crs
3918 2656 Crs
4034 3036 Crs
3980 2740 Crs
3642 2704 Crs
4281 2842 Crs
3880 2563 Crs
4160 2881 Crs
3768 2836 Crs
3672 2705 Crs
3732 2636 Crs
4175 2855 Crs
3770 2725 Crs
4260 2813 Crs
3984 2918 Crs
4032 2987 Crs
3916 2657 Crs
4161 2856 Crs
3834 2816 Crs
4235 2915 Crs
4439 2723 Crs
3753 2565 Crs
3929 2825 Crs
4060 2949 Crs
3949 2386 Crs
3626 2723 Crs
4087 2863 Crs
4293 3200 Crs
3865 2608 Crs
3968 2945 Crs
3791 2799 Crs
4550 3009 Crs
4451 2857 Crs
4433 2935 Crs
3981 2810 Crs
4170 3096 Crs
3928 2521 Crs
3930 2805 Crs
4365 2947 Crs
3609 2678 Crs
3749 2669 Crs
4076 2646 Crs
4164 3130 Crs
3874 2817 Crs
4006 2854 Crs
4239 3052 Crs
4290 2784 Crs
4058 3046 Crs
4617 3139 Crs
4043 2858 Crs
4087 2819 Crs
4285 2842 Crs
3893 2722 Crs
3850 2882 Crs
4148 2992 Crs
3797 2797 Crs
3814 2607 Crs
3773 2531 Crs
3766 2698 Crs
4272 3069 Crs
4132 2998 Crs
4150 2836 Crs
3472 2604 Crs
4276 3157 Crs
4007 2954 Crs
4367 2849 Crs
3742 2730 Crs
4156 2787 Crs
3961 2633 Crs
4369 2641 Crs
3644 2709 Crs
4010 2625 Crs
3944 2763 Crs
3864 2874 Crs
4374 2907 Crs
3816 2741 Crs
3890 2659 Crs
3977 2960 Crs
3830 2633 Crs
4049 2771 Crs
4143 3091 Crs
3539 2434 Crs
3490 2390 Crs
4679 3251 Crs
4062 2680 Crs
4008 3014 Crs
4029 2731 Crs
3789 2677 Crs
3848 2753 Crs
4121 3016 Crs
4235 2948 Crs
4239 2722 Crs
3879 2891 Crs
3731 2660 Crs
3929 2643 Crs
3811 2708 Crs
3875 2838 Crs
3673 2537 Crs
3540 2499 Crs
3951 2930 Crs
4286 3031 Crs
4356 3146 Crs
3904 2918 Crs
3970 2556 Crs
3740 2448 Crs
3983 2671 Crs
3688 2575 Crs
3757 2716 Crs
4232 3054 Crs
3978 2606 Crs
3403 2448 Crs
3699 2430 Crs
4439 3038 Crs
4210 2679 Crs
4158 2845 Crs
4269 2948 Crs
4111 2910 Crs
4170 2819 Crs
4166 3103 Crs
3869 2360 Crs
4132 2868 Crs
4030 2779 Crs
4444 2715 Crs
4026 2782 Crs
3917 2819 Crs
3896 2872 Crs
4149 2887 Crs
4034 2583 Crs
3645 2468 Crs
3764 2799 Crs
4251 3040 Crs
3588 2699 Crs
4291 2924 Crs
4248 3108 Crs
3718 2632 Crs
4060 3023 Crs
4446 3018 Crs
4024 2775 Crs
4154 2871 Crs
4056 3030 Crs
4665 2875 Crs
3984 2745 Crs
3894 2896 Crs
3872 2609 Crs
4063 2593 Crs
4165 2925 Crs
3762 2592 Crs
3842 2854 Crs
3948 2607 Crs
3900 2877 Crs
4246 2691 Crs
4150 3047 Crs
4424 2845 Crs
4156 2875 Crs
4253 3113 Crs
3920 2880 Crs
4120 2893 Crs
3488 2417 Crs
3829 2613 Crs
4158 2866 Crs
3937 2833 Crs
4128 2900 Crs
3776 2844 Crs
3768 2602 Crs
3413 2529 Crs
4057 2937 Crs
4355 2974 Crs
4170 2815 Crs
4074 3063 Crs
3889 2908 Crs
3655 2659 Crs
3853 2643 Crs
4045 2843 Crs
3875 2902 Crs
4425 3191 Crs
3639 2216 Crs
4063 2989 Crs
4056 2862 Crs
4243 2995 Crs
3886 2903 Crs
3894 2757 Crs
3948 2805 Crs
4024 2991 Crs
3959 2961 Crs
3507 2637 Crs
4158 2977 Crs
3759 2446 Crs
3831 2317 Crs
4138 3003 Crs
4128 2753 Crs
3722 2668 Crs
3954 2922 Crs
4078 2791 Crs
3715 2693 Crs
4036 2718 Crs
3937 2533 Crs
4105 2752 Crs
4077 2869 Crs
4141 2973 Crs
3967 2670 Crs
3770 2413 Crs
4146 3049 Crs
3900 2845 Crs
4151 2679 Crs
3896 2928 Crs
3671 2608 Crs
4123 3100 Crs
4196 2665 Crs
3747 2805 Crs
4148 2838 Crs
3559 2209 Crs
4070 2956 Crs
3786 2667 Crs
3762 2808 Crs
4223 2825 Crs
4049 2852 Crs
3761 2715 Crs
3897 2887 Crs
4099 2800 Crs
3903 2685 Crs
4047 2858 Crs
4356 2939 Crs
4162 2858 Crs
3686 2393 Crs
4057 3052 Crs
4031 3002 Crs
3572 2558 Crs
4444 3158 Crs
3958 2295 Crs
3733 2765 Crs
3859 2418 Crs
3897 2786 Crs
3818 2803 Crs
4073 3056 Crs
3844 2744 Crs
4419 3105 Crs
3538 2563 Crs
4279 3103 Crs
3781 2688 Crs
3952 2789 Crs
4057 2852 Crs
4677 2848 Crs
3671 2604 Crs
4067 2617 Crs
3835 2852 Crs
3966 2871 Crs
3797 2582 Crs
4101 3093 Crs
4149 2693 Crs
4395 2953 Crs
3817 2652 Crs
4274 3018 Crs
3827 2769 Crs
3889 2606 Crs
4246 2853 Crs
4055 3011 Crs
4082 2978 Crs
3681 2533 Crs
4051 3004 Crs
3962 2977 Crs
4002 2789 Crs
4245 3084 Crs
4138 2837 Crs
4048 2893 Crs
4263 3045 Crs
4131 2772 Crs
4212 2873 Crs
3880 2708 Crs
4019 2871 Crs
3947 2650 Crs
4436 3193 Crs
3583 2504 Crs
4010 3022 Crs
4124 2971 Crs
3882 2774 Crs
4057 2942 Crs
3980 2851 Crs
4021 2823 Crs
4273 2962 Crs
3673 2709 Crs
4065 3020 Crs
3804 2692 Crs
3890 2702 Crs
4014 2443 Crs
4446 3163 Crs
3863 2871 Crs
4144 2836 Crs
4076 2986 Crs
4060 2898 Crs
3852 2619 Crs
4022 2970 Crs
3775 2499 Crs
4428 2846 Crs
3957 2758 Crs
4567 2938 Crs
3867 2502 Crs
4040 2819 Crs
4286 2840 Crs
4068 2860 Crs
4063 2913 Crs
3832 2750 Crs
3957 2660 Crs
3804 2517 Crs
4059 2846 Crs
3939 2563 Crs
4050 2657 Crs
4017 2842 Crs
3809 2709 Crs
4449 3034 Crs
3996 2822 Crs
3827 2871 Crs
3814 2763 Crs
4197 2515 Crs
3804 2801 Crs
4129 2991 Crs
4166 2869 Crs
4290 2972 Crs
3637 2607 Crs
4010 2797 Crs
4171 2921 Crs
4122 2894 Crs
3883 2658 Crs
3721 2705 Crs
3972 2735 Crs
3718 2574 Crs
4171 3017 Crs
3790 2532 Crs
4443 2666 Crs
4272 2913 Crs
4171 3102 Crs
4060 2987 Crs
4045 2685 Crs
4136 3004 Crs
3700 2661 Crs
3934 2668 Crs
4047 2512 Crs
4255 2780 Crs
4282 2902 Crs
3723 2712 Crs
3776 2642 Crs
4287 2874 Crs
3500 2526 Crs
4063 2757 Crs
3906 2665 Crs
4207 2702 Crs
3791 2787 Crs
4072 2637 Crs
3680 2518 Crs
4141 3082 Crs
3576 2595 Crs
3908 2831 Crs
4051 2646 Crs
4159 2867 Crs
4631 3126 Crs
3900 2783 Crs
3541 2377 Crs
4097 2517 Crs
4368 2783 Crs
4245 3012 Crs
3915 2684 Crs
4001 2983 Crs
4111 2791 Crs
4141 3060 Crs
3888 2812 Crs
4256 3132 Crs
4147 3037 Crs
3693 2761 Crs
4393 2826 Crs
4028 2979 Crs
3847 2530 Crs
3969 2857 Crs
4065 2885 Crs
4412 2841 Crs
3929 2627 Crs
3949 2895 Crs
3973 2862 Crs
3954 2750 Crs
4383 2940 Crs
3408 2441 Crs
4446 2831 Crs
4156 2734 Crs
3943 2670 Crs
4058 2945 Crs
3931 2623 Crs
3574 2656 Crs
4276 2646 Crs
3840 2874 Crs
4647 3091 Crs
4162 2901 Crs
3933 2645 Crs
4177 2825 Crs
4275 3171 Crs
4520 3140 Crs
3971 2619 Crs
4007 2782 Crs
4061 2617 Crs
4021 2564 Crs
4030 3015 Crs
3179 2339 Crs
3865 2863 Crs
4055 2953 Crs
3837 2621 Crs
3905 2835 Crs
3845 2511 Crs
4679 2963 Crs
4125 2872 Crs
3759 2713 Crs
3802 2540 Crs
3971 2957 Crs
3729 2619 Crs
4287 3080 Crs
3863 2473 Crs
3967 2874 Crs
3878 2868 Crs
4004 2954 Crs
4094 2853 Crs
3840 2603 Crs
3960 2580 Crs
3868 2187 Crs
4679 2911 Crs
4143 2826 Crs
3924 2756 Crs
3939 2853 Crs
4117 2946 Crs
4154 3078 Crs
4143 2623 Crs
4238 3003 Crs
4008 2923 Crs
4038 3001 Crs
4109 3028 Crs
4178 2763 Crs
3900 2757 Crs
4442 3032 Crs
3765 2725 Crs
3921 2852 Crs
3661 2749 Crs
3637 2715 Crs
3686 2644 Crs
4113 2801 Crs
4280 3004 Crs
3825 2775 Crs
4031 2826 Crs
3549 2628 Crs
3848 2869 Crs
3877 2768 Crs
3735 2362 Crs
4039 2742 Crs
4069 2995 Crs
4243 3010 Crs
3913 2923 Crs
3908 2694 Crs
3752 2681 Crs
3802 2852 Crs
3927 2615 Crs
3969 2646 Crs
3879 2903 Crs
3760 2707 Crs
3744 2727 Crs
3980 2938 Crs
3835 2503 Crs
3666 2661 Crs
3975 2796 Crs
3784 2752 Crs
3816 2869 Crs
3735 2764 Crs
4157 2904 Crs
4645 3093 Crs
3703 2448 Crs
3982 2704 Crs
4114 3043 Crs
4426 3064 Crs
4013 2780 Crs
3895 2892 Crs
4044 2885 Crs
3901 2939 Crs
4193 2840 Crs
4314 3196 Crs
4056 2860 Crs
3817 2557 Crs
3860 2772 Crs
3863 2767 Crs
3362 2520 Crs
3819 2801 Crs
3593 2672 Crs
4029 2587 Crs
3770 2636 Crs
4033 2941 Crs
4030 2734 Crs
3791 2743 Crs
4208 2644 Crs
4391 2571 Crs
4288 2869 Crs
3666 2401 Crs
3830 2762 Crs
3850 2512 Crs
3993 2873 Crs
4210 2654 Crs
3809 2826 Crs
4356 2959 Crs
3862 2461 Crs
3759 2815 Crs
3643 2423 Crs
4294 2929 Crs
4157 2570 Crs
3848 2830 Crs
4410 3065 Crs
3901 2673 Crs
4041 2760 Crs
4231 2975 Crs
3627 2695 Crs
3829 2586 Crs
4118 2905 Crs
4128 2889 Crs
4574 3195 Crs
4037 2887 Crs
4241 2752 Crs
4170 3061 Crs
4241 3003 Crs
3919 2709 Crs
4228 3145 Crs
4040 2906 Crs
4266 3176 Crs
3779 2614 Crs
3909 2903 Crs
3744 2674 Crs
4005 2915 Crs
4005 2852 Crs
3760 2704 Crs
3735 2659 Crs
3562 2613 Crs
4250 2834 Crs
3904 2889 Crs
4163 2968 Crs
3687 2665 Crs
3899 2852 Crs
3884 2612 Crs
3923 2771 Crs
3637 2698 Crs
4060 2770 Crs
3917 2787 Crs
4249 2975 Crs
3667 2704 Crs
4002 2959 Crs
4175 2643 Crs
3769 2809 Crs
4312 2960 Crs
4101 2742 Crs
3818 2763 Crs
3950 2945 Crs
4164 2997 Crs
3993 2587 Crs
3359 2451 Crs
3712 2330 Crs
3848 2671 Crs
3987 2642 Crs
4033 2850 Crs
3850 2722 Crs
3709 2793 Crs
3805 2755 Crs
4418 3167 Crs
4233 3079 Crs
3868 2486 Crs
4018 3009 Crs
4101 2903 Crs
3984 2444 Crs
3863 2751 Crs
3710 2730 Crs
4253 2498 Crs
3709 2350 Crs
4195 2828 Crs
3835 2599 Crs
3893 2790 Crs
3482 2487 Crs
4034 2865 Crs
3929 2811 Crs
3900 2898 Crs
4021 2609 Crs
3874 2875 Crs
3765 2542 Crs
4240 3055 Crs
3922 2817 Crs
3960 2785 Crs
4039 2744 Crs
3986 2545 Crs
3781 2828 Crs
4295 3170 Crs
3706 2617 Crs
4218 2963 Crs
4034 2875 Crs
3904 2794 Crs
3825 2526 Crs
3469 2315 Crs
4178 2666 Crs
4147 3045 Crs
3957 2790 Crs
3894 2928 Crs
3788 2834 Crs
3701 2661 Crs
3985 2995 Crs
4107 2804 Crs
4121 2902 Crs
3980 2932 Crs
4071 2743 Crs
3819 2726 Crs
4061 2846 Crs
3842 2650 Crs
4155 3085 Crs
3981 2937 Crs
4090 2570 Crs
4198 2757 Crs
4301 2701 Crs
3679 2550 Crs
3796 2858 Crs
3990 2859 Crs
3835 2794 Crs
3809 2652 Crs
4056 3036 Crs
3962 2923 Crs
3927 2750 Crs
3819 2658 Crs
4157 3075 Crs
4009 2871 Crs
4286 3139 Crs
4033 2579 Crs
4247 3083 Crs
3614 2420 Crs
4280 2876 Crs
4145 3045 Crs
4124 2655 Crs
4017 2734 Crs
4251 3193 Crs
4036 2934 Crs
4224 2913 Crs
3909 2856 Crs
3479 2575 Crs
3832 2872 Crs
4060 2804 Crs
4285 3119 Crs
3692 2533 Crs
3894 2699 Crs
4274 3102 Crs
4014 2952 Crs
3893 2864 Crs
4009 3019 Crs
4350 3142 Crs
3892 2809 Crs
3882 2848 Crs
3960 2545 Crs
4049 2820 Crs
4155 2880 Crs
3630 2702 Crs
3843 2758 Crs
3792 2672 Crs
4415 3011 Crs
4118 3010 Crs
4107 2474 Crs
4054 2937 Crs
4201 3028 Crs
4246 3019 Crs
3990 2836 Crs
4431 3003 Crs
3964 2944 Crs
4162 2935 Crs
3854 2881 Crs
3934 2840 Crs
4067 2929 Crs
3807 2728 Crs
3632 2664 Crs
3961 2786 Crs
3493 2503 Crs
4179 2908 Crs
4019 2847 Crs
3514 2219 Crs
3297 2376 Crs
3497 2387 Crs
3950 2840 Crs
3595 2583 Crs
4047 2691 Crs
4058 3053 Crs
4051 2907 Crs
3724 2571 Crs
4002 2799 Crs
4272 2739 Crs
4066 2929 Crs
3893 2655 Crs
4010 2960 Crs
3962 2879 Crs
4452 3222 Crs
4040 2839 Crs
3895 2866 Crs
4100 3042 Crs
3906 2779 Crs
4029 3022 Crs
3937 2946 Crs
3348 2345 Crs
3874 2528 Crs
4238 2865 Crs
4015 2964 Crs
4141 2992 Crs
3941 2901 Crs
4016 2806 Crs
3945 2951 Crs
3756 2738 Crs
4566 3131 Crs
4086 2721 Crs
3893 2878 Crs
3605 2554 Crs
4129 3010 Crs
3902 2428 Crs
3781 2640 Crs
4039 2965 Crs
4394 2653 Crs
3860 2588 Crs
3868 2841 Crs
3885 2831 Crs
4317 2980 Crs
4279 2692 Crs
3748 2566 Crs
3633 2491 Crs
3745 2672 Crs
4251 2717 Crs
4666 2846 Crs
4142 2714 Crs
3885 2724 Crs
3876 2881 Crs
3877 2823 Crs
4035 2741 Crs
4254 2886 Crs
4098 2846 Crs
3537 2637 Crs
4662 3152 Crs
4158 2974 Crs
4166 2877 Crs
3778 2727 Crs
3752 2744 Crs
4189 3148 Crs
4177 2988 Crs
4218 2986 Crs
4379 3125 Crs
3814 2809 Crs
3540 2429 Crs
4199 2960 Crs
3940 2916 Crs
3982 2572 Crs
4055 2997 Crs
4147 2951 Crs
4262 2856 Crs
4464 2749 Crs
4386 3164 Crs
3947 2942 Crs
4227 3082 Crs
3998 2700 Crs
4034 2732 Crs
4326 3029 Crs
4671 3101 Crs
4279 2908 Crs
3412 2446 Crs
4679 3034 Crs
4122 2840 Crs
4268 2738 Crs
3999 2986 Crs
3979 2746 Crs
4144 2759 Crs
4038 2786 Crs
4011 2501 Crs
3956 2870 Crs
3524 2544 Crs
3833 2839 Crs
3984 2827 Crs
4287 2880 Crs
4364 2914 Crs
3912 2694 Crs
4168 3036 Crs
4671 2914 Crs
3983 2852 Crs
4378 2825 Crs
3782 2417 Crs
3967 2977 Crs
3972 2672 Crs
3966 2558 Crs
3883 2821 Crs
4054 3014 Crs
3856 2898 Crs
3815 2452 Crs
3725 2803 Crs
3744 2750 Crs
3714 2795 Crs
3863 2754 Crs
4028 2909 Crs
4006 2917 Crs
4148 2935 Crs
3693 2728 Crs
4033 2869 Crs
4375 2907 Crs
3904 2824 Crs
4133 3106 Crs
3652 2700 Crs
3945 2941 Crs
4239 3081 Crs
4148 2894 Crs
4152 2770 Crs
4285 2821 Crs
3877 2693 Crs
3746 2511 Crs
4156 3067 Crs
3796 2424 Crs
4038 2480 Crs
4252 2911 Crs
3584 2519 Crs
4441 2932 Crs
3776 2393 Crs
3970 2934 Crs
4405 3234 Crs
3835 2764 Crs
3616 2624 Crs
4279 2888 Crs
4173 3099 Crs
4102 3043 Crs
4441 3107 Crs
3829 2799 Crs
3827 2773 Crs
3979 2491 Crs
4047 3004 Crs
4063 2963 Crs
4267 3159 Crs
4435 2867 Crs
4146 2986 Crs
4056 3056 Crs
4096 2826 Crs
3944 2862 Crs
3587 2622 Crs
4224 2870 Crs
4453 2904 Crs
4274 2976 Crs
3932 2805 Crs
3611 2714 Crs
4015 2822 Crs
3931 2822 Crs
3906 2776 Crs
4079 2637 Crs
3709 2607 Crs
3897 2770 Crs
3892 2834 Crs
4191 2761 Crs
4307 2952 Crs
3854 2780 Crs
3950 2905 Crs
3693 2723 Crs
4095 3001 Crs
4380 2999 Crs
4357 2800 Crs
4138 2855 Crs
3881 2830 Crs
4126 2664 Crs
4437 3094 Crs
3716 2539 Crs
4632 2970 Crs
3699 2740 Crs
3765 2814 Crs
3823 2737 Crs
4078 2755 Crs
4229 2600 Crs
3972 2820 Crs
4280 2815 Crs
4251 3062 Crs
3984 2800 Crs
3878 2769 Crs
3766 2823 Crs
3963 2878 Crs
3865 2814 Crs
3889 2480 Crs
4002 2745 Crs
3739 2527 Crs
4278 2838 Crs
4657 3188 Crs
3974 2709 Crs
4215 3049 Crs
4247 3135 Crs
4123 2815 Crs
4447 3096 Crs
3706 2444 Crs
3984 2610 Crs
4292 2741 Crs
4155 2986 Crs
4165 2798 Crs
4330 2888 Crs
3881 2774 Crs
3989 2784 Crs
4293 3168 Crs
4008 2958 Crs
4080 2787 Crs
4033 2637 Crs
4049 2927 Crs
3828 2646 Crs
3502 2530 Crs
4430 3036 Crs
4280 3179 Crs
3918 2576 Crs
4030 2865 Crs
4096 3026 Crs
4679 3195 Crs
4016 2634 Crs
4289 2874 Crs
3638 2674 Crs
3859 2858 Crs
3809 2550 Crs
3888 2730 Crs
4278 3131 Crs
3861 2862 Crs
3830 2839 Crs
3799 2794 Crs
3959 2909 Crs
4140 3008 Crs
3962 2804 Crs
3959 2608 Crs
4070 2681 Crs
3784 2436 Crs
4184 2797 Crs
4153 3132 Crs
3947 2974 Crs
3947 2930 Crs
3775 2800 Crs
4065 2805 Crs
3629 2653 Crs
3939 2714 Crs
3895 2433 Crs
3708 2713 Crs
3773 2773 Crs
3960 2820 Crs
4177 2722 Crs
3727 2744 Crs
3769 2778 Crs
4060 2712 Crs
4054 2630 Crs
3623 2725 Crs
4284 2749 Crs
4133 2849 Crs
4253 3018 Crs
3888 2757 Crs
3730 2442 Crs
3932 2689 Crs
3653 2451 Crs
4187 2962 Crs
3977 2682 Crs
3824 2841 Crs
4308 3242 Crs
3964 2912 Crs
4229 2969 Crs
4145 2948 Crs
3745 2509 Crs
3850 2837 Crs
3976 2782 Crs
4541 2970 Crs
4362 2806 Crs
3770 2721 Crs
4163 2673 Crs
3674 2616 Crs
4121 3032 Crs
4143 2692 Crs
4062 2705 Crs
4279 3029 Crs
3931 2888 Crs
3770 2490 Crs
4247 2729 Crs
3684 2760 Crs
4225 2892 Crs
4242 2960 Crs
4052 3032 Crs
4274 3117 Crs
4037 2870 Crs
4233 2585 Crs
4227 2802 Crs
3894 2663 Crs
3708 2631 Crs
3971 2903 Crs
4102 3016 Crs
4069 2854 Crs
4134 2593 Crs
3688 2760 Crs
4158 2804 Crs
4028 2853 Crs
3971 2565 Crs
4130 2694 Crs
4097 2902 Crs
4255 2958 Crs
4449 3003 Crs
4158 3055 Crs
3802 2587 Crs
3710 2673 Crs
4029 2890 Crs
4309 2625 Crs
4164 3124 Crs
4091 3012 Crs
3831 2710 Crs
3566 2680 Crs
3866 2855 Crs
4148 2863 Crs
4269 2951 Crs
3791 2735 Crs
3651 2655 Crs
3868 2499 Crs
3959 2959 Crs
3305 2468 Crs
4186 3058 Crs
4013 2848 Crs
3752 2638 Crs
3818 2877 Crs
4003 2997 Crs
3970 2705 Crs
4109 2879 Crs
3904 2900 Crs
3934 2623 Crs
3829 2742 Crs
3871 2696 Crs
4366 2713 Crs
4256 2533 Crs
4142 2832 Crs
3766 2655 Crs
3428 2558 Crs
3736 2699 Crs
3872 2803 Crs
4228 2780 Crs
3934 2579 Crs
3861 2576 Crs
3825 2707 Crs
4170 3101 Crs
3948 2858 Crs
3730 2576 Crs
3834 2805 Crs
4434 2412 Crs
3914 2802 Crs
3755 2677 Crs
4253 2797 Crs
4188 2967 Crs
3554 2678 Crs
3837 2880 Crs
4151 2517 Crs
3617 2625 Crs
3865 2738 Crs
3900 2862 Crs
3706 2776 Crs
3841 2538 Crs
3983 2970 Crs
3769 2529 Crs
3776 2714 Crs
4277 3077 Crs
3854 2543 Crs
4113 2986 Crs
3550 2626 Crs
4034 2858 Crs
4619 2959 Crs
3777 2748 Crs
3771 2838 Crs
4191 2872 Crs
3729 2591 Crs
4289 3117 Crs
4261 2594 Crs
4022 2982 Crs
4161 2959 Crs
4066 2815 Crs
3890 2712 Crs
4312 3119 Crs
3609 2602 Crs
4244 2798 Crs
3839 2856 Crs
3810 2512 Crs
3758 2796 Crs
3591 2550 Crs
4437 3157 Crs
4092 2742 Crs
4074 2793 Crs
4205 2731 Crs
4529 2802 Crs
3831 2578 Crs
3939 2713 Crs
4051 2921 Crs
3977 2826 Crs
4250 2637 Crs
4171 2506 Crs
4042 2943 Crs
4154 2954 Crs
4045 3006 Crs
3964 2983 Crs
4045 2957 Crs
4360 3066 Crs
3830 2886 Crs
4201 3042 Crs
4353 3052 Crs
3804 2774 Crs
3664 2629 Crs
4075 2770 Crs
4015 2657 Crs
4162 2934 Crs
4612 2900 Crs
3924 2654 Crs
4378 2874 Crs
3739 2533 Crs
4446 2952 Crs
4130 2938 Crs
4110 2989 Crs
4425 2749 Crs
3833 2803 Crs
3531 2511 Crs
3866 2510 Crs
3669 2724 Crs
3850 2878 Crs
4263 3074 Crs
3855 2831 Crs
4287 2970 Crs
4270 2833 Crs
3536 2483 Crs
3650 2360 Crs
4075 2920 Crs
4075 2795 Crs
4290 2715 Crs
3718 2572 Crs
3709 2507 Crs
4147 2829 Crs
4277 2936 Crs
4074 2945 Crs
4155 2872 Crs
4285 2921 Crs
3989 2732 Crs
3814 2775 Crs
4067 2848 Crs
4074 2941 Crs
3674 2658 Crs
3653 2638 Crs
3714 2646 Crs
4088 2768 Crs
3813 2733 Crs
3903 2832 Crs
3811 2773 Crs
4066 2957 Crs
3507 2564 Crs
3873 2872 Crs
3465 2565 Crs
4029 2738 Crs
4020 2924 Crs
3988 2951 Crs
3900 2894 Crs
3978 2750 Crs
3660 2732 Crs
4239 2880 Crs
4233 2929 Crs
4147 2760 Crs
4245 2862 Crs
3840 2889 Crs
4054 2410 Crs
3847 2647 Crs
4667 2990 Crs
3891 2842 Crs
4418 2933 Crs
4303 2857 Crs
3877 2851 Crs
3921 2886 Crs
4192 2851 Crs
4144 2890 Crs
4278 2977 Crs
3830 2678 Crs
3865 2805 Crs
3455 2520 Crs
4126 3097 Crs
4003 2860 Crs
3702 2715 Crs
3902 2850 Crs
4212 2787 Crs
3954 2676 Crs
4160 2945 Crs
3572 2685 Crs
3842 2883 Crs
3991 2983 Crs
4437 2998 Crs
3866 2582 Crs
3734 2671 Crs
4349 2792 Crs
3980 2922 Crs
4045 2849 Crs
3812 2814 Crs
4042 2946 Crs
3814 2649 Crs
3933 2932 Crs
3635 2477 Crs
4064 2729 Crs
4412 2886 Crs
3685 2547 Crs
3825 2733 Crs
3831 2820 Crs
4222 2765 Crs
4044 3045 Crs
3869 2831 Crs
4241 2963 Crs
4236 3085 Crs
3912 2797 Crs
4022 2722 Crs
4057 2868 Crs
4020 2990 Crs
3958 2586 Crs
4009 2695 Crs
4269 2935 Crs
3920 2792 Crs
3688 2630 Crs
3788 2833 Crs
4126 2913 Crs
4015 2957 Crs
4250 2843 Crs
4230 3109 Crs
4185 2766 Crs
3980 2943 Crs
4080 2840 Crs
4160 3127 Crs
4056 2995 Crs
4228 2955 Crs
3701 2527 Crs
4070 2995 Crs
3857 2882 Crs
4046 2763 Crs
3939 2748 Crs
3844 2409 Crs
4660 2997 Crs
4225 3070 Crs
4482 2862 Crs
3689 2625 Crs
3954 2827 Crs
4050 2631 Crs
4282 3127 Crs
3724 2637 Crs
4010 2829 Crs
4048 2874 Crs
4422 3001 Crs
4213 3088 Crs
4143 2734 Crs
4039 2806 Crs
4446 2976 Crs
3944 2899 Crs
4225 2822 Crs
4270 2845 Crs
3947 2558 Crs
4348 2649 Crs
3849 2866 Crs
3943 2788 Crs
4171 3004 Crs
4269 2968 Crs
4155 2945 Crs
4253 2859 Crs
3379 2138 Crs
4038 3023 Crs
3763 2796 Crs
3901 2715 Crs
3883 2748 Crs
4630 2679 Crs
3702 2725 Crs
4103 3072 Crs
4158 3015 Crs
3815 2859 Crs
3979 2987 Crs
4251 2852 Crs
3637 2445 Crs
4157 2903 Crs
4141 2670 Crs
4054 2999 Crs
3955 2448 Crs
3829 2689 Crs
3806 2808 Crs
4288 2958 Crs
3488 2604 Crs
3985 2922 Crs
4101 2937 Crs
4622 3191 Crs
3909 2926 Crs
3872 2707 Crs
4450 2826 Crs
3774 2828 Crs
4051 2832 Crs
4278 3043 Crs
4001 2929 Crs
4195 3144 Crs
4198 2808 Crs
4211 2859 Crs
3940 2714 Crs
4488 3009 Crs
4081 2875 Crs
4152 2854 Crs
4030 2990 Crs
3719 2527 Crs
3905 2807 Crs
3966 2947 Crs
4191 2957 Crs
3656 2689 Crs
3998 2969 Crs
3872 2776 Crs
3468 2548 Crs
4275 2600 Crs
4093 3068 Crs
3797 2681 Crs
3742 2784 Crs
3904 2751 Crs
4126 3010 Crs
3875 2848 Crs
3822 2559 Crs
3663 2713 Crs
3750 2731 Crs
4052 2828 Crs
3656 2561 Crs
4048 2663 Crs
3781 2834 Crs
3906 2807 Crs
4294 2813 Crs
3956 2935 Crs
4115 2946 Crs
4140 2913 Crs
4002 3008 Crs
3946 2860 Crs
3962 2601 Crs
4168 2974 Crs
3741 2730 Crs
3987 2607 Crs
4477 2854 Crs
3953 2879 Crs
3952 2913 Crs
4126 2872 Crs
4021 2660 Crs
3696 2522 Crs
3781 2614 Crs
4106 3088 Crs
4374 2945 Crs
3452 2497 Crs
3819 2817 Crs
4158 2909 Crs
4155 2826 Crs
3951 2757 Crs
4252 2859 Crs
3502 2639 Crs
3708 2728 Crs
3939 2510 Crs
4008 3001 Crs
4346 3158 Crs
4080 3062 Crs
3893 2916 Crs
3649 2651 Crs
3710 2556 Crs
3848 2770 Crs
4116 2669 Crs
4112 2519 Crs
3888 2691 Crs
4068 2644 Crs
3876 2815 Crs
4157 2979 Crs
4158 2894 Crs
3557 2667 Crs
4387 2870 Crs
3946 2688 Crs
4679 3112 Crs
3973 2981 Crs
4104 2979 Crs
4384 2986 Crs
3957 2767 Crs
3878 2834 Crs
3869 2545 Crs
4212 2819 Crs
4013 2936 Crs
3862 2870 Crs
4104 3078 Crs
4361 3073 Crs
3301 2450 Crs
4047 2911 Crs
3722 2645 Crs
4274 2741 Crs
4044 3010 Crs
3392 2160 Crs
4164 2842 Crs
4164 2719 Crs
4178 2700 Crs
3922 2703 Crs
3847 2694 Crs
3785 2504 Crs
4679 3146 Crs
4115 2673 Crs
4069 2553 Crs
3783 2837 Crs
4216 2832 Crs
4133 2752 Crs
3815 2859 Crs
3795 2634 Crs
3966 2593 Crs
3689 2610 Crs
4412 2783 Crs
4351 2798 Crs
3661 2745 Crs
3969 2838 Crs
4065 2692 Crs
3881 2837 Crs
4044 3009 Crs
3892 2862 Crs
3826 2610 Crs
4355 2289 Crs
4035 3033 Crs
3992 2917 Crs
3659 2748 Crs
3778 2732 Crs
3705 2655 Crs
4032 2688 Crs
4256 3071 Crs
3743 2729 Crs
4031 2975 Crs
3969 2682 Crs
3745 2762 Crs
4230 2905 Crs
3949 2493 Crs
3708 2690 Crs
3776 2535 Crs
3772 2630 Crs
3858 2885 Crs
4242 3031 Crs
4454 2945 Crs
4140 2842 Crs
3466 2561 Crs
3758 2723 Crs
3971 2604 Crs
3876 2405 Crs
4086 2876 Crs
4009 2595 Crs
3754 2795 Crs
3866 2887 Crs
4383 2632 Crs
4128 3113 Crs
4679 3202 Crs
3882 2673 Crs
4419 2940 Crs
3857 2676 Crs
3791 2856 Crs
3793 2839 Crs
4066 2735 Crs
3977 2950 Crs
3951 2693 Crs
3895 2879 Crs
3963 2962 Crs
3664 2680 Crs
3709 2523 Crs
3957 2922 Crs
3924 2802 Crs
4259 2693 Crs
3905 2790 Crs
3612 2646 Crs
4438 3205 Crs
4116 2912 Crs
3794 2629 Crs
4259 3161 Crs
3843 2396 Crs
4094 2731 Crs
3997 2621 Crs
4133 2670 Crs
3954 2718 Crs
3722 2725 Crs
3887 2542 Crs
4180 2801 Crs
4023 2786 Crs
3874 2255 Crs
3882 2846 Crs
3637 2235 Crs
4168 2773 Crs
3912 2840 Crs
3821 2861 Crs
4034 2590 Crs
3691 2705 Crs
3605 2571 Crs
4104 2839 Crs
4164 2876 Crs
4068 2995 Crs
4026 2923 Crs
4291 3082 Crs
3603 2683 Crs
3712 2263 Crs
3928 2946 Crs
3264 2338 Crs
3959 2829 Crs
4469 2910 Crs
4043 2729 Crs
4117 2572 Crs
4044 2504 Crs
4020 2978 Crs
3800 2634 Crs
4009 2712 Crs
3963 2881 Crs
4039 2609 Crs
3832 2537 Crs
4099 3005 Crs
4672 2923 Crs
4268 3074 Crs
4149 2810 Crs
3979 2816 Crs
4204 2810 Crs
4161 2988 Crs
4145 2907 Crs
3983 2881 Crs
4380 2855 Crs
3900 2592 Crs
3645 2568 Crs
3569 2312 Crs
4326 3076 Crs
4144 3076 Crs
4445 2848 Crs
3675 2657 Crs
3781 2813 Crs
4316 2516 Crs
3998 2708 Crs
4038 2950 Crs
3514 2493 Crs
3420 2556 Crs
3981 2749 Crs
3506 2480 Crs
3816 2784 Crs
3776 2798 Crs
3851 2792 Crs
3966 2781 Crs
3976 2981 Crs
4216 2896 Crs
4095 2726 Crs
3886 2926 Crs
3673 2725 Crs
3807 2802 Crs
4134 2907 Crs
4000 2484 Crs
3713 2670 Crs
3593 2565 Crs
3910 2614 Crs
4281 2753 Crs
3683 2716 Crs
4157 2898 Crs
4272 2896 Crs
4057 2556 Crs
4423 3200 Crs
3972 2748 Crs
3970 2660 Crs
3941 2585 Crs
3620 2541 Crs
4033 2846 Crs
3936 2626 Crs
3838 2835 Crs
4203 3085 Crs
4142 2839 Crs
3882 2772 Crs
4236 2797 Crs
4154 2501 Crs
4124 2988 Crs
3847 2612 Crs
4116 2862 Crs
4088 2753 Crs
3906 2780 Crs
3714 2646 Crs
4344 3122 Crs
4029 2990 Crs
3955 2779 Crs
4258 2933 Crs
4248 2830 Crs
4447 2695 Crs
3814 2827 Crs
4157 3116 Crs
3987 2837 Crs
4030 3022 Crs
4162 3004 Crs
3827 2699 Crs
4064 2735 Crs
3711 2700 Crs
4303 3216 Crs
4428 3053 Crs
4227 3020 Crs
4251 2872 Crs
3765 2740 Crs
3838 2660 Crs
3776 2435 Crs
4652 3030 Crs
4476 2756 Crs
4450 2940 Crs
4272 3035 Crs
4434 3199 Crs
3957 2888 Crs
4057 3047 Crs
4655 2954 Crs
3448 2591 Crs
4052 2903 Crs
3769 2633 Crs
3820 2850 Crs
4006 2840 Crs
4127 3067 Crs
3453 2483 Crs
4208 2908 Crs
4125 2890 Crs
3923 2745 Crs
3797 2857 Crs
3884 2663 Crs
3789 2845 Crs
3911 2822 Crs
3703 2771 Crs
4029 2673 Crs
4019 2826 Crs
4067 2753 Crs
3917 2690 Crs
3731 2755 Crs
3630 2651 Crs
3775 2707 Crs
4334 2900 Crs
3691 2739 Crs
4059 3034 Crs
4054 2652 Crs
4059 2606 Crs
4379 2792 Crs
4044 2969 Crs
3606 2711 Crs
4134 2681 Crs
4530 2816 Crs
4319 2712 Crs
4209 2826 Crs
3882 2854 Crs
3926 2944 Crs
3548 2509 Crs
4100 2982 Crs
3961 2982 Crs
3840 2894 Crs
3884 2822 Crs
3706 2787 Crs
4112 3049 Crs
3885 2872 Crs
4149 2862 Crs
4387 3001 Crs
4057 3030 Crs
4155 3049 Crs
3729 2663 Crs
3873 2849 Crs
3596 2372 Crs
4452 2891 Crs
4212 2955 Crs
4064 2904 Crs
4028 2452 Crs
4012 2806 Crs
3803 2827 Crs
4110 2937 Crs
3440 2392 Crs
4215 2996 Crs
3888 2564 Crs
3816 2771 Crs
3980 2977 Crs
3756 2732 Crs
3957 2819 Crs
4130 2802 Crs
4012 2925 Crs
3900 2663 Crs
3869 2621 Crs
3909 2846 Crs
3966 2703 Crs
3981 2386 Crs
3705 2470 Crs
4449 2953 Crs
4012 2855 Crs
4138 2928 Crs
4076 3004 Crs
4121 3103 Crs
4443 2885 Crs
3904 2625 Crs
4243 2825 Crs
3641 2707 Crs
4245 2870 Crs
4038 2969 Crs
4121 2948 Crs
4476 2935 Crs
4240 2928 Crs
3883 2884 Crs
4246 3171 Crs
4117 2743 Crs
4062 2859 Crs
3969 2962 Crs
3775 2362 Crs
4243 2915 Crs
4222 3001 Crs
3795 2711 Crs
4150 2998 Crs
3916 2879 Crs
4451 3005 Crs
3879 2867 Crs
3666 2605 Crs
3830 2828 Crs
3909 2554 Crs
3962 2720 Crs
3835 2822 Crs
4393 2724 Crs
4049 2619 Crs
4222 2859 Crs
3829 2748 Crs
4478 2892 Crs
4050 2985 Crs
3946 2622 Crs
3985 2767 Crs
3921 2458 Crs
3872 2815 Crs
3406 2501 Crs
4124 2540 Crs
4435 2998 Crs
3871 2816 Crs
3831 2596 Crs
4445 2896 Crs
4060 3019 Crs
3867 2766 Crs
3756 2777 Crs
4367 2771 Crs
3736 2732 Crs
3724 2694 Crs
4063 2906 Crs
3900 2798 Crs
4086 2981 Crs
4274 2747 Crs
4012 2718 Crs
3885 2828 Crs
3860 2719 Crs
3968 2604 Crs
4132 2980 Crs
4135 2746 Crs
4240 2658 Crs
4002 2952 Crs
3619 2690 Crs
3961 2893 Crs
4133 2717 Crs
4127 2971 Crs
4301 2888 Crs
3881 2908 Crs
3674 2713 Crs
3613 2596 Crs
3655 2684 Crs
3994 2531 Crs
3709 2621 Crs
4217 3069 Crs
3975 2527 Crs
3921 2538 Crs
4434 3239 Crs
3843 2810 Crs
3581 2679 Crs
4100 3047 Crs
3690 2592 Crs
3966 2572 Crs
4261 3106 Crs
4151 2842 Crs
4428 2970 Crs
4275 3007 Crs
3380 2485 Crs
4329 2659 Crs
4241 2953 Crs
3889 2844 Crs
4425 2997 Crs
4020 2880 Crs
3750 2776 Crs
4024 3018 Crs
4021 2659 Crs
3645 2729 Crs
4050 2965 Crs
4165 2976 Crs
4192 2792 Crs
3685 2593 Crs
4100 2898 Crs
3722 2782 Crs
4111 2827 Crs
4011 2799 Crs
3565 2613 Crs
3731 2478 Crs
4142 2859 Crs
3957 2674 Crs
4000 2931 Crs
4031 2889 Crs
3769 2787 Crs
3768 2702 Crs
4441 2757 Crs
3815 2745 Crs
3980 2746 Crs
4085 2741 Crs
4177 3055 Crs
4116 2648 Crs
3908 2865 Crs
4216 2812 Crs
4101 2837 Crs
4199 2656 Crs
3895 2799 Crs
% End plot #2
% Begin plot #3
1.000 UL
LTb
LT1
0.75 0.75 0.75 C 1522 1141 M
32 25 V
32 24 V
32 24 V
32 24 V
32 24 V
32 24 V
32 24 V
31 25 V
32 24 V
32 24 V
32 24 V
32 24 V
32 24 V
32 24 V
32 24 V
32 25 V
31 24 V
32 24 V
32 24 V
32 24 V
32 24 V
32 24 V
32 25 V
32 24 V
32 24 V
31 24 V
32 24 V
32 24 V
32 24 V
32 25 V
32 24 V
32 24 V
32 24 V
31 24 V
32 24 V
32 24 V
32 24 V
32 25 V
32 24 V
32 24 V
32 24 V
32 24 V
31 24 V
32 24 V
32 25 V
32 24 V
32 24 V
32 24 V
32 24 V
32 24 V
32 24 V
31 25 V
32 24 V
32 24 V
32 24 V
32 24 V
32 24 V
32 24 V
32 25 V
31 24 V
32 24 V
32 24 V
32 24 V
32 24 V
32 24 V
32 24 V
32 25 V
32 24 V
31 24 V
32 24 V
32 24 V
32 24 V
32 24 V
32 25 V
32 24 V
32 24 V
32 24 V
31 24 V
32 24 V
32 24 V
32 25 V
32 24 V
32 24 V
32 24 V
32 24 V
31 24 V
32 24 V
32 24 V
32 25 V
32 24 V
32 24 V
32 24 V
32 24 V
32 24 V
31 24 V
32 25 V
32 24 V
32 24 V
32 24 V
% End plot #3
stroke
2.000 UL
LTb
LCb setrgbcolor
1.000 UL
LTb
LCb setrgbcolor
860 3531 N
860 640 L
3819 0 V
0 2891 V
-3819 0 V
Z stroke
0.500 UP
1.000 UL
LTb
LCb setrgbcolor
stroke
grestore
end
showpage
%%Trailer
%%DocumentFonts: Helvetica
