%!PS-Adobe-2.0 EPSF-2.0
%%Title: max.eps
%%Creator: gnuplot 5.0 patchlevel 1
%%CreationDate: Fri Oct 30 18:57:08 2015
%%DocumentFonts: (atend)
%%BoundingBox: 50 50 302 238
%%EndComments
%%BeginProlog
/gnudict 256 dict def
gnudict begin
%
% The following true/false flags may be edited by hand if desired.
% The unit line width and grayscale image gamma correction may also be changed.
%
/Color true def
/Blacktext false def
/Solid false def
/Dashlength 1 def
/Landscape false def
/Level1 false def
/Level3 false def
/Rounded false def
/ClipToBoundingBox false def
/SuppressPDFMark false def
/TransparentPatterns false def
/gnulinewidth 5.000 def
/userlinewidth gnulinewidth def
/Gamma 1.0 def
/BackgroundColor {-1.000 -1.000 -1.000} def
%
/vshift -66 def
/dl1 {
  10.0 Dashlength userlinewidth gnulinewidth div mul mul mul
  Rounded { currentlinewidth 0.75 mul sub dup 0 le { pop 0.01 } if } if
} def
/dl2 {
  10.0 Dashlength userlinewidth gnulinewidth div mul mul mul
  Rounded { currentlinewidth 0.75 mul add } if
} def
/hpt_ 31.5 def
/vpt_ 31.5 def
/hpt hpt_ def
/vpt vpt_ def
/doclip {
  ClipToBoundingBox {
    newpath 50 50 moveto 302 50 lineto 302 238 lineto 50 238 lineto closepath
    clip
  } if
} def
%
% Gnuplot Prolog Version 5.0 (Dec 2014)
%
%/SuppressPDFMark true def
%
/M {moveto} bind def
/L {lineto} bind def
/R {rmoveto} bind def
/V {rlineto} bind def
/N {newpath moveto} bind def
/Z {closepath} bind def
/C {setrgbcolor} bind def
/f {rlineto fill} bind def
/g {setgray} bind def
/Gshow {show} def   % May be redefined later in the file to support UTF-8
/vpt2 vpt 2 mul def
/hpt2 hpt 2 mul def
/Lshow {currentpoint stroke M 0 vshift R 
	Blacktext {gsave 0 setgray textshow grestore} {textshow} ifelse} def
/Rshow {currentpoint stroke M dup stringwidth pop neg vshift R
	Blacktext {gsave 0 setgray textshow grestore} {textshow} ifelse} def
/Cshow {currentpoint stroke M dup stringwidth pop -2 div vshift R 
	Blacktext {gsave 0 setgray textshow grestore} {textshow} ifelse} def
/UP {dup vpt_ mul /vpt exch def hpt_ mul /hpt exch def
  /hpt2 hpt 2 mul def /vpt2 vpt 2 mul def} def
/DL {Color {setrgbcolor Solid {pop []} if 0 setdash}
 {pop pop pop 0 setgray Solid {pop []} if 0 setdash} ifelse} def
/BL {stroke userlinewidth 2 mul setlinewidth
	Rounded {1 setlinejoin 1 setlinecap} if} def
/AL {stroke userlinewidth 2 div setlinewidth
	Rounded {1 setlinejoin 1 setlinecap} if} def
/UL {dup gnulinewidth mul /userlinewidth exch def
	dup 1 lt {pop 1} if 10 mul /udl exch def} def
/PL {stroke userlinewidth setlinewidth
	Rounded {1 setlinejoin 1 setlinecap} if} def
3.8 setmiterlimit
% Classic Line colors (version 5.0)
/LCw {1 1 1} def
/LCb {0 0 0} def
/LCa {0 0 0} def
/LC0 {1 0 0} def
/LC1 {0 1 0} def
/LC2 {0 0 1} def
/LC3 {1 0 1} def
/LC4 {0 1 1} def
/LC5 {1 1 0} def
/LC6 {0 0 0} def
/LC7 {1 0.3 0} def
/LC8 {0.5 0.5 0.5} def
% Default dash patterns (version 5.0)
/LTw {PL [] 1 setgray} def
/LTb {BL [] LCb DL} def
/LTa {AL [1 udl mul 2 udl mul] 0 setdash LCa setrgbcolor} def
/LT0 {PL [] LC0 DL} def
/LT1 {PL [2 dl1 3 dl2] LC1 DL} def
/LT2 {PL [1 dl1 1.5 dl2] LC2 DL} def
/LT3 {PL [6 dl1 2 dl2 1 dl1 2 dl2] LC3 DL} def
/LT4 {PL [1 dl1 2 dl2 6 dl1 2 dl2 1 dl1 2 dl2] LC4 DL} def
/LT5 {PL [4 dl1 2 dl2] LC5 DL} def
/LT6 {PL [1.5 dl1 1.5 dl2 1.5 dl1 1.5 dl2 1.5 dl1 6 dl2] LC6 DL} def
/LT7 {PL [3 dl1 3 dl2 1 dl1 3 dl2] LC7 DL} def
/LT8 {PL [2 dl1 2 dl2 2 dl1 6 dl2] LC8 DL} def
/SL {[] 0 setdash} def
/Pnt {stroke [] 0 setdash gsave 1 setlinecap M 0 0 V stroke grestore} def
/Dia {stroke [] 0 setdash 2 copy vpt add M
  hpt neg vpt neg V hpt vpt neg V
  hpt vpt V hpt neg vpt V closepath stroke
  Pnt} def
/Pls {stroke [] 0 setdash vpt sub M 0 vpt2 V
  currentpoint stroke M
  hpt neg vpt neg R hpt2 0 V stroke
 } def
/Box {stroke [] 0 setdash 2 copy exch hpt sub exch vpt add M
  0 vpt2 neg V hpt2 0 V 0 vpt2 V
  hpt2 neg 0 V closepath stroke
  Pnt} def
/Crs {stroke [] 0 setdash exch hpt sub exch vpt add M
  hpt2 vpt2 neg V currentpoint stroke M
  hpt2 neg 0 R hpt2 vpt2 V stroke} def
/TriU {stroke [] 0 setdash 2 copy vpt 1.12 mul add M
  hpt neg vpt -1.62 mul V
  hpt 2 mul 0 V
  hpt neg vpt 1.62 mul V closepath stroke
  Pnt} def
/Star {2 copy Pls Crs} def
/BoxF {stroke [] 0 setdash exch hpt sub exch vpt add M
  0 vpt2 neg V hpt2 0 V 0 vpt2 V
  hpt2 neg 0 V closepath fill} def
/TriUF {stroke [] 0 setdash vpt 1.12 mul add M
  hpt neg vpt -1.62 mul V
  hpt 2 mul 0 V
  hpt neg vpt 1.62 mul V closepath fill} def
/TriD {stroke [] 0 setdash 2 copy vpt 1.12 mul sub M
  hpt neg vpt 1.62 mul V
  hpt 2 mul 0 V
  hpt neg vpt -1.62 mul V closepath stroke
  Pnt} def
/TriDF {stroke [] 0 setdash vpt 1.12 mul sub M
  hpt neg vpt 1.62 mul V
  hpt 2 mul 0 V
  hpt neg vpt -1.62 mul V closepath fill} def
/DiaF {stroke [] 0 setdash vpt add M
  hpt neg vpt neg V hpt vpt neg V
  hpt vpt V hpt neg vpt V closepath fill} def
/Pent {stroke [] 0 setdash 2 copy gsave
  translate 0 hpt M 4 {72 rotate 0 hpt L} repeat
  closepath stroke grestore Pnt} def
/PentF {stroke [] 0 setdash gsave
  translate 0 hpt M 4 {72 rotate 0 hpt L} repeat
  closepath fill grestore} def
/Circle {stroke [] 0 setdash 2 copy
  hpt 0 360 arc stroke Pnt} def
/CircleF {stroke [] 0 setdash hpt 0 360 arc fill} def
/C0 {BL [] 0 setdash 2 copy moveto vpt 90 450 arc} bind def
/C1 {BL [] 0 setdash 2 copy moveto
	2 copy vpt 0 90 arc closepath fill
	vpt 0 360 arc closepath} bind def
/C2 {BL [] 0 setdash 2 copy moveto
	2 copy vpt 90 180 arc closepath fill
	vpt 0 360 arc closepath} bind def
/C3 {BL [] 0 setdash 2 copy moveto
	2 copy vpt 0 180 arc closepath fill
	vpt 0 360 arc closepath} bind def
/C4 {BL [] 0 setdash 2 copy moveto
	2 copy vpt 180 270 arc closepath fill
	vpt 0 360 arc closepath} bind def
/C5 {BL [] 0 setdash 2 copy moveto
	2 copy vpt 0 90 arc
	2 copy moveto
	2 copy vpt 180 270 arc closepath fill
	vpt 0 360 arc} bind def
/C6 {BL [] 0 setdash 2 copy moveto
	2 copy vpt 90 270 arc closepath fill
	vpt 0 360 arc closepath} bind def
/C7 {BL [] 0 setdash 2 copy moveto
	2 copy vpt 0 270 arc closepath fill
	vpt 0 360 arc closepath} bind def
/C8 {BL [] 0 setdash 2 copy moveto
	2 copy vpt 270 360 arc closepath fill
	vpt 0 360 arc closepath} bind def
/C9 {BL [] 0 setdash 2 copy moveto
	2 copy vpt 270 450 arc closepath fill
	vpt 0 360 arc closepath} bind def
/C10 {BL [] 0 setdash 2 copy 2 copy moveto vpt 270 360 arc closepath fill
	2 copy moveto
	2 copy vpt 90 180 arc closepath fill
	vpt 0 360 arc closepath} bind def
/C11 {BL [] 0 setdash 2 copy moveto
	2 copy vpt 0 180 arc closepath fill
	2 copy moveto
	2 copy vpt 270 360 arc closepath fill
	vpt 0 360 arc closepath} bind def
/C12 {BL [] 0 setdash 2 copy moveto
	2 copy vpt 180 360 arc closepath fill
	vpt 0 360 arc closepath} bind def
/C13 {BL [] 0 setdash 2 copy moveto
	2 copy vpt 0 90 arc closepath fill
	2 copy moveto
	2 copy vpt 180 360 arc closepath fill
	vpt 0 360 arc closepath} bind def
/C14 {BL [] 0 setdash 2 copy moveto
	2 copy vpt 90 360 arc closepath fill
	vpt 0 360 arc} bind def
/C15 {BL [] 0 setdash 2 copy vpt 0 360 arc closepath fill
	vpt 0 360 arc closepath} bind def
/Rec {newpath 4 2 roll moveto 1 index 0 rlineto 0 exch rlineto
	neg 0 rlineto closepath} bind def
/Square {dup Rec} bind def
/Bsquare {vpt sub exch vpt sub exch vpt2 Square} bind def
/S0 {BL [] 0 setdash 2 copy moveto 0 vpt rlineto BL Bsquare} bind def
/S1 {BL [] 0 setdash 2 copy vpt Square fill Bsquare} bind def
/S2 {BL [] 0 setdash 2 copy exch vpt sub exch vpt Square fill Bsquare} bind def
/S3 {BL [] 0 setdash 2 copy exch vpt sub exch vpt2 vpt Rec fill Bsquare} bind def
/S4 {BL [] 0 setdash 2 copy exch vpt sub exch vpt sub vpt Square fill Bsquare} bind def
/S5 {BL [] 0 setdash 2 copy 2 copy vpt Square fill
	exch vpt sub exch vpt sub vpt Square fill Bsquare} bind def
/S6 {BL [] 0 setdash 2 copy exch vpt sub exch vpt sub vpt vpt2 Rec fill Bsquare} bind def
/S7 {BL [] 0 setdash 2 copy exch vpt sub exch vpt sub vpt vpt2 Rec fill
	2 copy vpt Square fill Bsquare} bind def
/S8 {BL [] 0 setdash 2 copy vpt sub vpt Square fill Bsquare} bind def
/S9 {BL [] 0 setdash 2 copy vpt sub vpt vpt2 Rec fill Bsquare} bind def
/S10 {BL [] 0 setdash 2 copy vpt sub vpt Square fill 2 copy exch vpt sub exch vpt Square fill
	Bsquare} bind def
/S11 {BL [] 0 setdash 2 copy vpt sub vpt Square fill 2 copy exch vpt sub exch vpt2 vpt Rec fill
	Bsquare} bind def
/S12 {BL [] 0 setdash 2 copy exch vpt sub exch vpt sub vpt2 vpt Rec fill Bsquare} bind def
/S13 {BL [] 0 setdash 2 copy exch vpt sub exch vpt sub vpt2 vpt Rec fill
	2 copy vpt Square fill Bsquare} bind def
/S14 {BL [] 0 setdash 2 copy exch vpt sub exch vpt sub vpt2 vpt Rec fill
	2 copy exch vpt sub exch vpt Square fill Bsquare} bind def
/S15 {BL [] 0 setdash 2 copy Bsquare fill Bsquare} bind def
/D0 {gsave translate 45 rotate 0 0 S0 stroke grestore} bind def
/D1 {gsave translate 45 rotate 0 0 S1 stroke grestore} bind def
/D2 {gsave translate 45 rotate 0 0 S2 stroke grestore} bind def
/D3 {gsave translate 45 rotate 0 0 S3 stroke grestore} bind def
/D4 {gsave translate 45 rotate 0 0 S4 stroke grestore} bind def
/D5 {gsave translate 45 rotate 0 0 S5 stroke grestore} bind def
/D6 {gsave translate 45 rotate 0 0 S6 stroke grestore} bind def
/D7 {gsave translate 45 rotate 0 0 S7 stroke grestore} bind def
/D8 {gsave translate 45 rotate 0 0 S8 stroke grestore} bind def
/D9 {gsave translate 45 rotate 0 0 S9 stroke grestore} bind def
/D10 {gsave translate 45 rotate 0 0 S10 stroke grestore} bind def
/D11 {gsave translate 45 rotate 0 0 S11 stroke grestore} bind def
/D12 {gsave translate 45 rotate 0 0 S12 stroke grestore} bind def
/D13 {gsave translate 45 rotate 0 0 S13 stroke grestore} bind def
/D14 {gsave translate 45 rotate 0 0 S14 stroke grestore} bind def
/D15 {gsave translate 45 rotate 0 0 S15 stroke grestore} bind def
/DiaE {stroke [] 0 setdash vpt add M
  hpt neg vpt neg V hpt vpt neg V
  hpt vpt V hpt neg vpt V closepath stroke} def
/BoxE {stroke [] 0 setdash exch hpt sub exch vpt add M
  0 vpt2 neg V hpt2 0 V 0 vpt2 V
  hpt2 neg 0 V closepath stroke} def
/TriUE {stroke [] 0 setdash vpt 1.12 mul add M
  hpt neg vpt -1.62 mul V
  hpt 2 mul 0 V
  hpt neg vpt 1.62 mul V closepath stroke} def
/TriDE {stroke [] 0 setdash vpt 1.12 mul sub M
  hpt neg vpt 1.62 mul V
  hpt 2 mul 0 V
  hpt neg vpt -1.62 mul V closepath stroke} def
/PentE {stroke [] 0 setdash gsave
  translate 0 hpt M 4 {72 rotate 0 hpt L} repeat
  closepath stroke grestore} def
/CircE {stroke [] 0 setdash 
  hpt 0 360 arc stroke} def
/Opaque {gsave closepath 1 setgray fill grestore 0 setgray closepath} def
/DiaW {stroke [] 0 setdash vpt add M
  hpt neg vpt neg V hpt vpt neg V
  hpt vpt V hpt neg vpt V Opaque stroke} def
/BoxW {stroke [] 0 setdash exch hpt sub exch vpt add M
  0 vpt2 neg V hpt2 0 V 0 vpt2 V
  hpt2 neg 0 V Opaque stroke} def
/TriUW {stroke [] 0 setdash vpt 1.12 mul add M
  hpt neg vpt -1.62 mul V
  hpt 2 mul 0 V
  hpt neg vpt 1.62 mul V Opaque stroke} def
/TriDW {stroke [] 0 setdash vpt 1.12 mul sub M
  hpt neg vpt 1.62 mul V
  hpt 2 mul 0 V
  hpt neg vpt -1.62 mul V Opaque stroke} def
/PentW {stroke [] 0 setdash gsave
  translate 0 hpt M 4 {72 rotate 0 hpt L} repeat
  Opaque stroke grestore} def
/CircW {stroke [] 0 setdash 
  hpt 0 360 arc Opaque stroke} def
/BoxFill {gsave Rec 1 setgray fill grestore} def
/Density {
  /Fillden exch def
  currentrgbcolor
  /ColB exch def /ColG exch def /ColR exch def
  /ColR ColR Fillden mul Fillden sub 1 add def
  /ColG ColG Fillden mul Fillden sub 1 add def
  /ColB ColB Fillden mul Fillden sub 1 add def
  ColR ColG ColB setrgbcolor} def
/BoxColFill {gsave Rec PolyFill} def
/PolyFill {gsave Density fill grestore grestore} def
/h {rlineto rlineto rlineto gsave closepath fill grestore} bind def
%
% PostScript Level 1 Pattern Fill routine for rectangles
% Usage: x y w h s a XX PatternFill
%	x,y = lower left corner of box to be filled
%	w,h = width and height of box
%	  a = angle in degrees between lines and x-axis
%	 XX = 0/1 for no/yes cross-hatch
%
/PatternFill {gsave /PFa [ 9 2 roll ] def
  PFa 0 get PFa 2 get 2 div add PFa 1 get PFa 3 get 2 div add translate
  PFa 2 get -2 div PFa 3 get -2 div PFa 2 get PFa 3 get Rec
  TransparentPatterns {} {gsave 1 setgray fill grestore} ifelse
  clip
  currentlinewidth 0.5 mul setlinewidth
  /PFs PFa 2 get dup mul PFa 3 get dup mul add sqrt def
  0 0 M PFa 5 get rotate PFs -2 div dup translate
  0 1 PFs PFa 4 get div 1 add floor cvi
	{PFa 4 get mul 0 M 0 PFs V} for
  0 PFa 6 get ne {
	0 1 PFs PFa 4 get div 1 add floor cvi
	{PFa 4 get mul 0 2 1 roll M PFs 0 V} for
 } if
  stroke grestore} def
%
/languagelevel where
 {pop languagelevel} {1} ifelse
dup 2 lt
	{/InterpretLevel1 true def
	 /InterpretLevel3 false def}
	{/InterpretLevel1 Level1 def
	 2 gt
	    {/InterpretLevel3 Level3 def}
	    {/InterpretLevel3 false def}
	 ifelse }
 ifelse
%
% PostScript level 2 pattern fill definitions
%
/Level2PatternFill {
/Tile8x8 {/PaintType 2 /PatternType 1 /TilingType 1 /BBox [0 0 8 8] /XStep 8 /YStep 8}
	bind def
/KeepColor {currentrgbcolor [/Pattern /DeviceRGB] setcolorspace} bind def
<< Tile8x8
 /PaintProc {0.5 setlinewidth pop 0 0 M 8 8 L 0 8 M 8 0 L stroke} 
>> matrix makepattern
/Pat1 exch def
<< Tile8x8
 /PaintProc {0.5 setlinewidth pop 0 0 M 8 8 L 0 8 M 8 0 L stroke
	0 4 M 4 8 L 8 4 L 4 0 L 0 4 L stroke}
>> matrix makepattern
/Pat2 exch def
<< Tile8x8
 /PaintProc {0.5 setlinewidth pop 0 0 M 0 8 L
	8 8 L 8 0 L 0 0 L fill}
>> matrix makepattern
/Pat3 exch def
<< Tile8x8
 /PaintProc {0.5 setlinewidth pop -4 8 M 8 -4 L
	0 12 M 12 0 L stroke}
>> matrix makepattern
/Pat4 exch def
<< Tile8x8
 /PaintProc {0.5 setlinewidth pop -4 0 M 8 12 L
	0 -4 M 12 8 L stroke}
>> matrix makepattern
/Pat5 exch def
<< Tile8x8
 /PaintProc {0.5 setlinewidth pop -2 8 M 4 -4 L
	0 12 M 8 -4 L 4 12 M 10 0 L stroke}
>> matrix makepattern
/Pat6 exch def
<< Tile8x8
 /PaintProc {0.5 setlinewidth pop -2 0 M 4 12 L
	0 -4 M 8 12 L 4 -4 M 10 8 L stroke}
>> matrix makepattern
/Pat7 exch def
<< Tile8x8
 /PaintProc {0.5 setlinewidth pop 8 -2 M -4 4 L
	12 0 M -4 8 L 12 4 M 0 10 L stroke}
>> matrix makepattern
/Pat8 exch def
<< Tile8x8
 /PaintProc {0.5 setlinewidth pop 0 -2 M 12 4 L
	-4 0 M 12 8 L -4 4 M 8 10 L stroke}
>> matrix makepattern
/Pat9 exch def
/Pattern1 {PatternBgnd KeepColor Pat1 setpattern} bind def
/Pattern2 {PatternBgnd KeepColor Pat2 setpattern} bind def
/Pattern3 {PatternBgnd KeepColor Pat3 setpattern} bind def
/Pattern4 {PatternBgnd KeepColor Landscape {Pat5} {Pat4} ifelse setpattern} bind def
/Pattern5 {PatternBgnd KeepColor Landscape {Pat4} {Pat5} ifelse setpattern} bind def
/Pattern6 {PatternBgnd KeepColor Landscape {Pat9} {Pat6} ifelse setpattern} bind def
/Pattern7 {PatternBgnd KeepColor Landscape {Pat8} {Pat7} ifelse setpattern} bind def
} def
%
%
%End of PostScript Level 2 code
%
/PatternBgnd {
  TransparentPatterns {} {gsave 1 setgray fill grestore} ifelse
} def
%
% Substitute for Level 2 pattern fill codes with
% grayscale if Level 2 support is not selected.
%
/Level1PatternFill {
/Pattern1 {0.250 Density} bind def
/Pattern2 {0.500 Density} bind def
/Pattern3 {0.750 Density} bind def
/Pattern4 {0.125 Density} bind def
/Pattern5 {0.375 Density} bind def
/Pattern6 {0.625 Density} bind def
/Pattern7 {0.875 Density} bind def
} def
%
% Now test for support of Level 2 code
%
Level1 {Level1PatternFill} {Level2PatternFill} ifelse
%
/Symbol-Oblique /Symbol findfont [1 0 .167 1 0 0] makefont
dup length dict begin {1 index /FID eq {pop pop} {def} ifelse} forall
currentdict end definefont pop
%
/MFshow {
   { dup 5 get 3 ge
     { 5 get 3 eq {gsave} {grestore} ifelse }
     {dup dup 0 get findfont exch 1 get scalefont setfont
     [ currentpoint ] exch dup 2 get 0 exch R dup 5 get 2 ne {dup dup 6
     get exch 4 get {textshow} {stringwidth pop 0 R} ifelse }if dup 5 get 0 eq
     {dup 3 get {2 get neg 0 exch R pop} {pop aload pop M} ifelse} {dup 5
     get 1 eq {dup 2 get exch dup 3 get exch 6 get stringwidth pop -2 div
     dup 0 R} {dup 6 get stringwidth pop -2 div 0 R 6 get
     textshow 2 index {aload pop M neg 3 -1 roll neg R pop pop} {pop pop pop
     pop aload pop M} ifelse }ifelse }ifelse }
     ifelse }
   forall} def
/Gswidth {dup type /stringtype eq {stringwidth} {pop (n) stringwidth} ifelse} def
/MFwidth {0 exch { dup 5 get 3 ge { 5 get 3 eq { 0 } { pop } ifelse }
 {dup 3 get{dup dup 0 get findfont exch 1 get scalefont setfont
     6 get Gswidth pop add} {pop} ifelse} ifelse} forall} def
/MLshow { currentpoint stroke M
  0 exch R
  Blacktext {gsave 0 setgray MFshow grestore} {MFshow} ifelse } bind def
/MRshow { currentpoint stroke M
  exch dup MFwidth neg 3 -1 roll R
  Blacktext {gsave 0 setgray MFshow grestore} {MFshow} ifelse } bind def
/MCshow { currentpoint stroke M
  exch dup MFwidth -2 div 3 -1 roll R
  Blacktext {gsave 0 setgray MFshow grestore} {MFshow} ifelse } bind def
/XYsave    { [( ) 1 2 true false 3 ()] } bind def
/XYrestore { [( ) 1 2 true false 4 ()] } bind def
Level1 SuppressPDFMark or 
{} {
/SDict 10 dict def
systemdict /pdfmark known not {
  userdict /pdfmark systemdict /cleartomark get put
} if
SDict begin [
  /Title (max.eps)
  /Subject (gnuplot plot)
  /Creator (gnuplot 5.0 patchlevel 1)
  /Author (gaumont)
%  /Producer (gnuplot)
%  /Keywords ()
  /CreationDate (Fri Oct 30 18:57:08 2015)
  /DOCINFO pdfmark
end
} ifelse
end
%
% Support for boxed text - Ethan A Merritt May 2005
%
/InitTextBox { userdict /TBy2 3 -1 roll put userdict /TBx2 3 -1 roll put
           userdict /TBy1 3 -1 roll put userdict /TBx1 3 -1 roll put
	   /Boxing true def } def
/ExtendTextBox { Boxing
    { gsave dup false charpath pathbbox
      dup TBy2 gt {userdict /TBy2 3 -1 roll put} {pop} ifelse
      dup TBx2 gt {userdict /TBx2 3 -1 roll put} {pop} ifelse
      dup TBy1 lt {userdict /TBy1 3 -1 roll put} {pop} ifelse
      dup TBx1 lt {userdict /TBx1 3 -1 roll put} {pop} ifelse
      grestore } if } def
/PopTextBox { newpath TBx1 TBxmargin sub TBy1 TBymargin sub M
               TBx1 TBxmargin sub TBy2 TBymargin add L
	       TBx2 TBxmargin add TBy2 TBymargin add L
	       TBx2 TBxmargin add TBy1 TBymargin sub L closepath } def
/DrawTextBox { PopTextBox stroke /Boxing false def} def
/FillTextBox { gsave PopTextBox 1 1 1 setrgbcolor fill grestore /Boxing false def} def
0 0 0 0 InitTextBox
/TBxmargin 20 def
/TBymargin 20 def
/Boxing false def
/textshow { ExtendTextBox Gshow } def
%
%%EndProlog
%%Page: 1 1
gnudict begin
gsave
doclip
50 50 translate
0.050 0.050 scale
0 setgray
newpath
(Helvetica) findfont 200 scalefont setfont
BackgroundColor 0 lt 3 1 roll 0 lt exch 0 lt or or not {BackgroundColor C 1.000 0 0 5040.00 3772.00 BoxColFill} if
1.000 UL
LTb
LCb setrgbcolor
860 640 M
63 0 V
3756 0 R
-63 0 V
stroke
740 640 M
[ [(Helvetica) 200.0 0.0 true true 0 (10)]
[(Helvetica) 160.0 100.0 true true 0 (-3)]
] -86.7 MRshow
1.000 UL
LTb
LCb setrgbcolor
860 930 M
31 0 V
3788 0 R
-31 0 V
860 1100 M
31 0 V
3788 0 R
-31 0 V
860 1220 M
31 0 V
3788 0 R
-31 0 V
860 1314 M
31 0 V
3788 0 R
-31 0 V
860 1390 M
31 0 V
3788 0 R
-31 0 V
860 1454 M
31 0 V
3788 0 R
-31 0 V
860 1510 M
31 0 V
3788 0 R
-31 0 V
860 1560 M
31 0 V
3788 0 R
-31 0 V
860 1604 M
63 0 V
3756 0 R
-63 0 V
stroke
740 1604 M
[ [(Helvetica) 200.0 0.0 true true 0 (10)]
[(Helvetica) 160.0 100.0 true true 0 (-2)]
] -86.7 MRshow
1.000 UL
LTb
LCb setrgbcolor
860 1894 M
31 0 V
3788 0 R
-31 0 V
860 2063 M
31 0 V
3788 0 R
-31 0 V
860 2184 M
31 0 V
3788 0 R
-31 0 V
860 2277 M
31 0 V
3788 0 R
-31 0 V
860 2354 M
31 0 V
3788 0 R
-31 0 V
860 2418 M
31 0 V
3788 0 R
-31 0 V
860 2474 M
31 0 V
3788 0 R
-31 0 V
860 2523 M
31 0 V
3788 0 R
-31 0 V
860 2567 M
63 0 V
3756 0 R
-63 0 V
stroke
740 2567 M
[ [(Helvetica) 200.0 0.0 true true 0 (10)]
[(Helvetica) 160.0 100.0 true true 0 (-1)]
] -86.7 MRshow
1.000 UL
LTb
LCb setrgbcolor
860 2857 M
31 0 V
3788 0 R
-31 0 V
860 3027 M
31 0 V
3788 0 R
-31 0 V
860 3148 M
31 0 V
3788 0 R
-31 0 V
860 3241 M
31 0 V
3788 0 R
-31 0 V
860 3317 M
31 0 V
3788 0 R
-31 0 V
860 3382 M
31 0 V
3788 0 R
-31 0 V
860 3438 M
31 0 V
3788 0 R
-31 0 V
860 3487 M
31 0 V
3788 0 R
-31 0 V
860 3531 M
63 0 V
3756 0 R
-63 0 V
stroke
740 3531 M
[ [(Helvetica) 200.0 0.0 true true 0 (10)]
[(Helvetica) 160.0 100.0 true true 0 (0)]
] -86.7 MRshow
1.000 UL
LTb
LCb setrgbcolor
860 640 M
0 63 V
0 2828 R
0 -63 V
stroke
860 440 M
[ [(Helvetica) 200.0 0.0 true true 0 (10)]
[(Helvetica) 160.0 100.0 true true 0 (-3)]
] -86.7 MCshow
1.000 UL
LTb
LCb setrgbcolor
1243 640 M
0 31 V
0 2860 R
0 -31 V
1467 640 M
0 31 V
0 2860 R
0 -31 V
1626 640 M
0 31 V
0 2860 R
0 -31 V
1750 640 M
0 31 V
0 2860 R
0 -31 V
1851 640 M
0 31 V
0 2860 R
0 -31 V
1936 640 M
0 31 V
0 2860 R
0 -31 V
2010 640 M
0 31 V
0 2860 R
0 -31 V
2075 640 M
0 31 V
0 2860 R
0 -31 V
2133 640 M
0 63 V
0 2828 R
0 -63 V
stroke
2133 440 M
[ [(Helvetica) 200.0 0.0 true true 0 (10)]
[(Helvetica) 160.0 100.0 true true 0 (-2)]
] -86.7 MCshow
1.000 UL
LTb
LCb setrgbcolor
2516 640 M
0 31 V
0 2860 R
0 -31 V
2740 640 M
0 31 V
0 2860 R
0 -31 V
2899 640 M
0 31 V
0 2860 R
0 -31 V
3023 640 M
0 31 V
0 2860 R
0 -31 V
3124 640 M
0 31 V
0 2860 R
0 -31 V
3209 640 M
0 31 V
0 2860 R
0 -31 V
3283 640 M
0 31 V
0 2860 R
0 -31 V
3348 640 M
0 31 V
0 2860 R
0 -31 V
3406 640 M
0 63 V
0 2828 R
0 -63 V
stroke
3406 440 M
[ [(Helvetica) 200.0 0.0 true true 0 (10)]
[(Helvetica) 160.0 100.0 true true 0 (-1)]
] -86.7 MCshow
1.000 UL
LTb
LCb setrgbcolor
3789 640 M
0 31 V
0 2860 R
0 -31 V
4013 640 M
0 31 V
0 2860 R
0 -31 V
4172 640 M
0 31 V
0 2860 R
0 -31 V
4296 640 M
0 31 V
0 2860 R
0 -31 V
4397 640 M
0 31 V
0 2860 R
0 -31 V
4482 640 M
0 31 V
0 2860 R
0 -31 V
4556 640 M
0 31 V
0 2860 R
0 -31 V
4621 640 M
0 31 V
0 2860 R
0 -31 V
4679 640 M
0 63 V
0 2828 R
0 -63 V
stroke
4679 440 M
[ [(Helvetica) 200.0 0.0 true true 0 (10)]
[(Helvetica) 160.0 100.0 true true 0 (0)]
] -86.7 MCshow
1.000 UL
LTb
LCb setrgbcolor
1.000 UL
LTb
LCb setrgbcolor
860 3531 N
860 640 L
3819 0 V
0 2891 V
-3819 0 V
Z stroke
0.500 UP
1.000 UL
LTb
LCb setrgbcolor
LCb setrgbcolor
160 2085 M
currentpoint gsave translate -270 rotate 0 0 moveto
[ [(Helvetica) 200.0 0.0 true true 0 (Max inter-thread density)]
] -66.7 MCshow
grestore
LTb
LCb setrgbcolor
2769 140 M
[ [(Helvetica) 200.0 0.0 true true 0 (Intra-thread density)]
] -66.7 MCshow
LTb
% Begin plot #1
0.500 UP
0.500 UL
LTb
0.82 0.11 0.02 C 4032 3059 Pls
4155 3150 Pls
3784 3070 Pls
3782 2969 Pls
4166 3212 Pls
3606 3020 Pls
4033 3074 Pls
4237 3275 Pls
3905 3192 Pls
3898 3093 Pls
3968 3123 Pls
3862 3071 Pls
3710 3018 Pls
3927 3182 Pls
4086 3215 Pls
3614 2899 Pls
3816 3144 Pls
3730 2898 Pls
3953 3065 Pls
4099 3196 Pls
4053 3182 Pls
4105 3153 Pls
3523 2849 Pls
3677 2976 Pls
3652 2981 Pls
3676 3064 Pls
4293 3247 Pls
4019 3121 Pls
4101 3227 Pls
3630 3036 Pls
2459 2392 Pls
3266 3029 Pls
2860 2459 Pls
3464 2781 Pls
3878 3121 Pls
4116 3185 Pls
3080 2949 Pls
3980 3037 Pls
3663 3016 Pls
3709 2909 Pls
3677 2923 Pls
3552 2803 Pls
3600 2770 Pls
3678 2904 Pls
3951 3134 Pls
3961 3074 Pls
3974 3071 Pls
3849 3138 Pls
3904 2969 Pls
4135 3314 Pls
3696 2814 Pls
4167 3273 Pls
3724 2845 Pls
3573 2860 Pls
4061 3152 Pls
3841 3091 Pls
3834 3119 Pls
3906 3117 Pls
3928 3151 Pls
3782 2857 Pls
3632 2910 Pls
3746 2891 Pls
4063 3136 Pls
3975 3055 Pls
3717 2994 Pls
4019 3174 Pls
3667 2963 Pls
4036 3232 Pls
3908 2953 Pls
3321 2881 Pls
3836 3119 Pls
3634 2933 Pls
3541 2865 Pls
1923 2425 Pls
3976 3219 Pls
3750 2991 Pls
3828 2974 Pls
3519 2679 Pls
3755 2996 Pls
4243 3235 Pls
3757 3092 Pls
3865 3054 Pls
3837 3151 Pls
4057 3149 Pls
4133 3191 Pls
3352 2981 Pls
3886 3007 Pls
3823 2917 Pls
3726 2879 Pls
4116 3162 Pls
4153 3220 Pls
3759 2881 Pls
3902 3019 Pls
3886 3089 Pls
3887 3139 Pls
3522 2949 Pls
3970 3150 Pls
3838 2988 Pls
4209 3322 Pls
3873 2924 Pls
3276 2782 Pls
3970 3171 Pls
3422 2654 Pls
3643 2758 Pls
3888 3030 Pls
3772 3043 Pls
3403 2639 Pls
3606 3120 Pls
3968 3033 Pls
3904 3053 Pls
4029 3104 Pls
3974 3110 Pls
3967 3002 Pls
4049 3232 Pls
3640 2940 Pls
3728 2991 Pls
4246 3253 Pls
4047 3240 Pls
3882 2998 Pls
3922 3172 Pls
3633 2750 Pls
4067 3099 Pls
3700 2939 Pls
3536 2711 Pls
3730 2973 Pls
4166 3171 Pls
4004 3021 Pls
4048 3064 Pls
3501 3021 Pls
4018 3032 Pls
4023 3166 Pls
3898 3364 Pls
3970 3097 Pls
3859 3065 Pls
3872 2987 Pls
3904 3256 Pls
4060 3249 Pls
3906 2986 Pls
3892 3012 Pls
3722 3164 Pls
3902 2953 Pls
3863 2967 Pls
3793 3069 Pls
4157 3148 Pls
3586 2776 Pls
3757 2854 Pls
3969 3256 Pls
3916 3020 Pls
4274 3243 Pls
3963 3145 Pls
3812 2898 Pls
3665 2945 Pls
4168 3239 Pls
3810 2893 Pls
3627 2961 Pls
3826 2973 Pls
3600 2981 Pls
3897 2981 Pls
3720 3066 Pls
3828 3085 Pls
4051 3191 Pls
3875 2961 Pls
3964 3150 Pls
3592 2893 Pls
3970 3131 Pls
4006 3095 Pls
4280 3328 Pls
3992 3067 Pls
3577 2800 Pls
3851 2966 Pls
3823 3032 Pls
3794 3147 Pls
3542 3088 Pls
3816 2903 Pls
3728 3096 Pls
3895 3030 Pls
3612 2788 Pls
3843 3167 Pls
4059 3226 Pls
3679 2858 Pls
4154 3162 Pls
3911 2994 Pls
3637 2897 Pls
4278 3287 Pls
3712 3207 Pls
3766 3127 Pls
3726 2961 Pls
3884 3017 Pls
3874 3076 Pls
4168 3168 Pls
3767 2984 Pls
3997 3163 Pls
4068 3081 Pls
3895 3046 Pls
3875 3220 Pls
3950 3188 Pls
3768 2968 Pls
3832 3356 Pls
3489 2842 Pls
3661 3158 Pls
3540 2819 Pls
3811 3085 Pls
3898 3012 Pls
3416 2772 Pls
3741 2867 Pls
4069 3103 Pls
3973 3208 Pls
4095 3187 Pls
4065 3093 Pls
3830 3304 Pls
3791 2994 Pls
3903 3013 Pls
4045 3187 Pls
3906 3080 Pls
3422 2863 Pls
3710 2802 Pls
4138 3297 Pls
3830 2945 Pls
3729 3031 Pls
3985 3112 Pls
3712 2869 Pls
3755 3041 Pls
2970 2633 Pls
4281 3243 Pls
3574 2754 Pls
3765 2873 Pls
3632 2799 Pls
3717 2969 Pls
3866 3124 Pls
4141 3201 Pls
3630 3010 Pls
3650 2763 Pls
3663 2843 Pls
3541 2894 Pls
4071 3269 Pls
3980 3089 Pls
3897 3000 Pls
3755 3115 Pls
3953 3052 Pls
3460 2933 Pls
3858 3022 Pls
4044 3102 Pls
3971 3075 Pls
3658 3001 Pls
3696 2794 Pls
3831 2919 Pls
3976 3127 Pls
3890 3189 Pls
4121 3177 Pls
4286 3337 Pls
3597 2714 Pls
3631 3008 Pls
3869 2965 Pls
4064 3116 Pls
3826 2925 Pls
3961 3143 Pls
3832 2917 Pls
3400 2761 Pls
3874 3065 Pls
3696 2883 Pls
3658 2998 Pls
3928 3147 Pls
3645 2978 Pls
4163 3208 Pls
3806 2956 Pls
3580 3004 Pls
4016 3158 Pls
3820 3019 Pls
3892 3049 Pls
3691 2885 Pls
4284 3243 Pls
4133 3136 Pls
3582 2887 Pls
4265 3225 Pls
3839 2986 Pls
3830 3026 Pls
3620 2911 Pls
3904 3060 Pls
3846 3152 Pls
3858 3085 Pls
3795 2914 Pls
3604 2973 Pls
3688 2924 Pls
3873 2946 Pls
3919 3120 Pls
4051 3074 Pls
3773 3027 Pls
4067 3168 Pls
3941 3185 Pls
3883 2964 Pls
3755 2874 Pls
3554 2774 Pls
3973 3086 Pls
3831 2898 Pls
3491 2758 Pls
3776 2933 Pls
3837 2976 Pls
4037 3152 Pls
3813 3094 Pls
3875 2937 Pls
4168 3240 Pls
3965 3069 Pls
4167 3147 Pls
3942 3111 Pls
3950 3040 Pls
3909 3015 Pls
3773 3142 Pls
4174 3161 Pls
3309 3183 Pls
3815 2911 Pls
3568 2821 Pls
3646 2987 Pls
4099 3129 Pls
3595 2856 Pls
4154 3155 Pls
4047 3056 Pls
4259 3282 Pls
4140 3211 Pls
4138 3163 Pls
3962 3134 Pls
3684 2946 Pls
4170 3216 Pls
4024 3142 Pls
3836 3094 Pls
3454 2958 Pls
3363 2860 Pls
3513 3048 Pls
3083 2822 Pls
3538 2973 Pls
3939 2980 Pls
3675 2794 Pls
3960 3207 Pls
3582 3102 Pls
3636 3147 Pls
3900 3142 Pls
4157 3255 Pls
3967 3182 Pls
4064 3139 Pls
3967 2993 Pls
3735 3050 Pls
3550 2889 Pls
4045 3072 Pls
3806 3194 Pls
3979 3087 Pls
3843 3115 Pls
4237 3307 Pls
4159 3147 Pls
3714 2838 Pls
4127 3213 Pls
3781 3070 Pls
3977 3034 Pls
4265 3261 Pls
3915 2988 Pls
4059 3215 Pls
3807 2942 Pls
3598 2962 Pls
4061 3077 Pls
3976 3196 Pls
3737 3068 Pls
3818 3047 Pls
3713 3005 Pls
3329 2846 Pls
4061 3186 Pls
3778 2872 Pls
3910 3089 Pls
3804 3033 Pls
3797 2881 Pls
3980 3247 Pls
3968 3059 Pls
3926 2980 Pls
4164 3154 Pls
3702 2879 Pls
4171 3322 Pls
3580 3146 Pls
4151 3196 Pls
3728 3139 Pls
3648 3043 Pls
3904 3035 Pls
3903 3170 Pls
3964 2999 Pls
4134 3225 Pls
3892 3156 Pls
4165 3159 Pls
3355 2823 Pls
4060 3080 Pls
3845 3115 Pls
4173 3218 Pls
4002 3299 Pls
3733 2970 Pls
4161 3179 Pls
3549 2834 Pls
4017 3079 Pls
3756 3076 Pls
3964 3139 Pls
3679 2914 Pls
3987 3309 Pls
3779 3135 Pls
3427 2665 Pls
3802 3032 Pls
3779 3127 Pls
3769 3188 Pls
3833 3064 Pls
3472 2859 Pls
3773 2992 Pls
3571 3020 Pls
3600 2963 Pls
3990 3184 Pls
3785 3118 Pls
4065 3131 Pls
3889 2963 Pls
3587 2946 Pls
3700 3009 Pls
3815 2907 Pls
3808 3097 Pls
3561 2777 Pls
3977 3005 Pls
3733 2962 Pls
4248 3248 Pls
4062 3076 Pls
4131 3148 Pls
3851 3435 Pls
3905 3117 Pls
4068 3320 Pls
3720 3249 Pls
4061 3221 Pls
3811 2975 Pls
3810 2876 Pls
4065 3114 Pls
3888 3071 Pls
3846 2933 Pls
3573 2714 Pls
3884 2996 Pls
3340 2905 Pls
4052 3227 Pls
4138 3211 Pls
3889 3014 Pls
4278 3278 Pls
3690 2891 Pls
3869 3008 Pls
3850 3052 Pls
3875 2943 Pls
3969 3158 Pls
3517 2712 Pls
3486 2871 Pls
4023 3142 Pls
3244 2668 Pls
3893 3014 Pls
4093 3222 Pls
3897 3142 Pls
3833 3114 Pls
3870 2923 Pls
3837 3031 Pls
3903 3008 Pls
4167 3193 Pls
4063 3149 Pls
4161 3179 Pls
3526 2962 Pls
3768 3039 Pls
3576 2822 Pls
3969 3012 Pls
4019 3187 Pls
3629 2794 Pls
3840 2927 Pls
3773 3123 Pls
3714 3056 Pls
3877 2939 Pls
3976 3017 Pls
3881 3007 Pls
3310 2586 Pls
3865 2946 Pls
4129 3242 Pls
3707 2921 Pls
3895 3100 Pls
3761 2949 Pls
3882 2959 Pls
4013 3091 Pls
3579 3107 Pls
3692 3074 Pls
3836 3120 Pls
3896 3101 Pls
4089 3109 Pls
3943 2987 Pls
3863 3122 Pls
3187 2870 Pls
3595 3006 Pls
3937 3126 Pls
3752 3001 Pls
3669 3027 Pls
4067 3126 Pls
4047 3138 Pls
4023 3296 Pls
4156 3253 Pls
3908 3011 Pls
3975 3030 Pls
3736 3170 Pls
4084 3165 Pls
3405 2802 Pls
4134 3155 Pls
3828 2990 Pls
4244 3246 Pls
3874 3024 Pls
3889 3092 Pls
3760 2928 Pls
4048 3180 Pls
4156 3182 Pls
3914 2991 Pls
3616 2965 Pls
4024 3145 Pls
3738 2851 Pls
3730 2815 Pls
4030 3185 Pls
4056 3086 Pls
4136 3204 Pls
3710 3005 Pls
3903 3052 Pls
3610 2826 Pls
4066 3142 Pls
4014 3077 Pls
3952 3089 Pls
3121 2585 Pls
3522 2998 Pls
3980 3128 Pls
3967 3110 Pls
3907 3023 Pls
3713 3088 Pls
3277 2852 Pls
3898 3008 Pls
3982 3282 Pls
3790 3090 Pls
3914 3036 Pls
3766 2931 Pls
3739 3006 Pls
3966 3311 Pls
3769 2903 Pls
3868 3371 Pls
3871 2993 Pls
4116 3153 Pls
4003 3183 Pls
3724 2902 Pls
4152 3149 Pls
3467 2830 Pls
3960 3101 Pls
3831 3188 Pls
4135 3167 Pls
3947 3047 Pls
3832 2944 Pls
3763 2894 Pls
3824 2967 Pls
3523 3001 Pls
4133 3259 Pls
3965 2995 Pls
4049 3082 Pls
3782 2866 Pls
3730 3001 Pls
3909 3172 Pls
3619 3166 Pls
3622 2867 Pls
4134 3269 Pls
4036 3090 Pls
3795 3287 Pls
3962 3129 Pls
4164 3315 Pls
3827 2904 Pls
3616 2803 Pls
3385 2675 Pls
3761 3026 Pls
4139 3417 Pls
3756 2856 Pls
3864 3032 Pls
3712 2893 Pls
3980 3026 Pls
3980 3068 Pls
3554 2730 Pls
3551 3113 Pls
3908 3048 Pls
3792 3050 Pls
4065 3130 Pls
3839 2902 Pls
4129 3157 Pls
4376 3312 Pls
4139 3183 Pls
3693 2911 Pls
3936 3090 Pls
4040 3186 Pls
3841 3119 Pls
3767 3028 Pls
3953 3136 Pls
3817 2938 Pls
4045 3069 Pls
4013 3208 Pls
4267 3393 Pls
4084 3264 Pls
3936 2978 Pls
3904 3049 Pls
3764 2944 Pls
3757 3236 Pls
3644 2835 Pls
3897 2940 Pls
4057 3113 Pls
3870 3144 Pls
3789 2964 Pls
4051 3179 Pls
3695 2861 Pls
4038 3048 Pls
3993 3192 Pls
3828 2961 Pls
4051 3328 Pls
3453 2765 Pls
3553 2768 Pls
3458 3033 Pls
3788 2883 Pls
4067 3092 Pls
3616 2801 Pls
3906 3047 Pls
4055 3245 Pls
3622 3038 Pls
3884 3042 Pls
4190 3256 Pls
3897 3040 Pls
3837 3065 Pls
3855 2945 Pls
3926 3096 Pls
3842 3123 Pls
4137 3173 Pls
4166 3153 Pls
3941 3137 Pls
3893 3183 Pls
3928 3140 Pls
3908 3038 Pls
4161 3384 Pls
3727 3391 Pls
3886 3033 Pls
3961 3005 Pls
4161 3206 Pls
3699 2890 Pls
3719 3066 Pls
3291 2796 Pls
4171 3227 Pls
3661 2798 Pls
3607 2917 Pls
3863 2946 Pls
3876 3114 Pls
3613 2734 Pls
3955 3078 Pls
3826 3219 Pls
3740 3046 Pls
4290 3256 Pls
3837 3173 Pls
3817 3197 Pls
4066 3101 Pls
3973 3056 Pls
4052 3171 Pls
3895 3183 Pls
3670 3012 Pls
3719 2915 Pls
3460 2664 Pls
3970 3141 Pls
4169 3161 Pls
4248 3284 Pls
4284 3243 Pls
3329 2606 Pls
4040 3266 Pls
3702 2956 Pls
3804 2949 Pls
4010 3105 Pls
3518 3044 Pls
4159 3167 Pls
4165 3261 Pls
3982 3017 Pls
3852 2965 Pls
3972 3045 Pls
3942 3077 Pls
3995 3174 Pls
3908 3134 Pls
3780 2962 Pls
4004 3137 Pls
3749 2904 Pls
4040 3065 Pls
4057 3280 Pls
4166 3282 Pls
4049 3175 Pls
4168 3160 Pls
3785 3156 Pls
3818 3075 Pls
3853 3018 Pls
4247 3244 Pls
3784 3155 Pls
3981 3123 Pls
4144 3284 Pls
4046 3058 Pls
3975 3064 Pls
4018 3056 Pls
3786 2889 Pls
3709 3056 Pls
3660 3003 Pls
4068 3228 Pls
3544 2922 Pls
3580 2948 Pls
3912 3017 Pls
3845 3111 Pls
3659 3166 Pls
3764 3227 Pls
3903 3004 Pls
3877 3157 Pls
3875 3209 Pls
3879 3321 Pls
4084 3142 Pls
3893 3034 Pls
4153 3193 Pls
3950 3050 Pls
4165 3305 Pls
3901 3168 Pls
3971 3047 Pls
3963 3158 Pls
3703 3248 Pls
3941 3061 Pls
4135 3132 Pls
3547 2973 Pls
3330 2972 Pls
3980 3154 Pls
3763 3039 Pls
3996 3066 Pls
4041 3250 Pls
3846 3037 Pls
3674 3080 Pls
3894 3051 Pls
3930 2990 Pls
3982 3189 Pls
3738 2925 Pls
3262 2759 Pls
3833 3019 Pls
4233 3427 Pls
4058 3323 Pls
3484 2716 Pls
3583 2730 Pls
3974 3059 Pls
3294 2696 Pls
3666 2768 Pls
4040 3101 Pls
3889 2969 Pls
3541 2969 Pls
3557 2857 Pls
3818 2901 Pls
3709 3178 Pls
4135 3287 Pls
4021 3105 Pls
4029 3084 Pls
4066 3119 Pls
4065 3154 Pls
3610 2880 Pls
3980 3032 Pls
3205 2424 Pls
3533 2877 Pls
3965 3048 Pls
3946 3124 Pls
4026 3068 Pls
4072 3318 Pls
4169 3188 Pls
3905 3060 Pls
3488 2806 Pls
3813 2970 Pls
3678 3092 Pls
3506 2798 Pls
3459 2703 Pls
4288 3315 Pls
3716 2979 Pls
4044 3283 Pls
3853 2964 Pls
3815 2957 Pls
3759 3152 Pls
3726 2938 Pls
3969 3044 Pls
3896 2985 Pls
3545 2813 Pls
3750 2841 Pls
3971 3064 Pls
3875 3018 Pls
4136 3166 Pls
4054 3199 Pls
4341 3433 Pls
3666 2926 Pls
3806 3001 Pls
3666 2880 Pls
3414 3004 Pls
3779 2991 Pls
3721 2848 Pls
3868 3092 Pls
3933 3131 Pls
3819 3121 Pls
3841 2938 Pls
4005 3044 Pls
3815 3361 Pls
4053 3137 Pls
3304 2822 Pls
3874 2971 Pls
3846 3174 Pls
3636 2886 Pls
4033 3205 Pls
3978 3059 Pls
3820 2988 Pls
3776 3092 Pls
3929 3042 Pls
3695 3023 Pls
3908 3108 Pls
4183 3195 Pls
3962 3273 Pls
3845 3091 Pls
3663 2884 Pls
4228 3212 Pls
3888 2967 Pls
3843 3015 Pls
3960 3219 Pls
3504 2913 Pls
4065 3143 Pls
3852 3154 Pls
3882 3010 Pls
4161 3140 Pls
3585 3000 Pls
3818 2951 Pls
3865 3095 Pls
3778 2891 Pls
4153 3169 Pls
3622 3051 Pls
3496 2737 Pls
3741 2895 Pls
4286 3283 Pls
3828 3101 Pls
4030 3116 Pls
3767 2981 Pls
3953 3106 Pls
3664 2905 Pls
3883 2982 Pls
3399 2775 Pls
3982 3086 Pls
3732 3030 Pls
3967 3191 Pls
4158 3210 Pls
4041 3149 Pls
3897 3045 Pls
3646 2959 Pls
3835 3129 Pls
3805 3261 Pls
3977 3244 Pls
4098 3190 Pls
3570 2703 Pls
4012 3044 Pls
3946 3069 Pls
3840 3062 Pls
3518 2669 Pls
4169 3236 Pls
3728 3001 Pls
3792 2976 Pls
4010 3154 Pls
3853 3077 Pls
3905 3019 Pls
3315 2951 Pls
3777 2932 Pls
3906 3126 Pls
3639 2874 Pls
3982 3151 Pls
4066 3097 Pls
4064 3144 Pls
4232 3362 Pls
3904 3064 Pls
3707 3049 Pls
3867 3433 Pls
3825 3093 Pls
3878 2959 Pls
4056 3167 Pls
3945 3028 Pls
3910 3208 Pls
3642 3037 Pls
4275 3246 Pls
3746 2929 Pls
3973 3020 Pls
3804 3112 Pls
3963 3052 Pls
3624 2878 Pls
3809 3135 Pls
4097 3273 Pls
3845 3036 Pls
4063 3271 Pls
3504 2748 Pls
4098 3300 Pls
3689 3043 Pls
3545 3151 Pls
4080 3253 Pls
3670 2812 Pls
4067 3201 Pls
4121 3178 Pls
3902 3050 Pls
3863 3050 Pls
3722 2866 Pls
3959 2999 Pls
4068 3167 Pls
3423 3016 Pls
3894 3042 Pls
3620 3005 Pls
3592 3025 Pls
3912 3125 Pls
4049 3131 Pls
4012 3124 Pls
3520 2799 Pls
3605 2941 Pls
3976 3108 Pls
3757 2866 Pls
3806 3031 Pls
3963 3045 Pls
3790 3032 Pls
3777 3244 Pls
3526 2924 Pls
3395 2809 Pls
4084 3261 Pls
3818 3043 Pls
4160 3150 Pls
3907 2993 Pls
3795 3071 Pls
3905 3065 Pls
3680 2818 Pls
4195 3236 Pls
3758 2951 Pls
4014 3257 Pls
3820 2978 Pls
3977 3284 Pls
3614 2910 Pls
4121 3123 Pls
3927 3118 Pls
3732 2965 Pls
3805 3147 Pls
2648 2634 Pls
3810 3118 Pls
3776 2954 Pls
3837 2902 Pls
3894 3087 Pls
3905 2990 Pls
3898 3186 Pls
4023 3137 Pls
4065 3151 Pls
4052 3110 Pls
3631 3008 Pls
3928 3245 Pls
3791 2967 Pls
3791 3232 Pls
3834 2893 Pls
4110 3164 Pls
3879 2938 Pls
3667 2985 Pls
3785 2881 Pls
3773 3085 Pls
4000 3202 Pls
3875 3004 Pls
4019 3049 Pls
3728 3011 Pls
3672 3157 Pls
3651 2867 Pls
4112 3320 Pls
4124 3176 Pls
3740 2947 Pls
3911 3200 Pls
4064 3156 Pls
4097 3113 Pls
4099 3138 Pls
3975 3077 Pls
3906 3292 Pls
3632 2957 Pls
3785 3078 Pls
4166 3217 Pls
4017 3155 Pls
3830 3084 Pls
3959 3116 Pls
4065 3090 Pls
3663 2925 Pls
3681 2893 Pls
4106 3163 Pls
3804 3163 Pls
3844 2901 Pls
4256 3377 Pls
3832 3086 Pls
3755 3074 Pls
3802 2951 Pls
3925 3016 Pls
3595 2712 Pls
4112 3116 Pls
4038 3097 Pls
3658 3035 Pls
3669 3077 Pls
3840 2961 Pls
3891 3085 Pls
3053 2472 Pls
3934 3102 Pls
3898 3058 Pls
3832 2911 Pls
3821 2966 Pls
3982 3288 Pls
3818 3034 Pls
3972 3166 Pls
4037 3219 Pls
3706 3021 Pls
3222 2785 Pls
3858 3170 Pls
3752 2919 Pls
3974 3211 Pls
3844 3217 Pls
3633 3063 Pls
3671 3177 Pls
4172 3224 Pls
4066 3130 Pls
3816 3111 Pls
3904 3126 Pls
3786 2901 Pls
2930 2732 Pls
3898 3205 Pls
3773 3246 Pls
3647 2956 Pls
3950 3132 Pls
3813 2928 Pls
3660 3048 Pls
3688 3002 Pls
3631 2934 Pls
4055 3193 Pls
3569 2979 Pls
4157 3187 Pls
3647 2751 Pls
3451 2867 Pls
3747 3140 Pls
3664 3064 Pls
3660 2960 Pls
4069 3388 Pls
3929 3360 Pls
3800 3091 Pls
4013 3125 Pls
3879 3108 Pls
4157 3175 Pls
4065 3178 Pls
3895 2965 Pls
4277 3247 Pls
3343 2678 Pls
4160 3145 Pls
3550 2873 Pls
3705 2905 Pls
3956 3158 Pls
4051 3086 Pls
3978 3048 Pls
4148 3337 Pls
3961 2999 Pls
4162 3500 Pls
4440 3438 Pls
4065 3077 Pls
3597 2857 Pls
3786 3045 Pls
3669 2970 Pls
3862 3026 Pls
3840 3119 Pls
3944 3106 Pls
3813 3214 Pls
4052 3129 Pls
3396 2601 Pls
3890 2997 Pls
3773 3055 Pls
3909 2982 Pls
3963 3146 Pls
4047 3236 Pls
4070 3501 Pls
4060 3214 Pls
3551 2965 Pls
3821 3037 Pls
3775 2864 Pls
3784 3086 Pls
3653 2958 Pls
4242 3298 Pls
3979 3113 Pls
3896 2955 Pls
4039 3112 Pls
4071 3303 Pls
3488 2968 Pls
4053 3231 Pls
4164 3226 Pls
3709 3008 Pls
4289 3352 Pls
4060 3092 Pls
4045 3112 Pls
3970 3166 Pls
4142 3149 Pls
3939 3177 Pls
3742 3151 Pls
4034 3181 Pls
3778 2949 Pls
3993 3017 Pls
3684 2961 Pls
3664 2879 Pls
3754 2847 Pls
3489 2768 Pls
3749 3046 Pls
3837 2928 Pls
3606 3138 Pls
3577 2776 Pls
3866 3031 Pls
3914 2953 Pls
3454 2726 Pls
3547 2968 Pls
4043 3236 Pls
4070 3118 Pls
3717 2992 Pls
3931 3034 Pls
3703 3018 Pls
3771 2850 Pls
4165 3229 Pls
3826 2984 Pls
3728 3049 Pls
3897 3071 Pls
3276 2692 Pls
3671 3154 Pls
3615 3000 Pls
3768 2938 Pls
3983 3085 Pls
3180 2696 Pls
3905 3045 Pls
3841 3085 Pls
3787 2908 Pls
3827 3022 Pls
3898 3190 Pls
3763 2902 Pls
4144 3132 Pls
3905 3031 Pls
4160 3264 Pls
3937 3040 Pls
3241 2779 Pls
3805 3183 Pls
4323 3271 Pls
3905 2956 Pls
4135 3277 Pls
3764 2998 Pls
3455 2672 Pls
3852 2949 Pls
3783 2859 Pls
4043 3104 Pls
3804 2900 Pls
3839 2898 Pls
3802 3021 Pls
4224 3370 Pls
4162 3290 Pls
3856 2955 Pls
3686 3113 Pls
3782 3048 Pls
3804 2980 Pls
3858 3016 Pls
3882 2993 Pls
3331 2753 Pls
4158 3319 Pls
3901 3086 Pls
3636 2858 Pls
4283 3501 Pls
3961 3160 Pls
3967 3240 Pls
4191 3218 Pls
4161 3305 Pls
4263 3235 Pls
3802 2950 Pls
4282 3258 Pls
4032 3081 Pls
3768 2855 Pls
3999 3098 Pls
3807 3119 Pls
3622 2892 Pls
3617 3050 Pls
4039 3088 Pls
4029 3061 Pls
3776 2864 Pls
4323 3340 Pls
4059 3162 Pls
3821 3081 Pls
3482 2761 Pls
3590 2780 Pls
3829 3072 Pls
3751 3107 Pls
3939 3027 Pls
3875 3500 Pls
3778 3034 Pls
3713 2803 Pls
3679 2964 Pls
3906 3026 Pls
3661 2881 Pls
3751 2893 Pls
3683 3175 Pls
3731 3051 Pls
4028 3138 Pls
3809 2946 Pls
3837 3192 Pls
2827 2909 Pls
4012 3072 Pls
4169 3157 Pls
3981 3133 Pls
3134 2540 Pls
3526 3212 Pls
3416 2648 Pls
3920 3182 Pls
3746 2970 Pls
3434 2756 Pls
3722 3107 Pls
3723 2920 Pls
3629 3011 Pls
4168 3279 Pls
3840 3178 Pls
4046 3183 Pls
3505 2873 Pls
4156 3315 Pls
3716 3167 Pls
3967 3149 Pls
3779 2905 Pls
4045 3106 Pls
3831 3081 Pls
3903 2961 Pls
3533 2697 Pls
3609 2972 Pls
3944 3082 Pls
3466 2888 Pls
3923 2964 Pls
3787 3005 Pls
4249 3217 Pls
3624 2891 Pls
3814 2979 Pls
3984 3122 Pls
3798 3017 Pls
4296 3253 Pls
3735 2852 Pls
3898 3123 Pls
3706 2924 Pls
3605 2955 Pls
3472 2924 Pls
4160 3198 Pls
3831 3083 Pls
3904 3108 Pls
3512 3048 Pls
3803 3045 Pls
3825 2975 Pls
3719 2855 Pls
3680 3104 Pls
3986 3140 Pls
3775 3084 Pls
3984 3035 Pls
3826 3084 Pls
3757 2972 Pls
3834 2931 Pls
4027 3050 Pls
3724 3045 Pls
3372 2836 Pls
3823 2981 Pls
3365 2716 Pls
3842 2946 Pls
4064 3166 Pls
3975 3060 Pls
3917 3110 Pls
4165 3172 Pls
4291 3238 Pls
3815 2984 Pls
3581 2800 Pls
4159 3175 Pls
4254 3305 Pls
4055 3068 Pls
3830 3081 Pls
3941 3000 Pls
4281 3377 Pls
3558 2776 Pls
3840 3025 Pls
3907 3154 Pls
4285 3242 Pls
3941 3005 Pls
4041 3089 Pls
4171 3279 Pls
3895 3047 Pls
3903 3003 Pls
3979 3232 Pls
3841 3157 Pls
3898 2977 Pls
3587 3011 Pls
3695 2825 Pls
3504 3101 Pls
3832 3115 Pls
3902 3263 Pls
3471 2832 Pls
4007 3023 Pls
3602 2902 Pls
3976 3122 Pls
3973 3116 Pls
3839 3092 Pls
3989 3035 Pls
3899 3090 Pls
3796 2985 Pls
3846 2903 Pls
3661 2804 Pls
3399 2887 Pls
3365 2547 Pls
3624 2915 Pls
3636 3068 Pls
3768 3005 Pls
3409 2805 Pls
4065 3165 Pls
3464 2862 Pls
3501 2826 Pls
3923 3142 Pls
3944 3138 Pls
3783 3114 Pls
3837 3093 Pls
3739 2953 Pls
3904 2946 Pls
4051 3139 Pls
3963 3087 Pls
3709 3120 Pls
3403 2571 Pls
4034 3100 Pls
3632 2898 Pls
4153 3138 Pls
3964 3055 Pls
3959 3096 Pls
3715 3014 Pls
3903 3013 Pls
4151 3132 Pls
3784 3230 Pls
3874 3025 Pls
4056 3101 Pls
3891 2952 Pls
3935 2985 Pls
3601 2876 Pls
3604 3026 Pls
4021 3286 Pls
3658 2905 Pls
3895 2996 Pls
3884 3077 Pls
3920 2968 Pls
4061 3237 Pls
3640 2816 Pls
4152 3232 Pls
3784 2899 Pls
3772 2912 Pls
4200 3259 Pls
3430 2833 Pls
3914 3029 Pls
3626 2948 Pls
3882 3168 Pls
3831 3005 Pls
4053 3323 Pls
3964 3086 Pls
3037 3051 Pls
4064 3180 Pls
3336 2663 Pls
4044 3066 Pls
3567 2990 Pls
3598 3083 Pls
3620 3018 Pls
3981 3326 Pls
4036 3134 Pls
3972 3002 Pls
3565 2775 Pls
3398 2751 Pls
3841 2981 Pls
3756 3014 Pls
4087 3166 Pls
3795 3157 Pls
4170 3170 Pls
3985 3044 Pls
4317 3395 Pls
3959 3185 Pls
4010 3134 Pls
3917 2974 Pls
4063 3158 Pls
3752 2951 Pls
3921 3028 Pls
3747 2930 Pls
4029 3132 Pls
3756 2920 Pls
3753 2937 Pls
3612 3037 Pls
4161 3175 Pls
3716 2925 Pls
3675 3001 Pls
3908 2982 Pls
3882 3112 Pls
3293 2658 Pls
4154 3176 Pls
3718 2887 Pls
4008 3029 Pls
3796 3089 Pls
4165 3156 Pls
3572 3002 Pls
3979 3045 Pls
4430 3351 Pls
3832 3353 Pls
3842 2933 Pls
3637 2753 Pls
3641 2895 Pls
4234 3197 Pls
4133 3155 Pls
4145 3248 Pls
3865 2920 Pls
3838 2948 Pls
4279 3364 Pls
3692 2887 Pls
4060 3146 Pls
3717 2977 Pls
3189 2684 Pls
4067 3097 Pls
4268 3248 Pls
4064 3211 Pls
3904 3226 Pls
3752 3136 Pls
3608 2877 Pls
3958 2987 Pls
3778 3254 Pls
3630 2789 Pls
3674 2912 Pls
4070 3186 Pls
3691 2914 Pls
3443 2978 Pls
3641 2966 Pls
3594 2915 Pls
3969 3060 Pls
3770 2904 Pls
3897 2997 Pls
3741 2995 Pls
3891 3063 Pls
3734 2930 Pls
3964 3239 Pls
3778 2988 Pls
3830 2894 Pls
3478 2813 Pls
3956 3067 Pls
3707 3038 Pls
3980 3040 Pls
3806 3051 Pls
3872 3129 Pls
3904 3126 Pls
3899 3077 Pls
3805 3131 Pls
3778 2969 Pls
3975 3057 Pls
3890 2955 Pls
4158 3200 Pls
4253 3230 Pls
4000 3132 Pls
3943 3143 Pls
3420 2790 Pls
3524 2843 Pls
4037 3159 Pls
3855 3175 Pls
3898 2947 Pls
3994 3025 Pls
3975 3127 Pls
3632 2872 Pls
4061 3093 Pls
3554 2748 Pls
4288 3244 Pls
4155 3342 Pls
4122 3119 Pls
3539 2852 Pls
3637 3043 Pls
3762 2903 Pls
3923 2984 Pls
4287 3270 Pls
3953 3043 Pls
3611 2993 Pls
3839 2949 Pls
3824 2906 Pls
3526 3089 Pls
4139 3380 Pls
3973 3032 Pls
3654 3062 Pls
3315 2770 Pls
4163 3247 Pls
3968 3086 Pls
3973 3065 Pls
3790 2973 Pls
3815 3124 Pls
3761 3097 Pls
3668 2782 Pls
3406 2869 Pls
3723 2852 Pls
3848 2925 Pls
3974 3007 Pls
3782 3052 Pls
3473 2804 Pls
3732 2854 Pls
3763 3016 Pls
3780 2939 Pls
3695 2867 Pls
3892 3150 Pls
3278 2656 Pls
3730 2967 Pls
3836 2989 Pls
4321 3351 Pls
4019 3056 Pls
3854 3178 Pls
4036 3154 Pls
3920 2998 Pls
2852 2500 Pls
3676 3034 Pls
3971 3163 Pls
3780 2856 Pls
3705 2798 Pls
4134 3136 Pls
3445 3038 Pls
3694 2977 Pls
3940 3041 Pls
3498 2806 Pls
4233 3286 Pls
4164 3257 Pls
3712 2900 Pls
4063 3137 Pls
3512 2845 Pls
3973 3134 Pls
3756 2975 Pls
3930 3124 Pls
3979 3067 Pls
4138 3135 Pls
3755 2912 Pls
3986 3153 Pls
3721 3012 Pls
3819 2967 Pls
3979 3155 Pls
4166 3145 Pls
3779 2891 Pls
3568 3262 Pls
4188 3225 Pls
4132 3121 Pls
3642 2827 Pls
3735 3086 Pls
3452 2922 Pls
3884 3009 Pls
3885 3107 Pls
3695 2821 Pls
3977 3096 Pls
3352 2707 Pls
3581 2811 Pls
3908 3197 Pls
3739 3034 Pls
3772 2851 Pls
3829 3048 Pls
3933 3052 Pls
4028 3162 Pls
3698 2985 Pls
3909 3069 Pls
2818 2447 Pls
3830 3007 Pls
3534 2928 Pls
3778 2945 Pls
3747 3073 Pls
3873 3134 Pls
4016 3115 Pls
3461 2762 Pls
3744 2897 Pls
3313 2995 Pls
4229 3235 Pls
3968 3007 Pls
3868 2992 Pls
3639 3044 Pls
3769 2846 Pls
3800 3197 Pls
3667 3256 Pls
4171 3282 Pls
4050 3137 Pls
3744 3245 Pls
3937 3141 Pls
3626 2869 Pls
3849 2992 Pls
3637 2867 Pls
3882 3066 Pls
3677 2802 Pls
4156 3327 Pls
3553 3150 Pls
3890 2937 Pls
3906 2970 Pls
3719 2916 Pls
3625 3271 Pls
3607 3230 Pls
3157 2924 Pls
4029 3113 Pls
3873 3162 Pls
3783 2867 Pls
3855 3288 Pls
4130 3126 Pls
3592 2810 Pls
3969 3148 Pls
3963 3256 Pls
3596 2854 Pls
3779 2894 Pls
3797 3056 Pls
3687 3201 Pls
4016 3241 Pls
3178 2800 Pls
4293 3257 Pls
3497 2893 Pls
4032 3216 Pls
3785 3142 Pls
4048 3070 Pls
3998 3188 Pls
3670 2778 Pls
3843 2995 Pls
3804 2965 Pls
4063 3242 Pls
3662 2773 Pls
3689 3022 Pls
4062 3077 Pls
4152 3232 Pls
3823 3041 Pls
4058 3066 Pls
4025 3220 Pls
3697 2868 Pls
3895 3157 Pls
3909 3110 Pls
4059 3065 Pls
3976 3139 Pls
3680 2948 Pls
3684 2831 Pls
3866 2969 Pls
4230 3212 Pls
3826 2936 Pls
3699 3089 Pls
3839 3025 Pls
3569 2833 Pls
3841 2997 Pls
3704 2961 Pls
3122 2535 Pls
3876 2981 Pls
3846 3111 Pls
3541 2967 Pls
3885 2993 Pls
3832 2918 Pls
3906 3140 Pls
3706 2859 Pls
3672 2784 Pls
3761 3171 Pls
3826 2910 Pls
3908 2996 Pls
4069 3087 Pls
3596 2754 Pls
3523 2791 Pls
3827 3001 Pls
4318 3438 Pls
4047 3097 Pls
4031 3102 Pls
4000 3081 Pls
3699 2936 Pls
3476 3086 Pls
3627 3096 Pls
3878 3049 Pls
3710 2985 Pls
3903 2947 Pls
3896 3015 Pls
3954 3008 Pls
3858 3063 Pls
4056 3427 Pls
3507 2847 Pls
3965 3172 Pls
3890 2953 Pls
3433 2821 Pls
3930 3057 Pls
4150 3246 Pls
3685 2998 Pls
4028 3317 Pls
3907 2988 Pls
3731 2861 Pls
3879 3034 Pls
3512 2864 Pls
4032 3144 Pls
3902 3019 Pls
3735 2958 Pls
3831 2907 Pls
4058 3071 Pls
3961 3046 Pls
4003 3161 Pls
3786 3064 Pls
3837 2921 Pls
3846 3010 Pls
4059 3180 Pls
3892 2989 Pls
3769 2999 Pls
3721 3042 Pls
3953 3137 Pls
4050 3247 Pls
3767 3000 Pls
3655 2983 Pls
4047 3168 Pls
3671 3055 Pls
3841 2969 Pls
4081 3346 Pls
4172 3280 Pls
4044 3064 Pls
4264 3250 Pls
3840 3256 Pls
4026 3065 Pls
4166 3232 Pls
4064 3102 Pls
3886 3095 Pls
3898 3152 Pls
4094 3177 Pls
3961 3033 Pls
3745 3060 Pls
3798 3029 Pls
3830 3316 Pls
3806 3087 Pls
3578 2936 Pls
4236 3198 Pls
3817 3020 Pls
3966 2998 Pls
3856 3334 Pls
3956 3002 Pls
4147 3279 Pls
4061 3146 Pls
3958 3116 Pls
3968 3270 Pls
3929 3266 Pls
4056 3145 Pls
3836 2990 Pls
4158 3284 Pls
3759 3044 Pls
3962 3169 Pls
3720 2837 Pls
4138 3178 Pls
3818 3049 Pls
4165 3143 Pls
3832 2967 Pls
4062 3239 Pls
4026 3094 Pls
3893 3029 Pls
3838 3120 Pls
3728 2919 Pls
3645 2964 Pls
4063 3080 Pls
3828 2926 Pls
3457 2635 Pls
3718 3047 Pls
3505 2781 Pls
3824 3093 Pls
3777 3042 Pls
3929 3031 Pls
4035 3259 Pls
3763 3038 Pls
3854 3098 Pls
4048 3191 Pls
3843 3002 Pls
4117 3214 Pls
3179 3036 Pls
4016 3271 Pls
4029 3401 Pls
4013 3071 Pls
4227 3230 Pls
3687 3071 Pls
4052 3126 Pls
3560 2908 Pls
3977 3103 Pls
3697 2886 Pls
4017 3118 Pls
3967 3261 Pls
3537 2705 Pls
4012 3299 Pls
3962 3091 Pls
3811 2913 Pls
3913 3013 Pls
3904 3137 Pls
3811 2877 Pls
3766 2894 Pls
4198 3303 Pls
4208 3238 Pls
3810 2963 Pls
3985 3201 Pls
3909 2983 Pls
3972 3048 Pls
4156 3261 Pls
4085 3153 Pls
3959 3018 Pls
3478 2999 Pls
3766 2851 Pls
3971 3037 Pls
3970 3047 Pls
4127 3192 Pls
3517 2714 Pls
3867 2976 Pls
3879 3131 Pls
3865 3124 Pls
3525 2818 Pls
3793 2886 Pls
3650 3000 Pls
4041 3095 Pls
4099 3167 Pls
3963 3031 Pls
3696 2830 Pls
3962 3145 Pls
4161 3232 Pls
3785 2962 Pls
3895 2980 Pls
4034 3157 Pls
3644 2822 Pls
3587 2868 Pls
3980 3111 Pls
4166 3306 Pls
3933 3036 Pls
4019 3121 Pls
3882 3012 Pls
4139 3177 Pls
3295 2671 Pls
3432 2674 Pls
3975 3188 Pls
4059 3104 Pls
3833 3328 Pls
3771 3192 Pls
3815 3118 Pls
3800 2937 Pls
3858 3040 Pls
3740 3128 Pls
3700 2931 Pls
3978 3007 Pls
3935 3027 Pls
4058 3168 Pls
3903 3015 Pls
3825 3053 Pls
3911 3202 Pls
3979 3155 Pls
4054 3138 Pls
4023 3061 Pls
3725 2885 Pls
3724 2825 Pls
3626 3031 Pls
4257 3224 Pls
3859 2926 Pls
4052 3127 Pls
3757 2888 Pls
4027 3228 Pls
3736 2855 Pls
3889 3093 Pls
3884 3075 Pls
3575 2871 Pls
3870 3237 Pls
3839 3108 Pls
3499 2748 Pls
3775 2886 Pls
3501 3029 Pls
3478 2693 Pls
3803 3113 Pls
3772 2966 Pls
3878 3162 Pls
3932 3065 Pls
4137 3247 Pls
3820 3032 Pls
3828 2964 Pls
3853 3147 Pls
4015 3118 Pls
4015 3041 Pls
4053 3099 Pls
3727 2822 Pls
3972 3058 Pls
3961 3232 Pls
3327 2770 Pls
4278 3246 Pls
3794 2898 Pls
3824 3083 Pls
3613 2843 Pls
4064 3266 Pls
3499 2977 Pls
3898 2973 Pls
3942 2991 Pls
3860 2991 Pls
3711 2888 Pls
4107 3150 Pls
3979 3208 Pls
3939 3075 Pls
3553 2985 Pls
3973 3083 Pls
3807 3258 Pls
4126 3182 Pls
4047 3087 Pls
4109 3276 Pls
4167 3156 Pls
3761 3087 Pls
3853 3175 Pls
3842 3166 Pls
3676 2978 Pls
4045 3222 Pls
3734 2973 Pls
4158 3188 Pls
3816 3236 Pls
3904 3229 Pls
3707 2853 Pls
3847 2923 Pls
3415 2845 Pls
4045 3072 Pls
3603 3009 Pls
3907 3171 Pls
3583 2787 Pls
3833 3056 Pls
4158 3353 Pls
3434 2866 Pls
3832 2983 Pls
4069 3313 Pls
3823 2941 Pls
3958 3011 Pls
4283 3374 Pls
3981 3070 Pls
3323 2795 Pls
3642 2986 Pls
3900 3079 Pls
3689 2860 Pls
3823 2996 Pls
3752 2867 Pls
3607 2773 Pls
3940 3146 Pls
3800 2908 Pls
3672 2939 Pls
4066 3177 Pls
3943 3232 Pls
4052 3256 Pls
3953 3199 Pls
3929 3171 Pls
3870 2951 Pls
4232 3209 Pls
3695 2975 Pls
3839 3079 Pls
3892 3013 Pls
3804 2933 Pls
3930 3261 Pls
3810 3125 Pls
4059 3189 Pls
3635 2924 Pls
4074 3147 Pls
3841 3054 Pls
3181 2617 Pls
3790 3104 Pls
3445 2779 Pls
3726 2813 Pls
4051 3094 Pls
3290 2795 Pls
3741 2949 Pls
3840 3058 Pls
3558 2873 Pls
3590 3041 Pls
3941 3118 Pls
4105 3259 Pls
3725 2952 Pls
3832 2917 Pls
4165 3226 Pls
4051 3115 Pls
3808 3008 Pls
4167 3232 Pls
3836 2941 Pls
3725 2840 Pls
4318 3293 Pls
3778 2938 Pls
3699 3023 Pls
3647 3035 Pls
3965 2998 Pls
4065 3186 Pls
3644 3059 Pls
3473 2792 Pls
4135 3230 Pls
3829 3042 Pls
3707 2965 Pls
3739 3176 Pls
4137 3181 Pls
3440 2864 Pls
2880 2697 Pls
3856 3247 Pls
4083 3278 Pls
4116 3209 Pls
3770 3119 Pls
3806 3004 Pls
3877 2930 Pls
2946 2438 Pls
3791 2889 Pls
3790 2925 Pls
3683 2857 Pls
3782 2867 Pls
3797 2934 Pls
4115 3152 Pls
3899 3119 Pls
3839 3039 Pls
3623 2873 Pls
3831 3012 Pls
3584 3198 Pls
3976 3293 Pls
3771 3061 Pls
3898 2975 Pls
3753 3035 Pls
3885 3118 Pls
3997 3106 Pls
3874 3145 Pls
3574 2740 Pls
4105 3105 Pls
4008 3122 Pls
3911 3053 Pls
3895 3133 Pls
3975 3171 Pls
3775 2996 Pls
4143 3166 Pls
3893 2989 Pls
4065 3115 Pls
4164 3148 Pls
3964 3132 Pls
3885 2972 Pls
4070 3099 Pls
3671 2991 Pls
3823 2974 Pls
4063 3161 Pls
3908 3100 Pls
3859 2941 Pls
4056 3110 Pls
3773 2882 Pls
4023 3049 Pls
3732 2945 Pls
3911 2986 Pls
4094 3111 Pls
4147 3234 Pls
3908 3137 Pls
3749 2974 Pls
3758 2962 Pls
3715 2868 Pls
4093 3131 Pls
3596 3001 Pls
3598 3097 Pls
4127 3256 Pls
3995 3033 Pls
4258 3267 Pls
4005 3128 Pls
4021 3087 Pls
3430 2880 Pls
3953 3006 Pls
4012 3184 Pls
3382 2667 Pls
3896 3091 Pls
3678 2801 Pls
3937 3035 Pls
4165 3208 Pls
3875 3032 Pls
3961 3277 Pls
3708 2959 Pls
3672 2881 Pls
3774 2986 Pls
3636 2887 Pls
4052 3277 Pls
4061 3132 Pls
3626 3008 Pls
3893 2989 Pls
4066 3163 Pls
3797 3133 Pls
3781 2920 Pls
3605 3189 Pls
3736 2940 Pls
3831 3050 Pls
3806 3100 Pls
4012 3175 Pls
3792 2880 Pls
3971 3089 Pls
3906 2957 Pls
4021 3045 Pls
3973 3205 Pls
4116 3112 Pls
3918 3008 Pls
3887 2962 Pls
3805 3015 Pls
4035 3392 Pls
4038 3070 Pls
3659 2948 Pls
3663 2880 Pls
3974 3045 Pls
3968 3244 Pls
3898 3054 Pls
3833 2912 Pls
3688 2860 Pls
3576 2910 Pls
4238 3204 Pls
3583 2784 Pls
3872 3036 Pls
4256 3229 Pls
3632 2829 Pls
4137 3215 Pls
3743 3076 Pls
3974 3107 Pls
3425 2993 Pls
3454 2684 Pls
3763 3204 Pls
3939 3042 Pls
3632 3023 Pls
3693 3064 Pls
3771 2947 Pls
4049 3105 Pls
4164 3302 Pls
3676 2857 Pls
4061 3102 Pls
3785 2937 Pls
3786 3082 Pls
3492 2863 Pls
3635 2805 Pls
3723 3119 Pls
3907 3204 Pls
4080 3081 Pls
3959 3190 Pls
4042 3054 Pls
3779 2936 Pls
3832 2913 Pls
3881 3199 Pls
3910 3008 Pls
3907 3146 Pls
3442 3165 Pls
3474 2860 Pls
3904 2976 Pls
3607 2914 Pls
3744 2935 Pls
3898 3102 Pls
3844 3140 Pls
% End plot #1
% Begin plot #2
0.500 UP
0.500 UL
LTb
0.73 0.85 0.33 C 4447 3128 Crs
4063 3014 Crs
4679 3195 Crs
3982 2714 Crs
4132 2804 Crs
3895 2932 Crs
4052 2785 Crs
3624 2530 Crs
4475 3231 Crs
3959 2809 Crs
4290 3109 Crs
4224 3185 Crs
4024 3013 Crs
3780 2705 Crs
3806 2674 Crs
3898 2848 Crs
4067 2947 Crs
4433 3025 Crs
3923 2944 Crs
4290 2998 Crs
3961 2873 Crs
4285 3197 Crs
3968 2748 Crs
4039 2777 Crs
4228 3159 Crs
3998 2762 Crs
4019 2854 Crs
4106 3093 Crs
4023 3002 Crs
3966 2844 Crs
4026 2875 Crs
4162 3007 Crs
3722 2717 Crs
4250 2863 Crs
3983 2800 Crs
4289 3054 Crs
3804 2725 Crs
3868 2909 Crs
4255 3143 Crs
4449 3030 Crs
4190 2953 Crs
3665 2630 Crs
3896 2876 Crs
4295 3122 Crs
4164 2964 Crs
3552 2653 Crs
4263 2919 Crs
4381 2871 Crs
4024 3015 Crs
4020 2927 Crs
4654 3283 Crs
4285 3152 Crs
3582 2606 Crs
4384 2977 Crs
4248 3091 Crs
3900 2811 Crs
3872 2903 Crs
4057 2998 Crs
3457 2589 Crs
4167 3140 Crs
4040 2788 Crs
3984 2802 Crs
3937 2904 Crs
3977 2920 Crs
4392 3265 Crs
4451 3229 Crs
4056 2850 Crs
3651 2625 Crs
3680 2738 Crs
3982 2956 Crs
3734 2763 Crs
4208 2819 Crs
4057 2986 Crs
3870 2880 Crs
3982 2911 Crs
4679 3273 Crs
4274 3208 Crs
4099 2981 Crs
4200 2843 Crs
3819 2484 Crs
4031 2992 Crs
4115 3004 Crs
4046 3046 Crs
4121 2996 Crs
4143 2577 Crs
4275 3085 Crs
3677 2659 Crs
4169 2822 Crs
4064 3040 Crs
3893 2771 Crs
4044 2992 Crs
4565 3366 Crs
3863 2720 Crs
4183 2789 Crs
4066 2887 Crs
3930 2844 Crs
4146 3116 Crs
4235 3167 Crs
4058 2908 Crs
3905 2881 Crs
4407 3131 Crs
3779 2839 Crs
3646 2538 Crs
3725 2756 Crs
4065 2883 Crs
3774 2702 Crs
4288 3036 Crs
3607 2685 Crs
4386 3212 Crs
3840 2730 Crs
4024 2868 Crs
3741 2446 Crs
4161 3014 Crs
4064 3031 Crs
3558 2531 Crs
4129 2771 Crs
4294 3075 Crs
4082 3036 Crs
4044 3034 Crs
4169 3069 Crs
3933 2778 Crs
4014 2919 Crs
4286 3051 Crs
4125 3023 Crs
4064 2762 Crs
4296 2937 Crs
4252 2856 Crs
4160 2949 Crs
4294 2765 Crs
4168 2894 Crs
4164 3005 Crs
3904 2928 Crs
3878 2726 Crs
3918 2912 Crs
4456 3224 Crs
4311 3179 Crs
4283 2909 Crs
4146 2867 Crs
3892 2594 Crs
3840 2768 Crs
4290 3161 Crs
3879 2764 Crs
3969 2816 Crs
4148 2908 Crs
4292 2918 Crs
4247 3147 Crs
4121 2892 Crs
3837 2856 Crs
4216 2919 Crs
3721 2702 Crs
4012 2960 Crs
4138 3090 Crs
3910 2791 Crs
4471 2826 Crs
3583 2460 Crs
4112 3101 Crs
3506 2464 Crs
4172 2933 Crs
3956 2782 Crs
4170 3040 Crs
3895 2777 Crs
4454 3114 Crs
4022 2884 Crs
4241 2850 Crs
4453 3246 Crs
4161 3004 Crs
4229 3055 Crs
4161 3127 Crs
4084 2948 Crs
4289 3107 Crs
3965 2928 Crs
3948 2794 Crs
4203 3045 Crs
3685 2592 Crs
3616 2698 Crs
4146 2892 Crs
3675 2678 Crs
4156 3101 Crs
4392 3070 Crs
3883 2853 Crs
3868 2917 Crs
3980 2693 Crs
3744 2822 Crs
3896 2844 Crs
4240 3094 Crs
4056 2969 Crs
3767 2831 Crs
4161 2951 Crs
4549 3194 Crs
4266 3107 Crs
4591 3328 Crs
3980 2804 Crs
3967 2878 Crs
4067 2981 Crs
4061 2892 Crs
4038 2931 Crs
4362 2878 Crs
4442 3069 Crs
3817 2863 Crs
4141 3080 Crs
3864 2784 Crs
4099 2970 Crs
4158 3124 Crs
4111 3046 Crs
4154 2931 Crs
4251 3152 Crs
3977 2977 Crs
3956 2820 Crs
3960 2971 Crs
4080 3047 Crs
4090 2815 Crs
3724 2651 Crs
4236 2882 Crs
3827 2418 Crs
3977 2906 Crs
4125 2910 Crs
3868 2834 Crs
4289 3173 Crs
3961 2771 Crs
3810 2646 Crs
4158 3020 Crs
3939 2782 Crs
4446 2931 Crs
4289 3014 Crs
4063 2769 Crs
4163 3004 Crs
4164 2905 Crs
3983 2946 Crs
3962 2841 Crs
4673 3282 Crs
4206 3128 Crs
4377 3294 Crs
4137 3100 Crs
3980 2956 Crs
4163 3138 Crs
3932 2893 Crs
4126 3050 Crs
3953 2976 Crs
4441 2851 Crs
4014 2997 Crs
4430 3092 Crs
4137 2731 Crs
4065 2963 Crs
4285 2812 Crs
3970 2753 Crs
4288 3009 Crs
4194 2857 Crs
3960 2944 Crs
3901 2871 Crs
4165 3028 Crs
4427 3172 Crs
4249 2971 Crs
4047 3010 Crs
4564 3179 Crs
4127 2998 Crs
3980 2986 Crs
3811 2870 Crs
4150 3107 Crs
3881 2723 Crs
3805 2864 Crs
3952 2760 Crs
4454 3206 Crs
3748 2730 Crs
4304 2854 Crs
3884 2792 Crs
4286 3208 Crs
4396 2735 Crs
4363 2905 Crs
4158 3039 Crs
4384 3274 Crs
3526 2570 Crs
3958 2852 Crs
4171 2910 Crs
4145 2840 Crs
4069 3037 Crs
4164 3077 Crs
4049 3039 Crs
4069 2995 Crs
4165 2892 Crs
4045 2945 Crs
4393 2985 Crs
4000 2867 Crs
4292 2978 Crs
4035 2979 Crs
4289 2743 Crs
4241 3015 Crs
4163 3056 Crs
3977 2974 Crs
3964 2774 Crs
4446 3120 Crs
4202 2987 Crs
4064 2613 Crs
4247 2865 Crs
4054 2846 Crs
4325 3145 Crs
4017 2840 Crs
4218 2939 Crs
4268 2924 Crs
4106 2743 Crs
4218 2987 Crs
4097 2692 Crs
4109 3040 Crs
4156 2960 Crs
4096 2945 Crs
4202 2679 Crs
4124 2940 Crs
4057 2806 Crs
3901 2936 Crs
4243 3003 Crs
4256 3185 Crs
3883 2661 Crs
3924 2939 Crs
4425 3214 Crs
4021 2825 Crs
4314 3122 Crs
4451 3126 Crs
3782 2806 Crs
4223 3130 Crs
3948 2948 Crs
4031 3038 Crs
4068 3015 Crs
3767 2662 Crs
4154 3104 Crs
4169 3070 Crs
4309 2876 Crs
3938 2841 Crs
4163 3136 Crs
3951 2930 Crs
4283 3196 Crs
4448 3067 Crs
3905 2843 Crs
3750 2699 Crs
4056 3035 Crs
4284 3091 Crs
4274 3090 Crs
4226 3162 Crs
4287 3090 Crs
4175 3093 Crs
3980 2946 Crs
3855 2802 Crs
3732 2499 Crs
4468 3302 Crs
4016 2886 Crs
3519 2560 Crs
4423 2955 Crs
3592 2691 Crs
3897 2783 Crs
4256 3132 Crs
4064 2976 Crs
4179 3092 Crs
3519 2411 Crs
4024 2931 Crs
3830 2526 Crs
4136 3107 Crs
3862 2865 Crs
4128 2853 Crs
4653 3195 Crs
3700 2568 Crs
4253 3180 Crs
4062 3024 Crs
4261 2978 Crs
3884 2909 Crs
4033 3027 Crs
4292 3129 Crs
4197 3129 Crs
4154 2906 Crs
4043 2964 Crs
4412 3234 Crs
4056 3049 Crs
4062 2915 Crs
4199 3053 Crs
4080 2923 Crs
3880 2814 Crs
4013 2909 Crs
4063 2846 Crs
3962 2803 Crs
4119 2984 Crs
4216 3143 Crs
4164 3072 Crs
4163 2864 Crs
3684 2585 Crs
3903 2885 Crs
4280 3195 Crs
3876 2823 Crs
4246 3123 Crs
3881 2826 Crs
3891 2916 Crs
4151 2931 Crs
4082 3004 Crs
4062 2965 Crs
3730 2722 Crs
3765 2813 Crs
4012 2842 Crs
4337 2869 Crs
3898 2921 Crs
3960 2770 Crs
4068 2897 Crs
3646 2735 Crs
4102 3009 Crs
3839 2681 Crs
4070 2894 Crs
4439 3189 Crs
3716 2491 Crs
4130 3002 Crs
4095 2989 Crs
3972 2902 Crs
4132 3065 Crs
3851 2861 Crs
4495 3081 Crs
3861 2869 Crs
4442 3265 Crs
4162 2953 Crs
4167 2889 Crs
4254 3167 Crs
4288 2766 Crs
4679 3263 Crs
4452 2964 Crs
4052 2845 Crs
4142 3011 Crs
4167 2996 Crs
3543 2669 Crs
3784 2767 Crs
4050 2972 Crs
4140 2816 Crs
3783 2780 Crs
3810 2826 Crs
4040 2862 Crs
4248 3006 Crs
4167 2929 Crs
4450 3171 Crs
3772 2799 Crs
4058 2838 Crs
3937 2806 Crs
4289 3087 Crs
4283 3097 Crs
4291 3146 Crs
3724 2717 Crs
4098 2996 Crs
4282 2825 Crs
3710 2793 Crs
4447 2984 Crs
4140 3102 Crs
3903 2737 Crs
4380 3070 Crs
4064 2714 Crs
4679 3070 Crs
4292 2967 Crs
4100 3052 Crs
3961 2950 Crs
3961 2956 Crs
3626 2646 Crs
3829 2876 Crs
3727 2605 Crs
4448 2903 Crs
4156 2897 Crs
4419 3283 Crs
4289 3192 Crs
4255 2734 Crs
4034 2905 Crs
3897 2826 Crs
4548 3171 Crs
4043 3021 Crs
4011 2754 Crs
4144 3104 Crs
4166 2998 Crs
4163 2951 Crs
4123 2799 Crs
4048 2830 Crs
4075 2700 Crs
4089 2764 Crs
4065 3017 Crs
4066 2955 Crs
4212 2976 Crs
4228 3083 Crs
3856 2857 Crs
3851 2847 Crs
4167 3038 Crs
4040 3010 Crs
4054 2923 Crs
4159 2895 Crs
3631 2628 Crs
3873 2653 Crs
4163 3036 Crs
4064 2759 Crs
4044 2999 Crs
3978 2886 Crs
4063 3007 Crs
4372 3002 Crs
3906 2785 Crs
4060 3062 Crs
3885 2870 Crs
3959 2933 Crs
4083 3064 Crs
4291 3072 Crs
4282 3175 Crs
4161 2899 Crs
4106 2693 Crs
4281 3096 Crs
3775 2838 Crs
4284 3069 Crs
3902 2895 Crs
3896 2809 Crs
3935 2889 Crs
4133 2905 Crs
4240 3059 Crs
4429 3139 Crs
4238 3012 Crs
3804 2777 Crs
3823 2822 Crs
4202 3124 Crs
3975 2796 Crs
4161 3130 Crs
3982 2990 Crs
4065 2843 Crs
4044 2876 Crs
3833 2862 Crs
4235 3091 Crs
4148 3045 Crs
4133 2993 Crs
4028 2967 Crs
4056 3004 Crs
3842 2700 Crs
3874 2734 Crs
3926 2735 Crs
3897 2906 Crs
3976 2944 Crs
3977 2703 Crs
4159 3000 Crs
3836 2694 Crs
3732 2795 Crs
3302 2431 Crs
3981 2975 Crs
4452 2835 Crs
3856 2772 Crs
3842 2774 Crs
4117 2961 Crs
4052 2900 Crs
3626 2630 Crs
3831 2832 Crs
4054 2917 Crs
3724 2705 Crs
4034 2978 Crs
4086 3011 Crs
3978 2960 Crs
3981 2963 Crs
4056 3052 Crs
4062 2822 Crs
3967 2904 Crs
4099 2988 Crs
3938 2772 Crs
4679 3370 Crs
3993 2842 Crs
4393 3195 Crs
4008 2986 Crs
3768 2818 Crs
3703 2591 Crs
4164 2880 Crs
4264 2881 Crs
3804 2675 Crs
3987 2826 Crs
3909 2886 Crs
3811 2745 Crs
4039 3032 Crs
3824 2776 Crs
4066 2783 Crs
3964 2978 Crs
3901 2712 Crs
4161 3079 Crs
4066 2915 Crs
4294 3096 Crs
4292 3105 Crs
4065 2964 Crs
4289 3036 Crs
4450 2981 Crs
3980 2822 Crs
3859 2793 Crs
4224 3018 Crs
4145 2884 Crs
4253 3048 Crs
4159 3001 Crs
4118 2999 Crs
3642 2588 Crs
4443 3154 Crs
3691 2628 Crs
4043 2792 Crs
4057 2774 Crs
3882 2796 Crs
3976 2908 Crs
4090 2966 Crs
4035 2503 Crs
4286 3011 Crs
4290 3118 Crs
3866 2634 Crs
3902 2878 Crs
3730 2740 Crs
4327 3248 Crs
4125 3072 Crs
4028 3020 Crs
4449 3178 Crs
3978 2977 Crs
4393 3147 Crs
4469 2989 Crs
4436 3280 Crs
4063 2946 Crs
3935 2800 Crs
4292 3053 Crs
4149 3010 Crs
3947 2868 Crs
4038 2779 Crs
3543 2523 Crs
4041 3000 Crs
4578 3077 Crs
4409 3008 Crs
4382 2812 Crs
4668 3087 Crs
4158 3105 Crs
4022 2948 Crs
4381 3118 Crs
4214 2942 Crs
3979 2856 Crs
3695 2646 Crs
3849 2840 Crs
4127 2996 Crs
4164 2894 Crs
4015 2938 Crs
4156 2978 Crs
4284 3134 Crs
4062 3052 Crs
4451 3016 Crs
3839 2834 Crs
3573 2690 Crs
4059 2998 Crs
4033 2879 Crs
4447 3325 Crs
3951 2970 Crs
4134 3019 Crs
4191 2916 Crs
4169 3045 Crs
4022 2861 Crs
3966 2948 Crs
3871 2850 Crs
3751 2762 Crs
4198 3147 Crs
3952 2847 Crs
4060 3000 Crs
3748 2683 Crs
4187 3053 Crs
4141 2974 Crs
4383 3236 Crs
4389 3230 Crs
3984 2934 Crs
4061 2958 Crs
3650 2637 Crs
4449 3260 Crs
3885 2864 Crs
4130 3114 Crs
4260 2455 Crs
3918 2755 Crs
3677 2626 Crs
4289 3191 Crs
4361 2973 Crs
4055 2828 Crs
3927 2731 Crs
4385 3081 Crs
3960 2868 Crs
4144 3046 Crs
3801 2863 Crs
4370 2957 Crs
4388 3211 Crs
4450 3254 Crs
3693 2620 Crs
3903 2821 Crs
3898 2919 Crs
3828 2795 Crs
4042 2734 Crs
4146 3021 Crs
4256 2990 Crs
4238 2929 Crs
4134 3016 Crs
4239 3131 Crs
4065 3064 Crs
4268 2933 Crs
3809 2697 Crs
3959 2829 Crs
3955 2979 Crs
3738 2791 Crs
4066 3065 Crs
4139 2968 Crs
4376 3187 Crs
4063 3034 Crs
3968 2834 Crs
3944 2925 Crs
4013 2903 Crs
4290 3039 Crs
3755 2710 Crs
4427 3189 Crs
3801 2681 Crs
3901 2909 Crs
3615 2450 Crs
3982 2654 Crs
3913 2612 Crs
4013 2900 Crs
4029 2712 Crs
4037 2854 Crs
3895 2934 Crs
3607 2690 Crs
4415 3204 Crs
4027 2908 Crs
4449 3123 Crs
4066 2792 Crs
4220 3166 Crs
4255 3191 Crs
3882 2901 Crs
4278 2968 Crs
3948 2925 Crs
4437 3244 Crs
3874 2898 Crs
4242 2891 Crs
3975 2947 Crs
3819 2725 Crs
3643 2708 Crs
4000 2942 Crs
4156 2961 Crs
3972 2768 Crs
4234 2883 Crs
4044 2648 Crs
4061 3008 Crs
3758 2678 Crs
3896 2796 Crs
3889 2823 Crs
4144 2922 Crs
4123 2852 Crs
3933 2885 Crs
3993 2877 Crs
4311 3183 Crs
4061 2699 Crs
4083 2989 Crs
4037 3043 Crs
4164 3061 Crs
4052 2842 Crs
4216 2757 Crs
3970 2782 Crs
4119 3028 Crs
4159 2923 Crs
4064 3000 Crs
4542 3389 Crs
3972 2699 Crs
4096 2755 Crs
3963 2989 Crs
4124 2961 Crs
4164 3081 Crs
4168 2929 Crs
4112 3097 Crs
4281 3088 Crs
3697 2781 Crs
3980 2872 Crs
4093 3004 Crs
4137 3069 Crs
4156 3128 Crs
4278 2977 Crs
4295 3224 Crs
4475 3150 Crs
4096 2678 Crs
4062 3005 Crs
4290 3042 Crs
4268 2944 Crs
4009 2794 Crs
3952 2928 Crs
3831 2853 Crs
4447 3167 Crs
4252 3141 Crs
4372 2939 Crs
3963 2743 Crs
4250 3020 Crs
3943 2803 Crs
4143 2754 Crs
3708 2720 Crs
4281 3149 Crs
3853 2847 Crs
4282 2797 Crs
4449 3197 Crs
4395 2959 Crs
4025 2910 Crs
4229 3173 Crs
3838 2833 Crs
3984 2917 Crs
3779 2796 Crs
3961 2877 Crs
4068 3047 Crs
4154 3075 Crs
4286 2951 Crs
3704 2608 Crs
4068 2664 Crs
4170 3128 Crs
3837 2711 Crs
3726 2602 Crs
3907 2788 Crs
3994 2763 Crs
4418 3147 Crs
4164 2963 Crs
3707 2516 Crs
3980 2736 Crs
3710 2793 Crs
4263 2779 Crs
4450 3172 Crs
4154 2904 Crs
3926 2830 Crs
3917 2875 Crs
3884 2891 Crs
3971 2875 Crs
4169 2945 Crs
4387 3049 Crs
4279 3044 Crs
4559 3149 Crs
4021 2674 Crs
4163 3043 Crs
4061 3053 Crs
3606 2606 Crs
4134 3097 Crs
4035 2959 Crs
3970 2970 Crs
4679 3240 Crs
3890 2778 Crs
4035 2863 Crs
3917 2773 Crs
3898 2730 Crs
3993 2793 Crs
3983 2899 Crs
4289 2950 Crs
3897 2709 Crs
4167 3041 Crs
3762 2831 Crs
4217 3048 Crs
4279 2993 Crs
3952 2829 Crs
4167 2975 Crs
4266 3032 Crs
4447 2965 Crs
3801 2741 Crs
3939 2952 Crs
4066 3061 Crs
3969 2610 Crs
4117 3017 Crs
4313 3236 Crs
3874 2808 Crs
4565 3170 Crs
4453 3033 Crs
4458 3087 Crs
3984 2968 Crs
3990 2642 Crs
3940 2944 Crs
4381 3126 Crs
3799 2844 Crs
4112 2847 Crs
4076 2974 Crs
4254 3163 Crs
4293 2946 Crs
4649 3191 Crs
4047 2997 Crs
4099 2927 Crs
4291 2930 Crs
3903 2903 Crs
3892 2775 Crs
3843 2722 Crs
4285 3183 Crs
4162 3022 Crs
4383 3017 Crs
4164 3006 Crs
3975 2828 Crs
4383 2813 Crs
4017 2736 Crs
3969 2907 Crs
4386 3031 Crs
3865 2903 Crs
3902 2862 Crs
3839 2760 Crs
4061 2954 Crs
3586 2596 Crs
3614 2572 Crs
4679 3374 Crs
4067 2841 Crs
4041 2933 Crs
3832 2889 Crs
3882 2902 Crs
4202 3159 Crs
4284 3109 Crs
4249 2783 Crs
3761 2763 Crs
3959 2818 Crs
3857 2878 Crs
3913 2935 Crs
3732 2762 Crs
4291 3101 Crs
4377 3279 Crs
3979 2770 Crs
3790 2593 Crs
3985 2819 Crs
3740 2732 Crs
3864 2843 Crs
4246 3144 Crs
3982 2772 Crs
3789 2699 Crs
4447 3145 Crs
4252 2913 Crs
4166 3026 Crs
4283 3080 Crs
4129 3026 Crs
4171 2993 Crs
3892 2624 Crs
4148 2963 Crs
4052 2931 Crs
4450 2883 Crs
4050 2969 Crs
3952 2913 Crs
4161 3048 Crs
4043 2703 Crs
3683 2678 Crs
4273 3185 Crs
4294 3041 Crs
4291 3201 Crs
3750 2731 Crs
4451 3168 Crs
4038 2973 Crs
4164 3014 Crs
4672 2978 Crs
3985 2891 Crs
3893 2820 Crs
4067 2720 Crs
4169 2988 Crs
3801 2787 Crs
3968 2785 Crs
4252 2870 Crs
4162 3134 Crs
4440 3006 Crs
4165 3034 Crs
4166 3035 Crs
3540 2646 Crs
3872 2777 Crs
4186 3014 Crs
4170 3026 Crs
3809 2784 Crs
4065 3053 Crs
4377 3130 Crs
4171 2956 Crs
3884 2843 Crs
4096 2974 Crs
4441 3270 Crs
3689 2374 Crs
4064 2995 Crs
4339 3162 Crs
3944 2951 Crs
3968 2936 Crs
4166 3131 Crs
3821 2653 Crs
3873 2455 Crs
4142 3120 Crs
4151 2911 Crs
4098 2935 Crs
3753 2795 Crs
4102 2844 Crs
3955 2688 Crs
4126 2925 Crs
4126 3061 Crs
4157 3107 Crs
3977 2844 Crs
3841 2558 Crs
4162 2854 Crs
4228 2831 Crs
4161 3005 Crs
3582 2421 Crs
3849 2859 Crs
4241 3009 Crs
4061 2933 Crs
4105 2918 Crs
3908 2879 Crs
4060 3038 Crs
4405 3023 Crs
4167 3028 Crs
3772 2605 Crs
3673 2764 Crs
4449 3294 Crs
3973 2506 Crs
3881 2613 Crs
3982 2957 Crs
4437 3199 Crs
3578 2666 Crs
4288 3227 Crs
3970 2971 Crs
4065 3064 Crs
4678 3030 Crs
3727 2787 Crs
4092 2785 Crs
3889 2802 Crs
4161 2890 Crs
4396 3052 Crs
3904 2822 Crs
4286 3092 Crs
3893 2880 Crs
3901 2799 Crs
4258 2968 Crs
3733 2711 Crs
4014 2909 Crs
4271 3161 Crs
4156 2960 Crs
4110 3075 Crs
4280 3189 Crs
4153 2921 Crs
4255 3028 Crs
3933 2920 Crs
4046 3029 Crs
3968 2865 Crs
4446 3305 Crs
3637 2698 Crs
4135 3077 Crs
3898 2937 Crs
4017 3008 Crs
4047 2950 Crs
4285 3107 Crs
3902 2892 Crs
4110 2582 Crs
4450 3265 Crs
4159 2947 Crs
4066 3036 Crs
3877 2817 Crs
3795 2669 Crs
4442 2976 Crs
3973 2955 Crs
4573 3072 Crs
3891 2690 Crs
4056 2997 Crs
4291 2966 Crs
4070 2930 Crs
4068 2999 Crs
3972 2860 Crs
3827 2694 Crs
4066 2987 Crs
3956 2789 Crs
4061 2849 Crs
4089 3019 Crs
3896 2801 Crs
4452 3153 Crs
4011 2951 Crs
4229 2723 Crs
4138 3078 Crs
4169 3041 Crs
4293 3131 Crs
3701 2787 Crs
4041 2992 Crs
4172 3028 Crs
4148 3033 Crs
3892 2821 Crs
3980 2854 Crs
3728 2747 Crs
4191 3116 Crs
3902 2665 Crs
4449 2859 Crs
4284 3050 Crs
4059 2901 Crs
4174 3083 Crs
3769 2820 Crs
3966 2802 Crs
4060 2705 Crs
4256 2967 Crs
4289 3057 Crs
3783 2814 Crs
4292 3035 Crs
3575 2695 Crs
4068 2895 Crs
3928 2823 Crs
4209 2884 Crs
4117 2866 Crs
3699 2669 Crs
3949 2972 Crs
4062 2870 Crs
4166 2968 Crs
4656 3221 Crs
3932 2962 Crs
3562 2599 Crs
4107 2752 Crs
4383 2930 Crs
4252 3162 Crs
3993 2851 Crs
4129 2907 Crs
4395 2991 Crs
3865 2646 Crs
4119 2950 Crs
4434 3059 Crs
3958 2827 Crs
4023 2999 Crs
3963 2931 Crs
4390 3038 Crs
3472 2602 Crs
4450 2947 Crs
4165 2908 Crs
3958 2861 Crs
3976 2839 Crs
4305 2844 Crs
4664 3129 Crs
4168 3063 Crs
3961 2824 Crs
4195 2958 Crs
4358 3237 Crs
4550 3238 Crs
3979 2819 Crs
4016 2990 Crs
4066 2762 Crs
4048 2780 Crs
4101 3064 Crs
3842 2755 Crs
3846 2654 Crs
4679 3125 Crs
4149 3029 Crs
3812 2745 Crs
3760 2807 Crs
4310 3205 Crs
3925 2666 Crs
3969 2961 Crs
4102 2997 Crs
3862 2792 Crs
3974 2729 Crs
3891 2464 Crs
4679 3077 Crs
4158 3015 Crs
3937 2921 Crs
4004 3012 Crs
4183 3138 Crs
4158 2764 Crs
4268 3139 Crs
4195 2887 Crs
3907 2860 Crs
4449 3148 Crs
4130 2970 Crs
4289 3074 Crs
4042 3034 Crs
3792 2585 Crs
4056 2891 Crs
4270 3200 Crs
3910 2916 Crs
3958 2815 Crs
3978 2813 Crs
3805 2832 Crs
3859 2708 Crs
3710 2795 Crs
3981 2975 Crs
4165 3083 Crs
4663 3185 Crs
3747 2585 Crs
4113 2921 Crs
4441 3203 Crs
4033 2950 Crs
4106 3040 Crs
4245 3026 Crs
4064 3001 Crs
3833 2764 Crs
3880 2909 Crs
4051 2816 Crs
3858 2758 Crs
4052 2919 Crs
4253 2858 Crs
4437 2765 Crs
4292 3058 Crs
3702 2637 Crs
3882 2674 Crs
4033 2980 Crs
4235 2781 Crs
4377 3064 Crs
3888 2689 Crs
3723 2661 Crs
4295 3058 Crs
4165 2773 Crs
4432 3179 Crs
3907 2853 Crs
4057 2967 Crs
4245 3137 Crs
3839 2812 Crs
4133 3035 Crs
4151 2977 Crs
4576 3294 Crs
4055 2994 Crs
4269 2965 Crs
4250 3171 Crs
3972 2908 Crs
4056 2987 Crs
3785 2825 Crs
3736 2754 Crs
4274 3004 Crs
4211 3143 Crs
3899 2789 Crs
3956 2884 Crs
4066 3002 Crs
3953 2946 Crs
4299 3104 Crs
4194 2869 Crs
4322 3081 Crs
4156 2894 Crs
3828 2863 Crs
4033 2780 Crs
3752 2463 Crs
3916 2836 Crs
4006 2852 Crs
4053 3021 Crs
3917 2893 Crs
3862 2893 Crs
4437 3277 Crs
4265 3216 Crs
3875 2697 Crs
4124 3011 Crs
4005 2659 Crs
3873 2915 Crs
4276 2704 Crs
3731 2554 Crs
4227 2950 Crs
3875 2754 Crs
4054 2994 Crs
3958 2936 Crs
4047 2777 Crs
3766 2772 Crs
3947 2956 Crs
3993 2928 Crs
4056 2915 Crs
4132 2727 Crs
4258 3030 Crs
4054 3016 Crs
3946 2953 Crs
3855 2726 Crs
3518 2572 Crs
4255 2820 Crs
3972 2937 Crs
4127 2959 Crs
4148 3079 Crs
4071 2904 Crs
4067 3019 Crs
3879 2823 Crs
4164 3118 Crs
4099 2779 Crs
4205 2941 Crs
4317 2895 Crs
3684 2726 Crs
4074 3044 Crs
3824 2846 Crs
3961 2943 Crs
3834 2833 Crs
4041 3023 Crs
4053 2786 Crs
4252 3196 Crs
3652 2638 Crs
4288 3016 Crs
4149 2811 Crs
4045 2841 Crs
4258 3028 Crs
4066 3005 Crs
4291 3199 Crs
3715 2682 Crs
3942 2842 Crs
4183 3100 Crs
4374 3228 Crs
3974 2678 Crs
4061 2998 Crs
4164 3036 Crs
3863 2836 Crs
3821 2860 Crs
4436 3106 Crs
4146 3113 Crs
4127 2650 Crs
4063 3058 Crs
4248 3148 Crs
4252 3176 Crs
4443 3111 Crs
4168 3111 Crs
3953 2981 Crs
4070 3049 Crs
3966 2937 Crs
3585 2667 Crs
4196 3018 Crs
4027 3000 Crs
3579 2396 Crs
3545 2571 Crs
3961 2983 Crs
3731 2743 Crs
4060 2914 Crs
4062 3047 Crs
3816 2735 Crs
4018 2932 Crs
4285 2987 Crs
4089 3071 Crs
3903 2805 Crs
4042 3048 Crs
3975 2995 Crs
4453 3307 Crs
4057 2984 Crs
4156 3117 Crs
3987 2936 Crs
3912 2735 Crs
4248 3023 Crs
4035 2939 Crs
3774 2836 Crs
4572 3207 Crs
4183 2915 Crs
3648 2693 Crs
3945 2617 Crs
3785 2775 Crs
4395 2835 Crs
3887 2821 Crs
4325 3106 Crs
4306 2871 Crs
3769 2749 Crs
3707 2628 Crs
3797 2856 Crs
4274 2896 Crs
4673 3019 Crs
4158 2827 Crs
3899 2885 Crs
4044 2939 Crs
4256 3006 Crs
4104 2998 Crs
4671 3211 Crs
4165 3119 Crs
4212 3042 Crs
4233 3128 Crs
4239 3085 Crs
4388 3206 Crs
3579 2567 Crs
4229 3034 Crs
3984 2783 Crs
4160 3070 Crs
4266 2977 Crs
4473 2938 Crs
4419 3327 Crs
4261 3193 Crs
4026 2854 Crs
4053 2926 Crs
4362 3123 Crs
4675 3236 Crs
4288 3017 Crs
3483 2619 Crs
4679 3156 Crs
4148 2998 Crs
4282 2935 Crs
3983 2917 Crs
4159 2894 Crs
4106 2960 Crs
4032 2649 Crs
4019 2966 Crs
4292 3023 Crs
4381 3045 Crs
3950 2916 Crs
4675 3035 Crs
4388 3012 Crs
3848 2588 Crs
3980 2872 Crs
3977 2735 Crs
3832 2667 Crs
3989 2925 Crs
4040 2985 Crs
4088 3028 Crs
4053 2986 Crs
4415 3123 Crs
4249 3154 Crs
4161 2989 Crs
4163 2955 Crs
4291 2975 Crs
3895 2834 Crs
3797 2697 Crs
3810 2593 Crs
4121 2664 Crs
4288 2968 Crs
3594 2683 Crs
4448 3083 Crs
3844 2619 Crs
4288 3035 Crs
4448 3190 Crs
3983 2713 Crs
4445 3036 Crs
4160 3114 Crs
4103 2931 Crs
4261 3042 Crs
4468 3066 Crs
4351 3135 Crs
3960 2978 Crs
4044 2993 Crs
3952 2952 Crs
3910 2929 Crs
4127 2771 Crs
3724 2783 Crs
3905 2915 Crs
3940 2968 Crs
4244 2886 Crs
4352 3121 Crs
3884 2924 Crs
4103 3081 Crs
4389 3096 Crs
4402 2902 Crs
4156 2981 Crs
4150 2832 Crs
4446 3191 Crs
3727 2739 Crs
4656 3117 Crs
4120 2938 Crs
4244 2772 Crs
4288 2995 Crs
4397 3223 Crs
4029 2941 Crs
3890 2901 Crs
3902 2614 Crs
4017 2936 Crs
3765 2679 Crs
4287 2974 Crs
4668 3305 Crs
3980 2895 Crs
4237 3186 Crs
4148 3009 Crs
4451 3160 Crs
3738 2667 Crs
4005 2868 Crs
4294 2893 Crs
4164 3108 Crs
4169 2984 Crs
4364 3039 Crs
4007 2943 Crs
4294 3219 Crs
4040 3028 Crs
4096 2952 Crs
4053 2811 Crs
3833 2809 Crs
4443 3113 Crs
3953 2749 Crs
4052 2980 Crs
4679 3277 Crs
4045 2775 Crs
4311 2996 Crs
3829 2747 Crs
3901 2856 Crs
4143 3119 Crs
3967 2976 Crs
4016 2902 Crs
4071 2920 Crs
3787 2651 Crs
4198 2953 Crs
4069 2970 Crs
3964 2857 Crs
3904 2621 Crs
4218 2955 Crs
4066 2867 Crs
4063 2788 Crs
4290 2935 Crs
4140 2995 Crs
4274 3167 Crs
3901 2937 Crs
3733 2632 Crs
3965 2895 Crs
3672 2630 Crs
4241 3076 Crs
3982 2842 Crs
4263 3054 Crs
4159 3066 Crs
3764 2713 Crs
4023 2922 Crs
4560 3086 Crs
4380 3002 Crs
4168 2889 Crs
4159 2889 Crs
4087 2904 Crs
4288 3195 Crs
3962 2718 Crs
4272 2954 Crs
4242 3043 Crs
4270 3076 Crs
4286 3208 Crs
4055 3014 Crs
4263 2756 Crs
4243 2986 Crs
3904 2781 Crs
3799 2808 Crs
4070 2982 Crs
4154 2820 Crs
4166 2912 Crs
4051 3029 Crs
3979 2787 Crs
4152 2847 Crs
4122 3057 Crs
4276 3126 Crs
4452 3136 Crs
3826 2762 Crs
4100 3008 Crs
4372 2785 Crs
3840 2881 Crs
4161 2995 Crs
4301 3115 Crs
3886 2890 Crs
3891 2710 Crs
4258 3170 Crs
4043 3032 Crs
4022 2868 Crs
4141 3019 Crs
3942 2789 Crs
3839 2874 Crs
3893 2865 Crs
4382 2901 Crs
4276 2711 Crs
4158 3007 Crs
3791 2827 Crs
3998 2987 Crs
4263 2968 Crs
3961 2797 Crs
3991 2747 Crs
3864 2849 Crs
3783 2723 Crs
4459 2618 Crs
4097 2992 Crs
4255 2991 Crs
4240 3100 Crs
4234 2668 Crs
3845 2713 Crs
3780 2723 Crs
4305 3182 Crs
3908 2755 Crs
4043 3006 Crs
4649 3086 Crs
4201 3032 Crs
3846 2809 Crs
4279 2783 Crs
4167 3076 Crs
4069 2972 Crs
3902 2854 Crs
4322 3231 Crs
4251 2978 Crs
3830 2719 Crs
4447 3272 Crs
4133 2917 Crs
4124 2958 Crs
4249 2906 Crs
4554 2962 Crs
3846 2733 Crs
4005 2915 Crs
4001 2952 Crs
4274 2816 Crs
4192 2638 Crs
4164 3040 Crs
4059 3031 Crs
4379 3171 Crs
4375 3163 Crs
3677 2743 Crs
4117 2994 Crs
4044 2862 Crs
4187 3093 Crs
4645 3002 Crs
3988 2818 Crs
4416 3059 Crs
3933 2742 Crs
4450 3079 Crs
4152 3078 Crs
4142 3097 Crs
4440 2945 Crs
3697 2700 Crs
3890 2642 Crs
4280 3163 Crs
4292 3088 Crs
4283 3022 Crs
3591 2684 Crs
3694 2587 Crs
4111 3068 Crs
4096 2998 Crs
4293 2901 Crs
3750 2727 Crs
3724 2727 Crs
4160 3000 Crs
4287 3114 Crs
4111 3018 Crs
4207 3008 Crs
4291 3023 Crs
4031 2908 Crs
4070 2985 Crs
4122 3003 Crs
3805 2760 Crs
4102 2983 Crs
3885 2925 Crs
4001 2976 Crs
4051 2952 Crs
4025 2915 Crs
4268 3053 Crs
4246 3094 Crs
4160 2942 Crs
4271 3039 Crs
4063 2650 Crs
3917 2819 Crs
4673 3139 Crs
4437 3130 Crs
4350 3047 Crs
4202 2982 Crs
4205 3093 Crs
4287 3142 Crs
3850 2842 Crs
3581 2674 Crs
4074 3024 Crs
3763 2807 Crs
4236 2957 Crs
3957 2830 Crs
4166 3113 Crs
4446 3160 Crs
3896 2714 Crs
3763 2781 Crs
4374 2967 Crs
4110 3068 Crs
4048 3008 Crs
3831 2830 Crs
3709 2686 Crs
4088 2906 Crs
4434 3052 Crs
3702 2778 Crs
4240 2923 Crs
4250 3093 Crs
4247 3199 Crs
3937 2941 Crs
4038 2884 Crs
4102 3030 Crs
4006 2784 Crs
4041 2818 Crs
4283 3047 Crs
3954 2917 Crs
3738 2804 Crs
4150 3046 Crs
4254 3042 Crs
4236 2939 Crs
4096 2981 Crs
4244 3099 Crs
3720 2704 Crs
4049 2933 Crs
3964 2971 Crs
3879 2601 Crs
4670 3109 Crs
4242 3154 Crs
4530 3054 Crs
3729 2804 Crs
3971 2974 Crs
4061 2763 Crs
4289 3222 Crs
3787 2754 Crs
4032 2951 Crs
4050 3037 Crs
4439 3140 Crs
4158 2832 Crs
4056 2987 Crs
4451 3099 Crs
4242 2979 Crs
4283 3024 Crs
3967 2727 Crs
4373 2781 Crs
3966 2958 Crs
4172 3104 Crs
4283 3086 Crs
4164 3036 Crs
4275 3060 Crs
3450 2370 Crs
3944 2880 Crs
3892 2888 Crs
4655 2869 Crs
4275 3047 Crs
3735 2625 Crs
4165 3026 Crs
4144 2846 Crs
3971 2691 Crs
3888 2841 Crs
4292 3078 Crs
4010 3025 Crs
4124 3108 Crs
4651 3270 Crs
3930 2841 Crs
4453 2983 Crs
4062 3002 Crs
4287 3169 Crs
4228 2945 Crs
4254 3027 Crs
3951 2872 Crs
4532 3133 Crs
4127 3008 Crs
4163 3032 Crs
3784 2740 Crs
3909 2936 Crs
4201 3067 Crs
3887 2911 Crs
4286 2731 Crs
4186 3147 Crs
3823 2847 Crs
3978 2969 Crs
4150 3130 Crs
3835 2722 Crs
4062 2963 Crs
3698 2774 Crs
4050 2839 Crs
4295 2981 Crs
4144 3015 Crs
4143 3023 Crs
3975 2776 Crs
4170 3121 Crs
4030 2829 Crs
4479 3005 Crs
4150 3078 Crs
4037 2865 Crs
3744 2738 Crs
3785 2806 Crs
4386 3068 Crs
4166 3086 Crs
4164 2983 Crs
3961 2943 Crs
4255 2999 Crs
3964 2773 Crs
4399 3252 Crs
3724 2767 Crs
3882 2907 Crs
4132 2817 Crs
4143 2742 Crs
3930 2861 Crs
4070 2806 Crs
4165 3079 Crs
4166 2995 Crs
4392 2995 Crs
3967 2812 Crs
4679 3287 Crs
4126 3073 Crs
4420 3107 Crs
3973 2969 Crs
3892 2769 Crs
4241 3028 Crs
4379 3142 Crs
4060 3048 Crs
3730 2779 Crs
4285 2927 Crs
3506 2314 Crs
4169 2988 Crs
4168 2858 Crs
4195 2891 Crs
3948 2866 Crs
3875 2856 Crs
3823 2701 Crs
4679 3231 Crs
4131 2837 Crs
4070 2687 Crs
4237 2962 Crs
4153 2909 Crs
3887 2784 Crs
3977 2808 Crs
3766 2806 Crs
4434 2996 Crs
4398 2953 Crs
4069 2839 Crs
3837 2765 Crs
4377 2532 Crs
3814 2874 Crs
4042 2814 Crs
3978 2861 Crs
4264 3046 Crs
3960 2651 Crs
3800 2774 Crs
3781 2824 Crs
4269 3138 Crs
4454 3112 Crs
4157 2953 Crs
3979 2815 Crs
3895 2650 Crs
4130 3030 Crs
4041 2735 Crs
4390 2846 Crs
4679 3275 Crs
3898 2871 Crs
4437 3014 Crs
3921 2849 Crs
4069 2897 Crs
3969 2878 Crs
3750 2720 Crs
3937 2954 Crs
4291 2873 Crs
3909 2941 Crs
3833 2828 Crs
4447 3275 Crs
4145 3062 Crs
3862 2836 Crs
3879 2553 Crs
4102 2948 Crs
4030 2787 Crs
4154 2857 Crs
3974 2879 Crs
3891 2728 Crs
4220 2911 Crs
4038 2970 Crs
3894 2480 Crs
3781 2444 Crs
4170 2908 Crs
4053 2753 Crs
3655 2730 Crs
4126 2949 Crs
4168 3000 Crs
4097 3036 Crs
4293 3177 Crs
3746 2822 Crs
3796 2514 Crs
3373 2540 Crs
3973 2992 Crs
4476 3067 Crs
4058 2889 Crs
4132 2752 Crs
4078 2700 Crs
3825 2786 Crs
4041 2828 Crs
3975 2979 Crs
4056 2811 Crs
3840 2738 Crs
4182 3131 Crs
4676 3067 Crs
4282 3183 Crs
4161 2899 Crs
3983 2999 Crs
4249 2973 Crs
4159 3080 Crs
4004 2992 Crs
4389 2997 Crs
3937 2736 Crs
3676 2727 Crs
3675 2540 Crs
4329 3117 Crs
4450 3009 Crs
4324 2648 Crs
4055 2890 Crs
3635 2693 Crs
3984 2938 Crs
3639 2648 Crs
3977 2907 Crs
4349 3042 Crs
4135 2926 Crs
4211 3071 Crs
4027 2686 Crs
3930 2780 Crs
4289 2935 Crs
4165 3018 Crs
4284 3056 Crs
4065 2770 Crs
4439 3236 Crs
3980 2955 Crs
4022 2874 Crs
4016 2772 Crs
3663 2725 Crs
4053 3043 Crs
3962 2828 Crs
4158 2978 Crs
4267 3034 Crs
4164 2663 Crs
4204 3101 Crs
3875 2731 Crs
4145 3052 Crs
4100 2953 Crs
3910 2913 Crs
4371 3292 Crs
3971 2864 Crs
4278 3074 Crs
4253 2952 Crs
4451 2876 Crs
4006 2996 Crs
4167 3076 Crs
4068 2902 Crs
4503 3167 Crs
4262 3200 Crs
4274 3068 Crs
3843 2844 Crs
3783 2663 Crs
4666 3173 Crs
4528 2922 Crs
4467 3121 Crs
4334 3133 Crs
4459 3317 Crs
4667 3087 Crs
4062 3003 Crs
3780 2837 Crs
4075 3007 Crs
3544 2652 Crs
4234 3026 Crs
4136 3046 Crs
3956 2895 Crs
3899 2834 Crs
3981 2977 Crs
4041 2817 Crs
4036 2927 Crs
4107 2890 Crs
3933 2873 Crs
4366 3041 Crs
4063 2833 Crs
4065 2811 Crs
4388 3000 Crs
4059 3059 Crs
4154 2811 Crs
4555 2887 Crs
4359 2916 Crs
4234 2992 Crs
3928 2938 Crs
4161 2960 Crs
4421 3156 Crs
3878 2823 Crs
3636 2563 Crs
4454 3072 Crs
4255 3094 Crs
4040 2675 Crs
4043 2977 Crs
4129 3057 Crs
3559 2578 Crs
4237 3116 Crs
3901 2695 Crs
3972 2947 Crs
4138 2928 Crs
3907 2841 Crs
3883 2826 Crs
3977 2921 Crs
4003 2574 Crs
3712 2652 Crs
4452 3118 Crs
4038 2974 Crs
4156 3029 Crs
4449 3040 Crs
3909 2836 Crs
4251 2921 Crs
4252 2970 Crs
4134 3070 Crs
4479 3052 Crs
4269 3029 Crs
4132 2879 Crs
4067 3015 Crs
3812 2609 Crs
4270 3039 Crs
4277 3126 Crs
3871 2880 Crs
4181 3137 Crs
4453 3183 Crs
3911 2736 Crs
3975 2888 Crs
4395 2991 Crs
4061 2838 Crs
4258 3048 Crs
3845 2882 Crs
4480 3022 Crs
3959 2755 Crs
4030 2944 Crs
3986 2687 Crs
3893 2926 Crs
3539 2665 Crs
4141 2759 Crs
4446 3096 Crs
3865 2750 Crs
4450 3076 Crs
3884 2928 Crs
4383 2919 Crs
3816 2858 Crs
4067 3051 Crs
4285 2905 Crs
4125 2892 Crs
3997 2790 Crs
4172 3100 Crs
4139 2947 Crs
4249 2854 Crs
4153 2923 Crs
4146 3113 Crs
4349 2980 Crs
3724 2748 Crs
4015 2721 Crs
3773 2754 Crs
4000 2751 Crs
3947 2679 Crs
4445 3310 Crs
3797 2767 Crs
3969 2761 Crs
4297 3194 Crs
4162 2993 Crs
4442 3155 Crs
4286 3149 Crs
4363 2868 Crs
4250 3073 Crs
4441 3138 Crs
4084 2986 Crs
4047 2942 Crs
4189 3128 Crs
4202 2958 Crs
3727 2764 Crs
4123 2983 Crs
4143 2946 Crs
4032 2966 Crs
3790 2673 Crs
4158 2949 Crs
3965 2892 Crs
3873 2917 Crs
4448 2915 Crs
3984 2883 Crs
4129 2875 Crs
4234 3177 Crs
4131 2823 Crs
4238 2929 Crs
4106 3000 Crs
4229 2818 Crs
% End plot #2
% Begin plot #3
1.000 UL
LTb
LT1
0.75 0.75 0.75 C 1923 1445 M
28 21 V
28 21 V
27 21 V
28 21 V
28 21 V
28 21 V
28 21 V
28 21 V
27 21 V
28 21 V
28 21 V
28 22 V
28 21 V
28 21 V
28 21 V
27 21 V
28 21 V
28 21 V
28 21 V
28 21 V
28 21 V
27 21 V
28 21 V
28 21 V
28 22 V
28 21 V
28 21 V
27 21 V
28 21 V
28 21 V
28 21 V
28 21 V
28 21 V
27 21 V
28 21 V
28 21 V
28 21 V
28 21 V
28 22 V
27 21 V
28 21 V
28 21 V
28 21 V
28 21 V
28 21 V
28 21 V
27 21 V
28 21 V
28 21 V
28 21 V
28 21 V
28 22 V
27 21 V
28 21 V
28 21 V
28 21 V
28 21 V
28 21 V
27 21 V
28 21 V
28 21 V
28 21 V
28 21 V
28 21 V
27 21 V
28 22 V
28 21 V
28 21 V
28 21 V
28 21 V
28 21 V
27 21 V
28 21 V
28 21 V
28 21 V
28 21 V
28 21 V
27 21 V
28 22 V
28 21 V
28 21 V
28 21 V
28 21 V
27 21 V
28 21 V
28 21 V
28 21 V
28 21 V
28 21 V
27 21 V
28 21 V
28 21 V
28 22 V
28 21 V
28 21 V
27 21 V
28 21 V
28 21 V
28 21 V
% End plot #3
stroke
2.000 UL
LTb
LCb setrgbcolor
1.000 UL
LTb
LCb setrgbcolor
860 3531 N
860 640 L
3819 0 V
0 2891 V
-3819 0 V
Z stroke
0.500 UP
1.000 UL
LTb
LCb setrgbcolor
stroke
grestore
end
showpage
%%Trailer
%%DocumentFonts: Helvetica
