%!PS-Adobe-2.0 EPSF-2.0
%%Title: max.eps
%%Creator: gnuplot 5.0 patchlevel 1
%%CreationDate: Fri Oct 30 18:57:08 2015
%%DocumentFonts: (atend)
%%BoundingBox: 50 50 302 238
%%EndComments
%%BeginProlog
/gnudict 256 dict def
gnudict begin
%
% The following true/false flags may be edited by hand if desired.
% The unit line width and grayscale image gamma correction may also be changed.
%
/Color true def
/Blacktext false def
/Solid false def
/Dashlength 1 def
/Landscape false def
/Level1 false def
/Level3 false def
/Rounded false def
/ClipToBoundingBox false def
/SuppressPDFMark false def
/TransparentPatterns false def
/gnulinewidth 5.000 def
/userlinewidth gnulinewidth def
/Gamma 1.0 def
/BackgroundColor {-1.000 -1.000 -1.000} def
%
/vshift -66 def
/dl1 {
  10.0 Dashlength userlinewidth gnulinewidth div mul mul mul
  Rounded { currentlinewidth 0.75 mul sub dup 0 le { pop 0.01 } if } if
} def
/dl2 {
  10.0 Dashlength userlinewidth gnulinewidth div mul mul mul
  Rounded { currentlinewidth 0.75 mul add } if
} def
/hpt_ 31.5 def
/vpt_ 31.5 def
/hpt hpt_ def
/vpt vpt_ def
/doclip {
  ClipToBoundingBox {
    newpath 50 50 moveto 302 50 lineto 302 238 lineto 50 238 lineto closepath
    clip
  } if
} def
%
% Gnuplot Prolog Version 5.0 (Dec 2014)
%
%/SuppressPDFMark true def
%
/M {moveto} bind def
/L {lineto} bind def
/R {rmoveto} bind def
/V {rlineto} bind def
/N {newpath moveto} bind def
/Z {closepath} bind def
/C {setrgbcolor} bind def
/f {rlineto fill} bind def
/g {setgray} bind def
/Gshow {show} def   % May be redefined later in the file to support UTF-8
/vpt2 vpt 2 mul def
/hpt2 hpt 2 mul def
/Lshow {currentpoint stroke M 0 vshift R 
	Blacktext {gsave 0 setgray textshow grestore} {textshow} ifelse} def
/Rshow {currentpoint stroke M dup stringwidth pop neg vshift R
	Blacktext {gsave 0 setgray textshow grestore} {textshow} ifelse} def
/Cshow {currentpoint stroke M dup stringwidth pop -2 div vshift R 
	Blacktext {gsave 0 setgray textshow grestore} {textshow} ifelse} def
/UP {dup vpt_ mul /vpt exch def hpt_ mul /hpt exch def
  /hpt2 hpt 2 mul def /vpt2 vpt 2 mul def} def
/DL {Color {setrgbcolor Solid {pop []} if 0 setdash}
 {pop pop pop 0 setgray Solid {pop []} if 0 setdash} ifelse} def
/BL {stroke userlinewidth 2 mul setlinewidth
	Rounded {1 setlinejoin 1 setlinecap} if} def
/AL {stroke userlinewidth 2 div setlinewidth
	Rounded {1 setlinejoin 1 setlinecap} if} def
/UL {dup gnulinewidth mul /userlinewidth exch def
	dup 1 lt {pop 1} if 10 mul /udl exch def} def
/PL {stroke userlinewidth setlinewidth
	Rounded {1 setlinejoin 1 setlinecap} if} def
3.8 setmiterlimit
% Classic Line colors (version 5.0)
/LCw {1 1 1} def
/LCb {0 0 0} def
/LCa {0 0 0} def
/LC0 {1 0 0} def
/LC1 {0 1 0} def
/LC2 {0 0 1} def
/LC3 {1 0 1} def
/LC4 {0 1 1} def
/LC5 {1 1 0} def
/LC6 {0 0 0} def
/LC7 {1 0.3 0} def
/LC8 {0.5 0.5 0.5} def
% Default dash patterns (version 5.0)
/LTw {PL [] 1 setgray} def
/LTb {BL [] LCb DL} def
/LTa {AL [1 udl mul 2 udl mul] 0 setdash LCa setrgbcolor} def
/LT0 {PL [] LC0 DL} def
/LT1 {PL [2 dl1 3 dl2] LC1 DL} def
/LT2 {PL [1 dl1 1.5 dl2] LC2 DL} def
/LT3 {PL [6 dl1 2 dl2 1 dl1 2 dl2] LC3 DL} def
/LT4 {PL [1 dl1 2 dl2 6 dl1 2 dl2 1 dl1 2 dl2] LC4 DL} def
/LT5 {PL [4 dl1 2 dl2] LC5 DL} def
/LT6 {PL [1.5 dl1 1.5 dl2 1.5 dl1 1.5 dl2 1.5 dl1 6 dl2] LC6 DL} def
/LT7 {PL [3 dl1 3 dl2 1 dl1 3 dl2] LC7 DL} def
/LT8 {PL [2 dl1 2 dl2 2 dl1 6 dl2] LC8 DL} def
/SL {[] 0 setdash} def
/Pnt {stroke [] 0 setdash gsave 1 setlinecap M 0 0 V stroke grestore} def
/Dia {stroke [] 0 setdash 2 copy vpt add M
  hpt neg vpt neg V hpt vpt neg V
  hpt vpt V hpt neg vpt V closepath stroke
  Pnt} def
/Pls {stroke [] 0 setdash vpt sub M 0 vpt2 V
  currentpoint stroke M
  hpt neg vpt neg R hpt2 0 V stroke
 } def
/Box {stroke [] 0 setdash 2 copy exch hpt sub exch vpt add M
  0 vpt2 neg V hpt2 0 V 0 vpt2 V
  hpt2 neg 0 V closepath stroke
  Pnt} def
/Crs {stroke [] 0 setdash exch hpt sub exch vpt add M
  hpt2 vpt2 neg V currentpoint stroke M
  hpt2 neg 0 R hpt2 vpt2 V stroke} def
/TriU {stroke [] 0 setdash 2 copy vpt 1.12 mul add M
  hpt neg vpt -1.62 mul V
  hpt 2 mul 0 V
  hpt neg vpt 1.62 mul V closepath stroke
  Pnt} def
/Star {2 copy Pls Crs} def
/BoxF {stroke [] 0 setdash exch hpt sub exch vpt add M
  0 vpt2 neg V hpt2 0 V 0 vpt2 V
  hpt2 neg 0 V closepath fill} def
/TriUF {stroke [] 0 setdash vpt 1.12 mul add M
  hpt neg vpt -1.62 mul V
  hpt 2 mul 0 V
  hpt neg vpt 1.62 mul V closepath fill} def
/TriD {stroke [] 0 setdash 2 copy vpt 1.12 mul sub M
  hpt neg vpt 1.62 mul V
  hpt 2 mul 0 V
  hpt neg vpt -1.62 mul V closepath stroke
  Pnt} def
/TriDF {stroke [] 0 setdash vpt 1.12 mul sub M
  hpt neg vpt 1.62 mul V
  hpt 2 mul 0 V
  hpt neg vpt -1.62 mul V closepath fill} def
/DiaF {stroke [] 0 setdash vpt add M
  hpt neg vpt neg V hpt vpt neg V
  hpt vpt V hpt neg vpt V closepath fill} def
/Pent {stroke [] 0 setdash 2 copy gsave
  translate 0 hpt M 4 {72 rotate 0 hpt L} repeat
  closepath stroke grestore Pnt} def
/PentF {stroke [] 0 setdash gsave
  translate 0 hpt M 4 {72 rotate 0 hpt L} repeat
  closepath fill grestore} def
/Circle {stroke [] 0 setdash 2 copy
  hpt 0 360 arc stroke Pnt} def
/CircleF {stroke [] 0 setdash hpt 0 360 arc fill} def
/C0 {BL [] 0 setdash 2 copy moveto vpt 90 450 arc} bind def
/C1 {BL [] 0 setdash 2 copy moveto
	2 copy vpt 0 90 arc closepath fill
	vpt 0 360 arc closepath} bind def
/C2 {BL [] 0 setdash 2 copy moveto
	2 copy vpt 90 180 arc closepath fill
	vpt 0 360 arc closepath} bind def
/C3 {BL [] 0 setdash 2 copy moveto
	2 copy vpt 0 180 arc closepath fill
	vpt 0 360 arc closepath} bind def
/C4 {BL [] 0 setdash 2 copy moveto
	2 copy vpt 180 270 arc closepath fill
	vpt 0 360 arc closepath} bind def
/C5 {BL [] 0 setdash 2 copy moveto
	2 copy vpt 0 90 arc
	2 copy moveto
	2 copy vpt 180 270 arc closepath fill
	vpt 0 360 arc} bind def
/C6 {BL [] 0 setdash 2 copy moveto
	2 copy vpt 90 270 arc closepath fill
	vpt 0 360 arc closepath} bind def
/C7 {BL [] 0 setdash 2 copy moveto
	2 copy vpt 0 270 arc closepath fill
	vpt 0 360 arc closepath} bind def
/C8 {BL [] 0 setdash 2 copy moveto
	2 copy vpt 270 360 arc closepath fill
	vpt 0 360 arc closepath} bind def
/C9 {BL [] 0 setdash 2 copy moveto
	2 copy vpt 270 450 arc closepath fill
	vpt 0 360 arc closepath} bind def
/C10 {BL [] 0 setdash 2 copy 2 copy moveto vpt 270 360 arc closepath fill
	2 copy moveto
	2 copy vpt 90 180 arc closepath fill
	vpt 0 360 arc closepath} bind def
/C11 {BL [] 0 setdash 2 copy moveto
	2 copy vpt 0 180 arc closepath fill
	2 copy moveto
	2 copy vpt 270 360 arc closepath fill
	vpt 0 360 arc closepath} bind def
/C12 {BL [] 0 setdash 2 copy moveto
	2 copy vpt 180 360 arc closepath fill
	vpt 0 360 arc closepath} bind def
/C13 {BL [] 0 setdash 2 copy moveto
	2 copy vpt 0 90 arc closepath fill
	2 copy moveto
	2 copy vpt 180 360 arc closepath fill
	vpt 0 360 arc closepath} bind def
/C14 {BL [] 0 setdash 2 copy moveto
	2 copy vpt 90 360 arc closepath fill
	vpt 0 360 arc} bind def
/C15 {BL [] 0 setdash 2 copy vpt 0 360 arc closepath fill
	vpt 0 360 arc closepath} bind def
/Rec {newpath 4 2 roll moveto 1 index 0 rlineto 0 exch rlineto
	neg 0 rlineto closepath} bind def
/Square {dup Rec} bind def
/Bsquare {vpt sub exch vpt sub exch vpt2 Square} bind def
/S0 {BL [] 0 setdash 2 copy moveto 0 vpt rlineto BL Bsquare} bind def
/S1 {BL [] 0 setdash 2 copy vpt Square fill Bsquare} bind def
/S2 {BL [] 0 setdash 2 copy exch vpt sub exch vpt Square fill Bsquare} bind def
/S3 {BL [] 0 setdash 2 copy exch vpt sub exch vpt2 vpt Rec fill Bsquare} bind def
/S4 {BL [] 0 setdash 2 copy exch vpt sub exch vpt sub vpt Square fill Bsquare} bind def
/S5 {BL [] 0 setdash 2 copy 2 copy vpt Square fill
	exch vpt sub exch vpt sub vpt Square fill Bsquare} bind def
/S6 {BL [] 0 setdash 2 copy exch vpt sub exch vpt sub vpt vpt2 Rec fill Bsquare} bind def
/S7 {BL [] 0 setdash 2 copy exch vpt sub exch vpt sub vpt vpt2 Rec fill
	2 copy vpt Square fill Bsquare} bind def
/S8 {BL [] 0 setdash 2 copy vpt sub vpt Square fill Bsquare} bind def
/S9 {BL [] 0 setdash 2 copy vpt sub vpt vpt2 Rec fill Bsquare} bind def
/S10 {BL [] 0 setdash 2 copy vpt sub vpt Square fill 2 copy exch vpt sub exch vpt Square fill
	Bsquare} bind def
/S11 {BL [] 0 setdash 2 copy vpt sub vpt Square fill 2 copy exch vpt sub exch vpt2 vpt Rec fill
	Bsquare} bind def
/S12 {BL [] 0 setdash 2 copy exch vpt sub exch vpt sub vpt2 vpt Rec fill Bsquare} bind def
/S13 {BL [] 0 setdash 2 copy exch vpt sub exch vpt sub vpt2 vpt Rec fill
	2 copy vpt Square fill Bsquare} bind def
/S14 {BL [] 0 setdash 2 copy exch vpt sub exch vpt sub vpt2 vpt Rec fill
	2 copy exch vpt sub exch vpt Square fill Bsquare} bind def
/S15 {BL [] 0 setdash 2 copy Bsquare fill Bsquare} bind def
/D0 {gsave translate 45 rotate 0 0 S0 stroke grestore} bind def
/D1 {gsave translate 45 rotate 0 0 S1 stroke grestore} bind def
/D2 {gsave translate 45 rotate 0 0 S2 stroke grestore} bind def
/D3 {gsave translate 45 rotate 0 0 S3 stroke grestore} bind def
/D4 {gsave translate 45 rotate 0 0 S4 stroke grestore} bind def
/D5 {gsave translate 45 rotate 0 0 S5 stroke grestore} bind def
/D6 {gsave translate 45 rotate 0 0 S6 stroke grestore} bind def
/D7 {gsave translate 45 rotate 0 0 S7 stroke grestore} bind def
/D8 {gsave translate 45 rotate 0 0 S8 stroke grestore} bind def
/D9 {gsave translate 45 rotate 0 0 S9 stroke grestore} bind def
/D10 {gsave translate 45 rotate 0 0 S10 stroke grestore} bind def
/D11 {gsave translate 45 rotate 0 0 S11 stroke grestore} bind def
/D12 {gsave translate 45 rotate 0 0 S12 stroke grestore} bind def
/D13 {gsave translate 45 rotate 0 0 S13 stroke grestore} bind def
/D14 {gsave translate 45 rotate 0 0 S14 stroke grestore} bind def
/D15 {gsave translate 45 rotate 0 0 S15 stroke grestore} bind def
/DiaE {stroke [] 0 setdash vpt add M
  hpt neg vpt neg V hpt vpt neg V
  hpt vpt V hpt neg vpt V closepath stroke} def
/BoxE {stroke [] 0 setdash exch hpt sub exch vpt add M
  0 vpt2 neg V hpt2 0 V 0 vpt2 V
  hpt2 neg 0 V closepath stroke} def
/TriUE {stroke [] 0 setdash vpt 1.12 mul add M
  hpt neg vpt -1.62 mul V
  hpt 2 mul 0 V
  hpt neg vpt 1.62 mul V closepath stroke} def
/TriDE {stroke [] 0 setdash vpt 1.12 mul sub M
  hpt neg vpt 1.62 mul V
  hpt 2 mul 0 V
  hpt neg vpt -1.62 mul V closepath stroke} def
/PentE {stroke [] 0 setdash gsave
  translate 0 hpt M 4 {72 rotate 0 hpt L} repeat
  closepath stroke grestore} def
/CircE {stroke [] 0 setdash 
  hpt 0 360 arc stroke} def
/Opaque {gsave closepath 1 setgray fill grestore 0 setgray closepath} def
/DiaW {stroke [] 0 setdash vpt add M
  hpt neg vpt neg V hpt vpt neg V
  hpt vpt V hpt neg vpt V Opaque stroke} def
/BoxW {stroke [] 0 setdash exch hpt sub exch vpt add M
  0 vpt2 neg V hpt2 0 V 0 vpt2 V
  hpt2 neg 0 V Opaque stroke} def
/TriUW {stroke [] 0 setdash vpt 1.12 mul add M
  hpt neg vpt -1.62 mul V
  hpt 2 mul 0 V
  hpt neg vpt 1.62 mul V Opaque stroke} def
/TriDW {stroke [] 0 setdash vpt 1.12 mul sub M
  hpt neg vpt 1.62 mul V
  hpt 2 mul 0 V
  hpt neg vpt -1.62 mul V Opaque stroke} def
/PentW {stroke [] 0 setdash gsave
  translate 0 hpt M 4 {72 rotate 0 hpt L} repeat
  Opaque stroke grestore} def
/CircW {stroke [] 0 setdash 
  hpt 0 360 arc Opaque stroke} def
/BoxFill {gsave Rec 1 setgray fill grestore} def
/Density {
  /Fillden exch def
  currentrgbcolor
  /ColB exch def /ColG exch def /ColR exch def
  /ColR ColR Fillden mul Fillden sub 1 add def
  /ColG ColG Fillden mul Fillden sub 1 add def
  /ColB ColB Fillden mul Fillden sub 1 add def
  ColR ColG ColB setrgbcolor} def
/BoxColFill {gsave Rec PolyFill} def
/PolyFill {gsave Density fill grestore grestore} def
/h {rlineto rlineto rlineto gsave closepath fill grestore} bind def
%
% PostScript Level 1 Pattern Fill routine for rectangles
% Usage: x y w h s a XX PatternFill
%	x,y = lower left corner of box to be filled
%	w,h = width and height of box
%	  a = angle in degrees between lines and x-axis
%	 XX = 0/1 for no/yes cross-hatch
%
/PatternFill {gsave /PFa [ 9 2 roll ] def
  PFa 0 get PFa 2 get 2 div add PFa 1 get PFa 3 get 2 div add translate
  PFa 2 get -2 div PFa 3 get -2 div PFa 2 get PFa 3 get Rec
  TransparentPatterns {} {gsave 1 setgray fill grestore} ifelse
  clip
  currentlinewidth 0.5 mul setlinewidth
  /PFs PFa 2 get dup mul PFa 3 get dup mul add sqrt def
  0 0 M PFa 5 get rotate PFs -2 div dup translate
  0 1 PFs PFa 4 get div 1 add floor cvi
	{PFa 4 get mul 0 M 0 PFs V} for
  0 PFa 6 get ne {
	0 1 PFs PFa 4 get div 1 add floor cvi
	{PFa 4 get mul 0 2 1 roll M PFs 0 V} for
 } if
  stroke grestore} def
%
/languagelevel where
 {pop languagelevel} {1} ifelse
dup 2 lt
	{/InterpretLevel1 true def
	 /InterpretLevel3 false def}
	{/InterpretLevel1 Level1 def
	 2 gt
	    {/InterpretLevel3 Level3 def}
	    {/InterpretLevel3 false def}
	 ifelse }
 ifelse
%
% PostScript level 2 pattern fill definitions
%
/Level2PatternFill {
/Tile8x8 {/PaintType 2 /PatternType 1 /TilingType 1 /BBox [0 0 8 8] /XStep 8 /YStep 8}
	bind def
/KeepColor {currentrgbcolor [/Pattern /DeviceRGB] setcolorspace} bind def
<< Tile8x8
 /PaintProc {0.5 setlinewidth pop 0 0 M 8 8 L 0 8 M 8 0 L stroke} 
>> matrix makepattern
/Pat1 exch def
<< Tile8x8
 /PaintProc {0.5 setlinewidth pop 0 0 M 8 8 L 0 8 M 8 0 L stroke
	0 4 M 4 8 L 8 4 L 4 0 L 0 4 L stroke}
>> matrix makepattern
/Pat2 exch def
<< Tile8x8
 /PaintProc {0.5 setlinewidth pop 0 0 M 0 8 L
	8 8 L 8 0 L 0 0 L fill}
>> matrix makepattern
/Pat3 exch def
<< Tile8x8
 /PaintProc {0.5 setlinewidth pop -4 8 M 8 -4 L
	0 12 M 12 0 L stroke}
>> matrix makepattern
/Pat4 exch def
<< Tile8x8
 /PaintProc {0.5 setlinewidth pop -4 0 M 8 12 L
	0 -4 M 12 8 L stroke}
>> matrix makepattern
/Pat5 exch def
<< Tile8x8
 /PaintProc {0.5 setlinewidth pop -2 8 M 4 -4 L
	0 12 M 8 -4 L 4 12 M 10 0 L stroke}
>> matrix makepattern
/Pat6 exch def
<< Tile8x8
 /PaintProc {0.5 setlinewidth pop -2 0 M 4 12 L
	0 -4 M 8 12 L 4 -4 M 10 8 L stroke}
>> matrix makepattern
/Pat7 exch def
<< Tile8x8
 /PaintProc {0.5 setlinewidth pop 8 -2 M -4 4 L
	12 0 M -4 8 L 12 4 M 0 10 L stroke}
>> matrix makepattern
/Pat8 exch def
<< Tile8x8
 /PaintProc {0.5 setlinewidth pop 0 -2 M 12 4 L
	-4 0 M 12 8 L -4 4 M 8 10 L stroke}
>> matrix makepattern
/Pat9 exch def
/Pattern1 {PatternBgnd KeepColor Pat1 setpattern} bind def
/Pattern2 {PatternBgnd KeepColor Pat2 setpattern} bind def
/Pattern3 {PatternBgnd KeepColor Pat3 setpattern} bind def
/Pattern4 {PatternBgnd KeepColor Landscape {Pat5} {Pat4} ifelse setpattern} bind def
/Pattern5 {PatternBgnd KeepColor Landscape {Pat4} {Pat5} ifelse setpattern} bind def
/Pattern6 {PatternBgnd KeepColor Landscape {Pat9} {Pat6} ifelse setpattern} bind def
/Pattern7 {PatternBgnd KeepColor Landscape {Pat8} {Pat7} ifelse setpattern} bind def
} def
%
%
%End of PostScript Level 2 code
%
/PatternBgnd {
  TransparentPatterns {} {gsave 1 setgray fill grestore} ifelse
} def
%
% Substitute for Level 2 pattern fill codes with
% grayscale if Level 2 support is not selected.
%
/Level1PatternFill {
/Pattern1 {0.250 Density} bind def
/Pattern2 {0.500 Density} bind def
/Pattern3 {0.750 Density} bind def
/Pattern4 {0.125 Density} bind def
/Pattern5 {0.375 Density} bind def
/Pattern6 {0.625 Density} bind def
/Pattern7 {0.875 Density} bind def
} def
%
% Now test for support of Level 2 code
%
Level1 {Level1PatternFill} {Level2PatternFill} ifelse
%
/Symbol-Oblique /Symbol findfont [1 0 .167 1 0 0] makefont
dup length dict begin {1 index /FID eq {pop pop} {def} ifelse} forall
currentdict end definefont pop
%
/MFshow {
   { dup 5 get 3 ge
     { 5 get 3 eq {gsave} {grestore} ifelse }
     {dup dup 0 get findfont exch 1 get scalefont setfont
     [ currentpoint ] exch dup 2 get 0 exch R dup 5 get 2 ne {dup dup 6
     get exch 4 get {textshow} {stringwidth pop 0 R} ifelse }if dup 5 get 0 eq
     {dup 3 get {2 get neg 0 exch R pop} {pop aload pop M} ifelse} {dup 5
     get 1 eq {dup 2 get exch dup 3 get exch 6 get stringwidth pop -2 div
     dup 0 R} {dup 6 get stringwidth pop -2 div 0 R 6 get
     textshow 2 index {aload pop M neg 3 -1 roll neg R pop pop} {pop pop pop
     pop aload pop M} ifelse }ifelse }ifelse }
     ifelse }
   forall} def
/Gswidth {dup type /stringtype eq {stringwidth} {pop (n) stringwidth} ifelse} def
/MFwidth {0 exch { dup 5 get 3 ge { 5 get 3 eq { 0 } { pop } ifelse }
 {dup 3 get{dup dup 0 get findfont exch 1 get scalefont setfont
     6 get Gswidth pop add} {pop} ifelse} ifelse} forall} def
/MLshow { currentpoint stroke M
  0 exch R
  Blacktext {gsave 0 setgray MFshow grestore} {MFshow} ifelse } bind def
/MRshow { currentpoint stroke M
  exch dup MFwidth neg 3 -1 roll R
  Blacktext {gsave 0 setgray MFshow grestore} {MFshow} ifelse } bind def
/MCshow { currentpoint stroke M
  exch dup MFwidth -2 div 3 -1 roll R
  Blacktext {gsave 0 setgray MFshow grestore} {MFshow} ifelse } bind def
/XYsave    { [( ) 1 2 true false 3 ()] } bind def
/XYrestore { [( ) 1 2 true false 4 ()] } bind def
Level1 SuppressPDFMark or 
{} {
/SDict 10 dict def
systemdict /pdfmark known not {
  userdict /pdfmark systemdict /cleartomark get put
} if
SDict begin [
  /Title (max.eps)
  /Subject (gnuplot plot)
  /Creator (gnuplot 5.0 patchlevel 1)
  /Author (gaumont)
%  /Producer (gnuplot)
%  /Keywords ()
  /CreationDate (Fri Oct 30 18:57:08 2015)
  /DOCINFO pdfmark
end
} ifelse
end
%
% Support for boxed text - Ethan A Merritt May 2005
%
/InitTextBox { userdict /TBy2 3 -1 roll put userdict /TBx2 3 -1 roll put
           userdict /TBy1 3 -1 roll put userdict /TBx1 3 -1 roll put
	   /Boxing true def } def
/ExtendTextBox { Boxing
    { gsave dup false charpath pathbbox
      dup TBy2 gt {userdict /TBy2 3 -1 roll put} {pop} ifelse
      dup TBx2 gt {userdict /TBx2 3 -1 roll put} {pop} ifelse
      dup TBy1 lt {userdict /TBy1 3 -1 roll put} {pop} ifelse
      dup TBx1 lt {userdict /TBx1 3 -1 roll put} {pop} ifelse
      grestore } if } def
/PopTextBox { newpath TBx1 TBxmargin sub TBy1 TBymargin sub M
               TBx1 TBxmargin sub TBy2 TBymargin add L
	       TBx2 TBxmargin add TBy2 TBymargin add L
	       TBx2 TBxmargin add TBy1 TBymargin sub L closepath } def
/DrawTextBox { PopTextBox stroke /Boxing false def} def
/FillTextBox { gsave PopTextBox 1 1 1 setrgbcolor fill grestore /Boxing false def} def
0 0 0 0 InitTextBox
/TBxmargin 20 def
/TBymargin 20 def
/Boxing false def
/textshow { ExtendTextBox Gshow } def
%
%%EndProlog
%%Page: 1 1
gnudict begin
gsave
doclip
50 50 translate
0.050 0.050 scale
0 setgray
newpath
(Helvetica) findfont 200 scalefont setfont
BackgroundColor 0 lt 3 1 roll 0 lt exch 0 lt or or not {BackgroundColor C 1.000 0 0 5040.00 3772.00 BoxColFill} if
1.000 UL
LTb
LCb setrgbcolor
860 640 M
63 0 V
3756 0 R
-63 0 V
stroke
740 640 M
[ [(Helvetica) 200.0 0.0 true true 0 (10)]
[(Helvetica) 160.0 100.0 true true 0 (-2)]
] -86.7 MRshow
1.000 UL
LTb
LCb setrgbcolor
860 1075 M
31 0 V
3788 0 R
-31 0 V
860 1330 M
31 0 V
3788 0 R
-31 0 V
860 1510 M
31 0 V
3788 0 R
-31 0 V
860 1650 M
31 0 V
3788 0 R
-31 0 V
860 1765 M
31 0 V
3788 0 R
-31 0 V
860 1862 M
31 0 V
3788 0 R
-31 0 V
860 1945 M
31 0 V
3788 0 R
-31 0 V
860 2019 M
31 0 V
3788 0 R
-31 0 V
860 2086 M
63 0 V
3756 0 R
-63 0 V
stroke
740 2086 M
[ [(Helvetica) 200.0 0.0 true true 0 (10)]
[(Helvetica) 160.0 100.0 true true 0 (-1)]
] -86.7 MRshow
1.000 UL
LTb
LCb setrgbcolor
860 2521 M
31 0 V
3788 0 R
-31 0 V
860 2775 M
31 0 V
3788 0 R
-31 0 V
860 2956 M
31 0 V
3788 0 R
-31 0 V
860 3096 M
31 0 V
3788 0 R
-31 0 V
860 3210 M
31 0 V
3788 0 R
-31 0 V
860 3307 M
31 0 V
3788 0 R
-31 0 V
860 3391 M
31 0 V
3788 0 R
-31 0 V
860 3465 M
31 0 V
3788 0 R
-31 0 V
860 3531 M
63 0 V
3756 0 R
-63 0 V
stroke
740 3531 M
[ [(Helvetica) 200.0 0.0 true true 0 (10)]
[(Helvetica) 160.0 100.0 true true 0 (0)]
] -86.7 MRshow
1.000 UL
LTb
LCb setrgbcolor
860 640 M
0 63 V
0 2828 R
0 -63 V
stroke
860 440 M
[ [(Helvetica) 200.0 0.0 true true 0 (10)]
[(Helvetica) 160.0 100.0 true true 0 (-2)]
] -86.7 MCshow
1.000 UL
LTb
LCb setrgbcolor
1435 640 M
0 31 V
0 2860 R
0 -31 V
1771 640 M
0 31 V
0 2860 R
0 -31 V
2010 640 M
0 31 V
0 2860 R
0 -31 V
2195 640 M
0 31 V
0 2860 R
0 -31 V
2346 640 M
0 31 V
0 2860 R
0 -31 V
2474 640 M
0 31 V
0 2860 R
0 -31 V
2584 640 M
0 31 V
0 2860 R
0 -31 V
2682 640 M
0 31 V
0 2860 R
0 -31 V
2770 640 M
0 63 V
0 2828 R
0 -63 V
stroke
2770 440 M
[ [(Helvetica) 200.0 0.0 true true 0 (10)]
[(Helvetica) 160.0 100.0 true true 0 (-1)]
] -86.7 MCshow
1.000 UL
LTb
LCb setrgbcolor
3344 640 M
0 31 V
0 2860 R
0 -31 V
3681 640 M
0 31 V
0 2860 R
0 -31 V
3919 640 M
0 31 V
0 2860 R
0 -31 V
4104 640 M
0 31 V
0 2860 R
0 -31 V
4255 640 M
0 31 V
0 2860 R
0 -31 V
4383 640 M
0 31 V
0 2860 R
0 -31 V
4494 640 M
0 31 V
0 2860 R
0 -31 V
4592 640 M
0 31 V
0 2860 R
0 -31 V
4679 640 M
0 63 V
0 2828 R
0 -63 V
stroke
4679 440 M
[ [(Helvetica) 200.0 0.0 true true 0 (10)]
[(Helvetica) 160.0 100.0 true true 0 (0)]
] -86.7 MCshow
1.000 UL
LTb
LCb setrgbcolor
1.000 UL
LTb
LCb setrgbcolor
860 3531 N
860 640 L
3819 0 V
0 2891 V
-3819 0 V
Z stroke
0.500 UP
1.000 UL
LTb
LCb setrgbcolor
LCb setrgbcolor
160 2085 M
currentpoint gsave translate -270 rotate 0 0 moveto
[ [(Helvetica) 200.0 0.0 true true 0 (Max inter-thread density)]
] -66.7 MCshow
grestore
LTb
LCb setrgbcolor
2769 140 M
[ [(Helvetica) 200.0 0.0 true true 0 (Intra-thread density)]
] -66.7 MCshow
LTb
% Begin plot #1
0.500 UP
0.500 UL
LTb
0.82 0.11 0.02 C 4342 3431 Pls
3767 3155 Pls
3763 3134 Pls
3917 3384 Pls
3344 3162 Pls
3527 3089 Pls
3765 3082 Pls
3343 2973 Pls
3117 2820 Pls
3918 3389 Pls
4382 3373 Pls
3182 3081 Pls
3763 3358 Pls
4044 3315 Pls
3637 2827 Pls
4103 3281 Pls
3528 3237 Pls
3528 3238 Pls
3638 3302 Pls
3523 3206 Pls
3262 3096 Pls
4043 3372 Pls
3734 3068 Pls
3632 3314 Pls
3343 2726 Pls
3498 2995 Pls
3871 3411 Pls
3628 2950 Pls
3767 3047 Pls
3123 2996 Pls
3611 3110 Pls
3428 3218 Pls
3637 3230 Pls
4103 3375 Pls
3264 2984 Pls
3614 3261 Pls
3909 3354 Pls
3616 3037 Pls
3766 3294 Pls
3910 3179 Pls
3003 2888 Pls
3736 2917 Pls
4043 3283 Pls
3758 3137 Pls
3248 3080 Pls
3210 3113 Pls
3192 3216 Pls
4104 3304 Pls
3761 3196 Pls
3824 3312 Pls
3734 2854 Pls
3825 3234 Pls
3762 3110 Pls
3186 3105 Pls
3639 3099 Pls
2532 2746 Pls
3762 3062 Pls
3918 3169 Pls
3263 2844 Pls
2891 3137 Pls
3036 2646 Pls
2918 2815 Pls
3580 3211 Pls
3640 3033 Pls
3912 3391 Pls
4103 3153 Pls
3317 3180 Pls
3411 3102 Pls
3481 3089 Pls
4047 3213 Pls
3639 3171 Pls
3190 3028 Pls
3190 2940 Pls
3322 2922 Pls
3258 3072 Pls
3372 2992 Pls
3089 2743 Pls
3192 2920 Pls
3527 3074 Pls
3636 3167 Pls
3616 3147 Pls
3639 3208 Pls
4104 3315 Pls
3479 3236 Pls
3918 3086 Pls
3528 3102 Pls
3914 3424 Pls
3083 2846 Pls
4100 3177 Pls
3478 2886 Pls
3918 3399 Pls
3264 2870 Pls
3862 3210 Pls
3061 2986 Pls
3734 3023 Pls
3767 3238 Pls
3460 3125 Pls
3416 3215 Pls
4103 3243 Pls
3119 2682 Pls
3529 3234 Pls
3611 3283 Pls
4046 3336 Pls
3423 2859 Pls
3251 3048 Pls
3528 3109 Pls
3583 3044 Pls
3505 3143 Pls
3766 3187 Pls
2912 2715 Pls
3767 3203 Pls
3639 3141 Pls
3919 3168 Pls
3736 2868 Pls
3263 3106 Pls
3734 3256 Pls
3328 3216 Pls
3763 3321 Pls
3640 2817 Pls
3529 3111 Pls
3581 2988 Pls
3184 3171 Pls
3430 3161 Pls
3639 2995 Pls
3229 3151 Pls
3057 2938 Pls
4255 3415 Pls
2142 2572 Pls
3755 3359 Pls
3766 3039 Pls
3180 2803 Pls
3318 3035 Pls
3729 3093 Pls
3339 3086 Pls
3337 2823 Pls
3766 3222 Pls
3524 2874 Pls
3460 3071 Pls
2975 2938 Pls
3648 3120 Pls
3507 3105 Pls
4101 3262 Pls
3824 3023 Pls
4045 3321 Pls
3340 3197 Pls
3428 2626 Pls
3481 3178 Pls
3430 3197 Pls
3763 3249 Pls
3912 3196 Pls
3766 3185 Pls
3817 3212 Pls
3912 3061 Pls
3877 3332 Pls
3137 3106 Pls
4101 3234 Pls
3526 3144 Pls
3429 3075 Pls
3264 3028 Pls
3912 3329 Pls
3257 2545 Pls
3919 2979 Pls
3919 3393 Pls
3767 3187 Pls
3527 3145 Pls
3764 2979 Pls
3329 3042 Pls
3528 3341 Pls
3526 3211 Pls
3526 3209 Pls
3303 3033 Pls
3506 2841 Pls
3973 3103 Pls
3638 3249 Pls
3768 3158 Pls
3611 3072 Pls
3916 3210 Pls
4044 3224 Pls
3766 3228 Pls
3542 3035 Pls
3430 3069 Pls
3343 2908 Pls
3976 3373 Pls
3507 3012 Pls
3253 2477 Pls
3264 2872 Pls
3767 2987 Pls
3422 2821 Pls
2615 2886 Pls
3103 3041 Pls
3638 3256 Pls
4254 3407 Pls
2866 2901 Pls
3465 3041 Pls
3431 2926 Pls
3526 3041 Pls
3762 2914 Pls
3608 3141 Pls
3338 2559 Pls
2845 2643 Pls
3263 3132 Pls
3918 3122 Pls
3767 3132 Pls
3616 3158 Pls
3043 2494 Pls
3528 3105 Pls
4104 3164 Pls
3762 3365 Pls
3639 3219 Pls
3822 3142 Pls
3764 3139 Pls
3638 3180 Pls
3919 3258 Pls
3581 2893 Pls
3895 3188 Pls
3876 3290 Pls
3765 3404 Pls
3146 2949 Pls
4046 3059 Pls
3264 3015 Pls
3918 3086 Pls
4098 3373 Pls
3765 3312 Pls
4031 3192 Pls
3528 3044 Pls
3525 2897 Pls
3610 3168 Pls
4155 3348 Pls
3916 3125 Pls
3574 3022 Pls
3510 2823 Pls
3580 3272 Pls
3164 2875 Pls
3431 2939 Pls
3767 3161 Pls
3321 3000 Pls
4103 3322 Pls
3004 2713 Pls
3502 3053 Pls
3646 3140 Pls
3337 3046 Pls
3918 3230 Pls
3759 3095 Pls
3765 3154 Pls
3299 3226 Pls
3761 3234 Pls
3762 3281 Pls
4104 3128 Pls
4046 3221 Pls
3528 3387 Pls
3638 3220 Pls
3522 3109 Pls
3876 3086 Pls
3864 3030 Pls
3528 3354 Pls
3430 2949 Pls
3766 3254 Pls
3263 2733 Pls
3529 3083 Pls
3510 3147 Pls
3733 3214 Pls
3878 3234 Pls
3630 2883 Pls
3401 3283 Pls
3528 3307 Pls
3523 3111 Pls
3698 3121 Pls
3314 2637 Pls
3876 3360 Pls
3969 3238 Pls
3134 2952 Pls
3329 2923 Pls
3640 3459 Pls
2973 2661 Pls
3610 3169 Pls
4101 3357 Pls
3637 3361 Pls
3416 2900 Pls
3919 2972 Pls
3615 2849 Pls
3919 3199 Pls
3190 2973 Pls
3919 3238 Pls
3473 3052 Pls
3527 2915 Pls
4343 3282 Pls
3734 2988 Pls
3177 3016 Pls
3415 3037 Pls
4343 3301 Pls
3918 3191 Pls
4039 3228 Pls
3118 3195 Pls
3918 3209 Pls
3527 3126 Pls
3263 3136 Pls
3822 3056 Pls
4103 3161 Pls
3637 3142 Pls
3635 3083 Pls
3499 3257 Pls
3975 3295 Pls
3193 2583 Pls
3239 2670 Pls
3916 3188 Pls
3183 2866 Pls
3765 3309 Pls
3917 3257 Pls
3525 3308 Pls
3509 3002 Pls
3616 3332 Pls
3064 2934 Pls
3524 3086 Pls
3639 3052 Pls
3638 3174 Pls
3759 3254 Pls
4102 3394 Pls
3418 2936 Pls
3527 3057 Pls
4045 3142 Pls
3766 3178 Pls
3692 3221 Pls
3062 2852 Pls
3330 2886 Pls
3479 3266 Pls
3918 3072 Pls
3429 3085 Pls
3364 3210 Pls
3448 3219 Pls
4100 3199 Pls
3639 2882 Pls
3638 2992 Pls
3416 3116 Pls
3767 3101 Pls
3767 2992 Pls
3264 3236 Pls
3736 3189 Pls
3541 3121 Pls
3125 2905 Pls
4341 3316 Pls
3431 3264 Pls
3428 2994 Pls
3915 3130 Pls
3766 3454 Pls
3192 3041 Pls
3903 3252 Pls
3537 2755 Pls
3824 3039 Pls
3529 3299 Pls
3170 3042 Pls
3917 3239 Pls
4102 3475 Pls
3262 3259 Pls
3874 3164 Pls
3341 3116 Pls
3918 3112 Pls
4046 3231 Pls
3264 3095 Pls
3639 3240 Pls
3615 2983 Pls
3615 3196 Pls
3886 3186 Pls
3823 3114 Pls
3509 3136 Pls
3524 3243 Pls
3336 2693 Pls
3919 3215 Pls
3330 3087 Pls
3892 3307 Pls
3767 3157 Pls
3527 3171 Pls
3525 3280 Pls
3614 3323 Pls
3342 3036 Pls
3639 3192 Pls
3430 3400 Pls
3876 3070 Pls
3507 2954 Pls
4103 3344 Pls
3651 2993 Pls
3296 2922 Pls
3917 3282 Pls
3211 3182 Pls
2999 2859 Pls
3515 3166 Pls
3528 3112 Pls
2924 2962 Pls
3613 3003 Pls
3308 3061 Pls
3768 3274 Pls
3638 3263 Pls
3832 3311 Pls
3767 3267 Pls
3451 3268 Pls
3424 3182 Pls
4103 3167 Pls
3528 3184 Pls
3767 2979 Pls
3765 3358 Pls
3918 3091 Pls
3529 3294 Pls
3918 3036 Pls
3640 3052 Pls
3616 3062 Pls
4092 3358 Pls
2842 2937 Pls
3262 2733 Pls
4253 3360 Pls
3915 3348 Pls
3878 3077 Pls
3639 3069 Pls
3918 3232 Pls
3581 2973 Pls
3429 3082 Pls
3913 3202 Pls
3264 3093 Pls
3636 3120 Pls
3648 3223 Pls
3252 3023 Pls
3760 3014 Pls
3529 3180 Pls
3878 2952 Pls
3420 2913 Pls
3767 3035 Pls
4102 3412 Pls
3646 3071 Pls
4103 3200 Pls
3098 2895 Pls
3341 2923 Pls
3615 3215 Pls
3528 3024 Pls
3147 2990 Pls
3918 3165 Pls
3298 3209 Pls
4339 3372 Pls
3523 3194 Pls
4046 3245 Pls
3765 3296 Pls
3876 3128 Pls
4074 3399 Pls
3125 3038 Pls
3639 2990 Pls
3244 2820 Pls
3516 2957 Pls
3168 2859 Pls
3005 2916 Pls
3768 3321 Pls
3916 3161 Pls
3639 3332 Pls
3525 2849 Pls
3527 3140 Pls
3415 3056 Pls
3636 2921 Pls
4343 3353 Pls
3340 3161 Pls
3615 3147 Pls
3343 2976 Pls
3045 3068 Pls
3522 3018 Pls
3509 3014 Pls
4103 3407 Pls
3737 3099 Pls
3754 3172 Pls
3917 3093 Pls
3189 3078 Pls
4254 3302 Pls
3411 2871 Pls
3008 2927 Pls
3615 2939 Pls
3430 3067 Pls
3640 3305 Pls
3740 3326 Pls
3876 3322 Pls
4103 3509 Pls
3064 2709 Pls
3128 3129 Pls
3919 3042 Pls
3683 3074 Pls
3916 3136 Pls
3768 3123 Pls
3918 3229 Pls
3765 3002 Pls
3768 3045 Pls
3767 3206 Pls
3429 2997 Pls
3616 3276 Pls
3918 3006 Pls
3430 2946 Pls
3737 3172 Pls
3295 2939 Pls
3524 3175 Pls
3497 2982 Pls
3759 3086 Pls
3189 3267 Pls
4104 3103 Pls
3736 3181 Pls
4042 3217 Pls
3253 3048 Pls
3918 3308 Pls
3443 3157 Pls
3084 3022 Pls
3695 3305 Pls
4045 3086 Pls
3431 3210 Pls
3918 3141 Pls
3639 3233 Pls
3583 3092 Pls
3616 2932 Pls
4342 3293 Pls
3259 2969 Pls
4103 3452 Pls
3877 3341 Pls
3975 3163 Pls
3766 2995 Pls
3085 3010 Pls
4100 3436 Pls
3431 3055 Pls
4157 3293 Pls
3430 3190 Pls
3761 2938 Pls
3184 3091 Pls
3528 3230 Pls
4100 3166 Pls
4038 3241 Pls
3432 3276 Pls
3505 3124 Pls
3390 3016 Pls
3122 2947 Pls
3911 3164 Pls
3917 3307 Pls
3823 2926 Pls
3230 3066 Pls
3482 3001 Pls
3596 3309 Pls
3975 3003 Pls
3765 3174 Pls
3913 3068 Pls
3342 3137 Pls
3767 3227 Pls
3717 3036 Pls
4045 3067 Pls
3638 3326 Pls
4047 3279 Pls
3526 2842 Pls
3580 3106 Pls
4342 3375 Pls
3509 3003 Pls
3734 3030 Pls
3340 2935 Pls
4155 3273 Pls
3053 2801 Pls
3638 3157 Pls
3430 3231 Pls
3388 3137 Pls
4043 3300 Pls
2993 3002 Pls
3614 3186 Pls
3899 3200 Pls
3387 3058 Pls
3430 3098 Pls
3768 3236 Pls
3736 3234 Pls
3427 3263 Pls
3342 2609 Pls
4033 3270 Pls
3919 3149 Pls
3525 2995 Pls
3918 3342 Pls
3919 3427 Pls
3616 3085 Pls
3600 3130 Pls
4103 3257 Pls
3919 3320 Pls
3613 3387 Pls
3635 3184 Pls
3528 3102 Pls
3505 2730 Pls
3766 3165 Pls
4103 3234 Pls
4101 3179 Pls
3529 3093 Pls
3342 3207 Pls
3950 3292 Pls
2796 3268 Pls
4043 3209 Pls
4103 3258 Pls
3972 3172 Pls
3428 3003 Pls
3374 3044 Pls
3639 3018 Pls
3179 3151 Pls
3522 3055 Pls
3824 3173 Pls
3064 2903 Pls
3917 3195 Pls
3337 2771 Pls
3737 3044 Pls
4382 3384 Pls
4099 3391 Pls
3695 3084 Pls
3878 3343 Pls
3091 2691 Pls
3064 2742 Pls
3527 3020 Pls
4099 3249 Pls
3915 3352 Pls
3767 3140 Pls
3972 3386 Pls
3072 2583 Pls
3762 3047 Pls
3429 2763 Pls
3637 3329 Pls
3233 3024 Pls
3919 3272 Pls
3878 3172 Pls
3500 3100 Pls
3913 2958 Pls
3281 2805 Pls
3762 3301 Pls
4046 3289 Pls
3767 3098 Pls
4100 3306 Pls
3430 3185 Pls
3526 2918 Pls
2998 3082 Pls
3765 3258 Pls
2755 2927 Pls
2952 3085 Pls
2893 3063 Pls
4104 3400 Pls
3110 3208 Pls
3975 3183 Pls
3634 3166 Pls
3183 2834 Pls
3615 3309 Pls
3764 3087 Pls
4337 3366 Pls
3099 3185 Pls
3766 3181 Pls
3819 3194 Pls
3148 3191 Pls
3975 3112 Pls
3830 3164 Pls
3528 3279 Pls
3626 3058 Pls
3917 3392 Pls
3638 3257 Pls
3767 3244 Pls
3616 3158 Pls
3326 3132 Pls
3733 3231 Pls
3767 3144 Pls
3637 2776 Pls
3912 3104 Pls
3166 2917 Pls
4093 3273 Pls
3918 3195 Pls
3918 3061 Pls
3330 2784 Pls
3865 3082 Pls
3430 3369 Pls
3528 2980 Pls
4102 3395 Pls
3482 3074 Pls
4046 3235 Pls
3508 2973 Pls
3527 2967 Pls
3639 3251 Pls
3916 3215 Pls
3620 3321 Pls
3822 3142 Pls
3767 3064 Pls
3264 2777 Pls
3330 2953 Pls
3733 2970 Pls
4044 3445 Pls
3917 3240 Pls
3263 2966 Pls
3576 3132 Pls
3645 2837 Pls
3768 3197 Pls
3188 2894 Pls
3876 3331 Pls
3825 3286 Pls
3343 3219 Pls
3431 2954 Pls
3639 3128 Pls
4100 3405 Pls
3543 3108 Pls
3768 3044 Pls
3766 3383 Pls
3444 3183 Pls
3173 3087 Pls
3767 3294 Pls
3639 3365 Pls
3253 2687 Pls
3338 3103 Pls
3914 3296 Pls
3823 3099 Pls
3638 3107 Pls
3914 3068 Pls
3450 3140 Pls
3428 3142 Pls
3262 3077 Pls
3523 2994 Pls
2761 2984 Pls
3767 3301 Pls
4341 3391 Pls
3918 3077 Pls
3918 3087 Pls
4047 3349 Pls
3343 3052 Pls
3529 3155 Pls
3498 3146 Pls
3425 2946 Pls
3765 3207 Pls
3639 3354 Pls
3638 3204 Pls
3632 3101 Pls
3915 3071 Pls
3918 3251 Pls
3919 3203 Pls
3498 3106 Pls
3919 3443 Pls
3051 2760 Pls
3049 3205 Pls
3916 3229 Pls
3325 3289 Pls
3344 2740 Pls
3765 3192 Pls
3327 3112 Pls
3528 3216 Pls
3528 3434 Pls
3878 2976 Pls
3616 3175 Pls
3877 3257 Pls
3510 3319 Pls
3344 2965 Pls
3413 2976 Pls
3764 2997 Pls
4046 3111 Pls
3918 3248 Pls
4342 3329 Pls
3441 3071 Pls
3970 3386 Pls
3011 2900 Pls
3766 3022 Pls
3766 3194 Pls
3612 2956 Pls
4103 3216 Pls
4103 3309 Pls
4152 3282 Pls
3264 2823 Pls
3569 3135 Pls
4087 3328 Pls
3896 3168 Pls
3693 3351 Pls
3265 3003 Pls
3918 3263 Pls
3013 2920 Pls
3458 2908 Pls
4342 3286 Pls
3733 3098 Pls
3340 3213 Pls
4081 3234 Pls
3528 2871 Pls
4253 3214 Pls
3637 3279 Pls
3192 2980 Pls
3824 3226 Pls
3637 3004 Pls
3616 3003 Pls
3757 3372 Pls
3124 2699 Pls
3343 3173 Pls
3415 2913 Pls
3357 2814 Pls
3264 2594 Pls
3391 3085 Pls
3343 3163 Pls
3342 3242 Pls
3430 3178 Pls
4338 3461 Pls
2937 3016 Pls
3342 3163 Pls
4103 3287 Pls
3763 3056 Pls
3066 3138 Pls
3567 3132 Pls
3576 2778 Pls
3692 3293 Pls
3737 3152 Pls
3697 3177 Pls
3733 3141 Pls
3767 3290 Pls
3526 3219 Pls
3902 3124 Pls
3918 3115 Pls
3068 2952 Pls
3918 3247 Pls
3235 3118 Pls
3516 2924 Pls
3721 3253 Pls
3116 2872 Pls
3639 3201 Pls
3337 3088 Pls
4098 3398 Pls
3767 3151 Pls
3876 3048 Pls
3914 3295 Pls
3765 2916 Pls
3521 3508 Pls
3528 3204 Pls
3906 3047 Pls
3822 2907 Pls
3767 3017 Pls
3768 3469 Pls
3767 3123 Pls
4093 3288 Pls
4043 3196 Pls
3253 3272 Pls
3480 2895 Pls
3461 2863 Pls
3918 3296 Pls
3764 3016 Pls
3766 3188 Pls
3767 3386 Pls
3613 3095 Pls
3917 3035 Pls
3413 3097 Pls
3767 3319 Pls
3526 3132 Pls
3521 3065 Pls
3062 2698 Pls
3186 2650 Pls
3507 2781 Pls
3918 3225 Pls
3767 2845 Pls
3526 3081 Pls
3737 3136 Pls
3639 3056 Pls
3767 3125 Pls
2761 3030 Pls
3529 2809 Pls
3765 3244 Pls
3915 3282 Pls
3766 3219 Pls
3526 2931 Pls
3615 3058 Pls
3509 3133 Pls
3822 3165 Pls
4104 3294 Pls
4240 3417 Pls
3918 3175 Pls
4102 3421 Pls
3409 3010 Pls
4238 3391 Pls
3331 2800 Pls
3524 3100 Pls
4103 3200 Pls
3577 2999 Pls
3527 3059 Pls
3521 3331 Pls
3749 3080 Pls
3877 3032 Pls
4045 3138 Pls
4044 3145 Pls
3426 2945 Pls
3508 3005 Pls
3429 3049 Pls
3638 3246 Pls
2953 2811 Pls
3004 2954 Pls
3762 3277 Pls
2783 2793 Pls
3975 3252 Pls
3510 3236 Pls
3639 2957 Pls
3823 3278 Pls
3527 3210 Pls
3918 3159 Pls
3502 3267 Pls
3481 2922 Pls
3430 3103 Pls
3528 3121 Pls
4035 3382 Pls
3767 3223 Pls
3918 3265 Pls
3640 3108 Pls
3767 3245 Pls
3764 2970 Pls
3416 3085 Pls
3055 3123 Pls
3342 3147 Pls
3062 2812 Pls
3638 3172 Pls
4096 3294 Pls
3916 3258 Pls
3877 3025 Pls
3734 3294 Pls
3735 2995 Pls
3125 2909 Pls
3431 2973 Pls
3766 3169 Pls
3460 2808 Pls
3507 2770 Pls
3611 2895 Pls
3527 3026 Pls
3331 3191 Pls
3639 3046 Pls
3917 3075 Pls
3430 2890 Pls
3402 3034 Pls
3253 3070 Pls
3508 3069 Pls
2709 2374 Pls
3639 3105 Pls
3462 2809 Pls
3431 2988 Pls
4126 3128 Pls
3639 3329 Pls
3525 3199 Pls
3765 3077 Pls
3180 2777 Pls
3571 3019 Pls
3163 2765 Pls
3430 2865 Pls
3877 3406 Pls
3766 2970 Pls
3266 3134 Pls
3527 3185 Pls
3341 3089 Pls
3264 2925 Pls
3736 3140 Pls
3508 3139 Pls
3695 3243 Pls
3822 3117 Pls
3312 3313 Pls
3647 3267 Pls
3639 3078 Pls
3215 3122 Pls
3584 3224 Pls
3766 3198 Pls
3638 3172 Pls
3909 3156 Pls
3527 3129 Pls
3582 2974 Pls
3831 3352 Pls
3635 3264 Pls
3692 3129 Pls
4255 3466 Pls
3572 3184 Pls
3895 3257 Pls
3210 3153 Pls
3342 2995 Pls
3236 2831 Pls
3316 3146 Pls
3918 3158 Pls
3634 3271 Pls
4063 3079 Pls
3340 3226 Pls
3412 2725 Pls
3191 3005 Pls
3805 3097 Pls
3767 3262 Pls
3737 3238 Pls
3762 3330 Pls
3917 3357 Pls
3529 2965 Pls
3529 3084 Pls
3516 2929 Pls
3639 3303 Pls
3736 3185 Pls
3337 3232 Pls
3819 3313 Pls
3105 2944 Pls
3429 2933 Pls
3767 2963 Pls
3637 3062 Pls
3877 3246 Pls
3429 3020 Pls
3528 2945 Pls
4045 3395 Pls
3528 3162 Pls
3951 3205 Pls
3767 2974 Pls
3540 3165 Pls
3341 2982 Pls
3737 3268 Pls
3917 3291 Pls
4153 3139 Pls
4104 3193 Pls
3552 3249 Pls
3767 3009 Pls
3197 3015 Pls
3734 3291 Pls
4103 3142 Pls
3338 2878 Pls
3285 2859 Pls
3735 3197 Pls
3639 2964 Pls
3522 2940 Pls
4094 3111 Pls
3766 3243 Pls
3916 3190 Pls
3877 3199 Pls
4046 3229 Pls
3258 3128 Pls
3919 3176 Pls
3528 3111 Pls
3219 2943 Pls
3875 3211 Pls
3767 3292 Pls
3253 2710 Pls
3695 3207 Pls
3614 3229 Pls
4341 3296 Pls
3215 2900 Pls
3737 3049 Pls
3766 2851 Pls
3526 2983 Pls
2395 2756 Pls
2997 3132 Pls
3639 2999 Pls
3639 3255 Pls
3638 3154 Pls
3823 3079 Pls
3630 3097 Pls
3262 3149 Pls
3679 3169 Pls
3511 3154 Pls
4103 3266 Pls
3640 3399 Pls
3528 2844 Pls
3337 2790 Pls
4157 3378 Pls
3424 3008 Pls
3719 3248 Pls
3913 3207 Pls
3735 3192 Pls
4342 3336 Pls
3333 3108 Pls
3639 3105 Pls
4255 3316 Pls
4340 3365 Pls
3338 3084 Pls
3767 3090 Pls
3581 2977 Pls
3638 3346 Pls
3361 3182 Pls
3916 3109 Pls
3572 3423 Pls
3635 3075 Pls
3524 3137 Pls
3875 3287 Pls
3693 3271 Pls
3286 3035 Pls
3764 2901 Pls
4033 3204 Pls
3051 2936 Pls
3005 2743 Pls
3764 3314 Pls
3637 3161 Pls
3502 3221 Pls
3877 3249 Pls
3750 3201 Pls
3917 3325 Pls
3734 3299 Pls
3519 3169 Pls
4253 3278 Pls
4041 3145 Pls
3639 2970 Pls
3256 2829 Pls
3521 3037 Pls
3329 2930 Pls
3429 3051 Pls
3555 3110 Pls
3876 3195 Pls
3918 3195 Pls
3733 2965 Pls
3917 3119 Pls
3914 3400 Pls
3637 3213 Pls
4103 3230 Pls
3765 3317 Pls
3343 3172 Pls
3767 3286 Pls
3264 3046 Pls
3529 3323 Pls
4342 3281 Pls
3161 3226 Pls
3199 2947 Pls
3496 2783 Pls
3877 3438 Pls
3045 2783 Pls
3763 3196 Pls
3735 2964 Pls
3513 3361 Pls
3637 3259 Pls
3919 3465 Pls
3518 3172 Pls
4342 3480 Pls
3636 3174 Pls
3878 3212 Pls
3974 3058 Pls
3162 2932 Pls
3971 3241 Pls
2822 2752 Pls
3606 3240 Pls
3878 3462 Pls
3340 3009 Pls
3734 2933 Pls
3481 3198 Pls
3637 2948 Pls
3538 2962 Pls
3334 3033 Pls
3340 3003 Pls
4039 3277 Pls
3639 3182 Pls
3636 2854 Pls
3766 3112 Pls
3648 3119 Pls
3036 2882 Pls
3331 2676 Pls
4088 3254 Pls
3085 3226 Pls
3529 3023 Pls
3411 3067 Pls
3878 3044 Pls
3767 3242 Pls
3783 3124 Pls
3877 3125 Pls
4253 3487 Pls
3915 3329 Pls
3231 3040 Pls
4254 3351 Pls
4254 3317 Pls
3640 3195 Pls
3767 3128 Pls
3581 3235 Pls
3188 2598 Pls
3764 3219 Pls
4342 3337 Pls
3526 2934 Pls
3431 3226 Pls
3877 3107 Pls
3596 2938 Pls
3192 2736 Pls
4103 3359 Pls
4251 3218 Pls
3330 3190 Pls
3752 3275 Pls
3766 3016 Pls
3580 2918 Pls
3413 2980 Pls
3764 3091 Pls
3637 2970 Pls
3917 3222 Pls
3695 3411 Pls
3514 3129 Pls
4100 3446 Pls
3830 3362 Pls
3612 3124 Pls
3629 3172 Pls
3835 3155 Pls
3555 3283 Pls
3228 2961 Pls
4254 3348 Pls
3628 3281 Pls
3766 3154 Pls
3624 3255 Pls
3424 3119 Pls
3765 3363 Pls
3332 3008 Pls
3736 3236 Pls
3735 3328 Pls
4342 3358 Pls
3256 2723 Pls
3741 3154 Pls
3429 3094 Pls
3429 2882 Pls
3764 3068 Pls
3916 3123 Pls
3765 3323 Pls
2944 2864 Pls
4047 3106 Pls
4045 3156 Pls
3877 3175 Pls
4045 3157 Pls
3767 3253 Pls
3136 2862 Pls
3262 3069 Pls
3363 3029 Pls
3427 2677 Pls
3753 3094 Pls
3767 3256 Pls
3114 2908 Pls
3615 3066 Pls
3338 2903 Pls
3529 3126 Pls
3766 3333 Pls
3184 3083 Pls
3526 3095 Pls
3767 3281 Pls
4038 3362 Pls
3527 3133 Pls
3430 3225 Pls
3450 3098 Pls
3878 3225 Pls
4332 3396 Pls
3767 3095 Pls
3638 2858 Pls
3580 3137 Pls
3478 3302 Pls
3878 3302 Pls
3918 3327 Pls
3634 3217 Pls
3527 3282 Pls
3721 3317 Pls
3529 3221 Pls
3918 3475 Pls
3613 3006 Pls
3436 3407 Pls
3526 3101 Pls
3637 2989 Pls
3918 3426 Pls
3694 3302 Pls
3261 2959 Pls
4103 3199 Pls
3340 2940 Pls
3260 3065 Pls
2668 2888 Pls
3426 3014 Pls
3919 3431 Pls
3528 3049 Pls
3183 2458 Pls
3640 2949 Pls
3190 3044 Pls
3609 2806 Pls
3694 3033 Pls
3088 2983 Pls
3762 2951 Pls
3523 2872 Pls
3736 3045 Pls
3527 3241 Pls
3527 3051 Pls
3122 2959 Pls
4337 3313 Pls
3116 2893 Pls
3735 3045 Pls
3644 3229 Pls
4342 3322 Pls
3767 3006 Pls
3421 3290 Pls
3615 3263 Pls
4103 3369 Pls
3430 3202 Pls
4042 3312 Pls
3428 3321 Pls
4099 3290 Pls
3767 3174 Pls
3525 3046 Pls
3638 3109 Pls
3866 3315 Pls
3541 3244 Pls
4102 3222 Pls
3614 2933 Pls
4340 3487 Pls
3182 3001 Pls
3825 3143 Pls
2878 2773 Pls
3638 3174 Pls
3524 2841 Pls
4045 3110 Pls
3639 3111 Pls
3919 3246 Pls
3517 2840 Pls
3187 3013 Pls
4046 3342 Pls
4103 3367 Pls
2759 2861 Pls
3810 3099 Pls
3764 3385 Pls
3917 3087 Pls
3754 2924 Pls
4044 3182 Pls
3235 3177 Pls
3392 3032 Pls
3694 3267 Pls
3372 3158 Pls
3917 3319 Pls
3918 3438 Pls
3640 3054 Pls
3622 3165 Pls
3638 3189 Pls
3615 3220 Pls
3758 3245 Pls
3767 3230 Pls
3329 2853 Pls
3527 3034 Pls
3529 3265 Pls
3343 3129 Pls
3759 3270 Pls
3328 2956 Pls
3509 3037 Pls
3736 3216 Pls
3902 3037 Pls
3766 3453 Pls
3918 3350 Pls
3895 3096 Pls
3633 3200 Pls
3692 3122 Pls
3765 3337 Pls
4155 3327 Pls
3919 3368 Pls
3462 3278 Pls
3428 3104 Pls
3822 3091 Pls
3736 3338 Pls
3479 3250 Pls
3918 3188 Pls
3765 3084 Pls
4046 3359 Pls
3423 3177 Pls
3639 3234 Pls
3878 3398 Pls
3737 3253 Pls
4042 3071 Pls
3647 3314 Pls
3638 2866 Pls
3875 3191 Pls
3761 3090 Pls
3344 2951 Pls
3917 3050 Pls
3301 3274 Pls
3767 3235 Pls
3190 3138 Pls
3767 3303 Pls
3369 3079 Pls
3062 3073 Pls
4523 3437 Pls
3638 2878 Pls
3843 3141 Pls
3909 3024 Pls
3431 3188 Pls
3233 3213 Pls
3616 3103 Pls
3913 2955 Pls
3919 3374 Pls
3919 3079 Pls
3386 3391 Pls
3528 3025 Pls
3834 3294 Pls
3508 3297 Pls
3525 3278 Pls
4102 3240 Pls
3251 2938 Pls
3639 3007 Pls
3525 3371 Pls
3872 3053 Pls
3915 3253 Pls
3822 3221 Pls
3917 3206 Pls
4102 3252 Pls
3510 3120 Pls
3917 3229 Pls
4173 3246 Pls
3918 3393 Pls
4104 3328 Pls
3528 3346 Pls
3638 3274 Pls
3616 3117 Pls
3767 3062 Pls
3377 3370 Pls
3760 3049 Pls
3634 3251 Pls
3877 3129 Pls
3106 3086 Pls
3752 2935 Pls
3416 2850 Pls
4098 3232 Pls
3646 2919 Pls
4046 3076 Pls
3082 3017 Pls
3613 3011 Pls
3756 3282 Pls
3343 3237 Pls
3692 3317 Pls
3262 2789 Pls
3816 3372 Pls
4102 3319 Pls
3522 2961 Pls
3432 3160 Pls
4342 3291 Pls
3329 3160 Pls
3527 3223 Pls
3734 3084 Pls
3641 3273 Pls
3640 3248 Pls
3338 2980 Pls
4095 3364 Pls
3381 2890 Pls
3430 3189 Pls
3431 3116 Pls
3640 3057 Pls
3343 2922 Pls
3637 3032 Pls
4102 3504 Pls
3766 3401 Pls
3767 3110 Pls
3917 3276 Pls
2918 2884 Pls
3263 2819 Pls
3639 3194 Pls
2765 2898 Pls
3327 2769 Pls
3764 3184 Pls
3526 3185 Pls
3057 3052 Pls
3115 3015 Pls
3445 3042 Pls
3334 3215 Pls
4103 3108 Pls
3266 2777 Pls
3917 3409 Pls
3768 2854 Pls
3761 3163 Pls
3762 3102 Pls
3767 3257 Pls
3919 3299 Pls
3767 3258 Pls
3183 3014 Pls
3430 2837 Pls
3264 2738 Pls
3648 3110 Pls
3608 3072 Pls
2587 2706 Pls
3758 2898 Pls
4338 3301 Pls
3163 3066 Pls
3637 3162 Pls
3918 3093 Pls
3600 3170 Pls
3735 3121 Pls
3262 2607 Pls
3639 2854 Pls
3869 3396 Pls
3262 3019 Pls
3919 3244 Pls
3528 3191 Pls
2936 2793 Pls
3393 3242 Pls
3597 3016 Pls
3579 3059 Pls
3258 3105 Pls
3526 3045 Pls
3638 2892 Pls
3919 3146 Pls
3035 3064 Pls
3761 2870 Pls
3037 2803 Pls
4103 3467 Pls
3918 3231 Pls
3819 3140 Pls
3253 3146 Pls
3764 3404 Pls
3182 2936 Pls
3449 2980 Pls
3502 3120 Pls
3914 3232 Pls
3763 3372 Pls
3340 3161 Pls
3264 3008 Pls
3638 3056 Pls
3638 3107 Pls
3527 3202 Pls
3513 3117 Pls
3339 2996 Pls
3527 2765 Pls
3638 3128 Pls
3763 3063 Pls
3604 3118 Pls
3579 2898 Pls
3528 2926 Pls
3878 3404 Pls
3757 2988 Pls
3766 3366 Pls
3640 3113 Pls
4255 3503 Pls
3190 3022 Pls
3515 3173 Pls
3190 3017 Pls
3527 2852 Pls
2889 3143 Pls
3918 3146 Pls
3343 2998 Pls
3306 3034 Pls
3508 3202 Pls
3341 3069 Pls
3612 3289 Pls
4042 3237 Pls
3428 3184 Pls
3520 3107 Pls
4102 3194 Pls
3693 3212 Pls
3535 3412 Pls
3766 3374 Pls
3636 2899 Pls
2849 2854 Pls
3525 3006 Pls
4100 3099 Pls
3478 3208 Pls
3426 3000 Pls
3582 3089 Pls
3767 3063 Pls
3638 2746 Pls
3126 2970 Pls
3735 3318 Pls
3875 3185 Pls
4155 3330 Pls
3482 3049 Pls
3639 3188 Pls
3428 3120 Pls
3343 3226 Pls
3640 3018 Pls
3572 3058 Pls
3260 3062 Pls
3529 3158 Pls
3952 3287 Pls
3730 2833 Pls
3582 3109 Pls
4253 3227 Pls
3637 3340 Pls
3520 3283 Pls
3230 2952 Pls
3426 3044 Pls
3874 3018 Pls
4095 3391 Pls
3509 3319 Pls
3478 3183 Pls
3869 3140 Pls
4000 3404 Pls
4062 3254 Pls
3000 2990 Pls
3767 3228 Pls
3737 3003 Pls
3824 3140 Pls
3522 3388 Pls
3528 3005 Pls
3526 3139 Pls
3918 3346 Pls
3135 2980 Pls
3414 3064 Pls
3606 2803 Pls
3506 3221 Pls
3520 2783 Pls
3343 3122 Pls
4103 3352 Pls
3917 3364 Pls
3918 3180 Pls
3250 3066 Pls
2935 2803 Pls
3763 3088 Pls
4103 3392 Pls
3416 3148 Pls
3735 3255 Pls
3341 3212 Pls
3918 3225 Pls
3636 3080 Pls
3639 3078 Pls
3182 3114 Pls
3695 2950 Pls
3646 2967 Pls
3509 3039 Pls
2841 2967 Pls
3523 3135 Pls
3528 2920 Pls
3640 3153 Pls
3381 3149 Pls
3431 2955 Pls
3638 3418 Pls
3767 3066 Pls
3917 3387 Pls
3100 2656 Pls
3269 2679 Pls
3767 2926 Pls
3764 3216 Pls
3736 3153 Pls
3429 3162 Pls
3525 3004 Pls
4091 3395 Pls
4156 3169 Pls
3527 3167 Pls
3324 3016 Pls
3496 3388 Pls
3723 3363 Pls
3341 2742 Pls
3637 3118 Pls
3505 2986 Pls
3578 2986 Pls
3337 2895 Pls
3639 3379 Pls
3824 3233 Pls
3055 2778 Pls
3760 3120 Pls
4253 3475 Pls
3635 3244 Pls
3639 2811 Pls
3410 2703 Pls
3640 2915 Pls
3338 2760 Pls
3623 3090 Pls
4045 3226 Pls
3640 2780 Pls
3431 3176 Pls
3109 2790 Pls
3470 2893 Pls
4098 3246 Pls
3918 3222 Pls
4103 3197 Pls
3877 3064 Pls
3919 3137 Pls
3919 3319 Pls
3527 2754 Pls
3264 3081 Pls
3902 2995 Pls
3765 3054 Pls
3765 3339 Pls
3513 3190 Pls
3732 3330 Pls
3636 2856 Pls
3535 3173 Pls
3528 3219 Pls
3918 3300 Pls
3493 3117 Pls
3233 2764 Pls
3343 3000 Pls
3529 3212 Pls
4101 3301 Pls
3187 2920 Pls
4104 3175 Pls
3640 3181 Pls
4152 3307 Pls
3328 2931 Pls
3767 3250 Pls
4342 3303 Pls
3736 3223 Pls
3918 3203 Pls
3767 3194 Pls
4044 3495 Pls
3640 3171 Pls
3528 3193 Pls
3252 3138 Pls
3527 3207 Pls
3528 3504 Pls
3429 3204 Pls
3919 3056 Pls
3412 3127 Pls
3525 3046 Pls
3638 2827 Pls
3766 3282 Pls
3638 3173 Pls
4046 3106 Pls
3529 3271 Pls
3918 3247 Pls
3918 3177 Pls
3165 3076 Pls
4102 3269 Pls
3418 2982 Pls
3689 3124 Pls
3971 3259 Pls
3040 2828 Pls
3515 3180 Pls
3524 2788 Pls
3973 3188 Pls
3637 3221 Pls
3185 2985 Pls
3444 3269 Pls
3971 3146 Pls
3824 3414 Pls
3521 3202 Pls
3427 2852 Pls
3767 3418 Pls
3046 2933 Pls
3832 3446 Pls
3249 3087 Pls
3268 3178 Pls
3767 3111 Pls
3821 3361 Pls
3299 2850 Pls
4253 3282 Pls
3767 3384 Pls
3919 3121 Pls
3912 3273 Pls
3528 3041 Pls
3523 3099 Pls
3343 3135 Pls
3526 2963 Pls
3872 3090 Pls
3751 3013 Pls
4341 3400 Pls
3767 3313 Pls
3226 3214 Pls
3767 3083 Pls
4326 3328 Pls
3510 3160 Pls
3643 3179 Pls
3638 3053 Pls
3153 3244 Pls
3316 3070 Pls
3630 3294 Pls
3765 3244 Pls
3760 3202 Pls
2957 2861 Pls
3919 3287 Pls
3475 2657 Pls
3878 3277 Pls
3247 3090 Pls
3764 3256 Pls
3916 3133 Pls
3340 2905 Pls
3426 3142 Pls
3616 3224 Pls
3832 3060 Pls
3660 3174 Pls
3340 2903 Pls
3343 3297 Pls
2998 3114 Pls
3910 3025 Pls
3615 2776 Pls
3876 3131 Pls
3916 3202 Pls
3917 3296 Pls
3639 3007 Pls
2800 3008 Pls
3822 3310 Pls
3428 3205 Pls
3520 2717 Pls
3918 3228 Pls
3529 3092 Pls
3431 3208 Pls
3918 3075 Pls
3528 3089 Pls
3192 2984 Pls
4054 3356 Pls
3311 3042 Pls
3733 3314 Pls
3615 3040 Pls
3639 3337 Pls
3918 3244 Pls
3183 3127 Pls
3063 2419 Pls
3912 3191 Pls
3611 3203 Pls
3521 3014 Pls
3265 2994 Pls
3473 3314 Pls
2802 2870 Pls
3615 3315 Pls
3343 3124 Pls
4045 3276 Pls
3767 3090 Pls
3519 3031 Pls
3510 3192 Pls
3528 3070 Pls
3825 3051 Pls
3529 3118 Pls
3766 3176 Pls
4336 3303 Pls
3767 3359 Pls
3919 3223 Pls
3439 2757 Pls
3734 3205 Pls
3767 3213 Pls
3765 3231 Pls
3320 3001 Pls
3125 3089 Pls
4342 3473 Pls
3633 3405 Pls
3424 3057 Pls
3496 3330 Pls
3508 2764 Pls
3756 3133 Pls
3430 3144 Pls
3874 3254 Pls
3525 3108 Pls
3080 2684 Pls
4103 3289 Pls
3327 3135 Pls
3344 3092 Pls
3342 3223 Pls
3638 3108 Pls
3768 3299 Pls
3325 3035 Pls
3831 2891 Pls
3759 3217 Pls
3525 3054 Pls
3761 3215 Pls
3264 3028 Pls
3191 3189 Pls
3627 3144 Pls
3166 2901 Pls
3868 3362 Pls
3876 3333 Pls
3505 3077 Pls
3918 3069 Pls
3637 3033 Pls
4103 3176 Pls
3529 3251 Pls
3593 2929 Pls
3528 2969 Pls
4062 3069 Pls
3767 3281 Pls
3824 3192 Pls
3329 2775 Pls
3873 3248 Pls
3639 3194 Pls
3695 3169 Pls
4101 3167 Pls
3529 3399 Pls
3917 2955 Pls
3911 3311 Pls
4102 3365 Pls
3917 3105 Pls
4099 3200 Pls
3173 3088 Pls
3344 3276 Pls
3918 3316 Pls
3633 3259 Pls
3765 3151 Pls
3638 3204 Pls
4342 3414 Pls
3186 2791 Pls
3695 3290 Pls
3877 3269 Pls
3430 3136 Pls
3528 3058 Pls
3637 3349 Pls
3767 3175 Pls
3193 3091 Pls
3733 3093 Pls
3765 2974 Pls
4103 3187 Pls
3192 3024 Pls
3874 3330 Pls
3418 3278 Pls
3478 3031 Pls
4099 3431 Pls
3430 3255 Pls
3528 3038 Pls
4342 3334 Pls
3425 3208 Pls
3593 3035 Pls
3632 3148 Pls
3917 3002 Pls
3478 2805 Pls
3874 3166 Pls
3767 3159 Pls
3508 2942 Pls
3736 3216 Pls
3378 2773 Pls
3181 3105 Pls
3638 3143 Pls
3527 2844 Pls
3766 3218 Pls
4104 3113 Pls
3768 3059 Pls
3406 3245 Pls
3767 3038 Pls
3431 3146 Pls
3638 3037 Pls
3429 2916 Pls
3767 3138 Pls
3615 3015 Pls
3767 3022 Pls
3895 3182 Pls
3606 3383 Pls
3628 2879 Pls
3694 2979 Pls
2783 2539 Pls
3649 3231 Pls
3607 3246 Pls
3430 3100 Pls
3414 3146 Pls
3640 3362 Pls
3595 3146 Pls
3638 3246 Pls
3878 3148 Pls
3919 3141 Pls
4104 3254 Pls
3301 3112 Pls
3765 3191 Pls
3764 3255 Pls
3261 3041 Pls
3691 2935 Pls
3919 3085 Pls
3916 3209 Pls
3522 3323 Pls
3510 3025 Pls
3328 3088 Pls
3639 3282 Pls
3639 2871 Pls
3264 2929 Pls
3431 3357 Pls
3974 3249 Pls
3125 3163 Pls
3231 3290 Pls
4103 3170 Pls
3919 3345 Pls
3767 3250 Pls
3766 3207 Pls
3972 3333 Pls
3407 2979 Pls
3392 3146 Pls
3528 3302 Pls
3651 3056 Pls
3766 2847 Pls
4047 3352 Pls
4103 3133 Pls
3424 3091 Pls
3318 3000 Pls
3344 2908 Pls
4104 3166 Pls
3527 3286 Pls
3127 2887 Pls
3408 3352 Pls
3767 2941 Pls
3580 3105 Pls
3166 3058 Pls
3635 3124 Pls
3976 3055 Pls
3408 3171 Pls
3898 3255 Pls
3231 2650 Pls
3233 3121 Pls
3214 3149 Pls
3177 3060 Pls
3766 3328 Pls
3239 3141 Pls
3917 3202 Pls
3228 2837 Pls
3635 3187 Pls
2894 2965 Pls
3339 3335 Pls
3182 3135 Pls
3767 3131 Pls
3190 3064 Pls
3918 3104 Pls
3600 3093 Pls
3030 2760 Pls
3833 3053 Pls
3768 3491 Pls
3683 3415 Pls
4046 3291 Pls
3426 3097 Pls
3758 2993 Pls
3694 3227 Pls
3877 3204 Pls
3605 3198 Pls
3917 3345 Pls
3767 3257 Pls
3510 3055 Pls
4102 3459 Pls
2931 2935 Pls
3918 3270 Pls
3308 3036 Pls
3232 3144 Pls
3636 3209 Pls
3765 3246 Pls
3481 2789 Pls
3639 3241 Pls
3912 3127 Pls
4340 3300 Pls
3636 3261 Pls
3916 3405 Pls
3615 3116 Pls
3918 3528 Pls
3762 3041 Pls
4341 3475 Pls
3616 3134 Pls
2956 2714 Pls
3615 3139 Pls
3767 3164 Pls
3683 3082 Pls
3089 2933 Pls
3344 3142 Pls
3191 3062 Pls
3480 3040 Pls
3919 3276 Pls
3637 2954 Pls
3974 3131 Pls
3431 3162 Pls
4329 3277 Pls
4524 3461 Pls
3639 3027 Pls
3613 3298 Pls
3695 3232 Pls
3658 3255 Pls
3765 3182 Pls
3161 2892 Pls
3527 3103 Pls
3342 3216 Pls
3873 3286 Pls
3431 2831 Pls
3529 3025 Pls
3616 3198 Pls
3765 3285 Pls
3768 3507 Pls
3432 2751 Pls
3767 3295 Pls
3114 3142 Pls
3916 3169 Pls
3539 3191 Pls
3342 2963 Pls
3344 3264 Pls
3392 2821 Pls
3254 3042 Pls
4045 3439 Pls
3639 3213 Pls
3341 2840 Pls
4155 3353 Pls
3617 3066 Pls
3527 3055 Pls
3764 3377 Pls
3824 3145 Pls
3768 3370 Pls
3480 2775 Pls
2992 3018 Pls
3639 2909 Pls
3867 3362 Pls
3917 3233 Pls
3581 3072 Pls
3759 3172 Pls
4037 3289 Pls
3918 3354 Pls
3297 3091 Pls
4103 3448 Pls
3917 3085 Pls
4101 3174 Pls
3819 3143 Pls
3737 3261 Pls
3638 3222 Pls
3915 3223 Pls
3529 2974 Pls
4342 3360 Pls
3582 3347 Pls
3338 3308 Pls
3763 3341 Pls
3343 3195 Pls
3757 3107 Pls
3214 3195 Pls
3190 2961 Pls
3384 3101 Pls
3043 2907 Pls
3287 3099 Pls
3877 3070 Pls
4103 3243 Pls
3430 3043 Pls
3113 3274 Pls
3737 3154 Pls
3062 2732 Pls
3481 3140 Pls
3578 3186 Pls
3425 2750 Pls
3766 2870 Pls
3099 2890 Pls
3006 3073 Pls
3737 3270 Pls
3768 3244 Pls
4101 3374 Pls
3519 3185 Pls
3581 3207 Pls
3498 3205 Pls
3529 2943 Pls
3342 3088 Pls
3918 3363 Pls
3429 3120 Pls
3415 3098 Pls
3636 2959 Pls
3639 2958 Pls
3527 3138 Pls
2620 2832 Pls
3426 2900 Pls
3257 3250 Pls
3123 3085 Pls
3342 3076 Pls
3640 3152 Pls
3480 2934 Pls
3282 2764 Pls
2690 2792 Pls
3842 3170 Pls
3431 3175 Pls
3639 3098 Pls
3344 3073 Pls
3415 3124 Pls
3528 3308 Pls
3341 3041 Pls
3918 3288 Pls
3339 2595 Pls
3915 3163 Pls
4341 3347 Pls
3735 3160 Pls
3528 3106 Pls
3918 3331 Pls
3910 3228 Pls
3612 3014 Pls
2813 2830 Pls
4098 3199 Pls
3537 3234 Pls
4157 3364 Pls
3767 3051 Pls
3430 2934 Pls
3577 3181 Pls
4030 3352 Pls
3341 3103 Pls
3502 3039 Pls
2977 2905 Pls
3479 3070 Pls
3691 3083 Pls
3571 2971 Pls
3737 3230 Pls
3765 3123 Pls
3381 2966 Pls
4104 3224 Pls
3261 2844 Pls
3431 3040 Pls
3426 3159 Pls
4094 3502 Pls
3526 2752 Pls
3763 3081 Pls
3918 3404 Pls
3505 3072 Pls
3259 3220 Pls
3526 3004 Pls
3343 3136 Pls
3426 3115 Pls
3355 2916 Pls
4104 3355 Pls
3918 2969 Pls
3522 3105 Pls
3525 3057 Pls
2690 2824 Pls
3917 3463 Pls
4340 3288 Pls
3529 2953 Pls
3528 3170 Pls
3766 3361 Pls
4045 3295 Pls
3126 2931 Pls
4103 3522 Pls
3616 3231 Pls
3431 2927 Pls
3877 3124 Pls
3916 3124 Pls
4528 3421 Pls
3766 3124 Pls
3639 3292 Pls
4101 3153 Pls
3974 3358 Pls
4046 3385 Pls
3689 3157 Pls
3918 3323 Pls
4100 3320 Pls
3766 3057 Pls
3446 3075 Pls
4103 3267 Pls
3344 2876 Pls
3900 3238 Pls
3342 3022 Pls
3731 3251 Pls
3418 3230 Pls
3115 2859 Pls
3249 3191 Pls
3766 3198 Pls
3735 3236 Pls
3343 3074 Pls
4157 3392 Pls
3265 2758 Pls
3904 3228 Pls
3406 3172 Pls
3647 3113 Pls
3081 2845 Pls
3429 3062 Pls
3328 3285 Pls
4101 3187 Pls
3613 3186 Pls
3525 3528 Pls
3343 3123 Pls
4041 3284 Pls
3262 2927 Pls
3192 3154 Pls
3529 3252 Pls
3528 2976 Pls
3636 2885 Pls
3181 3005 Pls
3767 3297 Pls
3639 3145 Pls
4154 3332 Pls
3405 3102 Pls
3258 3257 Pls
3265 3203 Pls
3735 3271 Pls
3974 3176 Pls
3427 3098 Pls
3430 3297 Pls
4157 3258 Pls
3389 3124 Pls
3415 2968 Pls
3760 3249 Pls
3919 3288 Pls
3639 3102 Pls
2505 2587 Pls
3379 3336 Pls
2860 2809 Pls
3631 2912 Pls
3694 2992 Pls
3610 3224 Pls
3339 3150 Pls
3766 3234 Pls
3153 2922 Pls
3264 3225 Pls
3631 3037 Pls
3264 3148 Pls
3531 3028 Pls
3125 3133 Pls
4340 3329 Pls
4100 3348 Pls
3482 3091 Pls
3919 3300 Pls
3431 3270 Pls
3765 3388 Pls
3158 2923 Pls
3917 3468 Pls
3876 3134 Pls
3263 3233 Pls
3693 2997 Pls
3638 3150 Pls
3482 3048 Pls
3423 3072 Pls
3737 3134 Pls
3285 2762 Pls
3525 2866 Pls
3421 3200 Pls
3528 3017 Pls
3026 2978 Pls
3766 3056 Pls
3174 3081 Pls
3637 3067 Pls
3635 3167 Pls
2906 3062 Pls
3765 2879 Pls
3611 3002 Pls
3489 3147 Pls
3312 2836 Pls
4046 3402 Pls
3614 3113 Pls
3692 3021 Pls
3291 2908 Pls
3413 3036 Pls
3766 3022 Pls
3640 3223 Pls
3378 3226 Pls
4104 3317 Pls
3300 3108 Pls
4099 3135 Pls
3528 3191 Pls
3432 3030 Pls
3766 3101 Pls
3253 3151 Pls
3635 3102 Pls
2901 3015 Pls
3479 2935 Pls
3002 2748 Pls
3918 3378 Pls
3638 2982 Pls
3519 3296 Pls
3528 3198 Pls
2964 3085 Pls
3426 3112 Pls
3446 2998 Pls
3263 3150 Pls
3408 3272 Pls
3640 3171 Pls
3876 3182 Pls
3916 3207 Pls
3422 3216 Pls
3640 3028 Pls
3768 3079 Pls
3415 3259 Pls
3340 2931 Pls
3431 3144 Pls
3767 3217 Pls
3525 2911 Pls
3918 3272 Pls
3762 3151 Pls
3820 2891 Pls
3976 3140 Pls
4156 3174 Pls
3336 3286 Pls
3193 2695 Pls
2753 2960 Pls
3429 3032 Pls
2853 2801 Pls
3905 3280 Pls
3431 3072 Pls
3415 2952 Pls
3767 3278 Pls
3639 3147 Pls
3645 3147 Pls
3430 2847 Pls
3681 3295 Pls
3918 3218 Pls
3764 3096 Pls
4104 3320 Pls
3428 3103 Pls
3766 2967 Pls
4046 3263 Pls
3084 2823 Pls
3189 2853 Pls
4103 3107 Pls
3917 3256 Pls
3765 3046 Pls
4047 3414 Pls
3766 3231 Pls
3518 3132 Pls
4099 3232 Pls
3613 3015 Pls
4102 3431 Pls
3106 2940 Pls
3431 3133 Pls
3578 3279 Pls
3767 3144 Pls
4104 3313 Pls
3263 2839 Pls
3634 3008 Pls
4103 3440 Pls
4221 3284 Pls
3634 3120 Pls
3764 3230 Pls
4253 3369 Pls
3919 3298 Pls
3527 3159 Pls
3528 3114 Pls
3639 3312 Pls
3431 3229 Pls
3528 3040 Pls
3163 3012 Pls
3639 2759 Pls
3767 3237 Pls
3918 3256 Pls
3291 2865 Pls
3481 3079 Pls
2946 3185 Pls
3428 2968 Pls
3451 3205 Pls
3916 3291 Pls
3528 3383 Pls
3876 2924 Pls
3767 3167 Pls
4098 3228 Pls
2901 3021 Pls
4046 3299 Pls
3694 3069 Pls
3237 2983 Pls
3639 3284 Pls
3919 3198 Pls
3638 3176 Pls
3520 3325 Pls
3857 3178 Pls
3615 3053 Pls
3768 3262 Pls
3528 3142 Pls
3417 3028 Pls
3478 2996 Pls
3191 2940 Pls
3616 3158 Pls
3171 2936 Pls
3974 3113 Pls
2845 2947 Pls
3710 3097 Pls
3118 2387 Pls
2799 2474 Pls
3041 2702 Pls
3250 3085 Pls
3208 3100 Pls
3615 3106 Pls
3502 2834 Pls
3342 3186 Pls
3767 3052 Pls
2810 2945 Pls
3767 3240 Pls
2909 3046 Pls
3767 3126 Pls
3516 2689 Pls
3709 2940 Pls
3823 3192 Pls
2951 2910 Pls
3528 2975 Pls
3764 3011 Pls
3639 3062 Pls
3580 3263 Pls
3635 3193 Pls
3344 3146 Pls
3430 3201 Pls
4343 3406 Pls
3340 3083 Pls
3766 3067 Pls
3528 2996 Pls
3969 3134 Pls
3756 2990 Pls
3765 3212 Pls
3637 3302 Pls
3262 3165 Pls
2838 2891 Pls
3578 2856 Pls
4046 3176 Pls
3736 3159 Pls
3125 3000 Pls
3903 3288 Pls
3637 3221 Pls
3736 3115 Pls
3615 3179 Pls
3253 3092 Pls
3342 2809 Pls
4088 3098 Pls
3528 3055 Pls
3188 2751 Pls
3916 3301 Pls
3410 3347 Pls
3635 2786 Pls
3524 3209 Pls
3344 3093 Pls
3766 3157 Pls
3526 3162 Pls
3527 2997 Pls
3633 3138 Pls
4157 3247 Pls
3394 2957 Pls
3114 3132 Pls
3342 2774 Pls
3761 3352 Pls
3322 2806 Pls
3425 3126 Pls
4101 3260 Pls
3403 2977 Pls
3528 2936 Pls
3527 3125 Pls
3526 3108 Pls
3596 3160 Pls
3737 3159 Pls
3824 3097 Pls
3767 3321 Pls
3273 3015 Pls
3918 3184 Pls
4041 3335 Pls
3917 3316 Pls
3344 3115 Pls
3342 3093 Pls
3975 3351 Pls
2928 2900 Pls
4096 3204 Pls
3746 3049 Pls
3163 2920 Pls
4045 3099 Pls
3507 3352 Pls
4254 3336 Pls
3430 3221 Pls
3080 2574 Pls
3766 3350 Pls
3637 3332 Pls
3640 2984 Pls
3300 3218 Pls
3767 3291 Pls
3918 3190 Pls
4338 3444 Pls
2757 2822 Pls
3865 3118 Pls
3044 2943 Pls
4100 3320 Pls
3735 2921 Pls
3766 3152 Pls
3394 3182 Pls
4103 3147 Pls
2982 2731 Pls
3117 3223 Pls
3639 3431 Pls
3916 3207 Pls
4102 3260 Pls
3763 3271 Pls
3640 3047 Pls
3910 3246 Pls
3638 3122 Pls
3060 2826 Pls
3010 2831 Pls
3431 3197 Pls
3734 3010 Pls
4104 3205 Pls
3340 3143 Pls
3636 3001 Pls
3871 3420 Pls
3425 3222 Pls
3919 3353 Pls
3640 3175 Pls
4254 3225 Pls
3521 2741 Pls
4156 3508 Pls
3615 3320 Pls
3732 3353 Pls
3639 3051 Pls
3639 2931 Pls
3579 3109 Pls
3767 3308 Pls
3340 3115 Pls
3631 3146 Pls
3430 2856 Pls
3309 3056 Pls
3735 3144 Pls
3310 3051 Pls
3340 3027 Pls
3856 3098 Pls
3736 2957 Pls
3908 3169 Pls
3175 3076 Pls
3918 3417 Pls
3263 3040 Pls
3766 3092 Pls
4338 3283 Pls
3477 3060 Pls
3529 3078 Pls
3525 3187 Pls
2778 2896 Pls
3917 3400 Pls
3327 3143 Pls
3760 3337 Pls
4046 3186 Pls
3918 2964 Pls
3918 3152 Pls
4104 3122 Pls
3527 2832 Pls
3613 3243 Pls
3425 2647 Pls
3918 3228 Pls
3392 2701 Pls
3312 2999 Pls
4138 3171 Pls
3064 2810 Pls
4342 3320 Pls
3520 2816 Pls
3639 3153 Pls
4339 3487 Pls
3583 3417 Pls
3431 3005 Pls
3141 2803 Pls
3252 3096 Pls
4103 3097 Pls
4096 3279 Pls
3901 3262 Pls
3916 3250 Pls
4342 3329 Pls
3506 2997 Pls
3430 3084 Pls
4102 3393 Pls
3350 2992 Pls
3640 2857 Pls
3766 3254 Pls
3263 3210 Pls
2762 2812 Pls
3767 3158 Pls
4064 3333 Pls
3918 3216 Pls
3767 3311 Pls
3717 3190 Pls
3824 2887 Pls
3310 3237 Pls
3182 3082 Pls
3615 3134 Pls
3343 3313 Pls
3163 2852 Pls
4100 3152 Pls
4325 3319 Pls
3637 3068 Pls
3257 3086 Pls
3764 3172 Pls
3614 2991 Pls
3768 3373 Pls
3529 3035 Pls
3250 2926 Pls
3264 2869 Pls
3528 3080 Pls
3443 3032 Pls
3634 3096 Pls
3179 3010 Pls
4097 3210 Pls
4250 3308 Pls
3726 3142 Pls
3526 2991 Pls
3638 3087 Pls
3421 3066 Pls
3824 3300 Pls
3917 3052 Pls
3527 3042 Pls
3916 3118 Pls
3308 3123 Pls
4342 3335 Pls
3264 2793 Pls
3527 3164 Pls
3310 3143 Pls
3637 3275 Pls
3343 3118 Pls
3416 3074 Pls
3899 3100 Pls
3096 2886 Pls
3636 3087 Pls
3262 3104 Pls
4045 3070 Pls
3639 3316 Pls
4103 3205 Pls
3412 3196 Pls
3507 3251 Pls
3528 3259 Pls
3762 3184 Pls
3528 3190 Pls
3509 3068 Pls
3423 3344 Pls
3343 3030 Pls
3639 3218 Pls
3526 3065 Pls
3528 2720 Pls
3704 3085 Pls
3341 2834 Pls
4103 3157 Pls
3639 3053 Pls
3917 3262 Pls
4044 3358 Pls
4046 3250 Pls
3916 3104 Pls
3731 3201 Pls
3308 2889 Pls
3599 3247 Pls
2820 2857 Pls
3022 3014 Pls
3736 3316 Pls
3693 3056 Pls
3497 3240 Pls
3918 3240 Pls
3919 3083 Pls
3528 3127 Pls
3758 3068 Pls
3694 3022 Pls
4104 3337 Pls
3639 3374 Pls
3764 3169 Pls
3823 3208 Pls
3766 2862 Pls
3251 3042 Pls
3767 3285 Pls
3416 2924 Pls
3059 2864 Pls
4103 3376 Pls
3636 2791 Pls
3917 3440 Pls
3765 3066 Pls
3876 3322 Pls
3150 3001 Pls
3765 2934 Pls
3126 3082 Pls
3492 3098 Pls
3632 3082 Pls
3429 2712 Pls
3528 2963 Pls
4103 3395 Pls
3725 3325 Pls
3122 3010 Pls
3431 3111 Pls
3429 3157 Pls
3170 3037 Pls
3878 3443 Pls
3638 3075 Pls
3878 3227 Pls
3189 3283 Pls
3616 3118 Pls
3762 3107 Pls
3768 3108 Pls
3344 2783 Pls
3975 3022 Pls
2910 2891 Pls
3918 3357 Pls
3638 3188 Pls
3653 3078 Pls
3364 3111 Pls
3768 3073 Pls
3428 3200 Pls
3332 3211 Pls
3212 2832 Pls
3637 2851 Pls
3528 2794 Pls
2849 3038 Pls
3264 3045 Pls
3535 2882 Pls
3639 3226 Pls
3343 3055 Pls
3158 2906 Pls
4043 3191 Pls
3265 2794 Pls
3603 3084 Pls
3343 3117 Pls
3767 2936 Pls
3767 2881 Pls
3302 2931 Pls
4103 3222 Pls
3527 3184 Pls
3878 3158 Pls
2780 2794 Pls
4101 3261 Pls
3528 3162 Pls
3265 2804 Pls
3654 3151 Pls
3191 2778 Pls
4097 3201 Pls
3310 3100 Pls
3640 2996 Pls
3430 3107 Pls
4156 3455 Pls
3761 3264 Pls
4100 3145 Pls
3479 3332 Pls
3917 3089 Pls
3330 2901 Pls
3736 3150 Pls
3640 3287 Pls
3762 3031 Pls
3037 2740 Pls
3192 3178 Pls
3638 3179 Pls
3343 2871 Pls
3919 3010 Pls
3258 2857 Pls
3877 3274 Pls
3361 3056 Pls
3917 3125 Pls
3250 3033 Pls
3822 3162 Pls
4103 3326 Pls
3582 3107 Pls
3165 3031 Pls
4101 3113 Pls
4231 3375 Pls
3918 3366 Pls
3262 3018 Pls
4045 3181 Pls
4101 3252 Pls
3767 3229 Pls
4103 3324 Pls
2985 3019 Pls
3689 3197 Pls
3766 3150 Pls
3340 3104 Pls
4045 3322 Pls
3528 2987 Pls
3581 3143 Pls
3491 3033 Pls
3639 3175 Pls
3918 3297 Pls
3768 3200 Pls
3917 3006 Pls
3391 2990 Pls
3856 3265 Pls
3263 3111 Pls
3765 3078 Pls
3639 3101 Pls
3917 3014 Pls
3876 3201 Pls
4102 3260 Pls
3500 2964 Pls
3639 3223 Pls
3918 3193 Pls
3428 2654 Pls
3423 2942 Pls
3910 3166 Pls
3231 3299 Pls
3974 3284 Pls
3914 3176 Pls
3431 3016 Pls
3230 2970 Pls
3356 3149 Pls
2855 2982 Pls
3509 3206 Pls
3918 3134 Pls
3526 3161 Pls
4154 3227 Pls
3626 3060 Pls
3260 2913 Pls
3527 2800 Pls
3647 3123 Pls
2751 2917 Pls
4148 3209 Pls
3118 2959 Pls
3529 3212 Pls
3338 3119 Pls
3764 3186 Pls
3342 3080 Pls
3415 3137 Pls
3748 3196 Pls
3735 3282 Pls
3761 3065 Pls
3915 3092 Pls
3332 3084 Pls
3529 3095 Pls
2734 2673 Pls
3518 3253 Pls
3582 3060 Pls
3004 2875 Pls
3431 2860 Pls
3527 3064 Pls
3510 3215 Pls
3309 3246 Pls
3917 3205 Pls
3380 2957 Pls
3524 3193 Pls
3861 3209 Pls
2895 2888 Pls
3287 3002 Pls
3858 3160 Pls
4100 3208 Pls
2748 3031 Pls
3637 3050 Pls
3857 2943 Pls
3506 2906 Pls
4095 3412 Pls
3638 3228 Pls
3409 2864 Pls
3507 3132 Pls
3224 3130 Pls
4122 3201 Pls
3330 2975 Pls
4197 3367 Pls
3190 3303 Pls
3919 3314 Pls
4047 3170 Pls
3866 3228 Pls
4097 3161 Pls
3327 3330 Pls
3581 3216 Pls
3200 3123 Pls
3449 3064 Pls
3187 2805 Pls
3526 3112 Pls
3257 2986 Pls
3917 3383 Pls
3668 3252 Pls
3526 3153 Pls
3529 3001 Pls
3253 3088 Pls
3146 3349 Pls
3169 3215 Pls
3361 3122 Pls
3431 2937 Pls
3762 3175 Pls
3482 3199 Pls
3343 2928 Pls
3344 2973 Pls
4154 3251 Pls
3522 3446 Pls
3595 2983 Pls
3877 3251 Pls
3103 2894 Pls
3737 3104 Pls
3638 3290 Pls
3637 3379 Pls
3082 2904 Pls
3331 2927 Pls
3390 3226 Pls
3975 3182 Pls
3319 3239 Pls
3896 3464 Pls
3466 3053 Pls
3620 3075 Pls
4104 3373 Pls
3056 3089 Pls
3735 3303 Pls
3363 3276 Pls
4102 3136 Pls
3765 3168 Pls
3731 3298 Pls
3918 3327 Pls
3768 3109 Pls
3528 2991 Pls
4157 3440 Pls
3247 2935 Pls
4046 3247 Pls
3431 3031 Pls
3429 2906 Pls
3426 3175 Pls
3767 3417 Pls
3265 3038 Pls
3294 3219 Pls
4342 3324 Pls
3914 3124 Pls
3913 3026 Pls
3449 2886 Pls
3759 3215 Pls
3767 3306 Pls
3693 3093 Pls
3917 3363 Pls
3429 3085 Pls
3766 3219 Pls
3762 3253 Pls
3411 2904 Pls
3527 3264 Pls
3918 3115 Pls
3529 3333 Pls
3766 3135 Pls
3639 3252 Pls
3766 2974 Pls
4253 3284 Pls
3192 2961 Pls
3495 2874 Pls
3506 2971 Pls
4044 3258 Pls
4253 3294 Pls
3429 3113 Pls
3251 3254 Pls
3192 2820 Pls
3893 3299 Pls
3431 3190 Pls
3764 3217 Pls
3973 3282 Pls
3729 3035 Pls
3044 2891 Pls
3917 3126 Pls
3915 3232 Pls
3431 3070 Pls
3481 2758 Pls
3527 2820 Pls
3261 3189 Pls
2880 2718 Pls
3509 3126 Pls
3504 3128 Pls
2995 3027 Pls
4102 3156 Pls
3526 3082 Pls
4104 3209 Pls
4104 3281 Pls
3120 2795 Pls
3260 2597 Pls
3874 3270 Pls
3832 3189 Pls
3328 2949 Pls
3264 2970 Pls
3918 3174 Pls
4103 3332 Pls
3874 3053 Pls
4040 3056 Pls
4104 3143 Pls
3763 2955 Pls
3430 3092 Pls
3529 3184 Pls
3768 2989 Pls
3912 3106 Pls
3261 3100 Pls
3191 2988 Pls
3341 3257 Pls
3498 2876 Pls
3833 3122 Pls
3416 3065 Pls
3529 3254 Pls
3592 3041 Pls
3768 3202 Pls
3182 3053 Pls
3859 3063 Pls
3022 3028 Pls
3518 3061 Pls
4245 3468 Pls
3765 3142 Pls
3765 3227 Pls
3763 3253 Pls
3810 3267 Pls
3762 3075 Pls
3261 3058 Pls
4101 3277 Pls
4046 3300 Pls
3918 3118 Pls
4101 3248 Pls
2902 3159 Pls
3125 3197 Pls
3525 3104 Pls
3631 2929 Pls
3262 3179 Pls
3528 2995 Pls
4341 3313 Pls
3527 3236 Pls
3636 3105 Pls
3522 3170 Pls
3955 3488 Pls
3975 3137 Pls
4090 3394 Pls
4103 3288 Pls
3231 3097 Pls
3628 3278 Pls
3461 2989 Pls
3527 3008 Pls
3041 2881 Pls
3581 3185 Pls
3221 2630 Pls
3919 3446 Pls
3904 3167 Pls
3385 2746 Pls
3279 3120 Pls
3862 3437 Pls
3529 3008 Pls
4044 3227 Pls
3601 3111 Pls
3919 3218 Pls
3517 3028 Pls
3525 3204 Pls
2947 2862 Pls
3763 3210 Pls
3640 3153 Pls
4342 3438 Pls
3329 3142 Pls
3341 2874 Pls
4026 3141 Pls
3737 3116 Pls
3430 2995 Pls
3766 3333 Pls
3430 3024 Pls
3637 3067 Pls
3325 3119 Pls
3822 3091 Pls
3731 3232 Pls
3235 2809 Pls
3410 3235 Pls
3430 3177 Pls
3449 3105 Pls
4045 3161 Pls
3766 3219 Pls
3527 3102 Pls
3408 3111 Pls
3442 3196 Pls
3636 3229 Pls
4046 3136 Pls
3765 3395 Pls
3342 3060 Pls
4046 3241 Pls
3599 2993 Pls
3736 2937 Pls
3873 3135 Pls
3181 3127 Pls
3766 3330 Pls
3732 2974 Pls
3257 3078 Pls
3764 3102 Pls
3636 2919 Pls
3332 2892 Pls
3497 3074 Pls
3907 3445 Pls
3919 3296 Pls
3916 3205 Pls
3764 3179 Pls
4047 3210 Pls
4100 3339 Pls
3527 3437 Pls
3762 3191 Pls
3823 3195 Pls
3918 3312 Pls
3767 3221 Pls
3605 3211 Pls
4046 3260 Pls
3263 2778 Pls
3527 3234 Pls
3832 3371 Pls
3753 3194 Pls
3737 3079 Pls
3637 3248 Pls
3330 3266 Pls
3525 2755 Pls
3613 3109 Pls
4045 3271 Pls
3307 2844 Pls
3429 3342 Pls
3446 3270 Pls
3638 3049 Pls
3062 2951 Pls
3767 2928 Pls
4103 3289 Pls
3424 2898 Pls
3735 3074 Pls
3738 3132 Pls
4341 3359 Pls
4044 3231 Pls
3428 3182 Pls
3917 2984 Pls
3766 3129 Pls
3638 3010 Pls
4045 3124 Pls
4103 3106 Pls
3638 2966 Pls
3601 3419 Pls
3752 3125 Pls
3637 3094 Pls
3902 3369 Pls
3904 3304 Pls
3919 3301 Pls
4103 3228 Pls
3637 3210 Pls
3918 3181 Pls
3726 3381 Pls
4104 3368 Pls
3611 3329 Pls
2932 2632 Pls
3766 3148 Pls
3519 3170 Pls
3917 3374 Pls
3635 3053 Pls
3510 3058 Pls
3340 3156 Pls
3616 3240 Pls
3263 2709 Pls
3915 3316 Pls
3428 3172 Pls
3918 3228 Pls
3430 3021 Pls
3767 3336 Pls
3762 3158 Pls
3527 3023 Pls
4102 3207 Pls
3431 3207 Pls
3336 3068 Pls
3403 2748 Pls
3918 3116 Pls
3166 3051 Pls
3767 3137 Pls
3638 2982 Pls
3575 2991 Pls
3429 2946 Pls
4103 3217 Pls
3391 2645 Pls
3324 3129 Pls
2938 2881 Pls
3708 3169 Pls
3446 3201 Pls
3876 3344 Pls
3422 3075 Pls
3581 3093 Pls
3763 3357 Pls
3633 2821 Pls
3341 3146 Pls
3479 3143 Pls
3765 3389 Pls
3520 3200 Pls
3767 3099 Pls
4103 3273 Pls
3874 3424 Pls
3285 3253 Pls
3821 3394 Pls
3735 3464 Pls
3694 3197 Pls
4043 3354 Pls
4043 3153 Pls
4099 3325 Pls
3600 3022 Pls
3913 3064 Pls
3918 3137 Pls
3233 3106 Pls
3765 3180 Pls
3107 3019 Pls
3423 2891 Pls
3529 2992 Pls
3639 3239 Pls
3975 3377 Pls
3260 3023 Pls
3709 3278 Pls
3509 2923 Pls
3726 3384 Pls
3062 2891 Pls
3760 3306 Pls
4089 3124 Pls
3637 3319 Pls
3429 3038 Pls
3474 2963 Pls
3728 3054 Pls
3916 3244 Pls
3578 3162 Pls
3430 2793 Pls
3528 3200 Pls
3615 3032 Pls
3330 3060 Pls
3767 3165 Pls
3260 2892 Pls
3738 2959 Pls
3975 3404 Pls
4226 3439 Pls
3412 3113 Pls
3640 3355 Pls
3529 3267 Pls
4104 3130 Pls
3638 3106 Pls
3916 3177 Pls
3917 3343 Pls
3878 3169 Pls
3907 3292 Pls
3615 3125 Pls
3639 2972 Pls
3053 3090 Pls
3919 3247 Pls
3341 2974 Pls
3763 3191 Pls
3638 3158 Pls
3638 3160 Pls
3916 3337 Pls
3736 3002 Pls
3338 2857 Pls
3344 2884 Pls
3876 3338 Pls
3024 2824 Pls
3524 3187 Pls
3918 3313 Pls
3525 3205 Pls
3918 2962 Pls
3537 3196 Pls
3616 3086 Pls
4047 3109 Pls
2976 2939 Pls
3471 2996 Pls
3389 3018 Pls
3637 2898 Pls
3764 3203 Pls
4335 3331 Pls
3832 3336 Pls
3702 3185 Pls
3266 3040 Pls
3637 3267 Pls
3264 2973 Pls
3525 3020 Pls
3877 2990 Pls
3612 2996 Pls
3918 3218 Pls
3344 2974 Pls
3768 2974 Pls
3527 3176 Pls
3918 3088 Pls
3736 3194 Pls
3918 3100 Pls
3249 2966 Pls
3119 3100 Pls
3638 2891 Pls
3639 3189 Pls
3918 3366 Pls
3876 3204 Pls
3638 3104 Pls
3633 3241 Pls
3527 2891 Pls
4063 3297 Pls
3695 3258 Pls
3508 3159 Pls
3915 3404 Pls
4253 3233 Pls
3559 2918 Pls
3015 2998 Pls
3639 3301 Pls
3766 3112 Pls
3264 2856 Pls
3766 3235 Pls
3089 2555 Pls
3919 3279 Pls
3430 3381 Pls
3614 2957 Pls
3508 3028 Pls
3330 3216 Pls
3493 3296 Pls
3446 2716 Pls
3877 2954 Pls
3381 2981 Pls
3917 3222 Pls
3505 3192 Pls
3626 2905 Pls
3338 3275 Pls
3639 3221 Pls
3421 3008 Pls
3263 3104 Pls
3639 3163 Pls
3768 3066 Pls
3633 3235 Pls
3766 3421 Pls
3528 3175 Pls
3495 3197 Pls
3529 3295 Pls
3430 2847 Pls
3639 3179 Pls
3766 3212 Pls
3737 3151 Pls
3336 3065 Pls
3427 2988 Pls
3270 2952 Pls
3321 3246 Pls
4047 3404 Pls
3623 3124 Pls
3766 3225 Pls
3639 2976 Pls
3310 3070 Pls
4100 3303 Pls
3735 3202 Pls
3301 3187 Pls
3390 3033 Pls
3344 3113 Pls
3526 3215 Pls
3520 3293 Pls
3389 2899 Pls
4101 3175 Pls
3507 3273 Pls
4343 3310 Pls
3431 3221 Pls
3917 3152 Pls
2951 2872 Pls
3342 3043 Pls
3639 2928 Pls
3000 3165 Pls
3201 2795 Pls
3396 3176 Pls
3914 3222 Pls
3764 2927 Pls
3342 3060 Pls
3525 3266 Pls
3647 3218 Pls
3878 3451 Pls
3528 3045 Pls
3631 3022 Pls
3431 3225 Pls
3446 3086 Pls
3768 3024 Pls
3521 3223 Pls
3733 3296 Pls
3638 3060 Pls
3896 3052 Pls
3866 3300 Pls
3336 2910 Pls
3339 2966 Pls
3638 3146 Pls
3581 3087 Pls
3637 3384 Pls
3529 3031 Pls
2742 2825 Pls
3828 2984 Pls
4342 3392 Pls
3916 3243 Pls
3545 3155 Pls
4102 3319 Pls
3824 3015 Pls
3749 2926 Pls
3917 3133 Pls
3647 3073 Pls
3453 2993 Pls
3503 3068 Pls
3415 3200 Pls
4042 3050 Pls
3248 3007 Pls
3767 3387 Pls
3736 3294 Pls
3088 3081 Pls
3528 3031 Pls
3613 3121 Pls
3503 3178 Pls
3766 3051 Pls
3252 3005 Pls
3210 2885 Pls
3876 2990 Pls
3919 3137 Pls
3874 3294 Pls
3909 3151 Pls
3639 3314 Pls
4104 3188 Pls
3506 2964 Pls
3582 3121 Pls
3280 3207 Pls
3727 3084 Pls
2879 2720 Pls
3492 3347 Pls
3638 3137 Pls
3766 3062 Pls
3877 3014 Pls
3821 3048 Pls
3876 3254 Pls
3765 3206 Pls
3429 2827 Pls
3764 3054 Pls
3639 3000 Pls
3766 3133 Pls
3431 2966 Pls
4052 3241 Pls
4102 3271 Pls
3874 3482 Pls
3640 3081 Pls
4098 3140 Pls
3918 3314 Pls
3341 3193 Pls
3736 3357 Pls
3917 3233 Pls
3852 3352 Pls
3693 3138 Pls
3192 3028 Pls
3737 3306 Pls
3326 3060 Pls
4254 3217 Pls
3213 2878 Pls
3329 2762 Pls
4157 3350 Pls
3917 3237 Pls
3616 3328 Pls
3528 3275 Pls
3262 3000 Pls
3521 3009 Pls
3818 3031 Pls
2889 2928 Pls
3737 3074 Pls
3122 3092 Pls
3293 2876 Pls
3529 3202 Pls
3303 3047 Pls
3640 3018 Pls
3430 3077 Pls
3323 2762 Pls
3917 3419 Pls
2923 2883 Pls
3431 3241 Pls
3768 3351 Pls
3457 3094 Pls
3752 3269 Pls
3639 3106 Pls
4103 3495 Pls
3639 3243 Pls
3193 2995 Pls
3187 3088 Pls
3914 3087 Pls
3528 3168 Pls
3215 3002 Pls
3415 3315 Pls
4092 3341 Pls
3340 2993 Pls
3088 2987 Pls
3581 3054 Pls
3642 3364 Pls
4103 3266 Pls
3536 3142 Pls
3247 3059 Pls
3828 3236 Pls
3643 3342 Pls
3918 3145 Pls
3765 3331 Pls
4103 3274 Pls
3767 3006 Pls
4341 3326 Pls
3639 3230 Pls
3761 2970 Pls
3614 3422 Pls
3789 3069 Pls
3580 3302 Pls
3211 2726 Pls
3766 3203 Pls
3637 2969 Pls
3507 3014 Pls
4044 3376 Pls
3320 3010 Pls
3917 3065 Pls
3459 3188 Pls
3510 3154 Pls
4101 3166 Pls
3722 3091 Pls
3633 3386 Pls
4091 3143 Pls
3392 3168 Pls
3508 2733 Pls
3766 3260 Pls
3916 3284 Pls
3186 3034 Pls
3869 3233 Pls
3431 3211 Pls
2830 2850 Pls
3824 3015 Pls
3529 3123 Pls
3424 3159 Pls
3515 3002 Pls
3264 2818 Pls
4252 3432 Pls
3765 3192 Pls
3638 2980 Pls
2863 2970 Pls
3286 3014 Pls
4102 3325 Pls
3431 3170 Pls
3007 2989 Pls
4046 3130 Pls
3120 3163 Pls
3613 3214 Pls
3825 3335 Pls
3341 3051 Pls
3430 3015 Pls
3918 3290 Pls
3694 3190 Pls
3765 3249 Pls
3427 3030 Pls
3918 3374 Pls
3918 3173 Pls
3430 3138 Pls
3768 3045 Pls
3264 2945 Pls
4156 3405 Pls
4100 3372 Pls
4101 3302 Pls
3343 3005 Pls
3431 2991 Pls
3343 2725 Pls
3411 3169 Pls
4381 3345 Pls
3325 3123 Pls
4247 3229 Pls
4380 3436 Pls
3616 2999 Pls
3767 3398 Pls
3210 3110 Pls
2901 2950 Pls
3901 3399 Pls
3767 3189 Pls
3343 2861 Pls
3415 3147 Pls
3346 3024 Pls
3338 3254 Pls
3869 3239 Pls
3878 3374 Pls
3104 2771 Pls
2946 2882 Pls
2838 2869 Pls
3522 3261 Pls
3818 3383 Pls
3972 3238 Pls
3877 3162 Pls
3468 3249 Pls
3636 3161 Pls
3379 3119 Pls
3528 3054 Pls
3604 3133 Pls
2164 2559 Pls
3729 2996 Pls
3471 2996 Pls
3736 3105 Pls
3736 3158 Pls
3874 3098 Pls
3581 2961 Pls
3424 3140 Pls
3255 3040 Pls
3343 2943 Pls
3514 3214 Pls
3912 3196 Pls
3767 2946 Pls
3528 3219 Pls
3431 3193 Pls
3767 2944 Pls
3766 3142 Pls
3117 2930 Pls
3917 2989 Pls
3567 3171 Pls
3179 3313 Pls
3639 3324 Pls
3342 3234 Pls
4044 3113 Pls
3528 3096 Pls
3340 3267 Pls
3509 3211 Pls
3758 3307 Pls
3603 3228 Pls
3055 2989 Pls
3825 3212 Pls
3732 3142 Pls
3630 3229 Pls
3527 3305 Pls
3611 3023 Pls
3639 3315 Pls
3422 3215 Pls
3915 3305 Pls
3510 2968 Pls
3918 3134 Pls
4338 3356 Pls
3767 3182 Pls
3918 3307 Pls
3713 2999 Pls
3637 3258 Pls
3503 3006 Pls
3164 2672 Pls
4343 3311 Pls
4099 3214 Pls
3768 3321 Pls
3736 3008 Pls
3191 3047 Pls
3764 3089 Pls
3420 3188 Pls
3877 3224 Pls
3767 3241 Pls
3175 2693 Pls
4044 3261 Pls
3529 3249 Pls
3528 2809 Pls
3505 2993 Pls
3900 3236 Pls
3342 3089 Pls
3638 2968 Pls
3878 2967 Pls
3709 3100 Pls
3402 2972 Pls
3529 3076 Pls
3502 2948 Pls
3529 2957 Pls
3639 3278 Pls
3237 2716 Pls
4342 3341 Pls
3750 3085 Pls
3917 3285 Pls
3823 3148 Pls
3916 3357 Pls
4342 3330 Pls
3578 3267 Pls
3529 3148 Pls
3339 2942 Pls
3359 3150 Pls
3335 2965 Pls
4046 3211 Pls
3872 3261 Pls
3246 3193 Pls
3145 3317 Pls
3878 3343 Pls
3877 3205 Pls
4101 3218 Pls
3818 3225 Pls
4062 3337 Pls
3877 3000 Pls
3767 3150 Pls
3702 3289 Pls
3761 3075 Pls
3427 2807 Pls
2853 3066 Pls
4101 3161 Pls
4151 3238 Pls
3573 3144 Pls
3973 3355 Pls
3636 2990 Pls
4343 3376 Pls
3733 3342 Pls
3206 2887 Pls
3529 3294 Pls
3192 2938 Pls
3722 3288 Pls
3529 2928 Pls
3918 3323 Pls
3639 3080 Pls
3525 3210 Pls
3637 3399 Pls
3252 3066 Pls
4255 3400 Pls
3328 3092 Pls
3422 3063 Pls
3126 3022 Pls
3767 3049 Pls
4099 3158 Pls
3448 2973 Pls
3766 3287 Pls
3767 3177 Pls
3206 3183 Pls
3615 2963 Pls
3763 3159 Pls
3729 3031 Pls
3527 3003 Pls
3172 2763 Pls
3894 3002 Pls
3527 3031 Pls
3500 2708 Pls
4342 3344 Pls
3767 3219 Pls
3509 3007 Pls
3425 3162 Pls
3362 2882 Pls
3244 3196 Pls
3371 3098 Pls
3458 3192 Pls
3515 3177 Pls
3733 3302 Pls
3425 3133 Pls
3694 3260 Pls
3516 3043 Pls
3767 3163 Pls
3529 2983 Pls
3861 3165 Pls
3638 3294 Pls
3875 3345 Pls
4028 3219 Pls
3579 3195 Pls
3528 3219 Pls
3692 2957 Pls
3971 3235 Pls
3412 3167 Pls
3815 3443 Pls
3878 3179 Pls
4046 3205 Pls
3764 3078 Pls
3404 3126 Pls
3215 3020 Pls
3639 3233 Pls
3638 3424 Pls
3917 3160 Pls
3902 3226 Pls
3527 3166 Pls
3668 3142 Pls
3415 2855 Pls
3235 3161 Pls
3708 2995 Pls
3178 2993 Pls
3408 2818 Pls
4045 3319 Pls
3693 2815 Pls
3614 2839 Pls
4342 3457 Pls
3506 3187 Pls
4099 3238 Pls
3177 2868 Pls
3915 3401 Pls
3404 3200 Pls
3514 2991 Pls
3639 3195 Pls
3616 2969 Pls
4153 3297 Pls
3918 3130 Pls
2852 2987 Pls
4341 3300 Pls
4103 3374 Pls
2945 2839 Pls
3341 3208 Pls
4046 3175 Pls
3634 3188 Pls
3177 3029 Pls
3871 3085 Pls
3260 3155 Pls
3342 3059 Pls
3765 3240 Pls
3765 3074 Pls
3918 3349 Pls
3213 2997 Pls
3767 3136 Pls
3974 3291 Pls
3975 3102 Pls
3307 2894 Pls
3876 3047 Pls
3424 3015 Pls
3915 3109 Pls
3424 3191 Pls
2998 2956 Pls
3735 3095 Pls
3207 2909 Pls
3424 2784 Pls
3917 3056 Pls
3616 3060 Pls
3264 3222 Pls
3529 3230 Pls
3893 3322 Pls
3687 3371 Pls
3737 3298 Pls
3625 2945 Pls
3344 3228 Pls
3430 3008 Pls
3640 3057 Pls
4096 3306 Pls
3878 3139 Pls
3525 3245 Pls
3529 3072 Pls
3529 3282 Pls
3825 3128 Pls
3218 3280 Pls
2955 2952 Pls
3528 3107 Pls
3307 3206 Pls
3404 3025 Pls
3528 3158 Pls
3520 3300 Pls
% End plot #1
% Begin plot #2
0.500 UP
0.500 UL
LTb
0.73 0.85 0.33 C 4679 3260 Crs
3640 2722 Crs
3877 2907 Crs
4340 3218 Crs
4103 2993 Crs
4098 3058 Crs
4342 3162 Crs
3974 2982 Crs
4253 3128 Crs
4676 3446 Crs
4332 3184 Crs
4342 3245 Crs
3976 2912 Crs
4679 3370 Crs
3975 2984 Crs
3878 2768 Crs
4526 3342 Crs
4336 3242 Crs
4103 3053 Crs
3877 2905 Crs
4103 3090 Crs
3767 2721 Crs
4104 3089 Crs
4104 2923 Crs
3919 2938 Crs
4380 3279 Crs
4103 2970 Crs
3916 2934 Crs
4042 2933 Crs
4382 2954 Crs
4045 3024 Crs
4255 3165 Crs
4524 3238 Crs
4664 3459 Crs
4251 2935 Crs
4096 3060 Crs
3430 2467 Crs
3392 2500 Crs
4342 3068 Crs
4678 3383 Crs
4341 3195 Crs
4340 3247 Crs
4103 2924 Crs
3974 2968 Crs
4526 3282 Crs
4154 2960 Crs
4255 3054 Crs
4251 3110 Crs
4255 3071 Crs
4103 2960 Crs
3767 2676 Crs
4046 3015 Crs
4042 3041 Crs
3833 2733 Crs
3909 2856 Crs
3766 2788 Crs
4343 3260 Crs
4320 2989 Crs
3801 2819 Crs
4342 3238 Crs
4338 3192 Crs
4677 3317 Crs
3917 2916 Crs
4325 2916 Crs
4341 3242 Crs
4516 3186 Crs
4103 2870 Crs
4679 3363 Crs
4342 3139 Crs
4102 3055 Crs
3767 2827 Crs
4679 3327 Crs
4104 3004 Crs
4342 3033 Crs
3917 2898 Crs
4047 2859 Crs
4493 3357 Crs
4252 3049 Crs
3825 2829 Crs
4339 3274 Crs
3639 2555 Crs
4342 3259 Crs
3767 2727 Crs
4679 3509 Crs
4342 3148 Crs
3765 2618 Crs
4103 3081 Crs
3506 2546 Crs
4382 3133 Crs
4104 3094 Crs
4528 3176 Crs
4473 3168 Crs
4254 3160 Crs
4678 3192 Crs
4200 3111 Crs
4063 2556 Crs
4254 3142 Crs
4368 3170 Crs
3742 2789 Crs
4101 3055 Crs
4339 3223 Crs
3764 2696 Crs
3767 2822 Crs
4382 3239 Crs
3872 2827 Crs
4103 3071 Crs
4101 3088 Crs
4342 3240 Crs
4252 3041 Crs
3915 2847 Crs
4102 2880 Crs
4255 3025 Crs
4100 2945 Crs
4342 3249 Crs
4083 2929 Crs
4254 3145 Crs
4102 3060 Crs
4525 3203 Crs
4679 3259 Crs
4103 2953 Crs
3918 2911 Crs
4342 3164 Crs
4526 3333 Crs
4343 3239 Crs
4380 3266 Crs
4104 3075 Crs
4675 3257 Crs
4104 3062 Crs
4254 3148 Crs
4254 3140 Crs
4254 3166 Crs
4679 3489 Crs
4046 2940 Crs
4104 3079 Crs
4342 3267 Crs
4342 2900 Crs
3737 2738 Crs
4678 3061 Crs
3767 2841 Crs
4341 3192 Crs
3259 2265 Crs
3528 2465 Crs
4043 2932 Crs
3638 2707 Crs
4340 3247 Crs
4679 3231 Crs
4255 3155 Crs
3963 2699 Crs
4341 3071 Crs
4527 3296 Crs
4342 3256 Crs
4043 2838 Crs
3679 2726 Crs
4342 3027 Crs
4676 3322 Crs
4254 3148 Crs
4255 3166 Crs
4255 3203 Crs
4342 2975 Crs
3918 2920 Crs
4154 2830 Crs
4677 3194 Crs
3767 2807 Crs
3765 2704 Crs
4679 3275 Crs
3632 2638 Crs
3528 2617 Crs
4679 3213 Crs
3974 2974 Crs
4677 3433 Crs
4076 3011 Crs
3765 2836 Crs
4099 3056 Crs
4377 2864 Crs
4044 2869 Crs
4253 3047 Crs
3969 2906 Crs
3764 2738 Crs
3339 2377 Crs
4102 2893 Crs
4043 3033 Crs
4114 2858 Crs
4148 3003 Crs
3916 2891 Crs
4340 3160 Crs
4341 3246 Crs
4103 2975 Crs
4527 3328 Crs
4255 2823 Crs
4154 3044 Crs
4678 3218 Crs
3917 2922 Crs
4047 3010 Crs
4678 3430 Crs
4043 3031 Crs
4063 3000 Crs
4382 3099 Crs
4251 3202 Crs
4679 3336 Crs
4679 3355 Crs
3917 2919 Crs
3735 2683 Crs
4253 3159 Crs
4679 3195 Crs
3964 2730 Crs
4342 3218 Crs
4382 3216 Crs
3913 2848 Crs
4254 3197 Crs
4335 2990 Crs
4676 3310 Crs
4501 3374 Crs
4678 3343 Crs
4342 3191 Crs
4104 2853 Crs
4251 3147 Crs
4341 3199 Crs
4679 3334 Crs
4155 3102 Crs
4526 3246 Crs
4253 3191 Crs
3938 2964 Crs
4100 2967 Crs
3918 2864 Crs
4342 3264 Crs
4330 3015 Crs
4254 3202 Crs
4102 2879 Crs
4379 2657 Crs
4144 2775 Crs
4675 3181 Crs
4098 3072 Crs
4525 2980 Crs
4101 3036 Crs
3974 2662 Crs
4675 3133 Crs
4338 3068 Crs
3879 2924 Crs
4342 3184 Crs
4341 3138 Crs
4104 3001 Crs
3767 2772 Crs
4678 3275 Crs
4249 3174 Crs
3541 2656 Crs
4253 3097 Crs
4340 3243 Crs
4102 3051 Crs
4096 3037 Crs
4678 3159 Crs
4522 3252 Crs
4342 3188 Crs
4252 3118 Crs
4676 3150 Crs
3878 2888 Crs
4675 3376 Crs
4342 3181 Crs
4522 3181 Crs
4103 2897 Crs
4383 3179 Crs
4254 3109 Crs
3915 2865 Crs
4255 3073 Crs
4679 3481 Crs
4338 3112 Crs
4103 3032 Crs
3919 2947 Crs
3974 2862 Crs
4679 3445 Crs
3768 2728 Crs
4044 2946 Crs
4340 3111 Crs
4335 3229 Crs
4253 2710 Crs
3737 2725 Crs
3615 2713 Crs
3527 2581 Crs
4255 3100 Crs
4679 3352 Crs
4341 3164 Crs
4139 3045 Crs
3525 2479 Crs
3527 2587 Crs
3559 2525 Crs
3919 2948 Crs
3472 2531 Crs
4382 3227 Crs
4679 3313 Crs
3918 2926 Crs
3612 2639 Crs
4342 3194 Crs
4157 2879 Crs
4487 3341 Crs
3735 2798 Crs
3917 2725 Crs
4342 3099 Crs
4518 3275 Crs
4677 3266 Crs
4521 3151 Crs
4677 3329 Crs
4044 3044 Crs
4251 3115 Crs
4254 3174 Crs
4525 2972 Crs
4251 3154 Crs
3693 2560 Crs
4046 2953 Crs
4383 3148 Crs
4383 3103 Crs
4342 3133 Crs
4254 3122 Crs
4103 2966 Crs
4249 3111 Crs
4053 3041 Crs
4251 3189 Crs
4341 3163 Crs
4342 2974 Crs
3914 2916 Crs
4044 2942 Crs
4043 2821 Crs
% End plot #2
% Begin plot #3
1.000 UL
LTb
LT1
0.75 0.75 0.75 C 2142 1611 M
26 19 V
25 19 V
26 20 V
26 19 V
25 20 V
26 19 V
26 19 V
25 20 V
26 19 V
25 20 V
26 19 V
26 19 V
25 20 V
26 19 V
26 20 V
25 19 V
26 19 V
25 20 V
26 19 V
26 20 V
25 19 V
26 19 V
26 20 V
25 19 V
26 20 V
25 19 V
26 19 V
26 20 V
25 19 V
26 20 V
26 19 V
25 19 V
26 20 V
25 19 V
26 20 V
26 19 V
25 19 V
26 20 V
26 19 V
25 20 V
26 19 V
25 19 V
26 20 V
26 19 V
25 20 V
26 19 V
26 19 V
25 20 V
26 19 V
25 20 V
26 19 V
26 19 V
25 20 V
26 19 V
26 20 V
25 19 V
26 19 V
25 20 V
26 19 V
26 19 V
25 20 V
26 19 V
26 20 V
25 19 V
26 19 V
25 20 V
26 19 V
26 20 V
25 19 V
26 19 V
26 20 V
25 19 V
26 20 V
25 19 V
26 19 V
26 20 V
25 19 V
26 20 V
26 19 V
25 19 V
26 20 V
25 19 V
26 20 V
26 19 V
25 19 V
26 20 V
26 19 V
25 20 V
26 19 V
25 19 V
26 20 V
26 19 V
25 20 V
26 19 V
26 19 V
25 20 V
26 19 V
25 20 V
26 19 V
% End plot #3
stroke
2.000 UL
LTb
LCb setrgbcolor
1.000 UL
LTb
LCb setrgbcolor
860 3531 N
860 640 L
3819 0 V
0 2891 V
-3819 0 V
Z stroke
0.500 UP
1.000 UL
LTb
LCb setrgbcolor
stroke
grestore
end
showpage
%%Trailer
%%DocumentFonts: Helvetica
