%!PS-Adobe-2.0 EPSF-2.0
%%Title: mean.eps
%%Creator: gnuplot 5.0 patchlevel 1
%%CreationDate: Fri Oct 30 18:57:08 2015
%%DocumentFonts: (atend)
%%BoundingBox: 50 50 302 238
%%EndComments
%%BeginProlog
/gnudict 256 dict def
gnudict begin
%
% The following true/false flags may be edited by hand if desired.
% The unit line width and grayscale image gamma correction may also be changed.
%
/Color true def
/Blacktext false def
/Solid false def
/Dashlength 1 def
/Landscape false def
/Level1 false def
/Level3 false def
/Rounded false def
/ClipToBoundingBox false def
/SuppressPDFMark false def
/TransparentPatterns false def
/gnulinewidth 5.000 def
/userlinewidth gnulinewidth def
/Gamma 1.0 def
/BackgroundColor {-1.000 -1.000 -1.000} def
%
/vshift -66 def
/dl1 {
  10.0 Dashlength userlinewidth gnulinewidth div mul mul mul
  Rounded { currentlinewidth 0.75 mul sub dup 0 le { pop 0.01 } if } if
} def
/dl2 {
  10.0 Dashlength userlinewidth gnulinewidth div mul mul mul
  Rounded { currentlinewidth 0.75 mul add } if
} def
/hpt_ 31.5 def
/vpt_ 31.5 def
/hpt hpt_ def
/vpt vpt_ def
/doclip {
  ClipToBoundingBox {
    newpath 50 50 moveto 302 50 lineto 302 238 lineto 50 238 lineto closepath
    clip
  } if
} def
%
% Gnuplot Prolog Version 5.0 (Dec 2014)
%
%/SuppressPDFMark true def
%
/M {moveto} bind def
/L {lineto} bind def
/R {rmoveto} bind def
/V {rlineto} bind def
/N {newpath moveto} bind def
/Z {closepath} bind def
/C {setrgbcolor} bind def
/f {rlineto fill} bind def
/g {setgray} bind def
/Gshow {show} def   % May be redefined later in the file to support UTF-8
/vpt2 vpt 2 mul def
/hpt2 hpt 2 mul def
/Lshow {currentpoint stroke M 0 vshift R 
	Blacktext {gsave 0 setgray textshow grestore} {textshow} ifelse} def
/Rshow {currentpoint stroke M dup stringwidth pop neg vshift R
	Blacktext {gsave 0 setgray textshow grestore} {textshow} ifelse} def
/Cshow {currentpoint stroke M dup stringwidth pop -2 div vshift R 
	Blacktext {gsave 0 setgray textshow grestore} {textshow} ifelse} def
/UP {dup vpt_ mul /vpt exch def hpt_ mul /hpt exch def
  /hpt2 hpt 2 mul def /vpt2 vpt 2 mul def} def
/DL {Color {setrgbcolor Solid {pop []} if 0 setdash}
 {pop pop pop 0 setgray Solid {pop []} if 0 setdash} ifelse} def
/BL {stroke userlinewidth 2 mul setlinewidth
	Rounded {1 setlinejoin 1 setlinecap} if} def
/AL {stroke userlinewidth 2 div setlinewidth
	Rounded {1 setlinejoin 1 setlinecap} if} def
/UL {dup gnulinewidth mul /userlinewidth exch def
	dup 1 lt {pop 1} if 10 mul /udl exch def} def
/PL {stroke userlinewidth setlinewidth
	Rounded {1 setlinejoin 1 setlinecap} if} def
3.8 setmiterlimit
% Classic Line colors (version 5.0)
/LCw {1 1 1} def
/LCb {0 0 0} def
/LCa {0 0 0} def
/LC0 {1 0 0} def
/LC1 {0 1 0} def
/LC2 {0 0 1} def
/LC3 {1 0 1} def
/LC4 {0 1 1} def
/LC5 {1 1 0} def
/LC6 {0 0 0} def
/LC7 {1 0.3 0} def
/LC8 {0.5 0.5 0.5} def
% Default dash patterns (version 5.0)
/LTw {PL [] 1 setgray} def
/LTb {BL [] LCb DL} def
/LTa {AL [1 udl mul 2 udl mul] 0 setdash LCa setrgbcolor} def
/LT0 {PL [] LC0 DL} def
/LT1 {PL [2 dl1 3 dl2] LC1 DL} def
/LT2 {PL [1 dl1 1.5 dl2] LC2 DL} def
/LT3 {PL [6 dl1 2 dl2 1 dl1 2 dl2] LC3 DL} def
/LT4 {PL [1 dl1 2 dl2 6 dl1 2 dl2 1 dl1 2 dl2] LC4 DL} def
/LT5 {PL [4 dl1 2 dl2] LC5 DL} def
/LT6 {PL [1.5 dl1 1.5 dl2 1.5 dl1 1.5 dl2 1.5 dl1 6 dl2] LC6 DL} def
/LT7 {PL [3 dl1 3 dl2 1 dl1 3 dl2] LC7 DL} def
/LT8 {PL [2 dl1 2 dl2 2 dl1 6 dl2] LC8 DL} def
/SL {[] 0 setdash} def
/Pnt {stroke [] 0 setdash gsave 1 setlinecap M 0 0 V stroke grestore} def
/Dia {stroke [] 0 setdash 2 copy vpt add M
  hpt neg vpt neg V hpt vpt neg V
  hpt vpt V hpt neg vpt V closepath stroke
  Pnt} def
/Pls {stroke [] 0 setdash vpt sub M 0 vpt2 V
  currentpoint stroke M
  hpt neg vpt neg R hpt2 0 V stroke
 } def
/Box {stroke [] 0 setdash 2 copy exch hpt sub exch vpt add M
  0 vpt2 neg V hpt2 0 V 0 vpt2 V
  hpt2 neg 0 V closepath stroke
  Pnt} def
/Crs {stroke [] 0 setdash exch hpt sub exch vpt add M
  hpt2 vpt2 neg V currentpoint stroke M
  hpt2 neg 0 R hpt2 vpt2 V stroke} def
/TriU {stroke [] 0 setdash 2 copy vpt 1.12 mul add M
  hpt neg vpt -1.62 mul V
  hpt 2 mul 0 V
  hpt neg vpt 1.62 mul V closepath stroke
  Pnt} def
/Star {2 copy Pls Crs} def
/BoxF {stroke [] 0 setdash exch hpt sub exch vpt add M
  0 vpt2 neg V hpt2 0 V 0 vpt2 V
  hpt2 neg 0 V closepath fill} def
/TriUF {stroke [] 0 setdash vpt 1.12 mul add M
  hpt neg vpt -1.62 mul V
  hpt 2 mul 0 V
  hpt neg vpt 1.62 mul V closepath fill} def
/TriD {stroke [] 0 setdash 2 copy vpt 1.12 mul sub M
  hpt neg vpt 1.62 mul V
  hpt 2 mul 0 V
  hpt neg vpt -1.62 mul V closepath stroke
  Pnt} def
/TriDF {stroke [] 0 setdash vpt 1.12 mul sub M
  hpt neg vpt 1.62 mul V
  hpt 2 mul 0 V
  hpt neg vpt -1.62 mul V closepath fill} def
/DiaF {stroke [] 0 setdash vpt add M
  hpt neg vpt neg V hpt vpt neg V
  hpt vpt V hpt neg vpt V closepath fill} def
/Pent {stroke [] 0 setdash 2 copy gsave
  translate 0 hpt M 4 {72 rotate 0 hpt L} repeat
  closepath stroke grestore Pnt} def
/PentF {stroke [] 0 setdash gsave
  translate 0 hpt M 4 {72 rotate 0 hpt L} repeat
  closepath fill grestore} def
/Circle {stroke [] 0 setdash 2 copy
  hpt 0 360 arc stroke Pnt} def
/CircleF {stroke [] 0 setdash hpt 0 360 arc fill} def
/C0 {BL [] 0 setdash 2 copy moveto vpt 90 450 arc} bind def
/C1 {BL [] 0 setdash 2 copy moveto
	2 copy vpt 0 90 arc closepath fill
	vpt 0 360 arc closepath} bind def
/C2 {BL [] 0 setdash 2 copy moveto
	2 copy vpt 90 180 arc closepath fill
	vpt 0 360 arc closepath} bind def
/C3 {BL [] 0 setdash 2 copy moveto
	2 copy vpt 0 180 arc closepath fill
	vpt 0 360 arc closepath} bind def
/C4 {BL [] 0 setdash 2 copy moveto
	2 copy vpt 180 270 arc closepath fill
	vpt 0 360 arc closepath} bind def
/C5 {BL [] 0 setdash 2 copy moveto
	2 copy vpt 0 90 arc
	2 copy moveto
	2 copy vpt 180 270 arc closepath fill
	vpt 0 360 arc} bind def
/C6 {BL [] 0 setdash 2 copy moveto
	2 copy vpt 90 270 arc closepath fill
	vpt 0 360 arc closepath} bind def
/C7 {BL [] 0 setdash 2 copy moveto
	2 copy vpt 0 270 arc closepath fill
	vpt 0 360 arc closepath} bind def
/C8 {BL [] 0 setdash 2 copy moveto
	2 copy vpt 270 360 arc closepath fill
	vpt 0 360 arc closepath} bind def
/C9 {BL [] 0 setdash 2 copy moveto
	2 copy vpt 270 450 arc closepath fill
	vpt 0 360 arc closepath} bind def
/C10 {BL [] 0 setdash 2 copy 2 copy moveto vpt 270 360 arc closepath fill
	2 copy moveto
	2 copy vpt 90 180 arc closepath fill
	vpt 0 360 arc closepath} bind def
/C11 {BL [] 0 setdash 2 copy moveto
	2 copy vpt 0 180 arc closepath fill
	2 copy moveto
	2 copy vpt 270 360 arc closepath fill
	vpt 0 360 arc closepath} bind def
/C12 {BL [] 0 setdash 2 copy moveto
	2 copy vpt 180 360 arc closepath fill
	vpt 0 360 arc closepath} bind def
/C13 {BL [] 0 setdash 2 copy moveto
	2 copy vpt 0 90 arc closepath fill
	2 copy moveto
	2 copy vpt 180 360 arc closepath fill
	vpt 0 360 arc closepath} bind def
/C14 {BL [] 0 setdash 2 copy moveto
	2 copy vpt 90 360 arc closepath fill
	vpt 0 360 arc} bind def
/C15 {BL [] 0 setdash 2 copy vpt 0 360 arc closepath fill
	vpt 0 360 arc closepath} bind def
/Rec {newpath 4 2 roll moveto 1 index 0 rlineto 0 exch rlineto
	neg 0 rlineto closepath} bind def
/Square {dup Rec} bind def
/Bsquare {vpt sub exch vpt sub exch vpt2 Square} bind def
/S0 {BL [] 0 setdash 2 copy moveto 0 vpt rlineto BL Bsquare} bind def
/S1 {BL [] 0 setdash 2 copy vpt Square fill Bsquare} bind def
/S2 {BL [] 0 setdash 2 copy exch vpt sub exch vpt Square fill Bsquare} bind def
/S3 {BL [] 0 setdash 2 copy exch vpt sub exch vpt2 vpt Rec fill Bsquare} bind def
/S4 {BL [] 0 setdash 2 copy exch vpt sub exch vpt sub vpt Square fill Bsquare} bind def
/S5 {BL [] 0 setdash 2 copy 2 copy vpt Square fill
	exch vpt sub exch vpt sub vpt Square fill Bsquare} bind def
/S6 {BL [] 0 setdash 2 copy exch vpt sub exch vpt sub vpt vpt2 Rec fill Bsquare} bind def
/S7 {BL [] 0 setdash 2 copy exch vpt sub exch vpt sub vpt vpt2 Rec fill
	2 copy vpt Square fill Bsquare} bind def
/S8 {BL [] 0 setdash 2 copy vpt sub vpt Square fill Bsquare} bind def
/S9 {BL [] 0 setdash 2 copy vpt sub vpt vpt2 Rec fill Bsquare} bind def
/S10 {BL [] 0 setdash 2 copy vpt sub vpt Square fill 2 copy exch vpt sub exch vpt Square fill
	Bsquare} bind def
/S11 {BL [] 0 setdash 2 copy vpt sub vpt Square fill 2 copy exch vpt sub exch vpt2 vpt Rec fill
	Bsquare} bind def
/S12 {BL [] 0 setdash 2 copy exch vpt sub exch vpt sub vpt2 vpt Rec fill Bsquare} bind def
/S13 {BL [] 0 setdash 2 copy exch vpt sub exch vpt sub vpt2 vpt Rec fill
	2 copy vpt Square fill Bsquare} bind def
/S14 {BL [] 0 setdash 2 copy exch vpt sub exch vpt sub vpt2 vpt Rec fill
	2 copy exch vpt sub exch vpt Square fill Bsquare} bind def
/S15 {BL [] 0 setdash 2 copy Bsquare fill Bsquare} bind def
/D0 {gsave translate 45 rotate 0 0 S0 stroke grestore} bind def
/D1 {gsave translate 45 rotate 0 0 S1 stroke grestore} bind def
/D2 {gsave translate 45 rotate 0 0 S2 stroke grestore} bind def
/D3 {gsave translate 45 rotate 0 0 S3 stroke grestore} bind def
/D4 {gsave translate 45 rotate 0 0 S4 stroke grestore} bind def
/D5 {gsave translate 45 rotate 0 0 S5 stroke grestore} bind def
/D6 {gsave translate 45 rotate 0 0 S6 stroke grestore} bind def
/D7 {gsave translate 45 rotate 0 0 S7 stroke grestore} bind def
/D8 {gsave translate 45 rotate 0 0 S8 stroke grestore} bind def
/D9 {gsave translate 45 rotate 0 0 S9 stroke grestore} bind def
/D10 {gsave translate 45 rotate 0 0 S10 stroke grestore} bind def
/D11 {gsave translate 45 rotate 0 0 S11 stroke grestore} bind def
/D12 {gsave translate 45 rotate 0 0 S12 stroke grestore} bind def
/D13 {gsave translate 45 rotate 0 0 S13 stroke grestore} bind def
/D14 {gsave translate 45 rotate 0 0 S14 stroke grestore} bind def
/D15 {gsave translate 45 rotate 0 0 S15 stroke grestore} bind def
/DiaE {stroke [] 0 setdash vpt add M
  hpt neg vpt neg V hpt vpt neg V
  hpt vpt V hpt neg vpt V closepath stroke} def
/BoxE {stroke [] 0 setdash exch hpt sub exch vpt add M
  0 vpt2 neg V hpt2 0 V 0 vpt2 V
  hpt2 neg 0 V closepath stroke} def
/TriUE {stroke [] 0 setdash vpt 1.12 mul add M
  hpt neg vpt -1.62 mul V
  hpt 2 mul 0 V
  hpt neg vpt 1.62 mul V closepath stroke} def
/TriDE {stroke [] 0 setdash vpt 1.12 mul sub M
  hpt neg vpt 1.62 mul V
  hpt 2 mul 0 V
  hpt neg vpt -1.62 mul V closepath stroke} def
/PentE {stroke [] 0 setdash gsave
  translate 0 hpt M 4 {72 rotate 0 hpt L} repeat
  closepath stroke grestore} def
/CircE {stroke [] 0 setdash 
  hpt 0 360 arc stroke} def
/Opaque {gsave closepath 1 setgray fill grestore 0 setgray closepath} def
/DiaW {stroke [] 0 setdash vpt add M
  hpt neg vpt neg V hpt vpt neg V
  hpt vpt V hpt neg vpt V Opaque stroke} def
/BoxW {stroke [] 0 setdash exch hpt sub exch vpt add M
  0 vpt2 neg V hpt2 0 V 0 vpt2 V
  hpt2 neg 0 V Opaque stroke} def
/TriUW {stroke [] 0 setdash vpt 1.12 mul add M
  hpt neg vpt -1.62 mul V
  hpt 2 mul 0 V
  hpt neg vpt 1.62 mul V Opaque stroke} def
/TriDW {stroke [] 0 setdash vpt 1.12 mul sub M
  hpt neg vpt 1.62 mul V
  hpt 2 mul 0 V
  hpt neg vpt -1.62 mul V Opaque stroke} def
/PentW {stroke [] 0 setdash gsave
  translate 0 hpt M 4 {72 rotate 0 hpt L} repeat
  Opaque stroke grestore} def
/CircW {stroke [] 0 setdash 
  hpt 0 360 arc Opaque stroke} def
/BoxFill {gsave Rec 1 setgray fill grestore} def
/Density {
  /Fillden exch def
  currentrgbcolor
  /ColB exch def /ColG exch def /ColR exch def
  /ColR ColR Fillden mul Fillden sub 1 add def
  /ColG ColG Fillden mul Fillden sub 1 add def
  /ColB ColB Fillden mul Fillden sub 1 add def
  ColR ColG ColB setrgbcolor} def
/BoxColFill {gsave Rec PolyFill} def
/PolyFill {gsave Density fill grestore grestore} def
/h {rlineto rlineto rlineto gsave closepath fill grestore} bind def
%
% PostScript Level 1 Pattern Fill routine for rectangles
% Usage: x y w h s a XX PatternFill
%	x,y = lower left corner of box to be filled
%	w,h = width and height of box
%	  a = angle in degrees between lines and x-axis
%	 XX = 0/1 for no/yes cross-hatch
%
/PatternFill {gsave /PFa [ 9 2 roll ] def
  PFa 0 get PFa 2 get 2 div add PFa 1 get PFa 3 get 2 div add translate
  PFa 2 get -2 div PFa 3 get -2 div PFa 2 get PFa 3 get Rec
  TransparentPatterns {} {gsave 1 setgray fill grestore} ifelse
  clip
  currentlinewidth 0.5 mul setlinewidth
  /PFs PFa 2 get dup mul PFa 3 get dup mul add sqrt def
  0 0 M PFa 5 get rotate PFs -2 div dup translate
  0 1 PFs PFa 4 get div 1 add floor cvi
	{PFa 4 get mul 0 M 0 PFs V} for
  0 PFa 6 get ne {
	0 1 PFs PFa 4 get div 1 add floor cvi
	{PFa 4 get mul 0 2 1 roll M PFs 0 V} for
 } if
  stroke grestore} def
%
/languagelevel where
 {pop languagelevel} {1} ifelse
dup 2 lt
	{/InterpretLevel1 true def
	 /InterpretLevel3 false def}
	{/InterpretLevel1 Level1 def
	 2 gt
	    {/InterpretLevel3 Level3 def}
	    {/InterpretLevel3 false def}
	 ifelse }
 ifelse
%
% PostScript level 2 pattern fill definitions
%
/Level2PatternFill {
/Tile8x8 {/PaintType 2 /PatternType 1 /TilingType 1 /BBox [0 0 8 8] /XStep 8 /YStep 8}
	bind def
/KeepColor {currentrgbcolor [/Pattern /DeviceRGB] setcolorspace} bind def
<< Tile8x8
 /PaintProc {0.5 setlinewidth pop 0 0 M 8 8 L 0 8 M 8 0 L stroke} 
>> matrix makepattern
/Pat1 exch def
<< Tile8x8
 /PaintProc {0.5 setlinewidth pop 0 0 M 8 8 L 0 8 M 8 0 L stroke
	0 4 M 4 8 L 8 4 L 4 0 L 0 4 L stroke}
>> matrix makepattern
/Pat2 exch def
<< Tile8x8
 /PaintProc {0.5 setlinewidth pop 0 0 M 0 8 L
	8 8 L 8 0 L 0 0 L fill}
>> matrix makepattern
/Pat3 exch def
<< Tile8x8
 /PaintProc {0.5 setlinewidth pop -4 8 M 8 -4 L
	0 12 M 12 0 L stroke}
>> matrix makepattern
/Pat4 exch def
<< Tile8x8
 /PaintProc {0.5 setlinewidth pop -4 0 M 8 12 L
	0 -4 M 12 8 L stroke}
>> matrix makepattern
/Pat5 exch def
<< Tile8x8
 /PaintProc {0.5 setlinewidth pop -2 8 M 4 -4 L
	0 12 M 8 -4 L 4 12 M 10 0 L stroke}
>> matrix makepattern
/Pat6 exch def
<< Tile8x8
 /PaintProc {0.5 setlinewidth pop -2 0 M 4 12 L
	0 -4 M 8 12 L 4 -4 M 10 8 L stroke}
>> matrix makepattern
/Pat7 exch def
<< Tile8x8
 /PaintProc {0.5 setlinewidth pop 8 -2 M -4 4 L
	12 0 M -4 8 L 12 4 M 0 10 L stroke}
>> matrix makepattern
/Pat8 exch def
<< Tile8x8
 /PaintProc {0.5 setlinewidth pop 0 -2 M 12 4 L
	-4 0 M 12 8 L -4 4 M 8 10 L stroke}
>> matrix makepattern
/Pat9 exch def
/Pattern1 {PatternBgnd KeepColor Pat1 setpattern} bind def
/Pattern2 {PatternBgnd KeepColor Pat2 setpattern} bind def
/Pattern3 {PatternBgnd KeepColor Pat3 setpattern} bind def
/Pattern4 {PatternBgnd KeepColor Landscape {Pat5} {Pat4} ifelse setpattern} bind def
/Pattern5 {PatternBgnd KeepColor Landscape {Pat4} {Pat5} ifelse setpattern} bind def
/Pattern6 {PatternBgnd KeepColor Landscape {Pat9} {Pat6} ifelse setpattern} bind def
/Pattern7 {PatternBgnd KeepColor Landscape {Pat8} {Pat7} ifelse setpattern} bind def
} def
%
%
%End of PostScript Level 2 code
%
/PatternBgnd {
  TransparentPatterns {} {gsave 1 setgray fill grestore} ifelse
} def
%
% Substitute for Level 2 pattern fill codes with
% grayscale if Level 2 support is not selected.
%
/Level1PatternFill {
/Pattern1 {0.250 Density} bind def
/Pattern2 {0.500 Density} bind def
/Pattern3 {0.750 Density} bind def
/Pattern4 {0.125 Density} bind def
/Pattern5 {0.375 Density} bind def
/Pattern6 {0.625 Density} bind def
/Pattern7 {0.875 Density} bind def
} def
%
% Now test for support of Level 2 code
%
Level1 {Level1PatternFill} {Level2PatternFill} ifelse
%
/Symbol-Oblique /Symbol findfont [1 0 .167 1 0 0] makefont
dup length dict begin {1 index /FID eq {pop pop} {def} ifelse} forall
currentdict end definefont pop
%
/MFshow {
   { dup 5 get 3 ge
     { 5 get 3 eq {gsave} {grestore} ifelse }
     {dup dup 0 get findfont exch 1 get scalefont setfont
     [ currentpoint ] exch dup 2 get 0 exch R dup 5 get 2 ne {dup dup 6
     get exch 4 get {textshow} {stringwidth pop 0 R} ifelse }if dup 5 get 0 eq
     {dup 3 get {2 get neg 0 exch R pop} {pop aload pop M} ifelse} {dup 5
     get 1 eq {dup 2 get exch dup 3 get exch 6 get stringwidth pop -2 div
     dup 0 R} {dup 6 get stringwidth pop -2 div 0 R 6 get
     textshow 2 index {aload pop M neg 3 -1 roll neg R pop pop} {pop pop pop
     pop aload pop M} ifelse }ifelse }ifelse }
     ifelse }
   forall} def
/Gswidth {dup type /stringtype eq {stringwidth} {pop (n) stringwidth} ifelse} def
/MFwidth {0 exch { dup 5 get 3 ge { 5 get 3 eq { 0 } { pop } ifelse }
 {dup 3 get{dup dup 0 get findfont exch 1 get scalefont setfont
     6 get Gswidth pop add} {pop} ifelse} ifelse} forall} def
/MLshow { currentpoint stroke M
  0 exch R
  Blacktext {gsave 0 setgray MFshow grestore} {MFshow} ifelse } bind def
/MRshow { currentpoint stroke M
  exch dup MFwidth neg 3 -1 roll R
  Blacktext {gsave 0 setgray MFshow grestore} {MFshow} ifelse } bind def
/MCshow { currentpoint stroke M
  exch dup MFwidth -2 div 3 -1 roll R
  Blacktext {gsave 0 setgray MFshow grestore} {MFshow} ifelse } bind def
/XYsave    { [( ) 1 2 true false 3 ()] } bind def
/XYrestore { [( ) 1 2 true false 4 ()] } bind def
Level1 SuppressPDFMark or 
{} {
/SDict 10 dict def
systemdict /pdfmark known not {
  userdict /pdfmark systemdict /cleartomark get put
} if
SDict begin [
  /Title (mean.eps)
  /Subject (gnuplot plot)
  /Creator (gnuplot 5.0 patchlevel 1)
  /Author (gaumont)
%  /Producer (gnuplot)
%  /Keywords ()
  /CreationDate (Fri Oct 30 18:57:08 2015)
  /DOCINFO pdfmark
end
} ifelse
end
%
% Support for boxed text - Ethan A Merritt May 2005
%
/InitTextBox { userdict /TBy2 3 -1 roll put userdict /TBx2 3 -1 roll put
           userdict /TBy1 3 -1 roll put userdict /TBx1 3 -1 roll put
	   /Boxing true def } def
/ExtendTextBox { Boxing
    { gsave dup false charpath pathbbox
      dup TBy2 gt {userdict /TBy2 3 -1 roll put} {pop} ifelse
      dup TBx2 gt {userdict /TBx2 3 -1 roll put} {pop} ifelse
      dup TBy1 lt {userdict /TBy1 3 -1 roll put} {pop} ifelse
      dup TBx1 lt {userdict /TBx1 3 -1 roll put} {pop} ifelse
      grestore } if } def
/PopTextBox { newpath TBx1 TBxmargin sub TBy1 TBymargin sub M
               TBx1 TBxmargin sub TBy2 TBymargin add L
	       TBx2 TBxmargin add TBy2 TBymargin add L
	       TBx2 TBxmargin add TBy1 TBymargin sub L closepath } def
/DrawTextBox { PopTextBox stroke /Boxing false def} def
/FillTextBox { gsave PopTextBox 1 1 1 setrgbcolor fill grestore /Boxing false def} def
0 0 0 0 InitTextBox
/TBxmargin 20 def
/TBymargin 20 def
/Boxing false def
/textshow { ExtendTextBox Gshow } def
%
%%EndProlog
%%Page: 1 1
gnudict begin
gsave
doclip
50 50 translate
0.050 0.050 scale
0 setgray
newpath
(Helvetica) findfont 200 scalefont setfont
BackgroundColor 0 lt 3 1 roll 0 lt exch 0 lt or or not {BackgroundColor C 1.000 0 0 5040.00 3772.00 BoxColFill} if
1.000 UL
LTb
LCb setrgbcolor
860 640 M
63 0 V
3756 0 R
-63 0 V
stroke
740 640 M
[ [(Helvetica) 200.0 0.0 true true 0 (10)]
[(Helvetica) 160.0 100.0 true true 0 (-2)]
] -86.7 MRshow
1.000 UL
LTb
LCb setrgbcolor
860 1075 M
31 0 V
3788 0 R
-31 0 V
860 1330 M
31 0 V
3788 0 R
-31 0 V
860 1510 M
31 0 V
3788 0 R
-31 0 V
860 1650 M
31 0 V
3788 0 R
-31 0 V
860 1765 M
31 0 V
3788 0 R
-31 0 V
860 1862 M
31 0 V
3788 0 R
-31 0 V
860 1945 M
31 0 V
3788 0 R
-31 0 V
860 2019 M
31 0 V
3788 0 R
-31 0 V
860 2086 M
63 0 V
3756 0 R
-63 0 V
stroke
740 2086 M
[ [(Helvetica) 200.0 0.0 true true 0 (10)]
[(Helvetica) 160.0 100.0 true true 0 (-1)]
] -86.7 MRshow
1.000 UL
LTb
LCb setrgbcolor
860 2521 M
31 0 V
3788 0 R
-31 0 V
860 2775 M
31 0 V
3788 0 R
-31 0 V
860 2956 M
31 0 V
3788 0 R
-31 0 V
860 3096 M
31 0 V
3788 0 R
-31 0 V
860 3210 M
31 0 V
3788 0 R
-31 0 V
860 3307 M
31 0 V
3788 0 R
-31 0 V
860 3391 M
31 0 V
3788 0 R
-31 0 V
860 3465 M
31 0 V
3788 0 R
-31 0 V
860 3531 M
63 0 V
3756 0 R
-63 0 V
stroke
740 3531 M
[ [(Helvetica) 200.0 0.0 true true 0 (10)]
[(Helvetica) 160.0 100.0 true true 0 (0)]
] -86.7 MRshow
1.000 UL
LTb
LCb setrgbcolor
860 640 M
0 63 V
0 2828 R
0 -63 V
stroke
860 440 M
[ [(Helvetica) 200.0 0.0 true true 0 (10)]
[(Helvetica) 160.0 100.0 true true 0 (-2)]
] -86.7 MCshow
1.000 UL
LTb
LCb setrgbcolor
1435 640 M
0 31 V
0 2860 R
0 -31 V
1771 640 M
0 31 V
0 2860 R
0 -31 V
2010 640 M
0 31 V
0 2860 R
0 -31 V
2195 640 M
0 31 V
0 2860 R
0 -31 V
2346 640 M
0 31 V
0 2860 R
0 -31 V
2474 640 M
0 31 V
0 2860 R
0 -31 V
2584 640 M
0 31 V
0 2860 R
0 -31 V
2682 640 M
0 31 V
0 2860 R
0 -31 V
2770 640 M
0 63 V
0 2828 R
0 -63 V
stroke
2770 440 M
[ [(Helvetica) 200.0 0.0 true true 0 (10)]
[(Helvetica) 160.0 100.0 true true 0 (-1)]
] -86.7 MCshow
1.000 UL
LTb
LCb setrgbcolor
3344 640 M
0 31 V
0 2860 R
0 -31 V
3681 640 M
0 31 V
0 2860 R
0 -31 V
3919 640 M
0 31 V
0 2860 R
0 -31 V
4104 640 M
0 31 V
0 2860 R
0 -31 V
4255 640 M
0 31 V
0 2860 R
0 -31 V
4383 640 M
0 31 V
0 2860 R
0 -31 V
4494 640 M
0 31 V
0 2860 R
0 -31 V
4592 640 M
0 31 V
0 2860 R
0 -31 V
4679 640 M
0 63 V
0 2828 R
0 -63 V
stroke
4679 440 M
[ [(Helvetica) 200.0 0.0 true true 0 (10)]
[(Helvetica) 160.0 100.0 true true 0 (0)]
] -86.7 MCshow
1.000 UL
LTb
LCb setrgbcolor
1.000 UL
LTb
LCb setrgbcolor
860 3531 N
860 640 L
3819 0 V
0 2891 V
-3819 0 V
Z stroke
0.500 UP
1.000 UL
LTb
LCb setrgbcolor
LCb setrgbcolor
160 2085 M
currentpoint gsave translate -270 rotate 0 0 moveto
[ [(Helvetica) 200.0 0.0 true true 0 (Inter-thread density)]
] -66.7 MCshow
grestore
LTb
LCb setrgbcolor
2769 140 M
[ [(Helvetica) 200.0 0.0 true true 0 (Intra-thread density)]
] -66.7 MCshow
LTb
% Begin plot #1
0.500 UP
0.500 UL
LTb
0.82 0.11 0.02 C 3192 2426 Pls
2891 2415 Pls
2918 2228 Pls
3184 2555 Pls
2142 2066 Pls
3137 2396 Pls
2615 2193 Pls
2866 2395 Pls
3263 2483 Pls
3118 2369 Pls
3262 2511 Pls
3430 2595 Pls
3211 2472 Pls
2924 2260 Pls
2842 2307 Pls
3045 2316 Pls
3189 2474 Pls
3085 2337 Pls
2993 2451 Pls
2796 2682 Pls
3179 2486 Pls
2998 2426 Pls
2755 2194 Pls
2952 2261 Pls
2893 2528 Pls
3099 2418 Pls
3148 2475 Pls
3173 2453 Pls
3049 2512 Pls
3325 2580 Pls
3528 2760 Pls
2937 2413 Pls
3066 2479 Pls
3521 2775 Pls
3253 2520 Pls
2761 2264 Pls
2783 2103 Pls
3312 2552 Pls
2395 2230 Pls
2997 2330 Pls
3572 2704 Pls
3161 2551 Pls
2822 2243 Pls
3436 2723 Pls
2668 2130 Pls
2759 2180 Pls
3235 2495 Pls
3233 2599 Pls
3386 2607 Pls
3377 2684 Pls
3082 2415 Pls
2918 2291 Pls
2765 2217 Pls
2587 2132 Pls
3163 2392 Pls
3035 2475 Pls
2889 2404 Pls
3535 2718 Pls
2849 2270 Pls
3000 2286 Pls
3522 2655 Pls
2935 2232 Pls
3182 2489 Pls
2841 2303 Pls
3496 2686 Pls
3165 2409 Pls
3268 2590 Pls
3153 2636 Pls
2998 2504 Pls
2800 2122 Pls
3473 2630 Pls
3301 2514 Pls
3522 2658 Pls
3431 2606 Pls
3125 2478 Pls
3231 2636 Pls
3408 2661 Pls
3166 2388 Pls
3214 2544 Pls
3239 2548 Pls
2894 2263 Pls
3339 2698 Pls
3182 2438 Pls
2931 2368 Pls
3232 2536 Pls
3114 2357 Pls
3344 2522 Pls
2992 2352 Pls
3338 2577 Pls
3214 2523 Pls
3113 2646 Pls
3006 2337 Pls
2620 2171 Pls
2690 2212 Pls
2977 2319 Pls
2690 2108 Pls
3328 2617 Pls
3525 2760 Pls
3192 2545 Pls
3258 2518 Pls
2505 2077 Pls
3379 2561 Pls
2860 2243 Pls
3264 2476 Pls
2906 2431 Pls
3253 2495 Pls
2964 2263 Pls
3336 2553 Pls
2753 2304 Pls
2853 2272 Pls
2946 2544 Pls
2901 2435 Pls
2845 2371 Pls
3208 2445 Pls
2810 2322 Pls
2909 2352 Pls
2838 2259 Pls
3410 2597 Pls
3114 2397 Pls
3300 2497 Pls
2757 2151 Pls
3117 2390 Pls
2778 2313 Pls
3583 2746 Pls
2762 2176 Pls
3182 2437 Pls
3343 2653 Pls
2820 2166 Pls
3022 2350 Pls
3126 2379 Pls
3189 2550 Pls
3332 2557 Pls
2849 2356 Pls
2780 2109 Pls
3192 2494 Pls
2985 2406 Pls
3231 2629 Pls
2855 2264 Pls
2751 2304 Pls
2734 2140 Pls
3309 2593 Pls
2895 2245 Pls
2748 2419 Pls
3190 2514 Pls
3327 2629 Pls
3146 2675 Pls
3169 2606 Pls
3522 2727 Pls
3056 2482 Pls
3363 2562 Pls
3294 2564 Pls
3251 2496 Pls
2995 2274 Pls
3022 2412 Pls
2902 2435 Pls
3125 2490 Pls
3262 2460 Pls
3410 2574 Pls
3330 2600 Pls
3429 2701 Pls
3062 2333 Pls
2976 2298 Pls
3119 2468 Pls
3015 2280 Pls
3430 2661 Pls
3338 2581 Pls
3321 2542 Pls
3000 2509 Pls
2742 2171 Pls
3088 2421 Pls
3492 2709 Pls
2923 2206 Pls
3187 2426 Pls
2830 2286 Pls
2863 2307 Pls
3120 2359 Pls
2164 1929 Pls
3179 2629 Pls
3359 2546 Pls
3246 2466 Pls
3145 2476 Pls
2853 2436 Pls
3244 2447 Pls
2852 2204 Pls
2998 2289 Pls
3264 2471 Pls
3218 2543 Pls
% End plot #1
% Begin plot #2
0.500 UP
0.500 UL
LTb
0.73 0.85 0.33 C 4342 2597 Crs
3767 2284 Crs
4679 2271 Crs
3763 2303 Crs
3640 1452 Crs
3877 2125 Crs
3917 2522 Crs
3344 2474 Crs
3527 2375 Crs
3765 2100 Crs
3343 2042 Crs
3117 2082 Crs
3918 2557 Crs
4382 2373 Crs
3182 2208 Crs
3763 2607 Crs
4044 2353 Crs
3637 1807 Crs
4103 2486 Crs
3528 2326 Crs
3528 2418 Crs
3638 2432 Crs
3523 2331 Crs
3262 2270 Crs
4043 2552 Crs
3734 2263 Crs
3632 2606 Crs
3343 1759 Crs
3498 2139 Crs
3871 2631 Crs
3628 1829 Crs
3767 2110 Crs
3123 2045 Crs
4340 2056 Crs
3611 2014 Crs
3428 2381 Crs
4103 2037 Crs
3637 2283 Crs
4103 2513 Crs
3264 2148 Crs
3614 2540 Crs
3909 2380 Crs
3616 2254 Crs
3766 2403 Crs
3910 2207 Crs
3003 2108 Crs
3736 2003 Crs
4043 2477 Crs
3758 2422 Crs
3248 2233 Crs
3210 2333 Crs
4104 2368 Crs
3761 2223 Crs
3824 2419 Crs
3734 2065 Crs
3825 2482 Crs
3762 2190 Crs
3186 2293 Crs
3639 1798 Crs
2532 1902 Crs
3762 2184 Crs
3918 2277 Crs
3263 2137 Crs
3036 1391 Crs
3580 2140 Crs
4098 2242 Crs
3640 2093 Crs
3912 2609 Crs
4103 2249 Crs
3317 2343 Crs
3411 2210 Crs
3481 2266 Crs
4047 2241 Crs
4342 2150 Crs
3639 2228 Crs
3190 2173 Crs
3974 2005 Crs
3190 2213 Crs
3322 2011 Crs
3258 2316 Crs
3372 1876 Crs
3089 1900 Crs
3192 2046 Crs
3527 2238 Crs
3636 2337 Crs
3616 2312 Crs
3639 2310 Crs
4104 2185 Crs
3479 2453 Crs
3918 2159 Crs
3528 2090 Crs
3914 2550 Crs
3083 2280 Crs
4100 2132 Crs
4253 2409 Crs
3478 2036 Crs
3918 2553 Crs
3264 1776 Crs
3862 2341 Crs
3061 2135 Crs
3734 2243 Crs
3767 2391 Crs
3460 2315 Crs
4676 2563 Crs
3416 2139 Crs
4103 2224 Crs
3119 1507 Crs
3529 2310 Crs
4332 2272 Crs
3611 2593 Crs
4046 2263 Crs
3423 1802 Crs
3251 2131 Crs
3528 2176 Crs
3583 2156 Crs
3505 2351 Crs
3766 2351 Crs
2912 2143 Crs
3767 2272 Crs
3639 2343 Crs
3919 2246 Crs
3736 2019 Crs
3263 2166 Crs
3734 2373 Crs
3328 2423 Crs
3763 2465 Crs
3640 1658 Crs
3529 2167 Crs
3581 2137 Crs
3430 2318 Crs
3639 2309 Crs
3229 2381 Crs
3057 2000 Crs
4255 2609 Crs
4342 2294 Crs
3755 2530 Crs
3766 2178 Crs
3180 2119 Crs
3318 2173 Crs
3729 2277 Crs
3339 2096 Crs
3337 1835 Crs
3976 1998 Crs
3766 2286 Crs
3524 1819 Crs
3460 1911 Crs
2975 2052 Crs
3648 2360 Crs
3507 2372 Crs
4679 2284 Crs
4101 2196 Crs
3824 2082 Crs
4045 2419 Crs
3975 2278 Crs
3340 2300 Crs
3428 1432 Crs
3481 2353 Crs
3430 2377 Crs
3763 2485 Crs
3912 2303 Crs
3766 2451 Crs
3817 2411 Crs
3912 2076 Crs
3877 2501 Crs
3878 1785 Crs
4101 2264 Crs
3526 2318 Crs
3429 2195 Crs
3264 2260 Crs
3912 2472 Crs
3257 1204 Crs
3919 2208 Crs
3919 2415 Crs
3767 2445 Crs
3527 2103 Crs
3764 1832 Crs
3329 2264 Crs
3528 2655 Crs
3526 2443 Crs
3526 2436 Crs
3303 2180 Crs
4526 2468 Crs
3506 1957 Crs
3973 2265 Crs
3638 2426 Crs
3768 1996 Crs
3611 2188 Crs
3916 2214 Crs
4044 2327 Crs
3766 2319 Crs
3542 2386 Crs
4336 2171 Crs
3430 2116 Crs
3343 1873 Crs
3976 2468 Crs
3507 2116 Crs
3253 1289 Crs
3264 2022 Crs
3767 1960 Crs
3422 1524 Crs
4103 2062 Crs
3103 2182 Crs
3638 2344 Crs
4254 2610 Crs
3465 2488 Crs
3431 2204 Crs
3526 2161 Crs
3762 1699 Crs
3608 2267 Crs
3338 1557 Crs
2845 1592 Crs
3918 2156 Crs
3767 2216 Crs
3616 2310 Crs
3043 1735 Crs
3528 2062 Crs
3877 1945 Crs
4104 2041 Crs
3762 2635 Crs
3639 2519 Crs
3822 2276 Crs
3764 2280 Crs
3638 2338 Crs
3919 2310 Crs
3581 2200 Crs
3895 2463 Crs
4103 1849 Crs
3876 2475 Crs
3765 2528 Crs
3767 2052 Crs
3146 2114 Crs
4104 2197 Crs
4046 2309 Crs
3264 2104 Crs
3918 2072 Crs
4104 2098 Crs
4098 2430 Crs
3919 2079 Crs
3765 2393 Crs
4031 2394 Crs
3528 2150 Crs
3525 1865 Crs
3610 2396 Crs
4380 2319 Crs
4155 2494 Crs
4103 1946 Crs
3916 2116 Crs
3574 2178 Crs
3510 2009 Crs
3580 2398 Crs
3164 2120 Crs
3431 1965 Crs
3767 2104 Crs
3321 2089 Crs
4103 2523 Crs
3004 1765 Crs
3502 2417 Crs
3646 2097 Crs
3337 2177 Crs
3918 2311 Crs
3759 2190 Crs
3765 2175 Crs
3299 2483 Crs
3761 2477 Crs
3916 1882 Crs
3762 2382 Crs
4104 2195 Crs
4046 2294 Crs
3528 2633 Crs
3638 2450 Crs
3522 2193 Crs
3876 2205 Crs
3864 1929 Crs
3528 2626 Crs
3430 2101 Crs
3766 2270 Crs
4042 2150 Crs
3263 1723 Crs
3529 2214 Crs
3510 2337 Crs
3733 2477 Crs
3878 2375 Crs
3630 1462 Crs
3401 2489 Crs
3528 2575 Crs
3523 2312 Crs
3698 2255 Crs
4382 1994 Crs
3314 1246 Crs
3876 2242 Crs
3969 2288 Crs
3134 2288 Crs
3329 2050 Crs
3640 2500 Crs
2973 1612 Crs
3610 2445 Crs
4101 2370 Crs
3637 2414 Crs
3416 2063 Crs
3919 2020 Crs
3615 1629 Crs
3919 2262 Crs
3190 2108 Crs
3919 2422 Crs
3473 2319 Crs
3527 1957 Crs
4343 2255 Crs
3734 2032 Crs
3177 2262 Crs
4045 2120 Crs
3415 2064 Crs
4343 2290 Crs
3918 2418 Crs
4039 2464 Crs
3918 2418 Crs
3527 2357 Crs
3263 2231 Crs
3822 2306 Crs
4103 2478 Crs
3637 2297 Crs
3635 2166 Crs
3499 2584 Crs
3975 2481 Crs
3193 1356 Crs
3239 1638 Crs
3916 2202 Crs
3183 1897 Crs
3765 2435 Crs
3917 2150 Crs
4255 2254 Crs
3525 2480 Crs
3509 2214 Crs
3616 2613 Crs
3064 1981 Crs
3524 2271 Crs
3639 2239 Crs
3638 2226 Crs
3759 2319 Crs
4102 2453 Crs
3418 1960 Crs
3527 2132 Crs
4045 2190 Crs
3766 2245 Crs
3692 2380 Crs
3062 1965 Crs
3330 2177 Crs
3479 2437 Crs
3918 2197 Crs
3429 2014 Crs
3364 2478 Crs
4524 2252 Crs
3448 2537 Crs
4100 2333 Crs
4664 2499 Crs
3639 1868 Crs
3638 2102 Crs
3416 2145 Crs
3767 2145 Crs
3767 2149 Crs
3264 2452 Crs
3736 2360 Crs
4251 1953 Crs
3541 2295 Crs
3125 2055 Crs
4341 2423 Crs
3431 2473 Crs
3428 2015 Crs
3915 2362 Crs
3766 2444 Crs
3192 2206 Crs
3903 2340 Crs
3537 1947 Crs
3824 2186 Crs
3529 2538 Crs
3170 2361 Crs
3917 2421 Crs
4102 2598 Crs
3874 2222 Crs
3341 2305 Crs
3918 1870 Crs
4046 2220 Crs
3264 2437 Crs
3639 2171 Crs
3615 2127 Crs
3615 2310 Crs
3886 2580 Crs
3823 2472 Crs
3509 2275 Crs
3524 2468 Crs
3336 1923 Crs
3919 2368 Crs
3330 2322 Crs
3892 2390 Crs
4096 1903 Crs
3767 2358 Crs
3527 2319 Crs
3525 2401 Crs
3614 2522 Crs
3342 2234 Crs
3430 1158 Crs
3639 2326 Crs
3876 2198 Crs
3507 2243 Crs
4103 2457 Crs
3651 2426 Crs
3296 1945 Crs
3392 1110 Crs
3917 2397 Crs
2999 2050 Crs
3515 2247 Crs
3528 2239 Crs
3613 2187 Crs
3308 2258 Crs
3768 2533 Crs
3638 2320 Crs
3832 2421 Crs
3767 2492 Crs
3451 2594 Crs
3424 2493 Crs
4342 1603 Crs
4103 2365 Crs
3528 2414 Crs
3767 2059 Crs
3765 2641 Crs
3918 2181 Crs
3529 2343 Crs
3918 2256 Crs
3640 2191 Crs
3616 2201 Crs
4678 2504 Crs
4092 2331 Crs
3262 1597 Crs
4253 2456 Crs
3915 2438 Crs
3878 2192 Crs
3639 2110 Crs
3918 2324 Crs
3581 2142 Crs
3429 2113 Crs
3913 2449 Crs
3264 2235 Crs
3636 2403 Crs
3648 2316 Crs
4341 2323 Crs
3252 2265 Crs
3760 2070 Crs
4340 2334 Crs
3529 2403 Crs
3878 2058 Crs
3420 2066 Crs
3767 2183 Crs
4102 2507 Crs
4103 1910 Crs
3646 2203 Crs
4103 2313 Crs
3098 1978 Crs
3974 1910 Crs
3341 2012 Crs
3615 2322 Crs
3528 2200 Crs
3147 2131 Crs
3918 2303 Crs
3298 2194 Crs
4339 2517 Crs
3523 2251 Crs
4046 2265 Crs
3765 2471 Crs
4526 2192 Crs
3876 2128 Crs
4074 2231 Crs
3125 2233 Crs
3639 1798 Crs
3244 2000 Crs
3516 1997 Crs
3168 1944 Crs
3005 2126 Crs
3768 2536 Crs
3916 2293 Crs
3639 2483 Crs
3525 2067 Crs
3527 2091 Crs
3415 2250 Crs
3636 2226 Crs
4343 2474 Crs
3340 2363 Crs
3615 2224 Crs
3343 1828 Crs
4154 2079 Crs
3522 2078 Crs
3509 2190 Crs
4103 2645 Crs
4255 2179 Crs
3737 2079 Crs
4251 2341 Crs
3754 2236 Crs
3917 2047 Crs
3189 2078 Crs
4254 2526 Crs
3411 2157 Crs
3008 2237 Crs
3615 2105 Crs
3430 2153 Crs
3640 2283 Crs
3740 2519 Crs
3876 2404 Crs
4103 2610 Crs
3064 1985 Crs
3128 2118 Crs
3919 2059 Crs
3683 2184 Crs
3916 2154 Crs
3768 2259 Crs
3918 2142 Crs
3765 1964 Crs
3768 2112 Crs
3767 2304 Crs
3429 1987 Crs
3616 2562 Crs
3918 1883 Crs
3430 2023 Crs
3737 2448 Crs
3295 2262 Crs
4255 2274 Crs
3524 2282 Crs
3497 1914 Crs
3759 2163 Crs
4104 2327 Crs
3736 2403 Crs
4042 2316 Crs
3253 2177 Crs
4103 2136 Crs
3918 2398 Crs
3443 2321 Crs
3084 2249 Crs
3695 2598 Crs
4045 2242 Crs
3431 2146 Crs
3918 2247 Crs
3639 2266 Crs
3583 2320 Crs
3616 2184 Crs
4342 2281 Crs
3259 1978 Crs
4103 2590 Crs
3877 2396 Crs
3975 2112 Crs
3767 1446 Crs
4046 2215 Crs
3766 2093 Crs
4100 2526 Crs
3431 2454 Crs
4157 2380 Crs
3430 2158 Crs
3761 2076 Crs
3184 2267 Crs
3528 2463 Crs
4042 2097 Crs
4100 2309 Crs
3833 1978 Crs
4038 2316 Crs
3432 2369 Crs
3505 2269 Crs
3390 2188 Crs
3909 2023 Crs
3122 2101 Crs
3911 2328 Crs
3917 2345 Crs
3823 1989 Crs
3230 2250 Crs
3482 2319 Crs
3596 2616 Crs
3975 2069 Crs
3765 2109 Crs
3913 1947 Crs
3342 2231 Crs
3766 1749 Crs
3767 2327 Crs
3717 2072 Crs
4045 2046 Crs
3638 2364 Crs
4047 2441 Crs
3526 2094 Crs
3580 2193 Crs
4342 2201 Crs
3509 2257 Crs
3734 2016 Crs
3340 1964 Crs
4155 2410 Crs
3053 2127 Crs
3638 2251 Crs
3430 2516 Crs
4343 1983 Crs
3388 2324 Crs
4043 2437 Crs
3614 2485 Crs
3899 2297 Crs
3387 2188 Crs
3430 2229 Crs
3768 2332 Crs
3736 2394 Crs
3427 2472 Crs
3342 1280 Crs
4033 2381 Crs
3919 2115 Crs
3525 2219 Crs
4320 2110 Crs
3801 1765 Crs
3918 2478 Crs
3919 2147 Crs
3616 2282 Crs
3600 2352 Crs
4103 2370 Crs
4342 2322 Crs
3919 2475 Crs
3613 2530 Crs
3635 2336 Crs
3528 2209 Crs
3505 1902 Crs
3766 2485 Crs
4103 2188 Crs
4101 2202 Crs
3529 2309 Crs
3342 2452 Crs
3950 2530 Crs
4043 2341 Crs
4103 2082 Crs
3972 2214 Crs
3428 2063 Crs
3374 2247 Crs
3639 2291 Crs
3522 2307 Crs
3824 2309 Crs
3064 2091 Crs
3917 2123 Crs
3337 1993 Crs
3737 2223 Crs
4382 2526 Crs
4099 2551 Crs
3695 2227 Crs
3878 2506 Crs
3091 1923 Crs
4338 2328 Crs
3064 1570 Crs
3527 1937 Crs
4099 2280 Crs
3915 2622 Crs
3767 2294 Crs
3972 2609 Crs
3072 1995 Crs
3762 2099 Crs
3429 1833 Crs
3637 2559 Crs
3233 2138 Crs
3919 2222 Crs
3878 2446 Crs
3500 2272 Crs
3913 2172 Crs
4677 2178 Crs
3281 2035 Crs
3762 2574 Crs
4046 2444 Crs
3767 2067 Crs
4100 2304 Crs
3430 2460 Crs
3526 2002 Crs
3765 2288 Crs
4104 2504 Crs
3110 2325 Crs
3975 2336 Crs
3917 1688 Crs
3634 2287 Crs
3183 1868 Crs
3615 2526 Crs
3764 2242 Crs
4337 2489 Crs
3766 2120 Crs
3819 2328 Crs
3975 2197 Crs
3830 2478 Crs
3528 2404 Crs
3626 2179 Crs
3917 2336 Crs
3638 2403 Crs
3767 2251 Crs
3616 2366 Crs
3326 2266 Crs
3733 2243 Crs
3767 2001 Crs
3637 1877 Crs
3912 2113 Crs
3166 2150 Crs
4093 2238 Crs
3918 2358 Crs
3918 2116 Crs
3330 1871 Crs
3865 2145 Crs
3430 2379 Crs
3528 2128 Crs
4102 2438 Crs
3482 2362 Crs
4046 2487 Crs
3508 1954 Crs
3527 1727 Crs
3639 2215 Crs
3916 2304 Crs
3620 2530 Crs
3822 2384 Crs
3767 2073 Crs
3264 1528 Crs
3330 2208 Crs
3733 2173 Crs
4325 2090 Crs
4044 2528 Crs
3917 2259 Crs
3263 2310 Crs
3576 2183 Crs
3645 1875 Crs
3768 2272 Crs
3188 2154 Crs
3876 2333 Crs
3825 2346 Crs
3343 2387 Crs
3431 2131 Crs
3639 2159 Crs
4100 2474 Crs
3543 2396 Crs
3768 2082 Crs
3766 2511 Crs
3444 2490 Crs
3767 2405 Crs
3639 2635 Crs
4341 2254 Crs
3253 1816 Crs
3338 2295 Crs
3914 2333 Crs
3823 2343 Crs
3638 2092 Crs
3914 1979 Crs
3450 2113 Crs
3428 2285 Crs
3262 2420 Crs
4516 2114 Crs
3523 2244 Crs
2761 1876 Crs
3767 2439 Crs
4341 2557 Crs
3918 2187 Crs
3918 2228 Crs
4047 2336 Crs
4103 2004 Crs
4679 2123 Crs
3343 2208 Crs
4342 2112 Crs
3529 2188 Crs
3498 2328 Crs
3425 2088 Crs
3765 2474 Crs
3639 2474 Crs
3638 2259 Crs
3632 2174 Crs
3915 2272 Crs
3918 2345 Crs
3919 2019 Crs
3498 2387 Crs
3919 2493 Crs
3051 2085 Crs
3916 2216 Crs
3344 1695 Crs
3765 2165 Crs
3327 2042 Crs
3528 2337 Crs
3878 2137 Crs
3616 2408 Crs
3877 2406 Crs
3510 2465 Crs
3344 2205 Crs
3413 1786 Crs
3764 2187 Crs
4046 2334 Crs
3918 2459 Crs
4342 2283 Crs
3441 2271 Crs
3970 2617 Crs
3011 2074 Crs
3766 1940 Crs
3766 2118 Crs
3612 1822 Crs
4103 2312 Crs
4103 2260 Crs
4152 2342 Crs
3264 1656 Crs
3569 2354 Crs
4087 2339 Crs
3896 2245 Crs
4102 2164 Crs
3693 2497 Crs
3265 2076 Crs
3918 2236 Crs
3013 2021 Crs
3458 2141 Crs
4342 2303 Crs
3733 2146 Crs
3340 2431 Crs
4081 2141 Crs
3528 1591 Crs
4253 2160 Crs
3637 2255 Crs
3767 1977 Crs
4679 2188 Crs
3192 2169 Crs
4104 1690 Crs
3824 2293 Crs
3637 2047 Crs
3616 2035 Crs
3757 2578 Crs
3124 1893 Crs
3343 2276 Crs
3415 1859 Crs
3357 2099 Crs
3264 1557 Crs
3391 2258 Crs
3343 2269 Crs
3342 2474 Crs
3430 2291 Crs
4342 2235 Crs
3917 1684 Crs
4338 2440 Crs
3342 2476 Crs
4103 2303 Crs
4047 1584 Crs
3763 2181 Crs
3567 2301 Crs
3576 1453 Crs
4493 2544 Crs
3692 2414 Crs
3737 2381 Crs
3697 2261 Crs
3733 2196 Crs
3767 2312 Crs
3526 2418 Crs
3902 2253 Crs
3918 2161 Crs
3068 2149 Crs
3918 2396 Crs
3235 2307 Crs
3516 2013 Crs
3721 2317 Crs
3116 2123 Crs
3639 2233 Crs
3337 2158 Crs
4098 2582 Crs
3767 2250 Crs
3876 2072 Crs
3914 2462 Crs
3765 2192 Crs
3528 2426 Crs
3906 1974 Crs
3822 1864 Crs
3767 2071 Crs
3768 2644 Crs
3767 2423 Crs
4093 2377 Crs
4043 2356 Crs
3480 1848 Crs
3461 1834 Crs
3918 2354 Crs
3764 2057 Crs
3766 2423 Crs
3767 2590 Crs
3613 2122 Crs
3917 1751 Crs
3413 2281 Crs
3767 2524 Crs
3526 2135 Crs
3521 2124 Crs
3062 2004 Crs
3186 1719 Crs
3507 1582 Crs
3918 2341 Crs
3767 1941 Crs
3526 2076 Crs
3737 2186 Crs
3639 2286 Crs
3767 2486 Crs
4252 2059 Crs
3529 1751 Crs
3765 2423 Crs
3915 2295 Crs
3766 2245 Crs
3526 1932 Crs
3615 1939 Crs
3509 2391 Crs
3822 2201 Crs
4104 2301 Crs
4240 2621 Crs
3918 2097 Crs
4102 2515 Crs
3825 1988 Crs
3409 2011 Crs
4238 2334 Crs
3331 1935 Crs
3524 2163 Crs
4103 2239 Crs
3577 1968 Crs
3527 2161 Crs
3521 2511 Crs
3749 2383 Crs
3877 2087 Crs
4045 2195 Crs
4339 2396 Crs
4044 2361 Crs
3426 2123 Crs
3508 2134 Crs
3429 2144 Crs
3638 2471 Crs
2953 1848 Crs
3004 1966 Crs
3762 2578 Crs
3975 2200 Crs
3510 2425 Crs
3639 1836 Crs
3823 2497 Crs
3527 2265 Crs
3918 2244 Crs
3502 2448 Crs
3481 2087 Crs
3430 2348 Crs
3528 2074 Crs
4035 2531 Crs
3767 2312 Crs
3918 2220 Crs
3640 2171 Crs
3767 2243 Crs
3764 1954 Crs
3416 2375 Crs
3055 2257 Crs
3342 2420 Crs
3062 1960 Crs
3638 2314 Crs
4096 2326 Crs
3916 2192 Crs
3877 2180 Crs
3734 2530 Crs
3735 2234 Crs
3125 2086 Crs
3431 1583 Crs
3766 2324 Crs
3460 2088 Crs
3507 1726 Crs
3611 2030 Crs
3527 2341 Crs
3331 2383 Crs
3639 2275 Crs
3639 1271 Crs
3917 2188 Crs
3430 2174 Crs
3402 2288 Crs
3253 2287 Crs
3508 2086 Crs
2709 1555 Crs
3639 2244 Crs
4342 2167 Crs
3462 1986 Crs
3431 2059 Crs
4126 1807 Crs
3639 2338 Crs
3525 2441 Crs
3765 2213 Crs
3180 2045 Crs
3571 2180 Crs
3163 2235 Crs
3430 2005 Crs
3877 2529 Crs
3766 1966 Crs
3266 2392 Crs
3527 2460 Crs
3341 2316 Crs
3264 2017 Crs
3736 2264 Crs
3508 2109 Crs
3695 2198 Crs
3822 2193 Crs
3647 2441 Crs
3639 2135 Crs
3215 2415 Crs
3584 2508 Crs
3766 2394 Crs
3767 1397 Crs
3638 2443 Crs
3909 2352 Crs
3527 2298 Crs
3582 2205 Crs
3831 2482 Crs
4679 2447 Crs
3635 2511 Crs
3692 2382 Crs
4255 2575 Crs
3572 2383 Crs
3895 2157 Crs
3210 2374 Crs
3342 2164 Crs
3236 2164 Crs
3316 2464 Crs
3918 2354 Crs
3634 2481 Crs
4063 1932 Crs
3340 2511 Crs
3412 1579 Crs
3191 1937 Crs
3805 2254 Crs
3767 2422 Crs
3737 2294 Crs
3762 2386 Crs
3917 2295 Crs
3529 2049 Crs
3529 2200 Crs
3516 2187 Crs
3639 2455 Crs
3736 2256 Crs
3337 2211 Crs
3819 2534 Crs
3105 2303 Crs
3429 2045 Crs
3767 2056 Crs
3637 2250 Crs
3877 2263 Crs
3429 2032 Crs
3528 1832 Crs
4045 2487 Crs
3528 2179 Crs
3951 2186 Crs
3767 1913 Crs
3540 2418 Crs
3341 1903 Crs
3737 2412 Crs
3917 2530 Crs
4153 2161 Crs
4104 2324 Crs
3552 2461 Crs
3767 1988 Crs
3197 2220 Crs
3734 2539 Crs
4103 2079 Crs
3338 1781 Crs
3285 2214 Crs
4342 1976 Crs
3735 2375 Crs
3639 1857 Crs
3522 2163 Crs
4094 2234 Crs
3766 2286 Crs
3916 2274 Crs
3877 2314 Crs
4046 2181 Crs
3258 2413 Crs
3919 1949 Crs
3528 2186 Crs
3219 2201 Crs
3875 2319 Crs
3767 2492 Crs
3253 1971 Crs
3695 2331 Crs
3614 2367 Crs
4341 2329 Crs
3215 1977 Crs
3737 2202 Crs
3766 1657 Crs
3526 2171 Crs
3639 2244 Crs
3639 2473 Crs
3638 2205 Crs
3823 2291 Crs
3630 2275 Crs
3262 2414 Crs
3765 1399 Crs
3679 2182 Crs
3511 2006 Crs
4103 2106 Crs
4103 2345 Crs
3506 1539 Crs
3640 2601 Crs
3528 1871 Crs
3337 1714 Crs
4157 2468 Crs
3424 2150 Crs
3719 2426 Crs
3913 2350 Crs
3735 2204 Crs
4342 2381 Crs
3333 2438 Crs
3639 2237 Crs
4255 2159 Crs
4382 2185 Crs
4340 2323 Crs
3338 2315 Crs
3767 2317 Crs
3581 2137 Crs
3638 2499 Crs
3361 2462 Crs
4104 2094 Crs
3916 2130 Crs
3635 2150 Crs
3524 2473 Crs
3875 2342 Crs
3693 2397 Crs
3286 2351 Crs
3764 2165 Crs
4033 2286 Crs
3051 2068 Crs
3005 1914 Crs
3764 2463 Crs
3637 2254 Crs
3502 2475 Crs
3877 2367 Crs
4528 2194 Crs
4473 2309 Crs
3750 2360 Crs
4254 2160 Crs
4678 1993 Crs
3917 2455 Crs
3734 2552 Crs
3519 2337 Crs
4253 2298 Crs
4041 2187 Crs
3639 2302 Crs
3256 2197 Crs
3521 2157 Crs
3329 1930 Crs
3429 2255 Crs
3555 2336 Crs
3876 2483 Crs
3918 2171 Crs
3733 1831 Crs
3917 2217 Crs
3914 2514 Crs
3637 2500 Crs
4103 2256 Crs
3765 2488 Crs
3343 2470 Crs
3767 2443 Crs
3264 1955 Crs
3529 2447 Crs
4342 2283 Crs
3199 2170 Crs
3496 1917 Crs
3877 2750 Crs
3045 2054 Crs
3763 2490 Crs
4200 2308 Crs
3735 1959 Crs
3513 2570 Crs
3637 2338 Crs
3919 2352 Crs
3518 2317 Crs
4342 2647 Crs
3636 2376 Crs
3878 2182 Crs
3974 2324 Crs
3162 2278 Crs
3971 2279 Crs
3606 2497 Crs
3878 2698 Crs
3340 2307 Crs
3734 2078 Crs
3481 2481 Crs
3637 1833 Crs
3538 2268 Crs
3334 2312 Crs
3340 2266 Crs
4039 2451 Crs
3639 2367 Crs
3636 2139 Crs
3766 2133 Crs
3648 2274 Crs
3036 2123 Crs
3331 1581 Crs
4088 2294 Crs
3085 2245 Crs
3529 2177 Crs
3411 2265 Crs
3878 2206 Crs
3767 2471 Crs
3783 2362 Crs
3877 2095 Crs
4253 2641 Crs
3915 2521 Crs
3231 2342 Crs
4254 2507 Crs
4254 2370 Crs
3640 2431 Crs
3767 2145 Crs
3581 2479 Crs
3188 1510 Crs
3764 2331 Crs
4342 2459 Crs
3526 1993 Crs
3431 2438 Crs
3877 2165 Crs
4063 1314 Crs
3596 2144 Crs
3192 1465 Crs
4103 2447 Crs
4251 1757 Crs
3330 2298 Crs
3752 2356 Crs
3766 2150 Crs
3580 2070 Crs
3413 2146 Crs
4254 2023 Crs
3764 1979 Crs
3637 1970 Crs
3917 1980 Crs
3695 2523 Crs
3514 2253 Crs
4100 2616 Crs
3830 2576 Crs
3612 2201 Crs
3629 2203 Crs
3835 2354 Crs
3555 2553 Crs
3228 2090 Crs
4368 2137 Crs
4254 2297 Crs
3628 2545 Crs
3766 2225 Crs
3624 2496 Crs
3424 2282 Crs
3765 2536 Crs
3332 2178 Crs
3736 2400 Crs
3735 2243 Crs
4342 2447 Crs
3256 1868 Crs
3742 1428 Crs
3741 2390 Crs
3429 2346 Crs
3429 1873 Crs
3764 2058 Crs
3916 2109 Crs
3765 2402 Crs
2944 2098 Crs
4047 2174 Crs
4045 2323 Crs
3877 2340 Crs
4045 2285 Crs
3767 2374 Crs
3136 1930 Crs
4101 2124 Crs
3262 2290 Crs
3363 2290 Crs
3427 1552 Crs
3753 2051 Crs
3767 2392 Crs
3114 2170 Crs
3615 2159 Crs
3338 1889 Crs
3529 2194 Crs
3766 2510 Crs
3184 2207 Crs
3526 2101 Crs
3767 2502 Crs
4038 2465 Crs
3527 2263 Crs
3430 2246 Crs
3450 2383 Crs
3878 2288 Crs
4332 2490 Crs
3767 2001 Crs
3638 1895 Crs
3580 2293 Crs
3478 2455 Crs
3878 2427 Crs
3918 2449 Crs
3634 2343 Crs
3527 2452 Crs
3721 2628 Crs
3529 2538 Crs
3918 2693 Crs
3613 2060 Crs
3526 2231 Crs
3637 2080 Crs
3918 2547 Crs
3694 2392 Crs
3261 2133 Crs
4103 2381 Crs
3340 2283 Crs
3260 2297 Crs
4339 2335 Crs
3426 1934 Crs
3919 2623 Crs
3528 2167 Crs
3183 1256 Crs
3640 1861 Crs
3190 2341 Crs
3609 1951 Crs
3694 2341 Crs
3088 2286 Crs
3762 2104 Crs
3523 1769 Crs
3736 2215 Crs
3527 2238 Crs
3527 2171 Crs
3122 2303 Crs
4337 2262 Crs
3116 2176 Crs
3735 2172 Crs
3644 2433 Crs
4342 2425 Crs
3767 1885 Crs
3421 2562 Crs
3615 2472 Crs
4103 2386 Crs
3430 2368 Crs
4042 2443 Crs
3428 2453 Crs
4099 2341 Crs
3767 2278 Crs
3525 2194 Crs
3638 2038 Crs
3866 2401 Crs
3541 2510 Crs
4102 2120 Crs
3614 2044 Crs
4340 2444 Crs
3182 1996 Crs
3825 2223 Crs
2878 2133 Crs
3638 2234 Crs
3524 2106 Crs
4045 2248 Crs
3639 2094 Crs
3919 2464 Crs
3517 2078 Crs
3187 2209 Crs
4046 2402 Crs
4103 2404 Crs
3810 2379 Crs
3764 2528 Crs
3917 2109 Crs
3754 2153 Crs
4044 2180 Crs
3392 1839 Crs
3764 1299 Crs
3694 2487 Crs
3372 2195 Crs
3917 2414 Crs
3918 2557 Crs
3640 2143 Crs
3622 2371 Crs
3638 2490 Crs
3615 2180 Crs
3758 2301 Crs
3767 2395 Crs
3329 2100 Crs
3527 2259 Crs
3529 2415 Crs
3343 2342 Crs
3759 2525 Crs
3328 2144 Crs
3509 2270 Crs
3736 2331 Crs
3902 2148 Crs
3766 2715 Crs
3918 2408 Crs
3895 2122 Crs
3633 2265 Crs
3692 2334 Crs
3765 2492 Crs
4155 2521 Crs
3919 2495 Crs
3462 2190 Crs
3428 2106 Crs
3767 1550 Crs
3822 2297 Crs
3736 2468 Crs
3479 2610 Crs
3918 2451 Crs
3765 2330 Crs
4046 2415 Crs
3423 2292 Crs
3639 2340 Crs
3878 2562 Crs
3737 2523 Crs
4042 2046 Crs
3647 2556 Crs
3638 1691 Crs
3875 2453 Crs
3761 2321 Crs
3344 2257 Crs
3917 2116 Crs
3301 2304 Crs
3767 2466 Crs
3190 2342 Crs
3767 2524 Crs
3369 2259 Crs
3062 2249 Crs
4523 2572 Crs
3638 1680 Crs
3843 2275 Crs
3909 2123 Crs
3431 2409 Crs
3616 2230 Crs
3913 1875 Crs
3919 2278 Crs
3919 1829 Crs
3528 2033 Crs
3834 2457 Crs
3508 2436 Crs
3525 2329 Crs
4102 2207 Crs
3251 2154 Crs
3639 1693 Crs
3525 2534 Crs
3872 1941 Crs
3915 2303 Crs
3822 2277 Crs
3917 2411 Crs
4102 2347 Crs
3510 2223 Crs
3917 2280 Crs
4173 2336 Crs
3918 2425 Crs
4104 2253 Crs
4382 2369 Crs
3528 2547 Crs
3638 2380 Crs
3616 2263 Crs
3872 1853 Crs
3767 2094 Crs
4103 2424 Crs
4101 2203 Crs
3760 2118 Crs
3634 2317 Crs
3877 1894 Crs
3106 2223 Crs
3752 1979 Crs
3416 1634 Crs
4342 2319 Crs
4098 2388 Crs
4252 1867 Crs
3646 2066 Crs
4046 2007 Crs
3613 2237 Crs
3756 2557 Crs
3343 2140 Crs
3915 1995 Crs
3692 2597 Crs
3262 1613 Crs
3816 2578 Crs
4102 2491 Crs
3522 2054 Crs
3432 2290 Crs
4102 1725 Crs
4342 2377 Crs
3329 2221 Crs
3527 2345 Crs
4255 2033 Crs
3734 2250 Crs
3641 2492 Crs
3640 2331 Crs
3338 1789 Crs
4095 2483 Crs
3381 2044 Crs
3430 2429 Crs
3431 2174 Crs
3640 2195 Crs
3343 2057 Crs
3637 2169 Crs
4102 2303 Crs
3766 2628 Crs
3767 1966 Crs
3917 2415 Crs
3263 2049 Crs
3639 2244 Crs
3327 1602 Crs
3764 2169 Crs
3526 2237 Crs
3057 2297 Crs
3115 2188 Crs
3445 2368 Crs
3334 2376 Crs
4103 2286 Crs
3266 2143 Crs
3917 2298 Crs
3768 2017 Crs
3761 2276 Crs
3762 2008 Crs
3767 2098 Crs
3919 2467 Crs
3767 2492 Crs
3183 2293 Crs
3430 1709 Crs
3264 1538 Crs
3648 2299 Crs
3608 2281 Crs
3758 1586 Crs
4338 2332 Crs
3637 2322 Crs
3918 2339 Crs
3600 2385 Crs
3735 2389 Crs
3262 1648 Crs
3639 2001 Crs
3869 2587 Crs
3262 2224 Crs
3919 2343 Crs
4100 2144 Crs
4342 2268 Crs
4083 1700 Crs
3528 2371 Crs
2936 1817 Crs
3393 2418 Crs
3597 2040 Crs
3579 2251 Crs
3258 2215 Crs
3526 2061 Crs
3638 1940 Crs
3919 2200 Crs
4254 2253 Crs
4102 1968 Crs
4525 2081 Crs
3761 2052 Crs
3037 2213 Crs
4103 2499 Crs
3918 2172 Crs
3819 2259 Crs
3253 2352 Crs
3764 2546 Crs
3182 2089 Crs
3449 2115 Crs
3502 2109 Crs
3914 2206 Crs
3763 2432 Crs
3340 2446 Crs
3264 2044 Crs
3638 2087 Crs
4679 2223 Crs
3638 2112 Crs
3527 2525 Crs
3513 2308 Crs
3339 2206 Crs
3527 2008 Crs
3638 2244 Crs
3763 2117 Crs
3604 2294 Crs
3579 2150 Crs
3528 2119 Crs
3878 2427 Crs
3757 1982 Crs
3766 2571 Crs
3640 2229 Crs
4255 2323 Crs
3190 2148 Crs
3515 2332 Crs
3190 2334 Crs
4103 1863 Crs
3527 2038 Crs
3918 2051 Crs
3343 2057 Crs
3306 2111 Crs
3508 2125 Crs
3341 2337 Crs
3612 2527 Crs
4042 2397 Crs
3428 2310 Crs
3520 2253 Crs
4102 2348 Crs
3693 2500 Crs
3766 2425 Crs
3636 1636 Crs
3918 1717 Crs
3525 2036 Crs
4100 2200 Crs
4342 1764 Crs
3478 2373 Crs
3426 2187 Crs
3582 2354 Crs
3767 2119 Crs
3638 1705 Crs
3126 2184 Crs
3735 2479 Crs
3875 2253 Crs
4155 2514 Crs
3482 1772 Crs
3639 2471 Crs
3428 2316 Crs
3343 2429 Crs
4526 2278 Crs
4343 2189 Crs
4380 2229 Crs
3640 2066 Crs
3572 2380 Crs
3260 2133 Crs
3529 2343 Crs
3952 2515 Crs
3730 1888 Crs
3582 2225 Crs
4253 2314 Crs
3637 2557 Crs
3520 2461 Crs
3230 2126 Crs
3426 2345 Crs
3874 2135 Crs
4095 2426 Crs
3509 2578 Crs
3478 2607 Crs
3869 2258 Crs
4000 2443 Crs
4062 2402 Crs
4104 2206 Crs
3767 2110 Crs
4675 2282 Crs
3737 1950 Crs
3824 2297 Crs
4104 2037 Crs
3528 2332 Crs
3526 2226 Crs
3918 2401 Crs
3135 2250 Crs
3414 2176 Crs
3606 1644 Crs
3506 2464 Crs
3520 1862 Crs
3343 2321 Crs
4103 2338 Crs
3917 2585 Crs
3918 2178 Crs
3250 2232 Crs
3763 2232 Crs
4103 2341 Crs
3416 2051 Crs
3735 2384 Crs
4254 2232 Crs
3341 2503 Crs
3918 2409 Crs
3636 2150 Crs
3639 2196 Crs
4254 2387 Crs
3695 1896 Crs
3646 2072 Crs
3509 2031 Crs
4254 2243 Crs
3523 2377 Crs
3528 1695 Crs
3640 1915 Crs
3381 2193 Crs
3431 1857 Crs
3638 2713 Crs
3767 2106 Crs
3917 2607 Crs
3100 1985 Crs
3269 1849 Crs
4679 2503 Crs
3767 2023 Crs
3764 2374 Crs
3736 2253 Crs
3429 2063 Crs
3525 2235 Crs
4091 2578 Crs
4156 1951 Crs
4046 2108 Crs
3527 2167 Crs
3324 2315 Crs
3723 2446 Crs
3341 1663 Crs
3637 2095 Crs
3505 1913 Crs
3578 2108 Crs
3337 2097 Crs
3639 2501 Crs
3824 2352 Crs
3055 2016 Crs
3760 2316 Crs
4104 2250 Crs
4253 2728 Crs
3635 2480 Crs
3639 1896 Crs
3410 1885 Crs
3640 2060 Crs
3338 1538 Crs
3623 2141 Crs
4045 2340 Crs
3640 1781 Crs
3431 2385 Crs
3109 2055 Crs
3470 2018 Crs
4342 2382 Crs
4098 2343 Crs
3918 2426 Crs
4103 2152 Crs
3877 2198 Crs
3919 2210 Crs
3919 2350 Crs
3527 1964 Crs
3264 2355 Crs
3902 1914 Crs
3765 2123 Crs
4342 1668 Crs
3765 2599 Crs
3513 2495 Crs
3732 2515 Crs
3636 1651 Crs
3535 2499 Crs
3528 2355 Crs
3918 2392 Crs
3493 2234 Crs
3737 1443 Crs
3233 2110 Crs
3343 2162 Crs
3529 2480 Crs
4101 2212 Crs
3187 2074 Crs
4104 2194 Crs
3640 2312 Crs
4152 2433 Crs
3328 2060 Crs
3767 2354 Crs
4342 2512 Crs
3736 2469 Crs
3918 2413 Crs
3767 2188 Crs
4044 2730 Crs
4678 2182 Crs
3640 2328 Crs
3528 2459 Crs
3252 2375 Crs
3527 2236 Crs
3528 2374 Crs
3429 2408 Crs
3767 1947 Crs
3919 2144 Crs
3412 2445 Crs
3525 2218 Crs
3638 1585 Crs
3766 2334 Crs
3638 1984 Crs
4046 2283 Crs
3529 2415 Crs
3918 2384 Crs
4341 1902 Crs
3918 2190 Crs
4102 2289 Crs
3418 1919 Crs
3689 2222 Crs
3971 2446 Crs
3040 2117 Crs
3515 2384 Crs
3524 1545 Crs
3973 2344 Crs
3637 2433 Crs
3185 2047 Crs
3444 2581 Crs
3971 2131 Crs
3824 2555 Crs
3521 2366 Crs
3427 1860 Crs
3767 2667 Crs
3046 2213 Crs
3832 2738 Crs
3249 2321 Crs
3767 2086 Crs
3821 2607 Crs
3299 2169 Crs
4253 2337 Crs
3767 2503 Crs
3919 2289 Crs
3912 2284 Crs
3528 2170 Crs
3523 2196 Crs
3343 2258 Crs
3526 1901 Crs
3872 2248 Crs
3751 2004 Crs
4341 2552 Crs
3259 986 Crs
3767 2455 Crs
3226 2297 Crs
3767 2092 Crs
4326 2443 Crs
3510 2353 Crs
3643 2391 Crs
3638 2064 Crs
3316 2352 Crs
3630 2422 Crs
3765 2364 Crs
3760 2440 Crs
2957 2173 Crs
3919 2192 Crs
3475 1922 Crs
3528 1298 Crs
3878 2466 Crs
3247 2254 Crs
3764 2049 Crs
3916 2059 Crs
3340 1904 Crs
3426 2300 Crs
3616 2290 Crs
3832 2114 Crs
3660 2446 Crs
3340 1719 Crs
3343 2458 Crs
3910 2133 Crs
3615 1784 Crs
3876 2349 Crs
3916 2063 Crs
3917 2498 Crs
3639 2161 Crs
3822 2443 Crs
3428 2276 Crs
3520 1774 Crs
3918 2210 Crs
3529 2203 Crs
3431 2006 Crs
3918 2171 Crs
3528 2149 Crs
3192 2100 Crs
4054 2427 Crs
4043 2000 Crs
3311 2345 Crs
3733 2480 Crs
3615 1982 Crs
3639 2488 Crs
3918 2401 Crs
3183 2332 Crs
3063 1232 Crs
3912 2366 Crs
3611 2554 Crs
3521 2282 Crs
3265 2134 Crs
2802 2046 Crs
3615 2528 Crs
3343 2317 Crs
4045 2416 Crs
3767 1883 Crs
3519 2171 Crs
3510 2340 Crs
3528 2133 Crs
3825 2212 Crs
3529 2300 Crs
3766 2147 Crs
4336 2500 Crs
3767 2357 Crs
3919 2434 Crs
3439 2020 Crs
3734 2472 Crs
3767 2474 Crs
3765 2380 Crs
3320 2220 Crs
3125 2225 Crs
4342 2521 Crs
3638 1535 Crs
3633 2575 Crs
3424 2301 Crs
3496 2497 Crs
3508 2063 Crs
3756 2217 Crs
3430 2450 Crs
3874 2405 Crs
3525 2228 Crs
4340 2239 Crs
3080 1918 Crs
4103 2309 Crs
3327 2478 Crs
3344 2424 Crs
3342 2383 Crs
3638 2150 Crs
3768 2145 Crs
4679 2319 Crs
3325 2218 Crs
3831 2054 Crs
3759 2080 Crs
3525 2052 Crs
3761 2371 Crs
3264 2291 Crs
3191 2391 Crs
3627 2153 Crs
3166 1998 Crs
3868 2577 Crs
3876 2554 Crs
3505 2123 Crs
3918 2207 Crs
4255 2099 Crs
3637 2310 Crs
4103 2029 Crs
3529 2130 Crs
3593 2042 Crs
3528 2069 Crs
4062 2364 Crs
3767 2458 Crs
3824 2299 Crs
3329 1841 Crs
3873 2359 Crs
3639 2242 Crs
3695 2222 Crs
4101 2154 Crs
3529 2654 Crs
3917 1970 Crs
3911 2493 Crs
4102 2589 Crs
3917 2200 Crs
4099 2303 Crs
3173 2212 Crs
3344 2401 Crs
3918 2541 Crs
3633 2333 Crs
3765 2161 Crs
3638 2376 Crs
4342 2477 Crs
3186 1728 Crs
3695 2574 Crs
3877 2488 Crs
3430 2195 Crs
3528 2013 Crs
3637 2462 Crs
3767 2256 Crs
3193 2065 Crs
3733 2288 Crs
3765 2000 Crs
4103 2224 Crs
3192 2300 Crs
3874 2458 Crs
3418 2466 Crs
3478 2223 Crs
4099 2361 Crs
3430 2488 Crs
3528 2143 Crs
3963 1443 Crs
4342 2413 Crs
3425 2097 Crs
3593 2213 Crs
3632 2284 Crs
3917 2055 Crs
3478 2012 Crs
3874 2089 Crs
3767 2046 Crs
3508 1817 Crs
3736 2294 Crs
3378 1922 Crs
4341 2110 Crs
3181 2263 Crs
3638 2191 Crs
4527 2211 Crs
3527 1892 Crs
3766 2369 Crs
4104 2057 Crs
3768 2243 Crs
3406 2422 Crs
3767 2129 Crs
3431 2260 Crs
3638 2283 Crs
3429 1828 Crs
3767 2409 Crs
3615 2104 Crs
3767 1846 Crs
3895 2407 Crs
3606 2601 Crs
3628 1865 Crs
4342 2358 Crs
3694 1936 Crs
2783 1815 Crs
3649 2473 Crs
3607 2414 Crs
3430 2145 Crs
4043 1602 Crs
3414 2452 Crs
3640 2522 Crs
3595 2410 Crs
3638 2313 Crs
3878 2031 Crs
3919 2218 Crs
4104 2252 Crs
3765 2207 Crs
3764 2407 Crs
3261 2105 Crs
3691 2011 Crs
3919 2178 Crs
3916 2362 Crs
3510 2261 Crs
3328 2302 Crs
3639 2044 Crs
3639 2047 Crs
3264 2005 Crs
3974 2506 Crs
3679 1539 Crs
4342 2156 Crs
4103 1908 Crs
3919 2541 Crs
3767 2210 Crs
3766 2197 Crs
3972 2447 Crs
3407 2195 Crs
3392 2409 Crs
3528 2510 Crs
3651 2354 Crs
3766 2066 Crs
4047 2315 Crs
4103 1914 Crs
3424 2188 Crs
3318 2228 Crs
3344 1979 Crs
4104 2377 Crs
3527 2464 Crs
3127 2211 Crs
3767 2081 Crs
3580 2325 Crs
3635 2156 Crs
3976 2239 Crs
3408 2368 Crs
3898 2346 Crs
3231 2036 Crs
3233 2404 Crs
3177 2219 Crs
3766 2523 Crs
3917 2220 Crs
3228 1969 Crs
3635 2304 Crs
3767 2192 Crs
3190 2298 Crs
3918 2213 Crs
4676 2331 Crs
3600 2206 Crs
3030 2127 Crs
3833 1882 Crs
3768 2630 Crs
3683 2623 Crs
4254 2342 Crs
4046 2362 Crs
3426 2171 Crs
3758 2155 Crs
3694 2336 Crs
3877 2462 Crs
3605 2347 Crs
3917 2460 Crs
3767 2425 Crs
3510 2226 Crs
4102 2633 Crs
3918 2314 Crs
3308 2374 Crs
4255 1994 Crs
3636 2378 Crs
3765 2259 Crs
3481 1988 Crs
3639 2158 Crs
3912 2336 Crs
4340 2225 Crs
3636 2467 Crs
3916 2539 Crs
3615 2284 Crs
3918 2607 Crs
3762 2097 Crs
4341 2522 Crs
3616 2298 Crs
4255 2308 Crs
2956 1932 Crs
4342 2138 Crs
3918 1848 Crs
3615 2473 Crs
3767 2055 Crs
3683 2420 Crs
3089 1986 Crs
3344 2213 Crs
3191 2271 Crs
4154 1408 Crs
3480 2153 Crs
4677 2207 Crs
3919 2522 Crs
3637 2158 Crs
3974 2354 Crs
3431 2317 Crs
4329 2321 Crs
4524 2452 Crs
3639 1966 Crs
3613 2577 Crs
3695 2514 Crs
3767 1982 Crs
3765 1443 Crs
3658 2628 Crs
3765 2166 Crs
3161 2250 Crs
3527 2135 Crs
3342 2473 Crs
3873 2603 Crs
3431 1856 Crs
3529 2112 Crs
3616 2331 Crs
3765 2514 Crs
3768 2745 Crs
3432 1929 Crs
3767 2422 Crs
4679 2170 Crs
3916 2227 Crs
3539 2402 Crs
3342 2269 Crs
3392 1614 Crs
3254 2216 Crs
4045 2427 Crs
3639 2256 Crs
3341 1712 Crs
4155 2558 Crs
3632 1316 Crs
3617 2251 Crs
3527 2067 Crs
3764 2611 Crs
3824 2352 Crs
3768 2480 Crs
3480 2155 Crs
3639 2045 Crs
3528 1317 Crs
4679 2033 Crs
3867 2300 Crs
3917 2450 Crs
3581 2232 Crs
3759 2252 Crs
4037 2572 Crs
3918 2472 Crs
3297 2272 Crs
4103 2540 Crs
3917 2029 Crs
4101 2246 Crs
3819 2284 Crs
3737 2619 Crs
3638 2469 Crs
3915 2234 Crs
3974 2016 Crs
3529 2080 Crs
4342 2395 Crs
3582 2563 Crs
3763 2548 Crs
3343 2425 Crs
3757 2240 Crs
3190 2330 Crs
3384 2234 Crs
3043 2226 Crs
3287 2137 Crs
3877 2262 Crs
4103 2298 Crs
3430 2241 Crs
3737 2158 Crs
3062 1804 Crs
3481 2252 Crs
3578 2369 Crs
3425 1910 Crs
3766 1720 Crs
3099 2157 Crs
3737 2436 Crs
3768 2375 Crs
4101 2359 Crs
3519 2533 Crs
3581 2405 Crs
3498 2405 Crs
3529 1864 Crs
3342 2388 Crs
3918 2479 Crs
3429 2269 Crs
3415 2331 Crs
3636 2051 Crs
3639 2086 Crs
3527 2254 Crs
3426 2015 Crs
3257 2421 Crs
3123 2335 Crs
3342 2258 Crs
3640 2253 Crs
3480 2192 Crs
3282 2096 Crs
3842 1971 Crs
3431 2271 Crs
3639 2182 Crs
3344 2355 Crs
3415 2345 Crs
3528 2484 Crs
3341 2138 Crs
3918 2421 Crs
4677 2346 Crs
3339 1395 Crs
4076 2152 Crs
3915 2215 Crs
4341 2514 Crs
3735 2318 Crs
3528 2290 Crs
3918 2426 Crs
3910 2372 Crs
3612 2002 Crs
2813 2089 Crs
4098 2406 Crs
3537 2477 Crs
4157 2422 Crs
3767 2095 Crs
3430 1939 Crs
3577 2536 Crs
4030 2585 Crs
3341 2351 Crs
3502 2236 Crs
3479 2274 Crs
3691 2247 Crs
3765 1543 Crs
3571 2112 Crs
3737 2473 Crs
3765 2264 Crs
3381 2157 Crs
4099 2009 Crs
4377 1903 Crs
4104 2111 Crs
3261 2125 Crs
3431 1994 Crs
3426 2405 Crs
4094 2529 Crs
3526 1914 Crs
3763 2247 Crs
3918 2611 Crs
4044 2004 Crs
3505 2236 Crs
3259 2392 Crs
4253 2077 Crs
3526 1975 Crs
3343 2206 Crs
3426 2418 Crs
3355 1957 Crs
4104 2496 Crs
3918 2075 Crs
3522 2302 Crs
3525 2186 Crs
3917 2735 Crs
4340 2374 Crs
3529 1912 Crs
3528 1999 Crs
3766 2384 Crs
4045 2485 Crs
3126 1936 Crs
4103 2704 Crs
3616 2437 Crs
3431 1779 Crs
3877 2166 Crs
3916 2116 Crs
4528 2379 Crs
3766 2240 Crs
3639 2025 Crs
4101 1756 Crs
3974 2436 Crs
4046 2576 Crs
3689 2390 Crs
3918 2389 Crs
4100 2513 Crs
3766 2020 Crs
3446 2034 Crs
4103 2211 Crs
3344 1819 Crs
3900 2205 Crs
3342 2252 Crs
3731 2361 Crs
3418 2569 Crs
3115 2119 Crs
3249 2377 Crs
3766 2233 Crs
3735 2333 Crs
3343 2287 Crs
4157 2533 Crs
3265 1634 Crs
3904 2336 Crs
3406 2232 Crs
3647 2260 Crs
3081 2136 Crs
3429 2207 Crs
4101 2126 Crs
3613 2279 Crs
3343 2256 Crs
4041 2256 Crs
3262 2196 Crs
3529 2489 Crs
3528 2210 Crs
3636 1909 Crs
3181 2366 Crs
3767 2564 Crs
3639 1898 Crs
4154 2195 Crs
3405 2430 Crs
3265 2440 Crs
3735 2406 Crs
3974 2394 Crs
3427 2291 Crs
3430 2450 Crs
4157 2357 Crs
3389 2265 Crs
3969 2212 Crs
3415 2229 Crs
3760 2386 Crs
3919 2276 Crs
3639 2133 Crs
3764 1448 Crs
3339 1055 Crs
3631 1970 Crs
3694 2309 Crs
3610 2468 Crs
3339 2290 Crs
3766 2504 Crs
3153 2078 Crs
3631 2075 Crs
3264 2418 Crs
3531 2414 Crs
3125 2344 Crs
4340 2385 Crs
4100 2441 Crs
3482 2169 Crs
3919 2494 Crs
3431 2380 Crs
3765 2591 Crs
3158 2048 Crs
3917 2526 Crs
3876 2213 Crs
3263 2412 Crs
3693 2191 Crs
3638 2145 Crs
3482 2252 Crs
3423 2149 Crs
3737 2326 Crs
4102 2075 Crs
3285 1970 Crs
4043 2095 Crs
3525 1665 Crs
3421 2401 Crs
3528 2178 Crs
3026 2213 Crs
3766 2134 Crs
3174 2297 Crs
3637 2050 Crs
3635 2189 Crs
3765 1717 Crs
3611 2139 Crs
3489 2278 Crs
3312 2025 Crs
4046 2539 Crs
3614 2144 Crs
3692 2061 Crs
3291 2022 Crs
3413 2204 Crs
3766 1728 Crs
3640 2292 Crs
4114 2011 Crs
3378 2517 Crs
4104 2296 Crs
3300 2383 Crs
4099 2142 Crs
3528 2477 Crs
3432 2188 Crs
3766 2108 Crs
3635 2043 Crs
2901 2124 Crs
3479 2158 Crs
3002 1933 Crs
4148 2253 Crs
3918 2439 Crs
3638 1952 Crs
3519 2340 Crs
3528 2247 Crs
3426 2229 Crs
3446 2041 Crs
3263 2432 Crs
3408 2424 Crs
3640 2282 Crs
3876 2426 Crs
3916 2157 Crs
3422 2258 Crs
3640 2030 Crs
3768 1951 Crs
3415 2410 Crs
3340 2039 Crs
3431 2077 Crs
3767 1634 Crs
3525 2107 Crs
3918 2493 Crs
3762 2206 Crs
3820 1792 Crs
3976 2139 Crs
4156 2044 Crs
3193 1564 Crs
3429 2113 Crs
3905 2390 Crs
3431 2215 Crs
3415 2258 Crs
3767 2436 Crs
3639 2371 Crs
3645 2335 Crs
3430 1749 Crs
3681 2393 Crs
3918 2331 Crs
3764 2044 Crs
4104 2573 Crs
3428 2214 Crs
3766 2024 Crs
4046 2324 Crs
3084 2089 Crs
3189 2035 Crs
4103 2038 Crs
3917 2436 Crs
3916 1747 Crs
3765 2267 Crs
4047 2399 Crs
3766 2355 Crs
3518 2237 Crs
4099 2219 Crs
3613 1967 Crs
4102 2425 Crs
3106 2142 Crs
3431 2361 Crs
3578 2438 Crs
3767 1783 Crs
4104 2486 Crs
3263 1956 Crs
3634 2186 Crs
4103 2378 Crs
4221 2350 Crs
3634 2361 Crs
3764 2350 Crs
4253 2525 Crs
3919 2292 Crs
3527 2251 Crs
3528 1740 Crs
3639 2426 Crs
3431 2364 Crs
3528 2266 Crs
3163 2271 Crs
3639 1802 Crs
3767 2427 Crs
3918 2263 Crs
3291 2226 Crs
3481 1988 Crs
3428 2356 Crs
4340 2077 Crs
3451 2455 Crs
3916 2398 Crs
3528 2642 Crs
3876 2084 Crs
3767 2051 Crs
4098 2210 Crs
4046 2322 Crs
3694 2068 Crs
4341 2201 Crs
3237 2373 Crs
3639 2257 Crs
3919 2259 Crs
3638 2341 Crs
3520 2438 Crs
3857 2368 Crs
3615 2155 Crs
3768 2490 Crs
3528 2187 Crs
3417 2370 Crs
3478 2184 Crs
3191 1742 Crs
3616 2459 Crs
3171 2211 Crs
3974 2299 Crs
3710 2276 Crs
3118 1034 Crs
2799 1044 Crs
3041 1913 Crs
3250 2368 Crs
3615 2317 Crs
3502 1859 Crs
3342 2344 Crs
3767 1637 Crs
3767 2325 Crs
3767 2390 Crs
3516 1472 Crs
3709 1889 Crs
4103 1885 Crs
3823 2236 Crs
2951 2048 Crs
3528 2207 Crs
3764 1828 Crs
3639 2240 Crs
3580 2503 Crs
3635 2189 Crs
3344 2422 Crs
3430 2339 Crs
4343 2214 Crs
3340 1940 Crs
3766 2091 Crs
3528 2047 Crs
3969 2183 Crs
3756 1949 Crs
3765 2416 Crs
3637 2529 Crs
3262 2249 Crs
3578 1772 Crs
4046 2168 Crs
3736 2241 Crs
3125 2246 Crs
3903 2308 Crs
3637 2593 Crs
3736 2205 Crs
3615 2305 Crs
3253 2334 Crs
3342 1900 Crs
4527 2493 Crs
4088 2168 Crs
3528 2132 Crs
3188 1953 Crs
3916 2202 Crs
3635 2052 Crs
3524 2436 Crs
3344 2160 Crs
3766 2324 Crs
4255 1407 Crs
3526 2279 Crs
3527 2076 Crs
3633 2230 Crs
4157 2440 Crs
3394 1891 Crs
4154 2297 Crs
3342 1753 Crs
3761 2489 Crs
3322 2032 Crs
3425 2317 Crs
4101 2358 Crs
4678 1845 Crs
3403 1946 Crs
3917 2136 Crs
3528 1843 Crs
3527 2289 Crs
3526 2155 Crs
3596 2266 Crs
3737 2312 Crs
4047 1945 Crs
3824 2157 Crs
3767 2440 Crs
3273 2291 Crs
4678 2383 Crs
3918 2314 Crs
4041 2534 Crs
3917 2368 Crs
3344 2308 Crs
3342 2243 Crs
3975 2438 Crs
2928 2136 Crs
4096 2222 Crs
3746 2030 Crs
3163 2191 Crs
4045 1943 Crs
3507 2395 Crs
4254 2367 Crs
3430 2556 Crs
3080 1970 Crs
4043 1924 Crs
3766 2555 Crs
3637 2591 Crs
3640 1701 Crs
3767 2493 Crs
3918 2102 Crs
4063 1875 Crs
4382 2241 Crs
4338 2533 Crs
3865 2147 Crs
3044 2215 Crs
4100 2412 Crs
3735 1802 Crs
3766 2288 Crs
4251 2291 Crs
4679 2398 Crs
3394 2312 Crs
4103 2310 Crs
2982 1734 Crs
4679 2405 Crs
3639 2516 Crs
3916 2425 Crs
4102 2356 Crs
3763 2346 Crs
3640 2229 Crs
3917 1870 Crs
3910 2477 Crs
3735 1301 Crs
3638 2191 Crs
3060 1702 Crs
3010 2104 Crs
3431 2501 Crs
3734 2155 Crs
4104 2429 Crs
4253 2241 Crs
3340 2363 Crs
3636 2124 Crs
3871 2658 Crs
3425 2431 Crs
3919 2604 Crs
4679 2383 Crs
3640 2196 Crs
4254 2289 Crs
3521 1913 Crs
4156 2784 Crs
3615 2630 Crs
3732 2505 Crs
3639 2144 Crs
3639 2084 Crs
3579 2404 Crs
3767 2470 Crs
3340 2328 Crs
3631 2221 Crs
3430 2064 Crs
3309 2279 Crs
3735 2284 Crs
3310 2252 Crs
3340 2237 Crs
3856 2373 Crs
3736 1844 Crs
3908 2408 Crs
3175 2293 Crs
3918 2568 Crs
3263 2308 Crs
3766 2315 Crs
4338 2355 Crs
3477 2087 Crs
3529 2428 Crs
3525 2261 Crs
3917 2565 Crs
3327 2352 Crs
3760 2466 Crs
4046 2267 Crs
3918 2198 Crs
3918 2118 Crs
4104 2184 Crs
3527 1986 Crs
3613 2437 Crs
3425 1379 Crs
3918 2447 Crs
3392 1947 Crs
3964 1687 Crs
3312 1953 Crs
4138 2375 Crs
3064 2016 Crs
4342 2529 Crs
3520 1532 Crs
3639 2238 Crs
4339 2542 Crs
3431 2024 Crs
3141 2202 Crs
3252 2369 Crs
4103 2375 Crs
4096 2297 Crs
3901 2208 Crs
3916 2282 Crs
4342 2420 Crs
3506 1973 Crs
3430 2189 Crs
4102 2519 Crs
3350 2123 Crs
3640 1655 Crs
3766 2334 Crs
3263 2330 Crs
3767 2124 Crs
4064 2273 Crs
4342 2320 Crs
3918 2404 Crs
3767 2417 Crs
3717 2327 Crs
3824 2029 Crs
3310 2399 Crs
3615 2262 Crs
3163 2136 Crs
4100 2124 Crs
4382 2047 Crs
4325 2327 Crs
3637 2290 Crs
3257 2348 Crs
3764 2362 Crs
3614 1987 Crs
3768 2461 Crs
3529 2311 Crs
3913 1678 Crs
3250 1967 Crs
3264 1811 Crs
3528 2131 Crs
3443 2126 Crs
3634 2206 Crs
3179 2187 Crs
4097 2399 Crs
4250 2278 Crs
3726 2347 Crs
3526 1932 Crs
3638 2055 Crs
3421 2114 Crs
3824 2546 Crs
4254 2476 Crs
4335 2158 Crs
3917 2154 Crs
3527 2090 Crs
3916 2176 Crs
3308 2308 Crs
4342 2265 Crs
3264 1613 Crs
4676 2352 Crs
3527 2329 Crs
3310 2229 Crs
3637 2469 Crs
3343 2445 Crs
3416 2385 Crs
3899 2181 Crs
3096 1983 Crs
3636 2037 Crs
3262 2251 Crs
4045 2218 Crs
3639 2217 Crs
4103 2251 Crs
3412 2343 Crs
3507 2372 Crs
3528 2332 Crs
4501 2442 Crs
3762 2296 Crs
3528 2312 Crs
3509 2268 Crs
3423 2361 Crs
3343 1986 Crs
3639 2378 Crs
3526 2109 Crs
3528 1821 Crs
3704 2248 Crs
3341 2062 Crs
4103 2373 Crs
4678 2420 Crs
3639 2192 Crs
3917 2311 Crs
4044 2428 Crs
4046 2373 Crs
3916 2254 Crs
3731 2310 Crs
4342 2102 Crs
3308 2088 Crs
3599 2507 Crs
3736 2344 Crs
3693 2270 Crs
4104 1783 Crs
3497 2564 Crs
3918 2381 Crs
3919 2092 Crs
4251 2195 Crs
3528 2303 Crs
3758 2075 Crs
3694 2272 Crs
4104 2447 Crs
3639 2502 Crs
3764 2273 Crs
3823 2404 Crs
3766 1946 Crs
3251 2141 Crs
3767 2503 Crs
3416 1909 Crs
3059 2087 Crs
4341 2338 Crs
4103 2415 Crs
3636 1929 Crs
3917 2571 Crs
3765 2122 Crs
3876 2529 Crs
3150 2318 Crs
4679 2390 Crs
3765 2144 Crs
4155 2058 Crs
3492 2275 Crs
3632 2345 Crs
3429 1350 Crs
3528 2064 Crs
4103 2486 Crs
3725 2623 Crs
3122 2067 Crs
3431 2319 Crs
3429 2430 Crs
3170 2228 Crs
3878 2673 Crs
3638 2147 Crs
3878 2268 Crs
3616 2216 Crs
3762 1943 Crs
3768 2055 Crs
3344 1562 Crs
3975 2106 Crs
2910 2184 Crs
3918 2542 Crs
3638 2444 Crs
3653 1942 Crs
3364 2275 Crs
3768 1970 Crs
3428 2345 Crs
3212 2103 Crs
3637 1731 Crs
3528 1510 Crs
3264 2113 Crs
3535 1908 Crs
3639 2192 Crs
3343 1770 Crs
3158 2297 Crs
4043 2193 Crs
3265 1894 Crs
3603 2196 Crs
3343 2163 Crs
3767 1907 Crs
3767 2081 Crs
3302 2289 Crs
4103 2251 Crs
3527 2294 Crs
3878 2338 Crs
4101 2235 Crs
3528 2419 Crs
3265 1983 Crs
3654 2179 Crs
3191 1862 Crs
4097 2186 Crs
3310 2453 Crs
3640 2027 Crs
3430 2186 Crs
4156 2700 Crs
3761 2485 Crs
4100 2282 Crs
3479 2554 Crs
3917 2292 Crs
3330 2234 Crs
3736 2333 Crs
3640 2469 Crs
3762 1969 Crs
4526 2138 Crs
3037 1896 Crs
4253 2375 Crs
3638 2244 Crs
3343 2156 Crs
3919 1732 Crs
3258 2028 Crs
3877 2441 Crs
3361 2135 Crs
3917 2319 Crs
3250 2153 Crs
3822 2331 Crs
4103 2344 Crs
3582 2268 Crs
3938 2195 Crs
3165 2257 Crs
4101 2169 Crs
4231 2388 Crs
3918 2666 Crs
3262 2316 Crs
4045 2263 Crs
4101 2293 Crs
3767 2468 Crs
4103 2293 Crs
3689 2358 Crs
3766 2301 Crs
4100 2051 Crs
3340 2264 Crs
4045 2370 Crs
3528 2052 Crs
3581 2433 Crs
3491 2309 Crs
3639 2088 Crs
3918 2169 Crs
3768 2474 Crs
3917 2324 Crs
3391 1864 Crs
3856 2381 Crs
3263 2325 Crs
3918 1844 Crs
3765 2248 Crs
3639 2110 Crs
3917 2047 Crs
3876 2152 Crs
4102 2416 Crs
3500 2092 Crs
3639 2244 Crs
4342 2362 Crs
3918 2275 Crs
3428 1246 Crs
3423 1901 Crs
3910 2206 Crs
4330 2129 Crs
3974 2437 Crs
3914 2288 Crs
3431 2115 Crs
3230 2312 Crs
3356 2388 Crs
3509 2421 Crs
3918 2269 Crs
3526 2164 Crs
4154 2459 Crs
3626 2254 Crs
3260 1941 Crs
3527 1541 Crs
3647 2281 Crs
4148 2336 Crs
3118 2160 Crs
3529 2315 Crs
3338 2176 Crs
3764 2219 Crs
3342 2239 Crs
3415 2437 Crs
3748 2302 Crs
3735 2498 Crs
3761 2079 Crs
3915 2131 Crs
3332 2164 Crs
3529 2231 Crs
3518 2418 Crs
3582 2123 Crs
3004 2006 Crs
3431 1520 Crs
3527 2217 Crs
3510 2461 Crs
4254 2225 Crs
4102 1922 Crs
3917 2231 Crs
3380 2060 Crs
3524 2356 Crs
3861 2267 Crs
3287 2270 Crs
3858 2205 Crs
4100 2303 Crs
3637 2218 Crs
3857 2053 Crs
3506 1925 Crs
4095 2519 Crs
3638 2480 Crs
3409 1962 Crs
3507 2131 Crs
3224 2352 Crs
4379 1407 Crs
4122 2351 Crs
3330 1841 Crs
4197 2454 Crs
3919 2388 Crs
4047 2273 Crs
3866 2461 Crs
4097 2153 Crs
3581 2404 Crs
3200 2411 Crs
3449 2364 Crs
3187 1859 Crs
4144 1925 Crs
3526 2271 Crs
3257 2153 Crs
3917 2467 Crs
3668 2509 Crs
3526 2381 Crs
3529 2018 Crs
3253 2295 Crs
3361 2325 Crs
3431 2192 Crs
3762 2332 Crs
3482 2407 Crs
3343 2279 Crs
3344 2064 Crs
4154 2580 Crs
3595 2105 Crs
3877 2370 Crs
3103 2045 Crs
3737 1996 Crs
3638 2459 Crs
3637 2586 Crs
3082 2151 Crs
4675 2238 Crs
3331 2037 Crs
3390 2416 Crs
3975 2294 Crs
3319 2457 Crs
3896 2710 Crs
3466 1983 Crs
3620 2170 Crs
4104 2369 Crs
3735 2432 Crs
4102 2135 Crs
3765 2164 Crs
3731 2451 Crs
3918 2572 Crs
3768 2174 Crs
3528 1894 Crs
4157 2510 Crs
3247 2014 Crs
4046 2397 Crs
3431 1874 Crs
3429 2007 Crs
3426 2364 Crs
3767 2635 Crs
3265 2122 Crs
4342 2417 Crs
3914 2218 Crs
3913 1996 Crs
4098 2134 Crs
4525 2228 Crs
3449 2174 Crs
3759 2428 Crs
3767 2414 Crs
3693 2335 Crs
4101 2234 Crs
3974 1479 Crs
3917 2554 Crs
3429 2092 Crs
3766 2503 Crs
3762 2424 Crs
3411 1974 Crs
3527 2299 Crs
3918 2076 Crs
3529 2554 Crs
3766 2092 Crs
3639 2448 Crs
3766 1754 Crs
4253 2273 Crs
3192 2101 Crs
3495 1984 Crs
3506 2094 Crs
4044 2325 Crs
4253 2328 Crs
3429 2253 Crs
3192 1855 Crs
3893 2265 Crs
3431 2181 Crs
3764 2368 Crs
3973 2568 Crs
4675 2128 Crs
3729 2216 Crs
3044 2103 Crs
4338 2122 Crs
3879 2032 Crs
4342 2183 Crs
3917 2029 Crs
3915 2497 Crs
4341 2170 Crs
3431 2367 Crs
3481 1852 Crs
3527 1993 Crs
3261 2367 Crs
2880 1928 Crs
3509 2021 Crs
3504 2221 Crs
4102 2106 Crs
3526 2212 Crs
4104 2298 Crs
4104 2144 Crs
3120 1786 Crs
3260 1300 Crs
3874 2360 Crs
3832 2290 Crs
4104 1869 Crs
3328 2212 Crs
3264 2240 Crs
3918 2189 Crs
4103 2507 Crs
3874 2166 Crs
4040 1876 Crs
4104 2283 Crs
3763 1923 Crs
3430 2304 Crs
3529 2223 Crs
3768 1896 Crs
3912 2191 Crs
3261 2403 Crs
3191 2023 Crs
3341 2433 Crs
3498 1942 Crs
3833 2248 Crs
3416 2041 Crs
3529 2254 Crs
3592 2313 Crs
3768 2299 Crs
3182 2193 Crs
3859 2181 Crs
3518 2212 Crs
4245 2473 Crs
3765 2358 Crs
3765 2380 Crs
3763 2527 Crs
3810 2430 Crs
3762 2285 Crs
3261 2277 Crs
4101 2242 Crs
4046 2340 Crs
3918 2276 Crs
4101 2330 Crs
3525 2220 Crs
3767 1870 Crs
3631 1729 Crs
4678 2229 Crs
3528 1625 Crs
4341 2296 Crs
4249 2266 Crs
3527 2456 Crs
3636 2215 Crs
3522 2384 Crs
3955 2652 Crs
3975 2242 Crs
4090 2495 Crs
4103 2163 Crs
3231 2399 Crs
3628 2602 Crs
3461 1905 Crs
3527 2114 Crs
3041 1919 Crs
3581 2412 Crs
3221 1751 Crs
3919 2370 Crs
3904 2272 Crs
3385 1497 Crs
3279 2397 Crs
3862 2562 Crs
3529 2052 Crs
4044 2357 Crs
3601 2069 Crs
3919 2070 Crs
3517 2391 Crs
3525 2478 Crs
2947 1931 Crs
3763 2455 Crs
3640 2098 Crs
4342 2521 Crs
3541 1931 Crs
3329 2066 Crs
3341 2147 Crs
4253 2156 Crs
4026 2200 Crs
3737 2179 Crs
3430 2195 Crs
3766 2284 Crs
3430 2312 Crs
3637 2173 Crs
3325 2361 Crs
3822 2230 Crs
4340 2067 Crs
3731 2415 Crs
3235 1657 Crs
3430 2267 Crs
3449 2383 Crs
4045 2378 Crs
3766 2341 Crs
3527 2133 Crs
3408 2309 Crs
3442 2458 Crs
3636 2470 Crs
4046 2225 Crs
3765 2641 Crs
3342 2169 Crs
4046 2414 Crs
3599 2173 Crs
3736 1788 Crs
3873 2209 Crs
3181 2392 Crs
3766 2384 Crs
3732 2126 Crs
3257 2308 Crs
3764 2010 Crs
4102 2037 Crs
3636 1907 Crs
3332 2276 Crs
3497 2253 Crs
3907 2533 Crs
3919 2404 Crs
3916 2103 Crs
3764 2399 Crs
4047 2476 Crs
4100 2462 Crs
4096 2165 Crs
3527 2356 Crs
3762 2450 Crs
3823 2223 Crs
3918 2350 Crs
3767 2235 Crs
3605 2368 Crs
4046 2025 Crs
3263 2065 Crs
3527 2470 Crs
3832 2391 Crs
3753 2264 Crs
3737 2395 Crs
3637 2473 Crs
3525 1787 Crs
3613 1803 Crs
4678 2063 Crs
4045 2447 Crs
4522 2290 Crs
3307 1898 Crs
3446 2197 Crs
3638 2200 Crs
3062 1977 Crs
3767 2002 Crs
4103 2382 Crs
3424 2099 Crs
3735 2238 Crs
3738 2073 Crs
4341 2453 Crs
4044 2353 Crs
3428 2345 Crs
3917 2219 Crs
3766 2208 Crs
4342 2180 Crs
3638 2098 Crs
4045 2452 Crs
4103 1965 Crs
3638 2143 Crs
4252 2070 Crs
3601 2683 Crs
3752 2331 Crs
3637 2272 Crs
3902 2592 Crs
3904 2319 Crs
3919 2457 Crs
4103 2119 Crs
3637 2285 Crs
3918 2300 Crs
3726 2484 Crs
4104 2296 Crs
3611 2539 Crs
2932 1882 Crs
3766 2172 Crs
3519 2466 Crs
3917 2448 Crs
3635 2253 Crs
3510 1969 Crs
3340 2302 Crs
4676 2266 Crs
3616 2368 Crs
3263 1933 Crs
3915 2489 Crs
3428 2390 Crs
3918 2419 Crs
3430 2025 Crs
3767 2425 Crs
3762 2199 Crs
3527 2160 Crs
4102 2297 Crs
3431 2483 Crs
3336 2396 Crs
3403 1882 Crs
3918 2014 Crs
3878 1602 Crs
3166 2312 Crs
3767 2288 Crs
3638 1785 Crs
3575 2174 Crs
3429 1927 Crs
4103 2137 Crs
3391 1699 Crs
3324 2413 Crs
2938 2169 Crs
3708 2474 Crs
3446 2535 Crs
3876 2574 Crs
4675 2522 Crs
3422 2266 Crs
3581 2309 Crs
3763 2433 Crs
3633 1752 Crs
3341 2283 Crs
3479 2328 Crs
4342 1779 Crs
3765 2482 Crs
3520 2522 Crs
3767 2139 Crs
4103 2322 Crs
3874 2381 Crs
3285 2448 Crs
3821 2613 Crs
3735 2550 Crs
3694 2439 Crs
4043 2366 Crs
4043 2192 Crs
4099 2519 Crs
3600 2196 Crs
4522 2144 Crs
3913 2045 Crs
3918 2219 Crs
3233 2220 Crs
3765 2325 Crs
3107 2257 Crs
3423 2023 Crs
3529 2093 Crs
3639 2350 Crs
3975 2587 Crs
3260 2210 Crs
3709 2562 Crs
3509 2367 Crs
3726 2574 Crs
3760 2465 Crs
4103 1712 Crs
4089 2093 Crs
3637 2498 Crs
3429 2163 Crs
3474 2022 Crs
3728 2103 Crs
3916 2324 Crs
3578 2406 Crs
3430 1636 Crs
3528 2232 Crs
3615 2216 Crs
3330 2391 Crs
3767 2262 Crs
3260 2206 Crs
3738 2100 Crs
3975 2622 Crs
4226 2506 Crs
3412 2436 Crs
3640 2477 Crs
3529 2320 Crs
4104 2003 Crs
3638 2185 Crs
3916 2130 Crs
3917 2446 Crs
3878 2395 Crs
3907 2180 Crs
3615 2225 Crs
3639 1971 Crs
3053 2068 Crs
3919 2467 Crs
3341 2147 Crs
3763 2310 Crs
4383 2123 Crs
3638 2078 Crs
3638 2248 Crs
3916 2505 Crs
3736 2218 Crs
3338 2124 Crs
3344 1807 Crs
3876 2532 Crs
4254 2045 Crs
3024 2202 Crs
3524 2415 Crs
3918 2370 Crs
3525 2316 Crs
3918 1571 Crs
3537 2466 Crs
3616 2146 Crs
4047 2335 Crs
3471 2302 Crs
3389 2177 Crs
3637 1813 Crs
3764 2292 Crs
4335 2363 Crs
3832 2451 Crs
3702 2399 Crs
3266 2176 Crs
3637 2441 Crs
3264 2053 Crs
3525 1998 Crs
3877 2309 Crs
3915 1785 Crs
3612 1926 Crs
3918 2291 Crs
3344 2347 Crs
3768 2150 Crs
3527 2477 Crs
3918 2144 Crs
3736 2439 Crs
3918 1832 Crs
3249 2020 Crs
4255 2215 Crs
3638 1889 Crs
4679 2337 Crs
3639 2338 Crs
3918 2439 Crs
3876 2301 Crs
4338 2132 Crs
3638 2217 Crs
3633 2206 Crs
3527 1894 Crs
4063 2356 Crs
3695 2357 Crs
3508 2419 Crs
3915 2568 Crs
4253 2370 Crs
3559 1849 Crs
3639 2456 Crs
3766 2148 Crs
3264 1881 Crs
4103 1920 Crs
3766 2361 Crs
3089 1634 Crs
3919 2336 Crs
3919 2131 Crs
3974 1701 Crs
3614 1926 Crs
3508 2042 Crs
3330 2432 Crs
3493 2565 Crs
3446 1633 Crs
4679 2321 Crs
3877 1798 Crs
3768 1840 Crs
3381 2173 Crs
4044 2001 Crs
3917 2362 Crs
3505 2410 Crs
3626 2155 Crs
3639 2446 Crs
3421 2148 Crs
4340 2191 Crs
4335 2320 Crs
3263 2049 Crs
3639 2152 Crs
3768 2251 Crs
3633 2387 Crs
3766 2459 Crs
3528 2452 Crs
3495 2389 Crs
3529 2446 Crs
3430 2019 Crs
4253 1477 Crs
3639 2079 Crs
3766 2390 Crs
3737 1971 Crs
3336 2158 Crs
3427 2204 Crs
3270 2265 Crs
3737 1506 Crs
4047 2263 Crs
3623 2012 Crs
3766 2293 Crs
3639 2023 Crs
3310 2268 Crs
4100 2448 Crs
3735 2357 Crs
3615 1903 Crs
3301 2390 Crs
3390 2307 Crs
3344 2101 Crs
3526 2387 Crs
3520 2459 Crs
3389 1917 Crs
4101 2169 Crs
3507 2364 Crs
4343 2388 Crs
3431 2363 Crs
3917 1700 Crs
2951 1966 Crs
3342 2020 Crs
3639 1738 Crs
3201 2063 Crs
3396 2229 Crs
3527 1256 Crs
3914 2221 Crs
3764 2045 Crs
3342 2092 Crs
3525 2479 Crs
3647 2534 Crs
4255 2190 Crs
3878 2641 Crs
4679 2352 Crs
3528 2192 Crs
4341 2173 Crs
3631 2149 Crs
3431 2222 Crs
3446 2383 Crs
3768 2291 Crs
3521 2314 Crs
3733 2443 Crs
3638 2217 Crs
3896 2081 Crs
3866 2500 Crs
3336 1806 Crs
3339 2222 Crs
3638 2224 Crs
3581 2195 Crs
3637 2531 Crs
4139 2165 Crs
3529 1649 Crs
3828 2152 Crs
4342 2405 Crs
3916 2344 Crs
3545 2290 Crs
4102 2337 Crs
3525 1180 Crs
3824 1818 Crs
3749 2287 Crs
3917 2254 Crs
3647 2233 Crs
3453 2215 Crs
3503 2170 Crs
3415 2122 Crs
4042 2053 Crs
3248 2337 Crs
3767 2622 Crs
3736 2487 Crs
3527 1295 Crs
3528 2020 Crs
3559 1200 Crs
3919 2007 Crs
3613 2442 Crs
3503 2503 Crs
3766 1999 Crs
3252 2217 Crs
3210 2168 Crs
3876 1922 Crs
3919 2072 Crs
3874 2506 Crs
3909 2205 Crs
3639 2440 Crs
4104 2125 Crs
3506 2158 Crs
3472 1341 Crs
3582 2310 Crs
3280 2457 Crs
3727 2165 Crs
2879 2157 Crs
3638 2015 Crs
4382 2395 Crs
3766 2185 Crs
3877 2288 Crs
3821 2150 Crs
3876 2243 Crs
3765 2197 Crs
3429 1828 Crs
3764 2138 Crs
3639 1944 Crs
3766 2300 Crs
3431 2100 Crs
4052 2474 Crs
4679 2447 Crs
4102 2351 Crs
3918 1997 Crs
3874 2656 Crs
3640 2003 Crs
4098 2233 Crs
3918 2407 Crs
3341 2380 Crs
3736 2402 Crs
3917 2361 Crs
3852 2641 Crs
3693 2171 Crs
3192 2126 Crs
3737 2445 Crs
3326 2226 Crs
4254 2324 Crs
3612 1403 Crs
3213 2249 Crs
3329 1974 Crs
4157 2478 Crs
3917 2062 Crs
3616 2502 Crs
4342 2218 Crs
3528 2484 Crs
3262 2292 Crs
3521 2165 Crs
4157 2069 Crs
3818 2190 Crs
2889 2096 Crs
3737 2079 Crs
3122 2273 Crs
3293 2204 Crs
3529 2371 Crs
3303 2290 Crs
3640 1941 Crs
3430 2064 Crs
3323 1849 Crs
3917 2481 Crs
3431 2328 Crs
3768 2453 Crs
3457 2483 Crs
3752 2430 Crs
3639 2178 Crs
4103 2704 Crs
3639 2431 Crs
3193 2066 Crs
4487 2410 Crs
3914 2182 Crs
3528 2412 Crs
3215 2166 Crs
3415 2479 Crs
4092 2346 Crs
3735 1626 Crs
3340 2105 Crs
3088 2213 Crs
3581 1996 Crs
3642 2721 Crs
4103 2404 Crs
3536 2418 Crs
3247 2125 Crs
3828 2398 Crs
3643 2583 Crs
3918 1990 Crs
3765 2536 Crs
4103 2127 Crs
3767 2135 Crs
4341 2374 Crs
3639 2401 Crs
3761 2165 Crs
3614 2626 Crs
3789 2065 Crs
3580 2533 Crs
3211 1580 Crs
3766 2219 Crs
3637 1958 Crs
3507 2085 Crs
4044 2598 Crs
3320 2169 Crs
3917 2013 Crs
3459 2446 Crs
3510 1962 Crs
4101 2192 Crs
3722 2070 Crs
3917 1459 Crs
3633 2571 Crs
4091 2241 Crs
3392 2451 Crs
3508 2005 Crs
3766 2365 Crs
3916 2425 Crs
3186 2355 Crs
3869 2348 Crs
3431 2376 Crs
3824 1997 Crs
3529 2214 Crs
3424 2366 Crs
3515 2200 Crs
3264 1814 Crs
4252 2414 Crs
3765 2295 Crs
3638 1924 Crs
3286 2223 Crs
4102 2418 Crs
3431 2430 Crs
3007 2220 Crs
4046 2318 Crs
3613 2332 Crs
3825 2549 Crs
3341 2079 Crs
4342 2150 Crs
3430 2277 Crs
3918 2282 Crs
3694 2453 Crs
3765 2407 Crs
3427 2142 Crs
3918 2545 Crs
3918 2275 Crs
3430 1992 Crs
3768 2167 Crs
3264 2199 Crs
4156 2535 Crs
4518 2269 Crs
4100 2394 Crs
4101 2457 Crs
3343 2078 Crs
3431 2181 Crs
3343 1345 Crs
3411 2198 Crs
4677 2325 Crs
4521 2279 Crs
4381 2541 Crs
3325 2341 Crs
4247 2311 Crs
4380 2536 Crs
3616 2185 Crs
3767 2663 Crs
4677 2349 Crs
3210 2078 Crs
2901 2161 Crs
3901 2647 Crs
3767 2259 Crs
3343 1938 Crs
3415 2164 Crs
3346 2368 Crs
3338 2441 Crs
3869 2303 Crs
3878 2546 Crs
3104 2154 Crs
4044 2049 Crs
2946 2088 Crs
2838 2098 Crs
3522 2459 Crs
3818 2615 Crs
3972 1996 Crs
3877 2340 Crs
3468 2470 Crs
3636 2235 Crs
3379 2297 Crs
3528 2056 Crs
3604 2312 Crs
3729 1747 Crs
3471 2250 Crs
3736 2499 Crs
3736 2302 Crs
3874 2134 Crs
3581 2115 Crs
3424 2311 Crs
3255 2311 Crs
3343 1909 Crs
4251 2192 Crs
3514 2475 Crs
3912 2331 Crs
3767 1973 Crs
3528 2335 Crs
3431 2453 Crs
3767 2066 Crs
4254 2293 Crs
3766 2146 Crs
3117 2214 Crs
3917 2100 Crs
4525 1733 Crs
4251 2163 Crs
3567 2375 Crs
3639 2541 Crs
3342 2498 Crs
4044 2165 Crs
3528 2251 Crs
3340 2303 Crs
3509 2428 Crs
3758 2583 Crs
3603 2389 Crs
3055 2213 Crs
3825 2413 Crs
3732 2250 Crs
3630 2423 Crs
3527 2442 Crs
3611 2135 Crs
3639 2457 Crs
3422 2435 Crs
3915 2508 Crs
3510 2095 Crs
3918 2417 Crs
4338 2453 Crs
3767 2153 Crs
3918 2425 Crs
3713 2340 Crs
3637 2431 Crs
3503 2129 Crs
3164 1806 Crs
4343 2214 Crs
4099 2201 Crs
3768 2387 Crs
3736 2201 Crs
3191 2171 Crs
3764 2190 Crs
3420 2308 Crs
3877 2392 Crs
3767 2448 Crs
3175 1845 Crs
4044 2507 Crs
3529 2380 Crs
3528 1995 Crs
3505 1594 Crs
3900 2396 Crs
3342 2267 Crs
3638 1791 Crs
3878 1927 Crs
3709 2195 Crs
3402 2138 Crs
3529 2233 Crs
3502 2061 Crs
3529 1950 Crs
3639 2376 Crs
3693 1283 Crs
3237 2032 Crs
4342 2338 Crs
3750 2419 Crs
3917 2598 Crs
3823 2136 Crs
3916 2436 Crs
4342 2540 Crs
3578 2367 Crs
3529 2299 Crs
3339 2062 Crs
4046 1935 Crs
3335 2139 Crs
4046 2240 Crs
3872 2372 Crs
3878 2246 Crs
3877 2275 Crs
4383 2136 Crs
4101 2353 Crs
3818 2478 Crs
4062 2473 Crs
3877 1980 Crs
3767 1993 Crs
3702 2498 Crs
3761 1839 Crs
3427 1604 Crs
4101 2193 Crs
4151 2528 Crs
3573 2379 Crs
3973 2533 Crs
3636 2169 Crs
4343 2471 Crs
3733 2546 Crs
3206 2070 Crs
3529 2344 Crs
3192 2197 Crs
3722 2537 Crs
3529 1999 Crs
3918 2465 Crs
3639 2286 Crs
3525 2362 Crs
3637 2571 Crs
3252 2210 Crs
4255 2451 Crs
3328 2399 Crs
3422 2100 Crs
3126 2202 Crs
3767 2165 Crs
4099 2045 Crs
3448 2349 Crs
3766 2403 Crs
4383 1945 Crs
3767 2320 Crs
3206 2273 Crs
3615 1958 Crs
3763 2322 Crs
3729 1903 Crs
3527 2076 Crs
3172 1986 Crs
3894 2123 Crs
4342 1913 Crs
3527 2077 Crs
3500 1477 Crs
4342 2447 Crs
3767 2243 Crs
3509 2003 Crs
3425 2333 Crs
3362 2078 Crs
3371 2346 Crs
3458 2333 Crs
3515 2258 Crs
4254 2248 Crs
3733 2482 Crs
3425 2228 Crs
3694 2577 Crs
3516 2099 Crs
3767 2342 Crs
3529 1921 Crs
3861 2287 Crs
3638 2544 Crs
3875 2531 Crs
4103 1640 Crs
4028 2427 Crs
3579 2327 Crs
3528 2214 Crs
3692 2170 Crs
3971 2287 Crs
3412 2299 Crs
3815 2475 Crs
3878 2094 Crs
4046 2346 Crs
3764 2054 Crs
3404 2324 Crs
3215 1864 Crs
3639 2474 Crs
3638 2617 Crs
3917 2354 Crs
3902 2443 Crs
4249 2145 Crs
3527 2323 Crs
3668 2428 Crs
3415 2122 Crs
3235 2296 Crs
3708 2312 Crs
3178 2125 Crs
3408 2023 Crs
4045 2482 Crs
3693 1573 Crs
3614 2029 Crs
4342 2471 Crs
4053 2139 Crs
3506 2283 Crs
4099 2321 Crs
3177 2087 Crs
3915 2493 Crs
3404 2490 Crs
3514 2207 Crs
3639 2405 Crs
3616 1981 Crs
4153 2314 Crs
3918 2236 Crs
4341 2262 Crs
4103 2476 Crs
2945 2032 Crs
4251 2139 Crs
3341 2394 Crs
4046 2380 Crs
3634 2150 Crs
4341 2225 Crs
3177 2249 Crs
3871 2157 Crs
3260 2353 Crs
3342 2258 Crs
3765 2520 Crs
3765 2294 Crs
3918 2396 Crs
3213 2175 Crs
3767 2182 Crs
3974 2518 Crs
3975 2060 Crs
3307 2207 Crs
3876 2209 Crs
3424 2156 Crs
3915 2217 Crs
3424 2423 Crs
3735 2288 Crs
3207 2212 Crs
3424 1822 Crs
3917 2092 Crs
3616 2389 Crs
3529 2437 Crs
3893 2488 Crs
3687 2618 Crs
3737 2608 Crs
3625 2058 Crs
3344 2360 Crs
4342 1646 Crs
3430 2021 Crs
3640 2218 Crs
3914 2050 Crs
4096 2435 Crs
3878 2061 Crs
3525 2461 Crs
3529 2388 Crs
3529 2538 Crs
4044 1971 Crs
3825 2111 Crs
2955 2088 Crs
4043 1963 Crs
3528 2292 Crs
3307 2407 Crs
3404 2202 Crs
3528 2288 Crs
3520 2485 Crs
% End plot #2
% Begin plot #3
1.000 UL
LTb
LT1
0.75 0.75 0.75 C 2142 1611 M
26 19 V
25 19 V
26 20 V
26 19 V
25 20 V
26 19 V
26 19 V
25 20 V
26 19 V
25 20 V
26 19 V
26 19 V
25 20 V
26 19 V
26 20 V
25 19 V
26 19 V
25 20 V
26 19 V
26 20 V
25 19 V
26 19 V
26 20 V
25 19 V
26 20 V
25 19 V
26 19 V
26 20 V
25 19 V
26 20 V
26 19 V
25 19 V
26 20 V
25 19 V
26 20 V
26 19 V
25 19 V
26 20 V
26 19 V
25 20 V
26 19 V
25 19 V
26 20 V
26 19 V
25 20 V
26 19 V
26 19 V
25 20 V
26 19 V
25 20 V
26 19 V
26 19 V
25 20 V
26 19 V
26 20 V
25 19 V
26 19 V
25 20 V
26 19 V
26 19 V
25 20 V
26 19 V
26 20 V
25 19 V
26 19 V
25 20 V
26 19 V
26 20 V
25 19 V
26 19 V
26 20 V
25 19 V
26 20 V
25 19 V
26 19 V
26 20 V
25 19 V
26 20 V
26 19 V
25 19 V
26 20 V
25 19 V
26 20 V
26 19 V
25 19 V
26 20 V
26 19 V
25 20 V
26 19 V
25 19 V
26 20 V
26 19 V
25 20 V
26 19 V
26 19 V
25 20 V
26 19 V
25 20 V
26 19 V
% End plot #3
stroke
2.000 UL
LTb
LCb setrgbcolor
1.000 UL
LTb
LCb setrgbcolor
860 3531 N
860 640 L
3819 0 V
0 2891 V
-3819 0 V
Z stroke
0.500 UP
1.000 UL
LTb
LCb setrgbcolor
stroke
grestore
end
showpage
%%Trailer
%%DocumentFonts: Helvetica
