%!PS-Adobe-2.0 EPSF-2.0
%%Title: max.eps
%%Creator: gnuplot 5.0 patchlevel 1
%%CreationDate: Fri Oct 30 18:57:07 2015
%%DocumentFonts: (atend)
%%BoundingBox: 50 50 302 238
%%EndComments
%%BeginProlog
/gnudict 256 dict def
gnudict begin
%
% The following true/false flags may be edited by hand if desired.
% The unit line width and grayscale image gamma correction may also be changed.
%
/Color true def
/Blacktext false def
/Solid false def
/Dashlength 1 def
/Landscape false def
/Level1 false def
/Level3 false def
/Rounded false def
/ClipToBoundingBox false def
/SuppressPDFMark false def
/TransparentPatterns false def
/gnulinewidth 5.000 def
/userlinewidth gnulinewidth def
/Gamma 1.0 def
/BackgroundColor {-1.000 -1.000 -1.000} def
%
/vshift -66 def
/dl1 {
  10.0 Dashlength userlinewidth gnulinewidth div mul mul mul
  Rounded { currentlinewidth 0.75 mul sub dup 0 le { pop 0.01 } if } if
} def
/dl2 {
  10.0 Dashlength userlinewidth gnulinewidth div mul mul mul
  Rounded { currentlinewidth 0.75 mul add } if
} def
/hpt_ 31.5 def
/vpt_ 31.5 def
/hpt hpt_ def
/vpt vpt_ def
/doclip {
  ClipToBoundingBox {
    newpath 50 50 moveto 302 50 lineto 302 238 lineto 50 238 lineto closepath
    clip
  } if
} def
%
% Gnuplot Prolog Version 5.0 (Dec 2014)
%
%/SuppressPDFMark true def
%
/M {moveto} bind def
/L {lineto} bind def
/R {rmoveto} bind def
/V {rlineto} bind def
/N {newpath moveto} bind def
/Z {closepath} bind def
/C {setrgbcolor} bind def
/f {rlineto fill} bind def
/g {setgray} bind def
/Gshow {show} def   % May be redefined later in the file to support UTF-8
/vpt2 vpt 2 mul def
/hpt2 hpt 2 mul def
/Lshow {currentpoint stroke M 0 vshift R 
	Blacktext {gsave 0 setgray textshow grestore} {textshow} ifelse} def
/Rshow {currentpoint stroke M dup stringwidth pop neg vshift R
	Blacktext {gsave 0 setgray textshow grestore} {textshow} ifelse} def
/Cshow {currentpoint stroke M dup stringwidth pop -2 div vshift R 
	Blacktext {gsave 0 setgray textshow grestore} {textshow} ifelse} def
/UP {dup vpt_ mul /vpt exch def hpt_ mul /hpt exch def
  /hpt2 hpt 2 mul def /vpt2 vpt 2 mul def} def
/DL {Color {setrgbcolor Solid {pop []} if 0 setdash}
 {pop pop pop 0 setgray Solid {pop []} if 0 setdash} ifelse} def
/BL {stroke userlinewidth 2 mul setlinewidth
	Rounded {1 setlinejoin 1 setlinecap} if} def
/AL {stroke userlinewidth 2 div setlinewidth
	Rounded {1 setlinejoin 1 setlinecap} if} def
/UL {dup gnulinewidth mul /userlinewidth exch def
	dup 1 lt {pop 1} if 10 mul /udl exch def} def
/PL {stroke userlinewidth setlinewidth
	Rounded {1 setlinejoin 1 setlinecap} if} def
3.8 setmiterlimit
% Classic Line colors (version 5.0)
/LCw {1 1 1} def
/LCb {0 0 0} def
/LCa {0 0 0} def
/LC0 {1 0 0} def
/LC1 {0 1 0} def
/LC2 {0 0 1} def
/LC3 {1 0 1} def
/LC4 {0 1 1} def
/LC5 {1 1 0} def
/LC6 {0 0 0} def
/LC7 {1 0.3 0} def
/LC8 {0.5 0.5 0.5} def
% Default dash patterns (version 5.0)
/LTw {PL [] 1 setgray} def
/LTb {BL [] LCb DL} def
/LTa {AL [1 udl mul 2 udl mul] 0 setdash LCa setrgbcolor} def
/LT0 {PL [] LC0 DL} def
/LT1 {PL [2 dl1 3 dl2] LC1 DL} def
/LT2 {PL [1 dl1 1.5 dl2] LC2 DL} def
/LT3 {PL [6 dl1 2 dl2 1 dl1 2 dl2] LC3 DL} def
/LT4 {PL [1 dl1 2 dl2 6 dl1 2 dl2 1 dl1 2 dl2] LC4 DL} def
/LT5 {PL [4 dl1 2 dl2] LC5 DL} def
/LT6 {PL [1.5 dl1 1.5 dl2 1.5 dl1 1.5 dl2 1.5 dl1 6 dl2] LC6 DL} def
/LT7 {PL [3 dl1 3 dl2 1 dl1 3 dl2] LC7 DL} def
/LT8 {PL [2 dl1 2 dl2 2 dl1 6 dl2] LC8 DL} def
/SL {[] 0 setdash} def
/Pnt {stroke [] 0 setdash gsave 1 setlinecap M 0 0 V stroke grestore} def
/Dia {stroke [] 0 setdash 2 copy vpt add M
  hpt neg vpt neg V hpt vpt neg V
  hpt vpt V hpt neg vpt V closepath stroke
  Pnt} def
/Pls {stroke [] 0 setdash vpt sub M 0 vpt2 V
  currentpoint stroke M
  hpt neg vpt neg R hpt2 0 V stroke
 } def
/Box {stroke [] 0 setdash 2 copy exch hpt sub exch vpt add M
  0 vpt2 neg V hpt2 0 V 0 vpt2 V
  hpt2 neg 0 V closepath stroke
  Pnt} def
/Crs {stroke [] 0 setdash exch hpt sub exch vpt add M
  hpt2 vpt2 neg V currentpoint stroke M
  hpt2 neg 0 R hpt2 vpt2 V stroke} def
/TriU {stroke [] 0 setdash 2 copy vpt 1.12 mul add M
  hpt neg vpt -1.62 mul V
  hpt 2 mul 0 V
  hpt neg vpt 1.62 mul V closepath stroke
  Pnt} def
/Star {2 copy Pls Crs} def
/BoxF {stroke [] 0 setdash exch hpt sub exch vpt add M
  0 vpt2 neg V hpt2 0 V 0 vpt2 V
  hpt2 neg 0 V closepath fill} def
/TriUF {stroke [] 0 setdash vpt 1.12 mul add M
  hpt neg vpt -1.62 mul V
  hpt 2 mul 0 V
  hpt neg vpt 1.62 mul V closepath fill} def
/TriD {stroke [] 0 setdash 2 copy vpt 1.12 mul sub M
  hpt neg vpt 1.62 mul V
  hpt 2 mul 0 V
  hpt neg vpt -1.62 mul V closepath stroke
  Pnt} def
/TriDF {stroke [] 0 setdash vpt 1.12 mul sub M
  hpt neg vpt 1.62 mul V
  hpt 2 mul 0 V
  hpt neg vpt -1.62 mul V closepath fill} def
/DiaF {stroke [] 0 setdash vpt add M
  hpt neg vpt neg V hpt vpt neg V
  hpt vpt V hpt neg vpt V closepath fill} def
/Pent {stroke [] 0 setdash 2 copy gsave
  translate 0 hpt M 4 {72 rotate 0 hpt L} repeat
  closepath stroke grestore Pnt} def
/PentF {stroke [] 0 setdash gsave
  translate 0 hpt M 4 {72 rotate 0 hpt L} repeat
  closepath fill grestore} def
/Circle {stroke [] 0 setdash 2 copy
  hpt 0 360 arc stroke Pnt} def
/CircleF {stroke [] 0 setdash hpt 0 360 arc fill} def
/C0 {BL [] 0 setdash 2 copy moveto vpt 90 450 arc} bind def
/C1 {BL [] 0 setdash 2 copy moveto
	2 copy vpt 0 90 arc closepath fill
	vpt 0 360 arc closepath} bind def
/C2 {BL [] 0 setdash 2 copy moveto
	2 copy vpt 90 180 arc closepath fill
	vpt 0 360 arc closepath} bind def
/C3 {BL [] 0 setdash 2 copy moveto
	2 copy vpt 0 180 arc closepath fill
	vpt 0 360 arc closepath} bind def
/C4 {BL [] 0 setdash 2 copy moveto
	2 copy vpt 180 270 arc closepath fill
	vpt 0 360 arc closepath} bind def
/C5 {BL [] 0 setdash 2 copy moveto
	2 copy vpt 0 90 arc
	2 copy moveto
	2 copy vpt 180 270 arc closepath fill
	vpt 0 360 arc} bind def
/C6 {BL [] 0 setdash 2 copy moveto
	2 copy vpt 90 270 arc closepath fill
	vpt 0 360 arc closepath} bind def
/C7 {BL [] 0 setdash 2 copy moveto
	2 copy vpt 0 270 arc closepath fill
	vpt 0 360 arc closepath} bind def
/C8 {BL [] 0 setdash 2 copy moveto
	2 copy vpt 270 360 arc closepath fill
	vpt 0 360 arc closepath} bind def
/C9 {BL [] 0 setdash 2 copy moveto
	2 copy vpt 270 450 arc closepath fill
	vpt 0 360 arc closepath} bind def
/C10 {BL [] 0 setdash 2 copy 2 copy moveto vpt 270 360 arc closepath fill
	2 copy moveto
	2 copy vpt 90 180 arc closepath fill
	vpt 0 360 arc closepath} bind def
/C11 {BL [] 0 setdash 2 copy moveto
	2 copy vpt 0 180 arc closepath fill
	2 copy moveto
	2 copy vpt 270 360 arc closepath fill
	vpt 0 360 arc closepath} bind def
/C12 {BL [] 0 setdash 2 copy moveto
	2 copy vpt 180 360 arc closepath fill
	vpt 0 360 arc closepath} bind def
/C13 {BL [] 0 setdash 2 copy moveto
	2 copy vpt 0 90 arc closepath fill
	2 copy moveto
	2 copy vpt 180 360 arc closepath fill
	vpt 0 360 arc closepath} bind def
/C14 {BL [] 0 setdash 2 copy moveto
	2 copy vpt 90 360 arc closepath fill
	vpt 0 360 arc} bind def
/C15 {BL [] 0 setdash 2 copy vpt 0 360 arc closepath fill
	vpt 0 360 arc closepath} bind def
/Rec {newpath 4 2 roll moveto 1 index 0 rlineto 0 exch rlineto
	neg 0 rlineto closepath} bind def
/Square {dup Rec} bind def
/Bsquare {vpt sub exch vpt sub exch vpt2 Square} bind def
/S0 {BL [] 0 setdash 2 copy moveto 0 vpt rlineto BL Bsquare} bind def
/S1 {BL [] 0 setdash 2 copy vpt Square fill Bsquare} bind def
/S2 {BL [] 0 setdash 2 copy exch vpt sub exch vpt Square fill Bsquare} bind def
/S3 {BL [] 0 setdash 2 copy exch vpt sub exch vpt2 vpt Rec fill Bsquare} bind def
/S4 {BL [] 0 setdash 2 copy exch vpt sub exch vpt sub vpt Square fill Bsquare} bind def
/S5 {BL [] 0 setdash 2 copy 2 copy vpt Square fill
	exch vpt sub exch vpt sub vpt Square fill Bsquare} bind def
/S6 {BL [] 0 setdash 2 copy exch vpt sub exch vpt sub vpt vpt2 Rec fill Bsquare} bind def
/S7 {BL [] 0 setdash 2 copy exch vpt sub exch vpt sub vpt vpt2 Rec fill
	2 copy vpt Square fill Bsquare} bind def
/S8 {BL [] 0 setdash 2 copy vpt sub vpt Square fill Bsquare} bind def
/S9 {BL [] 0 setdash 2 copy vpt sub vpt vpt2 Rec fill Bsquare} bind def
/S10 {BL [] 0 setdash 2 copy vpt sub vpt Square fill 2 copy exch vpt sub exch vpt Square fill
	Bsquare} bind def
/S11 {BL [] 0 setdash 2 copy vpt sub vpt Square fill 2 copy exch vpt sub exch vpt2 vpt Rec fill
	Bsquare} bind def
/S12 {BL [] 0 setdash 2 copy exch vpt sub exch vpt sub vpt2 vpt Rec fill Bsquare} bind def
/S13 {BL [] 0 setdash 2 copy exch vpt sub exch vpt sub vpt2 vpt Rec fill
	2 copy vpt Square fill Bsquare} bind def
/S14 {BL [] 0 setdash 2 copy exch vpt sub exch vpt sub vpt2 vpt Rec fill
	2 copy exch vpt sub exch vpt Square fill Bsquare} bind def
/S15 {BL [] 0 setdash 2 copy Bsquare fill Bsquare} bind def
/D0 {gsave translate 45 rotate 0 0 S0 stroke grestore} bind def
/D1 {gsave translate 45 rotate 0 0 S1 stroke grestore} bind def
/D2 {gsave translate 45 rotate 0 0 S2 stroke grestore} bind def
/D3 {gsave translate 45 rotate 0 0 S3 stroke grestore} bind def
/D4 {gsave translate 45 rotate 0 0 S4 stroke grestore} bind def
/D5 {gsave translate 45 rotate 0 0 S5 stroke grestore} bind def
/D6 {gsave translate 45 rotate 0 0 S6 stroke grestore} bind def
/D7 {gsave translate 45 rotate 0 0 S7 stroke grestore} bind def
/D8 {gsave translate 45 rotate 0 0 S8 stroke grestore} bind def
/D9 {gsave translate 45 rotate 0 0 S9 stroke grestore} bind def
/D10 {gsave translate 45 rotate 0 0 S10 stroke grestore} bind def
/D11 {gsave translate 45 rotate 0 0 S11 stroke grestore} bind def
/D12 {gsave translate 45 rotate 0 0 S12 stroke grestore} bind def
/D13 {gsave translate 45 rotate 0 0 S13 stroke grestore} bind def
/D14 {gsave translate 45 rotate 0 0 S14 stroke grestore} bind def
/D15 {gsave translate 45 rotate 0 0 S15 stroke grestore} bind def
/DiaE {stroke [] 0 setdash vpt add M
  hpt neg vpt neg V hpt vpt neg V
  hpt vpt V hpt neg vpt V closepath stroke} def
/BoxE {stroke [] 0 setdash exch hpt sub exch vpt add M
  0 vpt2 neg V hpt2 0 V 0 vpt2 V
  hpt2 neg 0 V closepath stroke} def
/TriUE {stroke [] 0 setdash vpt 1.12 mul add M
  hpt neg vpt -1.62 mul V
  hpt 2 mul 0 V
  hpt neg vpt 1.62 mul V closepath stroke} def
/TriDE {stroke [] 0 setdash vpt 1.12 mul sub M
  hpt neg vpt 1.62 mul V
  hpt 2 mul 0 V
  hpt neg vpt -1.62 mul V closepath stroke} def
/PentE {stroke [] 0 setdash gsave
  translate 0 hpt M 4 {72 rotate 0 hpt L} repeat
  closepath stroke grestore} def
/CircE {stroke [] 0 setdash 
  hpt 0 360 arc stroke} def
/Opaque {gsave closepath 1 setgray fill grestore 0 setgray closepath} def
/DiaW {stroke [] 0 setdash vpt add M
  hpt neg vpt neg V hpt vpt neg V
  hpt vpt V hpt neg vpt V Opaque stroke} def
/BoxW {stroke [] 0 setdash exch hpt sub exch vpt add M
  0 vpt2 neg V hpt2 0 V 0 vpt2 V
  hpt2 neg 0 V Opaque stroke} def
/TriUW {stroke [] 0 setdash vpt 1.12 mul add M
  hpt neg vpt -1.62 mul V
  hpt 2 mul 0 V
  hpt neg vpt 1.62 mul V Opaque stroke} def
/TriDW {stroke [] 0 setdash vpt 1.12 mul sub M
  hpt neg vpt 1.62 mul V
  hpt 2 mul 0 V
  hpt neg vpt -1.62 mul V Opaque stroke} def
/PentW {stroke [] 0 setdash gsave
  translate 0 hpt M 4 {72 rotate 0 hpt L} repeat
  Opaque stroke grestore} def
/CircW {stroke [] 0 setdash 
  hpt 0 360 arc Opaque stroke} def
/BoxFill {gsave Rec 1 setgray fill grestore} def
/Density {
  /Fillden exch def
  currentrgbcolor
  /ColB exch def /ColG exch def /ColR exch def
  /ColR ColR Fillden mul Fillden sub 1 add def
  /ColG ColG Fillden mul Fillden sub 1 add def
  /ColB ColB Fillden mul Fillden sub 1 add def
  ColR ColG ColB setrgbcolor} def
/BoxColFill {gsave Rec PolyFill} def
/PolyFill {gsave Density fill grestore grestore} def
/h {rlineto rlineto rlineto gsave closepath fill grestore} bind def
%
% PostScript Level 1 Pattern Fill routine for rectangles
% Usage: x y w h s a XX PatternFill
%	x,y = lower left corner of box to be filled
%	w,h = width and height of box
%	  a = angle in degrees between lines and x-axis
%	 XX = 0/1 for no/yes cross-hatch
%
/PatternFill {gsave /PFa [ 9 2 roll ] def
  PFa 0 get PFa 2 get 2 div add PFa 1 get PFa 3 get 2 div add translate
  PFa 2 get -2 div PFa 3 get -2 div PFa 2 get PFa 3 get Rec
  TransparentPatterns {} {gsave 1 setgray fill grestore} ifelse
  clip
  currentlinewidth 0.5 mul setlinewidth
  /PFs PFa 2 get dup mul PFa 3 get dup mul add sqrt def
  0 0 M PFa 5 get rotate PFs -2 div dup translate
  0 1 PFs PFa 4 get div 1 add floor cvi
	{PFa 4 get mul 0 M 0 PFs V} for
  0 PFa 6 get ne {
	0 1 PFs PFa 4 get div 1 add floor cvi
	{PFa 4 get mul 0 2 1 roll M PFs 0 V} for
 } if
  stroke grestore} def
%
/languagelevel where
 {pop languagelevel} {1} ifelse
dup 2 lt
	{/InterpretLevel1 true def
	 /InterpretLevel3 false def}
	{/InterpretLevel1 Level1 def
	 2 gt
	    {/InterpretLevel3 Level3 def}
	    {/InterpretLevel3 false def}
	 ifelse }
 ifelse
%
% PostScript level 2 pattern fill definitions
%
/Level2PatternFill {
/Tile8x8 {/PaintType 2 /PatternType 1 /TilingType 1 /BBox [0 0 8 8] /XStep 8 /YStep 8}
	bind def
/KeepColor {currentrgbcolor [/Pattern /DeviceRGB] setcolorspace} bind def
<< Tile8x8
 /PaintProc {0.5 setlinewidth pop 0 0 M 8 8 L 0 8 M 8 0 L stroke} 
>> matrix makepattern
/Pat1 exch def
<< Tile8x8
 /PaintProc {0.5 setlinewidth pop 0 0 M 8 8 L 0 8 M 8 0 L stroke
	0 4 M 4 8 L 8 4 L 4 0 L 0 4 L stroke}
>> matrix makepattern
/Pat2 exch def
<< Tile8x8
 /PaintProc {0.5 setlinewidth pop 0 0 M 0 8 L
	8 8 L 8 0 L 0 0 L fill}
>> matrix makepattern
/Pat3 exch def
<< Tile8x8
 /PaintProc {0.5 setlinewidth pop -4 8 M 8 -4 L
	0 12 M 12 0 L stroke}
>> matrix makepattern
/Pat4 exch def
<< Tile8x8
 /PaintProc {0.5 setlinewidth pop -4 0 M 8 12 L
	0 -4 M 12 8 L stroke}
>> matrix makepattern
/Pat5 exch def
<< Tile8x8
 /PaintProc {0.5 setlinewidth pop -2 8 M 4 -4 L
	0 12 M 8 -4 L 4 12 M 10 0 L stroke}
>> matrix makepattern
/Pat6 exch def
<< Tile8x8
 /PaintProc {0.5 setlinewidth pop -2 0 M 4 12 L
	0 -4 M 8 12 L 4 -4 M 10 8 L stroke}
>> matrix makepattern
/Pat7 exch def
<< Tile8x8
 /PaintProc {0.5 setlinewidth pop 8 -2 M -4 4 L
	12 0 M -4 8 L 12 4 M 0 10 L stroke}
>> matrix makepattern
/Pat8 exch def
<< Tile8x8
 /PaintProc {0.5 setlinewidth pop 0 -2 M 12 4 L
	-4 0 M 12 8 L -4 4 M 8 10 L stroke}
>> matrix makepattern
/Pat9 exch def
/Pattern1 {PatternBgnd KeepColor Pat1 setpattern} bind def
/Pattern2 {PatternBgnd KeepColor Pat2 setpattern} bind def
/Pattern3 {PatternBgnd KeepColor Pat3 setpattern} bind def
/Pattern4 {PatternBgnd KeepColor Landscape {Pat5} {Pat4} ifelse setpattern} bind def
/Pattern5 {PatternBgnd KeepColor Landscape {Pat4} {Pat5} ifelse setpattern} bind def
/Pattern6 {PatternBgnd KeepColor Landscape {Pat9} {Pat6} ifelse setpattern} bind def
/Pattern7 {PatternBgnd KeepColor Landscape {Pat8} {Pat7} ifelse setpattern} bind def
} def
%
%
%End of PostScript Level 2 code
%
/PatternBgnd {
  TransparentPatterns {} {gsave 1 setgray fill grestore} ifelse
} def
%
% Substitute for Level 2 pattern fill codes with
% grayscale if Level 2 support is not selected.
%
/Level1PatternFill {
/Pattern1 {0.250 Density} bind def
/Pattern2 {0.500 Density} bind def
/Pattern3 {0.750 Density} bind def
/Pattern4 {0.125 Density} bind def
/Pattern5 {0.375 Density} bind def
/Pattern6 {0.625 Density} bind def
/Pattern7 {0.875 Density} bind def
} def
%
% Now test for support of Level 2 code
%
Level1 {Level1PatternFill} {Level2PatternFill} ifelse
%
/Symbol-Oblique /Symbol findfont [1 0 .167 1 0 0] makefont
dup length dict begin {1 index /FID eq {pop pop} {def} ifelse} forall
currentdict end definefont pop
%
/MFshow {
   { dup 5 get 3 ge
     { 5 get 3 eq {gsave} {grestore} ifelse }
     {dup dup 0 get findfont exch 1 get scalefont setfont
     [ currentpoint ] exch dup 2 get 0 exch R dup 5 get 2 ne {dup dup 6
     get exch 4 get {textshow} {stringwidth pop 0 R} ifelse }if dup 5 get 0 eq
     {dup 3 get {2 get neg 0 exch R pop} {pop aload pop M} ifelse} {dup 5
     get 1 eq {dup 2 get exch dup 3 get exch 6 get stringwidth pop -2 div
     dup 0 R} {dup 6 get stringwidth pop -2 div 0 R 6 get
     textshow 2 index {aload pop M neg 3 -1 roll neg R pop pop} {pop pop pop
     pop aload pop M} ifelse }ifelse }ifelse }
     ifelse }
   forall} def
/Gswidth {dup type /stringtype eq {stringwidth} {pop (n) stringwidth} ifelse} def
/MFwidth {0 exch { dup 5 get 3 ge { 5 get 3 eq { 0 } { pop } ifelse }
 {dup 3 get{dup dup 0 get findfont exch 1 get scalefont setfont
     6 get Gswidth pop add} {pop} ifelse} ifelse} forall} def
/MLshow { currentpoint stroke M
  0 exch R
  Blacktext {gsave 0 setgray MFshow grestore} {MFshow} ifelse } bind def
/MRshow { currentpoint stroke M
  exch dup MFwidth neg 3 -1 roll R
  Blacktext {gsave 0 setgray MFshow grestore} {MFshow} ifelse } bind def
/MCshow { currentpoint stroke M
  exch dup MFwidth -2 div 3 -1 roll R
  Blacktext {gsave 0 setgray MFshow grestore} {MFshow} ifelse } bind def
/XYsave    { [( ) 1 2 true false 3 ()] } bind def
/XYrestore { [( ) 1 2 true false 4 ()] } bind def
Level1 SuppressPDFMark or 
{} {
/SDict 10 dict def
systemdict /pdfmark known not {
  userdict /pdfmark systemdict /cleartomark get put
} if
SDict begin [
  /Title (max.eps)
  /Subject (gnuplot plot)
  /Creator (gnuplot 5.0 patchlevel 1)
  /Author (gaumont)
%  /Producer (gnuplot)
%  /Keywords ()
  /CreationDate (Fri Oct 30 18:57:07 2015)
  /DOCINFO pdfmark
end
} ifelse
end
%
% Support for boxed text - Ethan A Merritt May 2005
%
/InitTextBox { userdict /TBy2 3 -1 roll put userdict /TBx2 3 -1 roll put
           userdict /TBy1 3 -1 roll put userdict /TBx1 3 -1 roll put
	   /Boxing true def } def
/ExtendTextBox { Boxing
    { gsave dup false charpath pathbbox
      dup TBy2 gt {userdict /TBy2 3 -1 roll put} {pop} ifelse
      dup TBx2 gt {userdict /TBx2 3 -1 roll put} {pop} ifelse
      dup TBy1 lt {userdict /TBy1 3 -1 roll put} {pop} ifelse
      dup TBx1 lt {userdict /TBx1 3 -1 roll put} {pop} ifelse
      grestore } if } def
/PopTextBox { newpath TBx1 TBxmargin sub TBy1 TBymargin sub M
               TBx1 TBxmargin sub TBy2 TBymargin add L
	       TBx2 TBxmargin add TBy2 TBymargin add L
	       TBx2 TBxmargin add TBy1 TBymargin sub L closepath } def
/DrawTextBox { PopTextBox stroke /Boxing false def} def
/FillTextBox { gsave PopTextBox 1 1 1 setrgbcolor fill grestore /Boxing false def} def
0 0 0 0 InitTextBox
/TBxmargin 20 def
/TBymargin 20 def
/Boxing false def
/textshow { ExtendTextBox Gshow } def
%
%%EndProlog
%%Page: 1 1
gnudict begin
gsave
doclip
50 50 translate
0.050 0.050 scale
0 setgray
newpath
(Helvetica) findfont 200 scalefont setfont
BackgroundColor 0 lt 3 1 roll 0 lt exch 0 lt or or not {BackgroundColor C 1.000 0 0 5040.00 3772.00 BoxColFill} if
1.000 UL
LTb
LCb setrgbcolor
860 640 M
63 0 V
3756 0 R
-63 0 V
stroke
740 640 M
[ [(Helvetica) 200.0 0.0 true true 0 (10)]
[(Helvetica) 160.0 100.0 true true 0 (-3)]
] -86.7 MRshow
1.000 UL
LTb
LCb setrgbcolor
860 930 M
31 0 V
3788 0 R
-31 0 V
860 1100 M
31 0 V
3788 0 R
-31 0 V
860 1220 M
31 0 V
3788 0 R
-31 0 V
860 1314 M
31 0 V
3788 0 R
-31 0 V
860 1390 M
31 0 V
3788 0 R
-31 0 V
860 1454 M
31 0 V
3788 0 R
-31 0 V
860 1510 M
31 0 V
3788 0 R
-31 0 V
860 1560 M
31 0 V
3788 0 R
-31 0 V
860 1604 M
63 0 V
3756 0 R
-63 0 V
stroke
740 1604 M
[ [(Helvetica) 200.0 0.0 true true 0 (10)]
[(Helvetica) 160.0 100.0 true true 0 (-2)]
] -86.7 MRshow
1.000 UL
LTb
LCb setrgbcolor
860 1894 M
31 0 V
3788 0 R
-31 0 V
860 2063 M
31 0 V
3788 0 R
-31 0 V
860 2184 M
31 0 V
3788 0 R
-31 0 V
860 2277 M
31 0 V
3788 0 R
-31 0 V
860 2354 M
31 0 V
3788 0 R
-31 0 V
860 2418 M
31 0 V
3788 0 R
-31 0 V
860 2474 M
31 0 V
3788 0 R
-31 0 V
860 2523 M
31 0 V
3788 0 R
-31 0 V
860 2567 M
63 0 V
3756 0 R
-63 0 V
stroke
740 2567 M
[ [(Helvetica) 200.0 0.0 true true 0 (10)]
[(Helvetica) 160.0 100.0 true true 0 (-1)]
] -86.7 MRshow
1.000 UL
LTb
LCb setrgbcolor
860 2857 M
31 0 V
3788 0 R
-31 0 V
860 3027 M
31 0 V
3788 0 R
-31 0 V
860 3148 M
31 0 V
3788 0 R
-31 0 V
860 3241 M
31 0 V
3788 0 R
-31 0 V
860 3317 M
31 0 V
3788 0 R
-31 0 V
860 3382 M
31 0 V
3788 0 R
-31 0 V
860 3438 M
31 0 V
3788 0 R
-31 0 V
860 3487 M
31 0 V
3788 0 R
-31 0 V
860 3531 M
63 0 V
3756 0 R
-63 0 V
stroke
740 3531 M
[ [(Helvetica) 200.0 0.0 true true 0 (10)]
[(Helvetica) 160.0 100.0 true true 0 (0)]
] -86.7 MRshow
1.000 UL
LTb
LCb setrgbcolor
860 640 M
0 63 V
0 2828 R
0 -63 V
stroke
860 440 M
[ [(Helvetica) 200.0 0.0 true true 0 (10)]
[(Helvetica) 160.0 100.0 true true 0 (-3)]
] -86.7 MCshow
1.000 UL
LTb
LCb setrgbcolor
1243 640 M
0 31 V
0 2860 R
0 -31 V
1467 640 M
0 31 V
0 2860 R
0 -31 V
1626 640 M
0 31 V
0 2860 R
0 -31 V
1750 640 M
0 31 V
0 2860 R
0 -31 V
1851 640 M
0 31 V
0 2860 R
0 -31 V
1936 640 M
0 31 V
0 2860 R
0 -31 V
2010 640 M
0 31 V
0 2860 R
0 -31 V
2075 640 M
0 31 V
0 2860 R
0 -31 V
2133 640 M
0 63 V
0 2828 R
0 -63 V
stroke
2133 440 M
[ [(Helvetica) 200.0 0.0 true true 0 (10)]
[(Helvetica) 160.0 100.0 true true 0 (-2)]
] -86.7 MCshow
1.000 UL
LTb
LCb setrgbcolor
2516 640 M
0 31 V
0 2860 R
0 -31 V
2740 640 M
0 31 V
0 2860 R
0 -31 V
2899 640 M
0 31 V
0 2860 R
0 -31 V
3023 640 M
0 31 V
0 2860 R
0 -31 V
3124 640 M
0 31 V
0 2860 R
0 -31 V
3209 640 M
0 31 V
0 2860 R
0 -31 V
3283 640 M
0 31 V
0 2860 R
0 -31 V
3348 640 M
0 31 V
0 2860 R
0 -31 V
3406 640 M
0 63 V
0 2828 R
0 -63 V
stroke
3406 440 M
[ [(Helvetica) 200.0 0.0 true true 0 (10)]
[(Helvetica) 160.0 100.0 true true 0 (-1)]
] -86.7 MCshow
1.000 UL
LTb
LCb setrgbcolor
3789 640 M
0 31 V
0 2860 R
0 -31 V
4013 640 M
0 31 V
0 2860 R
0 -31 V
4172 640 M
0 31 V
0 2860 R
0 -31 V
4296 640 M
0 31 V
0 2860 R
0 -31 V
4397 640 M
0 31 V
0 2860 R
0 -31 V
4482 640 M
0 31 V
0 2860 R
0 -31 V
4556 640 M
0 31 V
0 2860 R
0 -31 V
4621 640 M
0 31 V
0 2860 R
0 -31 V
4679 640 M
0 63 V
0 2828 R
0 -63 V
stroke
4679 440 M
[ [(Helvetica) 200.0 0.0 true true 0 (10)]
[(Helvetica) 160.0 100.0 true true 0 (0)]
] -86.7 MCshow
1.000 UL
LTb
LCb setrgbcolor
1.000 UL
LTb
LCb setrgbcolor
860 3531 N
860 640 L
3819 0 V
0 2891 V
-3819 0 V
Z stroke
0.500 UP
1.000 UL
LTb
LCb setrgbcolor
LCb setrgbcolor
160 2085 M
currentpoint gsave translate -270 rotate 0 0 moveto
[ [(Helvetica) 200.0 0.0 true true 0 (Max inter-thread density)]
] -66.7 MCshow
grestore
LTb
LCb setrgbcolor
2769 140 M
[ [(Helvetica) 200.0 0.0 true true 0 (Intra-thread density)]
] -66.7 MCshow
LTb
% Begin plot #1
0.500 UP
0.500 UL
LTb
0.82 0.11 0.02 C 3400 2754 Pls
3882 2950 Pls
3770 2848 Pls
3722 2957 Pls
3509 2696 Pls
3473 2731 Pls
1733 1880 Pls
2836 2713 Pls
2151 1991 Pls
2398 2552 Pls
3585 2775 Pls
3089 2391 Pls
3755 2894 Pls
4150 3166 Pls
3337 2579 Pls
3932 3061 Pls
2763 2406 Pls
3799 2877 Pls
3426 2611 Pls
1149 2005 Pls
3762 2931 Pls
3426 2738 Pls
3805 2873 Pls
2859 2515 Pls
3809 2971 Pls
3071 2628 Pls
3189 2530 Pls
3921 2968 Pls
3374 2723 Pls
3309 2914 Pls
3035 2688 Pls
3854 3248 Pls
3379 2634 Pls
3877 3084 Pls
4025 3172 Pls
3455 2881 Pls
3352 2845 Pls
3477 2621 Pls
3652 2794 Pls
3041 2776 Pls
3827 2994 Pls
3637 2957 Pls
3698 2947 Pls
3692 2800 Pls
3735 2905 Pls
3770 3015 Pls
3783 3129 Pls
3018 2445 Pls
3543 2882 Pls
3172 2450 Pls
3736 3232 Pls
3321 2591 Pls
4040 3223 Pls
3411 2755 Pls
2228 2238 Pls
3735 2856 Pls
3818 2900 Pls
3588 2764 Pls
4068 3137 Pls
3656 2883 Pls
3153 2539 Pls
3526 2930 Pls
3536 2679 Pls
2862 2338 Pls
3303 2525 Pls
3408 2848 Pls
3424 2692 Pls
3468 2744 Pls
3842 2900 Pls
3492 2715 Pls
3815 2971 Pls
3724 3004 Pls
3029 2958 Pls
3131 2424 Pls
3800 2897 Pls
3194 2479 Pls
3257 2483 Pls
3462 2687 Pls
2511 2345 Pls
3306 2616 Pls
3455 2779 Pls
3566 2867 Pls
3608 2732 Pls
3260 2527 Pls
3689 2822 Pls
3558 2780 Pls
4020 3055 Pls
3386 2686 Pls
3593 2798 Pls
3645 2786 Pls
3132 2462 Pls
3575 2723 Pls
3961 2992 Pls
3312 2537 Pls
3539 2876 Pls
3583 2864 Pls
3354 2716 Pls
2956 2430 Pls
3614 2759 Pls
3936 3020 Pls
3788 3176 Pls
3747 2920 Pls
2874 2278 Pls
3746 2915 Pls
3706 2945 Pls
3469 2667 Pls
3031 2585 Pls
3336 2887 Pls
3528 2668 Pls
3304 2731 Pls
3687 3316 Pls
4057 3130 Pls
3689 3077 Pls
3170 2609 Pls
3361 2551 Pls
3285 2544 Pls
2876 2273 Pls
3657 2808 Pls
3945 2986 Pls
3328 2597 Pls
3926 3022 Pls
3750 2936 Pls
2755 2114 Pls
3253 2752 Pls
3653 2859 Pls
3563 2809 Pls
3651 2821 Pls
2554 2433 Pls
3223 2752 Pls
3609 2786 Pls
3892 2994 Pls
3594 2943 Pls
2971 2390 Pls
3412 2650 Pls
3965 3074 Pls
3411 2635 Pls
3643 2829 Pls
2581 2489 Pls
3968 3132 Pls
3637 2852 Pls
3614 2746 Pls
3601 2715 Pls
3908 3082 Pls
3666 3145 Pls
3162 2402 Pls
3883 2941 Pls
3654 2963 Pls
2942 2672 Pls
3475 2909 Pls
3553 2682 Pls
3531 3090 Pls
3357 2660 Pls
4120 3392 Pls
3373 2792 Pls
3669 2823 Pls
3948 3045 Pls
3682 2841 Pls
4184 3230 Pls
3219 2532 Pls
3385 3023 Pls
3608 2828 Pls
3841 2905 Pls
3990 3191 Pls
2973 2783 Pls
3447 2737 Pls
4033 3046 Pls
3730 2835 Pls
3814 2927 Pls
3835 2947 Pls
3659 2861 Pls
4127 3230 Pls
3439 3240 Pls
3675 2774 Pls
3151 2487 Pls
3779 2991 Pls
3312 2677 Pls
3728 2935 Pls
3813 3038 Pls
3632 2770 Pls
3126 2530 Pls
3949 3060 Pls
2979 2698 Pls
3802 2968 Pls
4010 3091 Pls
4148 3215 Pls
3587 2878 Pls
3731 2895 Pls
3617 2887 Pls
3087 2527 Pls
3497 2672 Pls
3504 2952 Pls
3609 2963 Pls
3809 2876 Pls
3767 3009 Pls
3780 3194 Pls
3416 2721 Pls
3864 2924 Pls
3937 2979 Pls
3440 3007 Pls
3339 2551 Pls
2867 2657 Pls
3755 2909 Pls
3863 3031 Pls
3407 2710 Pls
3969 3028 Pls
2625 2400 Pls
4092 3226 Pls
4017 3146 Pls
3022 2287 Pls
3375 2645 Pls
3509 2876 Pls
3410 2586 Pls
3218 2539 Pls
3897 3132 Pls
3521 2806 Pls
3670 2910 Pls
2996 2357 Pls
4210 3232 Pls
3216 2686 Pls
3556 3180 Pls
2962 2511 Pls
3745 2882 Pls
3579 2718 Pls
3890 3147 Pls
3484 2881 Pls
3341 2640 Pls
3690 2827 Pls
3406 2617 Pls
3358 2744 Pls
3213 2520 Pls
3857 2927 Pls
3515 2751 Pls
3352 2580 Pls
3370 3032 Pls
3946 3047 Pls
3894 2985 Pls
3677 2828 Pls
2655 2634 Pls
4158 3231 Pls
3750 3232 Pls
3900 3032 Pls
3552 2805 Pls
3550 2827 Pls
3672 2823 Pls
4044 3057 Pls
3574 2734 Pls
3174 2898 Pls
2945 2666 Pls
3215 2717 Pls
3732 2885 Pls
3314 2628 Pls
3393 2703 Pls
3739 3006 Pls
4007 3066 Pls
3907 3023 Pls
3482 2669 Pls
3947 3042 Pls
3422 2613 Pls
3811 2899 Pls
3620 2810 Pls
1920 2207 Pls
3461 2745 Pls
3567 2766 Pls
3774 2935 Pls
3536 3000 Pls
3393 2733 Pls
3722 2813 Pls
3818 2994 Pls
3700 2831 Pls
3621 2892 Pls
4027 3076 Pls
3390 2605 Pls
3907 2960 Pls
3885 3126 Pls
3698 2854 Pls
3546 2741 Pls
3460 2669 Pls
3104 2358 Pls
3587 2760 Pls
3318 2787 Pls
3701 2835 Pls
2499 2075 Pls
3772 2902 Pls
3966 3075 Pls
3505 2817 Pls
3927 2962 Pls
3615 2757 Pls
2504 2380 Pls
3710 3004 Pls
3833 3012 Pls
3596 2792 Pls
3545 2945 Pls
2197 2299 Pls
3852 2933 Pls
3611 3093 Pls
3845 2929 Pls
3498 2716 Pls
3638 2774 Pls
3231 2623 Pls
3334 2546 Pls
3630 2879 Pls
3607 2799 Pls
4062 3213 Pls
3710 3213 Pls
3670 2855 Pls
3655 2829 Pls
3126 2563 Pls
3869 2982 Pls
4130 3460 Pls
4395 3316 Pls
3445 3036 Pls
3974 3048 Pls
4064 3457 Pls
3322 2541 Pls
3443 2660 Pls
4069 3134 Pls
3304 2655 Pls
3858 2945 Pls
3564 2702 Pls
3909 2956 Pls
3613 2877 Pls
3513 2874 Pls
3083 2338 Pls
3493 2661 Pls
4014 3088 Pls
3337 2675 Pls
3333 2649 Pls
3458 2773 Pls
3498 2941 Pls
3530 2703 Pls
2809 2271 Pls
3490 2655 Pls
2844 2348 Pls
3534 2948 Pls
3859 3021 Pls
3690 2800 Pls
3547 2821 Pls
4244 3460 Pls
3907 3009 Pls
4127 3124 Pls
3853 2911 Pls
3706 2858 Pls
3344 2625 Pls
3799 2973 Pls
2850 2328 Pls
3772 2866 Pls
3772 3430 Pls
3648 2770 Pls
3538 2960 Pls
3805 2915 Pls
2140 2592 Pls
3037 2921 Pls
3779 2948 Pls
3011 2301 Pls
3679 2816 Pls
3150 2558 Pls
3653 2950 Pls
3420 2643 Pls
3367 2564 Pls
3533 2709 Pls
3327 2552 Pls
3410 2627 Pls
3308 2578 Pls
3634 2762 Pls
3437 2696 Pls
3338 2805 Pls
3596 2798 Pls
3298 2538 Pls
3671 2796 Pls
3625 2782 Pls
3789 2916 Pls
4166 3196 Pls
3819 2930 Pls
3373 2720 Pls
3441 2826 Pls
3741 2822 Pls
3870 3093 Pls
3326 2606 Pls
3651 2827 Pls
3231 2639 Pls
3363 2561 Pls
3458 2857 Pls
3833 2944 Pls
3762 2881 Pls
3601 2739 Pls
3628 2798 Pls
3639 3020 Pls
3171 2560 Pls
3504 2718 Pls
3883 2976 Pls
3331 2641 Pls
3212 2496 Pls
3586 2738 Pls
3497 2716 Pls
3998 3120 Pls
2331 2716 Pls
3494 2678 Pls
3167 2752 Pls
3965 3125 Pls
3031 2385 Pls
3651 2860 Pls
3922 3031 Pls
3430 2770 Pls
3265 2691 Pls
3796 2960 Pls
3427 2797 Pls
3178 2708 Pls
3565 3192 Pls
4077 3096 Pls
4231 3211 Pls
2769 2286 Pls
3590 3085 Pls
3705 2931 Pls
3741 3106 Pls
2860 2716 Pls
3526 2726 Pls
2990 2542 Pls
3144 2419 Pls
3622 2782 Pls
3694 2842 Pls
4116 3117 Pls
3993 3037 Pls
3748 2986 Pls
3797 2881 Pls
4100 3097 Pls
3245 2521 Pls
3615 2847 Pls
3513 2690 Pls
3193 2914 Pls
4119 3190 Pls
2927 2417 Pls
3722 2902 Pls
3694 2813 Pls
3095 2392 Pls
3348 2806 Pls
2963 2244 Pls
3776 2937 Pls
3987 3077 Pls
2131 2076 Pls
3636 2779 Pls
3922 2979 Pls
2909 2751 Pls
3154 2463 Pls
3918 2966 Pls
3668 2901 Pls
3244 3003 Pls
3562 2859 Pls
3412 2655 Pls
3895 2991 Pls
3603 2744 Pls
2161 1948 Pls
3442 2729 Pls
3495 2658 Pls
3730 2894 Pls
3098 2710 Pls
3447 2792 Pls
3220 2909 Pls
3602 3133 Pls
3637 2995 Pls
4108 3148 Pls
2947 2938 Pls
3522 2999 Pls
3423 3099 Pls
2496 2541 Pls
3846 2980 Pls
3702 3122 Pls
3891 3055 Pls
3467 2966 Pls
3715 2885 Pls
2507 2406 Pls
3246 2552 Pls
3508 2669 Pls
3901 3079 Pls
3379 2566 Pls
3842 2968 Pls
3284 2484 Pls
3610 2747 Pls
2560 2104 Pls
3701 2837 Pls
3676 2851 Pls
4126 3316 Pls
3417 2789 Pls
3572 2853 Pls
3713 2811 Pls
3735 3280 Pls
3095 2440 Pls
3102 2503 Pls
3511 2703 Pls
3779 3036 Pls
3645 2859 Pls
3412 2757 Pls
3576 2702 Pls
3499 2679 Pls
3857 3103 Pls
4171 3192 Pls
3660 2827 Pls
3674 2814 Pls
3430 2657 Pls
3775 3212 Pls
3727 2855 Pls
3604 3111 Pls
3876 2930 Pls
3772 3028 Pls
3809 3101 Pls
3566 2692 Pls
2906 2274 Pls
3552 2794 Pls
3594 2738 Pls
3775 2886 Pls
3979 3026 Pls
2518 2657 Pls
3798 3050 Pls
3960 3293 Pls
3595 2881 Pls
3761 3007 Pls
3862 3210 Pls
3203 2618 Pls
3780 2945 Pls
3714 2829 Pls
3282 2730 Pls
4124 3114 Pls
3980 3007 Pls
2611 2325 Pls
3787 3248 Pls
3739 2943 Pls
3611 2767 Pls
3602 2828 Pls
3641 2768 Pls
3294 2786 Pls
3954 3079 Pls
3121 2492 Pls
3783 3102 Pls
3333 2625 Pls
3054 2343 Pls
3777 2924 Pls
3720 2880 Pls
3889 2962 Pls
3152 2444 Pls
3209 2649 Pls
3958 2995 Pls
3155 2558 Pls
3774 2941 Pls
3591 3071 Pls
3451 2849 Pls
3348 2875 Pls
3471 2996 Pls
3876 3024 Pls
3221 2531 Pls
3490 2705 Pls
3891 2964 Pls
4113 3165 Pls
3234 2565 Pls
4059 3197 Pls
4246 3231 Pls
2768 2395 Pls
3512 2671 Pls
3930 2982 Pls
3808 2974 Pls
3995 3084 Pls
3871 2954 Pls
3325 2560 Pls
3780 3031 Pls
3774 2938 Pls
3491 2645 Pls
2710 2183 Pls
3637 2841 Pls
2843 2326 Pls
2918 2415 Pls
3441 2683 Pls
4089 3089 Pls
3561 2686 Pls
3694 2803 Pls
3388 2689 Pls
3340 2761 Pls
3485 2843 Pls
3493 2737 Pls
3607 2936 Pls
3215 2524 Pls
2218 2301 Pls
3704 3130 Pls
3903 3002 Pls
3522 2758 Pls
3857 2941 Pls
3344 3009 Pls
3945 3215 Pls
3665 2883 Pls
3498 2691 Pls
3793 2882 Pls
3293 2677 Pls
3441 2676 Pls
3333 2551 Pls
2863 2174 Pls
3885 3062 Pls
3995 3130 Pls
3434 2645 Pls
3663 2806 Pls
3316 2941 Pls
3556 2813 Pls
3929 3011 Pls
3856 3245 Pls
3292 2501 Pls
3316 2550 Pls
2888 2307 Pls
3523 2865 Pls
3312 2658 Pls
3685 3086 Pls
3493 2742 Pls
3572 2750 Pls
3680 2819 Pls
3889 2988 Pls
3790 2913 Pls
2974 2886 Pls
3266 2478 Pls
3665 2789 Pls
% End plot #1
% Begin plot #2
0.500 UP
0.500 UL
LTb
0.73 0.85 0.33 C 4422 2819 Crs
4037 2809 Crs
4679 2953 Crs
3925 2760 Crs
3967 2335 Crs
4091 2414 Crs
4101 2826 Crs
3768 2741 Crs
3842 2685 Crs
3991 2347 Crs
3761 2690 Crs
3577 2145 Crs
4146 2947 Crs
4454 2920 Crs
3926 2751 Crs
4173 3035 Crs
3879 2516 Crs
4272 2778 Crs
3853 2887 Crs
3911 2839 Crs
3724 2719 Crs
3632 2657 Crs
4128 2924 Crs
3942 2712 Crs
3750 2452 Crs
3576 2218 Crs
3933 2962 Crs
3695 2497 Crs
4052 2695 Crs
3525 2545 Crs
4375 2600 Crs
3788 2646 Crs
4271 2845 Crs
3888 2462 Crs
4252 2929 Crs
3710 2638 Crs
3898 2715 Crs
3910 2838 Crs
3960 2394 Crs
3997 2879 Crs
3956 2911 Crs
3406 2522 Crs
4000 2593 Crs
4142 2869 Crs
3822 2415 Crs
3532 2622 Crs
3639 2725 Crs
4284 2989 Crs
3881 2772 Crs
4073 3004 Crs
3927 2482 Crs
4092 2869 Crs
3888 2743 Crs
3908 2442 Crs
3906 2617 Crs
4129 2698 Crs
3677 2390 Crs
3338 2482 Crs
3703 2728 Crs
4122 2507 Crs
3972 2434 Crs
3977 2916 Crs
4267 2804 Crs
3712 2259 Crs
3826 2511 Crs
4248 2940 Crs
4429 2782 Crs
3961 2619 Crs
4129 2661 Crs
3594 2343 Crs
3523 2495 Crs
3520 2517 Crs
3540 2436 Crs
3645 2665 Crs
3845 2492 Crs
3850 2813 Crs
3931 2734 Crs
3937 2862 Crs
4291 2731 Crs
4139 2602 Crs
3879 2620 Crs
4027 3032 Crs
3374 2245 Crs
4176 2467 Crs
4333 2541 Crs
3320 2442 Crs
3686 2524 Crs
3770 2685 Crs
3486 2426 Crs
3928 2590 Crs
4027 2885 Crs
3760 2835 Crs
4585 2989 Crs
3822 2841 Crs
4254 2817 Crs
3418 2210 Crs
3886 2795 Crs
4266 2670 Crs
3808 2819 Crs
4219 2793 Crs
3608 2494 Crs
3390 2525 Crs
3861 2483 Crs
3796 2622 Crs
4013 2624 Crs
3324 2185 Crs
4034 2973 Crs
3938 2748 Crs
4152 2900 Crs
4003 2452 Crs
3658 2662 Crs
3924 2886 Crs
3389 2517 Crs
3976 2513 Crs
3894 2663 Crs
3901 2728 Crs
3946 2757 Crs
3375 2472 Crs
4379 2991 Crs
4437 3044 Crs
4007 2542 Crs
3558 2230 Crs
3440 2315 Crs
3802 2571 Crs
3641 2719 Crs
3584 2406 Crs
4198 2613 Crs
4012 2613 Crs
3750 2686 Crs
3717 2612 Crs
3443 2390 Crs
3947 2495 Crs
4679 3108 Crs
4219 2927 Crs
4065 2699 Crs
4196 3027 Crs
4167 2636 Crs
3664 2731 Crs
3735 2051 Crs
3812 2778 Crs
3940 2626 Crs
3970 2754 Crs
4012 2887 Crs
3877 2746 Crs
4004 2806 Crs
4095 3063 Crs
4136 2227 Crs
4214 2834 Crs
3808 2639 Crs
3748 2630 Crs
3695 2549 Crs
3981 2851 Crs
3516 2363 Crs
4158 2426 Crs
4094 2839 Crs
4039 2672 Crs
3834 2278 Crs
3964 2807 Crs
3694 2532 Crs
3870 2688 Crs
3807 2836 Crs
4526 3254 Crs
3757 2381 Crs
4104 2477 Crs
3919 2829 Crs
4047 2472 Crs
3818 2467 Crs
4069 2813 Crs
4168 2978 Crs
4016 2547 Crs
3851 2524 Crs
4309 2852 Crs
3807 2682 Crs
3748 2509 Crs
4205 3127 Crs
3793 2528 Crs
3424 2260 Crs
3691 2408 Crs
4042 2529 Crs
3587 2309 Crs
4266 2723 Crs
3539 2339 Crs
4355 2914 Crs
3279 2328 Crs
3206 2279 Crs
3814 2521 Crs
3814 2738 Crs
3900 2459 Crs
3610 2081 Crs
3247 2269 Crs
4124 2820 Crs
4040 2688 Crs
3960 2784 Crs
3464 2178 Crs
3875 2765 Crs
4077 2540 Crs
4287 2910 Crs
3908 2708 Crs
3936 2939 Crs
4002 2763 Crs
3965 2694 Crs
3910 2690 Crs
4160 2896 Crs
3884 2488 Crs
3692 2526 Crs
4255 2796 Crs
4065 2622 Crs
3982 2945 Crs
4039 2498 Crs
3585 2659 Crs
4295 2580 Crs
4233 2602 Crs
3699 2721 Crs
4121 2650 Crs
4290 2359 Crs
4124 2887 Crs
4152 2633 Crs
3977 2926 Crs
3945 2664 Crs
3879 2584 Crs
3780 2342 Crs
3780 2595 Crs
4381 2965 Crs
4248 2903 Crs
4245 2632 Crs
4071 2515 Crs
3726 2795 Crs
3866 2202 Crs
3845 2896 Crs
3521 2434 Crs
3815 2318 Crs
4053 2860 Crs
3497 2594 Crs
4272 3017 Crs
3451 2420 Crs
3831 2420 Crs
3898 2538 Crs
3572 2600 Crs
4148 2980 Crs
3841 2735 Crs
3978 2789 Crs
3882 2677 Crs
4077 2686 Crs
3890 2838 Crs
4278 2549 Crs
4215 2801 Crs
3918 2794 Crs
3718 2794 Crs
4047 2465 Crs
3805 2515 Crs
4099 2693 Crs
3671 2501 Crs
3887 2779 Crs
3866 2754 Crs
3902 2559 Crs
4116 2752 Crs
3714 2384 Crs
3871 2539 Crs
3728 2728 Crs
4437 2328 Crs
3201 1972 Crs
4014 2815 Crs
4017 2881 Crs
3408 2402 Crs
3687 2547 Crs
3914 2907 Crs
3401 2069 Crs
3768 2713 Crs
4212 2966 Crs
3892 2836 Crs
3729 2640 Crs
4170 2623 Crs
3911 2392 Crs
4162 2730 Crs
3593 2644 Crs
4155 3037 Crs
3629 2510 Crs
3840 2611 Crs
4450 2762 Crs
3939 2434 Crs
4190 2458 Crs
3791 2588 Crs
4448 3162 Crs
4127 2653 Crs
4154 2813 Crs
3490 2543 Crs
4124 2875 Crs
3849 2653 Crs
3671 2756 Crs
4008 2658 Crs
4266 2829 Crs
3902 2618 Crs
3841 2457 Crs
4177 2809 Crs
3674 2319 Crs
3353 2390 Crs
4070 2487 Crs
3653 2284 Crs
3992 2941 Crs
4109 2850 Crs
4378 2774 Crs
3771 2611 Crs
3830 2520 Crs
3941 2835 Crs
3559 2555 Crs
3751 2498 Crs
3960 2341 Crs
3921 2777 Crs
3851 2828 Crs
4232 3185 Crs
3507 2420 Crs
3847 2426 Crs
4186 2769 Crs
4007 2730 Crs
3902 2711 Crs
3500 2524 Crs
3725 2613 Crs
3760 2608 Crs
4127 2688 Crs
3752 2782 Crs
3763 2838 Crs
4468 2936 Crs
4180 2831 Crs
4412 3103 Crs
3958 2460 Crs
3909 2518 Crs
3755 2549 Crs
4053 2690 Crs
4027 2631 Crs
3699 2783 Crs
3996 2536 Crs
4265 2558 Crs
3814 2659 Crs
3513 2386 Crs
4404 2723 Crs
3728 2514 Crs
4055 2856 Crs
4019 2923 Crs
3649 2600 Crs
4125 2965 Crs
3710 2440 Crs
4064 2759 Crs
3905 2600 Crs
3525 2531 Crs
4116 2753 Crs
4225 3123 Crs
4015 2740 Crs
4099 2543 Crs
4231 2940 Crs
3946 2583 Crs
3911 2519 Crs
3929 2729 Crs
3888 2750 Crs
4030 2468 Crs
3833 2692 Crs
3772 2791 Crs
3553 2326 Crs
4156 2915 Crs
3726 2664 Crs
4081 2566 Crs
4054 2742 Crs
3842 2681 Crs
3886 2830 Crs
3704 2634 Crs
3765 2074 Crs
3947 2611 Crs
4065 2553 Crs
3775 2459 Crs
4268 2910 Crs
3860 2550 Crs
3771 2227 Crs
4115 2594 Crs
3478 2533 Crs
3590 2693 Crs
3855 2746 Crs
3846 2453 Crs
3663 2510 Crs
4059 2770 Crs
3932 2901 Crs
4034 2854 Crs
4043 2741 Crs
3639 2619 Crs
4419 2585 Crs
4268 2718 Crs
3873 2759 Crs
4037 2378 Crs
3967 2899 Crs
4134 2712 Crs
3884 2734 Crs
4137 2630 Crs
3971 2678 Crs
3933 2415 Crs
4655 3047 Crs
4009 2764 Crs
3633 2533 Crs
4317 3069 Crs
4111 3004 Crs
3959 2552 Crs
4133 2807 Crs
3881 2646 Crs
3776 2643 Crs
3997 2754 Crs
3703 2762 Crs
3858 2670 Crs
3963 2719 Crs
4401 2525 Crs
3658 2560 Crs
3864 2857 Crs
4358 2835 Crs
4109 2336 Crs
4043 2675 Crs
4238 2915 Crs
4253 2479 Crs
3904 2300 Crs
4266 2668 Crs
3422 2396 Crs
4144 2537 Crs
3694 2597 Crs
3925 2533 Crs
3867 2660 Crs
3547 2440 Crs
4143 2724 Crs
3570 2603 Crs
4350 2935 Crs
4223 2572 Crs
3978 2640 Crs
4520 2909 Crs
4073 2733 Crs
3959 2704 Crs
3457 2364 Crs
3570 2473 Crs
3632 2521 Crs
3471 2608 Crs
4083 2941 Crs
3958 2705 Crs
3788 2425 Crs
3848 2800 Crs
3707 2465 Crs
3852 2483 Crs
4451 3069 Crs
3899 2759 Crs
3637 2345 Crs
4224 2579 Crs
3714 2785 Crs
3835 2438 Crs
4256 2906 Crs
4393 2381 Crs
4021 2860 Crs
4266 2685 Crs
3733 2752 Crs
4114 2711 Crs
3568 2682 Crs
4345 2938 Crs
3378 2524 Crs
3407 2125 Crs
3917 2497 Crs
3782 2539 Crs
3944 2771 Crs
4047 2862 Crs
4258 3138 Crs
3576 2453 Crs
3583 2667 Crs
4166 2522 Crs
4068 2395 Crs
4061 2783 Crs
4137 2722 Crs
3983 2759 Crs
4062 2660 Crs
4042 2874 Crs
3760 2672 Crs
3932 2810 Crs
4143 2681 Crs
3785 2560 Crs
4024 2539 Crs
4381 2713 Crs
3764 2748 Crs
3815 2470 Crs
3572 2590 Crs
4281 2617 Crs
3985 2641 Crs
4269 2436 Crs
4133 3013 Crs
3660 2534 Crs
3991 2960 Crs
4191 2758 Crs
3737 2612 Crs
4134 2853 Crs
3947 2483 Crs
3735 2777 Crs
3944 2390 Crs
4418 2717 Crs
3563 2556 Crs
4248 2915 Crs
4095 2871 Crs
4177 2578 Crs
4042 2184 Crs
4212 2463 Crs
3999 2482 Crs
3474 2554 Crs
4185 2845 Crs
3811 2701 Crs
4305 2882 Crs
3778 2656 Crs
3873 2493 Crs
3441 2549 Crs
3878 2760 Crs
4108 2691 Crs
4204 2578 Crs
4075 2436 Crs
4112 2635 Crs
3737 2800 Crs
3716 2578 Crs
3915 2264 Crs
3942 2724 Crs
4105 2609 Crs
4056 2760 Crs
3609 2490 Crs
3847 2708 Crs
3805 2759 Crs
4177 2566 Crs
3990 2727 Crs
4000 2610 Crs
3722 2728 Crs
4013 2592 Crs
4052 2886 Crs
3582 2573 Crs
4199 2752 Crs
4250 2993 Crs
3798 2258 Crs
3851 2551 Crs
4354 2976 Crs
3830 2660 Crs
3933 2546 Crs
3656 2611 Crs
4260 2889 Crs
3431 2469 Crs
3932 2743 Crs
3781 2508 Crs
4438 2831 Crs
3667 2391 Crs
4125 2897 Crs
3309 2332 Crs
3880 2661 Crs
3726 2796 Crs
3649 2637 Crs
3803 2624 Crs
4058 2713 Crs
3992 2887 Crs
3715 2758 Crs
3701 2361 Crs
3909 2807 Crs
4156 2772 Crs
3768 2547 Crs
4074 2542 Crs
3590 2478 Crs
4132 2931 Crs
4154 3010 Crs
3945 2906 Crs
3921 2579 Crs
4245 2935 Crs
4428 2820 Crs
4152 2956 Crs
3858 2682 Crs
3850 2705 Crs
3881 2577 Crs
3420 2308 Crs
4011 2797 Crs
4249 2893 Crs
4213 2803 Crs
3899 2841 Crs
4112 2810 Crs
4142 2965 Crs
4258 2695 Crs
4077 2796 Crs
3719 2510 Crs
3958 2751 Crs
3544 2594 Crs
3705 2445 Crs
4067 2892 Crs
3567 2527 Crs
4100 3074 Crs
3580 2080 Crs
4034 2804 Crs
4427 3112 Crs
4154 3074 Crs
3991 2567 Crs
4122 2954 Crs
3261 2158 Crs
4349 2600 Crs
3556 2317 Crs
3849 2355 Crs
4158 2875 Crs
4041 3032 Crs
4039 2627 Crs
4087 2720 Crs
3286 2052 Crs
3895 2754 Crs
3774 2158 Crs
3888 2883 Crs
3586 2632 Crs
4162 2992 Crs
4107 2829 Crs
3766 2501 Crs
4015 2564 Crs
4580 2890 Crs
3560 2215 Crs
3894 2892 Crs
4239 2896 Crs
4033 2637 Crs
4169 2679 Crs
3803 2613 Crs
3932 2641 Crs
4280 2785 Crs
4156 2863 Crs
4099 2578 Crs
3807 2674 Crs
3652 2615 Crs
3925 2912 Crs
3959 2597 Crs
4304 2979 Crs
4008 2731 Crs
3932 2571 Crs
4165 2729 Crs
3978 2646 Crs
3862 2894 Crs
3631 2386 Crs
4114 3075 Crs
3909 2860 Crs
4040 2855 Crs
3954 2716 Crs
3911 2533 Crs
4038 2633 Crs
3889 2500 Crs
3974 2735 Crs
4045 2893 Crs
4137 2878 Crs
4133 2474 Crs
3435 2168 Crs
3815 2749 Crs
3875 2685 Crs
4237 2891 Crs
3859 2412 Crs
4211 2786 Crs
3822 2563 Crs
3824 2647 Crs
3955 2711 Crs
4090 2445 Crs
4001 2631 Crs
4033 2724 Crs
3709 2229 Crs
3715 2427 Crs
3898 2407 Crs
4085 2571 Crs
4174 2905 Crs
4117 2986 Crs
3648 2618 Crs
3762 2566 Crs
3867 2370 Crs
4058 2506 Crs
3527 2423 Crs
4071 2955 Crs
4079 2580 Crs
3754 2711 Crs
3814 2371 Crs
3949 2814 Crs
4177 2968 Crs
3892 2688 Crs
4067 2569 Crs
3663 2578 Crs
4028 2692 Crs
3945 2953 Crs
4393 3061 Crs
3672 2166 Crs
4015 2634 Crs
4049 2739 Crs
3928 2585 Crs
4024 2799 Crs
3825 2380 Crs
3730 2780 Crs
4310 2729 Crs
3726 2517 Crs
4030 2918 Crs
4405 3146 Crs
4132 2625 Crs
4149 2556 Crs
4241 2768 Crs
4265 2494 Crs
4679 3006 Crs
3741 2621 Crs
4441 2597 Crs
3902 2779 Crs
3660 2702 Crs
3993 2426 Crs
3913 2650 Crs
3771 2631 Crs
4058 2767 Crs
4138 2906 Crs
4151 2673 Crs
4166 3138 Crs
3393 2271 Crs
4085 2902 Crs
3765 2508 Crs
3986 2645 Crs
3878 2650 Crs
3872 2827 Crs
4123 2420 Crs
3943 2611 Crs
4097 2914 Crs
3864 2857 Crs
3764 2391 Crs
3729 2342 Crs
3949 2500 Crs
4217 2583 Crs
4150 2580 Crs
4436 2899 Crs
3558 2394 Crs
4040 2810 Crs
4023 2936 Crs
4016 2444 Crs
3841 2476 Crs
4266 2778 Crs
4246 2899 Crs
4187 2914 Crs
3685 2291 Crs
3941 2892 Crs
3932 2619 Crs
4240 2399 Crs
3721 2632 Crs
4126 2818 Crs
3486 2467 Crs
3365 2484 Crs
4422 2673 Crs
3917 2840 Crs
3660 2737 Crs
3827 2776 Crs
3873 2351 Crs
4331 2733 Crs
3899 2799 Crs
4040 2415 Crs
4512 2725 Crs
3650 2525 Crs
4280 2582 Crs
4068 2787 Crs
3885 2609 Crs
3931 2759 Crs
3571 2284 Crs
3802 2512 Crs
3695 2243 Crs
3743 2717 Crs
3787 2739 Crs
4427 2565 Crs
4108 2416 Crs
4338 3016 Crs
3333 2437 Crs
3724 2702 Crs
4267 2879 Crs
4248 2377 Crs
3925 2582 Crs
3758 2599 Crs
4523 2832 Crs
3893 2839 Crs
4016 2757 Crs
3895 2485 Crs
4046 2832 Crs
3818 2493 Crs
4089 2898 Crs
4144 2704 Crs
4135 2597 Crs
3647 2650 Crs
3581 2642 Crs
3352 2406 Crs
3948 2700 Crs
3586 2570 Crs
4124 2952 Crs
4030 2887 Crs
4056 2442 Crs
4021 2777 Crs
3979 2628 Crs
3879 2878 Crs
3870 2259 Crs
4027 2454 Crs
4043 2699 Crs
4049 2517 Crs
4031 2566 Crs
4145 2769 Crs
3779 2412 Crs
3800 2521 Crs
4151 2766 Crs
3950 2742 Crs
4000 2527 Crs
4029 3024 Crs
3499 2621 Crs
4116 2507 Crs
3727 2582 Crs
4046 2789 Crs
3817 2831 Crs
3678 2631 Crs
3487 2384 Crs
3475 2326 Crs
3792 2287 Crs
4136 2732 Crs
4042 2401 Crs
3800 2727 Crs
4021 2680 Crs
3950 2594 Crs
4034 2855 Crs
4298 2863 Crs
3884 2427 Crs
3994 2977 Crs
4043 2937 Crs
4023 2746 Crs
3805 2547 Crs
3920 2620 Crs
3853 2661 Crs
4003 2769 Crs
4277 2870 Crs
4019 2722 Crs
4126 2464 Crs
4231 3029 Crs
4094 2360 Crs
4063 2654 Crs
3756 2672 Crs
3747 2724 Crs
4253 2800 Crs
3774 2624 Crs
3844 2565 Crs
3687 2738 Crs
3638 2550 Crs
4093 2545 Crs
4186 2887 Crs
4366 2785 Crs
4177 2644 Crs
3683 2370 Crs
3801 2696 Crs
3750 2417 Crs
3917 2911 Crs
3477 2296 Crs
3890 2786 Crs
4173 2923 Crs
3869 2699 Crs
3937 2355 Crs
4040 3007 Crs
3849 2874 Crs
4124 2906 Crs
3834 2691 Crs
3806 2750 Crs
3872 2743 Crs
4035 2876 Crs
4124 2866 Crs
3969 2660 Crs
4042 2379 Crs
3965 2483 Crs
3820 2465 Crs
3703 2733 Crs
3494 2499 Crs
3916 2689 Crs
4103 2757 Crs
4079 2789 Crs
4095 2658 Crs
3958 2707 Crs
3582 2421 Crs
3814 2637 Crs
4008 2747 Crs
3767 2269 Crs
3795 2334 Crs
3799 2379 Crs
3849 2664 Crs
3942 2664 Crs
3946 2402 Crs
4119 2701 Crs
3802 2445 Crs
3482 2441 Crs
3667 2759 Crs
3808 2571 Crs
3121 2077 Crs
3964 2704 Crs
4442 2464 Crs
3820 2545 Crs
3825 2332 Crs
3721 2470 Crs
3943 2592 Crs
3790 2750 Crs
3994 2618 Crs
3687 2580 Crs
3498 2178 Crs
3782 2629 Crs
4077 2981 Crs
4001 2668 Crs
3613 2551 Crs
3842 2850 Crs
3676 2662 Crs
3685 2309 Crs
3982 2657 Crs
3826 2569 Crs
3978 2746 Crs
4016 2803 Crs
3933 2646 Crs
3964 2615 Crs
4008 2731 Crs
4033 2570 Crs
3906 2518 Crs
3914 2616 Crs
3844 2784 Crs
3907 2315 Crs
4014 2765 Crs
4679 3020 Crs
3823 2777 Crs
3906 2402 Crs
4383 2908 Crs
3694 2583 Crs
3706 2534 Crs
3659 2205 Crs
4138 2671 Crs
3801 2791 Crs
4245 2476 Crs
3647 2588 Crs
3709 2276 Crs
3720 2498 Crs
4051 2822 Crs
4034 2888 Crs
4105 3044 Crs
3898 2584 Crs
3893 2716 Crs
3575 2380 Crs
3938 2611 Crs
3998 2648 Crs
4015 2796 Crs
3754 2489 Crs
4048 2408 Crs
3898 2740 Crs
4099 2860 Crs
3768 2690 Crs
3865 2305 Crs
4202 2964 Crs
3765 2657 Crs
4063 2760 Crs
4047 2633 Crs
3794 2764 Crs
3675 2725 Crs
4039 2906 Crs
4108 3039 Crs
4187 2837 Crs
4282 2909 Crs
3868 2663 Crs
4045 2703 Crs
3943 2917 Crs
4267 2746 Crs
3599 2458 Crs
3666 2567 Crs
4436 2680 Crs
3962 2374 Crs
3713 2459 Crs
4061 2648 Crs
4007 2784 Crs
4069 2542 Crs
4106 3016 Crs
4237 2768 Crs
3639 2644 Crs
4119 2643 Crs
3873 2798 Crs
3370 2447 Crs
4040 2619 Crs
4050 2976 Crs
3412 2196 Crs
3986 2710 Crs
3895 2734 Crs
4408 2989 Crs
3652 2196 Crs
4017 2402 Crs
4011 2362 Crs
3796 2485 Crs
3011 2176 Crs
3945 2672 Crs
3961 2816 Crs
3910 2844 Crs
4034 2648 Crs
3706 2698 Crs
3933 2109 Crs
3891 2652 Crs
4257 2704 Crs
4272 2850 Crs
3765 2302 Crs
3870 2726 Crs
3578 2380 Crs
4312 3040 Crs
4001 2831 Crs
3959 2740 Crs
4429 2854 Crs
3713 2527 Crs
3950 2617 Crs
4379 2790 Crs
4430 2700 Crs
4382 3044 Crs
4037 2583 Crs
3892 2450 Crs
3674 2486 Crs
4280 2744 Crs
4083 2698 Crs
3836 2471 Crs
3757 2695 Crs
4032 2924 Crs
3941 2916 Crs
3642 2561 Crs
3943 2459 Crs
3914 2875 Crs
3478 2235 Crs
3955 2699 Crs
4104 2840 Crs
4576 2731 Crs
4118 2572 Crs
3682 2774 Crs
4337 2375 Crs
4635 2799 Crs
4112 2684 Crs
3933 2599 Crs
3629 2659 Crs
4334 2780 Crs
4093 2559 Crs
3957 2602 Crs
3584 2162 Crs
3680 2681 Crs
3710 2607 Crs
3752 2716 Crs
4070 2747 Crs
4138 2573 Crs
3914 2627 Crs
4109 2638 Crs
4030 2988 Crs
3901 2590 Crs
4247 2907 Crs
3982 2736 Crs
3758 2440 Crs
4032 2773 Crs
3709 2712 Crs
3896 2808 Crs
4441 2665 Crs
3427 2495 Crs
3687 2599 Crs
4097 3073 Crs
3520 2323 Crs
3937 2812 Crs
3974 2567 Crs
3888 2845 Crs
4137 3058 Crs
3629 2636 Crs
4422 3092 Crs
3851 2584 Crs
4097 2627 Crs
4131 2579 Crs
3464 2560 Crs
4060 2751 Crs
3223 2373 Crs
3659 2529 Crs
3936 2631 Crs
3809 2690 Crs
3903 2692 Crs
3730 2519 Crs
3516 2501 Crs
3643 2434 Crs
4045 2861 Crs
3959 2776 Crs
3852 2549 Crs
4024 2700 Crs
3941 2740 Crs
3461 2306 Crs
3648 2433 Crs
3961 2689 Crs
3894 2758 Crs
4127 2692 Crs
4044 2767 Crs
3391 2483 Crs
4080 2968 Crs
4313 2994 Crs
4043 2825 Crs
3626 2572 Crs
4339 3023 Crs
4364 3058 Crs
3976 2675 Crs
4030 2593 Crs
3898 2762 Crs
3540 2247 Crs
4431 2950 Crs
3802 2631 Crs
3819 2791 Crs
4081 2933 Crs
4234 2021 Crs
3800 2514 Crs
3641 2185 Crs
4268 2865 Crs
4261 2478 Crs
3725 2723 Crs
4003 2472 Crs
3865 2411 Crs
3756 2633 Crs
4350 2690 Crs
3966 2783 Crs
3887 2648 Crs
4061 2655 Crs
3981 2967 Crs
3547 2560 Crs
3994 2910 Crs
3834 2637 Crs
3696 2738 Crs
3456 2421 Crs
4113 2645 Crs
4362 3026 Crs
3681 2657 Crs
4011 2828 Crs
3633 2588 Crs
3988 2776 Crs
3465 2554 Crs
3998 2695 Crs
4435 3166 Crs
3577 2203 Crs
3573 2362 Crs
3538 2561 Crs
3770 2699 Crs
3769 2485 Crs
3959 2283 Crs
4069 2724 Crs
3258 2434 Crs
4251 2709 Crs
4180 2665 Crs
4100 2696 Crs
4184 2915 Crs
4043 2686 Crs
3302 2438 Crs
4190 2705 Crs
3743 2606 Crs
3701 2358 Crs
3698 2374 Crs
4051 2740 Crs
3551 2522 Crs
3906 2637 Crs
3597 2413 Crs
3884 2775 Crs
4005 2974 Crs
3801 2683 Crs
4048 2793 Crs
3849 2734 Crs
3805 2836 Crs
3838 2651 Crs
4119 2567 Crs
4208 2914 Crs
4037 2679 Crs
3914 2490 Crs
3858 2863 Crs
4111 2921 Crs
4144 2857 Crs
3892 2669 Crs
3865 2607 Crs
3808 2731 Crs
3884 2784 Crs
4128 2845 Crs
3979 2441 Crs
3595 2520 Crs
4271 2722 Crs
3657 2289 Crs
4349 3061 Crs
3670 2253 Crs
4166 2966 Crs
3866 2551 Crs
3424 1934 Crs
3968 2243 Crs
3580 2371 Crs
3755 2302 Crs
3979 2546 Crs
3569 2549 Crs
3925 2304 Crs
3728 2757 Crs
3994 2532 Crs
3770 2698 Crs
3841 2647 Crs
3501 2242 Crs
4323 2950 Crs
3538 2366 Crs
3955 2531 Crs
3846 2775 Crs
4431 2792 Crs
4048 2277 Crs
4272 2966 Crs
3805 2818 Crs
4111 2926 Crs
4145 2995 Crs
4047 2922 Crs
3795 2627 Crs
3932 2723 Crs
3846 2742 Crs
4229 2546 Crs
3879 2693 Crs
4389 2953 Crs
3399 2265 Crs
3921 2856 Crs
3763 2603 Crs
4196 2543 Crs
3939 2649 Crs
4157 2978 Crs
3594 2343 Crs
3519 2239 Crs
4218 3017 Crs
4247 3045 Crs
3134 2173 Crs
3746 2627 Crs
4108 2672 Crs
3756 2359 Crs
4166 2445 Crs
3654 2573 Crs
3751 2555 Crs
3962 2271 Crs
3967 2888 Crs
4116 2887 Crs
4141 2999 Crs
3967 2762 Crs
3564 2548 Crs
3929 2682 Crs
3858 2695 Crs
4028 2760 Crs
3691 2303 Crs
3846 2376 Crs
3891 2829 Crs
3750 2597 Crs
3838 2848 Crs
3657 2699 Crs
3852 2451 Crs
4006 2811 Crs
4089 2621 Crs
4025 2514 Crs
3790 2382 Crs
3903 2480 Crs
3984 2894 Crs
4249 3001 Crs
4154 3004 Crs
4028 2206 Crs
4004 2805 Crs
3993 2761 Crs
3769 2689 Crs
4136 2703 Crs
3991 2434 Crs
4215 2926 Crs
3962 2849 Crs
4139 3017 Crs
4029 2757 Crs
4104 2362 Crs
3920 2767 Crs
3919 2544 Crs
4042 2709 Crs
3872 2798 Crs
3774 2574 Crs
4117 2671 Crs
3567 2581 Crs
4041 2629 Crs
3577 2543 Crs
4055 2999 Crs
3510 2576 Crs
4438 3314 Crs
3928 2221 Crs
3911 2302 Crs
3837 2843 Crs
3939 2594 Crs
3991 2599 Crs
4138 2611 Crs
4155 2449 Crs
3873 2817 Crs
4100 2739 Crs
4236 2924 Crs
3604 2392 Crs
3958 2464 Crs
3951 2606 Crs
4038 2901 Crs
4007 2930 Crs
4105 2933 Crs
4226 2588 Crs
3872 2700 Crs
4095 3051 Crs
4140 3013 Crs
4292 2914 Crs
4455 2963 Crs
3924 2740 Crs
3961 2348 Crs
4030 2681 Crs
4271 2765 Crs
4193 2698 Crs
3843 2360 Crs
3817 2746 Crs
4101 2974 Crs
3689 2659 Crs
3809 2533 Crs
4421 2970 Crs
4138 2897 Crs
4304 2634 Crs
3877 2542 Crs
4227 2811 Crs
3860 2316 Crs
3684 2664 Crs
4055 2524 Crs
3916 2700 Crs
3622 2273 Crs
4237 2820 Crs
3696 2476 Crs
3842 2832 Crs
4239 2465 Crs
4432 2962 Crs
3838 2717 Crs
4389 2718 Crs
3948 2523 Crs
3765 2621 Crs
3597 2593 Crs
4055 2816 Crs
3788 2675 Crs
3809 2418 Crs
3978 2645 Crs
3748 2421 Crs
3885 2494 Crs
4054 2792 Crs
4099 2755 Crs
3415 2409 Crs
3253 2392 Crs
3937 2812 Crs
3396 2388 Crs
3948 2771 Crs
3818 2615 Crs
3343 2482 Crs
3699 2541 Crs
4254 2630 Crs
3601 2297 Crs
4029 3020 Crs
4057 2401 Crs
3881 2825 Crs
3915 2933 Crs
4040 2651 Crs
4162 2832 Crs
4044 2931 Crs
3804 2347 Crs
3692 2142 Crs
3940 2815 Crs
3737 2414 Crs
2990 1949 Crs
3807 2344 Crs
4315 2932 Crs
3901 2857 Crs
4138 2735 Crs
3902 2940 Crs
3950 2786 Crs
3622 2155 Crs
3959 2461 Crs
3633 2477 Crs
4158 2964 Crs
4178 2451 Crs
4434 2908 Crs
3871 2358 Crs
3883 2784 Crs
3394 2534 Crs
3785 2547 Crs
3826 2461 Crs
3830 2541 Crs
3798 2657 Crs
3923 2601 Crs
4157 2545 Crs
3293 2427 Crs
4359 2735 Crs
4226 2681 Crs
4500 2845 Crs
3889 2317 Crs
3160 2330 Crs
4262 3010 Crs
4136 2721 Crs
3926 2808 Crs
3674 2713 Crs
3962 2957 Crs
3399 2176 Crs
3830 2665 Crs
3615 2595 Crs
4027 2768 Crs
3940 2551 Crs
3693 2646 Crs
3920 2770 Crs
4679 3043 Crs
3916 2722 Crs
3846 2677 Crs
3640 2516 Crs
3823 2432 Crs
3926 2761 Crs
3933 2570 Crs
3651 2651 Crs
3827 2525 Crs
3854 2286 Crs
4107 2774 Crs
3809 2501 Crs
4000 2852 Crs
3973 2559 Crs
3600 2620 Crs
3582 2677 Crs
3599 2523 Crs
4267 2669 Crs
3848 2404 Crs
4148 2729 Crs
3747 2634 Crs
3592 2499 Crs
3776 2770 Crs
3680 2468 Crs
3824 2841 Crs
4104 2678 Crs
3735 2810 Crs
3661 2563 Crs
4226 2622 Crs
3949 2776 Crs
3995 2826 Crs
3856 2477 Crs
4149 2726 Crs
3765 2616 Crs
4186 2778 Crs
4423 2470 Crs
3677 2370 Crs
3911 2653 Crs
4048 2796 Crs
3914 2287 Crs
3609 2544 Crs
3977 2934 Crs
4035 2746 Crs
4257 3127 Crs
3849 2487 Crs
3951 2854 Crs
3740 2574 Crs
3735 2796 Crs
4524 2820 Crs
4448 2686 Crs
4390 2768 Crs
3976 2724 Crs
3890 2818 Crs
3894 2934 Crs
4147 2973 Crs
3828 2364 Crs
3912 2606 Crs
4335 2801 Crs
3687 2721 Crs
3525 2431 Crs
3667 2509 Crs
4016 2447 Crs
4070 3001 Crs
3850 2624 Crs
3734 2687 Crs
3898 2665 Crs
4210 2906 Crs
4284 2619 Crs
4045 2923 Crs
4562 3036 Crs
4034 2644 Crs
4065 2675 Crs
4275 2689 Crs
3874 2580 Crs
3796 2754 Crs
4126 2805 Crs
3760 2618 Crs
3692 2414 Crs
3767 2829 Crs
3662 2336 Crs
3745 2500 Crs
4250 2913 Crs
4096 2862 Crs
4128 2642 Crs
3430 2441 Crs
4257 3078 Crs
3798 2826 Crs
3967 2741 Crs
4340 2658 Crs
3699 2579 Crs
4142 2604 Crs
3937 2420 Crs
4342 2495 Crs
3609 2515 Crs
3997 2444 Crs
3899 2621 Crs
3830 2786 Crs
3240 2387 Crs
4353 2749 Crs
3734 2533 Crs
3868 2465 Crs
3969 2855 Crs
3812 2539 Crs
3908 2828 Crs
4027 2589 Crs
4116 3003 Crs
3462 2283 Crs
3314 2199 Crs
4679 3116 Crs
4052 2539 Crs
3953 2872 Crs
4007 2556 Crs
3738 2465 Crs
3790 2556 Crs
4012 2863 Crs
4154 2762 Crs
4222 2579 Crs
3848 2695 Crs
3676 2732 Crs
3680 2491 Crs
3877 2475 Crs
3735 2575 Crs
3811 2736 Crs
3577 2293 Crs
4061 2937 Crs
3486 2237 Crs
3854 2770 Crs
4276 2917 Crs
4321 3015 Crs
3833 2777 Crs
3955 2431 Crs
3658 2362 Crs
3979 2538 Crs
3603 2415 Crs
3612 2576 Crs
4209 2929 Crs
3969 2425 Crs
3815 2702 Crs
3238 2214 Crs
3562 2201 Crs
4424 2884 Crs
4150 2502 Crs
4145 2656 Crs
4244 2812 Crs
4079 2741 Crs
4168 2659 Crs
4159 2967 Crs
3829 2161 Crs
3702 2735 Crs
4103 2702 Crs
3993 2643 Crs
4433 2497 Crs
3985 2575 Crs
3516 2620 Crs
3856 2730 Crs
3879 2700 Crs
4126 2690 Crs
4018 2402 Crs
3581 2239 Crs
3740 2609 Crs
3885 2883 Crs
4217 2865 Crs
3503 2520 Crs
4287 2769 Crs
3967 2872 Crs
4179 3020 Crs
3661 2511 Crs
4049 2965 Crs
4437 2921 Crs
3998 2592 Crs
4136 2695 Crs
4040 2894 Crs
4651 2708 Crs
3982 2568 Crs
3875 2755 Crs
3640 2740 Crs
3835 2484 Crs
3758 2769 Crs
4054 2442 Crs
4158 2748 Crs
3697 2427 Crs
3780 2739 Crs
3911 2416 Crs
4015 2912 Crs
3826 2734 Crs
4234 2507 Crs
4129 2940 Crs
4395 2649 Crs
4141 2746 Crs
4216 2926 Crs
3509 2598 Crs
3834 2697 Crs
4042 2726 Crs
3402 2190 Crs
3757 2432 Crs
4111 2730 Crs
3891 2617 Crs
3454 2564 Crs
4060 2778 Crs
4058 2991 Crs
3668 2664 Crs
3700 2390 Crs
4036 3027 Crs
3275 2315 Crs
4043 2795 Crs
3998 2992 Crs
3439 2568 Crs
4318 2795 Crs
4050 2982 Crs
4167 2693 Crs
4006 2873 Crs
3868 2741 Crs
3732 2751 Crs
3548 2431 Crs
3800 2434 Crs
3962 2708 Crs
3728 2728 Crs
4398 3103 Crs
3557 2009 Crs
4055 2832 Crs
4040 2677 Crs
4117 2818 Crs
3873 2792 Crs
3811 2557 Crs
3914 2702 Crs
3495 2511 Crs
3980 2836 Crs
3886 2757 Crs
3484 2481 Crs
4145 2787 Crs
3659 2223 Crs
3762 2109 Crs
4130 2900 Crs
3778 2812 Crs
4088 2642 Crs
3663 2515 Crs
3695 2765 Crs
3938 2731 Crs
4043 2661 Crs
3650 2551 Crs
3427 2555 Crs
3942 2563 Crs
3905 2354 Crs
4068 2533 Crs
3999 2657 Crs
4112 2861 Crs
3948 2445 Crs
3303 2381 Crs
3732 2705 Crs
3659 2249 Crs
4121 2960 Crs
3888 2643 Crs
3658 2755 Crs
4131 2476 Crs
3879 2756 Crs
3655 2400 Crs
4013 2944 Crs
4143 2490 Crs
3727 2638 Crs
4126 2640 Crs
3518 2050 Crs
3991 2765 Crs
3688 2467 Crs
3716 2750 Crs
3735 2697 Crs
4191 2612 Crs
4027 2672 Crs
3643 2503 Crs
3876 2921 Crs
3881 2810 Crs
4088 2656 Crs
3895 2479 Crs
4023 2691 Crs
4282 2847 Crs
4152 2680 Crs
3554 2183 Crs
3940 2940 Crs
4043 2928 Crs
3995 2823 Crs
3429 2363 Crs
3588 2699 Crs
4434 3004 Crs
3932 2175 Crs
3640 2571 Crs
3821 2282 Crs
3773 2623 Crs
3790 2692 Crs
4013 2917 Crs
3784 2595 Crs
4392 2974 Crs
3470 2454 Crs
4264 2966 Crs
3773 2486 Crs
3921 2630 Crs
4043 2618 Crs
4674 2656 Crs
3579 2346 Crs
4023 2393 Crs
3768 2704 Crs
3880 2681 Crs
3662 2370 Crs
3585 2600 Crs
4062 2977 Crs
4127 2480 Crs
4394 2845 Crs
3685 2481 Crs
4254 2855 Crs
3724 2646 Crs
3867 2391 Crs
4224 2691 Crs
4040 2822 Crs
4056 2800 Crs
3595 2357 Crs
3974 2849 Crs
3939 2854 Crs
3982 2571 Crs
4201 2974 Crs
4106 2668 Crs
3951 2744 Crs
4236 2874 Crs
4095 2534 Crs
4140 2733 Crs
3505 2584 Crs
3770 2747 Crs
4145 3041 Crs
3795 2534 Crs
3971 2675 Crs
3911 2444 Crs
4419 3052 Crs
3494 2320 Crs
3997 2828 Crs
4102 2865 Crs
3777 2776 Crs
3853 2642 Crs
3877 2815 Crs
4044 2804 Crs
3589 2553 Crs
3916 2695 Crs
3976 2680 Crs
4251 2856 Crs
3658 2515 Crs
3995 2883 Crs
3738 2480 Crs
4150 3075 Crs
3784 2785 Crs
3868 2523 Crs
3869 2213 Crs
4438 3084 Crs
3763 2739 Crs
4118 2664 Crs
4018 2803 Crs
4049 2709 Crs
3807 2392 Crs
3994 2831 Crs
3739 2335 Crs
4403 2704 Crs
3930 2534 Crs
4556 2806 Crs
3825 2282 Crs
4011 2618 Crs
4276 2627 Crs
4065 2763 Crs
4055 2848 Crs
3817 2575 Crs
3930 2508 Crs
3764 2420 Crs
4047 2670 Crs
3910 2330 Crs
4029 2496 Crs
3905 2669 Crs
3678 2558 Crs
4443 2942 Crs
3970 2702 Crs
3714 2690 Crs
3783 2552 Crs
4143 2276 Crs
3773 2650 Crs
4113 2878 Crs
4160 2697 Crs
4285 2792 Crs
3534 2394 Crs
3958 2574 Crs
3941 2962 Crs
4170 2848 Crs
4077 2743 Crs
3866 2539 Crs
3667 2557 Crs
3935 2937 Crs
3958 2583 Crs
3701 2420 Crs
4134 2878 Crs
3626 2367 Crs
4432 2523 Crs
4250 2682 Crs
4169 2964 Crs
4049 2809 Crs
4020 2442 Crs
4072 2863 Crs
3591 2529 Crs
3796 2859 Crs
3878 2805 Crs
3878 2556 Crs
4023 2378 Crs
4252 2497 Crs
4269 2742 Crs
3621 2504 Crs
3762 2430 Crs
4279 2700 Crs
3384 2370 Crs
4055 2636 Crs
3868 2492 Crs
3570 2586 Crs
4204 2534 Crs
3751 2620 Crs
4002 2434 Crs
3646 2324 Crs
3492 2611 Crs
4006 2890 Crs
4112 2967 Crs
3463 2465 Crs
3840 2686 Crs
4032 2461 Crs
3576 2656 Crs
4147 2762 Crs
4591 2983 Crs
3847 2570 Crs
3504 2174 Crs
4079 2269 Crs
4341 2608 Crs
4233 2841 Crs
3794 2479 Crs
3980 2808 Crs
4079 2607 Crs
4113 2949 Crs
4046 2944 Crs
3877 2658 Crs
4222 2968 Crs
2984 2171 Crs
4123 2917 Crs
3671 2611 Crs
4389 2650 Crs
3989 2834 Crs
3814 2397 Crs
3952 2678 Crs
3975 2851 Crs
4375 2564 Crs
3880 2454 Crs
4074 2984 Crs
3928 2790 Crs
3893 2677 Crs
3938 2578 Crs
4371 2826 Crs
3305 2237 Crs
4437 2762 Crs
4140 2578 Crs
3917 2458 Crs
4045 2768 Crs
3857 2347 Crs
3532 2442 Crs
3777 2733 Crs
3609 2644 Crs
4228 2446 Crs
3801 2725 Crs
4620 2950 Crs
4152 2704 Crs
3884 2470 Crs
4145 2718 Crs
3817 2805 Crs
4167 3058 Crs
4469 2987 Crs
3957 2349 Crs
3866 2813 Crs
3990 2537 Crs
4050 2476 Crs
3976 2332 Crs
3994 2905 Crs
2919 2078 Crs
3821 2703 Crs
3721 2639 Crs
3979 2845 Crs
3826 2419 Crs
3898 2630 Crs
3938 2930 Crs
3843 2372 Crs
4024 2950 Crs
4679 2768 Crs
4086 2692 Crs
3575 2640 Crs
3730 2514 Crs
3769 2793 Crs
3783 2311 Crs
4194 3063 Crs
3956 2767 Crs
3675 2425 Crs
4247 2948 Crs
3765 2278 Crs
3964 2763 Crs
3846 2736 Crs
3945 2874 Crs
4079 2729 Crs
3802 2395 Crs
3936 2379 Crs
3827 1944 Crs
4679 2741 Crs
4115 2631 Crs
3902 2613 Crs
3843 2671 Crs
4026 2768 Crs
4137 2908 Crs
4268 3176 Crs
4118 2385 Crs
4188 2845 Crs
3923 2735 Crs
4026 2849 Crs
3920 2888 Crs
4055 2831 Crs
4147 2598 Crs
3888 2637 Crs
4431 2960 Crs
3929 2935 Crs
3742 2518 Crs
3820 2679 Crs
3622 2551 Crs
3590 2512 Crs
3578 2437 Crs
3246 2429 Crs
3740 2785 Crs
4083 2643 Crs
4266 2863 Crs
3804 2669 Crs
4012 2618 Crs
3500 2515 Crs
3816 2702 Crs
3814 2571 Crs
3642 2187 Crs
4008 2574 Crs
4067 2864 Crs
4198 2832 Crs
3879 2754 Crs
3903 2460 Crs
3717 2445 Crs
4141 3078 Crs
3762 2676 Crs
3873 2436 Crs
3953 2417 Crs
3847 2711 Crs
3181 2329 Crs
3685 2550 Crs
3702 2497 Crs
3973 2815 Crs
3793 2307 Crs
3592 2519 Crs
3820 2812 Crs
3963 2704 Crs
3778 2559 Crs
3795 2712 Crs
3853 2868 Crs
3685 2594 Crs
4142 2742 Crs
4616 2994 Crs
3629 2263 Crs
3757 2487 Crs
4064 2956 Crs
4400 2916 Crs
3978 2604 Crs
3879 2705 Crs
4124 3090 Crs
3956 2732 Crs
3839 2763 Crs
4108 2718 Crs
4298 3085 Crs
4040 2652 Crs
3788 2338 Crs
3785 2651 Crs
3832 2574 Crs
3221 2364 Crs
3763 2631 Crs
3366 2471 Crs
3991 2342 Crs
3636 2535 Crs
4016 2812 Crs
3992 2527 Crs
3768 2598 Crs
4133 2494 Crs
4316 2376 Crs
4279 2678 Crs
3603 2145 Crs
3813 2593 Crs
3679 2687 Crs
4083 2977 Crs
3794 2424 Crs
3930 2731 Crs
4131 3047 Crs
4168 2451 Crs
3734 2657 Crs
4318 2873 Crs
3816 2214 Crs
3760 2789 Crs
3683 2658 Crs
3519 2216 Crs
4292 2781 Crs
4142 2421 Crs
3710 2712 Crs
3791 2623 Crs
3257 2337 Crs
4113 3009 Crs
4375 2866 Crs
3889 2566 Crs
3866 2744 Crs
4013 2617 Crs
4207 2836 Crs
3611 2495 Crs
3929 2929 Crs
3810 2308 Crs
4093 2715 Crs
4089 2710 Crs
4570 3054 Crs
4005 2732 Crs
4194 2514 Crs
4132 2974 Crs
4225 2821 Crs
3832 2503 Crs
4171 2964 Crs
4010 2785 Crs
3645 2697 Crs
4240 3043 Crs
3769 2485 Crs
3737 2701 Crs
3704 2474 Crs
3575 2549 Crs
3946 2714 Crs
3963 2670 Crs
3733 2584 Crs
4295 3147 Crs
3733 2542 Crs
3788 2695 Crs
3514 2435 Crs
3667 2760 Crs
4210 2638 Crs
3845 2749 Crs
3741 2717 Crs
4083 2789 Crs
3641 2461 Crs
3886 2726 Crs
3858 2414 Crs
3869 2678 Crs
3595 2502 Crs
4048 2650 Crs
3857 2656 Crs
4184 2810 Crs
3537 2500 Crs
3715 2683 Crs
3958 2741 Crs
4142 2447 Crs
3701 2662 Crs
4294 2832 Crs
4012 2626 Crs
3800 2653 Crs
3851 2820 Crs
4156 2814 Crs
3963 2913 Crs
2887 2156 Crs
3925 2332 Crs
3266 2260 Crs
3644 2137 Crs
3744 2528 Crs
3952 2376 Crs
3632 2681 Crs
3999 2668 Crs
3748 2514 Crs
3682 2694 Crs
3712 2585 Crs
3580 2698 Crs
4386 3079 Crs
4179 2921 Crs
3855 2290 Crs
4153 3132 Crs
3818 2831 Crs
3970 2856 Crs
4107 3010 Crs
4061 2801 Crs
3948 2251 Crs
3909 2943 Crs
3844 2645 Crs
3602 2604 Crs
4024 2949 Crs
4214 2389 Crs
3671 2125 Crs
4143 2718 Crs
3768 2441 Crs
3799 2803 Crs
3874 2577 Crs
3399 2357 Crs
4000 2709 Crs
3877 2623 Crs
3829 2708 Crs
3977 2504 Crs
3792 2731 Crs
3762 2348 Crs
4223 2845 Crs
3877 2648 Crs
3904 2629 Crs
3743 2717 Crs
4009 2565 Crs
3975 2922 Crs
3764 2394 Crs
3750 2623 Crs
4295 3097 Crs
3655 2378 Crs
4153 2877 Crs
3855 2883 Crs
3999 2801 Crs
3838 2606 Crs
3402 2509 Crs
3775 2329 Crs
3390 2126 Crs
4058 2511 Crs
4123 2884 Crs
3929 2668 Crs
3876 2739 Crs
3682 2763 Crs
3725 2701 Crs
3667 2455 Crs
3983 2820 Crs
4071 2670 Crs
4075 2719 Crs
3975 2810 Crs
4069 2534 Crs
3792 2840 Crs
3665 2706 Crs
3792 2510 Crs
4051 2538 Crs
3780 2382 Crs
4139 3030 Crs
3908 2765 Crs
4073 2411 Crs
4185 2568 Crs
4272 2473 Crs
3551 2629 Crs
3669 2408 Crs
3750 2705 Crs
3116 2316 Crs
3882 2681 Crs
3823 2633 Crs
3783 2483 Crs
4042 2838 Crs
3939 2796 Crs
3869 2576 Crs
3792 2455 Crs
4142 2968 Crs
3955 2675 Crs
4275 3015 Crs
3723 2744 Crs
3997 2410 Crs
4236 2969 Crs
3474 2550 Crs
3549 2277 Crs
4265 2748 Crs
4120 2843 Crs
4080 2469 Crs
3972 2648 Crs
4244 3075 Crs
4003 2783 Crs
4174 2767 Crs
3853 2661 Crs
4239 3075 Crs
3356 2348 Crs
3818 2718 Crs
4049 2593 Crs
4274 3016 Crs
3650 2366 Crs
3815 2581 Crs
4254 2939 Crs
3768 2773 Crs
3813 2741 Crs
3954 2900 Crs
4307 3039 Crs
3846 2762 Crs
3873 2593 Crs
3954 2938 Crs
3853 2681 Crs
3935 2373 Crs
4028 2643 Crs
4138 2778 Crs
3526 2534 Crs
3808 2686 Crs
3742 2476 Crs
4379 2845 Crs
4073 2900 Crs
4072 2288 Crs
4038 2800 Crs
4126 2888 Crs
3398 2476 Crs
4234 2890 Crs
3959 2690 Crs
4408 2882 Crs
3943 2718 Crs
4152 2770 Crs
3930 2843 Crs
3667 2692 Crs
3899 2633 Crs
4063 2760 Crs
3858 2816 Crs
3671 2722 Crs
3743 2576 Crs
3581 2489 Crs
3951 2586 Crs
3354 2331 Crs
4149 2770 Crs
4004 2658 Crs
3408 2012 Crs
3188 2207 Crs
3418 2214 Crs
3929 2618 Crs
3378 2390 Crs
3705 2699 Crs
4024 2445 Crs
3330 2487 Crs
4045 2948 Crs
3355 2482 Crs
4032 2769 Crs
3584 2356 Crs
3972 2622 Crs
4251 2566 Crs
4026 2735 Crs
3417 2499 Crs
3874 2480 Crs
3956 2855 Crs
3940 2739 Crs
3851 2863 Crs
3803 2832 Crs
4449 3098 Crs
4011 2655 Crs
3877 2773 Crs
4009 2903 Crs
3789 2626 Crs
3990 2882 Crs
3893 2770 Crs
3257 2124 Crs
3810 2325 Crs
4219 2702 Crs
3982 2862 Crs
3593 2624 Crs
4121 2869 Crs
3900 2726 Crs
3984 2663 Crs
3920 2778 Crs
3669 2711 Crs
3726 2587 Crs
4554 3033 Crs
3956 2484 Crs
3874 2739 Crs
3533 2423 Crs
4089 2866 Crs
3830 2193 Crs
3764 2728 Crs
3773 2506 Crs
4008 2781 Crs
4392 2521 Crs
3813 2394 Crs
3828 2699 Crs
3806 2648 Crs
4303 2852 Crs
4232 2489 Crs
3709 2381 Crs
3516 2338 Crs
3660 2469 Crs
4211 2527 Crs
4653 2606 Crs
4114 2574 Crs
3859 2525 Crs
3842 2757 Crs
3801 2753 Crs
3805 2598 Crs
4019 2566 Crs
4250 2638 Crs
4087 2663 Crs
4029 3024 Crs
3386 2431 Crs
4647 3026 Crs
4143 2821 Crs
4093 2736 Crs
4090 3042 Crs
3766 2562 Crs
3718 2569 Crs
4168 2993 Crs
4101 2818 Crs
4183 2867 Crs
3832 2776 Crs
4361 3009 Crs
3782 2603 Crs
3474 2220 Crs
4146 2850 Crs
3899 2728 Crs
3977 2487 Crs
4039 2845 Crs
4123 2771 Crs
4256 2726 Crs
4447 2543 Crs
4337 3004 Crs
3162 2318 Crs
3803 2804 Crs
4176 2903 Crs
3950 2474 Crs
3999 2590 Crs
4266 2919 Crs
4663 2942 Crs
4264 2749 Crs
3299 2267 Crs
4679 2910 Crs
3561 2587 Crs
4078 2659 Crs
4244 2531 Crs
3939 2793 Crs
3972 2562 Crs
4118 2573 Crs
3931 2558 Crs
3974 2323 Crs
3928 2660 Crs
3455 2359 Crs
3820 2634 Crs
3925 2675 Crs
4279 2693 Crs
4334 2781 Crs
3658 2745 Crs
3847 2488 Crs
3931 2894 Crs
4163 2887 Crs
4664 2797 Crs
3980 2653 Crs
4361 2633 Crs
3677 2239 Crs
4271 3209 Crs
3900 2791 Crs
3958 2492 Crs
3946 2393 Crs
3825 2635 Crs
4037 2843 Crs
3645 2677 Crs
3757 2726 Crs
3785 2230 Crs
3686 2655 Crs
3959 2868 Crs
3722 2572 Crs
3649 2618 Crs
3668 2569 Crs
4006 2738 Crs
3878 2758 Crs
4126 2870 Crs
3653 2524 Crs
3998 2766 Crs
4311 2753 Crs
3895 2659 Crs
3004 2178 Crs
4097 3032 Crs
3548 2507 Crs
3847 2730 Crs
4221 2944 Crs
4124 2816 Crs
4133 2550 Crs
4274 2639 Crs
3844 2537 Crs
3662 2286 Crs
4141 2952 Crs
3772 2214 Crs
3918 2304 Crs
4194 2833 Crs
3566 2438 Crs
4427 2802 Crs
3667 2148 Crs
3954 2812 Crs
4369 3066 Crs
3823 2555 Crs
3580 2484 Crs
3421 2466 Crs
4263 2747 Crs
4075 2987 Crs
4049 2905 Crs
4429 2927 Crs
3767 2654 Crs
3806 2572 Crs
3449 2576 Crs
3972 2275 Crs
4024 2849 Crs
3659 2660 Crs
4054 2801 Crs
4265 3048 Crs
4416 2699 Crs
4122 2789 Crs
4041 2936 Crs
4083 2717 Crs
3408 2483 Crs
3919 2714 Crs
3514 2423 Crs
4165 2703 Crs
4427 2699 Crs
4053 2793 Crs
3884 2613 Crs
3508 2513 Crs
3966 2636 Crs
3894 2653 Crs
4065 2927 Crs
3900 2630 Crs
3999 2442 Crs
3580 2591 Crs
3683 2422 Crs
3882 2609 Crs
3812 2703 Crs
4106 2597 Crs
4235 2798 Crs
3802 2599 Crs
3917 2744 Crs
3574 2540 Crs
4080 2919 Crs
4365 2903 Crs
4300 2660 Crs
4106 2705 Crs
3850 2639 Crs
4085 2553 Crs
3662 2635 Crs
4421 2932 Crs
3697 2336 Crs
4592 2821 Crs
3826 2800 Crs
3639 2507 Crs
3897 2928 Crs
3741 2698 Crs
3809 2580 Crs
4010 2527 Crs
3874 2865 Crs
4202 2454 Crs
3943 2620 Crs
4265 2621 Crs
3713 2698 Crs
3791 2771 Crs
3876 2789 Crs
4065 2862 Crs
3908 2629 Crs
3859 2766 Crs
3856 2618 Crs
3743 2686 Crs
3941 2671 Crs
3822 2656 Crs
3867 2245 Crs
3975 2588 Crs
3693 2299 Crs
4261 2687 Crs
4637 3079 Crs
3961 2462 Crs
4176 2899 Crs
4237 3024 Crs
4080 2628 Crs
3858 2792 Crs
4440 2974 Crs
3651 2242 Crs
3888 2836 Crs
3354 2525 Crs
3375 2442 Crs
3948 2357 Crs
4288 2565 Crs
4139 2814 Crs
4158 2723 Crs
4273 2730 Crs
3852 2593 Crs
3957 2639 Crs
4290 3092 Crs
3941 2882 Crs
3956 2859 Crs
4052 2601 Crs
3996 2466 Crs
3390 2552 Crs
4028 2740 Crs
3818 2528 Crs
3416 2331 Crs
4408 2902 Crs
4265 3052 Crs
3860 2386 Crs
3994 2723 Crs
4050 2906 Crs
4679 3076 Crs
3966 2529 Crs
4250 2756 Crs
3461 2417 Crs
3756 2761 Crs
3773 2396 Crs
3865 2585 Crs
4261 3019 Crs
3723 2669 Crs
3813 2689 Crs
3755 2668 Crs
3932 2795 Crs
4135 2866 Crs
3553 2650 Crs
3953 2616 Crs
3865 2340 Crs
4069 2454 Crs
3778 2210 Crs
4158 2653 Crs
4135 3006 Crs
3910 2844 Crs
3902 2721 Crs
3748 2599 Crs
4059 2673 Crs
3563 2490 Crs
3896 2606 Crs
3878 2237 Crs
3253 2450 Crs
3681 2540 Crs
3656 2596 Crs
3935 2622 Crs
3758 2815 Crs
4109 2448 Crs
3717 2631 Crs
3749 2662 Crs
4049 2549 Crs
4037 2473 Crs
3508 2532 Crs
4273 2575 Crs
3831 2876 Crs
4121 2673 Crs
4218 2859 Crs
3864 2600 Crs
3723 2307 Crs
3874 2501 Crs
3620 2249 Crs
4106 2839 Crs
3619 2695 Crs
3969 2572 Crs
3802 2667 Crs
4287 3108 Crs
3874 2727 Crs
4176 2875 Crs
4120 2784 Crs
3712 2367 Crs
3743 2641 Crs
3901 2646 Crs
4509 2847 Crs
4329 2604 Crs
3752 2529 Crs
4154 2460 Crs
3621 2383 Crs
4098 2890 Crs
4116 2495 Crs
3591 2688 Crs
4018 2537 Crs
4262 2860 Crs
3914 2714 Crs
3529 2276 Crs
4203 2486 Crs
4136 3047 Crs
3637 2674 Crs
4195 2756 Crs
4195 2806 Crs
4034 2940 Crs
4253 2967 Crs
3396 2476 Crs
3833 2870 Crs
4004 2718 Crs
4189 2423 Crs
3662 2636 Crs
4199 2583 Crs
3876 2485 Crs
3875 2913 Crs
3570 2423 Crs
3956 2704 Crs
4039 2853 Crs
4066 2712 Crs
4098 2472 Crs
3582 2571 Crs
3671 2680 Crs
4145 2628 Crs
3989 2618 Crs
3956 2464 Crs
4091 2502 Crs
4054 2742 Crs
4218 2829 Crs
3614 2705 Crs
3957 2877 Crs
4444 2829 Crs
4145 2986 Crs
3760 2306 Crs
3600 2457 Crs
3922 2785 Crs
4236 2477 Crs
4121 3000 Crs
4026 2849 Crs
3816 2535 Crs
3453 2515 Crs
3835 2698 Crs
4125 2740 Crs
3804 2776 Crs
4215 2791 Crs
3653 2559 Crs
3578 2520 Crs
3827 2274 Crs
3928 2838 Crs
3228 2251 Crs
4079 2940 Crs
3412 2516 Crs
3961 2659 Crs
3718 2539 Crs
3803 2767 Crs
3672 2699 Crs
3960 2812 Crs
3885 2512 Crs
4057 2746 Crs
3490 2605 Crs
3896 2712 Crs
3623 2636 Crs
3921 2517 Crs
3811 2606 Crs
3833 2517 Crs
3686 2670 Crs
4337 2525 Crs
4222 2349 Crs
4114 2693 Crs
3721 2484 Crs
3761 2814 Crs
3370 2318 Crs
3721 2531 Crs
3704 2639 Crs
4173 2591 Crs
3888 2388 Crs
3688 2367 Crs
3759 2553 Crs
4091 2910 Crs
3911 2686 Crs
3646 2361 Crs
3776 2589 Crs
4392 2236 Crs
3682 2624 Crs
3730 2493 Crs
4168 3090 Crs
4247 2599 Crs
3819 2820 Crs
4113 2833 Crs
3902 2900 Crs
3441 2479 Crs
3816 2729 Crs
3497 2587 Crs
4040 2309 Crs
3793 2798 Crs
3522 2451 Crs
3821 2530 Crs
3887 2726 Crs
3685 2691 Crs
3835 2370 Crs
3907 2812 Crs
3749 2285 Crs
3763 2520 Crs
4228 2983 Crs
3770 2352 Crs
4083 2820 Crs
3480 2420 Crs
4016 2655 Crs
3917 2934 Crs
3535 2539 Crs
4570 2778 Crs
3773 2562 Crs
3725 2608 Crs
4172 2720 Crs
3553 2411 Crs
4283 2914 Crs
3975 2947 Crs
3729 2806 Crs
4229 2397 Crs
3977 2857 Crs
3859 2803 Crs
4151 2754 Crs
4060 2644 Crs
3868 2528 Crs
4294 3017 Crs
3511 2413 Crs
4231 2597 Crs
3830 2704 Crs
3775 2316 Crs
3681 2567 Crs
4036 2911 Crs
3485 2321 Crs
4421 3041 Crs
4022 2556 Crs
3991 2615 Crs
4138 2546 Crs
4485 2656 Crs
3803 2382 Crs
3836 2565 Crs
4030 2773 Crs
3934 2676 Crs
4209 2490 Crs
4134 2423 Crs
4093 3005 Crs
3752 2703 Crs
4014 2840 Crs
4137 2869 Crs
3897 2894 Crs
4021 2929 Crs
3942 2788 Crs
4020 2826 Crs
4327 2952 Crs
3654 2673 Crs
3769 2770 Crs
4151 2863 Crs
4313 2882 Crs
3764 2678 Crs
3641 2486 Crs
4005 2540 Crs
3813 2702 Crs
3966 2502 Crs
4118 2789 Crs
4558 2832 Crs
3824 2502 Crs
3503 2518 Crs
4319 2720 Crs
3480 2327 Crs
4437 2878 Crs
4091 2759 Crs
4056 2857 Crs
4397 2559 Crs
3819 2605 Crs
3313 2281 Crs
3823 2342 Crs
3609 2519 Crs
3805 2745 Crs
3488 2629 Crs
4234 2929 Crs
3803 2676 Crs
4279 2851 Crs
4245 2639 Crs
3447 2284 Crs
3575 2124 Crs
4013 2752 Crs
4037 2602 Crs
4284 2538 Crs
3661 2373 Crs
3683 2320 Crs
4124 2651 Crs
4260 2778 Crs
4013 2846 Crs
4074 2682 Crs
4275 2802 Crs
3919 2478 Crs
3782 2614 Crs
3884 2917 Crs
4063 2683 Crs
4002 2855 Crs
3620 2465 Crs
3620 2452 Crs
3576 2477 Crs
4062 2558 Crs
3790 2510 Crs
3894 2587 Crs
3698 2614 Crs
4060 2810 Crs
3371 2328 Crs
3692 2712 Crs
3371 2323 Crs
3614 2721 Crs
3990 2508 Crs
3973 2737 Crs
3917 2818 Crs
3757 2724 Crs
3901 2574 Crs
3593 2547 Crs
4189 2782 Crs
4210 2795 Crs
4123 2572 Crs
4203 2651 Crs
3777 2715 Crs
4036 2286 Crs
3736 2531 Crs
3632 2670 Crs
4655 2813 Crs
3871 2736 Crs
4384 2751 Crs
4229 2638 Crs
3844 2722 Crs
3865 2705 Crs
4174 2698 Crs
4080 2656 Crs
4261 2742 Crs
3921 2874 Crs
3795 2539 Crs
3823 2637 Crs
3875 2880 Crs
3278 2351 Crs
4085 2907 Crs
3891 2682 Crs
3604 2578 Crs
3891 2701 Crs
4171 2658 Crs
3946 2463 Crs
4148 2736 Crs
3359 2493 Crs
3780 2692 Crs
3470 2507 Crs
3923 2823 Crs
3714 2728 Crs
4420 2894 Crs
3815 2399 Crs
3612 2588 Crs
3683 2481 Crs
4305 2610 Crs
3801 2745 Crs
4038 2682 Crs
3779 2702 Crs
4015 2802 Crs
3783 2483 Crs
3885 2787 Crs
3519 2272 Crs
4022 2609 Crs
4372 2701 Crs
3873 2796 Crs
3653 2322 Crs
3804 2524 Crs
3803 2617 Crs
4189 2570 Crs
4018 2880 Crs
3828 2697 Crs
3594 2659 Crs
3856 2784 Crs
4224 2831 Crs
3987 2982 Crs
3701 2653 Crs
4215 2940 Crs
3867 2616 Crs
3994 2528 Crs
3981 2672 Crs
3975 2787 Crs
3879 2346 Crs
3955 2530 Crs
4246 2759 Crs
3865 2641 Crs
3606 2445 Crs
3705 2680 Crs
4086 2821 Crs
3965 2865 Crs
4242 2671 Crs
4175 2928 Crs
4117 2550 Crs
3906 2827 Crs
4052 2673 Crs
4147 3004 Crs
4041 2861 Crs
4201 2769 Crs
3667 2345 Crs
3851 2885 Crs
4028 2766 Crs
3704 2694 Crs
4041 2616 Crs
3896 2551 Crs
3639 2718 Crs
3783 2226 Crs
4642 2900 Crs
4194 2966 Crs
4406 2712 Crs
3619 2452 Crs
3662 2718 Crs
3924 2635 Crs
3502 2617 Crs
4030 2453 Crs
4268 3045 Crs
3624 2479 Crs
3971 2694 Crs
4045 2720 Crs
4394 2830 Crs
4173 2943 Crs
4115 2616 Crs
4008 2691 Crs
4437 2826 Crs
3906 2821 Crs
4196 2663 Crs
4245 2631 Crs
3911 2366 Crs
4304 2527 Crs
3691 2727 Crs
3903 2622 Crs
4098 3019 Crs
3829 2843 Crs
4170 2919 Crs
4243 2793 Crs
4138 2876 Crs
4215 2635 Crs
3268 1910 Crs
4007 2826 Crs
3654 2595 Crs
4117 2963 Crs
3831 2539 Crs
3867 2564 Crs
3669 2764 Crs
4590 2530 Crs
3934 2881 Crs
3669 2562 Crs
4049 2952 Crs
3734 2747 Crs
4144 2877 Crs
3785 2684 Crs
4032 2966 Crs
3902 2894 Crs
3834 2881 Crs
4210 2727 Crs
3810 2777 Crs
3565 2659 Crs
3491 2248 Crs
4141 2722 Crs
4137 2466 Crs
4037 2891 Crs
3925 2288 Crs
3741 2472 Crs
3767 2678 Crs
4281 2788 Crs
3458 2455 Crs
3941 2810 Crs
3722 2759 Crs
4060 2761 Crs
4573 3103 Crs
3873 2800 Crs
3932 2871 Crs
3779 2529 Crs
3685 2772 Crs
4445 2701 Crs
3667 2638 Crs
4031 2660 Crs
4261 2881 Crs
4032 2976 Crs
3979 2837 Crs
4141 3042 Crs
4146 2705 Crs
4143 2721 Crs
3919 2540 Crs
4422 2850 Crs
4007 2705 Crs
4132 2641 Crs
3991 2896 Crs
3364 2475 Crs
3614 2334 Crs
3897 2678 Crs
3946 2768 Crs
4172 2831 Crs
3586 2472 Crs
3965 2781 Crs
3844 2616 Crs
3360 2367 Crs
4256 2438 Crs
3972 2975 Crs
3891 2877 Crs
3750 2501 Crs
3634 2614 Crs
3789 2553 Crs
4084 2854 Crs
3810 2687 Crs
3798 2379 Crs
3877 2798 Crs
3462 2522 Crs
3721 2544 Crs
4033 2718 Crs
3586 2359 Crs
4044 2547 Crs
4158 3035 Crs
3905 2937 Crs
3731 2687 Crs
3980 2953 Crs
3899 2626 Crs
4293 2619 Crs
3928 2794 Crs
4065 2825 Crs
4107 2999 Crs
4135 2781 Crs
3883 2836 Crs
3923 2677 Crs
3938 2403 Crs
4164 2750 Crs
3698 2587 Crs
3913 2391 Crs
4471 2680 Crs
3923 2743 Crs
3920 2850 Crs
4084 2674 Crs
3992 2518 Crs
3616 2292 Crs
3773 2399 Crs
4069 2936 Crs
4351 2759 Crs
3348 2252 Crs
3739 2621 Crs
4145 2769 Crs
4138 2701 Crs
3932 2595 Crs
4247 2681 Crs
3462 2459 Crs
3577 2585 Crs
3895 2355 Crs
3954 2891 Crs
4266 3048 Crs
4046 2913 Crs
3783 2807 Crs
3574 2429 Crs
3888 2830 Crs
3686 2313 Crs
3791 2575 Crs
4088 2429 Crs
4060 2257 Crs
3819 2498 Crs
3772 2816 Crs
4064 2485 Crs
3843 2586 Crs
4143 2821 Crs
4145 2710 Crs
3424 2494 Crs
3436 2494 Crs
4377 2716 Crs
3908 2608 Crs
4679 2959 Crs
3959 2805 Crs
4146 3052 Crs
4066 2861 Crs
4326 2833 Crs
3930 2549 Crs
3788 2634 Crs
3829 2351 Crs
4162 2625 Crs
4003 2734 Crs
3827 2710 Crs
4049 2914 Crs
4328 2973 Crs
3122 2242 Crs
3940 2853 Crs
4024 2742 Crs
3708 2482 Crs
4253 2553 Crs
4019 2911 Crs
3228 1949 Crs
4156 2656 Crs
4155 2632 Crs
4147 2498 Crs
3878 2564 Crs
3799 2530 Crs
3719 2340 Crs
4679 3061 Crs
4087 2487 Crs
4066 2384 Crs
3753 2703 Crs
4180 2725 Crs
4098 2451 Crs
3741 2668 Crs
3663 2486 Crs
3946 2403 Crs
3574 2413 Crs
4375 2602 Crs
4290 2627 Crs
3594 2496 Crs
3953 2672 Crs
4059 2565 Crs
3795 2630 Crs
4018 2820 Crs
3872 2720 Crs
3904 2936 Crs
3805 2481 Crs
4317 2064 Crs
3956 2894 Crs
4000 2882 Crs
3938 2730 Crs
3554 2595 Crs
3716 2553 Crs
3670 2468 Crs
4014 2532 Crs
4255 2898 Crs
3576 2504 Crs
3995 2809 Crs
3953 2498 Crs
3724 2636 Crs
4175 2700 Crs
3928 2408 Crs
3659 2533 Crs
3733 2314 Crs
3756 2458 Crs
3818 2836 Crs
3814 2710 Crs
4196 2835 Crs
4453 2777 Crs
3811 2716 Crs
4109 2736 Crs
3408 2380 Crs
3729 2525 Crs
3957 2406 Crs
3738 2798 Crs
3842 2155 Crs
4014 2713 Crs
3955 2459 Crs
3721 2623 Crs
3761 2716 Crs
4369 2418 Crs
4111 2967 Crs
4679 3132 Crs
3853 2447 Crs
4387 2848 Crs
3759 2508 Crs
3740 2653 Crs
3734 2704 Crs
4061 2565 Crs
3912 2763 Crs
3918 2559 Crs
3689 2742 Crs
3827 2814 Crs
3566 2506 Crs
3639 2332 Crs
3930 2809 Crs
3900 2659 Crs
4203 2497 Crs
3898 2605 Crs
3348 2459 Crs
4423 3117 Crs
4066 2787 Crs
3687 2464 Crs
4227 3041 Crs
3782 2179 Crs
4079 2491 Crs
3940 2461 Crs
4096 2473 Crs
3919 2595 Crs
3609 2529 Crs
3878 2399 Crs
3782 2841 Crs
4114 2656 Crs
3334 2459 Crs
4040 3007 Crs
3996 2636 Crs
3839 2007 Crs
3853 2681 Crs
3439 2024 Crs
4164 2661 Crs
3858 2607 Crs
3754 2714 Crs
4001 2446 Crs
3655 2546 Crs
3521 2385 Crs
4065 2690 Crs
4156 2781 Crs
4003 2842 Crs
3923 2735 Crs
4286 2946 Crs
3405 2485 Crs
3582 1995 Crs
3908 2794 Crs
3106 2145 Crs
3933 2613 Crs
4457 2799 Crs
4017 2527 Crs
4090 2407 Crs
3986 2290 Crs
4068 3038 Crs
3973 2823 Crs
3757 2476 Crs
3956 2562 Crs
3940 2695 Crs
4010 2393 Crs
3817 2332 Crs
3973 2884 Crs
4665 2855 Crs
4241 2999 Crs
4130 2704 Crs
4006 2983 Crs
3972 2692 Crs
4138 2642 Crs
4149 2797 Crs
3678 2742 Crs
4119 2718 Crs
3945 2736 Crs
3637 2648 Crs
4024 2969 Crs
3604 2666 Crs
4364 2671 Crs
3838 2448 Crs
3592 2365 Crs
3412 2078 Crs
4321 3019 Crs
4119 2919 Crs
4435 2723 Crs
3621 2422 Crs
3676 2651 Crs
4300 2332 Crs
3907 2519 Crs
4025 2812 Crs
3341 2344 Crs
3203 2292 Crs
3976 2568 Crs
3788 2745 Crs
3320 2290 Crs
3786 2641 Crs
3699 2608 Crs
3695 2536 Crs
3947 2652 Crs
3965 2887 Crs
4027 2760 Crs
4030 2514 Crs
3860 2773 Crs
3645 2507 Crs
3780 2587 Crs
4028 2742 Crs
3953 2370 Crs
3646 2460 Crs
3568 2363 Crs
3874 2400 Crs
3804 2848 Crs
4267 2576 Crs
3519 2520 Crs
3520 2592 Crs
4142 2798 Crs
4250 2701 Crs
4043 2354 Crs
4395 3127 Crs
3958 2599 Crs
3887 2473 Crs
3898 2889 Crs
3827 2405 Crs
3547 2330 Crs
3998 2668 Crs
3890 2417 Crs
3784 2664 Crs
4154 3006 Crs
3482 2588 Crs
4115 2707 Crs
3755 2717 Crs
3865 2564 Crs
4183 2704 Crs
4137 2323 Crs
4014 2878 Crs
3799 2447 Crs
4019 2934 Crs
4067 2664 Crs
3914 2894 Crs
3819 2742 Crs
4068 2553 Crs
3900 2683 Crs
3693 2433 Crs
4297 2960 Crs
3990 2839 Crs
3928 2674 Crs
3706 2651 Crs
4224 2777 Crs
3817 2748 Crs
3537 2590 Crs
4238 2671 Crs
3854 2779 Crs
4439 2578 Crs
3783 2707 Crs
4142 3058 Crs
3953 2642 Crs
3996 2893 Crs
4148 3005 Crs
4151 2904 Crs
3816 2430 Crs
4057 2532 Crs
3687 2526 Crs
4276 3095 Crs
4313 2903 Crs
4167 2855 Crs
4214 2721 Crs
3742 2549 Crs
3828 2485 Crs
3764 2211 Crs
4628 2870 Crs
4395 2579 Crs
4420 2798 Crs
4177 2890 Crs
4391 3036 Crs
3944 2813 Crs
4044 2887 Crs
4637 2876 Crs
3404 2378 Crs
4054 2978 Crs
4033 2745 Crs
3750 2431 Crs
3803 2674 Crs
3900 2640 Crs
4110 2929 Crs
3315 2265 Crs
4163 2703 Crs
4011 3014 Crs
4104 2717 Crs
3869 2561 Crs
3782 2666 Crs
3858 2494 Crs
3659 2743 Crs
2781 1987 Crs
3799 2600 Crs
3571 2613 Crs
4008 2471 Crs
3988 2724 Crs
3998 2609 Crs
3887 2566 Crs
3635 2554 Crs
3546 2449 Crs
3760 2531 Crs
4281 2687 Crs
3538 2557 Crs
3973 2871 Crs
4038 2491 Crs
3812 2821 Crs
4046 2392 Crs
4362 2603 Crs
4019 2846 Crs
3575 2536 Crs
4100 2541 Crs
4486 2656 Crs
4252 2502 Crs
3563 2661 Crs
3717 2667 Crs
4165 2682 Crs
3853 2719 Crs
3648 2649 Crs
3839 2825 Crs
3821 2742 Crs
3501 2302 Crs
4091 2819 Crs
3884 2819 Crs
3735 2733 Crs
3841 2813 Crs
3810 2682 Crs
3939 2913 Crs
3604 2631 Crs
4059 2910 Crs
3871 2765 Crs
4128 2692 Crs
4333 2831 Crs
4042 2922 Crs
4139 2904 Crs
3527 2484 Crs
3896 2834 Crs
3852 2738 Crs
3530 2173 Crs
4449 2647 Crs
4141 2759 Crs
4057 2692 Crs
4005 2272 Crs
3618 2684 Crs
3959 2632 Crs
3766 2653 Crs
4077 2811 Crs
4034 2958 Crs
3271 2212 Crs
4177 2877 Crs
3892 2815 Crs
3865 2376 Crs
3742 2588 Crs
3766 2809 Crs
3725 2646 Crs
3929 2615 Crs
4114 2647 Crs
3992 2790 Crs
3888 2456 Crs
3844 2429 Crs
3905 2730 Crs
3947 2509 Crs
3941 2157 Crs
3692 2333 Crs
4445 2768 Crs
3967 2685 Crs
4107 2816 Crs
4044 2890 Crs
4078 2993 Crs
4432 2672 Crs
3896 2416 Crs
3635 2672 Crs
4229 2658 Crs
3631 2669 Crs
3525 2540 Crs
4232 2737 Crs
3948 2783 Crs
4070 3040 Crs
4098 2823 Crs
4470 2819 Crs
4190 2809 Crs
3721 2725 Crs
4224 3049 Crs
4090 2550 Crs
4052 2677 Crs
3930 2834 Crs
3883 2799 Crs
3710 2104 Crs
4194 2795 Crs
4130 2818 Crs
3680 2515 Crs
4097 2877 Crs
3854 2768 Crs
4448 2829 Crs
3902 2867 Crs
3847 2707 Crs
3645 2402 Crs
3674 2583 Crs
3905 2361 Crs
4140 3060 Crs
3939 2541 Crs
3767 2617 Crs
3642 2617 Crs
4390 2515 Crs
3402 2538 Crs
3585 2621 Crs
3608 2669 Crs
4028 2420 Crs
4165 2623 Crs
3799 2611 Crs
4475 2723 Crs
4030 2841 Crs
3922 2471 Crs
3911 2541 Crs
3815 2229 Crs
3835 2700 Crs
3220 2301 Crs
4093 2315 Crs
4417 2878 Crs
3833 2624 Crs
3773 2402 Crs
4436 2700 Crs
4049 2835 Crs
3836 2565 Crs
3714 2658 Crs
3538 2585 Crs
3725 2677 Crs
4339 2583 Crs
3902 2867 Crs
3646 2533 Crs
3824 2879 Crs
3585 2496 Crs
4054 2785 Crs
3887 2603 Crs
3757 2826 Crs
4036 2816 Crs
4253 2593 Crs
3854 2493 Crs
3831 2622 Crs
3813 2452 Crs
3917 2470 Crs
4066 2809 Crs
3712 2714 Crs
4088 2592 Crs
4223 2483 Crs
3941 2818 Crs
3547 2510 Crs
3936 2715 Crs
3914 2917 Crs
4096 2513 Crs
4094 2786 Crs
4225 2695 Crs
3851 2737 Crs
3461 2498 Crs
3457 2414 Crs
3599 2447 Crs
3958 2326 Crs
3608 2479 Crs
4180 2907 Crs
3930 2370 Crs
3875 2358 Crs
4415 3124 Crs
3793 2591 Crs
4150 3109 Crs
3496 2524 Crs
4040 2936 Crs
3531 2377 Crs
3936 2877 Crs
3961 2378 Crs
4203 2940 Crs
4132 2681 Crs
4404 2783 Crs
4256 2860 Crs
3262 2295 Crs
4273 2404 Crs
4224 2790 Crs
3806 2635 Crs
4398 2824 Crs
3919 2741 Crs
3714 2573 Crs
3979 2921 Crs
3977 2454 Crs
4137 3112 Crs
3593 2573 Crs
4029 2792 Crs
4125 2804 Crs
4174 2592 Crs
3614 2392 Crs
4059 2811 Crs
3620 2605 Crs
4060 2691 Crs
3625 2692 Crs
3303 2457 Crs
3973 2662 Crs
3454 2407 Crs
3636 2265 Crs
4113 2717 Crs
3944 2533 Crs
3881 2782 Crs
3795 2847 Crs
4011 2702 Crs
3620 2647 Crs
3747 2456 Crs
4427 2580 Crs
3784 2551 Crs
3975 2560 Crs
4014 2570 Crs
4094 2911 Crs
4088 2450 Crs
3903 2773 Crs
3889 2873 Crs
4179 2640 Crs
4093 2652 Crs
3311 2477 Crs
4146 2446 Crs
3878 2597 Crs
3519 2619 Crs
3853 2806 Crs
% End plot #2
% Begin plot #3
1.000 UL
LTb
LT1
0.75 0.75 0.75 C 1149 858 M
35 27 V
36 27 V
35 27 V
36 27 V
36 27 V
35 27 V
36 27 V
36 27 V
35 27 V
36 27 V
36 27 V
35 27 V
36 27 V
36 27 V
35 27 V
36 27 V
36 27 V
35 27 V
36 27 V
36 27 V
35 27 V
36 27 V
36 27 V
35 27 V
36 27 V
36 27 V
35 27 V
36 27 V
36 27 V
35 27 V
36 27 V
36 27 V
35 27 V
36 27 V
36 27 V
35 27 V
36 27 V
36 27 V
35 27 V
36 27 V
36 27 V
35 27 V
36 27 V
36 27 V
35 27 V
36 27 V
36 27 V
35 27 V
36 27 V
36 27 V
35 27 V
36 27 V
36 27 V
35 27 V
36 27 V
36 27 V
35 27 V
36 27 V
36 27 V
35 27 V
36 27 V
36 27 V
35 27 V
36 27 V
36 27 V
35 27 V
36 27 V
35 27 V
36 27 V
36 27 V
35 27 V
36 27 V
36 27 V
35 27 V
36 27 V
36 27 V
35 27 V
36 27 V
36 27 V
35 27 V
36 27 V
36 27 V
35 27 V
36 27 V
36 27 V
35 27 V
36 27 V
36 27 V
35 27 V
36 27 V
36 27 V
35 27 V
36 27 V
36 27 V
35 27 V
36 27 V
36 27 V
35 27 V
36 27 V
% End plot #3
stroke
2.000 UL
LTb
LCb setrgbcolor
1.000 UL
LTb
LCb setrgbcolor
860 3531 N
860 640 L
3819 0 V
0 2891 V
-3819 0 V
Z stroke
0.500 UP
1.000 UL
LTb
LCb setrgbcolor
stroke
grestore
end
showpage
%%Trailer
%%DocumentFonts: Helvetica
