%!PS-Adobe-2.0
%%Title: /home/tiphaine/Documents/my-thesis/Chapters/Figures/20130625_1h-pktspersecond.eps
%%Creator: gnuplot 4.6 patchlevel 4
%%CreationDate: Mon Jul 25 23:06:24 2016
%%DocumentFonts: (atend)
%%BoundingBox: 50 50 554 770
%%Orientation: Landscape
%%Pages: (atend)
%%EndComments
%%BeginProlog
/gnudict 256 dict def
gnudict begin
%
% The following true/false flags may be edited by hand if desired.
% The unit line width and grayscale image gamma correction may also be changed.
%
/Color true def
/Blacktext false def
/Solid false def
/Dashlength 1 def
/Landscape true def
/Level1 false def
/Rounded false def
/ClipToBoundingBox false def
/SuppressPDFMark false def
/TransparentPatterns false def
/gnulinewidth 5.000 def
/userlinewidth gnulinewidth def
/Gamma 1.0 def
/BackgroundColor {-1.000 -1.000 -1.000} def
%
/vshift -46 def
/dl1 {
  10.0 Dashlength mul mul
  Rounded { currentlinewidth 0.75 mul sub dup 0 le { pop 0.01 } if } if
} def
/dl2 {
  10.0 Dashlength mul mul
  Rounded { currentlinewidth 0.75 mul add } if
} def
/hpt_ 31.5 def
/vpt_ 31.5 def
/hpt hpt_ def
/vpt vpt_ def
/doclip {
  ClipToBoundingBox {
    newpath 50 50 moveto 554 50 lineto 554 770 lineto 50 770 lineto closepath
    clip
  } if
} def
%
% Gnuplot Prolog Version 4.6 (September 2012)
%
%/SuppressPDFMark true def
%
/M {moveto} bind def
/L {lineto} bind def
/R {rmoveto} bind def
/V {rlineto} bind def
/N {newpath moveto} bind def
/Z {closepath} bind def
/C {setrgbcolor} bind def
/f {rlineto fill} bind def
/g {setgray} bind def
/Gshow {show} def   % May be redefined later in the file to support UTF-8
/vpt2 vpt 2 mul def
/hpt2 hpt 2 mul def
/Lshow {currentpoint stroke M 0 vshift R 
	Blacktext {gsave 0 setgray show grestore} {show} ifelse} def
/Rshow {currentpoint stroke M dup stringwidth pop neg vshift R
	Blacktext {gsave 0 setgray show grestore} {show} ifelse} def
/Cshow {currentpoint stroke M dup stringwidth pop -2 div vshift R 
	Blacktext {gsave 0 setgray show grestore} {show} ifelse} def
/UP {dup vpt_ mul /vpt exch def hpt_ mul /hpt exch def
  /hpt2 hpt 2 mul def /vpt2 vpt 2 mul def} def
/DL {Color {setrgbcolor Solid {pop []} if 0 setdash}
 {pop pop pop 0 setgray Solid {pop []} if 0 setdash} ifelse} def
/BL {stroke userlinewidth 2 mul setlinewidth
	Rounded {1 setlinejoin 1 setlinecap} if} def
/AL {stroke userlinewidth 2 div setlinewidth
	Rounded {1 setlinejoin 1 setlinecap} if} def
/UL {dup gnulinewidth mul /userlinewidth exch def
	dup 1 lt {pop 1} if 10 mul /udl exch def} def
/PL {stroke userlinewidth setlinewidth
	Rounded {1 setlinejoin 1 setlinecap} if} def
3.8 setmiterlimit
% Default Line colors
/LCw {1 1 1} def
/LCb {0 0 0} def
/LCa {0 0 0} def
/LC0 {1 0 0} def
/LC1 {0 1 0} def
/LC2 {0 0 1} def
/LC3 {1 0 1} def
/LC4 {0 1 1} def
/LC5 {1 1 0} def
/LC6 {0 0 0} def
/LC7 {1 0.3 0} def
/LC8 {0.5 0.5 0.5} def
% Default Line Types
/LTw {PL [] 1 setgray} def
/LTb {BL [] LCb DL} def
/LTa {AL [1 udl mul 2 udl mul] 0 setdash LCa setrgbcolor} def
/LT0 {PL [] LC0 DL} def
/LT1 {PL [4 dl1 2 dl2] LC1 DL} def
/LT2 {PL [2 dl1 3 dl2] LC2 DL} def
/LT3 {PL [1 dl1 1.5 dl2] LC3 DL} def
/LT4 {PL [6 dl1 2 dl2 1 dl1 2 dl2] LC4 DL} def
/LT5 {PL [3 dl1 3 dl2 1 dl1 3 dl2] LC5 DL} def
/LT6 {PL [2 dl1 2 dl2 2 dl1 6 dl2] LC6 DL} def
/LT7 {PL [1 dl1 2 dl2 6 dl1 2 dl2 1 dl1 2 dl2] LC7 DL} def
/LT8 {PL [2 dl1 2 dl2 2 dl1 2 dl2 2 dl1 2 dl2 2 dl1 4 dl2] LC8 DL} def
/Pnt {stroke [] 0 setdash gsave 1 setlinecap M 0 0 V stroke grestore} def
/Dia {stroke [] 0 setdash 2 copy vpt add M
  hpt neg vpt neg V hpt vpt neg V
  hpt vpt V hpt neg vpt V closepath stroke
  Pnt} def
/Pls {stroke [] 0 setdash vpt sub M 0 vpt2 V
  currentpoint stroke M
  hpt neg vpt neg R hpt2 0 V stroke
 } def
/Box {stroke [] 0 setdash 2 copy exch hpt sub exch vpt add M
  0 vpt2 neg V hpt2 0 V 0 vpt2 V
  hpt2 neg 0 V closepath stroke
  Pnt} def
/Crs {stroke [] 0 setdash exch hpt sub exch vpt add M
  hpt2 vpt2 neg V currentpoint stroke M
  hpt2 neg 0 R hpt2 vpt2 V stroke} def
/TriU {stroke [] 0 setdash 2 copy vpt 1.12 mul add M
  hpt neg vpt -1.62 mul V
  hpt 2 mul 0 V
  hpt neg vpt 1.62 mul V closepath stroke
  Pnt} def
/Star {2 copy Pls Crs} def
/BoxF {stroke [] 0 setdash exch hpt sub exch vpt add M
  0 vpt2 neg V hpt2 0 V 0 vpt2 V
  hpt2 neg 0 V closepath fill} def
/TriUF {stroke [] 0 setdash vpt 1.12 mul add M
  hpt neg vpt -1.62 mul V
  hpt 2 mul 0 V
  hpt neg vpt 1.62 mul V closepath fill} def
/TriD {stroke [] 0 setdash 2 copy vpt 1.12 mul sub M
  hpt neg vpt 1.62 mul V
  hpt 2 mul 0 V
  hpt neg vpt -1.62 mul V closepath stroke
  Pnt} def
/TriDF {stroke [] 0 setdash vpt 1.12 mul sub M
  hpt neg vpt 1.62 mul V
  hpt 2 mul 0 V
  hpt neg vpt -1.62 mul V closepath fill} def
/DiaF {stroke [] 0 setdash vpt add M
  hpt neg vpt neg V hpt vpt neg V
  hpt vpt V hpt neg vpt V closepath fill} def
/Pent {stroke [] 0 setdash 2 copy gsave
  translate 0 hpt M 4 {72 rotate 0 hpt L} repeat
  closepath stroke grestore Pnt} def
/PentF {stroke [] 0 setdash gsave
  translate 0 hpt M 4 {72 rotate 0 hpt L} repeat
  closepath fill grestore} def
/Circle {stroke [] 0 setdash 2 copy
  hpt 0 360 arc stroke Pnt} def
/CircleF {stroke [] 0 setdash hpt 0 360 arc fill} def
/C0 {BL [] 0 setdash 2 copy moveto vpt 90 450 arc} bind def
/C1 {BL [] 0 setdash 2 copy moveto
	2 copy vpt 0 90 arc closepath fill
	vpt 0 360 arc closepath} bind def
/C2 {BL [] 0 setdash 2 copy moveto
	2 copy vpt 90 180 arc closepath fill
	vpt 0 360 arc closepath} bind def
/C3 {BL [] 0 setdash 2 copy moveto
	2 copy vpt 0 180 arc closepath fill
	vpt 0 360 arc closepath} bind def
/C4 {BL [] 0 setdash 2 copy moveto
	2 copy vpt 180 270 arc closepath fill
	vpt 0 360 arc closepath} bind def
/C5 {BL [] 0 setdash 2 copy moveto
	2 copy vpt 0 90 arc
	2 copy moveto
	2 copy vpt 180 270 arc closepath fill
	vpt 0 360 arc} bind def
/C6 {BL [] 0 setdash 2 copy moveto
	2 copy vpt 90 270 arc closepath fill
	vpt 0 360 arc closepath} bind def
/C7 {BL [] 0 setdash 2 copy moveto
	2 copy vpt 0 270 arc closepath fill
	vpt 0 360 arc closepath} bind def
/C8 {BL [] 0 setdash 2 copy moveto
	2 copy vpt 270 360 arc closepath fill
	vpt 0 360 arc closepath} bind def
/C9 {BL [] 0 setdash 2 copy moveto
	2 copy vpt 270 450 arc closepath fill
	vpt 0 360 arc closepath} bind def
/C10 {BL [] 0 setdash 2 copy 2 copy moveto vpt 270 360 arc closepath fill
	2 copy moveto
	2 copy vpt 90 180 arc closepath fill
	vpt 0 360 arc closepath} bind def
/C11 {BL [] 0 setdash 2 copy moveto
	2 copy vpt 0 180 arc closepath fill
	2 copy moveto
	2 copy vpt 270 360 arc closepath fill
	vpt 0 360 arc closepath} bind def
/C12 {BL [] 0 setdash 2 copy moveto
	2 copy vpt 180 360 arc closepath fill
	vpt 0 360 arc closepath} bind def
/C13 {BL [] 0 setdash 2 copy moveto
	2 copy vpt 0 90 arc closepath fill
	2 copy moveto
	2 copy vpt 180 360 arc closepath fill
	vpt 0 360 arc closepath} bind def
/C14 {BL [] 0 setdash 2 copy moveto
	2 copy vpt 90 360 arc closepath fill
	vpt 0 360 arc} bind def
/C15 {BL [] 0 setdash 2 copy vpt 0 360 arc closepath fill
	vpt 0 360 arc closepath} bind def
/Rec {newpath 4 2 roll moveto 1 index 0 rlineto 0 exch rlineto
	neg 0 rlineto closepath} bind def
/Square {dup Rec} bind def
/Bsquare {vpt sub exch vpt sub exch vpt2 Square} bind def
/S0 {BL [] 0 setdash 2 copy moveto 0 vpt rlineto BL Bsquare} bind def
/S1 {BL [] 0 setdash 2 copy vpt Square fill Bsquare} bind def
/S2 {BL [] 0 setdash 2 copy exch vpt sub exch vpt Square fill Bsquare} bind def
/S3 {BL [] 0 setdash 2 copy exch vpt sub exch vpt2 vpt Rec fill Bsquare} bind def
/S4 {BL [] 0 setdash 2 copy exch vpt sub exch vpt sub vpt Square fill Bsquare} bind def
/S5 {BL [] 0 setdash 2 copy 2 copy vpt Square fill
	exch vpt sub exch vpt sub vpt Square fill Bsquare} bind def
/S6 {BL [] 0 setdash 2 copy exch vpt sub exch vpt sub vpt vpt2 Rec fill Bsquare} bind def
/S7 {BL [] 0 setdash 2 copy exch vpt sub exch vpt sub vpt vpt2 Rec fill
	2 copy vpt Square fill Bsquare} bind def
/S8 {BL [] 0 setdash 2 copy vpt sub vpt Square fill Bsquare} bind def
/S9 {BL [] 0 setdash 2 copy vpt sub vpt vpt2 Rec fill Bsquare} bind def
/S10 {BL [] 0 setdash 2 copy vpt sub vpt Square fill 2 copy exch vpt sub exch vpt Square fill
	Bsquare} bind def
/S11 {BL [] 0 setdash 2 copy vpt sub vpt Square fill 2 copy exch vpt sub exch vpt2 vpt Rec fill
	Bsquare} bind def
/S12 {BL [] 0 setdash 2 copy exch vpt sub exch vpt sub vpt2 vpt Rec fill Bsquare} bind def
/S13 {BL [] 0 setdash 2 copy exch vpt sub exch vpt sub vpt2 vpt Rec fill
	2 copy vpt Square fill Bsquare} bind def
/S14 {BL [] 0 setdash 2 copy exch vpt sub exch vpt sub vpt2 vpt Rec fill
	2 copy exch vpt sub exch vpt Square fill Bsquare} bind def
/S15 {BL [] 0 setdash 2 copy Bsquare fill Bsquare} bind def
/D0 {gsave translate 45 rotate 0 0 S0 stroke grestore} bind def
/D1 {gsave translate 45 rotate 0 0 S1 stroke grestore} bind def
/D2 {gsave translate 45 rotate 0 0 S2 stroke grestore} bind def
/D3 {gsave translate 45 rotate 0 0 S3 stroke grestore} bind def
/D4 {gsave translate 45 rotate 0 0 S4 stroke grestore} bind def
/D5 {gsave translate 45 rotate 0 0 S5 stroke grestore} bind def
/D6 {gsave translate 45 rotate 0 0 S6 stroke grestore} bind def
/D7 {gsave translate 45 rotate 0 0 S7 stroke grestore} bind def
/D8 {gsave translate 45 rotate 0 0 S8 stroke grestore} bind def
/D9 {gsave translate 45 rotate 0 0 S9 stroke grestore} bind def
/D10 {gsave translate 45 rotate 0 0 S10 stroke grestore} bind def
/D11 {gsave translate 45 rotate 0 0 S11 stroke grestore} bind def
/D12 {gsave translate 45 rotate 0 0 S12 stroke grestore} bind def
/D13 {gsave translate 45 rotate 0 0 S13 stroke grestore} bind def
/D14 {gsave translate 45 rotate 0 0 S14 stroke grestore} bind def
/D15 {gsave translate 45 rotate 0 0 S15 stroke grestore} bind def
/DiaE {stroke [] 0 setdash vpt add M
  hpt neg vpt neg V hpt vpt neg V
  hpt vpt V hpt neg vpt V closepath stroke} def
/BoxE {stroke [] 0 setdash exch hpt sub exch vpt add M
  0 vpt2 neg V hpt2 0 V 0 vpt2 V
  hpt2 neg 0 V closepath stroke} def
/TriUE {stroke [] 0 setdash vpt 1.12 mul add M
  hpt neg vpt -1.62 mul V
  hpt 2 mul 0 V
  hpt neg vpt 1.62 mul V closepath stroke} def
/TriDE {stroke [] 0 setdash vpt 1.12 mul sub M
  hpt neg vpt 1.62 mul V
  hpt 2 mul 0 V
  hpt neg vpt -1.62 mul V closepath stroke} def
/PentE {stroke [] 0 setdash gsave
  translate 0 hpt M 4 {72 rotate 0 hpt L} repeat
  closepath stroke grestore} def
/CircE {stroke [] 0 setdash 
  hpt 0 360 arc stroke} def
/Opaque {gsave closepath 1 setgray fill grestore 0 setgray closepath} def
/DiaW {stroke [] 0 setdash vpt add M
  hpt neg vpt neg V hpt vpt neg V
  hpt vpt V hpt neg vpt V Opaque stroke} def
/BoxW {stroke [] 0 setdash exch hpt sub exch vpt add M
  0 vpt2 neg V hpt2 0 V 0 vpt2 V
  hpt2 neg 0 V Opaque stroke} def
/TriUW {stroke [] 0 setdash vpt 1.12 mul add M
  hpt neg vpt -1.62 mul V
  hpt 2 mul 0 V
  hpt neg vpt 1.62 mul V Opaque stroke} def
/TriDW {stroke [] 0 setdash vpt 1.12 mul sub M
  hpt neg vpt 1.62 mul V
  hpt 2 mul 0 V
  hpt neg vpt -1.62 mul V Opaque stroke} def
/PentW {stroke [] 0 setdash gsave
  translate 0 hpt M 4 {72 rotate 0 hpt L} repeat
  Opaque stroke grestore} def
/CircW {stroke [] 0 setdash 
  hpt 0 360 arc Opaque stroke} def
/BoxFill {gsave Rec 1 setgray fill grestore} def
/Density {
  /Fillden exch def
  currentrgbcolor
  /ColB exch def /ColG exch def /ColR exch def
  /ColR ColR Fillden mul Fillden sub 1 add def
  /ColG ColG Fillden mul Fillden sub 1 add def
  /ColB ColB Fillden mul Fillden sub 1 add def
  ColR ColG ColB setrgbcolor} def
/BoxColFill {gsave Rec PolyFill} def
/PolyFill {gsave Density fill grestore grestore} def
/h {rlineto rlineto rlineto gsave closepath fill grestore} bind def
%
% PostScript Level 1 Pattern Fill routine for rectangles
% Usage: x y w h s a XX PatternFill
%	x,y = lower left corner of box to be filled
%	w,h = width and height of box
%	  a = angle in degrees between lines and x-axis
%	 XX = 0/1 for no/yes cross-hatch
%
/PatternFill {gsave /PFa [ 9 2 roll ] def
  PFa 0 get PFa 2 get 2 div add PFa 1 get PFa 3 get 2 div add translate
  PFa 2 get -2 div PFa 3 get -2 div PFa 2 get PFa 3 get Rec
  TransparentPatterns {} {gsave 1 setgray fill grestore} ifelse
  clip
  currentlinewidth 0.5 mul setlinewidth
  /PFs PFa 2 get dup mul PFa 3 get dup mul add sqrt def
  0 0 M PFa 5 get rotate PFs -2 div dup translate
  0 1 PFs PFa 4 get div 1 add floor cvi
	{PFa 4 get mul 0 M 0 PFs V} for
  0 PFa 6 get ne {
	0 1 PFs PFa 4 get div 1 add floor cvi
	{PFa 4 get mul 0 2 1 roll M PFs 0 V} for
 } if
  stroke grestore} def
%
/languagelevel where
 {pop languagelevel} {1} ifelse
 2 lt
	{/InterpretLevel1 true def}
	{/InterpretLevel1 Level1 def}
 ifelse
%
% PostScript level 2 pattern fill definitions
%
/Level2PatternFill {
/Tile8x8 {/PaintType 2 /PatternType 1 /TilingType 1 /BBox [0 0 8 8] /XStep 8 /YStep 8}
	bind def
/KeepColor {currentrgbcolor [/Pattern /DeviceRGB] setcolorspace} bind def
<< Tile8x8
 /PaintProc {0.5 setlinewidth pop 0 0 M 8 8 L 0 8 M 8 0 L stroke} 
>> matrix makepattern
/Pat1 exch def
<< Tile8x8
 /PaintProc {0.5 setlinewidth pop 0 0 M 8 8 L 0 8 M 8 0 L stroke
	0 4 M 4 8 L 8 4 L 4 0 L 0 4 L stroke}
>> matrix makepattern
/Pat2 exch def
<< Tile8x8
 /PaintProc {0.5 setlinewidth pop 0 0 M 0 8 L
	8 8 L 8 0 L 0 0 L fill}
>> matrix makepattern
/Pat3 exch def
<< Tile8x8
 /PaintProc {0.5 setlinewidth pop -4 8 M 8 -4 L
	0 12 M 12 0 L stroke}
>> matrix makepattern
/Pat4 exch def
<< Tile8x8
 /PaintProc {0.5 setlinewidth pop -4 0 M 8 12 L
	0 -4 M 12 8 L stroke}
>> matrix makepattern
/Pat5 exch def
<< Tile8x8
 /PaintProc {0.5 setlinewidth pop -2 8 M 4 -4 L
	0 12 M 8 -4 L 4 12 M 10 0 L stroke}
>> matrix makepattern
/Pat6 exch def
<< Tile8x8
 /PaintProc {0.5 setlinewidth pop -2 0 M 4 12 L
	0 -4 M 8 12 L 4 -4 M 10 8 L stroke}
>> matrix makepattern
/Pat7 exch def
<< Tile8x8
 /PaintProc {0.5 setlinewidth pop 8 -2 M -4 4 L
	12 0 M -4 8 L 12 4 M 0 10 L stroke}
>> matrix makepattern
/Pat8 exch def
<< Tile8x8
 /PaintProc {0.5 setlinewidth pop 0 -2 M 12 4 L
	-4 0 M 12 8 L -4 4 M 8 10 L stroke}
>> matrix makepattern
/Pat9 exch def
/Pattern1 {PatternBgnd KeepColor Pat1 setpattern} bind def
/Pattern2 {PatternBgnd KeepColor Pat2 setpattern} bind def
/Pattern3 {PatternBgnd KeepColor Pat3 setpattern} bind def
/Pattern4 {PatternBgnd KeepColor Landscape {Pat5} {Pat4} ifelse setpattern} bind def
/Pattern5 {PatternBgnd KeepColor Landscape {Pat4} {Pat5} ifelse setpattern} bind def
/Pattern6 {PatternBgnd KeepColor Landscape {Pat9} {Pat6} ifelse setpattern} bind def
/Pattern7 {PatternBgnd KeepColor Landscape {Pat8} {Pat7} ifelse setpattern} bind def
} def
%
%
%End of PostScript Level 2 code
%
/PatternBgnd {
  TransparentPatterns {} {gsave 1 setgray fill grestore} ifelse
} def
%
% Substitute for Level 2 pattern fill codes with
% grayscale if Level 2 support is not selected.
%
/Level1PatternFill {
/Pattern1 {0.250 Density} bind def
/Pattern2 {0.500 Density} bind def
/Pattern3 {0.750 Density} bind def
/Pattern4 {0.125 Density} bind def
/Pattern5 {0.375 Density} bind def
/Pattern6 {0.625 Density} bind def
/Pattern7 {0.875 Density} bind def
} def
%
% Now test for support of Level 2 code
%
Level1 {Level1PatternFill} {Level2PatternFill} ifelse
%
/Symbol-Oblique /Symbol findfont [1 0 .167 1 0 0] makefont
dup length dict begin {1 index /FID eq {pop pop} {def} ifelse} forall
currentdict end definefont pop
Level1 SuppressPDFMark or 
{} {
/SDict 10 dict def
systemdict /pdfmark known not {
  userdict /pdfmark systemdict /cleartomark get put
} if
SDict begin [
  /Title (/home/tiphaine/Documents/my-thesis/Chapters/Figures/20130625_1h-pktspersecond.eps)
  /Subject (gnuplot plot)
  /Creator (gnuplot 4.6 patchlevel 4)
  /Author (tiphaine)
%  /Producer (gnuplot)
%  /Keywords ()
  /CreationDate (Mon Jul 25 23:06:24 2016)
  /DOCINFO pdfmark
end
} ifelse
end
%%EndProlog
%%Page: 1 1
gnudict begin
gsave
doclip
50 50 translate
0.100 0.100 scale
90 rotate
0 -5040 translate
0 setgray
newpath
(Helvetica) findfont 140 scalefont setfont
BackgroundColor 0 lt 3 1 roll 0 lt exch 0 lt or or not {gsave BackgroundColor C clippath fill grestore} if
1.000 UL
LTb
LCb setrgbcolor
938 448 M
63 0 V
5946 0 R
-63 0 V
/Helvetica findfont 200 scalefont setfont
/vshift -66 def
854 448 M
( 0) Rshow
/Helvetica findfont 140 scalefont setfont
/vshift -46 def
1.000 UL
LTb
LCb setrgbcolor
938 1080 M
63 0 V
5946 0 R
-63 0 V
/Helvetica findfont 200 scalefont setfont
/vshift -66 def
-6030 0 R
( 20000) Rshow
/Helvetica findfont 140 scalefont setfont
/vshift -46 def
1.000 UL
LTb
LCb setrgbcolor
938 1712 M
63 0 V
5946 0 R
-63 0 V
/Helvetica findfont 200 scalefont setfont
/vshift -66 def
-6030 0 R
( 40000) Rshow
/Helvetica findfont 140 scalefont setfont
/vshift -46 def
1.000 UL
LTb
LCb setrgbcolor
938 2344 M
63 0 V
5946 0 R
-63 0 V
/Helvetica findfont 200 scalefont setfont
/vshift -66 def
-6030 0 R
( 60000) Rshow
/Helvetica findfont 140 scalefont setfont
/vshift -46 def
1.000 UL
LTb
LCb setrgbcolor
938 2975 M
63 0 V
5946 0 R
-63 0 V
/Helvetica findfont 200 scalefont setfont
/vshift -66 def
-6030 0 R
( 80000) Rshow
/Helvetica findfont 140 scalefont setfont
/vshift -46 def
1.000 UL
LTb
LCb setrgbcolor
938 3607 M
63 0 V
5946 0 R
-63 0 V
/Helvetica findfont 200 scalefont setfont
/vshift -66 def
-6030 0 R
( 100000) Rshow
/Helvetica findfont 140 scalefont setfont
/vshift -46 def
1.000 UL
LTb
LCb setrgbcolor
938 4239 M
63 0 V
5946 0 R
-63 0 V
/Helvetica findfont 200 scalefont setfont
/vshift -66 def
-6030 0 R
( 120000) Rshow
/Helvetica findfont 140 scalefont setfont
/vshift -46 def
1.000 UL
LTb
LCb setrgbcolor
938 4871 M
63 0 V
5946 0 R
-63 0 V
/Helvetica findfont 200 scalefont setfont
/vshift -66 def
-6030 0 R
( 140000) Rshow
/Helvetica findfont 140 scalefont setfont
/vshift -46 def
1.000 UL
LTb
LCb setrgbcolor
938 448 M
0 63 V
0 4360 R
0 -63 V
/Helvetica findfont 200 scalefont setfont
/vshift -66 def
938 308 M
( 0) Cshow
/Helvetica findfont 140 scalefont setfont
/vshift -46 def
1.000 UL
LTb
LCb setrgbcolor
1689 448 M
0 63 V
0 4360 R
0 -63 V
/Helvetica findfont 200 scalefont setfont
/vshift -66 def
0 -4500 R
( 500) Cshow
/Helvetica findfont 140 scalefont setfont
/vshift -46 def
1.000 UL
LTb
LCb setrgbcolor
2440 448 M
0 63 V
0 4360 R
0 -63 V
/Helvetica findfont 200 scalefont setfont
/vshift -66 def
0 -4500 R
( 1000) Cshow
/Helvetica findfont 140 scalefont setfont
/vshift -46 def
1.000 UL
LTb
LCb setrgbcolor
3191 448 M
0 63 V
0 4360 R
0 -63 V
/Helvetica findfont 200 scalefont setfont
/vshift -66 def
0 -4500 R
( 1500) Cshow
/Helvetica findfont 140 scalefont setfont
/vshift -46 def
1.000 UL
LTb
LCb setrgbcolor
3943 448 M
0 63 V
0 4360 R
0 -63 V
/Helvetica findfont 200 scalefont setfont
/vshift -66 def
0 -4500 R
( 2000) Cshow
/Helvetica findfont 140 scalefont setfont
/vshift -46 def
1.000 UL
LTb
LCb setrgbcolor
4694 448 M
0 63 V
0 4360 R
0 -63 V
/Helvetica findfont 200 scalefont setfont
/vshift -66 def
0 -4500 R
( 2500) Cshow
/Helvetica findfont 140 scalefont setfont
/vshift -46 def
1.000 UL
LTb
LCb setrgbcolor
5445 448 M
0 63 V
0 4360 R
0 -63 V
/Helvetica findfont 200 scalefont setfont
/vshift -66 def
0 -4500 R
( 3000) Cshow
/Helvetica findfont 140 scalefont setfont
/vshift -46 def
1.000 UL
LTb
LCb setrgbcolor
6196 448 M
0 63 V
0 4360 R
0 -63 V
/Helvetica findfont 200 scalefont setfont
/vshift -66 def
0 -4500 R
( 3500) Cshow
/Helvetica findfont 140 scalefont setfont
/vshift -46 def
1.000 UL
LTb
LCb setrgbcolor
6947 448 M
0 63 V
0 4360 R
0 -63 V
/Helvetica findfont 200 scalefont setfont
/vshift -66 def
0 -4500 R
( 4000) Cshow
/Helvetica findfont 140 scalefont setfont
/vshift -46 def
1.000 UL
LTb
LCb setrgbcolor
1.000 UL
LTb
LCb setrgbcolor
938 4871 N
938 448 L
6009 0 V
0 4423 V
-6009 0 V
Z stroke
LCb setrgbcolor
/Helvetica findfont 240 scalefont setfont
/vshift -80 def
112 2659 M
currentpoint gsave translate -270 rotate 0 0 M
(Number of packets) Cshow
grestore
/Helvetica findfont 140 scalefont setfont
/vshift -46 def
LTb
LCb setrgbcolor
/Helvetica findfont 240 scalefont setfont
/vshift -80 def
3942 98 M
(Time) Cshow
/Helvetica findfont 140 scalefont setfont
/vshift -46 def
LTb
1.000 UP
1.000 UL
LTb
LCb setrgbcolor
% Begin plot #1
1.000 UL
LT0
LC0 setrgbcolor
938 904 M
2 993 V
1 -32 V
2 207 V
1 -67 V
2 412 V
1 75 V
2 314 V
1 -436 V
2 37 V
1 148 V
2 -416 V
1 -149 V
2 -88 V
1 9 V
2 134 V
1 -76 V
2 -89 V
1 10 V
2 63 V
1 -150 V
2 1 V
1 227 V
2 -22 V
1 -104 V
2 11 V
1 112 V
2 -79 V
1 -64 V
2 -56 V
1 164 V
2 -29 V
1 -207 V
2 285 V
1 -75 V
2 -77 V
1 -114 V
2 79 V
1 -79 V
2 364 V
1 -303 V
2 -101 V
1 -30 V
2 100 V
1 -139 V
2 289 V
1 29 V
2 -191 V
1 -125 V
2 191 V
1 16 V
2 -9 V
1 -102 V
2 12 V
1 17 V
2 -127 V
1 95 V
2 2 V
1 -32 V
2 -108 V
1 169 V
2 -52 V
1 -48 V
2 149 V
1 -139 V
2 187 V
1 -83 V
2 -120 V
1 109 V
2 124 V
1 -7 V
2 -56 V
1 -154 V
2 -61 V
1 54 V
2 102 V
1 24 V
2 25 V
1 -186 V
2 145 V
1 70 V
2 -151 V
1 120 V
2 -70 V
1 -13 V
2 -25 V
1 -155 V
2 -24 V
1 88 V
2 -2 V
1 56 V
2 5 V
1 133 V
2 63 V
1 -144 V
2 -83 V
1 7 V
2 -22 V
1 165 V
2 290 V
1 -15 V
2 -260 V
1 45 V
2 -160 V
1 -6 V
stroke 1094 1718 M
2 32 V
1 -99 V
2 387 V
1 216 V
2 -281 V
1 90 V
2 -26 V
1 -109 V
2 -73 V
1 40 V
2 -154 V
1 88 V
2 -3 V
1 97 V
2 -39 V
1 -93 V
2 138 V
1 -33 V
2 70 V
1 121 V
2 -236 V
1 47 V
2 101 V
1 85 V
2 -169 V
1 91 V
2 -131 V
1 -21 V
2 2896 V
1 -1640 V
2 277 V
1 429 V
2 631 V
1 306 V
2 -649 V
1 -697 V
2 -256 V
1 248 V
2 521 V
1 666 V
2 -1618 V
1 -319 V
2 623 V
1 709 V
2 -195 V
1 -1477 V
2 -703 V
1 238 V
2 -90 V
1 -143 V
2 15 V
1 -33 V
2 74 V
1 -106 V
2 -100 V
1 176 V
2 -47 V
1 166 V
2 -91 V
1 1 V
2 114 V
1 23 V
2 56 V
1 388 V
2 -34 V
1 874 V
2 -307 V
1 241 V
2 120 V
1 -18 V
2 -519 V
1 -83 V
2 323 V
1 58 V
2 230 V
1 457 V
2 -494 V
1 167 V
2 -419 V
1 25 V
2 -83 V
1 -250 V
2 -324 V
1 -167 V
2 38 V
1 -514 V
2 35 V
1 81 V
2 -7 V
1 175 V
2 102 V
1 -242 V
2 391 V
1 479 V
2 46 V
1 250 V
2 -70 V
1 -250 V
2 -420 V
1 -105 V
2 -171 V
1 -51 V
2 -164 V
1 -41 V
stroke 1250 1606 M
2 82 V
1 -23 V
2 476 V
1 -409 V
2 -65 V
1 158 V
2 -27 V
1 -104 V
2 -16 V
1 10 V
2 145 V
1 -72 V
2 -58 V
1 -125 V
2 55 V
2 198 V
1 -44 V
2 43 V
1 -231 V
2 120 V
1 -116 V
2 56 V
1 -28 V
2 -40 V
1 10 V
2 24 V
1 71 V
2 85 V
1 149 V
2 14 V
1 -173 V
2 197 V
1 -78 V
2 -221 V
1 -68 V
2 305 V
1 -221 V
2 161 V
1 40 V
2 -45 V
1 -229 V
2 -53 V
1 161 V
2 -104 V
1 -27 V
2 104 V
1 139 V
2 328 V
1 -342 V
2 14 V
1 241 V
2 34 V
1 172 V
2 -167 V
1 218 V
2 176 V
1 -430 V
2 -112 V
1 154 V
2 -23 V
1 -258 V
2 -9 V
1 -24 V
2 -184 V
1 -25 V
2 127 V
1 310 V
2 305 V
1 15 V
2 342 V
1 193 V
2 -482 V
1 -240 V
2 -173 V
1 -88 V
2 -1 V
1 -263 V
2 13 V
1 36 V
2 330 V
1 -50 V
2 -107 V
1 -23 V
2 -78 V
1 133 V
2 74 V
1 -47 V
2 98 V
1 -123 V
2 -82 V
1 49 V
2 93 V
1 -171 V
2 374 V
1 278 V
2 101 V
1 -176 V
2 441 V
1 -684 V
2 -71 V
1 406 V
2 -286 V
1 -55 V
2 -197 V
stroke 1407 1916 M
1 66 V
2 143 V
1 -302 V
2 193 V
1 30 V
2 243 V
1 135 V
2 17 V
1 -213 V
2 -233 V
1 84 V
2 319 V
1 -426 V
2 -313 V
1 255 V
2 -74 V
1 -104 V
2 340 V
1 323 V
2 -156 V
1 -186 V
2 128 V
1 62 V
2 7 V
1 183 V
2 30 V
1 -124 V
2 -48 V
1 -109 V
2 23 V
1 -54 V
2 -68 V
1 22 V
2 111 V
1 84 V
2 -81 V
1 -87 V
2 -150 V
1 -135 V
2 233 V
1 324 V
2 -141 V
1 -35 V
2 -364 V
1 9 V
2 211 V
1 66 V
2 64 V
1 -179 V
2 -196 V
1 317 V
2 -109 V
1 24 V
2 -3 V
1 -124 V
2 168 V
1 114 V
2 -161 V
1 -68 V
2 94 V
1 -67 V
2 28 V
1 -435 V
2 125 V
1 108 V
2 -15 V
1 158 V
2 -190 V
1 47 V
2 -126 V
1 61 V
2 -115 V
1 -51 V
2 70 V
1 207 V
2 -7 V
1 -100 V
2 -176 V
1 966 V
2 -804 V
1 -78 V
2 -66 V
1 964 V
2 -1017 V
1 97 V
2 332 V
1 -121 V
2 -204 V
1 -13 V
2 -63 V
1 -19 V
2 7 V
1 132 V
2 -39 V
1 -52 V
2 -72 V
1 125 V
2 32 V
1 -158 V
2 -123 V
1 278 V
2 128 V
1 -205 V
2 -16 V
stroke 1563 1628 M
1 301 V
2 -288 V
1 59 V
2 -81 V
1 30 V
2 -44 V
1 208 V
2 83 V
1 -154 V
2 64 V
1 21 V
2 -58 V
1 -37 V
2 67 V
1 140 V
2 -118 V
1 -93 V
2 136 V
1 78 V
2 80 V
1 -115 V
2 -110 V
1 111 V
2 119 V
1 110 V
2 197 V
1 -138 V
2 -157 V
2 -20 V
1 -243 V
2 42 V
1 86 V
2 65 V
1 0 V
2 -16 V
1 42 V
2 -112 V
1 265 V
2 198 V
1 -600 V
2 -42 V
1 136 V
2 151 V
1 -92 V
2 34 V
1 139 V
2 119 V
1 -28 V
2 217 V
1 -459 V
2 -66 V
1 -166 V
2 134 V
1 54 V
2 70 V
1 -108 V
2 -117 V
1 -64 V
2 275 V
1 193 V
2 -299 V
1 -11 V
2 24 V
1 111 V
2 -79 V
1 -120 V
2 -53 V
1 18 V
2 -119 V
1 124 V
2 389 V
1 -102 V
2 -114 V
1 37 V
2 1 V
1 -180 V
2 39 V
1 4 V
2 151 V
1 -69 V
2 -44 V
1 115 V
2 -35 V
1 -216 V
2 29 V
1 331 V
2 -199 V
1 -17 V
2 -41 V
1 -22 V
2 -15 V
1 40 V
2 -40 V
1 271 V
2 78 V
1 -16 V
2 230 V
1 -305 V
2 -41 V
1 -208 V
2 68 V
1 179 V
2 -44 V
1 -278 V
stroke 1719 1698 M
2 -10 V
1 314 V
2 117 V
1 144 V
2 -20 V
1 -199 V
2 197 V
1 350 V
2 -493 V
1 -59 V
2 -35 V
1 -68 V
2 74 V
1 32 V
2 -124 V
1 133 V
2 -147 V
1 -64 V
2 11 V
1 -88 V
2 -4 V
1 100 V
2 -61 V
1 129 V
2 -5 V
1 -50 V
2 -176 V
1 118 V
2 248 V
1 -241 V
2 -43 V
1 22 V
2 -94 V
1 30 V
2 285 V
1 -201 V
2 86 V
1 -249 V
2 226 V
1 -14 V
2 -101 V
1 166 V
2 26 V
1 -184 V
2 202 V
1 147 V
2 -178 V
1 58 V
2 -92 V
1 246 V
2 136 V
1 -222 V
2 -305 V
1 111 V
2 425 V
1 -494 V
2 -88 V
1 -77 V
2 72 V
1 -117 V
2 75 V
1 71 V
2 35 V
1 340 V
2 -365 V
1 -64 V
2 -70 V
1 75 V
2 -52 V
1 38 V
2 105 V
1 -43 V
2 -37 V
1 -55 V
2 -80 V
1 141 V
2 531 V
1 -145 V
2 -103 V
1 164 V
2 -129 V
1 -49 V
2 2 V
1 -152 V
2 -105 V
1 16 V
2 -20 V
1 -40 V
2 60 V
1 336 V
2 255 V
1 -67 V
2 -16 V
1 -88 V
2 35 V
1 24 V
2 -281 V
1 -188 V
2 -11 V
1 -6 V
2 81 V
1 226 V
2 28 V
1 -61 V
stroke 1875 2011 M
2 59 V
1 244 V
2 -252 V
1 -398 V
2 42 V
1 4 V
2 20 V
1 127 V
2 113 V
1 -80 V
2 -8 V
1 -12 V
2 100 V
1 53 V
2 -137 V
1 -125 V
2 130 V
1 53 V
2 106 V
1 -23 V
2 -107 V
1 73 V
2 -20 V
1 -103 V
2 -92 V
1 -69 V
2 35 V
1 167 V
2 -143 V
1 -44 V
2 134 V
1 83 V
2 -113 V
1 -172 V
2 694 V
1 -233 V
2 28 V
1 49 V
2 95 V
1 94 V
2 -521 V
1 -42 V
2 -36 V
2 -3 V
1 -99 V
2 94 V
1 40 V
2 -100 V
1 -25 V
2 119 V
1 -157 V
2 99 V
1 -7 V
2 166 V
1 -105 V
2 -73 V
1 131 V
2 -80 V
1 302 V
2 -195 V
1 68 V
2 12 V
1 23 V
2 114 V
1 -161 V
2 -168 V
1 47 V
2 9 V
1 29 V
2 50 V
1 67 V
2 -32 V
1 12 V
2 240 V
1 -195 V
2 -65 V
1 282 V
2 107 V
1 -47 V
2 -4 V
1 -18 V
2 108 V
1 -283 V
2 -176 V
1 4 V
2 -73 V
1 17 V
2 -9 V
1 -36 V
2 57 V
1 -40 V
2 47 V
1 65 V
2 0 V
1 -92 V
2 232 V
1 54 V
2 -277 V
1 -137 V
2 302 V
1 -134 V
2 111 V
1 -77 V
2 -67 V
stroke 2032 1857 M
1 103 V
2 135 V
1 -185 V
2 50 V
1 52 V
2 -24 V
1 -79 V
2 103 V
1 110 V
2 -41 V
1 153 V
2 -346 V
1 -21 V
2 138 V
1 -70 V
2 420 V
1 -338 V
2 -247 V
1 -65 V
2 -42 V
1 183 V
2 -92 V
1 69 V
2 289 V
1 -83 V
2 33 V
1 -212 V
2 184 V
1 374 V
2 -476 V
1 -150 V
2 -33 V
1 177 V
2 94 V
1 -329 V
2 207 V
1 6 V
2 142 V
1 -297 V
2 209 V
1 72 V
2 -45 V
1 -239 V
2 36 V
1 -18 V
2 220 V
1 57 V
2 309 V
1 -383 V
2 92 V
1 -167 V
2 126 V
1 232 V
2 -36 V
1 81 V
2 -134 V
1 64 V
2 54 V
1 186 V
2 -279 V
1 67 V
2 -136 V
1 21 V
2 -74 V
1 -27 V
2 251 V
1 -93 V
2 -102 V
1 247 V
2 -1 V
1 -180 V
2 -134 V
1 104 V
2 -21 V
1 -272 V
2 139 V
1 36 V
2 19 V
1 356 V
2 -137 V
1 -67 V
2 -108 V
1 13 V
2 -120 V
1 247 V
2 -39 V
1 104 V
2 208 V
1 -301 V
2 -127 V
1 -50 V
2 61 V
1 -38 V
2 -161 V
1 190 V
2 121 V
1 -6 V
2 -239 V
1 208 V
2 126 V
1 157 V
2 -111 V
1 -167 V
2 -149 V
stroke 2188 2001 M
1 219 V
2 72 V
1 -51 V
2 30 V
1 -316 V
2 17 V
1 108 V
2 125 V
1 104 V
2 -164 V
1 -79 V
2 -55 V
1 176 V
2 -111 V
1 -90 V
2 60 V
1 -16 V
2 269 V
1 -379 V
2 -66 V
1 162 V
2 25 V
1 -97 V
2 14 V
1 56 V
2 108 V
1 -95 V
2 109 V
1 135 V
2 -4 V
1 -390 V
2 327 V
1 -388 V
2 -14 V
1 12 V
2 32 V
1 -11 V
2 58 V
1 153 V
2 -185 V
1 56 V
2 98 V
1 -47 V
2 87 V
1 -9 V
2 268 V
1 -404 V
2 -218 V
1 127 V
2 109 V
1 -111 V
2 -133 V
1 34 V
2 -11 V
1 -46 V
2 174 V
2 32 V
1 164 V
2 -150 V
1 114 V
2 -45 V
1 16 V
2 -50 V
1 -121 V
2 52 V
1 30 V
2 -41 V
1 33 V
2 296 V
1 39 V
2 244 V
1 872 V
2 -291 V
1 -425 V
2 320 V
1 249 V
2 -79 V
1 -546 V
2 -224 V
1 268 V
2 -206 V
1 90 V
2 260 V
1 -33 V
2 -275 V
1 78 V
2 -73 V
1 -53 V
2 508 V
1 -296 V
2 -96 V
1 -37 V
2 -170 V
1 -75 V
2 -151 V
1 69 V
2 -159 V
1 -60 V
2 60 V
1 166 V
2 721 V
1 -536 V
2 -126 V
1 -54 V
stroke 2344 2144 M
2 97 V
1 208 V
2 -17 V
1 -140 V
2 -136 V
1 211 V
2 2 V
1 384 V
2 -529 V
1 79 V
2 439 V
1 21 V
2 -3 V
1 -150 V
2 -141 V
1 -117 V
2 170 V
1 -245 V
2 -16 V
1 267 V
2 -129 V
1 -120 V
2 -230 V
1 -27 V
2 115 V
1 64 V
2 32 V
1 238 V
2 42 V
1 -23 V
2 -91 V
1 -196 V
2 -4 V
1 -116 V
2 -146 V
1 10 V
2 54 V
1 28 V
2 214 V
1 -316 V
2 46 V
1 -142 V
2 101 V
1 -100 V
2 -14 V
1 23 V
2 23 V
1 129 V
2 -93 V
1 187 V
2 -113 V
1 27 V
2 247 V
1 366 V
2 98 V
1 -125 V
2 -141 V
1 514 V
2 200 V
1 -781 V
2 423 V
1 41 V
2 -131 V
1 -157 V
2 -70 V
1 -136 V
2 -86 V
1 2 V
2 -174 V
1 329 V
2 -46 V
1 -133 V
2 -175 V
1 91 V
2 156 V
1 -116 V
2 17 V
1 8 V
2 -39 V
1 -125 V
2 288 V
1 -94 V
2 -273 V
1 -27 V
2 63 V
1 53 V
2 -260 V
1 238 V
2 0 V
1 -53 V
2 78 V
1 79 V
2 -54 V
1 -145 V
2 73 V
1 179 V
2 75 V
1 -120 V
2 70 V
1 -51 V
2 -33 V
1 5 V
2 82 V
1 -368 V
stroke 2500 1863 M
2 410 V
1 -77 V
2 70 V
1 -191 V
2 -72 V
1 110 V
2 -117 V
1 199 V
2 44 V
1 -386 V
2 40 V
1 232 V
2 -172 V
1 290 V
2 83 V
1 -136 V
2 288 V
1 -380 V
2 -131 V
1 183 V
2 12 V
1 -233 V
2 239 V
1 109 V
2 -272 V
1 88 V
2 -190 V
1 144 V
2 20 V
1 21 V
2 -60 V
1 18 V
2 -44 V
1 80 V
2 -82 V
1 -60 V
2 82 V
1 -55 V
2 175 V
1 68 V
2 82 V
1 -314 V
2 23 V
1 79 V
2 -328 V
1 -52 V
2 202 V
1 -219 V
2 195 V
1 102 V
2 35 V
1 -137 V
2 -28 V
1 139 V
2 -35 V
1 -162 V
2 78 V
1 116 V
2 -93 V
1 102 V
2 -117 V
1 -15 V
2 372 V
1 -159 V
2 224 V
1 -102 V
2 -248 V
1 116 V
2 -109 V
1 -92 V
2 45 V
2 65 V
1 109 V
2 79 V
1 232 V
2 -709 V
1 179 V
2 -134 V
1 120 V
2 -114 V
1 -129 V
2 227 V
1 -57 V
2 93 V
1 239 V
2 -44 V
1 -230 V
2 -38 V
1 108 V
2 -95 V
1 119 V
2 -50 V
1 -188 V
2 122 V
1 -9 V
2 379 V
1 283 V
2 -558 V
1 -131 V
2 43 V
1 242 V
2 356 V
1 382 V
2 -773 V
stroke 2657 2028 M
1 -75 V
2 -191 V
1 128 V
2 79 V
1 -77 V
2 20 V
1 44 V
2 -146 V
1 57 V
2 107 V
1 -5 V
2 227 V
1 -340 V
2 56 V
1 84 V
2 -75 V
1 -166 V
2 365 V
1 -106 V
2 -84 V
1 -102 V
2 -20 V
1 197 V
2 10 V
1 -54 V
2 -80 V
1 53 V
2 -61 V
1 53 V
2 -159 V
1 115 V
2 -108 V
1 25 V
2 69 V
1 59 V
2 319 V
1 -369 V
2 55 V
1 30 V
2 -96 V
1 -2 V
2 261 V
1 -189 V
2 42 V
1 11 V
2 260 V
1 -186 V
2 152 V
1 -222 V
2 -64 V
1 -28 V
2 405 V
1 -48 V
2 -362 V
1 97 V
2 -34 V
1 -110 V
2 115 V
1 166 V
2 -41 V
1 -6 V
2 -177 V
1 -3 V
2 -65 V
1 103 V
2 3 V
1 234 V
2 -41 V
1 234 V
2 -481 V
1 163 V
2 65 V
1 84 V
2 -44 V
1 -96 V
2 -30 V
1 -85 V
2 224 V
1 -102 V
2 -23 V
1 62 V
2 47 V
1 -71 V
2 144 V
1 -5 V
2 -19 V
1 -48 V
2 65 V
1 -129 V
2 215 V
1 32 V
2 -300 V
1 185 V
2 -117 V
1 72 V
2 -266 V
1 -16 V
2 28 V
1 463 V
2 -359 V
1 134 V
2 35 V
1 18 V
2 31 V
stroke 2813 2247 M
1 -319 V
2 -127 V
1 215 V
2 -175 V
1 -166 V
2 501 V
1 87 V
2 -316 V
1 -51 V
2 161 V
1 45 V
2 -1 V
1 250 V
2 110 V
1 -337 V
2 -225 V
1 187 V
2 31 V
1 -148 V
2 5 V
1 102 V
2 52 V
1 -71 V
2 -156 V
1 169 V
2 -101 V
1 205 V
2 -108 V
1 11 V
2 516 V
1 -135 V
2 6 V
1 219 V
2 -126 V
1 -211 V
2 229 V
1 -23 V
2 -228 V
1 -64 V
2 -364 V
1 21 V
2 140 V
1 121 V
2 114 V
1 167 V
2 -277 V
1 -111 V
2 147 V
1 -270 V
2 67 V
1 73 V
2 -105 V
1 48 V
2 85 V
1 95 V
2 57 V
1 78 V
2 -158 V
1 181 V
2 106 V
1 9 V
2 -337 V
1 90 V
2 -294 V
1 -49 V
2 -17 V
1 1 V
2 172 V
1 -188 V
2 58 V
1 -118 V
2 -15 V
1 130 V
2 44 V
1 154 V
2 -73 V
1 97 V
2 -3 V
1 -40 V
2 -274 V
1 19 V
2 118 V
1 38 V
2 17 V
1 -5 V
2 129 V
2 39 V
1 261 V
2 -136 V
1 270 V
2 -513 V
1 -126 V
2 1359 V
1 -550 V
2 -588 V
1 -103 V
2 132 V
1 216 V
2 -327 V
1 241 V
2 -321 V
1 -193 V
2 82 V
1 -160 V
stroke 2969 1721 M
2 287 V
1 118 V
2 -18 V
1 -47 V
2 -143 V
1 -104 V
2 51 V
1 116 V
2 -29 V
1 -156 V
2 -135 V
1 -59 V
2 82 V
1 69 V
2 282 V
1 30 V
2 -38 V
1 -90 V
2 -66 V
1 187 V
2 -154 V
1 -16 V
2 50 V
1 -55 V
2 -82 V
1 -1 V
2 104 V
1 116 V
2 262 V
1 7 V
2 -82 V
1 174 V
2 60 V
1 -147 V
2 -309 V
1 63 V
2 197 V
1 171 V
2 -251 V
1 -132 V
2 -9 V
1 9 V
2 128 V
1 -57 V
2 77 V
1 -92 V
2 212 V
1 229 V
2 -413 V
1 -30 V
2 12 V
1 -72 V
2 214 V
1 131 V
2 91 V
1 25 V
2 2 V
1 -94 V
2 -237 V
1 265 V
2 628 V
1 -423 V
2 -579 V
1 182 V
2 -99 V
1 -160 V
2 -70 V
1 297 V
2 222 V
1 -390 V
2 -90 V
1 29 V
2 66 V
1 17 V
2 -248 V
1 42 V
2 295 V
1 1 V
2 171 V
1 355 V
2 -497 V
1 -136 V
2 82 V
1 24 V
2 97 V
1 55 V
2 98 V
1 -215 V
2 -200 V
1 -62 V
2 53 V
1 40 V
2 176 V
1 118 V
2 -407 V
1 75 V
2 399 V
1 -520 V
2 271 V
1 -64 V
2 -101 V
1 -48 V
2 462 V
1 -309 V
stroke 3125 2061 M
2 284 V
1 -121 V
2 -45 V
1 -139 V
2 -88 V
1 22 V
2 117 V
1 -26 V
2 -103 V
1 -46 V
2 191 V
1 -337 V
2 268 V
1 23 V
2 90 V
1 -1 V
2 540 V
1 161 V
2 -582 V
1 -327 V
2 -130 V
1 53 V
2 196 V
1 -248 V
2 -154 V
1 47 V
2 96 V
1 -47 V
2 252 V
1 -13 V
2 -169 V
1 5 V
2 -29 V
1 226 V
2 81 V
1 74 V
2 177 V
1 -426 V
2 45 V
1 66 V
2 -12 V
1 -2 V
2 -108 V
1 195 V
2 365 V
1 -364 V
2 0 V
1 -179 V
2 36 V
1 95 V
2 215 V
1 20 V
2 -20 V
1 29 V
2 -94 V
1 -117 V
2 -103 V
1 -44 V
2 218 V
1 40 V
2 -38 V
1 -33 V
2 -83 V
1 146 V
2 -185 V
1 -102 V
2 -67 V
1 160 V
2 -77 V
1 97 V
2 16 V
1 -155 V
2 1072 V
1 645 V
2 126 V
1 -1349 V
2 -79 V
1 -125 V
2 157 V
1 21 V
2 -328 V
1 29 V
2 -31 V
1 26 V
2 -137 V
1 23 V
2 60 V
1 94 V
2 451 V
1 -552 V
2 -191 V
1 106 V
2 -82 V
1 97 V
2 -29 V
1 42 V
2 -22 V
1 -1 V
2 -35 V
2 -106 V
1 99 V
2 181 V
1 118 V
2 -4 V
stroke 3282 2169 M
1 -206 V
2 -238 V
1 360 V
2 86 V
1 145 V
2 -48 V
1 -322 V
2 124 V
1 46 V
2 -2 V
1 -139 V
2 -54 V
1 211 V
2 38 V
1 -24 V
2 -260 V
1 126 V
2 363 V
1 -533 V
2 -93 V
1 103 V
2 143 V
1 84 V
2 247 V
1 -416 V
2 91 V
1 -13 V
2 51 V
1 23 V
2 -5 V
1 -166 V
2 -28 V
1 20 V
2 97 V
1 -307 V
2 -59 V
1 169 V
2 116 V
1 -82 V
2 -109 V
1 -4 V
2 -14 V
1 235 V
2 257 V
1 -90 V
2 -49 V
1 11 V
2 -69 V
1 -2 V
2 -10 V
1 1201 V
2 -565 V
1 -510 V
2 -170 V
1 5 V
2 203 V
1 -150 V
2 -111 V
1 -29 V
2 109 V
1 -57 V
2 182 V
1 -19 V
2 -124 V
1 -51 V
2 -118 V
1 225 V
2 -156 V
1 -62 V
2 70 V
1 -45 V
2 67 V
1 281 V
2 0 V
1 -96 V
2 -92 V
1 -7 V
2 -25 V
1 70 V
2 91 V
1 121 V
2 -68 V
1 69 V
2 -120 V
1 -148 V
2 201 V
1 42 V
2 -246 V
1 -22 V
2 -60 V
1 -43 V
2 120 V
1 7 V
2 -23 V
1 67 V
2 14 V
1 135 V
2 -31 V
1 -108 V
2 69 V
1 28 V
2 42 V
1 43 V
2 76 V
stroke 3438 2255 M
1 147 V
2 -223 V
1 -191 V
2 74 V
1 47 V
2 -195 V
1 71 V
2 54 V
1 150 V
2 -79 V
1 -250 V
2 -48 V
1 -137 V
2 220 V
1 173 V
2 -87 V
1 -286 V
2 182 V
1 -18 V
2 137 V
1 -57 V
2 29 V
1 45 V
2 -97 V
1 10 V
2 280 V
1 -276 V
2 87 V
1 28 V
2 -128 V
1 59 V
2 41 V
1 -117 V
2 -19 V
1 195 V
2 92 V
1 45 V
2 -260 V
1 62 V
2 -21 V
1 -162 V
2 -19 V
1 -15 V
2 -83 V
1 44 V
2 245 V
1 -48 V
2 109 V
1 -180 V
2 -108 V
1 66 V
2 69 V
1 180 V
2 -53 V
1 -149 V
2 -123 V
1 353 V
2 -263 V
1 -16 V
2 17 V
1 -99 V
2 113 V
1 34 V
2 71 V
1 47 V
2 -342 V
1 158 V
2 47 V
1 -167 V
2 31 V
1 82 V
2 95 V
1 165 V
2 -46 V
1 -119 V
2 -95 V
1 -119 V
2 -87 V
1 91 V
2 117 V
1 -135 V
2 120 V
1 -258 V
2 135 V
1 -13 V
2 119 V
1 47 V
2 -13 V
1 -57 V
2 -109 V
1 67 V
2 67 V
1 30 V
2 -4 V
1 166 V
2 -95 V
1 25 V
2 17 V
1 -27 V
2 -178 V
1 26 V
2 -72 V
1 1 V
2 8 V
stroke 3594 1702 M
1 -157 V
2 56 V
1 108 V
2 166 V
1 -6 V
2 -51 V
1 -119 V
2 -20 V
1 -43 V
2 83 V
2 111 V
1 -135 V
2 208 V
1 -2 V
2 -288 V
1 -1 V
2 178 V
1 -252 V
2 151 V
1 114 V
2 -8 V
1 -92 V
2 61 V
1 153 V
2 146 V
1 19 V
2 -67 V
1 -85 V
2 -35 V
1 113 V
2 -44 V
1 111 V
2 11 V
1 -21 V
2 -84 V
1 120 V
2 -199 V
1 20 V
2 22 V
1 -144 V
2 -46 V
1 3 V
2 -5 V
1 24 V
2 -10 V
1 -75 V
2 186 V
1 255 V
2 -172 V
1 -143 V
2 -71 V
1 43 V
2 -43 V
1 -21 V
2 11 V
1 -10 V
2 59 V
1 274 V
2 68 V
1 27 V
2 -57 V
1 110 V
2 185 V
1 -34 V
2 -55 V
1 -163 V
2 87 V
1 -68 V
2 -82 V
1 137 V
2 -92 V
1 -43 V
2 26 V
1 331 V
2 -152 V
1 -31 V
2 -5 V
1 -188 V
2 30 V
1 -20 V
2 -109 V
1 -157 V
2 169 V
1 -63 V
2 76 V
1 82 V
2 80 V
1 -139 V
2 162 V
1 47 V
2 -224 V
1 171 V
2 52 V
1 -231 V
2 3 V
1 -90 V
2 -16 V
1 86 V
2 -10 V
1 147 V
2 43 V
1 21 V
2 -97 V
1 -2 V
stroke 3750 2071 M
2 172 V
1 -5 V
2 -132 V
1 92 V
2 -33 V
1 35 V
2 22 V
1 -495 V
2 173 V
1 -40 V
2 -1 V
1 0 V
2 -131 V
1 -20 V
2 49 V
1 2 V
2 120 V
1 2 V
2 86 V
1 -159 V
2 -56 V
1 67 V
2 76 V
1 -230 V
2 37 V
1 44 V
2 -55 V
1 -162 V
2 96 V
1 170 V
2 10 V
1 -94 V
2 17 V
1 7 V
2 361 V
1 890 V
2 -290 V
1 -943 V
2 -44 V
1 -88 V
2 56 V
1 345 V
2 129 V
1 -331 V
2 30 V
1 -134 V
2 303 V
1 -39 V
2 0 V
1 318 V
2 -72 V
1 -207 V
2 -49 V
1 -122 V
2 -65 V
1 85 V
2 290 V
1 -166 V
2 2 V
1 2 V
2 -81 V
1 -85 V
2 48 V
1 -78 V
2 -142 V
1 -84 V
2 20 V
1 120 V
2 194 V
1 49 V
2 -265 V
1 52 V
2 47 V
1 -11 V
2 237 V
1 -128 V
2 -62 V
1 -160 V
2 46 V
1 193 V
2 85 V
1 96 V
2 -42 V
1 -3 V
2 20 V
1 -89 V
2 109 V
1 -150 V
2 341 V
1 61 V
2 710 V
1 -433 V
2 -180 V
1 -386 V
2 -201 V
1 -115 V
2 40 V
1 162 V
2 181 V
1 -51 V
2 -208 V
1 21 V
2 -168 V
1 402 V
stroke 3906 2108 M
2 -225 V
1 107 V
2 -187 V
1 155 V
2 -5 V
1 -101 V
2 170 V
1 2 V
2 142 V
1 -6 V
2 -93 V
1 -101 V
2 -3 V
1 42 V
2 159 V
1 -214 V
2 -84 V
1 -10 V
2 106 V
1 -130 V
2 -50 V
1 -48 V
2 13 V
2 81 V
1 113 V
2 -105 V
1 -38 V
2 -77 V
1 -61 V
2 -11 V
1 125 V
2 10 V
1 12 V
2 164 V
1 66 V
2 -152 V
1 46 V
2 -104 V
1 36 V
2 28 V
1 156 V
2 -34 V
1 -44 V
2 49 V
1 -9 V
2 -15 V
1 -71 V
2 -71 V
1 102 V
2 -95 V
1 -42 V
2 -102 V
1 13 V
2 56 V
1 -65 V
2 -102 V
1 59 V
2 53 V
1 53 V
2 -109 V
1 156 V
2 -49 V
1 -58 V
2 55 V
1 110 V
2 -58 V
1 -101 V
2 111 V
1 31 V
2 -24 V
1 -122 V
2 15 V
1 4 V
2 45 V
1 46 V
2 212 V
1 -425 V
2 -40 V
1 46 V
2 -5 V
1 124 V
2 -21 V
1 143 V
2 132 V
1 -333 V
2 -239 V
1 111 V
2 14 V
1 95 V
2 145 V
1 45 V
2 -13 V
1 37 V
2 -106 V
1 -110 V
2 -125 V
1 54 V
2 211 V
1 17 V
2 52 V
1 231 V
2 -193 V
1 31 V
2 3 V
stroke 4063 1916 M
1 78 V
2 -23 V
1 -84 V
2 42 V
1 -159 V
2 108 V
1 -127 V
2 239 V
1 -223 V
2 45 V
1 148 V
2 0 V
1 91 V
2 320 V
1 -316 V
2 -2 V
1 17 V
2 -146 V
1 -100 V
2 112 V
1 -169 V
2 55 V
1 43 V
2 -75 V
1 117 V
2 -21 V
1 1 V
2 -140 V
1 73 V
2 104 V
1 -100 V
2 47 V
1 -72 V
2 -63 V
1 80 V
2 32 V
1 2 V
2 34 V
1 -14 V
2 -153 V
1 119 V
2 126 V
1 -30 V
2 -89 V
1 -176 V
2 52 V
1 136 V
2 187 V
1 -127 V
2 8 V
1 190 V
2 -60 V
1 -167 V
2 -71 V
1 127 V
2 -133 V
1 81 V
2 32 V
1 -106 V
2 -91 V
1 243 V
2 -3 V
1 45 V
2 32 V
1 -156 V
2 -52 V
1 -65 V
2 163 V
1 -168 V
2 235 V
1 -34 V
2 -165 V
1 148 V
2 -194 V
1 123 V
2 135 V
1 388 V
2 -328 V
1 -11 V
2 82 V
1 -171 V
2 -217 V
1 -10 V
2 -105 V
1 148 V
2 90 V
1 -64 V
2 44 V
1 65 V
2 -211 V
1 119 V
2 96 V
1 -48 V
2 121 V
1 24 V
2 12 V
1 -271 V
2 573 V
1 128 V
2 -701 V
1 19 V
2 125 V
1 485 V
2 -264 V
stroke 4219 2130 M
1 79 V
2 -475 V
1 -102 V
2 73 V
1 131 V
2 58 V
1 14 V
2 -13 V
1 137 V
2 50 V
1 -80 V
2 -55 V
1 -170 V
2 45 V
1 15 V
2 -103 V
1 -6 V
2 115 V
1 -10 V
2 81 V
1 -16 V
2 48 V
1 37 V
2 83 V
1 -184 V
2 -281 V
1 113 V
2 193 V
1 -20 V
2 200 V
1 -411 V
2 -105 V
1 412 V
2 -87 V
1 -36 V
2 -115 V
1 8 V
2 -18 V
2 207 V
1 -127 V
2 305 V
1 -191 V
2 119 V
1 2 V
2 -187 V
1 -29 V
2 40 V
1 94 V
2 -82 V
1 156 V
2 -132 V
1 306 V
2 -316 V
1 -78 V
2 -8 V
1 12 V
2 57 V
1 34 V
2 69 V
1 69 V
2 193 V
1 -136 V
2 4 V
1 -61 V
2 -83 V
1 -88 V
2 124 V
1 -43 V
2 3 V
1 -118 V
2 -117 V
1 32 V
2 181 V
1 67 V
2 34 V
1 -182 V
2 38 V
1 134 V
2 -209 V
1 -65 V
2 124 V
1 161 V
2 -314 V
1 264 V
2 -138 V
1 339 V
2 -11 V
1 -91 V
2 139 V
1 -1 V
2 -204 V
1 -68 V
2 89 V
1 -5 V
2 -86 V
1 -32 V
2 120 V
1 57 V
2 140 V
1 -12 V
2 -51 V
1 -33 V
2 -156 V
1 57 V
stroke 4375 2051 M
2 137 V
1 142 V
2 -294 V
1 216 V
2 -56 V
1 -130 V
2 -48 V
1 143 V
2 179 V
1 -255 V
2 156 V
1 -98 V
2 -47 V
1 230 V
2 -390 V
1 46 V
2 -36 V
1 54 V
2 68 V
1 -63 V
2 -228 V
1 -13 V
2 34 V
1 33 V
2 6 V
1 87 V
2 -7 V
1 -46 V
2 21 V
1 325 V
2 -154 V
1 15 V
2 -261 V
1 169 V
2 160 V
1 -166 V
2 -12 V
1 128 V
2 14 V
1 -184 V
2 147 V
1 -136 V
2 -98 V
1 100 V
2 104 V
1 -111 V
2 2 V
1 58 V
2 129 V
1 -73 V
2 233 V
1 109 V
2 -391 V
1 70 V
2 29 V
1 55 V
2 -214 V
1 -15 V
2 11 V
1 -42 V
2 143 V
1 58 V
2 -24 V
1 -44 V
2 -61 V
1 121 V
2 18 V
1 12 V
2 -176 V
1 -54 V
2 20 V
1 228 V
2 -187 V
1 -17 V
2 -59 V
1 -12 V
2 7 V
1 43 V
2 28 V
1 -64 V
2 99 V
1 9 V
2 -49 V
1 -99 V
2 31 V
1 184 V
2 14 V
1 -83 V
2 35 V
1 -97 V
2 72 V
1 -5 V
2 159 V
1 -15 V
2 -106 V
1 -93 V
2 139 V
1 -119 V
2 -177 V
1 231 V
2 -82 V
1 38 V
2 -2 V
1 78 V
stroke 4531 2035 M
2 -155 V
1 -51 V
2 2 V
1 147 V
2 -237 V
1 90 V
2 -28 V
1 114 V
2 246 V
1 51 V
2 -106 V
1 98 V
2 -455 V
1 -51 V
2 -63 V
1 -7 V
2 78 V
1 100 V
2 55 V
1 186 V
2 474 V
1 -301 V
2 87 V
1 -97 V
2 -370 V
1 104 V
2 -67 V
1 8 V
2 519 V
1 -439 V
2 261 V
1 -249 V
2 -102 V
1 16 V
2 88 V
1 12 V
2 878 V
1 -791 V
2 19 V
1 -214 V
2 -16 V
1 54 V
2 122 V
1 117 V
2 -179 V
1 218 V
2 175 V
1 -478 V
2 52 V
1 29 V
2 -50 V
1 132 V
2 137 V
2 -166 V
1 -99 V
2 118 V
1 -76 V
2 36 V
1 4 V
2 -34 V
1 -181 V
2 -8 V
1 143 V
2 142 V
1 -77 V
2 -51 V
1 -31 V
2 -90 V
1 34 V
2 -90 V
1 58 V
2 -126 V
1 32 V
2 2 V
1 59 V
2 93 V
1 -19 V
2 89 V
1 -32 V
2 107 V
1 -36 V
2 -8 V
1 -79 V
2 5 V
1 597 V
2 -82 V
1 -23 V
2 -279 V
1 -232 V
2 -93 V
1 -6 V
2 106 V
1 10 V
2 -52 V
1 35 V
2 57 V
1 -115 V
2 -40 V
1 56 V
2 98 V
1 47 V
2 75 V
1 -182 V
2 65 V
stroke 4688 1959 M
1 216 V
2 -253 V
1 -34 V
2 13 V
1 147 V
2 -13 V
1 -125 V
2 49 V
1 -116 V
2 44 V
1 -67 V
2 -19 V
1 16 V
2 -2 V
1 -40 V
2 27 V
1 223 V
2 -108 V
1 -8 V
2 53 V
1 -66 V
2 156 V
1 -28 V
2 2 V
1 -59 V
2 153 V
1 65 V
2 -311 V
1 -42 V
2 -90 V
1 161 V
2 104 V
1 63 V
2 -55 V
1 49 V
2 -20 V
1 55 V
2 -83 V
1 311 V
2 37 V
1 -167 V
2 -110 V
1 -336 V
2 69 V
1 -37 V
2 89 V
1 -91 V
2 -66 V
1 269 V
2 -45 V
1 354 V
2 -251 V
1 -81 V
2 106 V
1 1 V
2 -170 V
1 87 V
2 -106 V
1 32 V
2 1 V
1 -52 V
2 -18 V
1 -47 V
2 120 V
1 -78 V
2 72 V
1 217 V
2 -159 V
1 132 V
2 73 V
1 137 V
2 -111 V
1 -64 V
2 -106 V
1 -30 V
2 -39 V
1 65 V
2 -76 V
1 -185 V
2 137 V
1 14 V
2 101 V
1 -57 V
2 79 V
1 -16 V
2 41 V
1 -91 V
2 -20 V
1 -11 V
2 -4 V
1 -30 V
2 216 V
1 139 V
2 -280 V
1 32 V
2 -134 V
1 33 V
2 -126 V
1 15 V
2 65 V
1 -6 V
2 107 V
1 137 V
2 -74 V
stroke 4844 2030 M
1 155 V
2 -73 V
1 32 V
2 -123 V
1 89 V
2 -259 V
1 13 V
2 -2 V
1 -7 V
2 18 V
1 84 V
2 -68 V
1 56 V
2 13 V
1 -8 V
2 -152 V
1 78 V
2 -36 V
1 53 V
2 110 V
1 132 V
2 -114 V
1 -150 V
2 8 V
1 -50 V
2 -25 V
1 132 V
2 76 V
1 -97 V
2 -8 V
1 -47 V
2 124 V
1 -20 V
2 0 V
1 -2 V
2 15 V
1 18 V
2 -67 V
1 -25 V
2 33 V
1 61 V
2 48 V
1 21 V
2 -34 V
1 -24 V
2 122 V
1 98 V
2 -40 V
1 82 V
2 -177 V
1 309 V
2 -101 V
1 -160 V
2 -168 V
1 -18 V
2 15 V
1 -94 V
2 78 V
1 100 V
2 -94 V
1 -41 V
2 -19 V
1 32 V
2 60 V
1 -138 V
2 -2 V
2 24 V
1 -27 V
2 160 V
1 241 V
2 178 V
1 -93 V
2 -152 V
1 -103 V
2 13 V
1 -27 V
2 31 V
1 55 V
2 -29 V
1 13 V
2 -36 V
1 -25 V
2 76 V
1 -46 V
2 191 V
1 -229 V
2 57 V
1 -144 V
2 111 V
1 126 V
2 -167 V
1 2 V
2 48 V
1 20 V
2 100 V
1 -76 V
2 98 V
1 10 V
2 -219 V
1 -225 V
2 61 V
1 68 V
2 24 V
1 100 V
stroke 5000 2061 M
2 142 V
1 -50 V
2 -228 V
1 -156 V
2 208 V
1 -133 V
2 169 V
1 59 V
2 -123 V
1 -92 V
2 141 V
1 -109 V
2 -39 V
1 -23 V
2 74 V
1 77 V
2 51 V
1 39 V
2 -32 V
1 -126 V
2 251 V
1 189 V
2 -344 V
1 -46 V
2 -143 V
1 -22 V
2 188 V
1 -63 V
2 -12 V
1 -93 V
2 234 V
1 1101 V
2 191 V
1 -1379 V
2 -59 V
1 -115 V
2 -56 V
1 125 V
2 -143 V
1 122 V
2 -5 V
1 42 V
2 -81 V
1 -26 V
2 -188 V
1 211 V
2 115 V
1 -47 V
2 8 V
1 -53 V
2 -2 V
1 69 V
2 -1 V
1 44 V
2 19 V
1 -125 V
2 140 V
1 101 V
2 -109 V
1 134 V
2 43 V
1 -72 V
2 101 V
1 -25 V
2 153 V
1 -133 V
2 -75 V
1 246 V
2 -488 V
1 32 V
2 42 V
1 151 V
2 75 V
1 -15 V
2 10 V
1 -208 V
2 -211 V
1 117 V
2 108 V
1 225 V
2 -317 V
1 -92 V
2 -13 V
1 -23 V
2 -42 V
1 13 V
2 153 V
1 25 V
2 -53 V
1 280 V
2 -179 V
1 -57 V
2 11 V
1 171 V
2 87 V
1 -13 V
2 -43 V
1 167 V
2 -354 V
1 -103 V
2 59 V
1 96 V
2 -99 V
1 77 V
stroke 5156 1909 M
2 34 V
1 -12 V
2 -22 V
1 8 V
2 33 V
1 199 V
2 -191 V
1 35 V
2 12 V
1 77 V
2 -303 V
1 161 V
2 127 V
1 67 V
2 7 V
1 -237 V
2 70 V
1 50 V
2 -5 V
1 274 V
2 -353 V
1 -241 V
2 -11 V
1 95 V
2 -94 V
1 -65 V
2 59 V
1 -7 V
2 48 V
1 -38 V
2 142 V
1 -206 V
2 -4 V
1 47 V
2 51 V
1 -26 V
2 116 V
1 91 V
2 107 V
1 -371 V
2 172 V
1 382 V
2 112 V
1 -406 V
2 11 V
1 8 V
2 -47 V
1 -1 V
2 -19 V
1 155 V
2 89 V
1 37 V
2 227 V
1 32 V
2 -489 V
1 1 V
2 -72 V
1 48 V
2 60 V
1 333 V
2 -443 V
1 -61 V
2 -19 V
1 -38 V
2 -9 V
1 130 V
2 -51 V
1 306 V
2 -93 V
1 -144 V
2 22 V
1 -80 V
2 -75 V
1 319 V
2 -241 V
1 -22 V
2 2 V
1 -97 V
2 189 V
1 193 V
2 -132 V
2 30 V
1 24 V
2 -38 V
1 -5 V
2 146 V
1 114 V
2 -262 V
1 -114 V
2 -3 V
1 505 V
2 -586 V
1 123 V
2 165 V
1 -85 V
2 13 V
1 -40 V
2 77 V
1 44 V
2 -151 V
1 -108 V
2 192 V
1 -139 V
2 -99 V
stroke 5313 1725 M
1 79 V
2 -80 V
1 154 V
2 109 V
1 -185 V
2 356 V
1 173 V
2 -96 V
1 266 V
2 -570 V
1 72 V
2 -122 V
1 471 V
2 -351 V
1 -252 V
2 -95 V
1 36 V
2 55 V
1 128 V
2 1 V
1 -9 V
2 -30 V
1 -67 V
2 -1 V
1 196 V
2 13 V
1 -208 V
2 72 V
1 141 V
2 40 V
1 -16 V
2 -148 V
1 -115 V
2 69 V
1 -66 V
2 24 V
1 115 V
2 -1 V
1 -23 V
2 50 V
1 -46 V
2 545 V
1 -157 V
2 -102 V
1 -307 V
2 156 V
1 122 V
2 -17 V
1 -73 V
2 -56 V
1 138 V
2 -77 V
1 62 V
2 -201 V
1 -63 V
2 -103 V
1 37 V
2 27 V
1 41 V
2 60 V
1 52 V
2 -241 V
1 7 V
2 73 V
1 139 V
2 161 V
1 -163 V
2 -20 V
1 63 V
2 -6 V
1 -42 V
2 -208 V
1 71 V
2 30 V
1 200 V
2 86 V
1 -128 V
2 -84 V
1 40 V
2 290 V
1 0 V
2 238 V
1 -362 V
2 -312 V
1 7 V
2 -13 V
1 1 V
2 30 V
1 322 V
2 -241 V
1 -188 V
2 5 V
1 121 V
2 139 V
1 41 V
2 305 V
1 -120 V
2 -327 V
1 3 V
2 249 V
1 363 V
2 -53 V
1 -452 V
2 -12 V
stroke 5469 1960 M
1 -48 V
2 -131 V
1 44 V
2 26 V
1 190 V
2 17 V
1 77 V
2 -225 V
1 -90 V
2 -97 V
1 -63 V
2 40 V
1 33 V
2 -3 V
1 -116 V
2 9 V
1 131 V
2 268 V
1 121 V
2 -130 V
1 24 V
2 59 V
1 -471 V
2 -52 V
1 129 V
2 68 V
1 -7 V
2 104 V
1 381 V
2 306 V
1 -152 V
2 94 V
1 -255 V
2 -253 V
1 282 V
2 288 V
1 -73 V
2 441 V
1 -125 V
2 22 V
1 331 V
2 -84 V
1 -62 V
2 139 V
1 -482 V
2 -176 V
1 92 V
2 -116 V
1 -107 V
2 183 V
1 42 V
2 -56 V
1 59 V
2 -20 V
1 87 V
2 -146 V
1 82 V
2 48 V
1 4 V
2 136 V
1 -264 V
2 93 V
1 -185 V
2 304 V
1 -170 V
2 -48 V
1 48 V
2 -114 V
1 102 V
2 -498 V
1 -92 V
2 572 V
1 -368 V
2 -114 V
1 -300 V
2 187 V
1 -156 V
2 378 V
1 3 V
2 -241 V
1 -25 V
2 -45 V
1 111 V
2 104 V
1 -69 V
2 204 V
1 484 V
2 -598 V
1 176 V
2 -284 V
1 81 V
2 92 V
1 173 V
2 -47 V
1 323 V
2 -543 V
2 -90 V
1 497 V
2 -172 V
1 -466 V
2 66 V
1 50 V
2 55 V
1 -41 V
stroke 5625 1950 M
2 213 V
1 -99 V
2 39 V
1 -81 V
2 -11 V
1 -9 V
2 -6 V
1 84 V
2 -111 V
1 174 V
2 -29 V
1 19 V
2 -187 V
1 -105 V
2 -15 V
1 32 V
2 116 V
1 -123 V
2 119 V
1 149 V
2 524 V
1 -612 V
2 -7 V
1 -159 V
2 -10 V
1 11 V
2 -59 V
1 267 V
2 203 V
1 -207 V
2 -29 V
1 39 V
2 -14 V
1 -84 V
2 108 V
1 -229 V
2 113 V
1 -147 V
2 41 V
1 89 V
2 -5 V
1 -43 V
2 44 V
1 -43 V
2 86 V
1 -132 V
2 228 V
1 30 V
2 38 V
1 -95 V
2 -143 V
1 242 V
2 -181 V
1 -116 V
2 -26 V
1 -154 V
2 73 V
1 121 V
2 -77 V
1 110 V
2 64 V
1 -195 V
2 9 V
1 -38 V
2 126 V
1 65 V
2 -74 V
1 -34 V
2 8 V
1 57 V
2 -82 V
1 57 V
2 25 V
1 21 V
2 -98 V
1 112 V
2 42 V
1 -98 V
2 108 V
1 -8 V
2 -48 V
1 -19 V
2 13 V
1 -26 V
2 462 V
1 -351 V
2 -81 V
1 51 V
2 12 V
1 98 V
2 121 V
1 -229 V
2 -217 V
1 10 V
2 224 V
1 -88 V
2 -129 V
1 30 V
2 84 V
1 -29 V
2 73 V
1 6 V
2 34 V
1 -79 V
stroke 5781 1903 M
2 -11 V
1 203 V
2 -55 V
1 -160 V
2 -68 V
1 59 V
2 133 V
1 -74 V
2 -107 V
1 60 V
2 93 V
1 -26 V
2 46 V
1 -83 V
2 -40 V
1 -49 V
2 171 V
1 -129 V
2 -154 V
1 72 V
2 148 V
1 -9 V
2 33 V
1 -139 V
2 -31 V
1 -48 V
2 10 V
1 -35 V
2 169 V
1 -92 V
2 137 V
1 49 V
2 -149 V
1 -117 V
2 58 V
1 76 V
2 -86 V
1 46 V
2 34 V
1 -74 V
2 339 V
1 -408 V
2 -35 V
1 100 V
2 -100 V
1 88 V
2 20 V
1 43 V
2 -147 V
1 128 V
2 19 V
1 -12 V
2 158 V
1 -158 V
2 33 V
1 -179 V
2 117 V
1 -100 V
2 65 V
1 1 V
2 -114 V
1 85 V
2 40 V
1 2 V
2 90 V
1 41 V
2 -20 V
1 10 V
2 22 V
1 21 V
2 -15 V
1 -142 V
2 5 V
1 120 V
2 -86 V
1 76 V
2 -9 V
1 -38 V
2 41 V
1 194 V
2 428 V
1 146 V
2 -69 V
1 423 V
2 209 V
1 -207 V
2 -159 V
1 4 V
2 178 V
1 -316 V
2 310 V
1 -151 V
2 -491 V
1 115 V
2 -334 V
1 320 V
2 4 V
1 210 V
2 33 V
1 -163 V
2 5 V
1 -129 V
2 -97 V
1 310 V
stroke 5937 2638 M
2 197 V
1 -142 V
2 -260 V
1 -370 V
2 -118 V
2 -176 V
1 140 V
2 -229 V
1 67 V
2 16 V
1 25 V
2 49 V
1 193 V
2 41 V
1 184 V
2 -433 V
1 299 V
2 157 V
1 149 V
2 77 V
1 -227 V
2 -257 V
1 -264 V
2 -105 V
1 37 V
2 72 V
1 103 V
2 -35 V
1 -101 V
2 61 V
1 65 V
2 -78 V
1 118 V
2 7 V
1 105 V
2 546 V
1 29 V
2 -86 V
1 -570 V
2 -10 V
1 -84 V
2 201 V
1 -138 V
2 -57 V
1 83 V
2 103 V
1 -64 V
2 -121 V
1 2 V
2 7 V
1 62 V
2 85 V
1 -221 V
2 104 V
1 210 V
2 -75 V
1 -109 V
2 -89 V
1 137 V
2 -185 V
1 -50 V
2 -96 V
1 161 V
2 -152 V
1 185 V
2 -205 V
1 274 V
2 81 V
1 -232 V
2 143 V
1 -111 V
2 148 V
1 -136 V
2 -25 V
1 35 V
2 -83 V
1 -55 V
2 81 V
1 183 V
2 -34 V
1 37 V
2 149 V
1 -24 V
2 -282 V
1 66 V
2 -13 V
1 16 V
2 -92 V
1 85 V
2 -59 V
1 224 V
2 -87 V
1 -106 V
2 221 V
1 579 V
2 -303 V
1 -219 V
2 -196 V
1 -28 V
2 68 V
1 174 V
2 -63 V
1 28 V
2 82 V
stroke 6094 2134 M
1 14 V
2 -97 V
1 -122 V
2 -127 V
1 288 V
2 -34 V
1 -175 V
2 -104 V
1 289 V
2 -62 V
1 -196 V
2 37 V
1 -2 V
2 16 V
1 -25 V
2 -126 V
1 153 V
2 32 V
1 105 V
2 52 V
1 180 V
2 -411 V
1 -29 V
2 28 V
1 -155 V
2 -22 V
1 25 V
2 234 V
1 -170 V
2 195 V
1 -45 V
2 -164 V
1 145 V
2 230 V
1 -151 V
2 -159 V
1 54 V
2 -2 V
1 198 V
2 90 V
1 -205 V
2 -135 V
1 204 V
2 158 V
1 -266 V
2 -118 V
1 17 V
2 105 V
1 88 V
2 -179 V
1 -75 V
2 28 V
1 118 V
2 -107 V
1 49 V
2 -30 V
1 131 V
2 48 V
1 -254 V
2 149 V
1 -49 V
2 55 V
1 17 V
2 -278 V
1 -3 V
2 562 V
1 -56 V
2 -238 V
1 38 V
2 -12 V
1 171 V
2 38 V
1 -151 V
2 605 V
1 -761 V
2 -118 V
1 46 V
2 -110 V
1 130 V
2 58 V
1 -19 V
2 -46 V
1 281 V
2 6 V
1 -41 V
2 -116 V
1 -59 V
2 -3 V
1 -48 V
2 -83 V
1 -69 V
2 91 V
1 -76 V
2 7 V
1 131 V
2 -32 V
1 -128 V
2 30 V
1 70 V
2 58 V
1 -88 V
2 -5 V
1 -78 V
2 43 V
stroke 6250 1617 M
1 213 V
2 -162 V
1 136 V
2 -36 V
1 111 V
2 165 V
1 -162 V
2 332 V
1 -99 V
2 28 V
1 100 V
2 206 V
1 10 V
2 -275 V
1 -98 V
2 -232 V
1 53 V
2 -157 V
1 -14 V
2 -78 V
2 -15 V
1 193 V
2 -73 V
1 87 V
2 103 V
1 -49 V
2 74 V
1 -179 V
2 -89 V
1 224 V
2 -139 V
1 344 V
2 190 V
1 -601 V
2 0 V
1 75 V
2 45 V
1 -106 V
2 -4 V
1 -2 V
2 -187 V
1 78 V
2 205 V
1 529 V
2 64 V
1 -202 V
2 251 V
1 26 V
2 -162 V
1 -278 V
2 -193 V
1 47 V
2 97 V
1 3 V
2 16 V
1 -24 V
2 -22 V
1 1 V
2 -145 V
1 -117 V
2 33 V
1 26 V
2 220 V
% End plot #1
stroke
LTb
LCb setrgbcolor
938 4871 N
938 448 L
6009 0 V
0 4423 V
-6009 0 V
Z stroke
1.000 UP
1.000 UL
LTb
LCb setrgbcolor
stroke
grestore
end
showpage
