%!PS-Adobe-2.0
%%Title: /home/tiphaine/Documents/my-thesis/Chapters/Figures/20130625_1h-pktspersecond-ccdf.eps
%%Creator: gnuplot 4.6 patchlevel 4
%%CreationDate: Sun Jun 26 19:52:01 2016
%%DocumentFonts: (atend)
%%BoundingBox: 50 50 554 770
%%Orientation: Landscape
%%Pages: (atend)
%%EndComments
%%BeginProlog
/gnudict 256 dict def
gnudict begin
%
% The following true/false flags may be edited by hand if desired.
% The unit line width and grayscale image gamma correction may also be changed.
%
/Color true def
/Blacktext false def
/Solid false def
/Dashlength 1 def
/Landscape true def
/Level1 false def
/Rounded false def
/ClipToBoundingBox false def
/SuppressPDFMark false def
/TransparentPatterns false def
/gnulinewidth 5.000 def
/userlinewidth gnulinewidth def
/Gamma 1.0 def
/BackgroundColor {-1.000 -1.000 -1.000} def
%
/vshift -46 def
/dl1 {
  10.0 Dashlength mul mul
  Rounded { currentlinewidth 0.75 mul sub dup 0 le { pop 0.01 } if } if
} def
/dl2 {
  10.0 Dashlength mul mul
  Rounded { currentlinewidth 0.75 mul add } if
} def
/hpt_ 31.5 def
/vpt_ 31.5 def
/hpt hpt_ def
/vpt vpt_ def
/doclip {
  ClipToBoundingBox {
    newpath 50 50 moveto 554 50 lineto 554 770 lineto 50 770 lineto closepath
    clip
  } if
} def
%
% Gnuplot Prolog Version 4.6 (September 2012)
%
%/SuppressPDFMark true def
%
/M {moveto} bind def
/L {lineto} bind def
/R {rmoveto} bind def
/V {rlineto} bind def
/N {newpath moveto} bind def
/Z {closepath} bind def
/C {setrgbcolor} bind def
/f {rlineto fill} bind def
/g {setgray} bind def
/Gshow {show} def   % May be redefined later in the file to support UTF-8
/vpt2 vpt 2 mul def
/hpt2 hpt 2 mul def
/Lshow {currentpoint stroke M 0 vshift R 
	Blacktext {gsave 0 setgray show grestore} {show} ifelse} def
/Rshow {currentpoint stroke M dup stringwidth pop neg vshift R
	Blacktext {gsave 0 setgray show grestore} {show} ifelse} def
/Cshow {currentpoint stroke M dup stringwidth pop -2 div vshift R 
	Blacktext {gsave 0 setgray show grestore} {show} ifelse} def
/UP {dup vpt_ mul /vpt exch def hpt_ mul /hpt exch def
  /hpt2 hpt 2 mul def /vpt2 vpt 2 mul def} def
/DL {Color {setrgbcolor Solid {pop []} if 0 setdash}
 {pop pop pop 0 setgray Solid {pop []} if 0 setdash} ifelse} def
/BL {stroke userlinewidth 2 mul setlinewidth
	Rounded {1 setlinejoin 1 setlinecap} if} def
/AL {stroke userlinewidth 2 div setlinewidth
	Rounded {1 setlinejoin 1 setlinecap} if} def
/UL {dup gnulinewidth mul /userlinewidth exch def
	dup 1 lt {pop 1} if 10 mul /udl exch def} def
/PL {stroke userlinewidth setlinewidth
	Rounded {1 setlinejoin 1 setlinecap} if} def
3.8 setmiterlimit
% Default Line colors
/LCw {1 1 1} def
/LCb {0 0 0} def
/LCa {0 0 0} def
/LC0 {1 0 0} def
/LC1 {0 1 0} def
/LC2 {0 0 1} def
/LC3 {1 0 1} def
/LC4 {0 1 1} def
/LC5 {1 1 0} def
/LC6 {0 0 0} def
/LC7 {1 0.3 0} def
/LC8 {0.5 0.5 0.5} def
% Default Line Types
/LTw {PL [] 1 setgray} def
/LTb {BL [] LCb DL} def
/LTa {AL [1 udl mul 2 udl mul] 0 setdash LCa setrgbcolor} def
/LT0 {PL [] LC0 DL} def
/LT1 {PL [4 dl1 2 dl2] LC1 DL} def
/LT2 {PL [2 dl1 3 dl2] LC2 DL} def
/LT3 {PL [1 dl1 1.5 dl2] LC3 DL} def
/LT4 {PL [6 dl1 2 dl2 1 dl1 2 dl2] LC4 DL} def
/LT5 {PL [3 dl1 3 dl2 1 dl1 3 dl2] LC5 DL} def
/LT6 {PL [2 dl1 2 dl2 2 dl1 6 dl2] LC6 DL} def
/LT7 {PL [1 dl1 2 dl2 6 dl1 2 dl2 1 dl1 2 dl2] LC7 DL} def
/LT8 {PL [2 dl1 2 dl2 2 dl1 2 dl2 2 dl1 2 dl2 2 dl1 4 dl2] LC8 DL} def
/Pnt {stroke [] 0 setdash gsave 1 setlinecap M 0 0 V stroke grestore} def
/Dia {stroke [] 0 setdash 2 copy vpt add M
  hpt neg vpt neg V hpt vpt neg V
  hpt vpt V hpt neg vpt V closepath stroke
  Pnt} def
/Pls {stroke [] 0 setdash vpt sub M 0 vpt2 V
  currentpoint stroke M
  hpt neg vpt neg R hpt2 0 V stroke
 } def
/Box {stroke [] 0 setdash 2 copy exch hpt sub exch vpt add M
  0 vpt2 neg V hpt2 0 V 0 vpt2 V
  hpt2 neg 0 V closepath stroke
  Pnt} def
/Crs {stroke [] 0 setdash exch hpt sub exch vpt add M
  hpt2 vpt2 neg V currentpoint stroke M
  hpt2 neg 0 R hpt2 vpt2 V stroke} def
/TriU {stroke [] 0 setdash 2 copy vpt 1.12 mul add M
  hpt neg vpt -1.62 mul V
  hpt 2 mul 0 V
  hpt neg vpt 1.62 mul V closepath stroke
  Pnt} def
/Star {2 copy Pls Crs} def
/BoxF {stroke [] 0 setdash exch hpt sub exch vpt add M
  0 vpt2 neg V hpt2 0 V 0 vpt2 V
  hpt2 neg 0 V closepath fill} def
/TriUF {stroke [] 0 setdash vpt 1.12 mul add M
  hpt neg vpt -1.62 mul V
  hpt 2 mul 0 V
  hpt neg vpt 1.62 mul V closepath fill} def
/TriD {stroke [] 0 setdash 2 copy vpt 1.12 mul sub M
  hpt neg vpt 1.62 mul V
  hpt 2 mul 0 V
  hpt neg vpt -1.62 mul V closepath stroke
  Pnt} def
/TriDF {stroke [] 0 setdash vpt 1.12 mul sub M
  hpt neg vpt 1.62 mul V
  hpt 2 mul 0 V
  hpt neg vpt -1.62 mul V closepath fill} def
/DiaF {stroke [] 0 setdash vpt add M
  hpt neg vpt neg V hpt vpt neg V
  hpt vpt V hpt neg vpt V closepath fill} def
/Pent {stroke [] 0 setdash 2 copy gsave
  translate 0 hpt M 4 {72 rotate 0 hpt L} repeat
  closepath stroke grestore Pnt} def
/PentF {stroke [] 0 setdash gsave
  translate 0 hpt M 4 {72 rotate 0 hpt L} repeat
  closepath fill grestore} def
/Circle {stroke [] 0 setdash 2 copy
  hpt 0 360 arc stroke Pnt} def
/CircleF {stroke [] 0 setdash hpt 0 360 arc fill} def
/C0 {BL [] 0 setdash 2 copy moveto vpt 90 450 arc} bind def
/C1 {BL [] 0 setdash 2 copy moveto
	2 copy vpt 0 90 arc closepath fill
	vpt 0 360 arc closepath} bind def
/C2 {BL [] 0 setdash 2 copy moveto
	2 copy vpt 90 180 arc closepath fill
	vpt 0 360 arc closepath} bind def
/C3 {BL [] 0 setdash 2 copy moveto
	2 copy vpt 0 180 arc closepath fill
	vpt 0 360 arc closepath} bind def
/C4 {BL [] 0 setdash 2 copy moveto
	2 copy vpt 180 270 arc closepath fill
	vpt 0 360 arc closepath} bind def
/C5 {BL [] 0 setdash 2 copy moveto
	2 copy vpt 0 90 arc
	2 copy moveto
	2 copy vpt 180 270 arc closepath fill
	vpt 0 360 arc} bind def
/C6 {BL [] 0 setdash 2 copy moveto
	2 copy vpt 90 270 arc closepath fill
	vpt 0 360 arc closepath} bind def
/C7 {BL [] 0 setdash 2 copy moveto
	2 copy vpt 0 270 arc closepath fill
	vpt 0 360 arc closepath} bind def
/C8 {BL [] 0 setdash 2 copy moveto
	2 copy vpt 270 360 arc closepath fill
	vpt 0 360 arc closepath} bind def
/C9 {BL [] 0 setdash 2 copy moveto
	2 copy vpt 270 450 arc closepath fill
	vpt 0 360 arc closepath} bind def
/C10 {BL [] 0 setdash 2 copy 2 copy moveto vpt 270 360 arc closepath fill
	2 copy moveto
	2 copy vpt 90 180 arc closepath fill
	vpt 0 360 arc closepath} bind def
/C11 {BL [] 0 setdash 2 copy moveto
	2 copy vpt 0 180 arc closepath fill
	2 copy moveto
	2 copy vpt 270 360 arc closepath fill
	vpt 0 360 arc closepath} bind def
/C12 {BL [] 0 setdash 2 copy moveto
	2 copy vpt 180 360 arc closepath fill
	vpt 0 360 arc closepath} bind def
/C13 {BL [] 0 setdash 2 copy moveto
	2 copy vpt 0 90 arc closepath fill
	2 copy moveto
	2 copy vpt 180 360 arc closepath fill
	vpt 0 360 arc closepath} bind def
/C14 {BL [] 0 setdash 2 copy moveto
	2 copy vpt 90 360 arc closepath fill
	vpt 0 360 arc} bind def
/C15 {BL [] 0 setdash 2 copy vpt 0 360 arc closepath fill
	vpt 0 360 arc closepath} bind def
/Rec {newpath 4 2 roll moveto 1 index 0 rlineto 0 exch rlineto
	neg 0 rlineto closepath} bind def
/Square {dup Rec} bind def
/Bsquare {vpt sub exch vpt sub exch vpt2 Square} bind def
/S0 {BL [] 0 setdash 2 copy moveto 0 vpt rlineto BL Bsquare} bind def
/S1 {BL [] 0 setdash 2 copy vpt Square fill Bsquare} bind def
/S2 {BL [] 0 setdash 2 copy exch vpt sub exch vpt Square fill Bsquare} bind def
/S3 {BL [] 0 setdash 2 copy exch vpt sub exch vpt2 vpt Rec fill Bsquare} bind def
/S4 {BL [] 0 setdash 2 copy exch vpt sub exch vpt sub vpt Square fill Bsquare} bind def
/S5 {BL [] 0 setdash 2 copy 2 copy vpt Square fill
	exch vpt sub exch vpt sub vpt Square fill Bsquare} bind def
/S6 {BL [] 0 setdash 2 copy exch vpt sub exch vpt sub vpt vpt2 Rec fill Bsquare} bind def
/S7 {BL [] 0 setdash 2 copy exch vpt sub exch vpt sub vpt vpt2 Rec fill
	2 copy vpt Square fill Bsquare} bind def
/S8 {BL [] 0 setdash 2 copy vpt sub vpt Square fill Bsquare} bind def
/S9 {BL [] 0 setdash 2 copy vpt sub vpt vpt2 Rec fill Bsquare} bind def
/S10 {BL [] 0 setdash 2 copy vpt sub vpt Square fill 2 copy exch vpt sub exch vpt Square fill
	Bsquare} bind def
/S11 {BL [] 0 setdash 2 copy vpt sub vpt Square fill 2 copy exch vpt sub exch vpt2 vpt Rec fill
	Bsquare} bind def
/S12 {BL [] 0 setdash 2 copy exch vpt sub exch vpt sub vpt2 vpt Rec fill Bsquare} bind def
/S13 {BL [] 0 setdash 2 copy exch vpt sub exch vpt sub vpt2 vpt Rec fill
	2 copy vpt Square fill Bsquare} bind def
/S14 {BL [] 0 setdash 2 copy exch vpt sub exch vpt sub vpt2 vpt Rec fill
	2 copy exch vpt sub exch vpt Square fill Bsquare} bind def
/S15 {BL [] 0 setdash 2 copy Bsquare fill Bsquare} bind def
/D0 {gsave translate 45 rotate 0 0 S0 stroke grestore} bind def
/D1 {gsave translate 45 rotate 0 0 S1 stroke grestore} bind def
/D2 {gsave translate 45 rotate 0 0 S2 stroke grestore} bind def
/D3 {gsave translate 45 rotate 0 0 S3 stroke grestore} bind def
/D4 {gsave translate 45 rotate 0 0 S4 stroke grestore} bind def
/D5 {gsave translate 45 rotate 0 0 S5 stroke grestore} bind def
/D6 {gsave translate 45 rotate 0 0 S6 stroke grestore} bind def
/D7 {gsave translate 45 rotate 0 0 S7 stroke grestore} bind def
/D8 {gsave translate 45 rotate 0 0 S8 stroke grestore} bind def
/D9 {gsave translate 45 rotate 0 0 S9 stroke grestore} bind def
/D10 {gsave translate 45 rotate 0 0 S10 stroke grestore} bind def
/D11 {gsave translate 45 rotate 0 0 S11 stroke grestore} bind def
/D12 {gsave translate 45 rotate 0 0 S12 stroke grestore} bind def
/D13 {gsave translate 45 rotate 0 0 S13 stroke grestore} bind def
/D14 {gsave translate 45 rotate 0 0 S14 stroke grestore} bind def
/D15 {gsave translate 45 rotate 0 0 S15 stroke grestore} bind def
/DiaE {stroke [] 0 setdash vpt add M
  hpt neg vpt neg V hpt vpt neg V
  hpt vpt V hpt neg vpt V closepath stroke} def
/BoxE {stroke [] 0 setdash exch hpt sub exch vpt add M
  0 vpt2 neg V hpt2 0 V 0 vpt2 V
  hpt2 neg 0 V closepath stroke} def
/TriUE {stroke [] 0 setdash vpt 1.12 mul add M
  hpt neg vpt -1.62 mul V
  hpt 2 mul 0 V
  hpt neg vpt 1.62 mul V closepath stroke} def
/TriDE {stroke [] 0 setdash vpt 1.12 mul sub M
  hpt neg vpt 1.62 mul V
  hpt 2 mul 0 V
  hpt neg vpt -1.62 mul V closepath stroke} def
/PentE {stroke [] 0 setdash gsave
  translate 0 hpt M 4 {72 rotate 0 hpt L} repeat
  closepath stroke grestore} def
/CircE {stroke [] 0 setdash 
  hpt 0 360 arc stroke} def
/Opaque {gsave closepath 1 setgray fill grestore 0 setgray closepath} def
/DiaW {stroke [] 0 setdash vpt add M
  hpt neg vpt neg V hpt vpt neg V
  hpt vpt V hpt neg vpt V Opaque stroke} def
/BoxW {stroke [] 0 setdash exch hpt sub exch vpt add M
  0 vpt2 neg V hpt2 0 V 0 vpt2 V
  hpt2 neg 0 V Opaque stroke} def
/TriUW {stroke [] 0 setdash vpt 1.12 mul add M
  hpt neg vpt -1.62 mul V
  hpt 2 mul 0 V
  hpt neg vpt 1.62 mul V Opaque stroke} def
/TriDW {stroke [] 0 setdash vpt 1.12 mul sub M
  hpt neg vpt 1.62 mul V
  hpt 2 mul 0 V
  hpt neg vpt -1.62 mul V Opaque stroke} def
/PentW {stroke [] 0 setdash gsave
  translate 0 hpt M 4 {72 rotate 0 hpt L} repeat
  Opaque stroke grestore} def
/CircW {stroke [] 0 setdash 
  hpt 0 360 arc Opaque stroke} def
/BoxFill {gsave Rec 1 setgray fill grestore} def
/Density {
  /Fillden exch def
  currentrgbcolor
  /ColB exch def /ColG exch def /ColR exch def
  /ColR ColR Fillden mul Fillden sub 1 add def
  /ColG ColG Fillden mul Fillden sub 1 add def
  /ColB ColB Fillden mul Fillden sub 1 add def
  ColR ColG ColB setrgbcolor} def
/BoxColFill {gsave Rec PolyFill} def
/PolyFill {gsave Density fill grestore grestore} def
/h {rlineto rlineto rlineto gsave closepath fill grestore} bind def
%
% PostScript Level 1 Pattern Fill routine for rectangles
% Usage: x y w h s a XX PatternFill
%	x,y = lower left corner of box to be filled
%	w,h = width and height of box
%	  a = angle in degrees between lines and x-axis
%	 XX = 0/1 for no/yes cross-hatch
%
/PatternFill {gsave /PFa [ 9 2 roll ] def
  PFa 0 get PFa 2 get 2 div add PFa 1 get PFa 3 get 2 div add translate
  PFa 2 get -2 div PFa 3 get -2 div PFa 2 get PFa 3 get Rec
  TransparentPatterns {} {gsave 1 setgray fill grestore} ifelse
  clip
  currentlinewidth 0.5 mul setlinewidth
  /PFs PFa 2 get dup mul PFa 3 get dup mul add sqrt def
  0 0 M PFa 5 get rotate PFs -2 div dup translate
  0 1 PFs PFa 4 get div 1 add floor cvi
	{PFa 4 get mul 0 M 0 PFs V} for
  0 PFa 6 get ne {
	0 1 PFs PFa 4 get div 1 add floor cvi
	{PFa 4 get mul 0 2 1 roll M PFs 0 V} for
 } if
  stroke grestore} def
%
/languagelevel where
 {pop languagelevel} {1} ifelse
 2 lt
	{/InterpretLevel1 true def}
	{/InterpretLevel1 Level1 def}
 ifelse
%
% PostScript level 2 pattern fill definitions
%
/Level2PatternFill {
/Tile8x8 {/PaintType 2 /PatternType 1 /TilingType 1 /BBox [0 0 8 8] /XStep 8 /YStep 8}
	bind def
/KeepColor {currentrgbcolor [/Pattern /DeviceRGB] setcolorspace} bind def
<< Tile8x8
 /PaintProc {0.5 setlinewidth pop 0 0 M 8 8 L 0 8 M 8 0 L stroke} 
>> matrix makepattern
/Pat1 exch def
<< Tile8x8
 /PaintProc {0.5 setlinewidth pop 0 0 M 8 8 L 0 8 M 8 0 L stroke
	0 4 M 4 8 L 8 4 L 4 0 L 0 4 L stroke}
>> matrix makepattern
/Pat2 exch def
<< Tile8x8
 /PaintProc {0.5 setlinewidth pop 0 0 M 0 8 L
	8 8 L 8 0 L 0 0 L fill}
>> matrix makepattern
/Pat3 exch def
<< Tile8x8
 /PaintProc {0.5 setlinewidth pop -4 8 M 8 -4 L
	0 12 M 12 0 L stroke}
>> matrix makepattern
/Pat4 exch def
<< Tile8x8
 /PaintProc {0.5 setlinewidth pop -4 0 M 8 12 L
	0 -4 M 12 8 L stroke}
>> matrix makepattern
/Pat5 exch def
<< Tile8x8
 /PaintProc {0.5 setlinewidth pop -2 8 M 4 -4 L
	0 12 M 8 -4 L 4 12 M 10 0 L stroke}
>> matrix makepattern
/Pat6 exch def
<< Tile8x8
 /PaintProc {0.5 setlinewidth pop -2 0 M 4 12 L
	0 -4 M 8 12 L 4 -4 M 10 8 L stroke}
>> matrix makepattern
/Pat7 exch def
<< Tile8x8
 /PaintProc {0.5 setlinewidth pop 8 -2 M -4 4 L
	12 0 M -4 8 L 12 4 M 0 10 L stroke}
>> matrix makepattern
/Pat8 exch def
<< Tile8x8
 /PaintProc {0.5 setlinewidth pop 0 -2 M 12 4 L
	-4 0 M 12 8 L -4 4 M 8 10 L stroke}
>> matrix makepattern
/Pat9 exch def
/Pattern1 {PatternBgnd KeepColor Pat1 setpattern} bind def
/Pattern2 {PatternBgnd KeepColor Pat2 setpattern} bind def
/Pattern3 {PatternBgnd KeepColor Pat3 setpattern} bind def
/Pattern4 {PatternBgnd KeepColor Landscape {Pat5} {Pat4} ifelse setpattern} bind def
/Pattern5 {PatternBgnd KeepColor Landscape {Pat4} {Pat5} ifelse setpattern} bind def
/Pattern6 {PatternBgnd KeepColor Landscape {Pat9} {Pat6} ifelse setpattern} bind def
/Pattern7 {PatternBgnd KeepColor Landscape {Pat8} {Pat7} ifelse setpattern} bind def
} def
%
%
%End of PostScript Level 2 code
%
/PatternBgnd {
  TransparentPatterns {} {gsave 1 setgray fill grestore} ifelse
} def
%
% Substitute for Level 2 pattern fill codes with
% grayscale if Level 2 support is not selected.
%
/Level1PatternFill {
/Pattern1 {0.250 Density} bind def
/Pattern2 {0.500 Density} bind def
/Pattern3 {0.750 Density} bind def
/Pattern4 {0.125 Density} bind def
/Pattern5 {0.375 Density} bind def
/Pattern6 {0.625 Density} bind def
/Pattern7 {0.875 Density} bind def
} def
%
% Now test for support of Level 2 code
%
Level1 {Level1PatternFill} {Level2PatternFill} ifelse
%
/Symbol-Oblique /Symbol findfont [1 0 .167 1 0 0] makefont
dup length dict begin {1 index /FID eq {pop pop} {def} ifelse} forall
currentdict end definefont pop
Level1 SuppressPDFMark or 
{} {
/SDict 10 dict def
systemdict /pdfmark known not {
  userdict /pdfmark systemdict /cleartomark get put
} if
SDict begin [
  /Title (/home/tiphaine/Documents/my-thesis/Chapters/Figures/20130625_1h-pktspersecond-ccdf.eps)
  /Subject (gnuplot plot)
  /Creator (gnuplot 4.6 patchlevel 4)
  /Author (tiphaine)
%  /Producer (gnuplot)
%  /Keywords ()
  /CreationDate (Sun Jun 26 19:52:01 2016)
  /DOCINFO pdfmark
end
} ifelse
end
%%EndProlog
%%Page: 1 1
gnudict begin
gsave
doclip
50 50 translate
0.100 0.100 scale
90 rotate
0 -5040 translate
0 setgray
newpath
(Helvetica) findfont 140 scalefont setfont
BackgroundColor 0 lt 3 1 roll 0 lt exch 0 lt or or not {gsave BackgroundColor C clippath fill grestore} if
1.000 UL
LTb
LCb setrgbcolor
938 448 M
63 0 V
5946 0 R
-63 0 V
/Helvetica findfont 200 scalefont setfont
/vshift -66 def
854 448 M
( 0.0001) Rshow
/Helvetica findfont 140 scalefont setfont
/vshift -46 def
1.000 UL
LTb
LCb setrgbcolor
938 777 M
31 0 V
5978 0 R
-31 0 V
938 1213 M
31 0 V
5978 0 R
-31 0 V
938 1436 M
31 0 V
5978 0 R
-31 0 V
938 1542 M
63 0 V
5946 0 R
-63 0 V
/Helvetica findfont 200 scalefont setfont
/vshift -66 def
-6030 0 R
( 0.001) Rshow
/Helvetica findfont 140 scalefont setfont
/vshift -46 def
1.000 UL
LTb
LCb setrgbcolor
938 1872 M
31 0 V
5978 0 R
-31 0 V
938 2307 M
31 0 V
5978 0 R
-31 0 V
938 2531 M
31 0 V
5978 0 R
-31 0 V
938 2637 M
63 0 V
5946 0 R
-63 0 V
/Helvetica findfont 200 scalefont setfont
/vshift -66 def
-6030 0 R
( 0.01) Rshow
/Helvetica findfont 140 scalefont setfont
/vshift -46 def
1.000 UL
LTb
LCb setrgbcolor
938 2966 M
31 0 V
5978 0 R
-31 0 V
938 3402 M
31 0 V
5978 0 R
-31 0 V
938 3625 M
31 0 V
5978 0 R
-31 0 V
938 3731 M
63 0 V
5946 0 R
-63 0 V
/Helvetica findfont 200 scalefont setfont
/vshift -66 def
-6030 0 R
( 0.1) Rshow
/Helvetica findfont 140 scalefont setfont
/vshift -46 def
1.000 UL
LTb
LCb setrgbcolor
938 4061 M
31 0 V
5978 0 R
-31 0 V
938 4496 M
31 0 V
5978 0 R
-31 0 V
938 4720 M
31 0 V
5978 0 R
-31 0 V
938 4826 M
63 0 V
5946 0 R
-63 0 V
/Helvetica findfont 200 scalefont setfont
/vshift -66 def
-6030 0 R
( 1) Rshow
/Helvetica findfont 140 scalefont setfont
/vshift -46 def
1.000 UL
LTb
LCb setrgbcolor
938 448 M
0 63 V
0 4360 R
0 -63 V
/Helvetica findfont 200 scalefont setfont
/vshift -66 def
938 308 M
( 0) Cshow
/Helvetica findfont 140 scalefont setfont
/vshift -46 def
1.000 UL
LTb
LCb setrgbcolor
1796 448 M
0 63 V
0 4360 R
0 -63 V
/Helvetica findfont 200 scalefont setfont
/vshift -66 def
0 -4500 R
( 20000) Cshow
/Helvetica findfont 140 scalefont setfont
/vshift -46 def
1.000 UL
LTb
LCb setrgbcolor
2655 448 M
0 63 V
0 4360 R
0 -63 V
/Helvetica findfont 200 scalefont setfont
/vshift -66 def
0 -4500 R
( 40000) Cshow
/Helvetica findfont 140 scalefont setfont
/vshift -46 def
1.000 UL
LTb
LCb setrgbcolor
3513 448 M
0 63 V
0 4360 R
0 -63 V
/Helvetica findfont 200 scalefont setfont
/vshift -66 def
0 -4500 R
( 60000) Cshow
/Helvetica findfont 140 scalefont setfont
/vshift -46 def
1.000 UL
LTb
LCb setrgbcolor
4372 448 M
0 63 V
0 4360 R
0 -63 V
/Helvetica findfont 200 scalefont setfont
/vshift -66 def
0 -4500 R
( 80000) Cshow
/Helvetica findfont 140 scalefont setfont
/vshift -46 def
1.000 UL
LTb
LCb setrgbcolor
5230 448 M
0 63 V
0 4360 R
0 -63 V
/Helvetica findfont 200 scalefont setfont
/vshift -66 def
0 -4500 R
( 100000) Cshow
/Helvetica findfont 140 scalefont setfont
/vshift -46 def
1.000 UL
LTb
LCb setrgbcolor
6089 448 M
0 63 V
0 4360 R
0 -63 V
/Helvetica findfont 200 scalefont setfont
/vshift -66 def
0 -4500 R
( 120000) Cshow
/Helvetica findfont 140 scalefont setfont
/vshift -46 def
1.000 UL
LTb
LCb setrgbcolor
6947 448 M
0 63 V
0 4360 R
0 -63 V
/Helvetica findfont 200 scalefont setfont
/vshift -66 def
0 -4500 R
( 140000) Cshow
/Helvetica findfont 140 scalefont setfont
/vshift -46 def
1.000 UL
LTb
LCb setrgbcolor
1.000 UL
LTb
LCb setrgbcolor
938 4871 N
938 448 L
6009 0 V
0 4423 V
-6009 0 V
Z stroke
LCb setrgbcolor
/Helvetica findfont 240 scalefont setfont
/vshift -80 def
112 2659 M
currentpoint gsave translate -270 rotate 0 0 M
(Number of packets per second \(CCDF\)) Cshow
grestore
/Helvetica findfont 140 scalefont setfont
/vshift -46 def
LTb
LCb setrgbcolor
/Helvetica findfont 240 scalefont setfont
/vshift -80 def
3942 98 M
(x) Cshow
/Helvetica findfont 140 scalefont setfont
/vshift -46 def
LTb
1.000 UP
1.000 UL
LTb
LCb setrgbcolor
6089 448 M
0 4423 V
stroke
LTb
LCb setrgbcolor
% Begin plot #1
1.000 UP
1.000 UL
LT0
LC0 setrgbcolor
1557 4826 Pls
2254 4826 Pls
2290 4825 Pls
2314 4825 Pls
2381 4825 Pls
2405 4825 Pls
2407 4825 Pls
2419 4825 Pls
2424 4825 Pls
2428 4825 Pls
2434 4824 Pls
2446 4824 Pls
2448 4824 Pls
2450 4824 Pls
2452 4824 Pls
2454 4824 Pls
2457 4824 Pls
2458 4823 Pls
2460 4823 Pls
2462 4823 Pls
2464 4823 Pls
2466 4823 Pls
2467 4823 Pls
2467 4823 Pls
2468 4823 Pls
2473 4822 Pls
2473 4822 Pls
2479 4822 Pls
2479 4822 Pls
2486 4822 Pls
2488 4822 Pls
2488 4822 Pls
2490 4821 Pls
2491 4821 Pls
2491 4821 Pls
2492 4821 Pls
2493 4821 Pls
2494 4821 Pls
2495 4821 Pls
2496 4821 Pls
2501 4820 Pls
2502 4820 Pls
2503 4820 Pls
2504 4820 Pls
2504 4820 Pls
2504 4820 Pls
2505 4819 Pls
2506 4819 Pls
2507 4819 Pls
2507 4819 Pls
2507 4819 Pls
2511 4819 Pls
2511 4819 Pls
2511 4819 Pls
2511 4818 Pls
2514 4818 Pls
2515 4818 Pls
2516 4818 Pls
2517 4818 Pls
2518 4818 Pls
2518 4817 Pls
2519 4817 Pls
2520 4817 Pls
2521 4817 Pls
2522 4817 Pls
2522 4817 Pls
2524 4817 Pls
2525 4816 Pls
2526 4816 Pls
2526 4816 Pls
2527 4816 Pls
2528 4816 Pls
2529 4816 Pls
2529 4816 Pls
2530 4815 Pls
2531 4815 Pls
2532 4815 Pls
2532 4815 Pls
2533 4815 Pls
2533 4815 Pls
2534 4815 Pls
2535 4814 Pls
2535 4814 Pls
2536 4814 Pls
2537 4814 Pls
2537 4814 Pls
2538 4814 Pls
2540 4814 Pls
2540 4813 Pls
2541 4813 Pls
2541 4813 Pls
2543 4813 Pls
2545 4813 Pls
2547 4813 Pls
2547 4813 Pls
2548 4812 Pls
2550 4812 Pls
2551 4812 Pls
2552 4812 Pls
2553 4812 Pls
2553 4812 Pls
2554 4812 Pls
2556 4811 Pls
2558 4811 Pls
2558 4811 Pls
2558 4811 Pls
2559 4811 Pls
2560 4811 Pls
2561 4811 Pls
2563 4811 Pls
2563 4810 Pls
2564 4810 Pls
2565 4810 Pls
2565 4810 Pls
2567 4810 Pls
2567 4810 Pls
2570 4810 Pls
2570 4809 Pls
2572 4809 Pls
2572 4809 Pls
2574 4809 Pls
2575 4809 Pls
2575 4809 Pls
2575 4809 Pls
2576 4808 Pls
2576 4808 Pls
2579 4808 Pls
2580 4808 Pls
2580 4808 Pls
2581 4808 Pls
2582 4808 Pls
2582 4808 Pls
2582 4807 Pls
2583 4807 Pls
2583 4807 Pls
2583 4807 Pls
2584 4807 Pls
2584 4807 Pls
2584 4807 Pls
2585 4806 Pls
2586 4806 Pls
2586 4806 Pls
2587 4806 Pls
2589 4806 Pls
2589 4805 Pls
2589 4805 Pls
2590 4805 Pls
2590 4805 Pls
2591 4805 Pls
2591 4805 Pls
2592 4805 Pls
2592 4804 Pls
2592 4804 Pls
2593 4804 Pls
2593 4804 Pls
2594 4804 Pls
2594 4804 Pls
2594 4804 Pls
2595 4803 Pls
2595 4803 Pls
2595 4803 Pls
2596 4803 Pls
2597 4803 Pls
2597 4803 Pls
2598 4803 Pls
2599 4802 Pls
2599 4802 Pls
2600 4802 Pls
2603 4802 Pls
2603 4802 Pls
2604 4802 Pls
2605 4801 Pls
2605 4801 Pls
2605 4801 Pls
2606 4801 Pls
2607 4801 Pls
2607 4801 Pls
2608 4801 Pls
2609 4800 Pls
2610 4800 Pls
2610 4800 Pls
2612 4800 Pls
2613 4800 Pls
2614 4800 Pls
2615 4800 Pls
2616 4800 Pls
2616 4799 Pls
2616 4799 Pls
2617 4799 Pls
2617 4799 Pls
2617 4799 Pls
2618 4799 Pls
2618 4798 Pls
2618 4798 Pls
2619 4798 Pls
2619 4798 Pls
2620 4798 Pls
2620 4798 Pls
2621 4798 Pls
2621 4797 Pls
2621 4797 Pls
2622 4797 Pls
2623 4797 Pls
2623 4797 Pls
2623 4797 Pls
2624 4796 Pls
2624 4796 Pls
2624 4796 Pls
2626 4796 Pls
2626 4796 Pls
2626 4796 Pls
2626 4795 Pls
2627 4795 Pls
2627 4795 Pls
2627 4795 Pls
2627 4795 Pls
2628 4795 Pls
2628 4795 Pls
2628 4794 Pls
2629 4794 Pls
2629 4794 Pls
2629 4794 Pls
2629 4794 Pls
2630 4794 Pls
2631 4793 Pls
2631 4793 Pls
2632 4793 Pls
2632 4793 Pls
2633 4793 Pls
2633 4793 Pls
2633 4793 Pls
2634 4792 Pls
2634 4792 Pls
2634 4792 Pls
2635 4792 Pls
2636 4792 Pls
2636 4792 Pls
2636 4791 Pls
2637 4791 Pls
2638 4791 Pls
2638 4791 Pls
2638 4791 Pls
2639 4791 Pls
2639 4790 Pls
2639 4790 Pls
2639 4790 Pls
2641 4790 Pls
2642 4790 Pls
2642 4790 Pls
2642 4789 Pls
2642 4789 Pls
2643 4789 Pls
2643 4789 Pls
2643 4789 Pls
2644 4789 Pls
2644 4789 Pls
2644 4788 Pls
2645 4788 Pls
2645 4788 Pls
2646 4788 Pls
2646 4788 Pls
2647 4788 Pls
2647 4787 Pls
2647 4787 Pls
2647 4787 Pls
2648 4787 Pls
2649 4787 Pls
2649 4786 Pls
2649 4786 Pls
2650 4786 Pls
2650 4786 Pls
2650 4786 Pls
2650 4786 Pls
2650 4786 Pls
2652 4785 Pls
2652 4785 Pls
2652 4785 Pls
2652 4785 Pls
2652 4785 Pls
2654 4784 Pls
2654 4784 Pls
2654 4784 Pls
2655 4784 Pls
2655 4784 Pls
2656 4784 Pls
2656 4783 Pls
2657 4783 Pls
2657 4783 Pls
2657 4783 Pls
2658 4783 Pls
2658 4783 Pls
2658 4782 Pls
2658 4782 Pls
2659 4782 Pls
2659 4782 Pls
2659 4782 Pls
2659 4782 Pls
2659 4781 Pls
2659 4781 Pls
2660 4781 Pls
2661 4781 Pls
2661 4781 Pls
2661 4781 Pls
2661 4780 Pls
2661 4780 Pls
2662 4780 Pls
2662 4780 Pls
2662 4780 Pls
2663 4780 Pls
2663 4780 Pls
2664 4779 Pls
2664 4779 Pls
2665 4779 Pls
2665 4779 Pls
2666 4779 Pls
2666 4779 Pls
2668 4778 Pls
2668 4778 Pls
2668 4778 Pls
2668 4778 Pls
2668 4778 Pls
2669 4778 Pls
2669 4777 Pls
2670 4777 Pls
2671 4777 Pls
2672 4777 Pls
2672 4777 Pls
2672 4777 Pls
2672 4777 Pls
2672 4776 Pls
2672 4776 Pls
2672 4776 Pls
2673 4776 Pls
2673 4775 Pls
2674 4775 Pls
2675 4775 Pls
2675 4775 Pls
2676 4775 Pls
2676 4775 Pls
2676 4775 Pls
2676 4774 Pls
2677 4774 Pls
2677 4774 Pls
2677 4774 Pls
2677 4774 Pls
2677 4773 Pls
2678 4773 Pls
2678 4773 Pls
2679 4773 Pls
2679 4773 Pls
2680 4773 Pls
2680 4773 Pls
2681 4772 Pls
2681 4772 Pls
2682 4772 Pls
2682 4772 Pls
2682 4772 Pls
2682 4772 Pls
2683 4771 Pls
2684 4771 Pls
2684 4771 Pls
2684 4771 Pls
2684 4771 Pls
2685 4770 Pls
2685 4770 Pls
2685 4770 Pls
2685 4770 Pls
2686 4770 Pls
2686 4770 Pls
2686 4770 Pls
2687 4769 Pls
2687 4769 Pls
2687 4769 Pls
2688 4769 Pls
2688 4769 Pls
2688 4769 Pls
2688 4768 Pls
2688 4768 Pls
2688 4768 Pls
2688 4768 Pls
2689 4768 Pls
2689 4767 Pls
2689 4767 Pls
2690 4767 Pls
2690 4767 Pls
2690 4767 Pls
2691 4767 Pls
2692 4767 Pls
2694 4766 Pls
2695 4766 Pls
2695 4766 Pls
2695 4766 Pls
2696 4766 Pls
2697 4766 Pls
2697 4766 Pls
2697 4765 Pls
2697 4765 Pls
2698 4765 Pls
2698 4765 Pls
2699 4765 Pls
2699 4765 Pls
2699 4764 Pls
2699 4764 Pls
2700 4764 Pls
2700 4764 Pls
2700 4764 Pls
2700 4764 Pls
2700 4763 Pls
2700 4763 Pls
2701 4763 Pls
2701 4763 Pls
2701 4763 Pls
2701 4762 Pls
2702 4762 Pls
2702 4762 Pls
2702 4762 Pls
2703 4762 Pls
2703 4761 Pls
2703 4761 Pls
2703 4761 Pls
2704 4761 Pls
2704 4761 Pls
2705 4761 Pls
2705 4761 Pls
2705 4760 Pls
2706 4760 Pls
2706 4760 Pls
2706 4760 Pls
2706 4760 Pls
2707 4760 Pls
2708 4759 Pls
2708 4759 Pls
2709 4759 Pls
2710 4759 Pls
2710 4759 Pls
2710 4758 Pls
2710 4758 Pls
2710 4758 Pls
2711 4758 Pls
2711 4758 Pls
2712 4758 Pls
2712 4757 Pls
2712 4757 Pls
2712 4757 Pls
2712 4756 Pls
2713 4756 Pls
2713 4756 Pls
2714 4756 Pls
2714 4756 Pls
2715 4755 Pls
2715 4755 Pls
2715 4755 Pls
2716 4755 Pls
2716 4755 Pls
2716 4754 Pls
2717 4754 Pls
2718 4754 Pls
2718 4754 Pls
2719 4754 Pls
2719 4754 Pls
2720 4753 Pls
2720 4753 Pls
2721 4753 Pls
2721 4753 Pls
2721 4753 Pls
2721 4752 Pls
2721 4752 Pls
2722 4752 Pls
2723 4752 Pls
2723 4752 Pls
2723 4752 Pls
2724 4752 Pls
2724 4751 Pls
2725 4751 Pls
2725 4751 Pls
2725 4751 Pls
2725 4750 Pls
2725 4750 Pls
2725 4750 Pls
2726 4750 Pls
2726 4750 Pls
2726 4750 Pls
2726 4749 Pls
2727 4749 Pls
2727 4749 Pls
2727 4749 Pls
2727 4749 Pls
2728 4748 Pls
2728 4748 Pls
2728 4748 Pls
2729 4748 Pls
2729 4748 Pls
2729 4748 Pls
2730 4747 Pls
2730 4747 Pls
2730 4747 Pls
2730 4747 Pls
2731 4747 Pls
2731 4746 Pls
2731 4746 Pls
2731 4746 Pls
2731 4746 Pls
2732 4745 Pls
2732 4745 Pls
2732 4745 Pls
2732 4745 Pls
2732 4745 Pls
2733 4744 Pls
2733 4744 Pls
2733 4744 Pls
2733 4744 Pls
2734 4744 Pls
2734 4743 Pls
2734 4743 Pls
2735 4743 Pls
2735 4743 Pls
2736 4743 Pls
2736 4743 Pls
2736 4742 Pls
2737 4742 Pls
2737 4742 Pls
2738 4742 Pls
2738 4742 Pls
2738 4742 Pls
2739 4741 Pls
2739 4741 Pls
2739 4741 Pls
2740 4741 Pls
2740 4741 Pls
2740 4740 Pls
2740 4740 Pls
2741 4740 Pls
2741 4740 Pls
2741 4740 Pls
2742 4740 Pls
2742 4739 Pls
2742 4739 Pls
2742 4739 Pls
2743 4739 Pls
2743 4738 Pls
2743 4738 Pls
2743 4738 Pls
2743 4738 Pls
2743 4738 Pls
2744 4737 Pls
2744 4737 Pls
2744 4737 Pls
2744 4737 Pls
2744 4737 Pls
2746 4736 Pls
2747 4736 Pls
2747 4736 Pls
2747 4736 Pls
2747 4736 Pls
2748 4736 Pls
2748 4735 Pls
2748 4735 Pls
2748 4735 Pls
2748 4735 Pls
2748 4735 Pls
2749 4735 Pls
2749 4734 Pls
2749 4734 Pls
2749 4734 Pls
2750 4734 Pls
2750 4734 Pls
2750 4734 Pls
2751 4733 Pls
2751 4733 Pls
2751 4733 Pls
2751 4733 Pls
2752 4733 Pls
2752 4733 Pls
2752 4732 Pls
2752 4732 Pls
2752 4732 Pls
2753 4732 Pls
2753 4732 Pls
2753 4732 Pls
2754 4731 Pls
2754 4731 Pls
2754 4731 Pls
2754 4731 Pls
2754 4731 Pls
2756 4730 Pls
2756 4730 Pls
2756 4730 Pls
2757 4730 Pls
2757 4730 Pls
2758 4730 Pls
2758 4729 Pls
2758 4729 Pls
2758 4729 Pls
2759 4729 Pls
2759 4729 Pls
2759 4728 Pls
2759 4728 Pls
2760 4728 Pls
2760 4728 Pls
2761 4728 Pls
2761 4728 Pls
2761 4727 Pls
2761 4727 Pls
2762 4727 Pls
2762 4727 Pls
2763 4727 Pls
2763 4727 Pls
2763 4727 Pls
2763 4726 Pls
2764 4726 Pls
2764 4726 Pls
2764 4726 Pls
2764 4725 Pls
2765 4725 Pls
2765 4725 Pls
2766 4725 Pls
2767 4725 Pls
2767 4725 Pls
2767 4724 Pls
2768 4724 Pls
2768 4724 Pls
2768 4724 Pls
2768 4724 Pls
2769 4723 Pls
2769 4723 Pls
2769 4723 Pls
2769 4723 Pls
2770 4723 Pls
2770 4722 Pls
2771 4722 Pls
2772 4722 Pls
2772 4722 Pls
2772 4721 Pls
2772 4721 Pls
2773 4721 Pls
2773 4721 Pls
2773 4720 Pls
2773 4720 Pls
2773 4720 Pls
2773 4720 Pls
2773 4720 Pls
2774 4720 Pls
2774 4719 Pls
2774 4719 Pls
2774 4719 Pls
2774 4719 Pls
2775 4719 Pls
2775 4718 Pls
2775 4718 Pls
2776 4718 Pls
2776 4718 Pls
2776 4718 Pls
2776 4717 Pls
2777 4717 Pls
2777 4717 Pls
2777 4716 Pls
2778 4716 Pls
2778 4716 Pls
2778 4716 Pls
2778 4716 Pls
2778 4716 Pls
2779 4715 Pls
2779 4715 Pls
2779 4715 Pls
2779 4715 Pls
2780 4715 Pls
2780 4714 Pls
2780 4714 Pls
2781 4714 Pls
2781 4714 Pls
2781 4713 Pls
2781 4713 Pls
2781 4713 Pls
2781 4713 Pls
2782 4712 Pls
2782 4712 Pls
2782 4712 Pls
2783 4712 Pls
2783 4711 Pls
2783 4711 Pls
2783 4711 Pls
2783 4711 Pls
2784 4711 Pls
2784 4710 Pls
2785 4710 Pls
2785 4710 Pls
2786 4710 Pls
2786 4710 Pls
2786 4709 Pls
2786 4709 Pls
2786 4709 Pls
2787 4709 Pls
2788 4709 Pls
2788 4709 Pls
2788 4708 Pls
2788 4708 Pls
2789 4708 Pls
2789 4708 Pls
2790 4708 Pls
2790 4708 Pls
2790 4707 Pls
2790 4707 Pls
2791 4707 Pls
2791 4707 Pls
2791 4707 Pls
2791 4706 Pls
2792 4706 Pls
2792 4706 Pls
2793 4706 Pls
2793 4706 Pls
2793 4706 Pls
2793 4705 Pls
2793 4705 Pls
2793 4705 Pls
2794 4705 Pls
2794 4704 Pls
2794 4704 Pls
2794 4704 Pls
2794 4704 Pls
2795 4703 Pls
2795 4703 Pls
2796 4703 Pls
2796 4703 Pls
2796 4702 Pls
2797 4702 Pls
2797 4702 Pls
2797 4702 Pls
2797 4701 Pls
2797 4701 Pls
2797 4701 Pls
2798 4701 Pls
2798 4700 Pls
2798 4700 Pls
2798 4700 Pls
2799 4700 Pls
2799 4700 Pls
2799 4700 Pls
2799 4699 Pls
2799 4699 Pls
2800 4699 Pls
2800 4699 Pls
2800 4699 Pls
2801 4698 Pls
2801 4698 Pls
2801 4698 Pls
2801 4698 Pls
2801 4698 Pls
2801 4697 Pls
2802 4697 Pls
2802 4697 Pls
2802 4697 Pls
2802 4697 Pls
2802 4696 Pls
2802 4696 Pls
2803 4696 Pls
2803 4696 Pls
2803 4696 Pls
2804 4696 Pls
2805 4695 Pls
2805 4695 Pls
2805 4695 Pls
2805 4695 Pls
2805 4695 Pls
2806 4694 Pls
2806 4694 Pls
2806 4694 Pls
2806 4694 Pls
2806 4694 Pls
2807 4694 Pls
2807 4693 Pls
2807 4693 Pls
2807 4693 Pls
2807 4693 Pls
2808 4692 Pls
2808 4692 Pls
2808 4692 Pls
2808 4692 Pls
2809 4692 Pls
2809 4692 Pls
2809 4691 Pls
2809 4691 Pls
2810 4691 Pls
2810 4691 Pls
2810 4691 Pls
2810 4690 Pls
2810 4690 Pls
2811 4690 Pls
2811 4690 Pls
2812 4689 Pls
2812 4689 Pls
2812 4689 Pls
2812 4689 Pls
2812 4689 Pls
2812 4689 Pls
2813 4688 Pls
2813 4688 Pls
2813 4688 Pls
2813 4688 Pls
2813 4688 Pls
2813 4687 Pls
2814 4687 Pls
2814 4687 Pls
2814 4687 Pls
2815 4687 Pls
2815 4686 Pls
2815 4686 Pls
2815 4686 Pls
2815 4686 Pls
2815 4685 Pls
2815 4685 Pls
2816 4685 Pls
2817 4685 Pls
2817 4684 Pls
2817 4684 Pls
2817 4684 Pls
2817 4684 Pls
2818 4683 Pls
2818 4683 Pls
2818 4683 Pls
2818 4683 Pls
2818 4682 Pls
2819 4682 Pls
2819 4682 Pls
2819 4682 Pls
2819 4682 Pls
2820 4681 Pls
2820 4681 Pls
2820 4681 Pls
2820 4681 Pls
2820 4681 Pls
2821 4680 Pls
2821 4680 Pls
2822 4680 Pls
2822 4680 Pls
2822 4680 Pls
2822 4679 Pls
2822 4679 Pls
2822 4679 Pls
2823 4679 Pls
2823 4678 Pls
2823 4678 Pls
2823 4678 Pls
2823 4678 Pls
2823 4678 Pls
2824 4677 Pls
2824 4677 Pls
2824 4677 Pls
2824 4676 Pls
2824 4676 Pls
2824 4676 Pls
2825 4676 Pls
2825 4676 Pls
2825 4675 Pls
2825 4675 Pls
2825 4675 Pls
2825 4675 Pls
2826 4674 Pls
2826 4674 Pls
2826 4674 Pls
2826 4674 Pls
2827 4674 Pls
2827 4673 Pls
2827 4673 Pls
2827 4673 Pls
2828 4673 Pls
2828 4672 Pls
2828 4672 Pls
2829 4672 Pls
2829 4672 Pls
2829 4672 Pls
2829 4672 Pls
2829 4671 Pls
2829 4671 Pls
2829 4671 Pls
2830 4670 Pls
2830 4670 Pls
2830 4670 Pls
2830 4670 Pls
2831 4669 Pls
2831 4669 Pls
2831 4669 Pls
2831 4669 Pls
2831 4668 Pls
2832 4668 Pls
2832 4668 Pls
2832 4668 Pls
2832 4668 Pls
2833 4668 Pls
2833 4667 Pls
2833 4667 Pls
2833 4667 Pls
2834 4667 Pls
2834 4667 Pls
2834 4666 Pls
2834 4666 Pls
2834 4666 Pls
2834 4666 Pls
2835 4665 Pls
2835 4665 Pls
2835 4665 Pls
2836 4665 Pls
2836 4665 Pls
2837 4664 Pls
2838 4664 Pls
2838 4664 Pls
2838 4664 Pls
2838 4663 Pls
2838 4663 Pls
2839 4663 Pls
2839 4663 Pls
2839 4662 Pls
2840 4662 Pls
2840 4662 Pls
2840 4662 Pls
2841 4662 Pls
2841 4661 Pls
2841 4661 Pls
2842 4661 Pls
2842 4661 Pls
2842 4661 Pls
2842 4660 Pls
2842 4660 Pls
2842 4660 Pls
2843 4660 Pls
2843 4660 Pls
2843 4659 Pls
2843 4659 Pls
2843 4659 Pls
2844 4659 Pls
2844 4659 Pls
2844 4658 Pls
2844 4658 Pls
2845 4658 Pls
2845 4658 Pls
2845 4657 Pls
2845 4657 Pls
2845 4657 Pls
2846 4657 Pls
2846 4657 Pls
2846 4657 Pls
2846 4656 Pls
2846 4656 Pls
2846 4656 Pls
2847 4656 Pls
2847 4656 Pls
2848 4655 Pls
2848 4655 Pls
2849 4655 Pls
2849 4654 Pls
2849 4654 Pls
2849 4654 Pls
2850 4654 Pls
2850 4653 Pls
2850 4653 Pls
2851 4653 Pls
2851 4653 Pls
2851 4652 Pls
2851 4652 Pls
2852 4652 Pls
2852 4651 Pls
2852 4651 Pls
2852 4651 Pls
2852 4651 Pls
2852 4651 Pls
2852 4650 Pls
2852 4650 Pls
2853 4650 Pls
2853 4650 Pls
2854 4650 Pls
2854 4649 Pls
2855 4649 Pls
2855 4648 Pls
2855 4648 Pls
2855 4648 Pls
2855 4647 Pls
2856 4647 Pls
2856 4647 Pls
2856 4646 Pls
2856 4646 Pls
2856 4646 Pls
2856 4646 Pls
2856 4646 Pls
2857 4645 Pls
2857 4645 Pls
2857 4645 Pls
2858 4645 Pls
2858 4645 Pls
2858 4644 Pls
2859 4644 Pls
2859 4643 Pls
2859 4643 Pls
2859 4643 Pls
2859 4643 Pls
2860 4643 Pls
2860 4642 Pls
2860 4642 Pls
2860 4642 Pls
2860 4642 Pls
2860 4642 Pls
2861 4641 Pls
2861 4641 Pls
2861 4641 Pls
2861 4641 Pls
2861 4641 Pls
2861 4640 Pls
2861 4640 Pls
2861 4640 Pls
2862 4640 Pls
2862 4639 Pls
2862 4639 Pls
2862 4639 Pls
2862 4639 Pls
2862 4638 Pls
2863 4638 Pls
2863 4638 Pls
2863 4638 Pls
2863 4637 Pls
2863 4637 Pls
2863 4637 Pls
2863 4636 Pls
2863 4636 Pls
2863 4636 Pls
2864 4636 Pls
2864 4636 Pls
2864 4635 Pls
2865 4635 Pls
2865 4635 Pls
2865 4635 Pls
2865 4635 Pls
2866 4634 Pls
2866 4634 Pls
2866 4634 Pls
2866 4634 Pls
2866 4633 Pls
2867 4633 Pls
2867 4633 Pls
2867 4633 Pls
2867 4632 Pls
2868 4632 Pls
2868 4632 Pls
2868 4632 Pls
2869 4631 Pls
2869 4631 Pls
2869 4631 Pls
2870 4631 Pls
2870 4631 Pls
2870 4630 Pls
2870 4630 Pls
2870 4630 Pls
2871 4630 Pls
2871 4629 Pls
2871 4629 Pls
2871 4629 Pls
2871 4628 Pls
2872 4628 Pls
2872 4628 Pls
2872 4627 Pls
2872 4627 Pls
2873 4627 Pls
2873 4627 Pls
2873 4627 Pls
2873 4626 Pls
2874 4626 Pls
2874 4626 Pls
2874 4626 Pls
2874 4625 Pls
2874 4625 Pls
2875 4625 Pls
2875 4625 Pls
2875 4624 Pls
2875 4624 Pls
2876 4624 Pls
2876 4624 Pls
2876 4624 Pls
2877 4623 Pls
2877 4623 Pls
2877 4623 Pls
2878 4623 Pls
2878 4623 Pls
2878 4622 Pls
2878 4622 Pls
2878 4622 Pls
2879 4622 Pls
2879 4621 Pls
2879 4621 Pls
2879 4621 Pls
2879 4621 Pls
2879 4621 Pls
2879 4620 Pls
2880 4620 Pls
2880 4620 Pls
2880 4620 Pls
2880 4619 Pls
2880 4619 Pls
2880 4618 Pls
2881 4618 Pls
2881 4617 Pls
2881 4617 Pls
2881 4617 Pls
2881 4617 Pls
2882 4616 Pls
2882 4616 Pls
2882 4616 Pls
2882 4615 Pls
2882 4615 Pls
2883 4615 Pls
2883 4614 Pls
2883 4614 Pls
2883 4614 Pls
2883 4614 Pls
2883 4614 Pls
2884 4613 Pls
2884 4613 Pls
2884 4613 Pls
2884 4613 Pls
2884 4612 Pls
2884 4612 Pls
2885 4612 Pls
2885 4611 Pls
2885 4611 Pls
2886 4610 Pls
2886 4610 Pls
2886 4610 Pls
2886 4609 Pls
2887 4609 Pls
2887 4609 Pls
2887 4609 Pls
2887 4609 Pls
2887 4608 Pls
2887 4608 Pls
2887 4608 Pls
2888 4608 Pls
2888 4608 Pls
2888 4607 Pls
2888 4607 Pls
2888 4607 Pls
2888 4606 Pls
2889 4606 Pls
2889 4606 Pls
2889 4606 Pls
2890 4605 Pls
2891 4605 Pls
2891 4605 Pls
2891 4605 Pls
2892 4604 Pls
2892 4604 Pls
2892 4604 Pls
2892 4603 Pls
2892 4603 Pls
2893 4603 Pls
2893 4602 Pls
2893 4602 Pls
2893 4602 Pls
2893 4602 Pls
2894 4601 Pls
2894 4601 Pls
2894 4601 Pls
2895 4600 Pls
2895 4600 Pls
2895 4600 Pls
2896 4600 Pls
2896 4600 Pls
2897 4599 Pls
2897 4599 Pls
2897 4599 Pls
2897 4599 Pls
2897 4598 Pls
2897 4598 Pls
2897 4598 Pls
2898 4598 Pls
2898 4597 Pls
2898 4597 Pls
2899 4597 Pls
2899 4596 Pls
2900 4596 Pls
2900 4596 Pls
2900 4596 Pls
2900 4595 Pls
2901 4595 Pls
2901 4595 Pls
2901 4594 Pls
2901 4594 Pls
2901 4594 Pls
2902 4594 Pls
2902 4593 Pls
2902 4592 Pls
2902 4592 Pls
2903 4592 Pls
2903 4592 Pls
2904 4592 Pls
2904 4591 Pls
2904 4591 Pls
2904 4591 Pls
2904 4591 Pls
2904 4591 Pls
2905 4590 Pls
2905 4590 Pls
2905 4590 Pls
2905 4589 Pls
2905 4589 Pls
2906 4589 Pls
2906 4588 Pls
2906 4588 Pls
2906 4588 Pls
2906 4588 Pls
2906 4588 Pls
2906 4587 Pls
2906 4587 Pls
2906 4587 Pls
2907 4587 Pls
2907 4586 Pls
2907 4586 Pls
2907 4586 Pls
2908 4586 Pls
2908 4585 Pls
2908 4585 Pls
2908 4585 Pls
2908 4585 Pls
2909 4584 Pls
2909 4584 Pls
2909 4584 Pls
2910 4584 Pls
2910 4583 Pls
2910 4583 Pls
2910 4583 Pls
2910 4582 Pls
2910 4582 Pls
2911 4582 Pls
2911 4582 Pls
2911 4581 Pls
2911 4581 Pls
2911 4581 Pls
2912 4581 Pls
2912 4580 Pls
2912 4580 Pls
2912 4580 Pls
2913 4580 Pls
2913 4579 Pls
2914 4579 Pls
2914 4578 Pls
2914 4578 Pls
2914 4578 Pls
2915 4577 Pls
2915 4577 Pls
2915 4577 Pls
2915 4576 Pls
2915 4576 Pls
2916 4576 Pls
2916 4576 Pls
2916 4575 Pls
2916 4575 Pls
2916 4575 Pls
2916 4574 Pls
2916 4574 Pls
2917 4574 Pls
2917 4574 Pls
2917 4573 Pls
2918 4573 Pls
2918 4573 Pls
2918 4572 Pls
2919 4572 Pls
2919 4572 Pls
2919 4571 Pls
2919 4571 Pls
2920 4571 Pls
2920 4570 Pls
2920 4570 Pls
2921 4570 Pls
2921 4570 Pls
2921 4569 Pls
2921 4569 Pls
2922 4569 Pls
2922 4569 Pls
2922 4568 Pls
2922 4568 Pls
2923 4568 Pls
2923 4568 Pls
2923 4567 Pls
2923 4567 Pls
2923 4567 Pls
2923 4566 Pls
2923 4566 Pls
2924 4566 Pls
2924 4566 Pls
2924 4565 Pls
2924 4565 Pls
2924 4565 Pls
2924 4565 Pls
2924 4564 Pls
2925 4564 Pls
2925 4564 Pls
2925 4563 Pls
2925 4563 Pls
2925 4562 Pls
2926 4562 Pls
2926 4562 Pls
2926 4561 Pls
2926 4561 Pls
2926 4561 Pls
2927 4560 Pls
2927 4560 Pls
2927 4560 Pls
2927 4560 Pls
2927 4559 Pls
2927 4559 Pls
2928 4559 Pls
2928 4559 Pls
2928 4558 Pls
2928 4558 Pls
2928 4558 Pls
2929 4557 Pls
2929 4557 Pls
2929 4557 Pls
2929 4557 Pls
2930 4556 Pls
2930 4556 Pls
2930 4555 Pls
2930 4555 Pls
2930 4555 Pls
2930 4554 Pls
2931 4554 Pls
2931 4553 Pls
2931 4553 Pls
2932 4553 Pls
2932 4552 Pls
2932 4552 Pls
2932 4552 Pls
2933 4552 Pls
2933 4551 Pls
2933 4551 Pls
2933 4551 Pls
2933 4550 Pls
2933 4550 Pls
2933 4549 Pls
2934 4549 Pls
2934 4548 Pls
2934 4548 Pls
2934 4548 Pls
2934 4548 Pls
2934 4548 Pls
2935 4547 Pls
2936 4547 Pls
2936 4547 Pls
2936 4546 Pls
2937 4546 Pls
2937 4545 Pls
2937 4545 Pls
2937 4545 Pls
2937 4545 Pls
2938 4544 Pls
2938 4544 Pls
2938 4544 Pls
2938 4543 Pls
2938 4543 Pls
2939 4543 Pls
2939 4543 Pls
2939 4542 Pls
2940 4542 Pls
2940 4542 Pls
2941 4541 Pls
2941 4541 Pls
2941 4541 Pls
2941 4541 Pls
2941 4540 Pls
2942 4540 Pls
2942 4539 Pls
2942 4539 Pls
2942 4539 Pls
2943 4538 Pls
2943 4538 Pls
2943 4538 Pls
2943 4537 Pls
2943 4537 Pls
2944 4537 Pls
2944 4537 Pls
2944 4536 Pls
2945 4536 Pls
2945 4536 Pls
2945 4536 Pls
2946 4536 Pls
2946 4535 Pls
2946 4535 Pls
2946 4535 Pls
2947 4534 Pls
2947 4534 Pls
2947 4534 Pls
2947 4534 Pls
2947 4533 Pls
2948 4533 Pls
2948 4533 Pls
2948 4532 Pls
2948 4532 Pls
2948 4532 Pls
2949 4532 Pls
2949 4531 Pls
2950 4531 Pls
2950 4530 Pls
2950 4530 Pls
2950 4529 Pls
2950 4529 Pls
2950 4529 Pls
2950 4528 Pls
2951 4528 Pls
2951 4528 Pls
2951 4527 Pls
2951 4527 Pls
2951 4527 Pls
2952 4526 Pls
2952 4526 Pls
2952 4526 Pls
2952 4526 Pls
2953 4525 Pls
2953 4525 Pls
2953 4525 Pls
2953 4525 Pls
2953 4524 Pls
2954 4524 Pls
2954 4524 Pls
2954 4523 Pls
2954 4523 Pls
2954 4523 Pls
2954 4522 Pls
2955 4522 Pls
2955 4522 Pls
2955 4521 Pls
2955 4521 Pls
2955 4521 Pls
2955 4520 Pls
2955 4520 Pls
2956 4520 Pls
2956 4520 Pls
2956 4519 Pls
2957 4519 Pls
2957 4519 Pls
2957 4518 Pls
2957 4518 Pls
2958 4518 Pls
2958 4517 Pls
2958 4517 Pls
2959 4517 Pls
2959 4517 Pls
2960 4516 Pls
2960 4516 Pls
2960 4515 Pls
2960 4515 Pls
2960 4514 Pls
2960 4514 Pls
2961 4514 Pls
2961 4514 Pls
2961 4513 Pls
2961 4513 Pls
2962 4513 Pls
2962 4512 Pls
2962 4512 Pls
2963 4512 Pls
2963 4512 Pls
2963 4511 Pls
2964 4511 Pls
2964 4511 Pls
2964 4510 Pls
2964 4510 Pls
2965 4510 Pls
2965 4510 Pls
2965 4509 Pls
2965 4509 Pls
2965 4509 Pls
2966 4508 Pls
2966 4508 Pls
2966 4508 Pls
2966 4508 Pls
2966 4507 Pls
2967 4507 Pls
2967 4507 Pls
2967 4507 Pls
2967 4506 Pls
2967 4506 Pls
2968 4506 Pls
2968 4506 Pls
2968 4505 Pls
2968 4505 Pls
2968 4505 Pls
2968 4504 Pls
2969 4504 Pls
2969 4504 Pls
2969 4503 Pls
2969 4503 Pls
2970 4503 Pls
2970 4502 Pls
2970 4502 Pls
2971 4501 Pls
2971 4501 Pls
2971 4501 Pls
2972 4501 Pls
2972 4500 Pls
2973 4500 Pls
2973 4500 Pls
2973 4499 Pls
2973 4499 Pls
2974 4499 Pls
2974 4498 Pls
2975 4498 Pls
2975 4498 Pls
2975 4497 Pls
2975 4496 Pls
2975 4496 Pls
2976 4496 Pls
2976 4495 Pls
2976 4495 Pls
2976 4495 Pls
2977 4495 Pls
2977 4494 Pls
2977 4494 Pls
2977 4494 Pls
2977 4494 Pls
2977 4493 Pls
2978 4493 Pls
2978 4493 Pls
2978 4493 Pls
2978 4492 Pls
2978 4492 Pls
2979 4492 Pls
2979 4491 Pls
2979 4491 Pls
2979 4491 Pls
2980 4490 Pls
2980 4490 Pls
2980 4490 Pls
2981 4489 Pls
2981 4489 Pls
2981 4489 Pls
2981 4489 Pls
2981 4488 Pls
2982 4488 Pls
2982 4488 Pls
2982 4487 Pls
2982 4487 Pls
2982 4487 Pls
2983 4487 Pls
2983 4486 Pls
2983 4486 Pls
2983 4486 Pls
2983 4486 Pls
2983 4485 Pls
2984 4485 Pls
2984 4485 Pls
2985 4484 Pls
2985 4484 Pls
2985 4484 Pls
2986 4483 Pls
2986 4483 Pls
2986 4483 Pls
2986 4482 Pls
2987 4482 Pls
2987 4481 Pls
2987 4481 Pls
2987 4481 Pls
2987 4481 Pls
2987 4480 Pls
2988 4480 Pls
2988 4480 Pls
2988 4480 Pls
2988 4479 Pls
2989 4479 Pls
2989 4479 Pls
2989 4478 Pls
2989 4478 Pls
2989 4478 Pls
2989 4478 Pls
2990 4477 Pls
2990 4477 Pls
2990 4477 Pls
2990 4476 Pls
2990 4476 Pls
2991 4476 Pls
2991 4475 Pls
2991 4475 Pls
2991 4475 Pls
2991 4475 Pls
2992 4474 Pls
2992 4474 Pls
2992 4473 Pls
2992 4473 Pls
2992 4473 Pls
2993 4472 Pls
2993 4472 Pls
2993 4472 Pls
2993 4471 Pls
2993 4471 Pls
2993 4471 Pls
2994 4470 Pls
2994 4470 Pls
2994 4469 Pls
2994 4469 Pls
2995 4469 Pls
2995 4468 Pls
2995 4468 Pls
2995 4467 Pls
2995 4467 Pls
2996 4467 Pls
2996 4466 Pls
2996 4466 Pls
2996 4466 Pls
2996 4465 Pls
2997 4465 Pls
2997 4465 Pls
2997 4464 Pls
2997 4464 Pls
2998 4464 Pls
2998 4463 Pls
2998 4463 Pls
2999 4462 Pls
2999 4462 Pls
3000 4462 Pls
3000 4461 Pls
3001 4461 Pls
3001 4461 Pls
3001 4461 Pls
3001 4460 Pls
3001 4460 Pls
3002 4459 Pls
3002 4458 Pls
3002 4458 Pls
3003 4458 Pls
3003 4457 Pls
3003 4457 Pls
3003 4457 Pls
3004 4455 Pls
3004 4455 Pls
3004 4455 Pls
3004 4455 Pls
3004 4454 Pls
3004 4454 Pls
3004 4454 Pls
3005 4453 Pls
3005 4453 Pls
3005 4453 Pls
3005 4452 Pls
3005 4452 Pls
3005 4451 Pls
3006 4451 Pls
3006 4451 Pls
3006 4451 Pls
3006 4450 Pls
3007 4450 Pls
3007 4449 Pls
3007 4449 Pls
3008 4449 Pls
3008 4448 Pls
3008 4448 Pls
3009 4447 Pls
3009 4447 Pls
3009 4446 Pls
3009 4446 Pls
3009 4445 Pls
3010 4445 Pls
3010 4445 Pls
3010 4444 Pls
3010 4444 Pls
3011 4444 Pls
3011 4444 Pls
3011 4443 Pls
3011 4442 Pls
3012 4442 Pls
3012 4442 Pls
3012 4441 Pls
3012 4441 Pls
3013 4441 Pls
3013 4440 Pls
3013 4440 Pls
3014 4439 Pls
3014 4439 Pls
3014 4438 Pls
3014 4438 Pls
3015 4438 Pls
3015 4438 Pls
3016 4437 Pls
3016 4437 Pls
3016 4437 Pls
3016 4436 Pls
3016 4436 Pls
3017 4436 Pls
3017 4435 Pls
3017 4435 Pls
3017 4435 Pls
3017 4434 Pls
3018 4434 Pls
3018 4433 Pls
3018 4433 Pls
3019 4433 Pls
3019 4432 Pls
3019 4432 Pls
3020 4432 Pls
3020 4431 Pls
3020 4431 Pls
3020 4431 Pls
3021 4430 Pls
3021 4430 Pls
3021 4429 Pls
3021 4428 Pls
3022 4428 Pls
3022 4427 Pls
3022 4426 Pls
3023 4426 Pls
3023 4426 Pls
3023 4425 Pls
3023 4425 Pls
3024 4425 Pls
3024 4424 Pls
3024 4424 Pls
3024 4424 Pls
3024 4423 Pls
3024 4423 Pls
3024 4423 Pls
3025 4422 Pls
3025 4422 Pls
3025 4422 Pls
3025 4421 Pls
3026 4421 Pls
3026 4421 Pls
3026 4420 Pls
3026 4420 Pls
3027 4419 Pls
3027 4419 Pls
3027 4418 Pls
3027 4418 Pls
3027 4417 Pls
3028 4417 Pls
3028 4417 Pls
3028 4416 Pls
3029 4416 Pls
3029 4415 Pls
3030 4415 Pls
3030 4415 Pls
3030 4414 Pls
3031 4414 Pls
3031 4414 Pls
3031 4413 Pls
3031 4413 Pls
3031 4413 Pls
3032 4412 Pls
3032 4412 Pls
3033 4411 Pls
3033 4411 Pls
3034 4411 Pls
3034 4410 Pls
3034 4410 Pls
3034 4410 Pls
3035 4409 Pls
3035 4409 Pls
3035 4408 Pls
3035 4408 Pls
3036 4408 Pls
3037 4407 Pls
3037 4407 Pls
3037 4406 Pls
3037 4406 Pls
3037 4406 Pls
3037 4405 Pls
3038 4404 Pls
3038 4404 Pls
3038 4404 Pls
3039 4403 Pls
3039 4402 Pls
3039 4402 Pls
3039 4402 Pls
3039 4401 Pls
3040 4401 Pls
3040 4400 Pls
3040 4400 Pls
3041 4399 Pls
3041 4399 Pls
3041 4398 Pls
3041 4398 Pls
3041 4397 Pls
3042 4397 Pls
3042 4397 Pls
3042 4396 Pls
3042 4396 Pls
3042 4396 Pls
3042 4395 Pls
3043 4395 Pls
3043 4395 Pls
3043 4394 Pls
3044 4394 Pls
3044 4394 Pls
3044 4393 Pls
3045 4393 Pls
3045 4393 Pls
3045 4392 Pls
3046 4392 Pls
3046 4392 Pls
3047 4391 Pls
3047 4391 Pls
3047 4391 Pls
3047 4390 Pls
3047 4389 Pls
3047 4389 Pls
3048 4388 Pls
3048 4388 Pls
3048 4387 Pls
3048 4387 Pls
3048 4386 Pls
3048 4386 Pls
3049 4386 Pls
3049 4385 Pls
3049 4385 Pls
3050 4385 Pls
3050 4384 Pls
3050 4384 Pls
3050 4384 Pls
3051 4383 Pls
3051 4383 Pls
3051 4382 Pls
3052 4382 Pls
3052 4381 Pls
3052 4381 Pls
3052 4380 Pls
3053 4380 Pls
3053 4379 Pls
3053 4379 Pls
3053 4378 Pls
3053 4378 Pls
3054 4377 Pls
3054 4377 Pls
3054 4376 Pls
3054 4376 Pls
3054 4376 Pls
3055 4375 Pls
3055 4375 Pls
3056 4375 Pls
3056 4374 Pls
3056 4374 Pls
3057 4374 Pls
3057 4373 Pls
3058 4373 Pls
3058 4373 Pls
3058 4372 Pls
3059 4372 Pls
3059 4371 Pls
3059 4371 Pls
3059 4370 Pls
3060 4370 Pls
3061 4370 Pls
3061 4369 Pls
3061 4369 Pls
3061 4368 Pls
3061 4368 Pls
3062 4367 Pls
3062 4367 Pls
3062 4366 Pls
3063 4366 Pls
3063 4366 Pls
3063 4365 Pls
3063 4365 Pls
3063 4365 Pls
3063 4364 Pls
3063 4364 Pls
3063 4364 Pls
3064 4363 Pls
3064 4363 Pls
3064 4362 Pls
3065 4362 Pls
3065 4361 Pls
3065 4361 Pls
3066 4361 Pls
3066 4360 Pls
3066 4360 Pls
3066 4360 Pls
3066 4359 Pls
3066 4359 Pls
3067 4358 Pls
3067 4358 Pls
3067 4357 Pls
3067 4357 Pls
3067 4356 Pls
3068 4356 Pls
3068 4356 Pls
3068 4355 Pls
3069 4355 Pls
3069 4355 Pls
3070 4354 Pls
3070 4353 Pls
3071 4353 Pls
3071 4353 Pls
3072 4352 Pls
3072 4352 Pls
3073 4350 Pls
3074 4350 Pls
3074 4350 Pls
3074 4349 Pls
3074 4349 Pls
3075 4348 Pls
3075 4348 Pls
3075 4348 Pls
3075 4347 Pls
3075 4347 Pls
3076 4346 Pls
3076 4346 Pls
3076 4346 Pls
3076 4345 Pls
3076 4345 Pls
3076 4344 Pls
3077 4344 Pls
3077 4343 Pls
3077 4343 Pls
3078 4343 Pls
3078 4342 Pls
3079 4342 Pls
3079 4342 Pls
3079 4341 Pls
3079 4341 Pls
3079 4340 Pls
3079 4340 Pls
3079 4339 Pls
3080 4339 Pls
3080 4339 Pls
3080 4338 Pls
3081 4338 Pls
3081 4338 Pls
3082 4337 Pls
3083 4336 Pls
3083 4336 Pls
3084 4336 Pls
3084 4335 Pls
3084 4335 Pls
3084 4334 Pls
3085 4334 Pls
3085 4333 Pls
3085 4333 Pls
3085 4333 Pls
3085 4332 Pls
3085 4332 Pls
3086 4332 Pls
3086 4331 Pls
3087 4331 Pls
3087 4330 Pls
3087 4330 Pls
3087 4329 Pls
3088 4329 Pls
3088 4328 Pls
3088 4328 Pls
3088 4327 Pls
3088 4327 Pls
3088 4327 Pls
3088 4326 Pls
3089 4326 Pls
3089 4326 Pls
3089 4325 Pls
3089 4325 Pls
3089 4324 Pls
3089 4324 Pls
3090 4324 Pls
3090 4323 Pls
3090 4323 Pls
3090 4323 Pls
3090 4322 Pls
3090 4321 Pls
3090 4321 Pls
3091 4320 Pls
3091 4320 Pls
3091 4319 Pls
3092 4319 Pls
3092 4319 Pls
3093 4318 Pls
3094 4318 Pls
3094 4318 Pls
3094 4317 Pls
3094 4316 Pls
3095 4315 Pls
3095 4315 Pls
3095 4314 Pls
3096 4314 Pls
3096 4314 Pls
3096 4313 Pls
3097 4313 Pls
3097 4313 Pls
3097 4312 Pls
3097 4312 Pls
3097 4311 Pls
3097 4311 Pls
3098 4310 Pls
3099 4310 Pls
3099 4309 Pls
3099 4309 Pls
3099 4309 Pls
3099 4308 Pls
3099 4308 Pls
3099 4307 Pls
3100 4307 Pls
3100 4307 Pls
3101 4306 Pls
3101 4306 Pls
3102 4306 Pls
3102 4305 Pls
3102 4305 Pls
3103 4304 Pls
3103 4304 Pls
3103 4304 Pls
3103 4303 Pls
3104 4303 Pls
3104 4302 Pls
3104 4302 Pls
3104 4301 Pls
3105 4301 Pls
3105 4300 Pls
3106 4300 Pls
3106 4299 Pls
3106 4298 Pls
3106 4298 Pls
3107 4298 Pls
3107 4297 Pls
3108 4296 Pls
3108 4296 Pls
3108 4296 Pls
3108 4295 Pls
3108 4295 Pls
3108 4294 Pls
3109 4294 Pls
3109 4294 Pls
3109 4293 Pls
3109 4292 Pls
3110 4291 Pls
3110 4291 Pls
3110 4290 Pls
3110 4290 Pls
3111 4289 Pls
3111 4289 Pls
3112 4289 Pls
3112 4287 Pls
3112 4287 Pls
3112 4287 Pls
3112 4286 Pls
3113 4286 Pls
3113 4285 Pls
3114 4285 Pls
3114 4285 Pls
3114 4284 Pls
3114 4284 Pls
3114 4283 Pls
3115 4282 Pls
3115 4282 Pls
3115 4282 Pls
3115 4281 Pls
3115 4280 Pls
3115 4280 Pls
3116 4280 Pls
3116 4279 Pls
3116 4279 Pls
3117 4278 Pls
3117 4278 Pls
3117 4277 Pls
3118 4277 Pls
3118 4277 Pls
3118 4276 Pls
3118 4276 Pls
3118 4275 Pls
3119 4275 Pls
3119 4275 Pls
3119 4274 Pls
3119 4274 Pls
3120 4273 Pls
3120 4273 Pls
3121 4272 Pls
3121 4272 Pls
3121 4272 Pls
3121 4271 Pls
3122 4271 Pls
3122 4270 Pls
3122 4270 Pls
3123 4269 Pls
3123 4269 Pls
3124 4269 Pls
3124 4268 Pls
3124 4268 Pls
3125 4266 Pls
3125 4266 Pls
3125 4265 Pls
3126 4265 Pls
3126 4264 Pls
3126 4263 Pls
3126 4263 Pls
3126 4263 Pls
3126 4262 Pls
3127 4262 Pls
3127 4261 Pls
3128 4261 Pls
3128 4260 Pls
3129 4260 Pls
3129 4260 Pls
3129 4259 Pls
3129 4259 Pls
3129 4258 Pls
3129 4258 Pls
3129 4257 Pls
3130 4257 Pls
3130 4256 Pls
3130 4256 Pls
3130 4255 Pls
3130 4254 Pls
3131 4254 Pls
3131 4253 Pls
3131 4253 Pls
3131 4253 Pls
3131 4252 Pls
3131 4251 Pls
3132 4251 Pls
3132 4250 Pls
3132 4250 Pls
3132 4249 Pls
3132 4249 Pls
3132 4248 Pls
3133 4247 Pls
3133 4247 Pls
3133 4246 Pls
3135 4246 Pls
3135 4245 Pls
3135 4245 Pls
3136 4244 Pls
3136 4243 Pls
3136 4243 Pls
3136 4242 Pls
3136 4241 Pls
3136 4241 Pls
3137 4241 Pls
3137 4240 Pls
3137 4240 Pls
3137 4238 Pls
3137 4237 Pls
3138 4237 Pls
3138 4236 Pls
3138 4236 Pls
3139 4235 Pls
3139 4235 Pls
3139 4234 Pls
3139 4233 Pls
3139 4233 Pls
3140 4232 Pls
3140 4232 Pls
3140 4231 Pls
3141 4230 Pls
3141 4230 Pls
3141 4229 Pls
3142 4228 Pls
3142 4228 Pls
3142 4227 Pls
3143 4226 Pls
3144 4224 Pls
3144 4223 Pls
3145 4223 Pls
3145 4222 Pls
3145 4222 Pls
3145 4221 Pls
3145 4221 Pls
3146 4220 Pls
3146 4220 Pls
3146 4219 Pls
3147 4219 Pls
3147 4218 Pls
3148 4218 Pls
3148 4217 Pls
3148 4217 Pls
3148 4216 Pls
3149 4215 Pls
3149 4215 Pls
3150 4214 Pls
3150 4213 Pls
3150 4213 Pls
3150 4212 Pls
3151 4212 Pls
3152 4211 Pls
3152 4211 Pls
3153 4210 Pls
3153 4210 Pls
3154 4209 Pls
3154 4208 Pls
3155 4208 Pls
3155 4207 Pls
3155 4206 Pls
3156 4205 Pls
3156 4205 Pls
3156 4204 Pls
3156 4204 Pls
3156 4203 Pls
3157 4203 Pls
3158 4202 Pls
3158 4201 Pls
3158 4200 Pls
3158 4200 Pls
3158 4199 Pls
3159 4199 Pls
3159 4198 Pls
3160 4198 Pls
3160 4197 Pls
3160 4197 Pls
3161 4196 Pls
3161 4196 Pls
3162 4195 Pls
3163 4195 Pls
3163 4194 Pls
3163 4194 Pls
3163 4193 Pls
3163 4193 Pls
3163 4192 Pls
3164 4192 Pls
3164 4191 Pls
3164 4190 Pls
3164 4190 Pls
3165 4189 Pls
3165 4189 Pls
3165 4188 Pls
3165 4187 Pls
3166 4186 Pls
3166 4185 Pls
3167 4185 Pls
3167 4184 Pls
3168 4183 Pls
3168 4183 Pls
3168 4182 Pls
3168 4182 Pls
3169 4181 Pls
3169 4181 Pls
3170 4180 Pls
3170 4180 Pls
3171 4179 Pls
3171 4178 Pls
3171 4178 Pls
3171 4177 Pls
3171 4177 Pls
3171 4176 Pls
3172 4176 Pls
3172 4175 Pls
3172 4175 Pls
3172 4174 Pls
3173 4174 Pls
3173 4173 Pls
3173 4173 Pls
3173 4172 Pls
3174 4172 Pls
3175 4171 Pls
3175 4170 Pls
3175 4170 Pls
3175 4169 Pls
3176 4169 Pls
3176 4168 Pls
3177 4167 Pls
3177 4167 Pls
3177 4166 Pls
3177 4166 Pls
3177 4165 Pls
3178 4165 Pls
3178 4164 Pls
3178 4164 Pls
3179 4163 Pls
3179 4163 Pls
3179 4162 Pls
3179 4161 Pls
3180 4161 Pls
3180 4160 Pls
3180 4160 Pls
3181 4159 Pls
3181 4158 Pls
3182 4158 Pls
3182 4157 Pls
3182 4156 Pls
3182 4156 Pls
3183 4155 Pls
3184 4154 Pls
3184 4154 Pls
3185 4153 Pls
3186 4153 Pls
3186 4152 Pls
3186 4152 Pls
3187 4151 Pls
3187 4151 Pls
3188 4150 Pls
3188 4150 Pls
3188 4149 Pls
3189 4148 Pls
3189 4148 Pls
3190 4147 Pls
3190 4147 Pls
3191 4146 Pls
3192 4145 Pls
3192 4145 Pls
3192 4144 Pls
3193 4144 Pls
3193 4142 Pls
3193 4142 Pls
3193 4141 Pls
3193 4140 Pls
3194 4140 Pls
3194 4139 Pls
3195 4139 Pls
3195 4138 Pls
3196 4137 Pls
3196 4137 Pls
3196 4136 Pls
3197 4136 Pls
3198 4135 Pls
3198 4134 Pls
3199 4133 Pls
3199 4133 Pls
3200 4132 Pls
3200 4132 Pls
3200 4131 Pls
3201 4131 Pls
3201 4129 Pls
3201 4129 Pls
3202 4128 Pls
3202 4128 Pls
3203 4127 Pls
3203 4127 Pls
3204 4126 Pls
3204 4125 Pls
3204 4125 Pls
3205 4124 Pls
3205 4124 Pls
3205 4123 Pls
3205 4123 Pls
3205 4122 Pls
3205 4121 Pls
3205 4121 Pls
3206 4120 Pls
3206 4120 Pls
3206 4119 Pls
3207 4118 Pls
3207 4118 Pls
3208 4117 Pls
3208 4117 Pls
3209 4116 Pls
3209 4116 Pls
3209 4115 Pls
3210 4114 Pls
3210 4113 Pls
3210 4113 Pls
3210 4112 Pls
3211 4111 Pls
3211 4111 Pls
3211 4110 Pls
3211 4110 Pls
3211 4109 Pls
3212 4108 Pls
3212 4108 Pls
3212 4107 Pls
3213 4107 Pls
3213 4106 Pls
3213 4105 Pls
3214 4105 Pls
3215 4104 Pls
3215 4104 Pls
3216 4103 Pls
3216 4102 Pls
3216 4101 Pls
3217 4101 Pls
3217 4100 Pls
3217 4099 Pls
3218 4099 Pls
3218 4098 Pls
3219 4098 Pls
3219 4097 Pls
3220 4096 Pls
3220 4096 Pls
3221 4095 Pls
3222 4094 Pls
3222 4094 Pls
3223 4093 Pls
3223 4093 Pls
3223 4092 Pls
3223 4091 Pls
3225 4091 Pls
3226 4090 Pls
3226 4089 Pls
3227 4088 Pls
3227 4088 Pls
3228 4087 Pls
3228 4086 Pls
3229 4085 Pls
3230 4085 Pls
3230 4084 Pls
3231 4083 Pls
3231 4083 Pls
3231 4080 Pls
3232 4079 Pls
3232 4079 Pls
3233 4078 Pls
3233 4078 Pls
3233 4077 Pls
3234 4076 Pls
3234 4076 Pls
3234 4075 Pls
3235 4074 Pls
3235 4074 Pls
3235 4073 Pls
3235 4072 Pls
3236 4072 Pls
3237 4071 Pls
3237 4071 Pls
3238 4069 Pls
3239 4069 Pls
3240 4068 Pls
3240 4067 Pls
3241 4066 Pls
3241 4065 Pls
3241 4064 Pls
3241 4063 Pls
3242 4061 Pls
3242 4060 Pls
3242 4059 Pls
3243 4059 Pls
3243 4058 Pls
3243 4057 Pls
3244 4056 Pls
3244 4055 Pls
3244 4054 Pls
3245 4053 Pls
3245 4053 Pls
3246 4052 Pls
3247 4051 Pls
3248 4050 Pls
3248 4049 Pls
3249 4048 Pls
3249 4047 Pls
3249 4047 Pls
3249 4046 Pls
3250 4045 Pls
3250 4043 Pls
3251 4043 Pls
3251 4042 Pls
3251 4041 Pls
3251 4041 Pls
3252 4040 Pls
3252 4039 Pls
3253 4038 Pls
3254 4038 Pls
3255 4037 Pls
3255 4036 Pls
3255 4036 Pls
3255 4034 Pls
3256 4034 Pls
3257 4033 Pls
3257 4032 Pls
3258 4031 Pls
3258 4031 Pls
3258 4030 Pls
3259 4029 Pls
3260 4029 Pls
3261 4028 Pls
3261 4027 Pls
3261 4027 Pls
3262 4026 Pls
3262 4025 Pls
3262 4024 Pls
3262 4024 Pls
3262 4023 Pls
3263 4022 Pls
3263 4022 Pls
3263 4021 Pls
3264 4020 Pls
3264 4019 Pls
3265 4019 Pls
3265 4018 Pls
3265 4017 Pls
3265 4016 Pls
3266 4015 Pls
3266 4014 Pls
3267 4014 Pls
3267 4013 Pls
3268 4012 Pls
3268 4011 Pls
3268 4011 Pls
3268 4010 Pls
3269 4009 Pls
3269 4008 Pls
3270 4008 Pls
3270 4007 Pls
3271 4006 Pls
3271 4005 Pls
3271 4005 Pls
3271 4004 Pls
3272 4003 Pls
3275 4003 Pls
3275 4002 Pls
3275 4001 Pls
3277 4000 Pls
3277 4000 Pls
3278 3999 Pls
3279 3998 Pls
3279 3997 Pls
3280 3996 Pls
3282 3995 Pls
3282 3994 Pls
3283 3993 Pls
3284 3992 Pls
3285 3991 Pls
3285 3990 Pls
3285 3990 Pls
3286 3989 Pls
3287 3988 Pls
3287 3987 Pls
3288 3987 Pls
3289 3985 Pls
3290 3984 Pls
3290 3983 Pls
3290 3983 Pls
3290 3982 Pls
3292 3981 Pls
3293 3980 Pls
3293 3980 Pls
3293 3979 Pls
3294 3978 Pls
3294 3977 Pls
3295 3976 Pls
3295 3976 Pls
3295 3975 Pls
3295 3974 Pls
3296 3973 Pls
3296 3972 Pls
3297 3972 Pls
3297 3971 Pls
3298 3970 Pls
3298 3969 Pls
3299 3968 Pls
3299 3968 Pls
3299 3967 Pls
3299 3966 Pls
3300 3965 Pls
3301 3964 Pls
3301 3963 Pls
3302 3962 Pls
3302 3961 Pls
3303 3960 Pls
3303 3960 Pls
3304 3959 Pls
3304 3958 Pls
3306 3957 Pls
3308 3956 Pls
3311 3955 Pls
3311 3955 Pls
3311 3954 Pls
3311 3953 Pls
3312 3952 Pls
3312 3951 Pls
3313 3950 Pls
3314 3949 Pls
3314 3948 Pls
3315 3947 Pls
3315 3946 Pls
3316 3944 Pls
3316 3943 Pls
3316 3942 Pls
3317 3941 Pls
3317 3940 Pls
3318 3940 Pls
3319 3939 Pls
3319 3938 Pls
3319 3937 Pls
3320 3936 Pls
3321 3935 Pls
3322 3934 Pls
3323 3934 Pls
3324 3932 Pls
3324 3931 Pls
3324 3930 Pls
3325 3929 Pls
3326 3928 Pls
3327 3928 Pls
3327 3927 Pls
3327 3926 Pls
3328 3925 Pls
3330 3924 Pls
3331 3923 Pls
3332 3922 Pls
3333 3921 Pls
3333 3920 Pls
3333 3920 Pls
3334 3919 Pls
3334 3918 Pls
3336 3917 Pls
3336 3915 Pls
3337 3914 Pls
3337 3913 Pls
3337 3912 Pls
3337 3911 Pls
3338 3908 Pls
3339 3907 Pls
3339 3906 Pls
3340 3905 Pls
3341 3904 Pls
3342 3902 Pls
3342 3901 Pls
3342 3901 Pls
3342 3900 Pls
3342 3899 Pls
3343 3898 Pls
3345 3897 Pls
3345 3896 Pls
3346 3895 Pls
3346 3894 Pls
3346 3893 Pls
3348 3892 Pls
3348 3891 Pls
3349 3890 Pls
3349 3889 Pls
3349 3888 Pls
3349 3887 Pls
3350 3886 Pls
3350 3886 Pls
3350 3885 Pls
3350 3884 Pls
3351 3883 Pls
3352 3882 Pls
3354 3881 Pls
3355 3880 Pls
3356 3879 Pls
3357 3878 Pls
3357 3876 Pls
3359 3874 Pls
3360 3873 Pls
3360 3872 Pls
3362 3871 Pls
3362 3870 Pls
3363 3869 Pls
3363 3868 Pls
3364 3867 Pls
3365 3866 Pls
3365 3865 Pls
3365 3864 Pls
3366 3863 Pls
3367 3862 Pls
3369 3861 Pls
3370 3860 Pls
3371 3859 Pls
3372 3858 Pls
3373 3857 Pls
3374 3855 Pls
3374 3854 Pls
3374 3852 Pls
3375 3851 Pls
3375 3850 Pls
3377 3849 Pls
3377 3848 Pls
3377 3847 Pls
3377 3846 Pls
3377 3845 Pls
3379 3843 Pls
3380 3842 Pls
3381 3840 Pls
3381 3839 Pls
3382 3838 Pls
3382 3837 Pls
3383 3836 Pls
3383 3835 Pls
3383 3833 Pls
3384 3832 Pls
3384 3831 Pls
3385 3830 Pls
3386 3829 Pls
3388 3827 Pls
3388 3826 Pls
3389 3824 Pls
3389 3823 Pls
3390 3822 Pls
3390 3821 Pls
3390 3820 Pls
3392 3819 Pls
3392 3818 Pls
3393 3817 Pls
3393 3816 Pls
3394 3815 Pls
3397 3814 Pls
3400 3812 Pls
3401 3811 Pls
3401 3810 Pls
3401 3809 Pls
3403 3808 Pls
3403 3807 Pls
3404 3806 Pls
3406 3805 Pls
3407 3803 Pls
3408 3802 Pls
3409 3801 Pls
3409 3800 Pls
3410 3799 Pls
3411 3798 Pls
3411 3797 Pls
3412 3795 Pls
3413 3794 Pls
3413 3793 Pls
3414 3792 Pls
3414 3791 Pls
3415 3790 Pls
3415 3788 Pls
3417 3787 Pls
3418 3786 Pls
3423 3785 Pls
3423 3784 Pls
3423 3783 Pls
3424 3780 Pls
3425 3779 Pls
3425 3778 Pls
3425 3777 Pls
3426 3775 Pls
3426 3774 Pls
3426 3773 Pls
3428 3772 Pls
3429 3771 Pls
3429 3769 Pls
3431 3768 Pls
3432 3767 Pls
3433 3766 Pls
3434 3764 Pls
3434 3763 Pls
3437 3762 Pls
3437 3761 Pls
3439 3759 Pls
3439 3758 Pls
3440 3756 Pls
3443 3754 Pls
3443 3753 Pls
3443 3752 Pls
3444 3751 Pls
3445 3749 Pls
3445 3748 Pls
3446 3747 Pls
3447 3746 Pls
3447 3744 Pls
3447 3743 Pls
3448 3742 Pls
3448 3740 Pls
3451 3739 Pls
3452 3738 Pls
3453 3737 Pls
3455 3735 Pls
3455 3734 Pls
3456 3733 Pls
3456 3731 Pls
3458 3730 Pls
3459 3727 Pls
3459 3726 Pls
3460 3725 Pls
3461 3723 Pls
3462 3722 Pls
3464 3721 Pls
3465 3719 Pls
3466 3718 Pls
3466 3717 Pls
3466 3715 Pls
3467 3714 Pls
3472 3711 Pls
3472 3710 Pls
3473 3708 Pls
3473 3707 Pls
3474 3706 Pls
3475 3704 Pls
3476 3703 Pls
3478 3701 Pls
3479 3700 Pls
3480 3698 Pls
3481 3697 Pls
3486 3696 Pls
3487 3694 Pls
3487 3693 Pls
3489 3691 Pls
3490 3690 Pls
3490 3688 Pls
3491 3687 Pls
3491 3686 Pls
3492 3684 Pls
3494 3683 Pls
3494 3681 Pls
3495 3678 Pls
3496 3677 Pls
3500 3675 Pls
3501 3674 Pls
3502 3672 Pls
3502 3671 Pls
3505 3669 Pls
3506 3668 Pls
3506 3666 Pls
3506 3665 Pls
3508 3663 Pls
3508 3662 Pls
3509 3660 Pls
3509 3659 Pls
3513 3657 Pls
3516 3656 Pls
3516 3654 Pls
3516 3652 Pls
3516 3649 Pls
3520 3648 Pls
3522 3646 Pls
3522 3645 Pls
3523 3643 Pls
3523 3641 Pls
3524 3640 Pls
3525 3637 Pls
3526 3635 Pls
3529 3633 Pls
3532 3632 Pls
3533 3630 Pls
3534 3629 Pls
3537 3627 Pls
3538 3625 Pls
3538 3624 Pls
3540 3622 Pls
3541 3620 Pls
3541 3619 Pls
3545 3617 Pls
3548 3615 Pls
3548 3614 Pls
3548 3612 Pls
3549 3610 Pls
3550 3608 Pls
3550 3607 Pls
3550 3605 Pls
3551 3603 Pls
3551 3602 Pls
3555 3600 Pls
3557 3598 Pls
3558 3596 Pls
3562 3595 Pls
3563 3593 Pls
3563 3591 Pls
3564 3589 Pls
3567 3587 Pls
3570 3586 Pls
3571 3584 Pls
3573 3580 Pls
3574 3578 Pls
3576 3577 Pls
3579 3575 Pls
3580 3573 Pls
3582 3571 Pls
3584 3569 Pls
3584 3567 Pls
3587 3566 Pls
3589 3564 Pls
3589 3562 Pls
3589 3560 Pls
3589 3558 Pls
3589 3556 Pls
3592 3554 Pls
3593 3552 Pls
3593 3550 Pls
3597 3548 Pls
3598 3546 Pls
3600 3544 Pls
3601 3542 Pls
3601 3541 Pls
3602 3539 Pls
3611 3535 Pls
3613 3533 Pls
3616 3531 Pls
3617 3529 Pls
3619 3527 Pls
3621 3524 Pls
3622 3522 Pls
3622 3520 Pls
3623 3518 Pls
3624 3516 Pls
3624 3514 Pls
3627 3512 Pls
3628 3510 Pls
3628 3508 Pls
3629 3506 Pls
3633 3504 Pls
3633 3502 Pls
3634 3499 Pls
3634 3497 Pls
3635 3495 Pls
3639 3493 Pls
3640 3491 Pls
3641 3488 Pls
3642 3486 Pls
3646 3484 Pls
3646 3482 Pls
3653 3477 Pls
3654 3475 Pls
3657 3473 Pls
3657 3471 Pls
3663 3468 Pls
3663 3466 Pls
3669 3464 Pls
3669 3461 Pls
3669 3459 Pls
3670 3457 Pls
3670 3454 Pls
3673 3452 Pls
3675 3450 Pls
3677 3447 Pls
3678 3445 Pls
3678 3442 Pls
3678 3440 Pls
3679 3437 Pls
3681 3435 Pls
3682 3432 Pls
3684 3430 Pls
3684 3428 Pls
3686 3425 Pls
3691 3422 Pls
3692 3420 Pls
3693 3417 Pls
3695 3415 Pls
3696 3412 Pls
3698 3410 Pls
3701 3407 Pls
3704 3404 Pls
3705 3402 Pls
3706 3399 Pls
3708 3397 Pls
3709 3394 Pls
3710 3391 Pls
3711 3388 Pls
3712 3386 Pls
3713 3383 Pls
3714 3380 Pls
3718 3377 Pls
3720 3375 Pls
3720 3372 Pls
3726 3369 Pls
3727 3366 Pls
3731 3363 Pls
3734 3360 Pls
3734 3358 Pls
3735 3355 Pls
3735 3352 Pls
3743 3349 Pls
3744 3346 Pls
3745 3343 Pls
3755 3340 Pls
3756 3337 Pls
3757 3334 Pls
3760 3331 Pls
3762 3328 Pls
3763 3325 Pls
3767 3321 Pls
3773 3318 Pls
3778 3315 Pls
3781 3312 Pls
3784 3309 Pls
3788 3306 Pls
3791 3302 Pls
3792 3299 Pls
3792 3296 Pls
3795 3292 Pls
3796 3289 Pls
3799 3286 Pls
3799 3282 Pls
3800 3279 Pls
3800 3276 Pls
3801 3272 Pls
3801 3269 Pls
3803 3265 Pls
3805 3262 Pls
3805 3258 Pls
3813 3254 Pls
3816 3251 Pls
3823 3247 Pls
3827 3243 Pls
3834 3240 Pls
3835 3236 Pls
3837 3232 Pls
3838 3229 Pls
3838 3225 Pls
3843 3221 Pls
3844 3217 Pls
3847 3213 Pls
3849 3209 Pls
3850 3205 Pls
3850 3201 Pls
3851 3197 Pls
3852 3193 Pls
3853 3189 Pls
3860 3185 Pls
3867 3181 Pls
3870 3172 Pls
3874 3168 Pls
3876 3163 Pls
3877 3159 Pls
3880 3155 Pls
3900 3150 Pls
3902 3146 Pls
3906 3141 Pls
3912 3136 Pls
3913 3132 Pls
3917 3127 Pls
3920 3122 Pls
3928 3118 Pls
3934 3113 Pls
3951 3108 Pls
3957 3103 Pls
3967 3098 Pls
3969 3093 Pls
3975 3088 Pls
3984 3083 Pls
3988 3078 Pls
3989 3072 Pls
3991 3067 Pls
3992 3062 Pls
4002 3056 Pls
4013 3051 Pls
4014 3045 Pls
4014 3040 Pls
4031 3034 Pls
4046 3028 Pls
4054 3022 Pls
4054 3016 Pls
4070 3010 Pls
4080 3004 Pls
4083 2998 Pls
4102 2992 Pls
4106 2986 Pls
4113 2979 Pls
4135 2973 Pls
4135 2966 Pls
4137 2960 Pls
4138 2953 Pls
4141 2946 Pls
4145 2939 Pls
4165 2932 Pls
4174 2925 Pls
4180 2918 Pls
4181 2910 Pls
4192 2903 Pls
4192 2895 Pls
4194 2888 Pls
4203 2880 Pls
4208 2872 Pls
4215 2864 Pls
4225 2855 Pls
4230 2847 Pls
4239 2838 Pls
4251 2830 Pls
4253 2821 Pls
4273 2812 Pls
4301 2802 Pls
4304 2793 Pls
4351 2783 Pls
4357 2774 Pls
4362 2764 Pls
4386 2753 Pls
4387 2743 Pls
4390 2732 Pls
4414 2721 Pls
4416 2710 Pls
4421 2699 Pls
4434 2687 Pls
4444 2675 Pls
4465 2663 Pls
4476 2650 Pls
4500 2637 Pls
4523 2623 Pls
4532 2610 Pls
4534 2595 Pls
4554 2581 Pls
4572 2566 Pls
4584 2550 Pls
4597 2534 Pls
4605 2517 Pls
4608 2500 Pls
4610 2482 Pls
4614 2464 Pls
4623 2444 Pls
4640 2424 Pls
4641 2403 Pls
4672 2381 Pls
4762 2357 Pls
4774 2333 Pls
4802 2307 Pls
4840 2280 Pls
4869 2251 Pls
4931 2221 Pls
4948 2188 Pls
4957 2153 Pls
5205 2115 Pls
5234 2073 Pls
5405 2028 Pls
5473 1978 Pls
5513 1922 Pls
5655 1858 Pls
5738 1785 Pls
5904 1699 Pls
6372 1593 Pls
6560 1456 Pls
6783 1263 Pls
6787 934 Pls
% End plot #1
1.000 UL
LTb
LCb setrgbcolor
938 4871 N
938 448 L
6009 0 V
0 4423 V
-6009 0 V
Z stroke
1.000 UP
1.000 UL
LTb
LCb setrgbcolor
stroke
grestore
end
showpage
%%Trailer
%%DocumentFonts: Helvetica
%%Pages: 1
