%!PS-Adobe-3.0 EPSF-3.0
%%Title: aggr-graph.fig
%%Creator: fig2dev Version 3.2 Patchlevel 5e
%%CreationDate: Mon Jul 25 15:18:59 2016
%%BoundingBox: 0 0 380 115
%Magnification: 1.0000
%%EndComments
%%BeginProlog
/$F2psDict 200 dict def
$F2psDict begin
$F2psDict /mtrx matrix put
/col-1 {0 setgray} bind def
/col0 {0.000 0.000 0.000 srgb} bind def
/col1 {0.000 0.000 1.000 srgb} bind def
/col2 {0.000 1.000 0.000 srgb} bind def
/col3 {0.000 1.000 1.000 srgb} bind def
/col4 {1.000 0.000 0.000 srgb} bind def
/col5 {1.000 0.000 1.000 srgb} bind def
/col6 {1.000 1.000 0.000 srgb} bind def
/col7 {1.000 1.000 1.000 srgb} bind def
/col8 {0.000 0.000 0.560 srgb} bind def
/col9 {0.000 0.000 0.690 srgb} bind def
/col10 {0.000 0.000 0.820 srgb} bind def
/col11 {0.530 0.810 1.000 srgb} bind def
/col12 {0.000 0.560 0.000 srgb} bind def
/col13 {0.000 0.690 0.000 srgb} bind def
/col14 {0.000 0.820 0.000 srgb} bind def
/col15 {0.000 0.560 0.560 srgb} bind def
/col16 {0.000 0.690 0.690 srgb} bind def
/col17 {0.000 0.820 0.820 srgb} bind def
/col18 {0.560 0.000 0.000 srgb} bind def
/col19 {0.690 0.000 0.000 srgb} bind def
/col20 {0.820 0.000 0.000 srgb} bind def
/col21 {0.560 0.000 0.560 srgb} bind def
/col22 {0.690 0.000 0.690 srgb} bind def
/col23 {0.820 0.000 0.820 srgb} bind def
/col24 {0.500 0.190 0.000 srgb} bind def
/col25 {0.630 0.250 0.000 srgb} bind def
/col26 {0.750 0.380 0.000 srgb} bind def
/col27 {1.000 0.500 0.500 srgb} bind def
/col28 {1.000 0.630 0.630 srgb} bind def
/col29 {1.000 0.750 0.750 srgb} bind def
/col30 {1.000 0.880 0.880 srgb} bind def
/col31 {1.000 0.840 0.000 srgb} bind def

end

/cp {closepath} bind def
/ef {eofill} bind def
/gr {grestore} bind def
/gs {gsave} bind def
/sa {save} bind def
/rs {restore} bind def
/l {lineto} bind def
/m {moveto} bind def
/rm {rmoveto} bind def
/n {newpath} bind def
/s {stroke} bind def
/sh {show} bind def
/slc {setlinecap} bind def
/slj {setlinejoin} bind def
/slw {setlinewidth} bind def
/srgb {setrgbcolor} bind def
/rot {rotate} bind def
/sc {scale} bind def
/sd {setdash} bind def
/ff {findfont} bind def
/sf {setfont} bind def
/scf {scalefont} bind def
/sw {stringwidth} bind def
/tr {translate} bind def
/tnt {dup dup currentrgbcolor
  4 -2 roll dup 1 exch sub 3 -1 roll mul add
  4 -2 roll dup 1 exch sub 3 -1 roll mul add
  4 -2 roll dup 1 exch sub 3 -1 roll mul add srgb}
  bind def
/shd {dup dup currentrgbcolor 4 -2 roll mul 4 -2 roll mul
  4 -2 roll mul srgb} bind def
 /DrawEllipse {
	/endangle exch def
	/startangle exch def
	/yrad exch def
	/xrad exch def
	/y exch def
	/x exch def
	/savematrix mtrx currentmatrix def
	x y tr xrad yrad sc 0 0 1 startangle endangle arc
	closepath
	savematrix setmatrix
	} def

/$F2psBegin {$F2psDict begin /$F2psEnteredState save def} def
/$F2psEnd {$F2psEnteredState restore end} def

/pageheader {
save
newpath 0 115 moveto 0 0 lineto 380 0 lineto 380 115 lineto closepath clip newpath
-58.6 358.4 translate
1 -1 scale
$F2psBegin
10 setmiterlimit
0 slj 0 slc
 0.06299 0.06299 sc
} bind def
/pagefooter {
$F2psEnd
restore
} bind def
%%EndProlog
pageheader
%
% Fig objects follow
%
% 
% here starts figure with depth 53
% Polyline
0 slj
0 slc
7.500 slw
n 1125 4275 m
 1575 4950 l gs 0.00 setgray ef gr gs col12 s gr 
% Polyline
n 1575 4050 m
 2025 4725 l gs 0.00 setgray ef gr gs col12 s gr 
% Polyline
n 1125 4275 m
 2025 4275 l gs 0.00 setgray ef gr gs col12 s gr 
% Polyline
n 2700 4725 m
 3600 4725 l gs 0.00 setgray ef gr gs col12 s gr 
% Polyline
n 3150 4950 m
 3150 4050 l gs 0.00 setgray ef gr gs col12 s gr 
% Polyline
n 4275 4725 m
 5175 4725 l gs 0.00 setgray ef gr gs col0 s gr 
% Polyline
n 4725 4050 m
 4725 4950 l gs 0.00 setgray ef gr gs col0 s gr 
% Polyline
n 6300 4050 m
 5850 4275 l gs 0.00 setgray ef gr gs col12 s gr 
/Times-Roman ff 158.75 scf sf
1530 3960 m
gs 1 -1 sc (a) col0 sh gr
/Times-Roman ff 158.75 scf sf
3105 3960 m
gs 1 -1 sc (a) col0 sh gr
/Times-Roman ff 158.75 scf sf
4680 3960 m
gs 1 -1 sc (a) col0 sh gr
/Times-Roman ff 158.75 scf sf
6255 3960 m
gs 1 -1 sc (a) col0 sh gr
/Times-Roman ff 158.75 scf sf
2115 4320 m
gs 1 -1 sc (b) col0 sh gr
/Times-Roman ff 158.75 scf sf
3690 4320 m
gs 1 -1 sc (b) col0 sh gr
/Times-Roman ff 158.75 scf sf
5265 4320 m
gs 1 -1 sc (b) col0 sh gr
/Times-Roman ff 158.75 scf sf
6840 4320 m
gs 1 -1 sc (b) col0 sh gr
/Times-Roman ff 158.75 scf sf
6840 4770 m
gs 1 -1 sc (c) col0 sh gr
/Times-Roman ff 158.75 scf sf
5265 4770 m
gs 1 -1 sc (c) col0 sh gr
/Times-Roman ff 158.75 scf sf
3690 4770 m
gs 1 -1 sc (c) col0 sh gr
/Times-Roman ff 158.75 scf sf
2115 4770 m
gs 1 -1 sc (c) col0 sh gr
/Times-Roman ff 158.75 scf sf
1530 5175 m
gs 1 -1 sc (d) col0 sh gr
/Times-Roman ff 158.75 scf sf
3105 5175 m
gs 1 -1 sc (d) col0 sh gr
/Times-Roman ff 158.75 scf sf
4680 5175 m
gs 1 -1 sc (d) col0 sh gr
/Times-Roman ff 158.75 scf sf
6255 5175 m
gs 1 -1 sc (d) col0 sh gr
/Times-Roman ff 158.75 scf sf
5670 4770 m
gs 1 -1 sc (e) col0 sh gr
/Times-Roman ff 158.75 scf sf
4095 4770 m
gs 1 -1 sc (e) col0 sh gr
/Times-Roman ff 158.75 scf sf
2520 4770 m
gs 1 -1 sc (e) col0 sh gr
/Times-Roman ff 158.75 scf sf
945 4770 m
gs 1 -1 sc (e) col0 sh gr
/Times-Roman ff 158.75 scf sf
945 4320 m
gs 1 -1 sc (f) col0 sh gr
/Times-Roman ff 158.75 scf sf
2520 4320 m
gs 1 -1 sc (f) col0 sh gr
/Times-Roman ff 158.75 scf sf
4095 4320 m
gs 1 -1 sc (f) col0 sh gr
/Times-Roman ff 158.75 scf sf
5670 4320 m
gs 1 -1 sc (f) col0 sh gr
/Times-Roman ff 190.50 scf sf
1170 5625 m
gs 1 -1 sc (T=[0,5\)) col0 sh gr
/Times-Roman ff 190.50 scf sf
2745 5625 m
gs 1 -1 sc (T=[0,10\)) col0 sh gr
/Times-Roman ff 190.50 scf sf
5895 5625 m
gs 1 -1 sc (T=[0,20\)) col0 sh gr
/Times-Roman ff 190.50 scf sf
4320 5625 m
gs 1 -1 sc (T=[0,15\)) col0 sh gr
% Ellipse
n 1125 4275 45 45 0 360 DrawEllipse gs 0.00 setgray ef gr gs col0 s gr

% Ellipse
n 1575 4050 45 45 0 360 DrawEllipse gs 0.00 setgray ef gr gs col0 s gr

% Ellipse
n 2025 4275 45 45 0 360 DrawEllipse gs 0.00 setgray ef gr gs col0 s gr

% Ellipse
n 2025 4725 45 45 0 360 DrawEllipse gs 0.00 setgray ef gr gs col0 s gr

% Ellipse
n 1575 4950 45 45 0 360 DrawEllipse gs 0.00 setgray ef gr gs col0 s gr

% Ellipse
n 1125 4725 45 45 0 360 DrawEllipse gs 0.00 setgray ef gr gs col0 s gr

% Ellipse
n 2700 4275 45 45 0 360 DrawEllipse gs 0.00 setgray ef gr gs col0 s gr

% Ellipse
n 3150 4050 45 45 0 360 DrawEllipse gs 0.00 setgray ef gr gs col0 s gr

% Ellipse
n 3600 4275 45 45 0 360 DrawEllipse gs 0.00 setgray ef gr gs col0 s gr

% Ellipse
n 3600 4725 45 45 0 360 DrawEllipse gs 0.00 setgray ef gr gs col0 s gr

% Ellipse
n 3150 4950 45 45 0 360 DrawEllipse gs 0.00 setgray ef gr gs col0 s gr

% Ellipse
n 2700 4725 45 45 0 360 DrawEllipse gs 0.00 setgray ef gr gs col0 s gr

% Ellipse
n 4275 4275 45 45 0 360 DrawEllipse gs 0.00 setgray ef gr gs col0 s gr

% Ellipse
n 4725 4050 45 45 0 360 DrawEllipse gs 0.00 setgray ef gr gs col0 s gr

% Ellipse
n 5175 4275 45 45 0 360 DrawEllipse gs 0.00 setgray ef gr gs col0 s gr

% Ellipse
n 5175 4725 45 45 0 360 DrawEllipse gs 0.00 setgray ef gr gs col0 s gr

% Ellipse
n 4725 4950 45 45 0 360 DrawEllipse gs 0.00 setgray ef gr gs col0 s gr

% Ellipse
n 4275 4725 45 45 0 360 DrawEllipse gs 0.00 setgray ef gr gs col0 s gr

% Ellipse
n 5850 4275 45 45 0 360 DrawEllipse gs 0.00 setgray ef gr gs col0 s gr

% Ellipse
n 6300 4050 45 45 0 360 DrawEllipse gs 0.00 setgray ef gr gs col0 s gr

% Ellipse
n 6750 4275 45 45 0 360 DrawEllipse gs 0.00 setgray ef gr gs col0 s gr

% Ellipse
n 6750 4725 45 45 0 360 DrawEllipse gs 0.00 setgray ef gr gs col0 s gr

% Ellipse
n 6300 4950 45 45 0 360 DrawEllipse gs 0.00 setgray ef gr gs col0 s gr

% Ellipse
n 5850 4725 45 45 0 360 DrawEllipse gs 0.00 setgray ef gr gs col0 s gr

% Polyline
n 2700 4275 m
 3150 4950 l gs 0.00 setgray ef gr gs col0 s gr 
% Polyline
n 3150 4050 m
 3600 4725 l gs 0.00 setgray ef gr gs col0 s gr 
% Polyline
n 2700 4275 m
 3600 4275 l gs 0.00 setgray ef gr gs col0 s gr 
% Polyline
n 4275 4275 m
 4725 4950 l gs 0.00 setgray ef gr gs col0 s gr 
% Polyline
n 4725 4050 m
 5175 4725 l gs 0.00 setgray ef gr gs col0 s gr 
% Polyline
n 5850 4275 m
 6300 4950 l gs 0.00 setgray ef gr gs col0 s gr 
% Polyline
n 6300 4050 m
 6750 4725 l gs 0.00 setgray ef gr gs col0 s gr 
% Polyline
n 5850 4275 m
 6750 4275 l gs 0.00 setgray ef gr gs col0 s gr 
% Polyline
n 4275 4275 m
 5175 4275 l gs 0.00 setgray ef gr gs col0 s gr 
% here ends figure;
% 
% here starts figure with depth 50
% Polyline
0 slj
0 slc
7.500 slw
n 5850 4725 m
 6750 4725 l gs col0 s gr 
% Polyline
n 6300 4050 m
 6300 4950 l gs col0 s gr 
% here ends figure;
pagefooter
showpage
%%Trailer
%EOF
