%!PS-Adobe-3.0 EPSF-3.0
%%Title: algo-expl.fig
%%Creator: fig2dev Version 3.2 Patchlevel 5d
%%CreationDate: Sat Jun 13 20:16:16 2015
%%For: jordanviard@MacBook-Pro-de-Jordan.local (Jordan VIARD)
%%BoundingBox: 0 0 698 259
%Magnification: 1.0000
%%EndComments
%%BeginProlog
/$F2psDict 200 dict def
$F2psDict begin
$F2psDict /mtrx matrix put
/col-1 {0 setgray} bind def
/col0 {0.000 0.000 0.000 srgb} bind def
/col1 {0.000 0.000 1.000 srgb} bind def
/col2 {0.000 1.000 0.000 srgb} bind def
/col3 {0.000 1.000 1.000 srgb} bind def
/col4 {1.000 0.000 0.000 srgb} bind def
/col5 {1.000 0.000 1.000 srgb} bind def
/col6 {1.000 1.000 0.000 srgb} bind def
/col7 {1.000 1.000 1.000 srgb} bind def
/col8 {0.000 0.000 0.560 srgb} bind def
/col9 {0.000 0.000 0.690 srgb} bind def
/col10 {0.000 0.000 0.820 srgb} bind def
/col11 {0.530 0.810 1.000 srgb} bind def
/col12 {0.000 0.560 0.000 srgb} bind def
/col13 {0.000 0.690 0.000 srgb} bind def
/col14 {0.000 0.820 0.000 srgb} bind def
/col15 {0.000 0.560 0.560 srgb} bind def
/col16 {0.000 0.690 0.690 srgb} bind def
/col17 {0.000 0.820 0.820 srgb} bind def
/col18 {0.560 0.000 0.000 srgb} bind def
/col19 {0.690 0.000 0.000 srgb} bind def
/col20 {0.820 0.000 0.000 srgb} bind def
/col21 {0.560 0.000 0.560 srgb} bind def
/col22 {0.690 0.000 0.690 srgb} bind def
/col23 {0.820 0.000 0.820 srgb} bind def
/col24 {0.500 0.190 0.000 srgb} bind def
/col25 {0.630 0.250 0.000 srgb} bind def
/col26 {0.750 0.380 0.000 srgb} bind def
/col27 {1.000 0.500 0.500 srgb} bind def
/col28 {1.000 0.630 0.630 srgb} bind def
/col29 {1.000 0.750 0.750 srgb} bind def
/col30 {1.000 0.880 0.880 srgb} bind def
/col31 {1.000 0.840 0.000 srgb} bind def
/col32 {0.447 0.620 0.808 srgb} bind def
/col33 {0.529 0.808 1.000 srgb} bind def
/col34 {0.667 0.667 0.667 srgb} bind def

end

/cp {closepath} bind def
/ef {eofill} bind def
/gr {grestore} bind def
/gs {gsave} bind def
/sa {save} bind def
/rs {restore} bind def
/l {lineto} bind def
/m {moveto} bind def
/rm {rmoveto} bind def
/n {newpath} bind def
/s {stroke} bind def
/sh {show} bind def
/slc {setlinecap} bind def
/slj {setlinejoin} bind def
/slw {setlinewidth} bind def
/srgb {setrgbcolor} bind def
/rot {rotate} bind def
/sc {scale} bind def
/sd {setdash} bind def
/ff {findfont} bind def
/sf {setfont} bind def
/scf {scalefont} bind def
/sw {stringwidth} bind def
/tr {translate} bind def
/tnt {dup dup currentrgbcolor
  4 -2 roll dup 1 exch sub 3 -1 roll mul add
  4 -2 roll dup 1 exch sub 3 -1 roll mul add
  4 -2 roll dup 1 exch sub 3 -1 roll mul add srgb}
  bind def
/shd {dup dup currentrgbcolor 4 -2 roll mul 4 -2 roll mul
  4 -2 roll mul srgb} bind def
 /DrawEllipse {
	/endangle exch def
	/startangle exch def
	/yrad exch def
	/xrad exch def
	/y exch def
	/x exch def
	/savematrix mtrx currentmatrix def
	x y tr xrad yrad sc 0 0 1 startangle endangle arc
	closepath
	savematrix setmatrix
	} def

/$F2psBegin {$F2psDict begin /$F2psEnteredState save def} def
/$F2psEnd {$F2psEnteredState restore end} def

/pageheader {
save
newpath 0 259 moveto 0 0 lineto 698 0 lineto 698 259 lineto closepath clip newpath
-27.1 298.4 translate
1 -1 scale
$F2psBegin
10 setmiterlimit
0 slj 0 slc
 0.06299 0.06299 sc
} bind def
/pagefooter {
$F2psEnd
restore
} bind def
%%EndProlog
pageheader
%
% Fig objects follow
%
% 
% here starts figure with depth 55
% Polyline
0 slj
0 slc
15.000 slw
n 2475 3420 m 2475 4590 l 4005 4590 l 4005 3510 l 4365 3510 l 4365 3420 l

 cp gs col33 1.00 shd ef gr gs col33 s gr 
% Polyline
0.000 slw
n 10890 945 m 9450 945 l 9450 2250 l 10890 2250 l
 cp gs col33 1.00 shd ef gr 
% Polyline
n 6345 945 m 5400 945 l 5400 1035 l 6345 1035 l
 cp gs col33 1.00 shd ef gr 
% Polyline
n 10080 945 m 9450 945 l 9450 1035 l 10080 1035 l
 cp gs col33 1.00 shd ef gr 
% here ends figure;
% 
% here starts figure with depth 51
% Polyline
0 slj
0 slc
45.000 slw
gs  clippath
8049 1650 m 8340 1650 l 8340 1500 l 8049 1500 l 8049 1500 l 8274 1575 l 8049 1650 l cp
eoclip
n 7650 1575 m
 8325 1575 l gs col34 s gr gr

% arrowhead
30.000 slw
n 8049 1650 m 8274 1575 l 8049 1500 l  col34 s
% Polyline
0.000 slw
n 7065 3420 m 7065 3510 l 7425 3510 l 7425 4590 l 8955 4590 l 8955 3510 l
 9315 3510 l 9315 3420 l
 cp gs col11 1.00 shd ef gr 
% Polyline
n 10710 1040 m 10710 1670 l 10890 1670 l 10890 950 l 9900 950 l 9900 1040 l

 cp gs col11 1.00 shd ef gr 
% Polyline
n 6650 1040 m 6650 1670 l 6830 1670 l 6830 950 l 6290 950 l 6290 1040 l

 cp gs col11 1.00 shd ef gr 
% Polyline
45.000 slw
gs  clippath
5709 4125 m 6000 4125 l 6000 3975 l 5709 3975 l 5709 3975 l 5934 4050 l 5709 4125 l cp
eoclip
n 5310 4050 m
 5985 4050 l gs col34 s gr gr

% arrowhead
30.000 slw
n 5709 4125 m 5934 4050 l 5709 3975 l  col34 s
% Polyline
0.000 slw
n 2610 1040 m 2790 1040 l 2790 1670 l 2610 1670 l
 cp gs col11 1.00 shd ef gr 
% Polyline
2 slj
45.000 slw
gs  clippath
3362 2734 m 3103 2864 l 3170 2998 l 3429 2868 l 3429 2868 l 3195 2902 l 3362 2734 l cp
eoclip
n 8325 2250 m 8324 2251 l 8322 2252 l 8319 2254 l 8313 2257 l 8305 2261 l
 8294 2267 l 8280 2274 l 8263 2282 l 8243 2291 l 8221 2301 l
 8196 2311 l 8169 2321 l 8141 2331 l 8111 2342 l 8079 2351 l
 8046 2361 l 8011 2370 l 7975 2378 l 7938 2386 l 7898 2393 l
 7857 2400 l 7814 2406 l 7768 2412 l 7720 2417 l 7668 2422 l
 7613 2426 l 7554 2430 l 7492 2434 l 7425 2438 l 7386 2439 l
 7346 2441 l 7305 2443 l 7262 2445 l 7218 2446 l 7173 2448 l
 7126 2450 l 7078 2451 l 7028 2453 l 6978 2454 l 6925 2456 l
 6872 2457 l 6817 2459 l 6761 2460 l 6704 2461 l 6646 2463 l
 6587 2464 l 6526 2466 l 6465 2467 l 6403 2469 l 6340 2470 l
 6277 2472 l 6213 2474 l 6148 2475 l 6083 2477 l 6018 2478 l
 5952 2480 l 5887 2482 l 5821 2484 l 5756 2486 l 5690 2487 l
 5625 2489 l 5561 2491 l 5497 2493 l 5434 2496 l 5371 2498 l
 5309 2500 l 5249 2502 l 5189 2505 l 5129 2507 l 5071 2510 l
 5015 2512 l 4959 2515 l 4904 2518 l 4851 2520 l 4799 2523 l
 4748 2526 l 4698 2529 l 4649 2532 l 4602 2536 l 4556 2539 l
 4511 2543 l 4468 2546 l 4425 2550 l 4363 2556 l 4304 2562 l
 4247 2569 l 4192 2576 l 4140 2583 l 4089 2591 l 4039 2600 l
 3992 2609 l 3945 2619 l 3899 2630 l 3854 2641 l 3809 2653 l
 3765 2666 l 3721 2680 l 3677 2694 l 3634 2710 l 3590 2725 l
 3548 2742 l 3505 2759 l 3464 2776 l 3424 2793 l 3385 2810 l
 3348 2827 l 3314 2843 l 3283 2858 l 3254 2872 l 3229 2884 l
 3208 2895 l 3190 2904 l 3176 2911 l 3166 2917 l
 3150 2925 l gs col34 s gr gr

% arrowhead
0 slj
30.000 slw
n 3362 2734 m 3195 2902 l 3429 2868 l  col34 s
% Polyline
45.000 slw
gs  clippath
3999 1650 m 4290 1650 l 4290 1500 l 3999 1500 l 3999 1500 l 4224 1575 l 3999 1650 l cp
eoclip
n 3600 1575 m
 4275 1575 l gs col34 s gr gr

% arrowhead
30.000 slw
n 3999 1650 m 4224 1575 l 3999 1500 l  col34 s
% Polyline
7.500 slw
 [60] 0 sd
n 2700 905 m
 2700 2255 l gs col0 s gr  [] 0 sd
% Polyline
 [60] 0 sd
n 2250 905 m
 2250 2255 l gs col0 s gr  [] 0 sd
% Polyline
 [60] 0 sd
n 1800 905 m
 1800 2255 l gs col0 s gr  [] 0 sd
% Polyline
 [60] 0 sd
n 1350 905 m
 1350 2255 l gs col0 s gr  [] 0 sd
% Polyline
 [60] 0 sd
n 900 905 m
 900 2255 l gs col0 s gr  [] 0 sd
% Polyline
2 slj
15.000 slw
n 2250 1130 m 2252 1133 l 2255 1141 l 2261 1154 l 2270 1173 l 2281 1197 l
 2293 1227 l 2307 1259 l 2321 1292 l 2335 1326 l 2348 1359 l
 2359 1390 l 2370 1419 l 2378 1446 l 2385 1471 l 2391 1495 l
 2395 1517 l 2398 1538 l 2399 1559 l 2400 1580 l 2399 1601 l
 2398 1622 l 2395 1643 l 2391 1665 l 2385 1689 l 2378 1714 l
 2370 1741 l 2359 1770 l 2348 1801 l 2335 1834 l 2321 1868 l
 2307 1901 l 2293 1933 l 2281 1963 l 2270 1987 l 2261 2006 l
 2255 2019 l 2252 2027 l
 2250 2030 l gs col0 s gr 
% Polyline
n 2700 1130 m 2700 1131 l 2701 1134 l 2704 1142 l 2708 1155 l 2713 1174 l
 2720 1196 l 2727 1221 l 2734 1245 l 2740 1269 l 2746 1290 l
 2750 1310 l 2754 1328 l 2757 1344 l 2759 1358 l 2760 1372 l
 2760 1385 l 2760 1400 l 2758 1414 l 2756 1429 l 2752 1444 l
 2747 1461 l 2741 1479 l 2734 1499 l 2726 1519 l 2718 1539 l
 2711 1556 l 2705 1568 l 2702 1576 l 2700 1579 l
 2700 1580 l gs col0 s gr 
% Polyline
n 1800 1580 m 1800 1581 l 1801 1584 l 1804 1592 l 1808 1605 l 1813 1624 l
 1820 1646 l 1827 1671 l 1834 1695 l 1840 1719 l 1846 1740 l
 1850 1760 l 1854 1778 l 1857 1794 l 1859 1808 l 1860 1822 l
 1860 1835 l 1860 1850 l 1858 1864 l 1856 1879 l 1852 1894 l
 1847 1911 l 1841 1929 l 1834 1949 l 1826 1969 l 1818 1989 l
 1811 2006 l 1805 2018 l 1802 2026 l 1800 2029 l
 1800 2030 l gs col0 s gr 
% Polyline
n 1350 1130 m 1350 1131 l 1351 1134 l 1354 1142 l 1358 1155 l 1363 1174 l
 1370 1196 l 1377 1221 l 1384 1245 l 1390 1269 l 1396 1290 l
 1400 1310 l 1404 1328 l 1407 1344 l 1409 1358 l 1410 1372 l
 1410 1385 l 1410 1400 l 1408 1414 l 1406 1429 l 1402 1444 l
 1397 1461 l 1391 1479 l 1384 1499 l 1376 1519 l 1368 1539 l
 1361 1556 l 1355 1568 l 1352 1576 l 1350 1579 l
 1350 1580 l gs col0 s gr 
/Times-Roman ff 190.50 scf sf
915 815 m
gs 1 -1 sc (2) dup sw pop 2 div neg 0 rm  col0 sh gr
/Times-Roman ff 190.50 scf sf
1800 800 m
gs 1 -1 sc (4) dup sw pop 2 div neg 0 rm  col0 sh gr
/Times-Roman ff 190.50 scf sf
2700 800 m
gs 1 -1 sc (6) dup sw pop 2 div neg 0 rm  col0 sh gr
/Times-Roman ff 317.50 scf sf
615 2090 m
gs 1 -1 sc (c) dup sw pop neg 0 rm  col0 sh gr
/Times-Roman ff 317.50 scf sf
615 1685 m
gs 1 -1 sc (b) dup sw pop neg 0 rm  col0 sh gr
/Times-Roman ff 317.50 scf sf
600 1205 m
gs 1 -1 sc (a) dup sw pop neg 0 rm  col0 sh gr
% Ellipse
7.500 slw
n 2565 4050 47 47 0 360 DrawEllipse gs col7 0.00 shd ef gr gs col0 s gr

% Ellipse
n 3015 4050 47 47 0 360 DrawEllipse gs col7 0.00 shd ef gr gs col0 s gr

% Ellipse
n 3015 4500 47 47 0 360 DrawEllipse gs col7 0.00 shd ef gr gs col0 s gr

% Ellipse
n 3465 4500 47 47 0 360 DrawEllipse gs col7 0.00 shd ef gr gs col0 s gr

% Ellipse
n 3465 3600 47 47 0 360 DrawEllipse gs col7 0.00 shd ef gr gs col0 s gr

% Ellipse
n 3915 3600 47 47 0 360 DrawEllipse gs col7 0.00 shd ef gr gs col0 s gr

% Ellipse
n 3915 4050 47 47 0 360 DrawEllipse gs col7 0.00 shd ef gr gs col0 s gr

% Polyline
0 slj
15.000 slw
n 1890 4050 m
 4590 4050 l gs col0 s gr 
% Polyline
7.500 slw
 [60] 0 sd
n 4365 3375 m
 4365 4725 l gs col0 s gr  [] 0 sd
% Polyline
 [60] 0 sd
n 3465 3375 m
 3465 4725 l gs col0 s gr  [] 0 sd
% Polyline
 [60] 0 sd
n 3015 3375 m
 3015 4725 l gs col0 s gr  [] 0 sd
% Polyline
 [60] 0 sd
n 2115 3375 m
 2115 4725 l gs col0 s gr  [] 0 sd
% Polyline
15.000 slw
n 1890 3600 m
 4590 3600 l gs col0 s gr 
% Polyline
7.500 slw
 [60] 0 sd
n 2565 3375 m
 2565 4725 l gs col0 s gr  [] 0 sd
% Polyline
 [60] 0 sd
n 3915 3375 m
 3915 4725 l gs col0 s gr  [] 0 sd
% Polyline
2 slj
15.000 slw
n 3465 3600 m 3467 3603 l 3470 3611 l 3476 3624 l 3485 3643 l 3496 3667 l
 3508 3697 l 3522 3729 l 3536 3762 l 3550 3796 l 3563 3829 l
 3574 3860 l 3585 3889 l 3593 3916 l 3600 3941 l 3606 3965 l
 3610 3987 l 3613 4008 l 3614 4029 l 3615 4050 l 3614 4071 l
 3613 4092 l 3610 4113 l 3606 4135 l 3600 4159 l 3593 4184 l
 3585 4211 l 3574 4240 l 3563 4271 l 3550 4304 l 3536 4338 l
 3522 4371 l 3508 4403 l 3496 4433 l 3485 4457 l 3476 4476 l
 3470 4489 l 3467 4497 l
 3465 4500 l gs col0 s gr 
% Polyline
n 3915 3600 m 3915 3601 l 3916 3604 l 3919 3612 l 3923 3625 l 3928 3644 l
 3935 3666 l 3942 3691 l 3949 3715 l 3955 3739 l 3961 3760 l
 3965 3780 l 3969 3798 l 3972 3814 l 3974 3828 l 3975 3842 l
 3975 3855 l 3975 3870 l 3973 3884 l 3971 3899 l 3967 3914 l
 3962 3931 l 3956 3949 l 3949 3969 l 3941 3989 l 3933 4009 l
 3926 4026 l 3920 4038 l 3917 4046 l 3915 4049 l
 3915 4050 l gs col0 s gr 
% Polyline
n 3015 4050 m 3015 4051 l 3016 4054 l 3019 4062 l 3023 4075 l 3028 4094 l
 3035 4116 l 3042 4141 l 3049 4165 l 3055 4189 l 3061 4210 l
 3065 4230 l 3069 4248 l 3072 4264 l 3074 4278 l 3075 4292 l
 3075 4305 l 3075 4320 l 3073 4334 l 3071 4349 l 3067 4364 l
 3062 4381 l 3056 4399 l 3049 4419 l 3041 4439 l 3033 4459 l
 3026 4476 l 3020 4488 l 3017 4496 l 3015 4499 l
 3015 4500 l gs col0 s gr 
% Polyline
n 2565 3600 m 2565 3601 l 2566 3604 l 2569 3612 l 2573 3625 l 2578 3644 l
 2585 3666 l 2592 3691 l 2599 3715 l 2605 3739 l 2611 3760 l
 2615 3780 l 2619 3798 l 2622 3814 l 2624 3828 l 2625 3842 l
 2625 3855 l 2625 3870 l 2623 3884 l 2621 3899 l 2617 3914 l
 2612 3931 l 2606 3949 l 2599 3969 l 2591 3989 l 2583 4009 l
 2576 4026 l 2570 4038 l 2567 4046 l 2565 4049 l
 2565 4050 l gs col0 s gr 
/Times-Roman ff 317.50 scf sf
1830 4560 m
gs 1 -1 sc (c) dup sw pop neg 0 rm  col0 sh gr
/Times-Roman ff 317.50 scf sf
1830 4155 m
gs 1 -1 sc (b) dup sw pop neg 0 rm  col0 sh gr
/Times-Roman ff 317.50 scf sf
1815 3675 m
gs 1 -1 sc (a) dup sw pop neg 0 rm  col0 sh gr
% Ellipse
7.500 slw
n 9450 1130 47 47 0 360 DrawEllipse gs col7 0.00 shd ef gr gs col0 s gr

% Ellipse
n 9450 1580 47 47 0 360 DrawEllipse gs col7 0.00 shd ef gr gs col0 s gr

% Ellipse
n 9900 1580 47 47 0 360 DrawEllipse gs col7 0.00 shd ef gr gs col0 s gr

% Ellipse
n 9900 2030 47 47 0 360 DrawEllipse gs col7 0.00 shd ef gr gs col0 s gr

% Ellipse
n 10350 2030 47 47 0 360 DrawEllipse gs col7 0.00 shd ef gr gs col0 s gr

% Ellipse
n 10350 1130 47 47 0 360 DrawEllipse gs col7 0.00 shd ef gr gs col0 s gr

% Ellipse
n 10800 1130 47 47 0 360 DrawEllipse gs col7 0.00 shd ef gr gs col0 s gr

% Ellipse
n 10800 1580 47 47 0 360 DrawEllipse gs col7 0.00 shd ef gr gs col0 s gr

% Ellipse
n 5390 1130 47 47 0 360 DrawEllipse gs col7 0.00 shd ef gr gs col0 s gr

% Ellipse
n 5390 1580 47 47 0 360 DrawEllipse gs col7 0.00 shd ef gr gs col0 s gr

% Ellipse
n 5840 1580 47 47 0 360 DrawEllipse gs col7 0.00 shd ef gr gs col0 s gr

% Ellipse
n 5840 2030 47 47 0 360 DrawEllipse gs col7 0.00 shd ef gr gs col0 s gr

% Ellipse
n 6290 2030 47 47 0 360 DrawEllipse gs col7 0.00 shd ef gr gs col0 s gr

% Ellipse
n 6290 1130 47 47 0 360 DrawEllipse gs col7 0.00 shd ef gr gs col0 s gr

% Ellipse
n 6740 1130 47 47 0 360 DrawEllipse gs col7 0.00 shd ef gr gs col0 s gr

% Ellipse
n 6740 1580 47 47 0 360 DrawEllipse gs col7 0.00 shd ef gr gs col0 s gr

% Ellipse
n 7515 3600 47 47 0 360 DrawEllipse gs col7 0.00 shd ef gr gs col0 s gr

% Ellipse
n 7515 4050 47 47 0 360 DrawEllipse gs col7 0.00 shd ef gr gs col0 s gr

% Ellipse
n 7965 4050 47 47 0 360 DrawEllipse gs col7 0.00 shd ef gr gs col0 s gr

% Ellipse
n 7965 4500 47 47 0 360 DrawEllipse gs col7 0.00 shd ef gr gs col0 s gr

% Ellipse
n 8415 4500 47 47 0 360 DrawEllipse gs col7 0.00 shd ef gr gs col0 s gr

% Ellipse
n 8415 3600 47 47 0 360 DrawEllipse gs col7 0.00 shd ef gr gs col0 s gr

% Ellipse
n 8865 3600 47 47 0 360 DrawEllipse gs col7 0.00 shd ef gr gs col0 s gr

% Ellipse
n 8865 4050 47 47 0 360 DrawEllipse gs col7 0.00 shd ef gr gs col0 s gr

% Polyline
0 slj
15.000 slw
n 8775 2030 m
 11475 2030 l gs col0 s gr 
% Polyline
n 8775 1580 m
 11475 1580 l gs col0 s gr 
% Polyline
n 8775 1130 m
 11475 1130 l gs col0 s gr 
% Polyline
7.500 slw
 [60] 0 sd
n 11250 905 m
 11250 2255 l gs col0 s gr  [] 0 sd
% Polyline
 [60] 0 sd
n 10800 905 m
 10800 2255 l gs col0 s gr  [] 0 sd
% Polyline
 [60] 0 sd
n 10350 905 m
 10350 2255 l gs col0 s gr  [] 0 sd
% Polyline
 [60] 0 sd
n 9900 905 m
 9900 2255 l gs col0 s gr  [] 0 sd
% Polyline
 [60] 0 sd
n 9450 905 m
 9450 2255 l gs col0 s gr  [] 0 sd
% Polyline
 [60] 0 sd
n 9000 905 m
 9000 2255 l gs col0 s gr  [] 0 sd
% Polyline
15.000 slw
n 4715 2030 m
 7415 2030 l gs col0 s gr 
% Polyline
n 4715 1580 m
 7415 1580 l gs col0 s gr 
% Polyline
n 4715 1130 m
 7415 1130 l gs col0 s gr 
% Polyline
7.500 slw
 [60] 0 sd
n 7190 905 m
 7190 2255 l gs col0 s gr  [] 0 sd
% Polyline
 [60] 0 sd
n 6740 905 m
 6740 2255 l gs col0 s gr  [] 0 sd
% Polyline
 [60] 0 sd
n 6290 905 m
 6290 2255 l gs col0 s gr  [] 0 sd
% Polyline
 [60] 0 sd
n 5840 905 m
 5840 2255 l gs col0 s gr  [] 0 sd
% Polyline
 [60] 0 sd
n 5390 905 m
 5390 2255 l gs col0 s gr  [] 0 sd
% Polyline
 [60] 0 sd
n 4940 905 m
 4940 2255 l gs col0 s gr  [] 0 sd
% Polyline
15.000 slw
n 6840 4500 m
 9540 4500 l gs col0 s gr 
% Polyline
n 6840 4050 m
 9540 4050 l gs col0 s gr 
% Polyline
n 6840 3600 m
 9540 3600 l gs col0 s gr 
% Polyline
7.500 slw
 [60] 0 sd
n 9315 3375 m
 9315 4725 l gs col0 s gr  [] 0 sd
% Polyline
 [60] 0 sd
n 8865 3375 m
 8865 4725 l gs col0 s gr  [] 0 sd
% Polyline
 [60] 0 sd
n 8415 3375 m
 8415 4725 l gs col0 s gr  [] 0 sd
% Polyline
 [60] 0 sd
n 7965 3375 m
 7965 4725 l gs col0 s gr  [] 0 sd
% Polyline
 [60] 0 sd
n 7515 3375 m
 7515 4725 l gs col0 s gr  [] 0 sd
% Polyline
 [60] 0 sd
n 7065 3375 m
 7065 4725 l gs col0 s gr  [] 0 sd
/Times-Roman ff 317.50 scf sf
6765 3675 m
gs 1 -1 sc (a) dup sw pop neg 0 rm  col0 sh gr
% Ellipse
n 1350 1580 47 47 0 360 DrawEllipse gs col7 0.00 shd ef gr gs col0 s gr

% Ellipse
n 1800 1580 47 47 0 360 DrawEllipse gs col7 0.00 shd ef gr gs col0 s gr

% Ellipse
n 1800 2030 47 47 0 360 DrawEllipse gs col7 0.00 shd ef gr gs col0 s gr

% Ellipse
n 2250 2030 47 47 0 360 DrawEllipse gs col7 0.00 shd ef gr gs col0 s gr

% Ellipse
n 2250 1130 47 47 0 360 DrawEllipse gs col7 0.00 shd ef gr gs col0 s gr

% Ellipse
n 2700 1130 47 47 0 360 DrawEllipse gs col7 0.00 shd ef gr gs col0 s gr

% Ellipse
n 2700 1580 47 47 0 360 DrawEllipse gs col7 0.00 shd ef gr gs col0 s gr

% Polyline
15.000 slw
n 675 2030 m
 3375 2030 l gs col0 s gr 
% Polyline
n 675 1580 m
 3375 1580 l gs col0 s gr 
% Polyline
n 675 1130 m
 3375 1130 l gs col0 s gr 
% Polyline
7.500 slw
 [60] 0 sd
n 3150 905 m
 3150 2255 l gs col0 s gr  [] 0 sd
/Times-Roman ff 317.50 scf sf
6780 4155 m
gs 1 -1 sc (b) dup sw pop neg 0 rm  col0 sh gr
% Ellipse
n 1350 1130 47 47 0 360 DrawEllipse gs col7 0.00 shd ef gr gs col0 s gr

% Polyline
2 slj
15.000 slw
n 10350 1130 m 10352 1133 l 10355 1141 l 10361 1154 l 10370 1173 l 10381 1197 l
 10393 1227 l 10407 1259 l 10421 1292 l 10435 1326 l 10448 1359 l
 10459 1390 l 10470 1419 l 10478 1446 l 10485 1471 l 10491 1495 l
 10495 1517 l 10498 1538 l 10499 1559 l 10500 1580 l 10499 1601 l
 10498 1622 l 10495 1643 l 10491 1665 l 10485 1689 l 10478 1714 l
 10470 1741 l 10459 1770 l 10448 1801 l 10435 1834 l 10421 1868 l
 10407 1901 l 10393 1933 l 10381 1963 l 10370 1987 l 10361 2006 l
 10355 2019 l 10352 2027 l
 10350 2030 l gs col0 s gr 
% Polyline
n 10800 1130 m 10800 1131 l 10801 1134 l 10804 1142 l 10808 1155 l 10813 1174 l
 10820 1196 l 10827 1221 l 10834 1245 l 10840 1269 l 10846 1290 l
 10850 1310 l 10854 1328 l 10857 1344 l 10859 1358 l 10860 1372 l
 10860 1385 l 10860 1400 l 10858 1414 l 10856 1429 l 10852 1444 l
 10847 1461 l 10841 1479 l 10834 1499 l 10826 1519 l 10818 1539 l
 10811 1556 l 10805 1568 l 10802 1576 l 10800 1579 l
 10800 1580 l gs col0 s gr 
% Polyline
n 9900 1580 m 9900 1581 l 9901 1584 l 9904 1592 l 9908 1605 l 9913 1624 l
 9920 1646 l 9927 1671 l 9934 1695 l 9940 1719 l 9946 1740 l
 9950 1760 l 9954 1778 l 9957 1794 l 9959 1808 l 9960 1822 l
 9960 1835 l 9960 1850 l 9958 1864 l 9956 1879 l 9952 1894 l
 9947 1911 l 9941 1929 l 9934 1949 l 9926 1969 l 9918 1989 l
 9911 2006 l 9905 2018 l 9902 2026 l 9900 2029 l
 9900 2030 l gs col0 s gr 
% Polyline
n 9450 1130 m 9450 1131 l 9451 1134 l 9454 1142 l 9458 1155 l 9463 1174 l
 9470 1196 l 9477 1221 l 9484 1245 l 9490 1269 l 9496 1290 l
 9500 1310 l 9504 1328 l 9507 1344 l 9509 1358 l 9510 1372 l
 9510 1385 l 9510 1400 l 9508 1414 l 9506 1429 l 9502 1444 l
 9497 1461 l 9491 1479 l 9484 1499 l 9476 1519 l 9468 1539 l
 9461 1556 l 9455 1568 l 9452 1576 l 9450 1579 l
 9450 1580 l gs col0 s gr 
% Polyline
n 6290 1130 m 6292 1133 l 6295 1141 l 6301 1154 l 6310 1173 l 6321 1197 l
 6333 1227 l 6347 1259 l 6361 1292 l 6375 1326 l 6388 1359 l
 6399 1390 l 6410 1419 l 6418 1446 l 6425 1471 l 6431 1495 l
 6435 1517 l 6438 1538 l 6439 1559 l 6440 1580 l 6439 1601 l
 6438 1622 l 6435 1643 l 6431 1665 l 6425 1689 l 6418 1714 l
 6410 1741 l 6399 1770 l 6388 1801 l 6375 1834 l 6361 1868 l
 6347 1901 l 6333 1933 l 6321 1963 l 6310 1987 l 6301 2006 l
 6295 2019 l 6292 2027 l
 6290 2030 l gs col0 s gr 
% Polyline
n 6740 1130 m 6740 1131 l 6741 1134 l 6744 1142 l 6748 1155 l 6753 1174 l
 6760 1196 l 6767 1221 l 6774 1245 l 6780 1269 l 6786 1290 l
 6790 1310 l 6794 1328 l 6797 1344 l 6799 1358 l 6800 1372 l
 6800 1385 l 6800 1400 l 6798 1414 l 6796 1429 l 6792 1444 l
 6787 1461 l 6781 1479 l 6774 1499 l 6766 1519 l 6758 1539 l
 6751 1556 l 6745 1568 l 6742 1576 l 6740 1579 l
 6740 1580 l gs col0 s gr 
% Polyline
n 5840 1580 m 5840 1581 l 5841 1584 l 5844 1592 l 5848 1605 l 5853 1624 l
 5860 1646 l 5867 1671 l 5874 1695 l 5880 1719 l 5886 1740 l
 5890 1760 l 5894 1778 l 5897 1794 l 5899 1808 l 5900 1822 l
 5900 1835 l 5900 1850 l 5898 1864 l 5896 1879 l 5892 1894 l
 5887 1911 l 5881 1929 l 5874 1949 l 5866 1969 l 5858 1989 l
 5851 2006 l 5845 2018 l 5842 2026 l 5840 2029 l
 5840 2030 l gs col0 s gr 
% Polyline
n 5390 1130 m 5390 1131 l 5391 1134 l 5394 1142 l 5398 1155 l 5403 1174 l
 5410 1196 l 5417 1221 l 5424 1245 l 5430 1269 l 5436 1290 l
 5440 1310 l 5444 1328 l 5447 1344 l 5449 1358 l 5450 1372 l
 5450 1385 l 5450 1400 l 5448 1414 l 5446 1429 l 5442 1444 l
 5437 1461 l 5431 1479 l 5424 1499 l 5416 1519 l 5408 1539 l
 5401 1556 l 5395 1568 l 5392 1576 l 5390 1579 l
 5390 1580 l gs col0 s gr 
% Polyline
n 8415 3600 m 8417 3603 l 8420 3611 l 8426 3624 l 8435 3643 l 8446 3667 l
 8458 3697 l 8472 3729 l 8486 3762 l 8500 3796 l 8513 3829 l
 8524 3860 l 8535 3889 l 8543 3916 l 8550 3941 l 8556 3965 l
 8560 3987 l 8563 4008 l 8564 4029 l 8565 4050 l 8564 4071 l
 8563 4092 l 8560 4113 l 8556 4135 l 8550 4159 l 8543 4184 l
 8535 4211 l 8524 4240 l 8513 4271 l 8500 4304 l 8486 4338 l
 8472 4371 l 8458 4403 l 8446 4433 l 8435 4457 l 8426 4476 l
 8420 4489 l 8417 4497 l
 8415 4500 l gs col0 s gr 
% Polyline
n 8865 3600 m 8865 3601 l 8866 3604 l 8869 3612 l 8873 3625 l 8878 3644 l
 8885 3666 l 8892 3691 l 8899 3715 l 8905 3739 l 8911 3760 l
 8915 3780 l 8919 3798 l 8922 3814 l 8924 3828 l 8925 3842 l
 8925 3855 l 8925 3870 l 8923 3884 l 8921 3899 l 8917 3914 l
 8912 3931 l 8906 3949 l 8899 3969 l 8891 3989 l 8883 4009 l
 8876 4026 l 8870 4038 l 8867 4046 l 8865 4049 l
 8865 4050 l gs col0 s gr 
% Polyline
n 7965 4050 m 7965 4051 l 7966 4054 l 7969 4062 l 7973 4075 l 7978 4094 l
 7985 4116 l 7992 4141 l 7999 4165 l 8005 4189 l 8011 4210 l
 8015 4230 l 8019 4248 l 8022 4264 l 8024 4278 l 8025 4292 l
 8025 4305 l 8025 4320 l 8023 4334 l 8021 4349 l 8017 4364 l
 8012 4381 l 8006 4399 l 7999 4419 l 7991 4439 l 7983 4459 l
 7976 4476 l 7970 4488 l 7967 4496 l 7965 4499 l
 7965 4500 l gs col0 s gr 
% Polyline
n 7515 3600 m 7515 3601 l 7516 3604 l 7519 3612 l 7523 3625 l 7528 3644 l
 7535 3666 l 7542 3691 l 7549 3715 l 7555 3739 l 7561 3760 l
 7565 3780 l 7569 3798 l 7572 3814 l 7574 3828 l 7575 3842 l
 7575 3855 l 7575 3870 l 7573 3884 l 7571 3899 l 7567 3914 l
 7562 3931 l 7556 3949 l 7549 3969 l 7541 3989 l 7533 4009 l
 7526 4026 l 7520 4038 l 7517 4046 l 7515 4049 l
 7515 4050 l gs col0 s gr 
/Times-Roman ff 190.50 scf sf
9015 815 m
gs 1 -1 sc (2) dup sw pop 2 div neg 0 rm  col0 sh gr
/Times-Roman ff 190.50 scf sf
9900 800 m
gs 1 -1 sc (4) dup sw pop 2 div neg 0 rm  col0 sh gr
/Times-Roman ff 190.50 scf sf
10800 800 m
gs 1 -1 sc (6) dup sw pop 2 div neg 0 rm  col0 sh gr
/Times-Roman ff 317.50 scf sf
8715 2090 m
gs 1 -1 sc (c) dup sw pop neg 0 rm  col0 sh gr
/Times-Roman ff 317.50 scf sf
8715 1685 m
gs 1 -1 sc (b) dup sw pop neg 0 rm  col0 sh gr
/Times-Roman ff 317.50 scf sf
8700 1205 m
gs 1 -1 sc (a) dup sw pop neg 0 rm  col0 sh gr
/Times-Roman ff 190.50 scf sf
4955 815 m
gs 1 -1 sc (2) dup sw pop 2 div neg 0 rm  col0 sh gr
/Times-Roman ff 190.50 scf sf
5840 800 m
gs 1 -1 sc (4) dup sw pop 2 div neg 0 rm  col0 sh gr
/Times-Roman ff 190.50 scf sf
6740 800 m
gs 1 -1 sc (6) dup sw pop 2 div neg 0 rm  col0 sh gr
/Times-Roman ff 317.50 scf sf
4655 2090 m
gs 1 -1 sc (c) dup sw pop neg 0 rm  col0 sh gr
/Times-Roman ff 317.50 scf sf
4655 1685 m
gs 1 -1 sc (b) dup sw pop neg 0 rm  col0 sh gr
/Times-Roman ff 317.50 scf sf
4640 1205 m
gs 1 -1 sc (a) dup sw pop neg 0 rm  col0 sh gr
/Times-Roman ff 190.50 scf sf
2130 3285 m
gs 1 -1 sc (2) dup sw pop 2 div neg 0 rm  col0 sh gr
/Times-Roman ff 190.50 scf sf
3015 3270 m
gs 1 -1 sc (4) dup sw pop 2 div neg 0 rm  col0 sh gr
/Times-Roman ff 190.50 scf sf
3915 3270 m
gs 1 -1 sc (6) dup sw pop 2 div neg 0 rm  col0 sh gr
/Times-Roman ff 190.50 scf sf
7080 3285 m
gs 1 -1 sc (2) dup sw pop 2 div neg 0 rm  col0 sh gr
/Times-Roman ff 190.50 scf sf
7965 3270 m
gs 1 -1 sc (4) dup sw pop 2 div neg 0 rm  col0 sh gr
/Times-Roman ff 190.50 scf sf
8865 3270 m
gs 1 -1 sc (6) dup sw pop 2 div neg 0 rm  col0 sh gr
/Times-Roman ff 317.50 scf sf
6780 4560 m
gs 1 -1 sc (c) dup sw pop neg 0 rm  col0 sh gr
% here ends figure;
% 
% here starts figure with depth 48
% Polyline
0 slj
0 slc
15.000 slw
n 1890 4500 m
 4590 4500 l gs 0.00 setgray ef gr gs col0 s gr 
% Ellipse
n 2565 3600 47 47 0 360 DrawEllipse gs 0.00 setgray ef gr gs col0 s gr

% here ends figure;
pagefooter
showpage
%%Trailer
%EOF
