%!PS-Adobe-3.0 EPSF-3.0
%%Title: betweenness-stream.fig
%%Creator: fig2dev Version 3.2 Patchlevel 5e
%%CreationDate: Mon Jul 25 21:29:44 2016
%%BoundingBox: 0 0 165 119
%Magnification: 1.0000
%%EndComments
%%BeginProlog
/$F2psDict 200 dict def
$F2psDict begin
$F2psDict /mtrx matrix put
/col-1 {0 setgray} bind def
/col0 {0.000 0.000 0.000 srgb} bind def
/col1 {0.000 0.000 1.000 srgb} bind def
/col2 {0.000 1.000 0.000 srgb} bind def
/col3 {0.000 1.000 1.000 srgb} bind def
/col4 {1.000 0.000 0.000 srgb} bind def
/col5 {1.000 0.000 1.000 srgb} bind def
/col6 {1.000 1.000 0.000 srgb} bind def
/col7 {1.000 1.000 1.000 srgb} bind def
/col8 {0.000 0.000 0.560 srgb} bind def
/col9 {0.000 0.000 0.690 srgb} bind def
/col10 {0.000 0.000 0.820 srgb} bind def
/col11 {0.530 0.810 1.000 srgb} bind def
/col12 {0.000 0.560 0.000 srgb} bind def
/col13 {0.000 0.690 0.000 srgb} bind def
/col14 {0.000 0.820 0.000 srgb} bind def
/col15 {0.000 0.560 0.560 srgb} bind def
/col16 {0.000 0.690 0.690 srgb} bind def
/col17 {0.000 0.820 0.820 srgb} bind def
/col18 {0.560 0.000 0.000 srgb} bind def
/col19 {0.690 0.000 0.000 srgb} bind def
/col20 {0.820 0.000 0.000 srgb} bind def
/col21 {0.560 0.000 0.560 srgb} bind def
/col22 {0.690 0.000 0.690 srgb} bind def
/col23 {0.820 0.000 0.820 srgb} bind def
/col24 {0.500 0.190 0.000 srgb} bind def
/col25 {0.630 0.250 0.000 srgb} bind def
/col26 {0.750 0.380 0.000 srgb} bind def
/col27 {1.000 0.500 0.500 srgb} bind def
/col28 {1.000 0.630 0.630 srgb} bind def
/col29 {1.000 0.750 0.750 srgb} bind def
/col30 {1.000 0.880 0.880 srgb} bind def
/col31 {1.000 0.840 0.000 srgb} bind def
/col32 {0.333 0.333 0.333 srgb} bind def
/col33 {0.667 0.667 0.667 srgb} bind def

end

/cp {closepath} bind def
/ef {eofill} bind def
/gr {grestore} bind def
/gs {gsave} bind def
/sa {save} bind def
/rs {restore} bind def
/l {lineto} bind def
/m {moveto} bind def
/rm {rmoveto} bind def
/n {newpath} bind def
/s {stroke} bind def
/sh {show} bind def
/slc {setlinecap} bind def
/slj {setlinejoin} bind def
/slw {setlinewidth} bind def
/srgb {setrgbcolor} bind def
/rot {rotate} bind def
/sc {scale} bind def
/sd {setdash} bind def
/ff {findfont} bind def
/sf {setfont} bind def
/scf {scalefont} bind def
/sw {stringwidth} bind def
/tr {translate} bind def
/tnt {dup dup currentrgbcolor
  4 -2 roll dup 1 exch sub 3 -1 roll mul add
  4 -2 roll dup 1 exch sub 3 -1 roll mul add
  4 -2 roll dup 1 exch sub 3 -1 roll mul add srgb}
  bind def
/shd {dup dup currentrgbcolor 4 -2 roll mul 4 -2 roll mul
  4 -2 roll mul srgb} bind def
 /DrawEllipse {
	/endangle exch def
	/startangle exch def
	/yrad exch def
	/xrad exch def
	/y exch def
	/x exch def
	/savematrix mtrx currentmatrix def
	x y tr xrad yrad sc 0 0 1 startangle endangle arc
	closepath
	savematrix setmatrix
	} def

/$F2psBegin {$F2psDict begin /$F2psEnteredState save def} def
/$F2psEnd {$F2psEnteredState restore end} def

/pageheader {
save
newpath 0 119 moveto 0 0 lineto 165 0 lineto 165 119 lineto closepath clip newpath
-240.0 227.7 translate
1 -1 scale
$F2psBegin
10 setmiterlimit
0 slj 0 slc
 0.06299 0.06299 sc
} bind def
/pagefooter {
$F2psEnd
restore
} bind def
%%EndProlog
pageheader
%
% Fig objects follow
%
% 
% here starts figure with depth 60
% Polyline
0 slj
0 slc
7.500 slw
n 5400 2475 m
 6075 2475 l gs col27 0.50 tnt ef gr gs col0 s gr 
% Polyline
n 4950 1800 m 5400 1800 l 5400 2250 l 4950 2250 l
 cp gs col12 0.50 tnt ef gr gs col12 s gr 
% Polyline
n 5400 2250 m
 5400 2700 l gs col12 0.50 tnt ef gr gs col12 s gr 
% Polyline
n 4275 1800 m 4725 1800 l 4725 3150 l 4275 3150 l
 cp gs col27 0.50 tnt ef gr gs col27 s gr 
% here ends figure;
% 
% here starts figure with depth 57
% Polyline
0 slj
0 slc
7.500 slw
n 4275 1800 m
 4275 3150 l gs col27 1.00 shd ef gr gs col0 s gr 
% Polyline
n 4725 3150 m
 4725 2700 l gs col27 1.00 shd ef gr gs col0 s gr 
% Polyline
n 4950 1800 m
 4950 2250 l gs col27 1.00 shd ef gr gs col0 s gr 
% Polyline
n 4950 2025 m
 5850 2025 l gs col27 1.00 shd ef gr gs col0 s gr 
% Polyline
n 4275 2610 m
 4950 2610 l gs col27 1.00 shd ef gr gs col0 s gr 
% Polyline
n 4725 2925 m
 5175 2925 l gs col27 1.00 shd ef gr gs col0 s gr 
% here ends figure;
% 
% here starts figure with depth 50
% Polyline
0 slj
0 slc
7.500 slw
 [60] 0 sd
n 4050 3150 m
 6300 3150 l gs col20 0.75 tnt ef gr gs col0 s gr  [] 0 sd
/Times-Roman ff 206.38 scf sf
3825 3195 m
gs 1 -1 sc (d) col0 sh gr
% Ellipse
0.000 slw
 [30] 0 sd
n 4275 1800 45 45 0 360 DrawEllipse gs 0.00 setgray ef gr  [] 0 sd
% Ellipse
 [30] 0 sd
n 4275 3150 45 45 0 360 DrawEllipse gs 0.00 setgray ef gr  [] 0 sd
% Ellipse
 [30] 0 sd
n 4725 3150 45 45 0 360 DrawEllipse gs 0.00 setgray ef gr  [] 0 sd
% Ellipse
 [30] 0 sd
n 4725 2700 45 45 0 360 DrawEllipse gs 0.00 setgray ef gr  [] 0 sd
% Ellipse
 [30] 0 sd
n 4950 1800 45 45 0 360 DrawEllipse gs 0.00 setgray ef gr  [] 0 sd
% Ellipse
 [30] 0 sd
n 4950 2250 45 45 0 360 DrawEllipse gs 0.00 setgray ef gr  [] 0 sd
% Ellipse
 [30] 0 sd
n 5400 2250 45 45 0 360 DrawEllipse gs 0.00 setgray ef gr  [] 0 sd
% Ellipse
 [30] 0 sd
n 5400 2700 45 45 0 360 DrawEllipse gs 0.00 setgray ef gr  [] 0 sd
% Polyline
7.500 slw
 [60] 0 sd
n 4050 1800 m
 6300 1800 l gs 0.00 setgray ef gr gs col0 s gr  [] 0 sd
% Polyline
 [60] 0 sd
n 4050 2250 m
 6300 2250 l gs 0.00 setgray ef gr gs col0 s gr  [] 0 sd
% Polyline
 [60] 0 sd
n 4050 2700 m
 6300 2700 l gs 0.00 setgray ef gr gs col0 s gr  [] 0 sd
% Polyline
n 4500 3375 m
 4500 3330 l gs 0.00 setgray ef gr gs col0 s gr 
% Polyline
n 4950 3375 m
 4950 3330 l gs 0.00 setgray ef gr gs col0 s gr 
% Polyline
n 5400 3375 m
 5400 3330 l gs 0.00 setgray ef gr gs col0 s gr 
% Polyline
gs  clippath
6164 3405 m 6315 3405 l 6315 3345 l 6164 3345 l 6164 3345 l 6284 3375 l 6164 3405 l cp
eoclip
n 4050 3375 m
 6300 3375 l gs 0.00 setgray ef gr gs col0 s gr gr

% arrowhead
n 6164 3405 m 6284 3375 l 6164 3345 l 6164 3405 l  cp gs 0.00 setgray ef gr  col0 s
% Polyline
n 5850 3375 m
 5850 3330 l gs 0.00 setgray ef gr gs col0 s gr 
/Times-Roman ff 206.38 scf sf
3825 1845 m
gs 1 -1 sc (a) col0 sh gr
/Times-Roman ff 206.38 scf sf
3825 2295 m
gs 1 -1 sc (b) col0 sh gr
/Times-Roman ff 206.38 scf sf
3825 2745 m
gs 1 -1 sc (c) col0 sh gr
/Times-Roman ff 158.75 scf sf
5805 3600 m
gs 1 -1 sc (8) col0 sh gr
/Times-Roman ff 158.75 scf sf
4455 3600 m
gs 1 -1 sc (2) col0 sh gr
/Times-Roman ff 206.38 scf sf
6030 3600 m
gs 1 -1 sc (time) col0 sh gr
% here ends figure;
pagefooter
showpage
%%Trailer
%EOF
