%!PS-Adobe-3.0 EPSF-3.0
%%Title: capture-process.fig
%%Creator: fig2dev Version 3.2 Patchlevel 5e
%%CreationDate: Wed Jul 20 21:23:55 2016
%%BoundingBox: 0 0 305 188
%Magnification: 1.0000
%%EndComments
%%BeginProlog
/$F2psDict 200 dict def
$F2psDict begin
$F2psDict /mtrx matrix put
/col-1 {0 setgray} bind def
/col0 {0.000 0.000 0.000 srgb} bind def
/col1 {0.000 0.000 1.000 srgb} bind def
/col2 {0.000 1.000 0.000 srgb} bind def
/col3 {0.000 1.000 1.000 srgb} bind def
/col4 {1.000 0.000 0.000 srgb} bind def
/col5 {1.000 0.000 1.000 srgb} bind def
/col6 {1.000 1.000 0.000 srgb} bind def
/col7 {1.000 1.000 1.000 srgb} bind def
/col8 {0.000 0.000 0.560 srgb} bind def
/col9 {0.000 0.000 0.690 srgb} bind def
/col10 {0.000 0.000 0.820 srgb} bind def
/col11 {0.530 0.810 1.000 srgb} bind def
/col12 {0.000 0.560 0.000 srgb} bind def
/col13 {0.000 0.690 0.000 srgb} bind def
/col14 {0.000 0.820 0.000 srgb} bind def
/col15 {0.000 0.560 0.560 srgb} bind def
/col16 {0.000 0.690 0.690 srgb} bind def
/col17 {0.000 0.820 0.820 srgb} bind def
/col18 {0.560 0.000 0.000 srgb} bind def
/col19 {0.690 0.000 0.000 srgb} bind def
/col20 {0.820 0.000 0.000 srgb} bind def
/col21 {0.560 0.000 0.560 srgb} bind def
/col22 {0.690 0.000 0.690 srgb} bind def
/col23 {0.820 0.000 0.820 srgb} bind def
/col24 {0.500 0.190 0.000 srgb} bind def
/col25 {0.630 0.250 0.000 srgb} bind def
/col26 {0.750 0.380 0.000 srgb} bind def
/col27 {1.000 0.500 0.500 srgb} bind def
/col28 {1.000 0.630 0.630 srgb} bind def
/col29 {1.000 0.750 0.750 srgb} bind def
/col30 {1.000 0.880 0.880 srgb} bind def
/col31 {1.000 0.840 0.000 srgb} bind def
/col32 {0.000 0.000 0.000 srgb} bind def
/col33 {0.980 0.941 0.902 srgb} bind def
/col34 {0.851 0.851 0.851 srgb} bind def

end

/cp {closepath} bind def
/ef {eofill} bind def
/gr {grestore} bind def
/gs {gsave} bind def
/sa {save} bind def
/rs {restore} bind def
/l {lineto} bind def
/m {moveto} bind def
/rm {rmoveto} bind def
/n {newpath} bind def
/s {stroke} bind def
/sh {show} bind def
/slc {setlinecap} bind def
/slj {setlinejoin} bind def
/slw {setlinewidth} bind def
/srgb {setrgbcolor} bind def
/rot {rotate} bind def
/sc {scale} bind def
/sd {setdash} bind def
/ff {findfont} bind def
/sf {setfont} bind def
/scf {scalefont} bind def
/sw {stringwidth} bind def
/tr {translate} bind def
/tnt {dup dup currentrgbcolor
  4 -2 roll dup 1 exch sub 3 -1 roll mul add
  4 -2 roll dup 1 exch sub 3 -1 roll mul add
  4 -2 roll dup 1 exch sub 3 -1 roll mul add srgb}
  bind def
/shd {dup dup currentrgbcolor 4 -2 roll mul 4 -2 roll mul
  4 -2 roll mul srgb} bind def
 /DrawEllipse {
	/endangle exch def
	/startangle exch def
	/yrad exch def
	/xrad exch def
	/y exch def
	/x exch def
	/savematrix mtrx currentmatrix def
	x y tr xrad yrad sc 0 0 1 startangle endangle arc
	closepath
	savematrix setmatrix
	} def

/$F2psBegin {$F2psDict begin /$F2psEnteredState save def} def
/$F2psEnd {$F2psEnteredState restore end} def

/pageheader {
save
newpath 0 188 moveto 0 0 lineto 305 0 lineto 305 188 lineto closepath clip newpath
-854.6 312.3 translate
1 -1 scale
$F2psBegin
10 setmiterlimit
0 slj 0 slc
 0.06000 0.06000 sc
} bind def
/pagefooter {
$F2psEnd
restore
} bind def
%%EndProlog
pageheader
%
% Fig objects follow
%
% 
% here starts figure with depth 52
% Ellipse
7.500 slw
n 16500 3450 212 212 0 360 DrawEllipse gs col0 s gr

% Polyline
0 slj
0 slc
n 16725 3450 m
 17400 3450 l gs col0 s gr 
% Polyline
n 17400 3300 m 17700 3300 l 17700 3600 l 17400 3600 l
 cp gs col0 s gr 
% Polyline
n 16500 3225 m
 16500 2775 l gs col0 s gr 
% Polyline
n 16500 3675 m
 16500 4200 l gs col0 s gr 
% Polyline
gs  clippath
16150 3511 m 16295 3467 l 16278 3409 l 16133 3453 l 16133 3453 l 16257 3448 l 16150 3511 l cp
eoclip
n 15523 3668 m
 16273 3443 l gs col0 s gr gr

% arrowhead
n 16150 3511 m 16257 3448 l 16133 3453 l 16150 3511 l  cp gs 0.00 setgray ef gr  col0 s
% Polyline
gs  clippath
17868 3501 m 17736 3427 l 17707 3479 l 17839 3553 l 17839 3553 l 17749 3469 l 17868 3501 l cp
eoclip
n 18410 3836 m
 17735 3461 l gs col0 s gr gr

% arrowhead
n 17868 3501 m 17749 3469 l 17839 3553 l 17868 3501 l  cp gs 0.00 setgray ef gr  col0 s
/Times-Roman ff 333.33 scf sf
16050 2325 m
gs 1 -1 sc (WIDE) col0 sh gr
/Times-Roman ff 333.33 scf sf
16050 2625 m
gs 1 -1 sc (\(Japan\)) col0 sh gr
/Times-Roman ff 333.33 scf sf
15825 4500 m
gs 1 -1 sc (Upstream) col0 sh gr
/Times-Roman ff 333.33 scf sf
16200 4875 m
gs 1 -1 sc (ISP) col0 sh gr
/Times-Roman ff 333.33 scf sf
15600 5100 m
gs 1 -1 sc (\(Japan, world\)) col0 sh gr
/Times-Roman ff 166.67 scf sf
14925 3675 m
gs 1 -1 sc (Point of) col0 sh gr
/Times-Roman ff 166.67 scf sf
14925 3825 m
gs 1 -1 sc (capture) col0 sh gr
/Times-Roman ff 166.67 scf sf
18450 3900 m
gs 1 -1 sc (Storage and) col0 sh gr
/Times-Roman ff 166.67 scf sf
18600 4050 m
gs 1 -1 sc (analysis) col0 sh gr
/Times-Roman ff 166.67 scf sf
18600 4200 m
gs 1 -1 sc (machine) col0 sh gr
% here ends figure;
% 
% here starts figure with depth 50
% Arc
7.500 slw
0 slc
n 16500.0 6900.0 3000.0 -126.8699 -53.1301 arc
gs col0 s gr

% Arc
n 16500.0 -0.0 3000.0 126.8699 53.1301 arcn
gs col0 s gr

% Ellipse
n 14401 3444 150 150 0 360 DrawEllipse gs col0 s gr

% Polyline
0 slj
n 15300 2400 m
 14400 3300 l gs col0 s gr 
% Polyline
n 14399 3595 m
 15001 4497 l gs col0 s gr 
% here ends figure;
pagefooter
showpage
%%Trailer
%EOF
