%!PS-Adobe-2.0 EPSF-2.0
%%Title: algo-expl.fig
%%Creator: fig2dev Version 3.2 Patchlevel 5c
%%CreationDate: Thu Jan 15 14:10:38 2015
%%BoundingBox: 0 0 187 103
%Magnification: 1.0000
%%EndComments
%%BeginProlog
/$F2psDict 200 dict def
$F2psDict begin
$F2psDict /mtrx matrix put
/col-1 {0 setgray} bind def
/col0 {0.000 0.000 0.000 srgb} bind def
/col1 {0.000 0.000 1.000 srgb} bind def
/col2 {0.000 1.000 0.000 srgb} bind def
/col3 {0.000 1.000 1.000 srgb} bind def
/col4 {1.000 0.000 0.000 srgb} bind def
/col5 {1.000 0.000 1.000 srgb} bind def
/col6 {1.000 1.000 0.000 srgb} bind def
/col7 {1.000 1.000 1.000 srgb} bind def
/col8 {0.000 0.000 0.560 srgb} bind def
/col9 {0.000 0.000 0.690 srgb} bind def
/col10 {0.000 0.000 0.820 srgb} bind def
/col11 {0.530 0.810 1.000 srgb} bind def
/col12 {0.000 0.560 0.000 srgb} bind def
/col13 {0.000 0.690 0.000 srgb} bind def
/col14 {0.000 0.820 0.000 srgb} bind def
/col15 {0.000 0.560 0.560 srgb} bind def
/col16 {0.000 0.690 0.690 srgb} bind def
/col17 {0.000 0.820 0.820 srgb} bind def
/col18 {0.560 0.000 0.000 srgb} bind def
/col19 {0.690 0.000 0.000 srgb} bind def
/col20 {0.820 0.000 0.000 srgb} bind def
/col21 {0.560 0.000 0.560 srgb} bind def
/col22 {0.690 0.000 0.690 srgb} bind def
/col23 {0.820 0.000 0.820 srgb} bind def
/col24 {0.500 0.190 0.000 srgb} bind def
/col25 {0.630 0.250 0.000 srgb} bind def
/col26 {0.750 0.380 0.000 srgb} bind def
/col27 {1.000 0.500 0.500 srgb} bind def
/col28 {1.000 0.630 0.630 srgb} bind def
/col29 {1.000 0.750 0.750 srgb} bind def
/col30 {1.000 0.880 0.880 srgb} bind def
/col31 {1.000 0.840 0.000 srgb} bind def
/col32 {0.447 0.620 0.808 srgb} bind def
/col33 {0.529 0.808 1.000 srgb} bind def
/col34 {0.667 0.667 0.667 srgb} bind def

end

/cp {closepath} bind def
/ef {eofill} bind def
/gr {grestore} bind def
/gs {gsave} bind def
/sa {save} bind def
/rs {restore} bind def
/l {lineto} bind def
/m {moveto} bind def
/rm {rmoveto} bind def
/n {newpath} bind def
/s {stroke} bind def
/sh {show} bind def
/slc {setlinecap} bind def
/slj {setlinejoin} bind def
/slw {setlinewidth} bind def
/srgb {setrgbcolor} bind def
/rot {rotate} bind def
/sc {scale} bind def
/sd {setdash} bind def
/ff {findfont} bind def
/sf {setfont} bind def
/scf {scalefont} bind def
/sw {stringwidth} bind def
/tr {translate} bind def
/tnt {dup dup currentrgbcolor
  4 -2 roll dup 1 exch sub 3 -1 roll mul add
  4 -2 roll dup 1 exch sub 3 -1 roll mul add
  4 -2 roll dup 1 exch sub 3 -1 roll mul add srgb}
  bind def
/shd {dup dup currentrgbcolor 4 -2 roll mul 4 -2 roll mul
  4 -2 roll mul srgb} bind def
 /DrawEllipse {
	/endangle exch def
	/startangle exch def
	/yrad exch def
	/xrad exch def
	/y exch def
	/x exch def
	/savematrix mtrx currentmatrix def
	x y tr xrad yrad sc 0 0 1 startangle endangle arc
	closepath
	savematrix setmatrix
	} def

/$F2psBegin {$F2psDict begin /$F2psEnteredState save def} def
/$F2psEnd {$F2psEnteredState restore end} def

/pageheader {
save
newpath 0 103 moveto 0 0 lineto 187 0 lineto 187 103 lineto closepath clip newpath
-282.3 426.0 translate
1 -1 scale
$F2psBegin
10 setmiterlimit
0 slj 0 slc
 0.06299 0.06299 sc
} bind def
/pagefooter {
$F2psEnd
restore
} bind def
%%EndProlog
pageheader
%
% Fig objects follow
%
% 
% here starts figure with depth 40
% Polyline
0 slj
0 slc
0.000 slw
n 4950 5445 m 4950 5535 l 5310 5535 l 5310 6615 l 6840 6615 l 6840 5535 l
 7200 5535 l 7200 5445 l
 cp gs col11 1.00 shd ef gr 
% Ellipse
7.500 slw
n 5400 5625 47 47 0 360 DrawEllipse gs col7 0.00 shd ef gr gs col0 s gr

% Ellipse
n 5400 6075 47 47 0 360 DrawEllipse gs col7 0.00 shd ef gr gs col0 s gr

% Ellipse
n 5850 6075 47 47 0 360 DrawEllipse gs col7 0.00 shd ef gr gs col0 s gr

% Ellipse
n 5850 6525 47 47 0 360 DrawEllipse gs col7 0.00 shd ef gr gs col0 s gr

% Ellipse
n 6300 6525 47 47 0 360 DrawEllipse gs col7 0.00 shd ef gr gs col0 s gr

% Ellipse
n 6300 5625 47 47 0 360 DrawEllipse gs col7 0.00 shd ef gr gs col0 s gr

% Ellipse
n 6750 5625 47 47 0 360 DrawEllipse gs col7 0.00 shd ef gr gs col0 s gr

% Ellipse
n 6750 6075 47 47 0 360 DrawEllipse gs col7 0.00 shd ef gr gs col0 s gr

% Polyline
15.000 slw
n 4725 6525 m
 7425 6525 l gs col0 s gr 
% Polyline
n 4725 6075 m
 7425 6075 l gs col0 s gr 
% Polyline
n 4725 5625 m
 7425 5625 l gs col0 s gr 
% Polyline
7.500 slw
 [60] 0 sd
n 7200 5400 m
 7200 6750 l gs col0 s gr  [] 0 sd
% Polyline
 [60] 0 sd
n 6750 5400 m
 6750 6750 l gs col0 s gr  [] 0 sd
% Polyline
 [60] 0 sd
n 6300 5400 m
 6300 6750 l gs col0 s gr  [] 0 sd
% Polyline
 [60] 0 sd
n 5850 5400 m
 5850 6750 l gs col0 s gr  [] 0 sd
% Polyline
 [60] 0 sd
n 5400 5400 m
 5400 6750 l gs col0 s gr  [] 0 sd
% Polyline
 [60] 0 sd
n 4950 5400 m
 4950 6750 l gs col0 s gr  [] 0 sd
% Polyline
2 slj
15.000 slw
n 6300 5625 m 6302 5628 l 6305 5636 l 6311 5649 l 6320 5668 l 6331 5692 l
 6343 5722 l 6357 5754 l 6371 5787 l 6385 5821 l 6398 5854 l
 6409 5885 l 6420 5914 l 6428 5941 l 6435 5966 l 6441 5990 l
 6445 6012 l 6448 6033 l 6449 6054 l 6450 6075 l 6449 6096 l
 6448 6117 l 6445 6138 l 6441 6160 l 6435 6184 l 6428 6209 l
 6420 6236 l 6409 6265 l 6398 6296 l 6385 6329 l 6371 6363 l
 6357 6396 l 6343 6428 l 6331 6458 l 6320 6482 l 6311 6501 l
 6305 6514 l 6302 6522 l
 6300 6525 l gs col0 s gr 
% Polyline
n 6750 5625 m 6750 5626 l 6751 5629 l 6754 5637 l 6758 5650 l 6763 5669 l
 6770 5691 l 6777 5716 l 6784 5740 l 6790 5764 l 6796 5785 l
 6800 5805 l 6804 5823 l 6807 5839 l 6809 5853 l 6810 5867 l
 6810 5880 l 6810 5895 l 6808 5909 l 6806 5924 l 6802 5939 l
 6797 5956 l 6791 5974 l 6784 5994 l 6776 6014 l 6768 6034 l
 6761 6051 l 6755 6063 l 6752 6071 l 6750 6074 l
 6750 6075 l gs col0 s gr 
% Polyline
n 5850 6075 m 5850 6076 l 5851 6079 l 5854 6087 l 5858 6100 l 5863 6119 l
 5870 6141 l 5877 6166 l 5884 6190 l 5890 6214 l 5896 6235 l
 5900 6255 l 5904 6273 l 5907 6289 l 5909 6303 l 5910 6317 l
 5910 6330 l 5910 6345 l 5908 6359 l 5906 6374 l 5902 6389 l
 5897 6406 l 5891 6424 l 5884 6444 l 5876 6464 l 5868 6484 l
 5861 6501 l 5855 6513 l 5852 6521 l 5850 6524 l
 5850 6525 l gs col0 s gr 
% Polyline
n 5400 5625 m 5400 5626 l 5401 5629 l 5404 5637 l 5408 5650 l 5413 5669 l
 5420 5691 l 5427 5716 l 5434 5740 l 5440 5764 l 5446 5785 l
 5450 5805 l 5454 5823 l 5457 5839 l 5459 5853 l 5460 5867 l
 5460 5880 l 5460 5895 l 5458 5909 l 5456 5924 l 5452 5939 l
 5447 5956 l 5441 5974 l 5434 5994 l 5426 6014 l 5418 6034 l
 5411 6051 l 5405 6063 l 5402 6071 l 5400 6074 l
 5400 6075 l gs col0 s gr 
/Times-Roman ff 190.50 scf sf
4965 5310 m
gs 1 -1 sc (2) dup sw pop 2 div neg 0 rm  col0 sh gr
/Times-Roman ff 190.50 scf sf
5850 5295 m
gs 1 -1 sc (4) dup sw pop 2 div neg 0 rm  col0 sh gr
/Times-Roman ff 190.50 scf sf
6750 5295 m
gs 1 -1 sc (6) dup sw pop 2 div neg 0 rm  col0 sh gr
/Times-Roman ff 317.50 scf sf
4665 6585 m
gs 1 -1 sc (c) dup sw pop neg 0 rm  col0 sh gr
/Times-Roman ff 317.50 scf sf
4665 6180 m
gs 1 -1 sc (b) dup sw pop neg 0 rm  col0 sh gr
/Times-Roman ff 317.50 scf sf
4650 5700 m
gs 1 -1 sc (a) dup sw pop neg 0 rm  col0 sh gr
% here ends figure;
pagefooter
showpage
%%Trailer
%EOF
