%!PS-Adobe-3.0 EPSF-3.0
%%BoundingBox: 66 53 337 118
%%HiResBoundingBox: 66.900000 53.900000 336.200000 117.100000
%.....................................
%%Creator: GPL Ghostscript 871 (epswrite)
%%CreationDate: 2012/01/28 17:04:36
%%DocumentData: Clean7Bit
%%LanguageLevel: 2
%%EndComments
%%BeginProlog
% This copyright applies to everything between here and the %%EndProlog:
% Copyright (C) 2010 Artifex Software, Inc.  All rights reserved.
%%BeginResource: procset GS_epswrite_2_0_1001 1.001 0
/GS_epswrite_2_0_1001 80 dict dup begin
/PageSize 2 array def/setpagesize{ PageSize aload pop 3 index eq exch
4 index eq and{ pop pop pop}{ PageSize dup  1
5 -1 roll put 0 4 -1 roll put dup null eq {false} {dup where} ifelse{ exch get exec}
{ pop/setpagedevice where
{ pop 1 dict dup /PageSize PageSize put setpagedevice}
{ /setpage where{ pop PageSize aload pop pageparams 3 {exch pop} repeat
setpage}if}ifelse}ifelse}ifelse} bind def
/!{bind def}bind def/#{load def}!/N/counttomark #
/rG{3{3 -1 roll 255 div}repeat setrgbcolor}!/G{255 div setgray}!/K{0 G}!
/r6{dup 3 -1 roll rG}!/r5{dup 3 1 roll rG}!/r3{dup rG}!
/w/setlinewidth #/J/setlinecap #
/j/setlinejoin #/M/setmiterlimit #/d/setdash #/i/setflat #
/m/moveto #/l/lineto #/c/rcurveto #
/p{N 2 idiv{N -2 roll rlineto}repeat}!
/P{N 0 gt{N -2 roll moveto p}if}!
/h{p closepath}!/H{P closepath}!
/lx{0 rlineto}!/ly{0 exch rlineto}!/v{0 0 6 2 roll c}!/y{2 copy c}!
/re{4 -2 roll m exch dup lx exch ly neg lx h}!
/^{3 index neg 3 index neg}!
/f{P fill}!/f*{P eofill}!/s{H stroke}!/S{P stroke}!
/q/gsave #/Q/grestore #/rf{re fill}!
/Y{P clip newpath}!/Y*{P eoclip newpath}!/rY{re Y}!
/|={pop exch 4 1 roll 1 array astore cvx 3 array astore cvx exch 1 index def exec}!
/|{exch string readstring |=}!
/+{dup type/nametype eq{2 index 7 add -3 bitshift 2 index mul}if}!
/@/currentfile #/${+ @ |}!
/B{{2 copy string{readstring pop}aload pop 4 array astore cvx
3 1 roll}repeat pop pop true}!
/Ix{[1 0 0 1 11 -2 roll exch neg exch neg]exch}!
/,{true exch Ix imagemask}!/If{false exch Ix imagemask}!/I{exch Ix image}!
/Ic{exch Ix false 3 colorimage}!
/F{/Columns counttomark 3 add -2 roll/Rows exch/K -1/BlackIs1 true>>
/CCITTFaxDecode filter}!/FX{<</EndOfBlock false F}!
/X{/ASCII85Decode filter}!/@X{@ X}!/&2{2 index 2 index}!
/@F{@ &2<<F}!/@C{@X &2 FX}!
/$X{+ @X |}!/&4{4 index 4 index}!/$F{+ @ &4<<F |}!/$C{+ @X &4 FX |}!
/IC{3 1 roll 10 dict begin 1{/ImageType/Interpolate/Decode/DataSource
/ImageMatrix/BitsPerComponent/Height/Width}{exch def}forall
currentdict end image}!
/~{@ read {pop} if}!
end def
%%EndResource
/pagesave null def
%%EndProlog
%%Page: 1 1
%%BeginPageSetup
GS_epswrite_2_0_1001 begin
/pagesave save store 197 dict begin
0.1 0.1 scale
%%EndPageSetup
gsave mark
Q q
0 0 250000 250000 re
Y
5 w
K
842 620 31.5 0 P
3290 620 -31.5 0 P
806 620 S
769 599 34 44 /3U
$C
23%r'%\5X)j2)<u^Zk'1J,ZoQs8W-!s8VJ_s8Qk\g>99H(eYmM:r7r$~>
,
842 668 31.5 0 P
3290 668 -31.5 0 P
806 668 S
702 648 34 43 /6U
$C
4;jd(Qp5fN^"]dYfPna4iOE=NL>hOS^UAOiqu,+3CMbUV[OTh+@7(A~>
,
735 647 3U ,
769 647 3U ,
842 716 31.5 0 P
3290 716 -31.5 0 P
806 716 S
702 696 35 43 /3Y
$C
.M)RZs3Cmfr0V$lmIpMQmIpMQmJH;FpY5/kn_X9>^V/P~>
,
735 695 3U ,
769 695 3U ,
842 764 31.5 0 P
3290 764 -31.5 0 P
806 764 S
702 743 35 44 /6Y
$C
22__[-UH4U05uPcT2!a`He7T^qXqU=['7F,Z=C&h$n`Au*WOE]DtUNIgIhr,MR@1;L'd~>
,
735 743 3U ,
769 743 3U ,
842 812 31.5 0 P
3290 812 -31.5 0 P
806 812 S
702 791 35 44 /4C
$C
2$jBqS07(D'Aa:H#WJZ`e,TIHX4Gk>$!:Ud'l"Rbl-UTa#WJZ`l2Ue`CO4^e@4ZT(6OF59~>
,
735 791 3U ,
769 791 3U ,
842 860 31.5 0 P
3290 860 -31.5 0 P
806 860 S
677 840 17 43 /7C
$C
,Tm'ds8W-!s-F.@R>;m@If~>
,
702 839 3U ,
735 839 3U ,
769 839 3U ,
842 908 31.5 0 P
3290 908 -31.5 0 P
806 908 S
677 888 7C ,
702 888 6U ,
735 887 3U ,
769 887 3U ,
842 956 31.5 0 P
3290 956 -31.5 0 P
806 956 S
677 936 7C ,
702 936 3Y ,
735 935 3U ,
769 935 3U ,
842 1004 31.5 0 P
3290 1004 -31.5 0 P
806 1004 S
677 984 7C ,
702 983 6Y ,
735 983 3U ,
769 983 3U ,
842 1052 31.5 0 P
3290 1052 -31.5 0 P
806 1052 S
677 1032 7C ,
702 1031 4C ,
735 1031 3U ,
769 1031 3U ,
842 1100 31.5 0 P
3290 1100 -31.5 0 P
806 1100 S
669 1080 6U ,
702 1079 3U ,
735 1079 3U ,
769 1079 3U ,
842 1148 31.5 0 P
3290 1148 -31.5 0 P
806 1148 S
669 1128 6U ,
702 1128 6U ,
735 1127 3U ,
769 1127 3U ,
841 620 0 31.5 P
841 1148 0 -31.5 P
841 560 S
829 539 3U ,
1086 620 0 31.5 P
1086 1148 0 -31.5 P
1086 560 S
1040 539 35 44 /4G
$C
2%'Ns&9R0a'Aa:<PNfbDGdm_=;rkC=Bjl_7CKWS'fO25hs7ZK6."D-0~>
,
1074 539 3U ,
1107 539 3U ,
1331 620 0 31.5 P
1331 1148 0 -31.5 P
1331 560 S
1277 540 7C ,
1302 539 3U ,
1335 539 3U ,
1369 539 3U ,
1575.5 620 0 31.5 P
1575.5 1148 0 -31.5 P
1575.5 560 S
1521 540 7C ,
1546 539 4G ,
1580 539 3U ,
1613 539 3U ,
1820.5 620 0 31.5 P
1820.5 1148 0 -31.5 P
1820.5 560 S
1758 540 6U ,
1791 539 3U ,
1825 539 3U ,
1858 539 3U ,
2065.5 620 0 31.5 P
2065.5 1148 0 -31.5 P
2065.5 560 S
2003 540 6U ,
2036 539 4G ,
2070 539 3U ,
2103 539 3U ,
2310.5 620 0 31.5 P
2310.5 1148 0 -31.5 P
2310.5 560 S
2248 539 34 44 /7G
$C
3f*tLK;VJ#ZZne#2lEeH?]XK;@:la`Yct@m+Q2(jDLDKapAVZrg>Sl<[;*R2"T~>
,
2281 539 3U ,
2315 539 3U ,
2348 539 3U ,
2555.5 620 0 31.5 P
2555.5 1148 0 -31.5 P
2555.5 560 S
2493 539 7G ,
2526 539 4G ,
2560 539 3U ,
2593 539 3U ,
2800 620 0 31.5 P
2800 1148 0 -31.5 P
2800 560 S
2738 540 3Y ,
2771 539 3U ,
2804 539 3U ,
2838 539 3U ,
3045 620 0 31.5 P
3045 1148 0 -31.5 P
3045 560 S
2983 540 3Y ,
3016 539 4G ,
3049 539 3U ,
3083 539 3U ,
3290 620 0 31.5 P
3290 1148 0 -31.5 P
3290 560 S
3228 539 4G ,
3261 539 3U ,
3294 539 3U ,
3328 539 3U ,
842 620 2448 528 re
S
2.5 w
843 776 0.5 -6 0.5 11.5 0.5 -19.5 0.5 -5 0.5 11 0.5 8.5 0.5 8 
0.5 2.5 0.5 -14.5 0.5 1 0.5 2.5 0.5 8.5 0.5 -6.5 0.5 -6 0.5 2 
0.5 12 0.5 -1.5 0.5 16.5 0.5 -25.5 0.5 11 0.5 -5.5 0.5 -4.5 0 16.5 
0.5 -12.5 0.5 7.5 0.5 -6 0.5 2.5 0.5 -17.5 0.5 7 0.5 10.5 0.5 -16 
0.5 4.5 0.5 7 0.5 1.5 0.5 9.5 0.5 -6 0.5 -5 0.5 5.5 0.5 -1 
0.5 -3 0.5 7 0.5 -0.5 0.5 -12 0.5 12 0.5 -9 0.5 -13.5 0.5 10 
0.5 -2.5 0.5 -0.5 0.5 -1 0.5 4.5 0.5 -1 0.5 -6 0.5 18.5 0.5 11 
0.5 -22.5 0.5 0.5 0.5 9.5 0.5 -3.5 0.5 -28 0.5 8.5 0.5 3.5 0.5 8.5 
0.5 -5.5 0.5 3.5 0.5 -4 0.5 -10.5 0.5 17.5 0.5 0 0.5 -5 0.5 17 
0 -16.5 0.5 14 0.5 -2 0.5 1.5 0.5 -2 0.5 -3.5 0.5 7.5 0.5 -3.5 
0.5 7 0.5 -17 0.5 0 0.5 10.5 0.5 4 0.5 -6 0.5 -1.5 0.5 2.5 
0.5 -13 0.5 -5.5 0.5 10 0.5 0 0.5 -13 0.5 4 0.5 3 0.5 -5 
0.5 -10 0.5 2.5 0.5 3 0.5 0.5 0.5 -1 0.5 11.5 0.5 -11.5 0.5 7 
0.5 -2 S
894 763.5 0.5 13 0.5 -11.5 0.5 -7 0.5 10.5 0.5 3 0.5 -6.5 0.5 0 
0.5 14.5 0.5 2 0.5 -4 0.5 -9.5 0.5 -5 0.5 12 0.5 -11 0.5 -0.5 
0.5 8.5 0 -6 0.5 -5.5 0.5 -5 0.5 11 0.5 8.5 0.5 -8.5 0.5 6 
0.5 8.5 0.5 -13.5 0.5 18.5 0.5 1 0.5 -0.5 0.5 -4 0.5 4 0.5 -11.5 
0.5 6.5 0.5 -7.5 0.5 -3 0.5 0.5 0.5 -2 0.5 8 0.5 -4.5 0.5 1 
0.5 4.5 0.5 -13.5 0.5 0.5 0.5 8.5 0.5 5 0.5 -3.5 0.5 0.5 0.5 1.5 
0.5 -21.5 0.5 12 0.5 -4 0.5 12.5 0.5 -3 0.5 -4.5 0.5 0 0.5 -9 
0.5 20 0.5 -4 0.5 -10 0.5 2.5 0.5 8.5 0.5 0.5 0.5 -13 0.5 4 
0.5 6.5 0.5 5.5 0 -27.5 0.5 22 0.5 -25.5 0.5 3 0.5 17 0.5 0.5 
0.5 2 0.5 -21 0.5 1.5 0.5 1 0.5 9 0.5 0 0.5 -16 0.5 7.5 
0.5 -3.5 0.5 5.5 0.5 6 0.5 4 0.5 -24 0.5 19 0.5 -5.5 0.5 12 
0.5 -9 0.5 9 0.5 -3 0.5 -3.5 0.5 -11.5 0.5 -2.5 0.5 7.5 0.5 5.5 
0.5 -2.5 0.5 -1 0.5 -3 0.5 0.5 0.5 4.5 0.5 -1.5 0.5 -0.5 0.5 9 
0.5 0 S
945 765.5 0.5 1.5 0.5 -7 0.5 6 0.5 4.5 0.5 6.5 0.5 -15.5 0.5 -9.5 
0.5 -2.5 0.5 10.5 0.5 9.5 0 -14 0.5 3.5 0.5 5.5 0.5 -5.5 0.5 -2.5 
0.5 -10 0.5 9.5 0.5 10.5 0.5 8 0.5 -11 0.5 -4 0.5 3 0.5 -5.5 
0.5 6 0.5 5 0.5 -14 0.5 11.5 0.5 5.5 0.5 -16.5 0.5 12.5 0.5 3 
0.5 -8 0.5 13.5 0.5 -17.5 0.5 -4.5 0.5 20 0.5 -4.5 0.5 0 0.5 7.5 
0.5 -8.5 0.5 13.5 0.5 -11.5 0.5 -3.5 0.5 1 0.5 2.5 0.5 7 0.5 -4.5 
0.5 -0.5 0.5 -5 0.5 13 0.5 10.5 0.5 -11 0.5 -0.5 0.5 -9 0.5 10 
0.5 -4 0.5 2 0.5 -12 0.5 16.5 0 -2 0.5 -4 0.5 8.5 0.5 2 
0.5 -6 0.5 5 0.5 -18.5 0.5 7.5 0.5 5.5 0.5 -14 0.5 1.5 0.5 -4.5 
0.5 0 0.5 4 0.5 -15 0.5 7 0.5 5 0.5 -5.5 0.5 -4.5 0.5 10 
0.5 -5 0.5 6 0.5 -13.5 0.5 1 0.5 4.5 0.5 -3.5 0.5 14 0.5 -8 
0.5 -9 0.5 7.5 0.5 -9.5 0.5 3 0.5 5 0.5 -4 0.5 6.5 0.5 -2.5 
0.5 -4 0.5 21.5 0.5 -2 0.5 2.5 0.5 -4.5 0.5 -1.5 0.5 11.5 0.5 -12 
0.5 -3.5 S
996 765 0.5 -0.5 0.5 8.5 0.5 3.5 0.5 -14.5 0 -7 0.5 8 0.5 8.5 
0.5 -4.5 0.5 -8 0.5 -7 0.5 7 0.5 -7 0.5 17 0.5 -6.5 0.5 8.5 
0.5 4 0.5 -8.5 0.5 -6 0.5 -2.5 0.5 12.5 0.5 -10.5 0.5 6 0.5 9 
0.5 -1.5 0.5 -9.5 0.5 4.5 0.5 -0.5 0.5 -12.5 0.5 11.5 0.5 -0.5 0.5 7 
0.5 -18.5 0.5 4 0.5 0 0.5 4.5 0.5 -3 0.5 -2.5 0.5 5.5 0.5 -2 
0.5 -13 0.5 10 0.5 13.5 0.5 -1 0.5 -12.5 0.5 2.5 0.5 -1.5 0.5 12 
0.5 -0.5 0.5 -4.5 0.5 0.5 0.5 4.5 0.5 5 0.5 -18.5 0 12 0.5 0 
0.5 0 0.5 4.5 0.5 -12.5 0.5 0 0.5 -0.5 0.5 -2 0.5 4.5 0.5 13 
0.5 5 0.5 -12 0.5 9 0.5 -6.5 0.5 -6 0.5 -9.5 0.5 12 0.5 7.5 
0.5 5 0.5 -5 0.5 -18.5 0.5 5.5 0.5 -5.5 0.5 12 0.5 -3.5 0.5 13.5 
0.5 -19 0.5 3 0.5 2 0.5 -7 0.5 6 0.5 -10.5 0.5 6 0.5 -4.5 
0.5 2 0.5 3 0.5 -9.5 0.5 22 0.5 3 0.5 -6 0.5 -0.5 0.5 -4 
0.5 -0.5 0.5 3 0.5 -2 0.5 3 0.5 -10 0.5 -4 0.5 2.5 0 3.5 
0.5 12 S
1046.5 773.5 0.5 -3.5 0.5 -3.5 0.5 -11.5 0.5 22.5 0.5 -12 0.5 -1.5 0.5 10 
0.5 -7.5 0.5 2 0.5 -10 0.5 16 0.5 2.5 0.5 -16.5 0.5 -2.5 0.5 6.5 
0.5 7 0.5 5.5 0.5 -18.5 0.5 17.5 0.5 -0.5 0.5 -10.5 0.5 11 0.5 -16 
0.5 5.5 0.5 1.5 0.5 -9.5 0.5 -0.5 0.5 5.5 0.5 15 0.5 -14 0.5 -3.5 
0.5 10 0.5 3 0.5 -3.5 0.5 10 0.5 -20 0.5 18.5 0.5 -10.5 0.5 1.5 
0.5 -2.5 0.5 4.5 0.5 -8 0.5 16 0.5 -4 0.5 -6.5 0.5 3.5 0.5 -15.5 
0 6.5 0.5 -2.5 0.5 13 0.5 -3 0.5 3 0.5 -9.5 0.5 -5 0.5 -0.5 
0.5 18 0.5 7 0.5 -25 0.5 10.5 0.5 -0.5 0.5 -14 0.5 7.5 0.5 4 
0.5 5 0.5 -13.5 0.5 18.5 0.5 -17.5 0.5 -4 0.5 13.5 0.5 -1 0.5 -5.5 
0.5 -7.5 0.5 11 0.5 0 0.5 -13 0.5 -7.5 0.5 25 0.5 -5.5 0.5 -6.5 
0.5 4 0.5 -4 0.5 -13 0.5 8.5 0.5 12.5 0.5 -3.5 0.5 4.5 0.5 -5.5 
0.5 10 0.5 -21 0.5 10 0.5 3.5 0.5 2.5 0.5 4.5 0.5 -8.5 0.5 17 
0.5 -23 0 8 0.5 2 0.5 4 0.5 -6 0.5 2.5 0.5 6.5 0.5 -6 
0.5 9 S
1097.5 776 0.5 -8.5 0.5 15.5 0.5 -6.5 0.5 9 0.5 -3.5 0.5 -0.5 0.5 1 
0.5 -10.5 0.5 9 0.5 -6.5 0.5 2 0.5 -13 0.5 6.5 0.5 -1 0.5 -11 
0.5 9 0.5 -7 0.5 10 0.5 0 0.5 -9 0.5 -3.5 0.5 7.5 0.5 -5 
0.5 2.5 0.5 -1 0.5 -2.5 0.5 10 0.5 -7.5 0.5 6.5 0.5 -6 0.5 12 
0.5 -17 0.5 5.5 0.5 7 0.5 -4.5 0.5 10.5 0.5 -8 0.5 -1 0.5 6 
0.5 -11.5 0.5 6.5 0 0.5 0.5 4.5 0.5 -1.5 0.5 -2 0.5 -9 0.5 -1 
0.5 3.5 0.5 -6 0.5 16.5 0.5 -9.5 0.5 2.5 0.5 -3 0.5 -9 0.5 5.5 
0.5 -8 0.5 12.5 0.5 6 0.5 -1 0.5 9 0.5 -8.5 0.5 -10.5 0.5 4.5 
0.5 7 0.5 -19.5 0.5 3 0.5 10 0.5 -2 0.5 -4 0.5 -1 0.5 10 
0.5 -7.5 0.5 5.5 0.5 14.5 0.5 -16.5 0.5 12.5 0.5 -11 0.5 -2.5 0.5 8.5 
0.5 -12.5 0.5 5.5 0.5 1 0.5 0.5 0.5 9 0.5 -4.5 0.5 -4 0.5 8 
0.5 -1.5 0.5 -2 0.5 0 0 1.5 0.5 -4.5 0.5 6.5 0.5 -10 0.5 -1 
0.5 9.5 0.5 -1 0.5 -5.5 0.5 8 0.5 -6 0.5 8.5 0.5 -1.5 0.5 3.5 
0.5 -0.5 S
1148.5 777.5 0.5 -12.5 0.5 13.5 0.5 5 0.5 -3 0.5 3 0.5 1.5 0.5 -2.5 
0.5 -3 0.5 0 0.5 -8.5 0.5 -4.5 0.5 -0.5 0.5 -3 0.5 -6 0.5 8 
0.5 12.5 0.5 -12 0.5 7 0.5 -11 0.5 -3.5 0.5 -2 0.5 1.5 0.5 17 
0.5 -16 0.5 12 0.5 20 0.5 -9 0.5 0.5 0.5 -7.5 0.5 -4.5 0.5 6 
0.5 0 0.5 -11.5 0.5 15.5 0.5 -7 0 7.5 0.5 2.5 0.5 5.5 0.5 -10.5 
0.5 6 0.5 2 0.5 -3 0.5 3 0.5 -3.5 0.5 0 0.5 -1.5 0.5 7 
0.5 -36.5 0.5 20.5 0.5 -3 0.5 4 0.5 -9 0.5 -0.5 0.5 -1.5 0.5 -2 
0.5 11 0.5 1 0.5 2.5 0.5 4 0.5 14.5 0.5 -29 0.5 10 0.5 -6.5 
0.5 16 0.5 -14.5 0.5 6 0.5 -5.5 0.5 3 0.5 -3.5 0.5 1 0.5 -1.5 
0.5 -0.5 0.5 -7 0.5 12.5 0.5 -9 0.5 6 0.5 9 0.5 -12.5 0.5 5.5 
0.5 -6 0.5 13.5 0.5 -10.5 0.5 5 0.5 4 0 2 0.5 1.5 0.5 8 
0.5 -17.5 0.5 5 0.5 10.5 0.5 -6 0.5 6 0.5 -2 0.5 -14 0.5 9.5 
0.5 1.5 0.5 -0.5 0.5 1 0.5 -4 0.5 -0.5 0.5 7.5 0.5 1.5 0.5 -14 
0.5 -3.5 S
1199.5 770.5 0.5 17.5 0.5 -12 0.5 10.5 0.5 -9.5 0.5 4 0.5 14 0.5 7 
0.5 -13 0.5 -9 0.5 -20 0.5 8.5 0.5 -6 0.5 -3.5 0.5 8 0.5 0.5 
0.5 3 0.5 -11.5 0.5 1 0.5 5 0.5 -1 0.5 2.5 0.5 2 0.5 9 
0.5 -0.5 0.5 -3 0.5 -2 0.5 -2 0.5 -4.5 0.5 15.5 0 -14 0.5 -3 
0.5 -2 0.5 0.5 0.5 13.5 0.5 -8 0.5 5 0.5 -17.5 0.5 6.5 0.5 9.5 
0.5 -2.5 0.5 9 0.5 -14.5 0.5 -0.5 0.5 -2 0.5 0 0.5 -2 0.5 -8.5 
0.5 6 0.5 -7.5 0.5 11 0.5 -4 0.5 -6.5 0.5 18.5 0.5 0 0.5 2 
0.5 -7.5 0.5 7 0.5 1 0.5 -3 0.5 10 0.5 -21.5 0.5 20.5 0.5 -30.5 
0.5 21 0.5 -15.5 0.5 -0.5 0.5 13.5 0.5 1.5 0.5 -11.5 0.5 9.5 0.5 11.5 
0.5 -15 0.5 6.5 0.5 9 0.5 -18 0.5 19.5 0.5 -6.5 0.5 11 0 -2 
0.5 0.5 0.5 -9 0.5 -1 0.5 -4.5 0.5 -2 0.5 -3 0.5 8.5 0.5 10.5 
0.5 -7 0.5 -3.5 0.5 3 0.5 10.5 0.5 -13 0.5 12 0.5 6 0.5 -4 
0.5 2.5 0.5 4.5 0.5 -6 0.5 -7.5 0.5 7 0.5 0.5 0.5 -0.5 0.5 -6.5 
0.5 4.5 S
1250.5 782.5 0.5 -7 0.5 5 0.5 -13.5 0.5 6.5 0.5 6 0.5 -14 0.5 -5 
0.5 3 0.5 1 0.5 -4.5 0.5 2.5 0.5 12 0.5 -2 0.5 -5.5 0.5 -1.5 
0.5 2.5 0.5 0.5 0.5 11 0.5 1 0.5 -4 0.5 8.5 0.5 -5 0.5 -1.5 
0 -9 0.5 10.5 0.5 0.5 0.5 -0.5 0.5 -13 0.5 13.5 0.5 -4 0.5 -3 
0.5 -3 0.5 -10.5 0.5 7 0.5 3.5 0.5 0.5 0.5 -6 0.5 5.5 0.5 -15 
0.5 18.5 0.5 -16 0.5 13 0.5 -6 0.5 -1 0.5 4 0.5 -1.5 0.5 1 
0.5 -5.5 0.5 9.5 0.5 -7 0.5 7.5 0.5 0.5 0.5 -7 0.5 9 0.5 -11.5 
0.5 5.5 0.5 7.5 0.5 -6.5 0.5 -1.5 0.5 7.5 0.5 -7 0.5 1.5 0.5 4 
0.5 -11 0.5 1.5 0.5 10.5 0.5 -15.5 0.5 12 0.5 -1.5 0.5 1 0.5 12.5 
0.5 -9.5 0 8 0.5 -6 0.5 9.5 0.5 -3.5 0.5 -17 0.5 -4.5 0.5 18 
0.5 -3 0.5 16 0.5 -34.5 0.5 13.5 0.5 2.5 0.5 -8.5 0.5 2.5 0.5 7 
0.5 -1.5 0.5 -6 0.5 -5.5 0.5 17.5 0.5 -3.5 0.5 -12 0.5 7 0.5 -14 
0.5 2 0.5 18.5 0.5 -26 0.5 7.5 0.5 7.5 0.5 4.5 0.5 -11.5 0.5 -1 
0.5 2.5 S
1301.5 760 0.5 9.5 0.5 5 0.5 -3 0.5 -7.5 0.5 12 0.5 -18 0.5 -5.5 
0.5 0.5 0.5 1.5 0.5 8 0.5 9.5 0.5 -0.5 0.5 3 0.5 -10.5 0.5 8 
0.5 -1.5 0.5 9 0 -0.5 0.5 -8 0.5 -4.5 0.5 -4 0.5 10.5 0.5 -4.5 
0.5 11 0.5 -23.5 0.5 17 0.5 -3.5 0.5 -9 0.5 -2 0.5 6.5 0.5 -17.5 
0.5 10.5 0.5 -14.5 0.5 16 0.5 2.5 0.5 -26 0.5 -2 0.5 25 0.5 -13.5 
0.5 -3 0.5 3.5 0.5 13.5 0.5 -3.5 0.5 -2.5 0.5 -5.5 0.5 -3 0.5 10 
0.5 -3.5 0.5 13 0.5 -7.5 0.5 4 0.5 -3.5 0.5 3 0.5 5.5 0.5 -1.5 
0.5 3 0.5 6 0.5 -13 0.5 4.5 0.5 5 0.5 -2 0.5 -5.5 0.5 4 
0.5 -10.5 0.5 17.5 0.5 -7.5 0 -8.5 0.5 1 0.5 -2.5 0.5 3 0.5 -2 
0.5 1.5 0.5 5.5 0.5 -12 0.5 5 0.5 -1.5 0.5 14 0.5 -9.5 0.5 7 
0.5 -1.5 0.5 -1.5 0.5 -10.5 0.5 3 0.5 2.5 0.5 -6 0.5 10.5 0.5 3.5 
0.5 -12.5 0.5 1 0.5 3.5 0.5 -0.5 0.5 9 0.5 2.5 0.5 -11.5 0.5 2 
0.5 -2.5 0.5 11 0.5 -6 0.5 -6 0.5 4.5 0.5 -3 0.5 -5 0.5 8.5 
0.5 -17 S
1352.5 745 0.5 29.5 0.5 -3.5 0.5 -4 0.5 11 0.5 -7.5 0.5 -0.5 0.5 -4 
0.5 10.5 0.5 -10.5 0.5 -5 0.5 4.5 0 0.5 0.5 1 0.5 -9 0.5 3.5 
0.5 5 0.5 1.5 0.5 3.5 0.5 -11 0.5 6.5 0.5 -8.5 0.5 1 0.5 2.5 
0.5 -1.5 0.5 4 0.5 -1 0.5 6 0.5 -5 0.5 -5.5 0.5 -22.5 0.5 18.5 
0.5 6.5 0.5 -11.5 0.5 -4 0.5 7 0.5 -5 0.5 4 0.5 -5 0.5 7 
0.5 15.5 0.5 -2.5 0.5 -16 0.5 0.5 0.5 19 0.5 -2 0.5 -1.5 0.5 2.5 
0.5 3 0.5 -12 0.5 9.5 0.5 7.5 0.5 1.5 0.5 -9 0.5 8.5 0.5 -11 
0.5 19 0.5 -12 0.5 3 0.5 -6 0.5 12.5 0 -21.5 0.5 26.5 0.5 2 
0.5 -9 0.5 -2.5 0.5 -3.5 0.5 5.5 0.5 -17 0.5 2.5 0.5 6.5 0.5 13.5 
0.5 12 0.5 -5.5 0.5 6 0.5 8 0.5 -8.5 0.5 -10.5 0.5 1 0.5 9 
0.5 -4 0.5 -5.5 0.5 -7 0.5 4 0.5 13 0.5 -5 0.5 -11 0.5 16.5 
0.5 4 0.5 -38.5 0.5 17.5 0.5 2 0.5 0 0.5 -2.5 0.5 -13.5 0.5 6.5 
0.5 -1.5 0.5 5.5 0.5 -4 0.5 7 0.5 6 0.5 2.5 0.5 -37.5 0.5 5.5 
0.5 34 S
1403.5 792.5 0.5 -29 0.5 5 0.5 0.5 0.5 1 0.5 -2 0 -4 0.5 0 
0.5 6 0.5 -11.5 0.5 0.5 0.5 8 0.5 -7 0.5 -1 0.5 7.5 0.5 -9.5 
0.5 -6.5 0.5 10 0.5 4.5 0.5 -6 0.5 -6.5 0.5 1.5 0.5 3.5 0.5 -1.5 
0.5 3 0.5 5 0.5 6 0.5 -11 0.5 5.5 0.5 5 0.5 -5.5 0.5 -12.5 
0.5 19.5 0.5 -1 0.5 0.5 0.5 -5 0.5 -0.5 0.5 -11 0.5 16 0.5 -19.5 
0.5 15 0.5 1 0.5 0 0.5 15 0.5 -7 0.5 6.5 0.5 -3.5 0.5 -4.5 
0.5 18.5 0.5 -6.5 0.5 -7.5 0.5 -6.5 0.5 -4 0.5 -104.5 0.5 48.5 0.5 28 
0.5 9.5 0.5 12 0.5 3.5 0.5 -13 0.5 12.5 0.5 18.5 0.5 -12 0.5 -9.5 
0.5 2.5 0.5 20 0.5 -3.5 0.5 -15 0.5 -9 0.5 11 0.5 -1 0.5 2 
0.5 2.5 0.5 -3 0.5 -12 0.5 28.5 0.5 -10.5 0.5 -7.5 0.5 4.5 0.5 1 
0.5 -16 0.5 22 0.5 -23 0.5 9 0.5 -8 0.5 2 0.5 -12.5 0.5 4.5 
0.5 2.5 0.5 -6 0.5 12 0.5 -0.5 0.5 2.5 0.5 -4 0.5 10 0.5 -7 
0.5 5 0.5 -11 0.5 11 0.5 -11.5 0.5 9.5 0.5 -15.5 0.5 0.5 0 4.5 
0.5 8.5 S
1454.5 759.5 0.5 2 0.5 -0.5 0.5 10 0.5 -3.5 0.5 -1 0.5 7 0.5 -4.5 
0.5 1.5 0.5 -14.5 0.5 10 0.5 8.5 0.5 -5 0.5 -3.5 0.5 -6 0.5 2 
0.5 6 0.5 -10 0.5 4 0.5 12 0.5 -5 0.5 -6 0.5 5.5 0.5 0.5 
0.5 1 0.5 8 0.5 -4 0.5 4 0.5 -17.5 0.5 1.5 0.5 -8 0.5 12.5 
0.5 2.5 0.5 -4.5 0.5 5 0.5 -3.5 0.5 -1 0.5 9.5 0.5 -16.5 0.5 -2.5 
0.5 7.5 0.5 -7 0.5 5.5 0.5 5 0.5 -2.5 0.5 -13 0.5 25 0.5 -10.5 
0 3.5 0.5 5 0.5 -1 0.5 -6.5 0.5 1.5 0.5 -6 0.5 -7.5 0.5 13.5 
0.5 5 0.5 -16 0.5 9 0.5 -4 0.5 8 0.5 11.5 0.5 -9.5 0.5 7.5 
0.5 0 0.5 -10 0.5 -8 0.5 -1.5 0.5 7.5 0.5 4 0.5 -3.5 0.5 3.5 
0.5 -4 0.5 -11.5 0.5 8.5 0.5 -5 0.5 -13.5 0.5 9.5 0.5 9.5 0.5 6 
0.5 -19 0.5 8.5 0.5 -1 0.5 -8 0.5 1 0.5 1.5 0.5 -9 0.5 9 
0.5 -2.5 0.5 13 0.5 1.5 0.5 -3.5 0.5 1 0.5 -2 0.5 4.5 0.5 -4 
0.5 9 0 -16.5 0.5 5.5 0.5 1.5 0.5 9 0.5 1.5 0.5 2 0.5 -10.5 
0.5 -2 S
1505.5 761.5 0.5 14.5 0.5 -7.5 0.5 -7.5 0.5 14.5 0.5 -6.5 0.5 4.5 0.5 -12 
0.5 3 0.5 2 0.5 8.5 0.5 -13 0.5 -2.5 0.5 15.5 0.5 7.5 0.5 -21 
0.5 0 0.5 3.5 0.5 -8.5 0.5 7 0.5 1 0.5 11.5 0.5 0.5 0.5 -7.5 
0.5 -6 0.5 4 0.5 12 0.5 -10 0.5 -2.5 0.5 7 0.5 -8.5 0.5 7 
0.5 -3 0.5 -2.5 0.5 11 0.5 -10.5 0.5 -5.5 0.5 -7 0.5 18 0.5 -11.5 
0.5 7 0.5 -3 0 1 0.5 -9.5 0.5 5 0.5 3.5 0.5 -13 0.5 10 
0.5 -1 0.5 11.5 0.5 -5 0.5 14 0.5 -4.5 0.5 0 0.5 7 0.5 -2 
0.5 -2.5 0.5 -1.5 0.5 8 0.5 -15 0.5 4.5 0.5 -11.5 0.5 13 0.5 12.5 
0.5 -21 0.5 2.5 0.5 -4.5 0.5 5 0.5 1.5 0.5 -9 0.5 -6.5 0.5 12.5 
0.5 4.5 0.5 -9 0.5 -3 0.5 -3 0.5 12.5 0.5 -6.5 0.5 -3.5 0.5 9 
0.5 -17 0.5 7.5 0.5 -1.5 0.5 16 0.5 2 0.5 -19.5 0.5 9.5 0.5 -12.5 
0.5 -8.5 0.5 15.5 0.5 6.5 0 -6.5 0.5 1.5 0.5 9 0.5 -10.5 0.5 4.5 
0.5 6.5 0.5 -9 0.5 5 0.5 -1 0.5 4 0.5 -6.5 0.5 1 0.5 2 
0.5 7.5 S
1556.5 776.5 0.5 -2.5 0.5 -13 0.5 23 0.5 -13.5 0.5 -4.5 0.5 2.5 0.5 1.5 
0.5 -1.5 0.5 7 0.5 -12 0.5 0.5 0.5 7.5 0.5 -1.5 0.5 2.5 0.5 0.5 
0.5 -0.5 0.5 -5.5 0.5 4.5 0.5 2 0.5 7.5 0.5 -7.5 0.5 -7 0.5 11 
0.5 17.5 0.5 -23.5 0.5 17 0.5 -9 0.5 -7.5 0.5 4.5 0.5 -5.5 0.5 9.5 
0.5 -2.5 0.5 7 0.5 -22 0.5 16.5 0 -14.5 0.5 11 0.5 -1 0.5 14 
0.5 -18.5 0.5 -0.5 0.5 5 0.5 2 0.5 -5.5 0.5 2 0.5 -6 0.5 5.5 
0.5 -4.5 0.5 6.5 0.5 -4.5 0.5 -2 0.5 0.5 0.5 -11 0.5 9.5 0.5 0 
0.5 -5.5 0.5 10.5 0.5 13.5 0.5 -17.5 0.5 11.5 0.5 9.5 0.5 -8.5 0.5 15 
0.5 -1.5 0.5 2 0.5 -3 0.5 -3 0.5 10 0.5 -1 0.5 -2.5 0.5 0 
0.5 0 0.5 -26.5 0.5 -3.5 0.5 -10 0.5 -0.5 0.5 6.5 0.5 -2.5 0.5 -6.5 
0.5 6 0.5 -9.5 0.5 17 0.5 3.5 0.5 -9.5 0 -7 0.5 18 0.5 -7 
0.5 -19.5 0.5 18.5 0.5 -2 0.5 1.5 0.5 9.5 0.5 -9 0.5 9.5 0.5 -11 
0.5 3 0.5 4 0.5 0.5 0.5 0.5 0.5 -10.5 0.5 1 0.5 11.5 0.5 3.5 
0.5 -7 S
1607.5 769.5 0.5 -1.5 0.5 1 0.5 0 0.5 5.5 0.5 6 0.5 -11.5 0.5 -0.5 
0.5 3.5 0.5 -2 0.5 -3.5 0.5 7 0.5 1.5 0.5 6.5 0.5 11 0.5 -12.5 
0.5 2.5 0.5 4 0.5 -3.5 0.5 -1 0.5 7 0.5 -1.5 0.5 -6.5 0.5 7 
0.5 -6 0.5 -7 0.5 4 0.5 11.5 0.5 -12.5 0.5 10 0 -9 0.5 0 
0.5 1.5 0.5 -5 0.5 -3 0.5 -10 0.5 3.5 0.5 3 0.5 -1.5 0.5 -6.5 
0.5 1.5 0.5 18 0.5 -5.5 0.5 -4 0.5 -4 0.5 1 0.5 8.5 0.5 -8.5 
0.5 14 0.5 -4 0.5 -1 0.5 -0.5 0.5 0 0.5 -7 0.5 11 0.5 5 
0.5 57.5 0.5 17 0.5 -12 0.5 13.5 0.5 -18.5 0.5 -46 0.5 5.5 0.5 -9 
0.5 0 0.5 7.5 0.5 -5.5 0.5 -18.5 0.5 2 0.5 5 0.5 -5.5 0.5 -11 
0.5 -18 0.5 13.5 0.5 -1.5 0.5 10.5 0.5 -1.5 0.5 -8 0.5 -5 0 9 
0.5 9.5 0.5 -9 0.5 1.5 0.5 -4 0.5 7.5 0.5 -20 0.5 19 0.5 -7.5 
0.5 9.5 0.5 3.5 0.5 2.5 0.5 37 0.5 -16.5 0.5 17.5 0.5 13.5 0.5 5 
0.5 -11.5 0.5 12 0.5 -7 0.5 15.5 0.5 5 0.5 20 0.5 4 0.5 -43 
0.5 6 S
1658.5 836.5 0.5 -27.5 0.5 -2 0.5 43 0.5 -52.5 0.5 7 0.5 45.5 0.5 -60.5 
0.5 18 0.5 28.5 0.5 2 0.5 -15 0.5 1 0.5 -47 0.5 3 0.5 14 
0.5 -14.5 0.5 14.5 0.5 5 0.5 -9 0.5 -4 0.5 -7 0.5 6 0.5 3 
0 -9 0.5 4.5 0.5 -5.5 0.5 -1 0.5 -5.5 0.5 -12.5 0.5 11 0.5 -2 
0.5 15.5 0.5 -11.5 0.5 9.5 0.5 -5.5 0.5 -13.5 0.5 -2 0.5 13.5 0.5 12 
0.5 -20 0.5 12 0.5 -4.5 0.5 -1 0.5 3 0.5 -1 0.5 -5.5 0.5 -9.5 
0.5 9.5 0.5 -5 0.5 11 0.5 -4 0.5 -0.5 0.5 -8.5 0.5 5.5 0.5 -11.5 
0.5 16.5 0.5 -5 0.5 4.5 0.5 -18.5 0.5 -5.5 0.5 31.5 0.5 14 0.5 -2.5 
0.5 1 0.5 10.5 0.5 37.5 0.5 10.5 0.5 -1.5 0.5 -30 0.5 1 0.5 -13.5 
0.5 -7 0.5 -10.5 0.5 9.5 0.5 19 0.5 34 0.5 -28.5 0.5 -7.5 0.5 13 
0.5 -8 0.5 -20.5 0.5 37.5 0.5 -39.5 0.5 8.5 0.5 -6.5 0.5 -12.5 0.5 10.5 
0.5 -4 0.5 31 0.5 -18.5 0.5 12 0.5 -27 0.5 -1 0.5 11.5 0.5 -17.5 
0.5 20 0.5 -12.5 0.5 0.5 0.5 -0.5 0.5 11.5 0.5 -16 0.5 11 0.5 12.5 
0.5 -0.5 S
1710 810.5 0.5 -12.5 0.5 8.5 0.5 -9.5 0.5 14 0.5 9.5 0.5 -6 0.5 -9 
0.5 -11.5 0.5 16.5 0.5 -21 0.5 -7 0.5 7.5 0.5 7.5 0.5 8.5 0.5 -29 
0.5 19 0 -3.5 0.5 -1.5 0.5 7 0.5 -4.5 0.5 24.5 0.5 -33.5 0.5 6 
0.5 4.5 0.5 -3 0.5 1.5 0.5 -6.5 0.5 4.5 0.5 11.5 0.5 7.5 0.5 2.5 
0.5 -20.5 0.5 7.5 0.5 23.5 0.5 -22.5 0.5 3 0.5 3.5 0.5 -14.5 0.5 2.5 
0.5 13 0.5 -19.5 0.5 3 0.5 15 0.5 11 0.5 -2 0.5 16.5 0.5 -11.5 
0.5 -26.5 0.5 -1.5 0.5 -8 0.5 17.5 0.5 12 0.5 -6.5 0.5 -8 0.5 -2 
0.5 1 0.5 1 0.5 6.5 0.5 -20 0.5 4 0.5 64.5 0.5 14 0.5 -57.5 
0.5 -3 0.5 -11.5 0 -1 0.5 14 0.5 -1 0.5 3 0.5 -13 0.5 5 
0.5 -5 0.5 5 0.5 -1 0.5 3.5 0.5 14 0.5 5 0.5 16 0.5 -34.5 
0.5 10.5 0.5 -4 0.5 9.5 0.5 -20 0.5 14.5 0.5 -6 0.5 9 0.5 -9 
0.5 8 0.5 -11.5 0.5 -33 0.5 9 0.5 9 0.5 3.5 0.5 -12.5 0.5 4 
0.5 5.5 0.5 5 0.5 -20 0.5 12.5 0.5 10 0.5 0 0.5 1 0.5 7.5 
0.5 -7.5 S
1761 802 0.5 3 0.5 -23 0.5 15.5 0.5 -6.5 0.5 -1.5 0.5 0 0.5 -0.5 
0.5 -7 0.5 12 0.5 -3.5 0 -4 0.5 11.5 0.5 9 0.5 -15.5 0.5 4 
0.5 -10.5 0.5 -3 0.5 -9 0.5 22 0.5 -5 0.5 -5 0.5 8.5 0.5 -16.5 
0.5 10.5 0.5 21.5 0.5 -22.5 0.5 14.5 0.5 2 0.5 3 0.5 8.5 0.5 -26 
0.5 20 0.5 -7 0.5 -11.5 0.5 10 0.5 7 0.5 -5.5 0.5 -9.5 0.5 7 
0.5 -12.5 0.5 8 0.5 -1.5 0.5 0 0.5 -23 0.5 11.5 0.5 18.5 0.5 -17 
0.5 4.5 0.5 7 0.5 -7 0.5 4 0.5 -4 0.5 -6 0.5 6 0.5 4 
0.5 -12.5 0.5 -1 0.5 -2 0.5 8 0 16.5 0.5 -13 0.5 -2.5 0.5 10.5 
0.5 -0.5 0.5 -0.5 0.5 1 0.5 -9 0.5 11 0.5 -18 0.5 13.5 0.5 -19 
0.5 15.5 0.5 4.5 0.5 -6 0.5 9.5 0.5 1 0.5 -9 0.5 -1 0.5 -1.5 
0.5 4.5 0.5 -5.5 0.5 16.5 0.5 -2 0.5 -12.5 0.5 0 0.5 -2 0.5 -6 
0.5 6.5 0.5 9.5 0.5 -17 0.5 12.5 0.5 -2 0.5 5.5 0.5 -6 0.5 0.5 
0.5 -7.5 0.5 10 0.5 -4 0.5 -5 0.5 19 0.5 -7 0.5 -6 0.5 18.5 
0.5 -16 S
1812 791.5 0.5 4 0.5 1.5 0.5 15 0.5 -11 0 -8 0.5 3 0.5 10.5 
0.5 -21 0.5 8.5 0.5 -6 0.5 0.5 0.5 -12.5 0.5 14 0.5 10.5 0.5 -1.5 
0.5 1.5 0.5 3 0.5 3 0.5 8 0.5 -11 0.5 -8 0.5 8.5 0.5 -13 
0.5 28 0.5 18 0.5 7 0.5 10 0.5 -7 0.5 -15 0.5 8 0.5 -5 
0.5 -8.5 0.5 9 0.5 6 0.5 11 0.5 -17.5 0.5 -13.5 0.5 -15.5 0.5 -26 
0.5 7.5 0.5 -1.5 0.5 0 0.5 15 0.5 -8 0.5 -5.5 0.5 9 0.5 -1.5 
0.5 8 0.5 1.5 0.5 -10.5 0.5 5 0.5 -5 0.5 -15 0 8 0.5 -16 
0.5 -6 0.5 23.5 0.5 -6.5 0.5 11 0.5 2 0.5 -12 0.5 11 0.5 -12 
0.5 4.5 0.5 6.5 0.5 60.5 0.5 -76 0.5 -8.5 0.5 161 0.5 -114 0.5 -28 
0.5 9.5 0.5 14.5 0.5 -3.5 0.5 12 0.5 -4 0.5 -2.5 0.5 -2.5 0.5 2.5 
0.5 15 0.5 -3 0.5 -24 0.5 13.5 0.5 -17 0.5 1.5 0.5 -4.5 0.5 -5.5 
0.5 13.5 0.5 -1 0.5 3.5 0.5 3.5 0.5 -7 0.5 10 0.5 -3 0.5 -9.5 
0.5 6.5 0.5 -9.5 0.5 10.5 0.5 -9.5 0.5 29 0.5 0 0.5 -6.5 0 6 
0.5 11.5 S
1862.5 838 0.5 -21 0.5 -5.5 0.5 6.5 0.5 -1.5 0.5 17 0.5 -15.5 0.5 6 
0.5 -12 0.5 -15 0.5 -9.5 0.5 15.5 0.5 7.5 0.5 -13 0.5 -7.5 0.5 6 
0.5 16.5 0.5 -1.5 0.5 5 0.5 -18.5 0.5 4.5 0.5 -11 0.5 9 0.5 -15 
0.5 5 0.5 14.5 0.5 -2 0.5 6.5 0.5 7 0.5 -18 0.5 8.5 0.5 0.5 
0.5 -6.5 0.5 -20.5 0.5 -3.5 0.5 12.5 0.5 -8 0.5 2.5 0.5 18.5 0.5 -15.5 
0.5 -15.5 0.5 16.5 0.5 -14.5 0.5 6.5 0.5 -11.5 0.5 8 0.5 0.5 0.5 -11 
0 -5 0.5 12 0.5 -1 0.5 2 0.5 1.5 0.5 -12 0.5 -6 0.5 9 
0.5 3.5 0.5 -3.5 0.5 -7 0.5 4.5 0.5 3 0.5 -4.5 0.5 10 0.5 -8 
0.5 -1 0.5 7 0.5 2 0.5 -14 0.5 10 0.5 0 0.5 10.5 0.5 4 
0.5 -12 0.5 5 0.5 -8 0.5 -10.5 0.5 19.5 0.5 -6 0.5 2 0.5 5.5 
0.5 4.5 0.5 -10.5 0.5 3.5 0.5 3 0.5 -3 0.5 -4.5 0.5 9.5 0.5 6 
0.5 -3 0.5 -8 0.5 9.5 0.5 12 0.5 -12.5 0.5 7 0.5 5.5 0.5 -17.5 
0.5 2.5 0 5 0.5 -9.5 0.5 -6.5 0.5 5 0.5 -7 0.5 -5 0.5 19.5 
0.5 -18.5 S
1913.5 765 0.5 10.5 0.5 12.5 0.5 -11 0.5 -0.5 0.5 4.5 0.5 -17 0.5 16 
0.5 -21 0.5 3.5 0.5 21 0.5 -10.5 0.5 -10 0.5 13.5 0.5 9.5 0.5 14.5 
0.5 -17.5 0.5 0 0.5 -4 0.5 -1.5 0.5 -0.5 0.5 5.5 0.5 -7.5 0.5 -11 
0.5 -4 0.5 5.5 0.5 2 0.5 -0.5 0.5 7 0.5 -8.5 0.5 -1.5 0.5 -3.5 
0.5 7.5 0.5 -1 0.5 -10.5 0.5 4.5 0.5 13 0.5 -4.5 0.5 -21 0.5 12 
0.5 1 0.5 -8.5 0 7 0.5 11.5 0.5 1 0.5 -16 0.5 -6.5 0.5 6.5 
0.5 -1 0.5 0 0.5 11 0.5 -10 0.5 12 0.5 -4 0.5 8 0.5 3 
0.5 -5 0.5 0.5 0.5 2 0.5 6 0.5 -0.5 0.5 -1 0.5 19.5 0.5 -22 
0.5 6 0.5 -1.5 0.5 -1 0.5 3.5 0.5 -2.5 0.5 -9.5 0.5 6 0.5 -7 
0.5 8.5 0.5 -17.5 0.5 18.5 0.5 13.5 0.5 -5 0.5 7 0.5 3 0.5 -12 
0.5 7.5 0.5 -15 0.5 2.5 0.5 4.5 0.5 3.5 0.5 -0.5 0.5 -10.5 0.5 -5.5 
0.5 -6.5 0.5 13 0.5 -5.5 0 -10 0.5 0.5 0.5 7 0.5 16.5 0.5 -8 
0.5 -5.5 0.5 -6 0.5 1 0.5 14.5 0.5 12 0.5 -6.5 0.5 -4.5 0.5 16.5 
0.5 -16 S
1964.5 784 0.5 -1.5 0.5 2 0.5 1 0.5 -2.5 0.5 7 0.5 -7.5 0.5 -0.5 
0.5 -16 0.5 13.5 0.5 8 0.5 1.5 0.5 -2 0.5 6 0.5 2 0.5 -12.5 
0.5 6 0.5 -18.5 0.5 10.5 0.5 2.5 0.5 -0.5 0.5 -11 0.5 -2.5 0.5 -5 
0.5 25 0.5 -21.5 0.5 1.5 0.5 -5.5 0.5 -4 0.5 18.5 0.5 -4.5 0.5 -16 
0.5 7 0.5 -2.5 0.5 3 0.5 -3 0 12.5 0.5 -9.5 0.5 -17.5 0.5 31 
0.5 -17.5 0.5 8 0.5 3.5 0.5 -7.5 0.5 -3 0.5 12.5 0.5 -7 0.5 18 
0.5 -3 0.5 -19.5 0.5 9.5 0.5 -11 0.5 6 0.5 6 0.5 5.5 0.5 4 
0.5 3 0.5 -7.5 0.5 -8.5 0.5 4.5 0.5 -10 0.5 11.5 0.5 -3 0.5 10 
0.5 -9.5 0.5 7.5 0.5 -1 0.5 -9.5 0.5 39.5 0.5 2 0.5 -35 0.5 23.5 
0.5 -9.5 0.5 3 0.5 -6.5 0.5 2.5 0.5 6.5 0.5 3 0.5 -13.5 0.5 8.5 
0.5 -7 0.5 -9 0.5 6.5 0.5 -9 0.5 -10 0 2.5 0.5 7.5 0.5 -1 
0.5 16 0.5 -6.5 0.5 -18 0.5 9 0.5 0.5 0.5 0.5 0.5 -8 0.5 -5 
0.5 15 0.5 -5 0.5 1 0.5 4 0.5 72 0.5 -171 0.5 -8.5 0.5 456.5 
0.5 -282.5 S
2015.5 845 0.5 28.5 0.5 187.5 0.5 -374 0.5 182 0.5 -72 0.5 -5 0.5 -17 
0.5 10.5 0.5 9.5 0.5 -6 0.5 -9 0.5 -17 0.5 2.5 0.5 -1.5 0.5 2 
0.5 -17.5 0.5 1.5 0.5 16.5 0.5 1.5 0.5 -14 0.5 20 0.5 -6 0.5 -14.5 
0.5 12 0.5 -19.5 0.5 20.5 0.5 -11.5 0.5 10.5 0.5 -0.5 0 -1.5 0.5 -6.5 
0.5 10.5 0.5 -15 0.5 22.5 0.5 -5.5 0.5 13.5 0.5 -19 0.5 10.5 0.5 -10 
0.5 8 0.5 2 0.5 -2.5 0.5 -7 0.5 1.5 0.5 -5.5 0.5 1.5 0.5 -4 
0.5 7.5 0.5 16.5 0.5 -7.5 0.5 -11.5 0.5 1 0.5 4.5 0.5 4 0.5 -18 
0.5 11.5 0.5 11.5 0.5 -14 0.5 -7.5 0.5 7.5 0.5 -1.5 0.5 2 0.5 3.5 
0.5 10 0.5 -0.5 0.5 4 0.5 0.5 0.5 -20.5 0.5 6.5 0.5 -0.5 0.5 22.5 
0.5 4 0.5 -8 0.5 0.5 0.5 6.5 0.5 4 0.5 -20.5 0.5 10 0 -10.5 
0.5 23.5 0.5 2 0.5 -30 0.5 10.5 0.5 5 0.5 19 0.5 -24 0.5 7 
0.5 -7 0.5 4 0.5 1 0.5 -4.5 0.5 11.5 0.5 -12 0.5 4 0.5 13.5 
0.5 7 0.5 -11.5 0.5 -2.5 0.5 26 0.5 -10 0.5 -31.5 0.5 22.5 0.5 1.5 
0.5 -33 S
2066.5 768 0.5 30.5 0.5 -8 0.5 0.5 0.5 -11 0.5 8 0.5 -6 0.5 2.5 
0.5 -3.5 0.5 -7.5 0.5 -10.5 0.5 3 0.5 14 0.5 -21 0.5 17 0.5 2.5 
0.5 21 0.5 -30 0.5 20 0.5 -35.5 0.5 8 0.5 16 0.5 -1.5 0.5 2 
0 1.5 0.5 -13 0.5 11.5 0.5 2.5 0.5 6 0.5 -5 0.5 -3 0.5 -15.5 
0.5 7.5 0.5 2.5 0.5 -13 0.5 -10 0.5 40 0.5 -12.5 0.5 -1 0.5 -0.5 
0.5 4.5 0.5 -6 0.5 8 0.5 -3.5 0.5 18.5 0.5 -13.5 0.5 3 0.5 3.5 
0.5 -0.5 0.5 -17.5 0.5 20 0.5 0 0.5 -12.5 0.5 -0.5 0.5 15.5 0.5 2.5 
0.5 -9.5 0.5 20.5 0.5 -23.5 0.5 0 0.5 -1.5 0.5 8.5 0.5 0 0.5 -27 
0.5 9 0.5 7.5 0.5 10 0.5 -2 0.5 1 0.5 -8 0.5 11 0.5 2.5 
0.5 -23 0 12 0.5 -19.5 0.5 7 0.5 27.5 0.5 -30.5 0.5 19.5 0.5 -5 
0.5 3.5 0.5 -6 0.5 -2 0.5 7 0.5 -3.5 0.5 2.5 0.5 6 0.5 -7.5 
0.5 1 0.5 7.5 0.5 -4 0.5 11.5 0.5 -6.5 0.5 -12 0.5 5.5 0.5 -8 
0.5 -8 0.5 15 0.5 10 0.5 -14 0.5 -19.5 0.5 16 0.5 -3.5 0.5 3.5 
0.5 -7.5 S
2117.5 771.5 0.5 7.5 0.5 12 0.5 -9.5 0.5 2 0.5 -10.5 0.5 -3 0.5 7 
0.5 11 0.5 -7 0.5 -4 0.5 -6 0.5 -2.5 0.5 4.5 0.5 13.5 0.5 0 
0.5 14.5 0.5 -40 0 6 0.5 15.5 0.5 10 0.5 41 0.5 -168.5 0.5 0.5 
0.5 0 0.5 0.5 0.5 2 0.5 23 0.5 154.5 0.5 -107.5 0.5 -4.5 0.5 7 
0.5 2.5 0.5 8 0.5 9 0.5 14 0.5 -4.5 0.5 0.5 0.5 0.5 0.5 -1 
0.5 2.5 0.5 20.5 0.5 -21 0.5 9.5 0.5 -7 0.5 -11 0.5 13 0.5 3.5 
0.5 4 0.5 -10 0.5 -9 0.5 10 0.5 12 0.5 -19.5 0.5 15.5 0.5 2.5 
0.5 12 0.5 -17.5 0.5 3.5 0.5 -7 0.5 7.5 0.5 -8.5 0.5 -1.5 0.5 11.5 
0.5 -2 0.5 -9.5 0.5 7.5 0 -7.5 0.5 17.5 0.5 -6 0.5 -6 0.5 5.5 
0.5 3 0.5 9.5 0.5 -6.5 0.5 14 0.5 -4.5 0.5 -10 0.5 -3.5 0.5 8 
0.5 3.5 0.5 -3 0.5 -4.5 0.5 -14.5 0.5 3.5 0.5 14 0.5 -8 0.5 -3.5 
0.5 -0.5 0.5 -8 0.5 13 0.5 -8.5 0.5 14 0.5 -20 0.5 7.5 0.5 -1.5 
0.5 -14.5 0.5 14.5 0.5 0.5 0.5 1 0.5 -22.5 0.5 19 0.5 9.5 0.5 -22.5 
0.5 1.5 S
2168.5 764.5 0.5 -2.5 0.5 5.5 0.5 1.5 0.5 2.5 0.5 -4.5 0.5 -0.5 0.5 47.5 
0.5 -8.5 0.5 -28.5 0.5 35 0.5 -17 0 -13.5 0.5 30.5 0.5 -9 0.5 -9 
0.5 1 0.5 12.5 0.5 -29.5 0.5 0.5 0.5 11 0.5 -18 0.5 8 0.5 -16.5 
0.5 20.5 0.5 -12 0.5 15 0.5 15.5 0.5 -13.5 0.5 1 0.5 -1 0.5 9 
0.5 -1.5 0.5 -1 0.5 11.5 0.5 7.5 0.5 -5.5 0.5 6.5 0.5 -29.5 0.5 -3.5 
0.5 7 0.5 -7 0.5 0 0.5 -3 0.5 -22.5 0.5 18 0.5 1 0.5 -4.5 
0.5 10 0.5 7.5 0.5 6.5 0.5 4 0.5 -8 0.5 -2 0.5 -5 0.5 23.5 
0.5 -25.5 0.5 20 0.5 -21.5 0.5 22 0.5 -8.5 0 2.5 0.5 5 0.5 -2 
0.5 -7 0.5 -6 0.5 -3 0.5 -1 0.5 11 0.5 -2.5 0.5 11.5 0.5 -5 
0.5 -7.5 0.5 6 0.5 -5 0.5 -1 0.5 15 0.5 0 0.5 4.5 0.5 -4.5 
0.5 -11.5 0.5 -8 0.5 -26.5 0.5 22.5 0.5 -32.5 0.5 20 0.5 6 0.5 -12.5 
0.5 13.5 0.5 1 0.5 -2 0.5 0.5 0.5 -17.5 0.5 8.5 0.5 -2.5 0.5 -9.5 
0.5 9.5 0.5 -2 0.5 -4 0.5 -1.5 0.5 0.5 0.5 2.5 0.5 5 0.5 0.5 
0.5 -5 S
2219.5 760 0.5 11 0.5 -9.5 0.5 3.5 0.5 -7.5 0.5 17 0 -10 0.5 -2.5 
0.5 11 0.5 -15.5 0.5 4 0.5 -0.5 0.5 11.5 0.5 -7.5 0.5 2.5 0.5 7.5 
0.5 -5 0.5 0 0.5 -6 0.5 5.5 0.5 11.5 0.5 -3.5 0.5 -6 0.5 7 
0.5 -10 0.5 17.5 0.5 -5 0.5 -11.5 0.5 4 0.5 7.5 0.5 10.5 0.5 -23 
0.5 -4.5 0.5 10 0.5 -1.5 0.5 6.5 0.5 33.5 0.5 25.5 0.5 17.5 0.5 3 
0.5 -0.5 0.5 11.5 0.5 5 0.5 -12 0.5 4 0.5 -11 0.5 -8 0.5 -17 
0.5 -6.5 0.5 -47.5 0.5 -3 0.5 -2.5 0.5 -5.5 0.5 8.5 0.5 -13 0 10.5 
0.5 -5.5 0.5 -8 0.5 4 0.5 7.5 0.5 0.5 0.5 1.5 0.5 4.5 0.5 -4.5 
0.5 7 0.5 -2.5 0.5 1 0.5 -1 0.5 5.5 0.5 11.5 0.5 -13.5 0.5 -7.5 
0.5 4.5 0.5 -12.5 0.5 23.5 0.5 -11 0.5 -13.5 0.5 9 0.5 -5.5 0.5 -11.5 
0.5 9 0.5 0.5 0.5 3.5 0.5 5 0.5 -6 0.5 0 0.5 12.5 0.5 -2.5 
0.5 -9.5 0.5 13 0.5 -24.5 0.5 10 0.5 -8.5 0.5 4.5 0.5 -4 0.5 17 
0.5 -7.5 0.5 8.5 0.5 7.5 0.5 -10.5 0.5 2 0.5 3.5 0.5 -4.5 0.5 0 
0 3.5 S
2270 777.5 0.5 18 0.5 -22.5 0.5 -2 0.5 1.5 0.5 1 0.5 -5.5 0.5 -10 
0.5 8 0.5 -8 0.5 3.5 0.5 -3 0.5 -3 0.5 3.5 0.5 0.5 0.5 3.5 
0.5 -2.5 0.5 10 0.5 15 0.5 -23 0.5 3.5 0.5 13 0.5 -10.5 0.5 12.5 
0.5 -1.5 0.5 -7 0.5 2 0.5 -3.5 0.5 3 0.5 -3 0.5 4.5 0.5 -0.5 
0.5 9.5 0.5 5 0.5 -3 0.5 -3 0.5 -3.5 0.5 -3.5 0.5 4 0.5 10.5 
0.5 -21 0.5 -5.5 0.5 19 0.5 1.5 0.5 -13.5 0.5 -6 0.5 9.5 0.5 2.5 
0.5 -8.5 0 8.5 0.5 -24.5 0.5 4 0.5 7.5 0.5 -2.5 0.5 1 0.5 -0.5 
0.5 -13 0.5 24 0.5 2.5 0.5 -18 0.5 17.5 0.5 -4 0.5 0 0.5 4.5 
0.5 12.5 0.5 -23 0.5 4.5 0.5 12.5 0.5 -16 0.5 8.5 0.5 -5 0.5 -10 
0.5 0.5 0.5 20.5 0.5 -13 0.5 14.5 0.5 -11 0.5 -4 0.5 7.5 0.5 3.5 
0.5 9 0.5 -16.5 0.5 15.5 0.5 -30.5 0.5 2 0.5 29.5 0.5 -11.5 0.5 -6 
0.5 11.5 0.5 -19.5 0.5 -5 0.5 11 0.5 8.5 0.5 8 0.5 2.5 0.5 -14.5 
0.5 1 0.5 2.5 0 8.5 0.5 -6.5 0.5 -6 0.5 2 0.5 12 0.5 -1.5 
0.5 16.5 S
2321 801 0.5 -25.5 0.5 11 0.5 -5.5 0.5 -4.5 0.5 12 0.5 -8 0.5 7.5 
0.5 -6 0.5 2.5 0.5 -17.5 0.5 7 0.5 10.5 0.5 -16 0.5 4.5 0.5 7 
0.5 1.5 0.5 9.5 0.5 -6 0.5 -5 0.5 5.5 0.5 -1 0.5 -3 0.5 7 
0.5 -0.5 0.5 -12 0.5 12 0.5 -9 0.5 -13.5 0.5 10 0.5 -2.5 0.5 -0.5 
0.5 -1 0.5 4.5 0.5 -1 0.5 -6 0.5 18.5 0.5 11 0.5 -22.5 0.5 0.5 
0.5 9.5 0.5 -3.5 0.5 -28 0 8.5 0.5 3.5 0.5 8.5 0.5 -5.5 0.5 3.5 
0.5 -4 0.5 -10.5 0.5 17.5 0.5 0 0.5 -5 0.5 17 0.5 -16.5 0.5 14 
0.5 -2 0.5 1.5 0.5 -2 0.5 -3.5 0.5 7.5 0.5 -3.5 0.5 7 0.5 -17 
0.5 0 0.5 10.5 0.5 4 0.5 -6 0.5 -1.5 0.5 2.5 0.5 -13 0.5 -5.5 
0.5 10 0.5 0 0.5 -13 0.5 4 0.5 3 0.5 -5 0.5 -10 0.5 2.5 
0.5 4 0.5 -0.5 0.5 -1 0.5 11.5 0.5 -11.5 0.5 7 0.5 -2 0.5 13 
0.5 -11.5 0.5 -7 0.5 10.5 0.5 3 0 1 0.5 -7.5 0.5 14.5 0.5 2 
0.5 -4 0.5 -9.5 0.5 -5 0.5 12 0.5 -4 0.5 -7.5 0.5 8.5 0.5 1 
0.5 -12.5 S
2372 760.5 0.5 -5 0.5 11 0.5 8.5 0.5 -8.5 0.5 6 0.5 8.5 0.5 -13.5 
0.5 18.5 0.5 1 0.5 -0.5 0.5 -4 0.5 4 0.5 -11.5 0.5 6.5 0.5 -7.5 
0.5 -3 0.5 0.5 0.5 -2 0.5 8 0.5 -4.5 0.5 1 0.5 4.5 0.5 -6 
0.5 0 0.5 1.5 0.5 5 0.5 -3.5 0.5 0.5 0.5 1.5 0.5 -21.5 0.5 12 
0.5 -4 0.5 12.5 0.5 -2 0.5 -5.5 0.5 0 0 -9 0.5 20 0.5 -4 
0.5 -10 0.5 2.5 0.5 8.5 0.5 0.5 0.5 -6 0.5 -3 0.5 6.5 0.5 5.5 
0.5 -27.5 0.5 22 0.5 -25.5 0.5 3 0.5 17 0.5 0.5 0.5 2 0.5 -21 
0.5 1.5 0.5 1 0.5 9 0.5 0 0.5 -16 0.5 7.5 0.5 -3.5 0.5 5.5 
0.5 6 0.5 4 0.5 -17 0.5 12 0.5 -5.5 0.5 12 0.5 -9 0.5 9 
0.5 -3 0.5 -3.5 0.5 -11.5 0.5 -2.5 0.5 7.5 0.5 5.5 0.5 -2.5 0.5 -1 
0.5 -3 0.5 0.5 0.5 4.5 0.5 -1.5 0.5 -0.5 0.5 9 0.5 1.5 0.5 -7 
0.5 6 0.5 4.5 0.5 6.5 0.5 -15.5 0.5 -9.5 0.5 -2.5 0.5 10.5 0.5 9.5 
0.5 -14 0.5 4.5 0.5 12 0.5 -13 0.5 -2.5 0.5 -10 0.5 9.5 0.5 10.5 
0.5 8 S
2423.5 774.5 0.5 -11 0.5 -4 0.5 3 0.5 -5.5 0.5 6 0.5 5 0.5 -14 
0.5 11.5 0.5 5.5 0.5 -16.5 0.5 12.5 0.5 3 0.5 -8 0.5 13.5 0.5 -17.5 
0.5 -4.5 0.5 20 0.5 -4.5 0.5 0 0.5 7.5 0.5 -8.5 0.5 13.5 0.5 -11.5 
0.5 -3.5 0.5 1 0.5 2.5 0.5 7 0.5 -4.5 0.5 -0.5 0 -5 0.5 13 
0.5 10.5 0.5 -11 0.5 -0.5 0.5 -9 0.5 10 0.5 -4 0.5 2 0.5 -12 
0.5 16.5 0.5 -2 0.5 -4 0.5 8.5 0.5 2 0.5 -6 0.5 5 0.5 -18.5 
0.5 7.5 0.5 5.5 0.5 -14 0.5 1.5 0.5 -4.5 0.5 0 0.5 4 0.5 -15 
0.5 7 0.5 5 0.5 -5.5 0.5 -4.5 0.5 10 0.5 -5 0.5 6 0.5 -13.5 
0.5 1 0.5 4.5 0.5 -3.5 0.5 14 0.5 -8 0.5 -9 0.5 7.5 0.5 -9.5 
0.5 3 0.5 5 0.5 -4 0.5 6.5 0.5 -2.5 0.5 -4 0.5 21.5 0 -2 
0.5 2.5 0.5 -4.5 0.5 -1.5 0.5 11.5 0.5 -12 0.5 -3.5 0.5 -0.5 0.5 8.5 
0.5 3.5 0.5 -14.5 0.5 -7 0.5 8 0.5 8.5 0.5 -4.5 0.5 -8 0.5 -7 
0.5 7 0.5 -7 0.5 17 0.5 -6.5 0.5 8.5 0.5 4 0.5 -8.5 0.5 -6 
0.5 -2.5 S
2474.5 758 0.5 12.5 0.5 -10.5 0.5 6 0.5 9 0.5 -1.5 0.5 -9.5 0.5 4.5 
0.5 -0.5 0.5 -12.5 0.5 11.5 0.5 -0.5 0.5 7 0.5 -18.5 0.5 4 0.5 0 
0.5 4.5 0.5 -3 0.5 -2.5 0.5 5.5 0.5 -2 0.5 -13 0.5 10 0.5 13.5 
0 -1 0.5 -12.5 0.5 2.5 0.5 -1.5 0.5 12 0.5 -0.5 0.5 -4.5 0.5 0.5 
0.5 4.5 0.5 5 0.5 -18.5 0.5 12 0.5 0 0.5 0 0.5 4.5 0.5 -12.5 
0.5 0 0.5 -0.5 0.5 -2 0.5 4.5 0.5 13 0.5 5 0.5 -12 0.5 9 
0.5 -6.5 0.5 -6 0.5 -9.5 0.5 12 0.5 7.5 0.5 5 0.5 -5 0.5 -18.5 
0.5 5.5 0.5 -5.5 0.5 12 0.5 -3.5 0.5 13.5 0.5 -19 0.5 3 0.5 2 
0.5 -7 0.5 6 0.5 -10.5 0.5 6 0.5 -4.5 0.5 2 0.5 3 0.5 -9.5 
0.5 22 0 3 0.5 -6 0.5 -0.5 0.5 -4 0.5 -0.5 0.5 3 0.5 -2 
0.5 3 0.5 -10 0.5 -4 0.5 2.5 0.5 3.5 0.5 12 0.5 -3.5 0.5 -3.5 
0.5 -11.5 0.5 22.5 0.5 -12 0.5 -1.5 0.5 10 0.5 -7.5 0.5 2 0.5 -10 
0.5 16 0.5 2.5 0.5 -16.5 0.5 -2.5 0.5 6.5 0.5 7 0.5 5.5 0.5 -18.5 
0.5 17.5 S
2525.5 776 0.5 -0.5 0.5 -10.5 0.5 11 0.5 -16 0.5 5.5 0.5 1.5 0.5 -9.5 
0.5 -0.5 0.5 5.5 0.5 15 0.5 -14 0.5 -3.5 0.5 10 0.5 3 0.5 -3.5 
0.5 10 0.5 -20 0 18.5 0.5 -10.5 0.5 1.5 0.5 -2.5 0.5 4.5 0.5 -8 
0.5 16 0.5 -4 0.5 -6.5 0.5 3.5 0.5 -15.5 0.5 6.5 0.5 -2.5 0.5 13 
0.5 -3 0.5 3 0.5 -9.5 0.5 -5 0.5 -0.5 0.5 18 0.5 7 0.5 -25 
0.5 10.5 0.5 -0.5 0.5 -14 0.5 7.5 0.5 4 0.5 5 0.5 -13.5 0.5 18.5 
0.5 -17.5 0.5 -4 0.5 13.5 0.5 -1 0.5 -5.5 0.5 -7.5 0.5 11 0.5 0 
0.5 -13 0.5 -7.5 0.5 25 0.5 -5.5 0.5 -6.5 0.5 4 0.5 -4 0.5 -13 
0.5 4 0.5 17 0.5 -3.5 0 4.5 0.5 -5.5 0.5 10 0.5 -21 0.5 10 
0.5 3.5 0.5 2.5 0.5 4.5 0.5 -8.5 0.5 17 0.5 -23 0.5 8 0.5 2 
0.5 4 0.5 -6 0.5 2.5 0.5 6.5 0.5 -6 0.5 9 0.5 -8.5 0.5 15.5 
0.5 -6.5 0.5 9 0.5 -3.5 0.5 -0.5 0.5 1 0.5 -10.5 0.5 9 0.5 -6.5 
0.5 2 0.5 -13 0.5 6.5 0.5 -1 0.5 -11 0.5 9 0.5 -7 0.5 10 
0.5 0 S
2576.5 770 0.5 -9 0.5 -3.5 0.5 7.5 0.5 -5 0.5 2.5 0.5 -1 0.5 -2.5 
0.5 10 0.5 -7.5 0.5 6.5 0.5 -6 0 12 0.5 -17 0.5 5.5 0.5 7 
0.5 -4.5 0.5 10.5 0.5 -8 0.5 -1 0.5 6 0.5 -11.5 0.5 6.5 0.5 0.5 
0.5 4.5 0.5 -1.5 0.5 -2 0.5 -9 0.5 -1 0.5 3.5 0.5 -6 0.5 16.5 
0.5 -9.5 0.5 2.5 0.5 -3 0.5 -9 0.5 5.5 0.5 -8 0.5 12.5 0.5 6 
0.5 -1 0.5 9 0.5 -8.5 0.5 -10.5 0.5 4.5 0.5 7 0.5 -19.5 0.5 3 
0.5 10 0.5 -2 0.5 -4 0.5 -1 0.5 10 0.5 -7.5 0.5 5.5 0.5 14.5 
0.5 -16.5 0.5 12.5 0.5 -11 0.5 -2.5 0.5 8.5 0 -12.5 0.5 5.5 0.5 1 
0.5 0.5 0.5 9 0.5 -4.5 0.5 -4 0.5 8 0.5 -1.5 0.5 -2 0.5 0 
0.5 1.5 0.5 -4.5 0.5 6.5 0.5 -10 0.5 -1 0.5 9.5 0.5 -1 0.5 -5.5 
0.5 8 0.5 -6 0.5 8.5 0.5 -1.5 0.5 3.5 0.5 -0.5 0.5 -12.5 0.5 13.5 
0.5 5 0.5 -3 0.5 3 0.5 1.5 0.5 -2.5 0.5 -3 0.5 -7 0.5 -1.5 
0.5 -4.5 0.5 -0.5 0.5 -3 0.5 -6 0.5 8 0.5 12.5 0.5 -12 0.5 7 
0.5 -11 S
2627.5 761.5 0.5 -3.5 0.5 -2 0.5 1.5 0.5 17 0.5 -16 0 12 0.5 20 
0.5 -9 0.5 0.5 0.5 -7.5 0.5 -4.5 0.5 6 0.5 0 0.5 -11.5 0.5 8 
0.5 0.5 0.5 7.5 0.5 2.5 0.5 5.5 0.5 -10.5 0.5 6 0.5 2 0.5 -3 
0.5 3 0.5 -3.5 0.5 0 0.5 -1.5 0.5 7 0.5 35.5 0.5 20.5 0.5 -27 
0.5 4 0.5 -9 0.5 -0.5 0.5 -1.5 0.5 -2 0.5 11 0.5 1 0.5 2.5 
0.5 4 0.5 -33.5 0.5 -29 0.5 10 0.5 -6.5 0.5 16 0.5 -14.5 0.5 6 
0.5 -5.5 0.5 3 0.5 -3.5 0.5 1 0.5 -1.5 0.5 -0.5 0.5 -7 0 12.5 
0.5 -9 0.5 6 0.5 2 0.5 -5.5 0.5 5.5 0.5 -6 0.5 13.5 0.5 -10.5 
0.5 5 0.5 4 0.5 2 0.5 1.5 0.5 8 0.5 -17.5 0.5 5 0.5 10.5 
0.5 -6 0.5 6 0.5 -2 0.5 -14 0.5 9.5 0.5 1.5 0.5 -0.5 0.5 1 
0.5 -4 0.5 -0.5 0.5 7.5 0.5 1.5 0.5 -14 0.5 -3.5 0.5 17.5 0.5 -12 
0.5 10.5 0.5 -9.5 0.5 4 0.5 14 0.5 7 0.5 -13 0.5 -9 0.5 -20 
0.5 8.5 0.5 -6 0.5 -3.5 0.5 8 0.5 0.5 0.5 3 0.5 -11.5 0.5 1 
0 5 S
2678 765 0.5 -1 0.5 2.5 0.5 2 0.5 9 0.5 -0.5 0.5 -3 0.5 -2 
0.5 -2 0.5 -4.5 0.5 15.5 0.5 -14 0.5 -3 0.5 -2 0.5 0.5 0.5 13.5 
0.5 -8 0.5 5 0.5 -17.5 0.5 6.5 0.5 9.5 0.5 -2.5 0.5 9 0.5 -14.5 
0.5 -0.5 0.5 -2 0.5 0 0.5 -2 0.5 -8.5 0.5 6 0.5 -7.5 0.5 11 
0.5 -4 0.5 -6.5 0.5 18.5 0.5 0 0.5 2 0.5 -7.5 0.5 7 0.5 1 
0.5 -3 0.5 10 0.5 -21.5 0.5 20.5 0.5 -30.5 0.5 21 0.5 -15.5 0.5 -0.5 
0.5 13.5 0 1.5 0.5 -11.5 0.5 9.5 0.5 11.5 0.5 -15 0.5 6.5 0.5 9 
0.5 -18 0.5 19.5 0.5 -6.5 0.5 11 0.5 -2 0.5 0.5 0.5 -9 0.5 -1 
0.5 -4.5 0.5 -2 0.5 -3 0.5 8.5 0.5 10.5 0.5 -7 0.5 -3.5 0.5 3 
0.5 10.5 0.5 -13 0.5 12 0.5 6 0.5 -4 0.5 2.5 0.5 4.5 0.5 -6 
0.5 -7.5 0.5 7 0.5 0.5 0.5 -0.5 0.5 -6.5 0.5 4.5 0.5 -7 0.5 5 
0.5 -13.5 0.5 6.5 0.5 6 0.5 -14 0.5 -5 0.5 3 0.5 1 0.5 -4.5 
0.5 2.5 0.5 12 0 -2 0.5 -5.5 0.5 -1.5 0.5 2.5 0.5 0.5 0.5 11 
0.5 1 S
2729 780.5 0.5 -4 0.5 8.5 0.5 -5 0.5 -1.5 0.5 -9 0.5 10.5 0.5 0.5 
0.5 -0.5 0.5 -13 0.5 13.5 0.5 -4 0.5 -3 0.5 -3 0.5 -10.5 0.5 7 
0.5 3.5 0.5 0.5 0.5 -6 0.5 5.5 0.5 -15 0.5 18.5 0.5 -16 0.5 13 
0.5 -6 0.5 -1 0.5 4 0.5 -1.5 0.5 1 0.5 -5.5 0.5 9.5 0.5 -7 
0.5 7.5 0.5 0.5 0.5 -7 0.5 9 0.5 -11.5 0.5 5.5 0.5 7.5 0.5 -6.5 
0.5 -1.5 0.5 7.5 0.5 -7 0 1.5 0.5 4 0.5 -11 0.5 1.5 0.5 10.5 
0.5 -15.5 0.5 12 0.5 -1.5 0.5 1 0.5 12.5 0.5 -9.5 0.5 8 0.5 -6 
0.5 -2.5 0.5 8.5 0.5 -17 0.5 -4.5 0.5 18 0.5 -3 0.5 16 0.5 -34.5 
0.5 13.5 0.5 2.5 0.5 -8.5 0.5 2.5 0.5 7 0.5 -1.5 0.5 -6 0.5 -5.5 
0.5 17.5 0.5 -3.5 0.5 -12 0.5 7 0.5 -14 0.5 2 0.5 18.5 0.5 -26 
0.5 7.5 0.5 7.5 0.5 4.5 0.5 -11.5 0.5 -1 0.5 2.5 0.5 9.5 0.5 5 
0.5 -3 0.5 -7.5 0.5 12 0.5 -18 0 -5.5 0.5 0.5 0.5 1.5 0.5 8 
0.5 9.5 0.5 -0.5 0.5 3 0.5 -10.5 0.5 8 0.5 -1.5 0.5 9 0.5 -0.5 
0.5 -8 S
2780 771 0.5 -4.5 0.5 -4 0.5 10.5 0.5 -4.5 0.5 11 0.5 -23.5 0.5 17 
0.5 -3.5 0.5 -9 0.5 -2 0.5 6.5 0.5 -17.5 0.5 10.5 0.5 -14.5 0.5 16 
0.5 2.5 0.5 -26 0.5 -2 0.5 25 0.5 -13.5 0.5 -3 0.5 3.5 0.5 13.5 
0.5 -3.5 0.5 -2.5 0.5 -5.5 0.5 -3 0.5 10 0.5 -3.5 0.5 13 0.5 -7.5 
0.5 4 0.5 -3.5 0.5 3 0.5 5.5 0.5 -1.5 0 3 0.5 6 0.5 -13 
0.5 4.5 0.5 5 0.5 -2 0.5 -5.5 0.5 4 0.5 -10.5 0.5 17.5 0.5 -7.5 
0.5 -8.5 0.5 1 0.5 -2.5 0.5 3 0.5 -2 0.5 1.5 0.5 5.5 0.5 -12 
0.5 5 0.5 -1.5 0.5 14 0.5 -9.5 0.5 7 0.5 -1.5 0.5 -1.5 0.5 -10.5 
0.5 3 0.5 2.5 0.5 -6 0.5 10.5 0.5 3.5 0.5 -12.5 0.5 1 0.5 3.5 
0.5 -0.5 0.5 9 0.5 2.5 0.5 -11.5 0.5 2 0.5 -2.5 0.5 11 0.5 -6 
0.5 -6 0.5 4.5 0.5 -3 0.5 -5 0.5 8.5 0.5 -17 0 29.5 0.5 -3.5 
0.5 -4 0.5 11 0.5 -7.5 0.5 -0.5 0.5 -4 0.5 10.5 0.5 -10.5 0.5 -5 
0.5 4.5 0.5 0.5 0.5 1 0.5 -9 0.5 3.5 0.5 5 0.5 1.5 0.5 3.5 
0.5 -11 S
2831 760.5 0.5 6.5 0.5 -8.5 0.5 1 0.5 2.5 0.5 -1.5 0.5 4 0.5 -1 
0.5 6 0.5 -5 0.5 -5.5 0.5 -22.5 0.5 18.5 0.5 6.5 0.5 -11.5 0.5 -4 
0.5 7 0.5 -5 0.5 4 0.5 -5 0.5 7 0.5 15.5 0.5 -2.5 0.5 -16 
0.5 0.5 0.5 19 0.5 -2 0.5 -1.5 0.5 2.5 0.5 3 0.5 -12 0 9.5 
0.5 7.5 0.5 1.5 0.5 -9 0.5 8.5 0.5 -11 0.5 19 0.5 -12 0.5 3 
0.5 -6 0.5 12.5 0.5 -21.5 0.5 26.5 0.5 2 0.5 -9 0.5 -2.5 0.5 -3.5 
0.5 5.5 0.5 -17 0.5 2.5 0.5 6.5 0.5 13.5 0.5 12 0.5 -5.5 0.5 6 
0.5 8 0.5 -8.5 0.5 -10.5 0.5 1 0.5 9 0.5 -4 0.5 -5.5 0.5 -7 
0.5 4 0.5 13 0.5 -5 0.5 -11 0.5 16.5 0.5 4 0.5 -38.5 0.5 17.5 
0.5 2 0.5 0 0.5 -2.5 0.5 -13.5 0.5 6.5 0.5 -1.5 0.5 5.5 0.5 -4 
0 7 0.5 6 0.5 2.5 0.5 -37.5 0.5 5.5 0.5 34 0.5 -29 0.5 5 
0.5 0.5 0.5 1 0.5 -2 0.5 -4 0.5 0 0.5 6 0.5 -11.5 0.5 0.5 
0.5 8 0.5 -7 0.5 -1 0.5 7.5 0.5 -9.5 0.5 -6.5 0.5 10 0.5 4.5 
0.5 -6 S
2882 759 0.5 -6.5 0.5 1.5 0.5 3.5 0.5 -1.5 0.5 3 0.5 5 0.5 6 
0.5 -11 0.5 5.5 0.5 5 0.5 -5.5 0.5 -12.5 0.5 19.5 0.5 -1 0.5 0.5 
0.5 -5 0.5 -0.5 0.5 -11 0.5 16 0.5 -19.5 0.5 15 0.5 1 0.5 0 
0.5 15 0 -7 0.5 6.5 0.5 -3.5 0.5 -4.5 0.5 18.5 0.5 -6.5 0.5 -7.5 
0.5 -6.5 0.5 -4 0.5 5 0.5 -6.5 0.5 5 0.5 -0.5 0.5 -4 0.5 16 
0.5 -20 0.5 12 0.5 3 0.5 -8.5 0.5 5 0.5 -9.5 0.5 -3 0.5 11 
0.5 -8 0.5 3 0.5 1.5 0.5 13 0.5 -9.5 0.5 0.5 0.5 -1 0.5 -7.5 
0.5 12.5 0.5 -12 0.5 19.5 0.5 -16 0.5 9 0.5 -6 0.5 0.5 0.5 -10.5 
0.5 -1 0.5 16 0.5 -0.5 0.5 2.5 0.5 -9 0.5 7 0.5 -10 0.5 -8 
0.5 10.5 0.5 17.5 0 -5.5 0.5 0.5 0.5 -3 0.5 1.5 0.5 -1 0.5 4 
0.5 18.5 0.5 -8 0.5 -5 0.5 0 0.5 5 0.5 -3 0.5 -14 0.5 -13 
0.5 0 0.5 8.5 0.5 -0.5 0.5 2.5 0.5 5.5 0.5 9.5 0.5 -1 0.5 -7.5 
0.5 -3 0.5 17.5 0.5 -3 0.5 -6 0.5 -23 0.5 -3 0.5 6.5 0.5 -7.5 
0.5 17 S
2933 775.5 0.5 -7 0.5 -20.5 0.5 10.5 0.5 -6.5 0.5 9 0.5 -1 0.5 5 
0.5 -4.5 0.5 1 0.5 11.5 0.5 2 0.5 -14.5 0.5 18 0.5 -4 0.5 -11 
0.5 6 0.5 2.5 0.5 -19.5 0 15 0.5 5 0.5 -5.5 0.5 13.5 0.5 -3.5 
0.5 12.5 0.5 -7 0.5 -4.5 0.5 -3 0.5 3.5 0.5 7.5 0.5 -11.5 0.5 -13 
0.5 21 0.5 -14.5 0.5 3 0.5 -4.5 0.5 11 0.5 -8.5 0.5 0 0.5 -5 
0.5 10.5 0.5 7 0.5 -8 0.5 5 0.5 0.5 0.5 -7.5 0.5 2.5 0.5 4 
0.5 -6.5 0.5 -9 0.5 7.5 0.5 -9.5 0.5 3 0.5 1 0.5 -5.5 0.5 -8.5 
0.5 9.5 0.5 -1 0.5 2 0.5 -9 0.5 3.5 0.5 12 0.5 12.5 0.5 -0.5 
0.5 -3.5 0.5 3 0.5 3.5 0.5 -10 0 3.5 0.5 12 0.5 0.5 0.5 -15 
0.5 -4 0.5 13.5 0.5 -10.5 0.5 -2.5 0.5 0.5 0.5 5 0.5 5.5 0.5 -3 
0.5 -4 0.5 2.5 0.5 -11 0.5 10.5 0.5 -19 0.5 2 0.5 -0.5 0.5 23 
0.5 -22.5 0.5 3.5 0.5 19.5 0.5 -21 0.5 11 0.5 -15.5 0.5 -4 0.5 22.5 
0.5 -20 0.5 1 0.5 4.5 0.5 5.5 0.5 -8.5 0.5 -0.5 0.5 12.5 0.5 5 
0.5 -2 S
2984 772.5 0.5 0.5 0.5 6 0.5 1 0.5 5 0.5 -17.5 0.5 6.5 0.5 -4 
0.5 10 0.5 -3.5 0.5 11 0.5 -13 0.5 -1 0 -7.5 0.5 14.5 0.5 -4.5 
0.5 -1.5 0.5 -1.5 0.5 -9 0.5 -3.5 0.5 9.5 0.5 3 0.5 -3.5 0.5 -7.5 
0.5 -4.5 0.5 14 0.5 -13 0.5 11 0.5 -1 0.5 -8 0.5 -0.5 0.5 11 
0.5 0 0.5 7 0.5 -12.5 0.5 19.5 0.5 -9 0.5 -7.5 0.5 6 0.5 -13.5 
0.5 10 0.5 -7 0.5 2.5 0.5 11 0.5 6 0.5 -20.5 0.5 13 0.5 3.5 
0.5 7 0.5 4 0.5 -0.5 0.5 4 0.5 -13 0.5 5.5 0.5 -15 0.5 20 
0.5 -16.5 0.5 -6.5 0.5 14 0.5 -19.5 0.5 22 0.5 -16 0 6.5 0.5 -4 
0.5 -5.5 0.5 -7.5 0.5 1 0.5 15 0.5 4.5 0.5 -18.5 0.5 -6.5 0.5 8 
0.5 -4.5 0.5 19.5 0.5 -17.5 0.5 17.5 0.5 -12 0.5 11.5 0.5 1.5 0.5 -2 
0.5 -11 0.5 15.5 0.5 0 0.5 -2.5 0.5 -5 0.5 -5 0.5 8.5 0.5 -3 
0.5 -12 0.5 2.5 0.5 2.5 0.5 2.5 0.5 -5 0.5 7.5 0.5 -9.5 0.5 10 
0.5 -4.5 0.5 -3.5 0.5 6.5 0.5 -11.5 0.5 0.5 0.5 10 0.5 -11.5 0.5 7 
0.5 -4.5 S
3035 760.5 0.5 4 0.5 -2 0.5 6 0.5 -4.5 0.5 5.5 0.5 -4 0.5 -0.5 
0.5 3 0.5 2.5 0.5 -5.5 0.5 0.5 0.5 2.5 0.5 14 0.5 -1 0.5 -4.5 
0.5 2 0.5 2 0.5 6 0.5 -20.5 0.5 10.5 0.5 0.5 0.5 19.5 0.5 14.5 
0.5 -2.5 0.5 -20.5 0.5 -1.5 0.5 11.5 0.5 -10.5 0.5 0.5 0.5 4 0.5 -6.5 
0.5 2 0.5 -17 0.5 1 0.5 -0.5 0.5 6 0.5 -3.5 0.5 3 0.5 -5 
0.5 6 0.5 -9 0.5 7.5 0.5 0 0.5 -9 0.5 -0.5 0.5 2 0.5 9.5 
0.5 3.5 0.5 3 0.5 -4.5 0.5 0.5 0.5 -15.5 0.5 11 0.5 8.5 0 6 
0.5 -6 0.5 -2 0.5 -6.5 0.5 -5.5 0.5 11 0.5 -16 0.5 16 0.5 2.5 
0.5 -4 0.5 8 0.5 0 0.5 -15 0.5 -16.5 0.5 -5.5 0.5 10.5 0.5 -3.5 
0.5 -2 0.5 19 0.5 3 0.5 -4 0.5 -13 0.5 -10.5 0.5 21.5 0.5 -5.5 
0.5 -11 0.5 14 0.5 -5 0.5 -6 0.5 0.5 0.5 9.5 0.5 -5 0.5 1.5 
0.5 -5.5 0.5 5.5 0.5 -2.5 0.5 -0.5 0.5 16 0.5 3 0.5 -3 0.5 -12 
0.5 3 0.5 7 0.5 -5.5 0.5 -10 0.5 8 0.5 -3 0.5 -1.5 0.5 6.5 
0 -1.5 S
3086 769 0.5 9.5 0.5 -3.5 0.5 4 0.5 0.5 0.5 4.5 0.5 -12 0.5 3.5 
0.5 -1 0.5 -4 0.5 6.5 0.5 -2 0.5 -8 0.5 5.5 0.5 13.5 0.5 -12 
0.5 -1 0.5 -8 0.5 9.5 0.5 8.5 0.5 -6.5 0.5 -6 0.5 -4 0.5 3.5 
0.5 -4 0.5 -2.5 0.5 12.5 0.5 -11 0.5 9 0.5 -3.5 0.5 -2 0.5 -4 
0.5 1.5 0.5 -2 0.5 12.5 0.5 -9.5 0.5 -4 0.5 -0.5 0.5 -8.5 0.5 8 
0.5 1 0.5 18 0.5 0 0.5 -24 0.5 0 0.5 18 0.5 -11 0.5 0 
0.5 12 0 12 0.5 3 0.5 -19.5 0.5 9 0.5 1 0.5 -8 0.5 1 
0.5 3 0.5 -1.5 0.5 -2 0.5 -4 0.5 -1 0.5 -5 0.5 -2.5 0.5 -3.5 
0.5 15 0.5 -3 0.5 -16 0.5 7.5 0.5 10.5 0.5 -19 0.5 1 0.5 -2 
0.5 2 0.5 -2 0.5 6.5 0.5 9 0.5 -14.5 0.5 -0.5 0.5 15 0.5 -9.5 
0.5 -8.5 0.5 5 0.5 -5 0.5 20.5 0.5 -6 0.5 -5 0.5 -6 0.5 5.5 
0.5 15 0.5 -22 0.5 6.5 0.5 6 0.5 5.5 0.5 -14.5 0.5 20.5 0.5 -14 
0.5 12.5 0.5 -6 0 -10.5 0.5 13 0.5 -12 0.5 12 0.5 0.5 0.5 -8.5 
0.5 -0.5 S
3137 762 0.5 -3 0.5 11 0.5 6 0.5 2.5 0.5 -9.5 0.5 -11.5 0.5 0.5 
0.5 4.5 0.5 4 0.5 2.5 0.5 -0.5 0.5 -2.5 0.5 7 0.5 -15 0.5 15.5 
0.5 -10 0.5 1 0.5 5 0.5 5.5 0.5 -11 0.5 9.5 0.5 -5 0.5 -3 
0.5 -1 0.5 -14.5 0.5 3 0.5 15 0.5 -3 0.5 13.5 0.5 -13.5 0.5 0.5 
0.5 -8 0.5 18.5 0.5 -7.5 0.5 2.5 0.5 -0.5 0.5 -9.5 0.5 24 0.5 -17.5 
0.5 3.5 0.5 5 0.5 1 0 -12 0.5 -6.5 0.5 4.5 0.5 -4.5 0.5 1 
0.5 8 0.5 0.5 0.5 -15 0.5 18.5 0.5 -11 0.5 9.5 0.5 -11 0.5 5 
0.5 -8.5 0.5 11 0.5 -5.5 0.5 -1 0.5 14 0.5 -12.5 0.5 0 0.5 5 
0.5 7 0.5 -12.5 0.5 13 0.5 -15.5 0.5 9.5 0.5 3 0.5 3.5 0.5 -16 
0.5 7 0.5 -2.5 0.5 21 0.5 -8 0.5 -7.5 0.5 -0.5 0.5 12.5 0.5 -9.5 
0.5 -5.5 0.5 15.5 0.5 5.5 0.5 -20 0.5 13 0.5 0 0.5 -7.5 0.5 9.5 
0.5 -15 0.5 8.5 0.5 6 0.5 -4.5 0 2.5 0.5 -4 0.5 2.5 0.5 -2 
0.5 -3.5 0.5 10.5 0.5 -2 0.5 -0.5 0.5 -5 0.5 -8 0.5 11 0.5 -18 
0.5 19 S
3188 779 0.5 4.5 0.5 2.5 0.5 -1 0.5 -14 0.5 8 0.5 -3 0.5 7 
0.5 -7 0.5 -11 0.5 10 0.5 -5 0.5 3 0.5 6 0.5 -5 0.5 4.5 
0.5 -10.5 0.5 -4 0.5 15 0.5 2.5 0.5 0.5 0.5 9.5 0.5 8.5 0.5 -5.5 
0.5 -24 0.5 11.5 0.5 1 0.5 0 0.5 1.5 0.5 2 0.5 7 0.5 -13 
0.5 0.5 0.5 1 0.5 -4.5 0.5 11 0.5 -24 0 -3.5 0.5 7 0.5 9 
0.5 4.5 0.5 -15 0.5 -3 0.5 22 0.5 -20.5 0.5 12.5 0.5 -14.5 0.5 7 
0.5 7 0.5 2 0.5 1 0.5 -7.5 0.5 -1 0.5 0.5 0.5 6.5 0.5 -5 
0.5 0.5 0.5 5 0.5 2.5 0.5 -5 0.5 -12 0.5 20.5 0.5 -14 0.5 -0.5 
0.5 -4 0.5 -2.5 0.5 8.5 0.5 1.5 0.5 -15.5 0.5 14.5 0.5 14 0.5 -11.5 
0.5 -10 0.5 16 0.5 -3 0.5 -6 0.5 2.5 0.5 2 0.5 5.5 0.5 4 
0.5 -10 0.5 -0.5 0.5 10.5 0.5 -7.5 0.5 0.5 0.5 -1 0 9.5 0.5 -10 
0.5 7.5 0.5 -0.5 0.5 -4 0.5 8 0.5 -10.5 0.5 17 0.5 -0.5 0.5 -12.5 
0.5 11.5 0.5 -4 0.5 10.5 0.5 -7 0.5 6 0.5 6.5 0.5 -18 0.5 0 
0.5 -12 S
3239 776 0.5 10 0.5 -10.5 0.5 4.5 0.5 -10 0.5 14 0.5 -5.5 0.5 6 
0.5 -7 0.5 -4 0.5 6.5 0.5 -0.5 0.5 -3 0.5 0 0.5 -14 0.5 7.5 
0.5 2 0.5 17 0.5 -22.5 0.5 -1 0.5 13 0.5 -9 0.5 14.5 0.5 -2 
0.5 -4 0.5 2.5 0.5 -6.5 0.5 3.5 0.5 7 0.5 -5.5 0.5 -13 0 12 
0.5 3.5 0.5 1 0.5 -8 0.5 3.5 0.5 -1 0.5 -11 0.5 4 0.5 -4.5 
0.5 14.5 0.5 -1.5 0.5 -16.5 0.5 8 0.5 -4.5 0.5 -1.5 0.5 -2 0.5 19.5 
0.5 -11 0.5 2 0.5 -6.5 0.5 4.5 0.5 -2.5 0.5 5.5 0.5 -6 0.5 9 
0.5 5.5 0.5 3 0.5 -11.5 0.5 11.5 0.5 6 0.5 -4.5 0.5 -16.5 0.5 1 
0.5 8 0.5 -14.5 0.5 4 0.5 14 0.5 -1.5 0.5 -14.5 0.5 16.5 0.5 -19 
0.5 11 0.5 -1 0.5 4.5 0.5 -7.5 0.5 4 0.5 2.5 0.5 2 0.5 -2.5 
0 9 0.5 13.5 0.5 1 0.5 -14 0.5 3.5 0.5 -11.5 0.5 14.5 0.5 -0.5 
0.5 -5.5 0.5 -1 0.5 4 0.5 -4 0.5 -4 0.5 8.5 0.5 -11.5 0.5 3 
0.5 -6 0.5 10.5 0.5 -4.5 0.5 2.5 0.5 0 0.5 -8.5 0.5 1 0.5 18 
0.5 -15.5 S
5 w
842 620 2448 528 re
S
cleartomark end end pagesave restore
 showpage
%%PageTrailer
%%Trailer
%%Pages: 1
