%!PS-Adobe-3.0 EPSF-3.0
%%BoundingBox: 61 52 193 119
%%HiResBoundingBox: 61.700000 52.600000 192.800000 118.700000
%.....................................
%%Creator: GPL Ghostscript 871 (epswrite)
%%CreationDate: 2012/01/28 17:04:37
%%DocumentData: Clean7Bit
%%LanguageLevel: 2
%%EndComments
%%BeginProlog
% This copyright applies to everything between here and the %%EndProlog:
% Copyright (C) 2010 Artifex Software, Inc.  All rights reserved.
%%BeginResource: procset GS_epswrite_2_0_1001 1.001 0
/GS_epswrite_2_0_1001 80 dict dup begin
/PageSize 2 array def/setpagesize{ PageSize aload pop 3 index eq exch
4 index eq and{ pop pop pop}{ PageSize dup  1
5 -1 roll put 0 4 -1 roll put dup null eq {false} {dup where} ifelse{ exch get exec}
{ pop/setpagedevice where
{ pop 1 dict dup /PageSize PageSize put setpagedevice}
{ /setpage where{ pop PageSize aload pop pageparams 3 {exch pop} repeat
setpage}if}ifelse}ifelse}ifelse} bind def
/!{bind def}bind def/#{load def}!/N/counttomark #
/rG{3{3 -1 roll 255 div}repeat setrgbcolor}!/G{255 div setgray}!/K{0 G}!
/r6{dup 3 -1 roll rG}!/r5{dup 3 1 roll rG}!/r3{dup rG}!
/w/setlinewidth #/J/setlinecap #
/j/setlinejoin #/M/setmiterlimit #/d/setdash #/i/setflat #
/m/moveto #/l/lineto #/c/rcurveto #
/p{N 2 idiv{N -2 roll rlineto}repeat}!
/P{N 0 gt{N -2 roll moveto p}if}!
/h{p closepath}!/H{P closepath}!
/lx{0 rlineto}!/ly{0 exch rlineto}!/v{0 0 6 2 roll c}!/y{2 copy c}!
/re{4 -2 roll m exch dup lx exch ly neg lx h}!
/^{3 index neg 3 index neg}!
/f{P fill}!/f*{P eofill}!/s{H stroke}!/S{P stroke}!
/q/gsave #/Q/grestore #/rf{re fill}!
/Y{P clip newpath}!/Y*{P eoclip newpath}!/rY{re Y}!
/|={pop exch 4 1 roll 1 array astore cvx 3 array astore cvx exch 1 index def exec}!
/|{exch string readstring |=}!
/+{dup type/nametype eq{2 index 7 add -3 bitshift 2 index mul}if}!
/@/currentfile #/${+ @ |}!
/B{{2 copy string{readstring pop}aload pop 4 array astore cvx
3 1 roll}repeat pop pop true}!
/Ix{[1 0 0 1 11 -2 roll exch neg exch neg]exch}!
/,{true exch Ix imagemask}!/If{false exch Ix imagemask}!/I{exch Ix image}!
/Ic{exch Ix false 3 colorimage}!
/F{/Columns counttomark 3 add -2 roll/Rows exch/K -1/BlackIs1 true>>
/CCITTFaxDecode filter}!/FX{<</EndOfBlock false F}!
/X{/ASCII85Decode filter}!/@X{@ X}!/&2{2 index 2 index}!
/@F{@ &2<<F}!/@C{@X &2 FX}!
/$X{+ @X |}!/&4{4 index 4 index}!/$F{+ @ &4<<F |}!/$C{+ @X &4 FX |}!
/IC{3 1 roll 10 dict begin 1{/ImageType/Interpolate/Decode/DataSource
/ImageMatrix/BitsPerComponent/Height/Width}{exch def}forall
currentdict end image}!
/~{@ read {pop} if}!
end def
%%EndResource
/pagesave null def
%%EndProlog
%%Page: 1 1
%%BeginPageSetup
GS_epswrite_2_0_1001 begin
/pagesave save store 197 dict begin
0.1 0.1 scale
%%EndPageSetup
gsave mark
Q q
0 0 250000 250000 re
Y
5 w
K
752 580 31.5 0 P
1880 580 -31.5 0 P
728 580 S
706 566 20 29 /3U
$C
1FPQ<U3?$Yf(B"@-NF,Gs8VI:s4Z>6_Utnc_LM~>
,
752 678.5 31.5 0 P
1880 678.5 -31.5 0 P
728 678.5 S
639 665 20 29 /6U
$C
4ubjWU3Po,o_Rk*s6<n@f%<V1R!%%dIdd8'"9&~>
,
661 665 3U ,
684 665 3U ,
706 665 3U ,
752 777.5 31.5 0 P
1880 777.5 -31.5 0 P
728 777.5 S
617 765 14 28 /3Y
$X
!#ttY!#ttY!#ttY!#ttY!#ttY!#ttY!#ttY!#ttY!#ttY!#ttY&,Zt9#Q+RL!'C6$!#ttY~>
,
639 764 3U ,
661 764 3U ,
684 764 3U ,
706 764 3U ,
752 876 31.5 0 P
1880 876 -31.5 0 P
728 876 S
617 863 3Y ,
639 862 6U ,
661 862 3U ,
684 862 3U ,
706 862 3U ,
752 974.5 31.5 0 P
1880 974.5 -31.5 0 P
728 974.5 S
617 962 20 28 /6Y
$C
,DLX/f)<4*G2\3b_f4BiDYnJCs)k]M28qoi(f1~>
,
639 961 3U ,
661 961 3U ,
684 961 3U ,
706 961 3U ,
752 1073.5 31.5 0 P
1880 1073.5 -31.5 0 P
728 1073.5 S
617 1061 6Y ,
639 1060 6U ,
661 1060 3U ,
684 1060 3U ,
706 1060 3U ,
752 1172 31.5 0 P
1880 1172 -31.5 0 P
728 1172 S
617 1158 20 29 /4C
$C
4ubjTFAK95e*4:<I;0O20"3!o2gKcMpY@AS[OTc\TE~>
,
639 1158 3U ,
661 1158 3U ,
684 1158 3U ,
706 1158 3U ,
752 580 0 31.5 P
752 1172 0 -31.5 P
752 540 S
746 526 3U ,
854.5 580 0 31.5 P
854.5 1172 0 -31.5 P
854.5 540 S
827 527 6Y ,
849 526 3U ,
871 526 3U ,
957 580 0 31.5 P
957 1172 0 -31.5 P
957 540 S
929 527 21 28 /7C
$C
+lE=tNZ()dc&_>&hm`'`hqr@eA,!aN~>
,
951 526 3U ,
974 526 3U ,
1059.5 580 0 31.5 P
1059.5 1172 0 -31.5 P
1059.5 540 S
1032 526 20 29 /4G
$C
1FPQ<U3Q=d-e7Y"s8AeG%4ldp0#HXsnoio)>?_hW(f1~>
,
1054 526 3U ,
1076 526 3U ,
1162 580 0 31.5 P
1162 1172 0 -31.5 P
1162 540 S
1134 526 20 29 /7G
$C
1FPQ+%kk;Ze'`17rmeBXV.-Q*UA='<2uipOdb<?S:r7_~>
,
1156 526 3U ,
1179 526 3U ,
1264.5 580 0 31.5 P
1264.5 1172 0 -31.5 P
1264.5 540 S
1226 527 3Y ,
1248 526 3U ,
1270 526 3U ,
1292 526 3U ,
1367.5 580 0 31.5 P
1367.5 1172 0 -31.5 P
1367.5 540 S
1329 527 3Y ,
1351 527 6Y ,
1373 526 3U ,
1395 526 3U ,
1470 580 0 31.5 P
1470 1172 0 -31.5 P
1470 540 S
1431 527 3Y ,
1453 527 7C ,
1476 526 3U ,
1498 526 3U ,
1572.5 580 0 31.5 P
1572.5 1172 0 -31.5 P
1572.5 540 S
1534 527 3Y ,
1556 526 4G ,
1578 526 3U ,
1600 526 3U ,
1675 580 0 31.5 P
1675 1172 0 -31.5 P
1675 540 S
1636 527 3Y ,
1658 526 7G ,
1681 526 3U ,
1703 526 3U ,
1777.5 580 0 31.5 P
1777.5 1172 0 -31.5 P
1777.5 540 S
1739 527 6Y ,
1761 526 3U ,
1783 526 3U ,
1805 526 3U ,
1880 580 0 31.5 P
1880 1172 0 -31.5 P
1880 540 S
1841 527 6Y ,
1863 527 6Y ,
1886 526 3U ,
1908 526 3U ,
752 580 1128 592 re
S
2.5 w
843 567.75 0 31.5 S
827.25 583.5 31.5 0 S
848.5 567.75 0 31.5 S
832.75 583.5 31.5 0 S
849.5 571.75 0 31.5 S
833.75 587.5 31.5 0 S
850 568.25 0 31.5 S
834.25 584 31.5 0 S
854 568.25 0 31.5 S
838.25 584 31.5 0 S
861 568.25 0 31.5 S
845.25 584 31.5 0 S
878.5 569.25 0 31.5 S
862.75 585 31.5 0 S
895.5 569.75 0 31.5 S
879.75 585.5 31.5 0 S
903.5 570.25 0 31.5 S
887.75 586 31.5 0 S
946.5 571.75 0 31.5 S
930.75 587.5 31.5 0 S
947 571.75 0 31.5 S
931.25 587.5 31.5 0 S
994 573.75 0 31.5 S
978.25 589.5 31.5 0 S
995 573.75 0 31.5 S
979.25 589.5 31.5 0 S
999.5 573.75 0 31.5 S
983.75 589.5 31.5 0 S
1000.5 573.75 0 31.5 S
984.75 589.5 31.5 0 S
1004.5 573.75 0 31.5 S
988.75 589.5 31.5 0 S
1006.5 574.25 0 31.5 S
990.75 590 31.5 0 S
1009.5 574.25 0 31.5 S
993.75 590 31.5 0 S
1014 574.25 0 31.5 S
998.25 590 31.5 0 S
1014.5 574.25 0 31.5 S
998.75 590 31.5 0 S
1016 574.25 0 31.5 S
1000.25 590 31.5 0 S
1017.5 584.75 0 31.5 S
1001.75 600.5 31.5 0 S
1018 574.25 0 31.5 S
1002.25 590 31.5 0 S
1018.5 584.75 0 31.5 S
1002.75 600.5 31.5 0 S
1019 574.75 0 31.5 S
1003.25 590.5 31.5 0 S
1020 584.75 0 31.5 S
1004.25 600.5 31.5 0 S
1020.5 584.75 0 31.5 S
1004.75 600.5 31.5 0 S
1021.5 616.25 0 31.5 S
1005.75 632 31.5 0 S
1022 574.75 0 31.5 S
1006.25 590.5 31.5 0 S
1022.5 585.25 0 31.5 S
1006.75 601 31.5 0 S
1023 585.25 0 31.5 S
1007.25 601 31.5 0 S
1023.5 574.75 0 31.5 S
1007.75 590.5 31.5 0 S
1024.5 585.25 0 31.5 S
1008.75 601 31.5 0 S
1025.5 574.75 0 31.5 S
1009.75 590.5 31.5 0 S
1026 595.75 0 31.5 S
1010.25 611.5 31.5 0 S
1026.5 585.25 0 31.5 S
1010.75 601 31.5 0 S
1027 595.75 0 31.5 S
1011.25 611.5 31.5 0 S
1027.5 596.25 0 31.5 S
1011.75 612 31.5 0 S
1028 585.25 0 31.5 S
1012.25 601 31.5 0 S
1028.5 596.25 0 31.5 S
1012.75 612 31.5 0 S
1029 617.75 0 31.5 S
1013.25 633.5 31.5 0 S
1029.5 585.75 0 31.5 S
1013.75 601.5 31.5 0 S
1030 596.25 0 31.5 S
1014.25 612 31.5 0 S
1030.5 617.75 0 31.5 S
1014.75 633.5 31.5 0 S
1031 607.25 0 31.5 S
1015.25 623 31.5 0 S
1031.5 607.25 0 31.5 S
1015.75 623 31.5 0 S
1032 628.75 0 31.5 S
1016.25 644.5 31.5 0 S
1032.5 607.25 0 31.5 S
1016.75 623 31.5 0 S
1033 629.25 0 31.5 S
1017.25 645 31.5 0 S
1033.5 618.25 0 31.5 S
1017.75 634 31.5 0 S
1034 629.25 0 31.5 S
1018.25 645 31.5 0 S
1034.5 618.75 0 31.5 S
1018.75 634.5 31.5 0 S
1035 596.75 0 31.5 S
1019.25 612.5 31.5 0 S
1035.5 651.75 0 31.5 S
1019.75 667.5 31.5 0 S
1036 673.75 0 31.5 S
1020.25 689.5 31.5 0 S
1036.5 619.25 0 31.5 S
1020.75 635 31.5 0 S
1037 619.25 0 31.5 S
1021.25 635 31.5 0 S
1037.5 619.25 0 31.5 S
1021.75 635 31.5 0 S
1038 740.25 0 31.5 S
1022.25 756 31.5 0 S
1038.5 641.25 0 31.5 S
1022.75 657 31.5 0 S
1039 696.75 0 31.5 S
1023.25 712.5 31.5 0 S
1039.5 608.75 0 31.5 S
1023.75 624.5 31.5 0 S
1040 652.75 0 31.5 S
1024.25 668.5 31.5 0 S
1040.5 619.75 0 31.5 S
1024.75 635.5 31.5 0 S
1041 664.25 0 31.5 S
1025.25 680 31.5 0 S
1041.5 686.75 0 31.5 S
1025.75 702.5 31.5 0 S
1042 687.25 0 31.5 S
1026.25 703 31.5 0 S
1042.5 698.75 0 31.5 S
1026.75 714.5 31.5 0 S
1043 653.75 0 31.5 S
1027.25 669.5 31.5 0 S
1043.5 687.75 0 31.5 S
1027.75 703.5 31.5 0 S
1044.5 811.75 0 31.5 S
1028.75 827.5 31.5 0 S
1045 676.75 0 31.5 S
1029.25 692.5 31.5 0 S
1045.5 710.75 0 31.5 S
1029.75 726.5 31.5 0 S
1046 699.75 0 31.5 S
1030.25 715.5 31.5 0 S
1046.5 677.75 0 31.5 S
1030.75 693.5 31.5 0 S
1047 734.25 0 31.5 S
1031.25 750 31.5 0 S
1047.5 757.25 0 31.5 S
1031.75 773 31.5 0 S
1048 791.75 0 31.5 S
1032.25 807.5 31.5 0 S
1048.5 826.75 0 31.5 S
1032.75 842.5 31.5 0 S
1049 747.25 0 31.5 S
1033.25 763 31.5 0 S
1049.5 827.25 0 31.5 S
1033.75 843 31.5 0 S
1050 747.75 0 31.5 S
1034.25 763.5 31.5 0 S
1050.5 736.75 0 31.5 S
1034.75 752.5 31.5 0 S
1051 909.25 0 31.5 S
1035.25 925 31.5 0 S
1051.5 714.25 0 31.5 S
1035.75 730 31.5 0 S
1052 795.25 0 31.5 S
1036.25 811 31.5 0 S
1052.5 818.75 0 31.5 S
1036.75 834.5 31.5 0 S
1053 784.25 0 31.5 S
1037.25 800 31.5 0 S
1053.5 784.75 0 31.5 S
1037.75 800.5 31.5 0 S
1054 796.75 0 31.5 S
1038.25 812.5 31.5 0 S
1054.5 855.25 0 31.5 S
1038.75 871 31.5 0 S
1055 750.75 0 31.5 S
1039.25 766.5 31.5 0 S
1055.5 949.75 0 31.5 S
1039.75 965.5 31.5 0 S
1056 774.75 0 31.5 S
1040.25 790.5 31.5 0 S
1056.5 904.25 0 31.5 S
1040.75 920 31.5 0 S
1057 869.75 0 31.5 S
1041.25 885.5 31.5 0 S
1057.5 834.75 0 31.5 S
1041.75 850.5 31.5 0 S
1058 870.75 0 31.5 S
1042.25 886.5 31.5 0 S
1058.5 776.75 0 31.5 S
1042.75 792.5 31.5 0 S
1059 859.75 0 31.5 S
1043.25 875.5 31.5 0 S
1059.5 801.25 0 31.5 S
1043.75 817 31.5 0 S
1060 920.25 0 31.5 S
1044.25 936 31.5 0 S
1060.5 920.75 0 31.5 S
1044.75 936.5 31.5 0 S
1061 897.25 0 31.5 S
1045.25 913 31.5 0 S
1061.5 886.25 0 31.5 S
1045.75 902 31.5 0 S
1062 958.25 0 31.5 S
1046.25 974 31.5 0 S
1062.5 875.25 0 31.5 S
1046.75 891 31.5 0 S
1063 959.75 0 31.5 S
1047.25 975.5 31.5 0 S
1063.5 792.25 0 31.5 S
1047.75 808 31.5 0 S
1064.5 1056.75 0 31.5 S
1048.75 1072.5 31.5 0 S
1065 913.25 0 31.5 S
1049.25 929 31.5 0 S
1065.5 1058.75 0 31.5 S
1049.75 1074.5 31.5 0 S
1066 926.75 0 31.5 S
1050.25 942.5 31.5 0 S
1066.5 902.75 0 31.5 S
1050.75 918.5 31.5 0 S
1067 903.75 0 31.5 S
1051.25 919.5 31.5 0 S
1067.5 855.75 0 31.5 S
1051.75 871.5 31.5 0 S
1068 928.75 0 31.5 S
1052.25 944.5 31.5 0 S
1068.5 905.25 0 31.5 S
1052.75 921 31.5 0 S
1069 905.75 0 31.5 S
1053.25 921.5 31.5 0 S
1069.5 991.75 0 31.5 S
1053.75 1007.5 31.5 0 S
1070 906.75 0 31.5 S
1054.25 922.5 31.5 0 S
1070.5 968.75 0 31.5 S
1054.75 984.5 31.5 0 S
1071 944.75 0 31.5 S
1055.25 960.5 31.5 0 S
1071.5 847.25 0 31.5 S
1055.75 863 31.5 0 S
1072 859.75 0 31.5 S
1056.25 875.5 31.5 0 S
1072.5 897.25 0 31.5 S
1056.75 913 31.5 0 S
1073 1058.25 0 31.5 S
1057.25 1074 31.5 0 S
1073.5 997.25 0 31.5 S
1057.75 1013 31.5 0 S
1074 898.75 0 31.5 S
1058.25 914.5 31.5 0 S
1074.5 1097.75 0 31.5 S
1058.75 1113.5 31.5 0 S
1075 937.25 0 31.5 S
1059.25 953 31.5 0 S
1075.5 950.25 0 31.5 S
1059.75 966 31.5 0 S
1076 950.75 0 31.5 S
1060.25 966.5 31.5 0 S
1076.5 914.25 0 31.5 S
1060.75 930 31.5 0 S
1077 877.25 0 31.5 S
1061.25 893 31.5 0 S
1077.5 940.25 0 31.5 S
1061.75 956 31.5 0 S
1078 915.75 0 31.5 S
1062.25 931.5 31.5 0 S
1078.5 966.25 0 31.5 S
1062.75 982 31.5 0 S
1079 954.75 0 31.5 S
1063.25 970.5 31.5 0 S
1079.5 1005.75 0 31.5 S
1063.75 1021.5 31.5 0 S
1080 1006.25 0 31.5 S
1064.25 1022 31.5 0 S
1080.5 867.75 0 31.5 S
1064.75 883.5 31.5 0 S
1081 944.25 0 31.5 S
1065.25 960 31.5 0 S
1081.5 919.75 0 31.5 S
1065.75 935.5 31.5 0 S
1082 881.75 0 31.5 S
1066.25 897.5 31.5 0 S
1082.5 1073.25 0 31.5 S
1066.75 1089 31.5 0 S
1083 844.75 0 31.5 S
1067.25 860.5 31.5 0 S
1083.5 806.75 0 31.5 S
1067.75 822.5 31.5 0 S
1084 871.25 0 31.5 S
1068.25 887 31.5 0 S
1085 935.75 0 31.5 S
1069.25 951.5 31.5 0 S
1085.5 884.75 0 31.5 S
1069.75 900.5 31.5 0 S
1086 1052.25 0 31.5 S
1070.25 1068 31.5 0 S
1086.5 988.75 0 31.5 S
1070.75 1004.5 31.5 0 S
1087 976.75 0 31.5 S
1071.25 992.5 31.5 0 S
1087.5 912.75 0 31.5 S
1071.75 928.5 31.5 0 S
1088 900.25 0 31.5 S
1072.25 916 31.5 0 S
1088.5 861.75 0 31.5 S
1072.75 877.5 31.5 0 S
1089 823.75 0 31.5 S
1073.25 839.5 31.5 0 S
1089.5 875.75 0 31.5 S
1073.75 891.5 31.5 0 S
1090 941.25 0 31.5 S
1074.25 957 31.5 0 S
1090.5 876.75 0 31.5 S
1074.75 892.5 31.5 0 S
1091 903.25 0 31.5 S
1075.25 919 31.5 0 S
1091.5 943.25 0 31.5 S
1075.75 959 31.5 0 S
1092 891.25 0 31.5 S
1076.25 907 31.5 0 S
1092.5 878.75 0 31.5 S
1076.75 894.5 31.5 0 S
1093 931.75 0 31.5 S
1077.25 947.5 31.5 0 S
1093.5 919.25 0 31.5 S
1077.75 935 31.5 0 S
1094 840.75 0 31.5 S
1078.25 856.5 31.5 0 S
1094.5 814.75 0 31.5 S
1078.75 830.5 31.5 0 S
1095 854.75 0 31.5 S
1079.25 870.5 31.5 0 S
1095.5 789.25 0 31.5 S
1079.75 805 31.5 0 S
1096 934.75 0 31.5 S
1080.25 950.5 31.5 0 S
1096.5 842.75 0 31.5 S
1080.75 858.5 31.5 0 S
1097 869.75 0 31.5 S
1081.25 885.5 31.5 0 S
1097.5 896.75 0 31.5 S
1081.75 912.5 31.5 0 S
1098 764.25 0 31.5 S
1082.25 780 31.5 0 S
1098.5 951.25 0 31.5 S
1082.75 967 31.5 0 S
1099 951.75 0 31.5 S
1083.25 967.5 31.5 0 S
1099.5 818.25 0 31.5 S
1083.75 834 31.5 0 S
1100 765.25 0 31.5 S
1084.25 781 31.5 0 S
1100.5 859.25 0 31.5 S
1084.75 875 31.5 0 S
1101 725.75 0 31.5 S
1085.25 741.5 31.5 0 S
1101.5 793.25 0 31.5 S
1085.75 809 31.5 0 S
1102 752.75 0 31.5 S
1086.25 768.5 31.5 0 S
1102.5 726.25 0 31.5 S
1086.75 742 31.5 0 S
1103 848.25 0 31.5 S
1087.25 864 31.5 0 S
1103.5 753.75 0 31.5 S
1087.75 769.5 31.5 0 S
1104 835.25 0 31.5 S
1088.25 851 31.5 0 S
1105 781.25 0 31.5 S
1089.25 797 31.5 0 S
1105.5 795.25 0 31.5 S
1089.75 811 31.5 0 S
1106 673.25 0 31.5 S
1090.25 689 31.5 0 S
1106.5 850.75 0 31.5 S
1090.75 866.5 31.5 0 S
1107 796.25 0 31.5 S
1091.25 812 31.5 0 S
1107.5 851.25 0 31.5 S
1091.75 867 31.5 0 S
1108 920.25 0 31.5 S
1092.25 936 31.5 0 S
1108.5 728.75 0 31.5 S
1092.75 744.5 31.5 0 S
1109 674.25 0 31.5 S
1093.25 690 31.5 0 S
1109.5 770.75 0 31.5 S
1093.75 786.5 31.5 0 S
1110 867.25 0 31.5 S
1094.25 883 31.5 0 S
1110.5 729.75 0 31.5 S
1094.75 745.5 31.5 0 S
1111 799.25 0 31.5 S
1095.25 815 31.5 0 S
1111.5 827.25 0 31.5 S
1095.75 843 31.5 0 S
1112 675.25 0 31.5 S
1096.25 691 31.5 0 S
1112.5 744.75 0 31.5 S
1096.75 760.5 31.5 0 S
1113 703.25 0 31.5 S
1097.25 719 31.5 0 S
1113.5 759.25 0 31.5 S
1097.75 775 31.5 0 S
1114 731.25 0 31.5 S
1098.25 747 31.5 0 S
1114.5 787.25 0 31.5 S
1098.75 803 31.5 0 S
1115 717.75 0 31.5 S
1099.25 733.5 31.5 0 S
1115.5 774.25 0 31.5 S
1099.75 790 31.5 0 S
1116 830.25 0 31.5 S
1100.25 846 31.5 0 S
1116.5 662.25 0 31.5 S
1100.75 678 31.5 0 S
1117 789.25 0 31.5 S
1101.25 805 31.5 0 S
1117.5 761.25 0 31.5 S
1101.75 777 31.5 0 S
1118 747.25 0 31.5 S
1102.25 763 31.5 0 S
1118.5 719.25 0 31.5 S
1102.75 735 31.5 0 S
1119 747.75 0 31.5 S
1103.25 763.5 31.5 0 S
1119.5 691.75 0 31.5 S
1103.75 707.5 31.5 0 S
1120 705.75 0 31.5 S
1104.25 721.5 31.5 0 S
1120.5 706.25 0 31.5 S
1104.75 722 31.5 0 S
1121 763.25 0 31.5 S
1105.25 779 31.5 0 S
1121.5 791.75 0 31.5 S
1105.75 807.5 31.5 0 S
1122 678.25 0 31.5 S
1106.25 694 31.5 0 S
1122.5 692.75 0 31.5 S
1106.75 708.5 31.5 0 S
1123 835.75 0 31.5 S
1107.25 851.5 31.5 0 S
1123.5 650.25 0 31.5 S
1107.75 666 31.5 0 S
1124 650.25 0 31.5 S
1108.25 666 31.5 0 S
1125 679.25 0 31.5 S
1109.25 695 31.5 0 S
1125.5 664.75 0 31.5 S
1109.75 680.5 31.5 0 S
1126 722.25 0 31.5 S
1110.25 738 31.5 0 S
1126.5 751.75 0 31.5 S
1110.75 767.5 31.5 0 S
1127 650.75 0 31.5 S
1111.25 666.5 31.5 0 S
1127.5 665.25 0 31.5 S
1111.75 681 31.5 0 S
1128 665.75 0 31.5 S
1112.25 681.5 31.5 0 S
1128.5 680.25 0 31.5 S
1112.75 696 31.5 0 S
1129 680.25 0 31.5 S
1113.25 696 31.5 0 S
1129.5 636.75 0 31.5 S
1113.75 652.5 31.5 0 S
1130 724.25 0 31.5 S
1114.25 740 31.5 0 S
1130.5 739.25 0 31.5 S
1114.75 755 31.5 0 S
1131 651.75 0 31.5 S
1115.25 667.5 31.5 0 S
1131.5 681.25 0 31.5 S
1115.75 697 31.5 0 S
1132 666.75 0 31.5 S
1116.25 682.5 31.5 0 S
1132.5 681.25 0 31.5 S
1116.75 697 31.5 0 S
1133 652.25 0 31.5 S
1117.25 668 31.5 0 S
1133.5 667.25 0 31.5 S
1117.75 683 31.5 0 S
1134 608.25 0 31.5 S
1118.25 624 31.5 0 S
1134.5 711.25 0 31.5 S
1118.75 727 31.5 0 S
1135 682.25 0 31.5 S
1119.25 698 31.5 0 S
1135.5 756.25 0 31.5 S
1119.75 772 31.5 0 S
1136 638.25 0 31.5 S
1120.25 654 31.5 0 S
1136.5 638.25 0 31.5 S
1120.75 654 31.5 0 S
1137 682.75 0 31.5 S
1121.25 698.5 31.5 0 S
1137.5 682.75 0 31.5 S
1121.75 698.5 31.5 0 S
1138 653.25 0 31.5 S
1122.25 669 31.5 0 S
1138.5 638.75 0 31.5 S
1122.75 654.5 31.5 0 S
1139 698.25 0 31.5 S
1123.25 714 31.5 0 S
1139.5 638.75 0 31.5 S
1123.75 654.5 31.5 0 S
1140 594.25 0 31.5 S
1124.25 610 31.5 0 S
1140.5 713.75 0 31.5 S
1124.75 729.5 31.5 0 S
1141 654.25 0 31.5 S
1125.25 670 31.5 0 S
1141.5 669.25 0 31.5 S
1125.75 685 31.5 0 S
1142 594.25 0 31.5 S
1126.25 610 31.5 0 S
1142.5 639.25 0 31.5 S
1126.75 655 31.5 0 S
1143 624.25 0 31.5 S
1127.25 640 31.5 0 S
1143.5 639.75 0 31.5 S
1127.75 655.5 31.5 0 S
1144 639.75 0 31.5 S
1128.25 655.5 31.5 0 S
1144.5 594.25 0 31.5 S
1128.75 610 31.5 0 S
1145.5 609.75 0 31.5 S
1129.75 625.5 31.5 0 S
1146 640.25 0 31.5 S
1130.25 656 31.5 0 S
1146.5 594.75 0 31.5 S
1130.75 610.5 31.5 0 S
1147 599.25 0 31.5 S
1131.25 615 31.5 0 S
1147.5 625.25 0 31.5 S
1131.75 641 31.5 0 S
1148 594.75 0 31.5 S
1132.25 610.5 31.5 0 S
1148.5 594.75 0 31.5 S
1132.75 610.5 31.5 0 S
1149 594.75 0 31.5 S
1133.25 610.5 31.5 0 S
1149.5 640.75 0 31.5 S
1133.75 656.5 31.5 0 S
1150 594.75 0 31.5 S
1134.25 610.5 31.5 0 S
1150.5 656.25 0 31.5 S
1134.75 672 31.5 0 S
1151 656.25 0 31.5 S
1135.25 672 31.5 0 S
1151.5 625.75 0 31.5 S
1135.75 641.5 31.5 0 S
1152 656.75 0 31.5 S
1136.25 672.5 31.5 0 S
1152.5 672.25 0 31.5 S
1136.75 688 31.5 0 S
1153 595.25 0 31.5 S
1137.25 611 31.5 0 S
1153.5 610.75 0 31.5 S
1137.75 626.5 31.5 0 S
1154 595.25 0 31.5 S
1138.25 611 31.5 0 S
1154.5 626.25 0 31.5 S
1138.75 642 31.5 0 S
1155 641.75 0 31.5 S
1139.25 657.5 31.5 0 S
1155.5 610.75 0 31.5 S
1139.75 626.5 31.5 0 S
1156 595.25 0 31.5 S
1140.25 611 31.5 0 S
1156.5 579.75 0 31.5 S
1140.75 595.5 31.5 0 S
1157 611.25 0 31.5 S
1141.25 627 31.5 0 S
1157.5 579.75 0 31.5 S
1141.75 595.5 31.5 0 S
1158 626.75 0 31.5 S
1142.25 642.5 31.5 0 S
1158.5 626.75 0 31.5 S
1142.75 642.5 31.5 0 S
1159 595.75 0 31.5 S
1143.25 611.5 31.5 0 S
1159.5 579.75 0 31.5 S
1143.75 595.5 31.5 0 S
1160 611.25 0 31.5 S
1144.25 627 31.5 0 S
1160.5 611.25 0 31.5 S
1144.75 627 31.5 0 S
1161 627.25 0 31.5 S
1145.25 643 31.5 0 S
1161.5 627.25 0 31.5 S
1145.75 643 31.5 0 S
1162 595.75 0 31.5 S
1146.25 611.5 31.5 0 S
1162.5 611.75 0 31.5 S
1146.75 627.5 31.5 0 S
1163 580.25 0 31.5 S
1147.25 596 31.5 0 S
1163.5 595.75 0 31.5 S
1147.75 611.5 31.5 0 S
1164 580.25 0 31.5 S
1148.25 596 31.5 0 S
1165.5 580.25 0 31.5 S
1149.75 596 31.5 0 S
1166 580.25 0 31.5 S
1150.25 596 31.5 0 S
1166.5 596.25 0 31.5 S
1150.75 612 31.5 0 S
1167 612.25 0 31.5 S
1151.25 628 31.5 0 S
1167.5 596.25 0 31.5 S
1151.75 612 31.5 0 S
1168 612.25 0 31.5 S
1152.25 628 31.5 0 S
1168.5 580.25 0 31.5 S
1152.75 596 31.5 0 S
1170 596.25 0 31.5 S
1154.25 612 31.5 0 S
1170.5 580.25 0 31.5 S
1154.75 596 31.5 0 S
1171 660.75 0 31.5 S
1155.25 676.5 31.5 0 S
1171.5 596.75 0 31.5 S
1155.75 612.5 31.5 0 S
1172 580.25 0 31.5 S
1156.25 596 31.5 0 S
1172.5 628.75 0 31.5 S
1156.75 644.5 31.5 0 S
1173.5 580.25 0 31.5 S
1157.75 596 31.5 0 S
1174 596.75 0 31.5 S
1158.25 612.5 31.5 0 S
1174.5 580.75 0 31.5 S
1158.75 596.5 31.5 0 S
1175 596.75 0 31.5 S
1159.25 612.5 31.5 0 S
1175.5 580.75 0 31.5 S
1159.75 596.5 31.5 0 S
1176 580.75 0 31.5 S
1160.25 596.5 31.5 0 S
1176.5 580.75 0 31.5 S
1160.75 596.5 31.5 0 S
1177 580.75 0 31.5 S
1161.25 596.5 31.5 0 S
1177.5 597.25 0 31.5 S
1161.75 613 31.5 0 S
1178 580.75 0 31.5 S
1162.25 596.5 31.5 0 S
1179 597.25 0 31.5 S
1163.25 613 31.5 0 S
1180 630.25 0 31.5 S
1164.25 646 31.5 0 S
1180.5 613.75 0 31.5 S
1164.75 629.5 31.5 0 S
1181 580.75 0 31.5 S
1165.25 596.5 31.5 0 S
1181.5 597.25 0 31.5 S
1165.75 613 31.5 0 S
1182 580.75 0 31.5 S
1166.25 596.5 31.5 0 S
1182.5 580.75 0 31.5 S
1166.75 596.5 31.5 0 S
1184.5 580.75 0 31.5 S
1168.75 596.5 31.5 0 S
1185.5 580.75 0 31.5 S
1169.75 596.5 31.5 0 S
1186 597.75 0 31.5 S
1170.25 613.5 31.5 0 S
1186.5 580.75 0 31.5 S
1170.75 596.5 31.5 0 S
1187 580.75 0 31.5 S
1171.25 596.5 31.5 0 S
1188 597.75 0 31.5 S
1172.25 613.5 31.5 0 S
1188.5 597.75 0 31.5 S
1172.75 613.5 31.5 0 S
1190 581.25 0 31.5 S
1174.25 597 31.5 0 S
1191 581.25 0 31.5 S
1175.25 597 31.5 0 S
1192 581.25 0 31.5 S
1176.25 597 31.5 0 S
1193 598.25 0 31.5 S
1177.25 614 31.5 0 S
1193.5 581.25 0 31.5 S
1177.75 597 31.5 0 S
1194 581.25 0 31.5 S
1178.25 597 31.5 0 S
1194.5 581.25 0 31.5 S
1178.75 597 31.5 0 S
1197 581.25 0 31.5 S
1181.25 597 31.5 0 S
1198.5 598.75 0 31.5 S
1182.75 614.5 31.5 0 S
1201.5 581.75 0 31.5 S
1185.75 597.5 31.5 0 S
1202 598.75 0 31.5 S
1186.25 614.5 31.5 0 S
1205.5 581.75 0 31.5 S
1189.75 597.5 31.5 0 S
1206 581.75 0 31.5 S
1190.25 597.5 31.5 0 S
1208 581.75 0 31.5 S
1192.25 597.5 31.5 0 S
1208.5 581.75 0 31.5 S
1192.75 597.5 31.5 0 S
1211 599.75 0 31.5 S
1195.25 615.5 31.5 0 S
1212.5 599.75 0 31.5 S
1196.75 615.5 31.5 0 S
1213.5 582.25 0 31.5 S
1197.75 598 31.5 0 S
1214 582.25 0 31.5 S
1198.25 598 31.5 0 S
1215 582.25 0 31.5 S
1199.25 598 31.5 0 S
1216 582.25 0 31.5 S
1200.25 598 31.5 0 S
1216.5 582.25 0 31.5 S
1200.75 598 31.5 0 S
1217.5 600.25 0 31.5 S
1201.75 616 31.5 0 S
1218 582.25 0 31.5 S
1202.25 598 31.5 0 S
1221.5 582.25 0 31.5 S
1205.75 598 31.5 0 S
1222 582.25 0 31.5 S
1206.25 598 31.5 0 S
1224.5 600.75 0 31.5 S
1208.75 616.5 31.5 0 S
1228.5 582.75 0 31.5 S
1212.75 598.5 31.5 0 S
1229 582.75 0 31.5 S
1213.25 598.5 31.5 0 S
1231 601.25 0 31.5 S
1215.25 617 31.5 0 S
1231.5 582.75 0 31.5 S
1215.75 598.5 31.5 0 S
1233 582.75 0 31.5 S
1217.25 598.5 31.5 0 S
1234 582.75 0 31.5 S
1218.25 598.5 31.5 0 S
1237 582.75 0 31.5 S
1221.25 598.5 31.5 0 S
1237.5 582.75 0 31.5 S
1221.75 598.5 31.5 0 S
1238.5 582.75 0 31.5 S
1222.75 598.5 31.5 0 S
1241 583.25 0 31.5 S
1225.25 599 31.5 0 S
1242.5 583.25 0 31.5 S
1226.75 599 31.5 0 S
1243 583.25 0 31.5 S
1227.25 599 31.5 0 S
1243.5 583.25 0 31.5 S
1227.75 599 31.5 0 S
1244.5 602.25 0 31.5 S
1228.75 618 31.5 0 S
1246.5 583.25 0 31.5 S
1230.75 599 31.5 0 S
1248.5 583.25 0 31.5 S
1232.75 599 31.5 0 S
1251 583.25 0 31.5 S
1235.25 599 31.5 0 S
1252 583.25 0 31.5 S
1236.25 599 31.5 0 S
1254.5 583.75 0 31.5 S
1238.75 599.5 31.5 0 S
1255 583.75 0 31.5 S
1239.25 599.5 31.5 0 S
1255.5 583.75 0 31.5 S
1239.75 599.5 31.5 0 S
1260 583.75 0 31.5 S
1244.25 599.5 31.5 0 S
1261 583.75 0 31.5 S
1245.25 599.5 31.5 0 S
1264.5 583.75 0 31.5 S
1248.75 599.5 31.5 0 S
1268.5 584.25 0 31.5 S
1252.75 600 31.5 0 S
1270.5 584.25 0 31.5 S
1254.75 600 31.5 0 S
1279 584.75 0 31.5 S
1263.25 600.5 31.5 0 S
1284 605.25 0 31.5 S
1268.25 621 31.5 0 S
1284.5 584.75 0 31.5 S
1268.75 600.5 31.5 0 S
1285 584.75 0 31.5 S
1269.25 600.5 31.5 0 S
1294 605.75 0 31.5 S
1278.25 621.5 31.5 0 S
1295.5 585.25 0 31.5 S
1279.75 601 31.5 0 S
1414 589.75 0 31.5 S
1398.25 605.5 31.5 0 S
1694 600.75 0 31.5 S
1678.25 616.5 31.5 0 S
1836.5 605.75 0 31.5 S
1820.75 621.5 31.5 0 S
5 w
752 580 1128 592 re
S
cleartomark end end pagesave restore
 showpage
%%PageTrailer
%%Trailer
%%Pages: 1
