%!PS-Adobe-3.0 EPSF-3.0
%%BoundingBox: 63 52 193 119
%%HiResBoundingBox: 63.000000 52.600000 192.800000 118.700000
%.....................................
%%Creator: GPL Ghostscript 871 (epswrite)
%%CreationDate: 2012/01/28 17:04:37
%%DocumentData: Clean7Bit
%%LanguageLevel: 2
%%EndComments
%%BeginProlog
% This copyright applies to everything between here and the %%EndProlog:
% Copyright (C) 2010 Artifex Software, Inc.  All rights reserved.
%%BeginResource: procset GS_epswrite_2_0_1001 1.001 0
/GS_epswrite_2_0_1001 80 dict dup begin
/PageSize 2 array def/setpagesize{ PageSize aload pop 3 index eq exch
4 index eq and{ pop pop pop}{ PageSize dup  1
5 -1 roll put 0 4 -1 roll put dup null eq {false} {dup where} ifelse{ exch get exec}
{ pop/setpagedevice where
{ pop 1 dict dup /PageSize PageSize put setpagedevice}
{ /setpage where{ pop PageSize aload pop pageparams 3 {exch pop} repeat
setpage}if}ifelse}ifelse}ifelse} bind def
/!{bind def}bind def/#{load def}!/N/counttomark #
/rG{3{3 -1 roll 255 div}repeat setrgbcolor}!/G{255 div setgray}!/K{0 G}!
/r6{dup 3 -1 roll rG}!/r5{dup 3 1 roll rG}!/r3{dup rG}!
/w/setlinewidth #/J/setlinecap #
/j/setlinejoin #/M/setmiterlimit #/d/setdash #/i/setflat #
/m/moveto #/l/lineto #/c/rcurveto #
/p{N 2 idiv{N -2 roll rlineto}repeat}!
/P{N 0 gt{N -2 roll moveto p}if}!
/h{p closepath}!/H{P closepath}!
/lx{0 rlineto}!/ly{0 exch rlineto}!/v{0 0 6 2 roll c}!/y{2 copy c}!
/re{4 -2 roll m exch dup lx exch ly neg lx h}!
/^{3 index neg 3 index neg}!
/f{P fill}!/f*{P eofill}!/s{H stroke}!/S{P stroke}!
/q/gsave #/Q/grestore #/rf{re fill}!
/Y{P clip newpath}!/Y*{P eoclip newpath}!/rY{re Y}!
/|={pop exch 4 1 roll 1 array astore cvx 3 array astore cvx exch 1 index def exec}!
/|{exch string readstring |=}!
/+{dup type/nametype eq{2 index 7 add -3 bitshift 2 index mul}if}!
/@/currentfile #/${+ @ |}!
/B{{2 copy string{readstring pop}aload pop 4 array astore cvx
3 1 roll}repeat pop pop true}!
/Ix{[1 0 0 1 11 -2 roll exch neg exch neg]exch}!
/,{true exch Ix imagemask}!/If{false exch Ix imagemask}!/I{exch Ix image}!
/Ic{exch Ix false 3 colorimage}!
/F{/Columns counttomark 3 add -2 roll/Rows exch/K -1/BlackIs1 true>>
/CCITTFaxDecode filter}!/FX{<</EndOfBlock false F}!
/X{/ASCII85Decode filter}!/@X{@ X}!/&2{2 index 2 index}!
/@F{@ &2<<F}!/@C{@X &2 FX}!
/$X{+ @X |}!/&4{4 index 4 index}!/$F{+ @ &4<<F |}!/$C{+ @X &4 FX |}!
/IC{3 1 roll 10 dict begin 1{/ImageType/Interpolate/Decode/DataSource
/ImageMatrix/BitsPerComponent/Height/Width}{exch def}forall
currentdict end image}!
/~{@ read {pop} if}!
end def
%%EndResource
/pagesave null def
%%EndProlog
%%Page: 1 1
%%BeginPageSetup
GS_epswrite_2_0_1001 begin
/pagesave save store 197 dict begin
0.1 0.1 scale
%%EndPageSetup
gsave mark
Q q
0 0 250000 250000 re
Y
5 w
K
800 580 31.5 0 P
1880 580 -31.5 0 P
776 580 S
754 566 20 29 /3U
$C
1FPQ<U3?$Yf(B"@-NF,Gs8VI:s4Z>6_Utnc_LM~>
,
800 678.5 31.5 0 P
1880 678.5 -31.5 0 P
776 678.5 S
643 665 20 29 /6U
$C
4ubjWU3Po,o_Rk*s6<n@f%<V1R!%%dIdd8'"9&~>
,
665 665 3U ,
687 665 3U ,
709 665 3U ,
732 665 3U ,
754 665 3U ,
800 777.5 31.5 0 P
1880 777.5 -31.5 0 P
776 777.5 S
664 765 14 28 /3Y
$X
!#ttY!#ttY!#ttY!#ttY!#ttY!#ttY!#ttY!#ttY!#ttY!#ttY&,Zt9#Q+RL!'C6$!#ttY~>
,
686 764 21 23 /6Y
$C
1E7P%d6)YL8\`[qneo\fjs0j!?2$u#-"F0QK`~>
,
708 765 21 19 /4C
$C
-bo]]/fFSYs8Vu~>
,
732 764 3U ,
754 764 20 29 /7C
$C
1FPQ<U3Q=d-e7Y"s8AeG%4ldp0#HXsnoio)>?_hW(f1~>
,
800 876 31.5 0 P
1880 876 -31.5 0 P
776 876 S
630 863 3Y ,
653 863 8 4 /4G
$X
%hB0]~>
,
664 862 6U ,
686 862 6Y ,
708 863 4C ,
732 862 3U ,
754 862 7C ,
800 974.5 31.5 0 P
1880 974.5 -31.5 0 P
776 974.5 S
664 962 20 28 /7G
$C
,DLX/f)<4*G2\3b_f4BiDYnJCs)k]M28qoi(f1~>
,
686 961 6Y ,
708 962 4C ,
732 961 3U ,
754 961 7C ,
800 1073.5 31.5 0 P
1880 1073.5 -31.5 0 P
776 1073.5 S
630 1061 7G ,
653 1061 4G ,
664 1060 6U ,
686 1060 6Y ,
708 1061 4C ,
732 1060 3U ,
754 1060 7C ,
800 1172 31.5 0 P
1880 1172 -31.5 0 P
776 1172 S
664 1158 20 29 /4K
$C
4ubjTFAK95e*4:<I;0O20"3!o2gKcMpY@AS[OTc\TE~>
,
686 1158 6Y ,
708 1159 4C ,
732 1158 3U ,
754 1158 7C ,
800 580 0 31.5 P
800 1172 0 -31.5 P
800 540 S
794 526 3U ,
898 580 0 31.5 P
898 1172 0 -31.5 P
898 540 S
870 527 7G ,
892 526 3U ,
915 526 3U ,
996.5 580 0 31.5 P
996.5 1172 0 -31.5 P
996.5 540 S
969 527 21 28 /7K
$C
+lE=tNZ()dc&_>&hm`'`hqr@eA,!aN~>
,
991 526 3U ,
1013 526 3U ,
1094.5 580 0 31.5 P
1094.5 1172 0 -31.5 P
1094.5 540 S
1067 526 7C ,
1089 526 3U ,
1111 526 3U ,
1192.5 580 0 31.5 P
1192.5 1172 0 -31.5 P
1192.5 540 S
1165 526 20 29 /4O
$C
1FPQ+%kk;Ze'`17rmeBXV.-Q*UA='<2uipOdb<?S:r7_~>
,
1187 526 3U ,
1209 526 3U ,
1291 580 0 31.5 P
1291 1172 0 -31.5 P
1291 540 S
1252 527 3Y ,
1274 526 3U ,
1297 526 3U ,
1319 526 3U ,
1389 580 0 31.5 P
1389 1172 0 -31.5 P
1389 540 S
1350 527 3Y ,
1372 527 7G ,
1395 526 3U ,
1417 526 3U ,
1487.5 580 0 31.5 P
1487.5 1172 0 -31.5 P
1487.5 540 S
1449 527 3Y ,
1471 527 7K ,
1493 526 3U ,
1515 526 3U ,
1585.5 580 0 31.5 P
1585.5 1172 0 -31.5 P
1585.5 540 S
1547 527 3Y ,
1569 526 7C ,
1591 526 3U ,
1613 526 3U ,
1683.5 580 0 31.5 P
1683.5 1172 0 -31.5 P
1683.5 540 S
1645 527 3Y ,
1667 526 4O ,
1689 526 3U ,
1711 526 3U ,
1782 580 0 31.5 P
1782 1172 0 -31.5 P
1782 540 S
1743 527 7G ,
1765 526 3U ,
1788 526 3U ,
1810 526 3U ,
1880 580 0 31.5 P
1880 1172 0 -31.5 P
1880 540 S
1841 527 7G ,
1863 527 7G ,
1886 526 3U ,
1908 526 3U ,
800 580 1080 592 re
S
2.5 w
887 1115.75 0 31.5 S
871.25 1131.5 31.5 0 S
892.5 1115.75 0 31.5 S
876.75 1131.5 31.5 0 S
893.5 1115.75 0 31.5 S
877.75 1131.5 31.5 0 S
894 1115.75 0 31.5 S
878.25 1131.5 31.5 0 S
897.5 1115.75 0 31.5 S
881.75 1131.5 31.5 0 S
904.5 1115.75 0 31.5 S
888.75 1131.5 31.5 0 S
921.5 1115.25 0 31.5 S
905.75 1131 31.5 0 S
937.5 1115.25 0 31.5 S
921.75 1131 31.5 0 S
945 1115.25 0 31.5 S
929.25 1131 31.5 0 S
986 1115.25 0 31.5 S
970.25 1131 31.5 0 S
986.5 1115.25 0 31.5 S
970.75 1131 31.5 0 S
1031.5 1115.25 0 31.5 S
1015.75 1131 31.5 0 S
1032.5 1115.25 0 31.5 S
1016.75 1131 31.5 0 S
1037 1114.75 0 31.5 S
1021.25 1130.5 31.5 0 S
1038 1114.75 0 31.5 S
1022.25 1130.5 31.5 0 S
1041.5 1114.75 0 31.5 S
1025.75 1130.5 31.5 0 S
1043.5 1114.75 0 31.5 S
1027.75 1130.5 31.5 0 S
1046.5 1114.75 0 31.5 S
1030.75 1130.5 31.5 0 S
1051 1114.25 0 31.5 S
1035.25 1130 31.5 0 S
1051.5 1114.25 0 31.5 S
1035.75 1130 31.5 0 S
1053 1114.25 0 31.5 S
1037.25 1130 31.5 0 S
1054.5 1114.25 0 31.5 S
1038.75 1130 31.5 0 S
1055 1113.75 0 31.5 S
1039.25 1129.5 31.5 0 S
1055.5 1113.75 0 31.5 S
1039.75 1129.5 31.5 0 S
1056 1113.75 0 31.5 S
1040.25 1129.5 31.5 0 S
1056.5 1113.25 0 31.5 S
1040.75 1129 31.5 0 S
1057 1113.25 0 31.5 S
1041.25 1129 31.5 0 S
1058 1112.75 0 31.5 S
1042.25 1128.5 31.5 0 S
1058.5 1112.75 0 31.5 S
1042.75 1128.5 31.5 0 S
1059 1112.25 0 31.5 S
1043.25 1128 31.5 0 S
1059.5 1112.25 0 31.5 S
1043.75 1128 31.5 0 S
1060 1112.25 0 31.5 S
1044.25 1128 31.5 0 S
1060.5 1111.75 0 31.5 S
1044.75 1127.5 31.5 0 S
1061.5 1111.75 0 31.5 S
1045.75 1127.5 31.5 0 S
1062 1111.25 0 31.5 S
1046.25 1127 31.5 0 S
1062.5 1111.25 0 31.5 S
1046.75 1127 31.5 0 S
1063 1110.75 0 31.5 S
1047.25 1126.5 31.5 0 S
1063.5 1110.75 0 31.5 S
1047.75 1126.5 31.5 0 S
1064 1110.25 0 31.5 S
1048.25 1126 31.5 0 S
1064.5 1110.25 0 31.5 S
1048.75 1126 31.5 0 S
1065 1109.75 0 31.5 S
1049.25 1125.5 31.5 0 S
1065.5 1109.25 0 31.5 S
1049.75 1125 31.5 0 S
1066 1108.75 0 31.5 S
1050.25 1124.5 31.5 0 S
1066.5 1108.25 0 31.5 S
1050.75 1124 31.5 0 S
1067 1108.25 0 31.5 S
1051.25 1124 31.5 0 S
1067.5 1107.75 0 31.5 S
1051.75 1123.5 31.5 0 S
1068 1106.75 0 31.5 S
1052.25 1122.5 31.5 0 S
1068.5 1106.75 0 31.5 S
1052.75 1122.5 31.5 0 S
1069 1105.75 0 31.5 S
1053.25 1121.5 31.5 0 S
1069.5 1105.25 0 31.5 S
1053.75 1121 31.5 0 S
1070 1104.75 0 31.5 S
1054.25 1120.5 31.5 0 S
1070.5 1104.25 0 31.5 S
1054.75 1120 31.5 0 S
1071 1103.75 0 31.5 S
1055.25 1119.5 31.5 0 S
1071.5 1102.75 0 31.5 S
1055.75 1118.5 31.5 0 S
1072 1101.75 0 31.5 S
1056.25 1117.5 31.5 0 S
1072.5 1101.25 0 31.5 S
1056.75 1117 31.5 0 S
1073 1100.75 0 31.5 S
1057.25 1116.5 31.5 0 S
1073.5 1100.25 0 31.5 S
1057.75 1116 31.5 0 S
1074 1098.25 0 31.5 S
1058.25 1114 31.5 0 S
1074.5 1097.75 0 31.5 S
1058.75 1113.5 31.5 0 S
1075 1096.25 0 31.5 S
1059.25 1112 31.5 0 S
1075.5 1095.75 0 31.5 S
1059.75 1111.5 31.5 0 S
1076 1094.75 0 31.5 S
1060.25 1110.5 31.5 0 S
1076.5 1094.25 0 31.5 S
1060.75 1110 31.5 0 S
1077 1093.25 0 31.5 S
1061.25 1109 31.5 0 S
1077.5 1092.25 0 31.5 S
1061.75 1108 31.5 0 S
1078 1090.75 0 31.5 S
1062.25 1106.5 31.5 0 S
1078.5 1089.75 0 31.5 S
1062.75 1105.5 31.5 0 S
1079 1088.75 0 31.5 S
1063.25 1104.5 31.5 0 S
1079.5 1087.75 0 31.5 S
1063.75 1103.5 31.5 0 S
1080 1085.25 0 31.5 S
1064.25 1101 31.5 0 S
1080.5 1083.75 0 31.5 S
1064.75 1099.5 31.5 0 S
1081 1082.25 0 31.5 S
1065.25 1098 31.5 0 S
1081.5 1081.25 0 31.5 S
1065.75 1097 31.5 0 S
1082 1079.75 0 31.5 S
1066.25 1095.5 31.5 0 S
1082.5 1078.25 0 31.5 S
1066.75 1094 31.5 0 S
1083 1076.25 0 31.5 S
1067.25 1092 31.5 0 S
1083.5 1074.25 0 31.5 S
1067.75 1090 31.5 0 S
1083.5 1071.25 0 31.5 S
1067.75 1087 31.5 0 S
1084 1069.75 0 31.5 S
1068.25 1085.5 31.5 0 S
1084.5 1066.75 0 31.5 S
1068.75 1082.5 31.5 0 S
1085 1065.25 0 31.5 S
1069.25 1081 31.5 0 S
1085.5 1063.25 0 31.5 S
1069.75 1079 31.5 0 S
1086 1059.75 0 31.5 S
1070.25 1075.5 31.5 0 S
1086.5 1058.25 0 31.5 S
1070.75 1074 31.5 0 S
1087 1056.25 0 31.5 S
1071.25 1072 31.5 0 S
1087.5 1053.75 0 31.5 S
1071.75 1069.5 31.5 0 S
1088 1051.25 0 31.5 S
1072.25 1067 31.5 0 S
1088.5 1049.25 0 31.5 S
1072.75 1065 31.5 0 S
1089 1046.75 0 31.5 S
1073.25 1062.5 31.5 0 S
1089.5 1043.75 0 31.5 S
1073.75 1059.5 31.5 0 S
1090 1042.25 0 31.5 S
1074.25 1058 31.5 0 S
1090.5 1038.25 0 31.5 S
1074.75 1054 31.5 0 S
1091 1036.25 0 31.5 S
1075.25 1052 31.5 0 S
1091.5 1032.75 0 31.5 S
1075.75 1048.5 31.5 0 S
1092 1029.75 0 31.5 S
1076.25 1045.5 31.5 0 S
1092.5 1026.75 0 31.5 S
1076.75 1042.5 31.5 0 S
1093 1023.75 0 31.5 S
1077.25 1039.5 31.5 0 S
1093.5 1021.75 0 31.5 S
1077.75 1037.5 31.5 0 S
1094 1018.75 0 31.5 S
1078.25 1034.5 31.5 0 S
1094.5 1016.25 0 31.5 S
1078.75 1032 31.5 0 S
1095 1012.75 0 31.5 S
1079.25 1028.5 31.5 0 S
1095.5 1009.25 0 31.5 S
1079.75 1025 31.5 0 S
1096 1005.75 0 31.5 S
1080.25 1021.5 31.5 0 S
1096.5 1002.75 0 31.5 S
1080.75 1018.5 31.5 0 S
1097 998.75 0 31.5 S
1081.25 1014.5 31.5 0 S
1097.5 995.75 0 31.5 S
1081.75 1011.5 31.5 0 S
1098 991.75 0 31.5 S
1082.25 1007.5 31.5 0 S
1098.5 989.75 0 31.5 S
1082.75 1005.5 31.5 0 S
1099 984.75 0 31.5 S
1083.25 1000.5 31.5 0 S
1099.5 981.25 0 31.5 S
1083.75 997 31.5 0 S
1100 976.25 0 31.5 S
1084.25 992 31.5 0 S
1100.5 972.75 0 31.5 S
1084.75 988.5 31.5 0 S
1101 969.25 0 31.5 S
1085.25 985 31.5 0 S
1101.5 965.75 0 31.5 S
1085.75 981.5 31.5 0 S
1102 962.75 0 31.5 S
1086.25 978.5 31.5 0 S
1102.5 959.25 0 31.5 S
1086.75 975 31.5 0 S
1103 955.75 0 31.5 S
1087.25 971.5 31.5 0 S
1103.5 952.25 0 31.5 S
1087.75 968 31.5 0 S
1104 948.25 0 31.5 S
1088.25 964 31.5 0 S
1104.5 944.75 0 31.5 S
1088.75 960.5 31.5 0 S
1105 940.75 0 31.5 S
1089.25 956.5 31.5 0 S
1105.5 936.75 0 31.5 S
1089.75 952.5 31.5 0 S
1106 933.75 0 31.5 S
1090.25 949.5 31.5 0 S
1106.5 931.25 0 31.5 S
1090.75 947 31.5 0 S
1107 927.75 0 31.5 S
1091.25 943.5 31.5 0 S
1107.5 922.75 0 31.5 S
1091.75 938.5 31.5 0 S
1108 918.25 0 31.5 S
1092.25 934 31.5 0 S
1108.5 915.25 0 31.5 S
1092.75 931 31.5 0 S
1109 909.75 0 31.5 S
1093.25 925.5 31.5 0 S
1109.5 906.25 0 31.5 S
1093.75 922 31.5 0 S
1110 902.25 0 31.5 S
1094.25 918 31.5 0 S
1110.5 898.25 0 31.5 S
1094.75 914 31.5 0 S
1110.5 894.75 0 31.5 S
1094.75 910.5 31.5 0 S
1111 891.75 0 31.5 S
1095.25 907.5 31.5 0 S
1111.5 887.75 0 31.5 S
1095.75 903.5 31.5 0 S
1112 884.25 0 31.5 S
1096.25 900 31.5 0 S
1112.5 880.25 0 31.5 S
1096.75 896 31.5 0 S
1113 876.25 0 31.5 S
1097.25 892 31.5 0 S
1113.5 872.25 0 31.5 S
1097.75 888 31.5 0 S
1114 867.75 0 31.5 S
1098.25 883.5 31.5 0 S
1114.5 864.75 0 31.5 S
1098.75 880.5 31.5 0 S
1115 860.75 0 31.5 S
1099.25 876.5 31.5 0 S
1115.5 857.25 0 31.5 S
1099.75 873 31.5 0 S
1116 854.25 0 31.5 S
1100.25 870 31.5 0 S
1116.5 848.75 0 31.5 S
1100.75 864.5 31.5 0 S
1117 846.25 0 31.5 S
1101.25 862 31.5 0 S
1117.5 843.75 0 31.5 S
1101.75 859.5 31.5 0 S
1118 840.75 0 31.5 S
1102.25 856.5 31.5 0 S
1118.5 836.75 0 31.5 S
1102.75 852.5 31.5 0 S
1119 833.75 0 31.5 S
1103.25 849.5 31.5 0 S
1119.5 828.75 0 31.5 S
1103.75 844.5 31.5 0 S
1120 824.75 0 31.5 S
1104.25 840.5 31.5 0 S
1120.5 820.25 0 31.5 S
1104.75 836 31.5 0 S
1121 817.25 0 31.5 S
1105.25 833 31.5 0 S
1121.5 813.75 0 31.5 S
1105.75 829.5 31.5 0 S
1122 810.75 0 31.5 S
1106.25 826.5 31.5 0 S
1122.5 808.25 0 31.5 S
1106.75 824 31.5 0 S
1123 804.75 0 31.5 S
1107.25 820.5 31.5 0 S
1123.5 801.25 0 31.5 S
1107.75 817 31.5 0 S
1124 798.25 0 31.5 S
1108.25 814 31.5 0 S
1124.5 794.75 0 31.5 S
1108.75 810.5 31.5 0 S
1125 790.75 0 31.5 S
1109.25 806.5 31.5 0 S
1125.5 787.75 0 31.5 S
1109.75 803.5 31.5 0 S
1126 784.25 0 31.5 S
1110.25 800 31.5 0 S
1126.5 780.75 0 31.5 S
1110.75 796.5 31.5 0 S
1127 777.25 0 31.5 S
1111.25 793 31.5 0 S
1127.5 774.25 0 31.5 S
1111.75 790 31.5 0 S
1128 771.75 0 31.5 S
1112.25 787.5 31.5 0 S
1128.5 769.25 0 31.5 S
1112.75 785 31.5 0 S
1129 766.75 0 31.5 S
1113.25 782.5 31.5 0 S
1129.5 763.25 0 31.5 S
1113.75 779 31.5 0 S
1130 760.25 0 31.5 S
1114.25 776 31.5 0 S
1130.5 757.25 0 31.5 S
1114.75 773 31.5 0 S
1131 753.75 0 31.5 S
1115.25 769.5 31.5 0 S
1131.5 751.75 0 31.5 S
1115.75 767.5 31.5 0 S
1132 748.25 0 31.5 S
1116.25 764 31.5 0 S
1132.5 744.25 0 31.5 S
1116.75 760 31.5 0 S
1133 741.75 0 31.5 S
1117.25 757.5 31.5 0 S
1133.5 739.75 0 31.5 S
1117.75 755.5 31.5 0 S
1134 736.75 0 31.5 S
1118.25 752.5 31.5 0 S
1134.5 735.25 0 31.5 S
1118.75 751 31.5 0 S
1135 732.75 0 31.5 S
1119.25 748.5 31.5 0 S
1135.5 730.75 0 31.5 S
1119.75 746.5 31.5 0 S
1136 729.25 0 31.5 S
1120.25 745 31.5 0 S
1136.5 726.25 0 31.5 S
1120.75 742 31.5 0 S
1137 724.75 0 31.5 S
1121.25 740.5 31.5 0 S
1137.5 721.75 0 31.5 S
1121.75 737.5 31.5 0 S
1137.5 719.75 0 31.5 S
1121.75 735.5 31.5 0 S
1138 717.25 0 31.5 S
1122.25 733 31.5 0 S
1138.5 716.25 0 31.5 S
1122.75 732 31.5 0 S
1139 713.25 0 31.5 S
1123.25 729 31.5 0 S
1139.5 711.25 0 31.5 S
1123.75 727 31.5 0 S
1140 708.25 0 31.5 S
1124.25 724 31.5 0 S
1140.5 704.75 0 31.5 S
1124.75 720.5 31.5 0 S
1141 703.25 0 31.5 S
1125.25 719 31.5 0 S
1141.5 701.75 0 31.5 S
1125.75 717.5 31.5 0 S
1142 699.75 0 31.5 S
1126.25 715.5 31.5 0 S
1142.5 696.75 0 31.5 S
1126.75 712.5 31.5 0 S
1143 695.25 0 31.5 S
1127.25 711 31.5 0 S
1143.5 692.75 0 31.5 S
1127.75 708.5 31.5 0 S
1144 690.25 0 31.5 S
1128.25 706 31.5 0 S
1144.5 689.25 0 31.5 S
1128.75 705 31.5 0 S
1145 687.25 0 31.5 S
1129.25 703 31.5 0 S
1145.5 685.75 0 31.5 S
1129.75 701.5 31.5 0 S
1146 683.75 0 31.5 S
1130.25 699.5 31.5 0 S
1146.5 682.25 0 31.5 S
1130.75 698 31.5 0 S
1147 680.25 0 31.5 S
1131.25 696 31.5 0 S
1147.5 678.75 0 31.5 S
1131.75 694.5 31.5 0 S
1148 676.25 0 31.5 S
1132.25 692 31.5 0 S
1148.5 673.75 0 31.5 S
1132.75 689.5 31.5 0 S
1149 672.75 0 31.5 S
1133.25 688.5 31.5 0 S
1149.5 670.75 0 31.5 S
1133.75 686.5 31.5 0 S
1150 668.75 0 31.5 S
1134.25 684.5 31.5 0 S
1150.5 666.75 0 31.5 S
1134.75 682.5 31.5 0 S
1151 665.25 0 31.5 S
1135.25 681 31.5 0 S
1151.5 663.25 0 31.5 S
1135.75 679 31.5 0 S
1152 662.25 0 31.5 S
1136.25 678 31.5 0 S
1152.5 660.75 0 31.5 S
1136.75 676.5 31.5 0 S
1153 659.25 0 31.5 S
1137.25 675 31.5 0 S
1153.5 657.25 0 31.5 S
1137.75 673 31.5 0 S
1154 654.75 0 31.5 S
1138.25 670.5 31.5 0 S
1154.5 653.75 0 31.5 S
1138.75 669.5 31.5 0 S
1155 652.75 0 31.5 S
1139.25 668.5 31.5 0 S
1155.5 649.75 0 31.5 S
1139.75 665.5 31.5 0 S
1156 648.75 0 31.5 S
1140.25 664.5 31.5 0 S
1156.5 648.25 0 31.5 S
1140.75 664 31.5 0 S
1157 646.75 0 31.5 S
1141.25 662.5 31.5 0 S
1157.5 645.75 0 31.5 S
1141.75 661.5 31.5 0 S
1158 644.25 0 31.5 S
1142.25 660 31.5 0 S
1158.5 642.25 0 31.5 S
1142.75 658 31.5 0 S
1159 641.75 0 31.5 S
1143.25 657.5 31.5 0 S
1159.5 640.75 0 31.5 S
1143.75 656.5 31.5 0 S
1160 639.75 0 31.5 S
1144.25 655.5 31.5 0 S
1160.5 638.25 0 31.5 S
1144.75 654 31.5 0 S
1161 637.25 0 31.5 S
1145.25 653 31.5 0 S
1161.5 636.75 0 31.5 S
1145.75 652.5 31.5 0 S
1162 634.75 0 31.5 S
1146.25 650.5 31.5 0 S
1162.5 633.25 0 31.5 S
1146.75 649 31.5 0 S
1163 632.25 0 31.5 S
1147.25 648 31.5 0 S
1163.5 631.25 0 31.5 S
1147.75 647 31.5 0 S
1164 630.25 0 31.5 S
1148.25 646 31.5 0 S
1164.5 628.75 0 31.5 S
1148.75 644.5 31.5 0 S
1164.5 628.25 0 31.5 S
1148.75 644 31.5 0 S
1165 627.25 0 31.5 S
1149.25 643 31.5 0 S
1165.5 626.75 0 31.5 S
1149.75 642.5 31.5 0 S
1166 625.25 0 31.5 S
1150.25 641 31.5 0 S
1166.5 623.75 0 31.5 S
1150.75 639.5 31.5 0 S
1167 622.25 0 31.5 S
1151.25 638 31.5 0 S
1167.5 621.25 0 31.5 S
1151.75 637 31.5 0 S
1168 620.75 0 31.5 S
1152.25 636.5 31.5 0 S
1168.5 619.25 0 31.5 S
1152.75 635 31.5 0 S
1169 618.25 0 31.5 S
1153.25 634 31.5 0 S
1169.5 617.25 0 31.5 S
1153.75 633 31.5 0 S
1170 616.75 0 31.5 S
1154.25 632.5 31.5 0 S
1170.5 615.25 0 31.5 S
1154.75 631 31.5 0 S
1171 614.25 0 31.5 S
1155.25 630 31.5 0 S
1171.5 614.25 0 31.5 S
1155.75 630 31.5 0 S
1172 612.75 0 31.5 S
1156.25 628.5 31.5 0 S
1172.5 611.75 0 31.5 S
1156.75 627.5 31.5 0 S
1173 610.75 0 31.5 S
1157.25 626.5 31.5 0 S
1173.5 610.25 0 31.5 S
1157.75 626 31.5 0 S
1174 609.75 0 31.5 S
1158.25 625.5 31.5 0 S
1174.5 609.25 0 31.5 S
1158.75 625 31.5 0 S
1175 608.25 0 31.5 S
1159.25 624 31.5 0 S
1175.5 607.75 0 31.5 S
1159.75 623.5 31.5 0 S
1176 607.25 0 31.5 S
1160.25 623 31.5 0 S
1176.5 606.75 0 31.5 S
1160.75 622.5 31.5 0 S
1177 606.25 0 31.5 S
1161.25 622 31.5 0 S
1177.5 605.75 0 31.5 S
1161.75 621.5 31.5 0 S
1178 605.25 0 31.5 S
1162.25 621 31.5 0 S
1178.5 604.75 0 31.5 S
1162.75 620.5 31.5 0 S
1179 604.25 0 31.5 S
1163.25 620 31.5 0 S
1179.5 604.25 0 31.5 S
1163.75 620 31.5 0 S
1180 603.75 0 31.5 S
1164.25 619.5 31.5 0 S
1180.5 603.25 0 31.5 S
1164.75 619 31.5 0 S
1181 602.75 0 31.5 S
1165.25 618.5 31.5 0 S
1181.5 601.75 0 31.5 S
1165.75 617.5 31.5 0 S
1182 600.75 0 31.5 S
1166.25 616.5 31.5 0 S
1182.5 600.25 0 31.5 S
1166.75 616 31.5 0 S
1183 599.25 0 31.5 S
1167.25 615 31.5 0 S
1183.5 598.25 0 31.5 S
1167.75 614 31.5 0 S
1184 598.25 0 31.5 S
1168.25 614 31.5 0 S
1184.5 597.75 0 31.5 S
1168.75 613.5 31.5 0 S
1185 597.25 0 31.5 S
1169.25 613 31.5 0 S
1185.5 596.75 0 31.5 S
1169.75 612.5 31.5 0 S
1186 595.75 0 31.5 S
1170.25 611.5 31.5 0 S
1186.5 595.25 0 31.5 S
1170.75 611 31.5 0 S
1187 595.25 0 31.5 S
1171.25 611 31.5 0 S
1187.5 594.75 0 31.5 S
1171.75 610.5 31.5 0 S
1188 594.25 0 31.5 S
1172.25 610 31.5 0 S
1188.5 594.25 0 31.5 S
1172.75 610 31.5 0 S
1189 593.75 0 31.5 S
1173.25 609.5 31.5 0 S
1189.5 593.25 0 31.5 S
1173.75 609 31.5 0 S
1190 592.75 0 31.5 S
1174.25 608.5 31.5 0 S
1190.5 592.75 0 31.5 S
1174.75 608.5 31.5 0 S
1191 592.25 0 31.5 S
1175.25 608 31.5 0 S
1191.5 591.75 0 31.5 S
1175.75 607.5 31.5 0 S
1191.5 591.25 0 31.5 S
1175.75 607 31.5 0 S
1192 590.25 0 31.5 S
1176.25 606 31.5 0 S
1192.5 590.25 0 31.5 S
1176.75 606 31.5 0 S
1193 589.75 0 31.5 S
1177.25 605.5 31.5 0 S
1193.5 589.25 0 31.5 S
1177.75 605 31.5 0 S
1194 589.25 0 31.5 S
1178.25 605 31.5 0 S
1194.5 588.75 0 31.5 S
1178.75 604.5 31.5 0 S
1195.5 588.75 0 31.5 S
1179.75 604.5 31.5 0 S
1196 588.75 0 31.5 S
1180.25 604.5 31.5 0 S
1196.5 588.25 0 31.5 S
1180.75 604 31.5 0 S
1197 587.75 0 31.5 S
1181.25 603.5 31.5 0 S
1197.5 587.75 0 31.5 S
1181.75 603.5 31.5 0 S
1198 587.25 0 31.5 S
1182.25 603 31.5 0 S
1198.5 586.75 0 31.5 S
1182.75 602.5 31.5 0 S
1200 586.75 0 31.5 S
1184.25 602.5 31.5 0 S
1200.5 586.25 0 31.5 S
1184.75 602 31.5 0 S
1201 585.25 0 31.5 S
1185.25 601 31.5 0 S
1201.5 585.25 0 31.5 S
1185.75 601 31.5 0 S
1202 584.75 0 31.5 S
1186.25 600.5 31.5 0 S
1202.5 584.25 0 31.5 S
1186.75 600 31.5 0 S
1203.5 584.25 0 31.5 S
1187.75 600 31.5 0 S
1204 583.75 0 31.5 S
1188.25 599.5 31.5 0 S
1204.5 583.75 0 31.5 S
1188.75 599.5 31.5 0 S
1205 583.25 0 31.5 S
1189.25 599 31.5 0 S
1205.5 583.25 0 31.5 S
1189.75 599 31.5 0 S
1206 583.25 0 31.5 S
1190.25 599 31.5 0 S
1206.5 582.75 0 31.5 S
1190.75 598.5 31.5 0 S
1207 582.75 0 31.5 S
1191.25 598.5 31.5 0 S
1207.5 582.25 0 31.5 S
1191.75 598 31.5 0 S
1208 582.25 0 31.5 S
1192.25 598 31.5 0 S
1209 581.75 0 31.5 S
1193.25 597.5 31.5 0 S
1210 581.25 0 31.5 S
1194.25 597 31.5 0 S
1210.5 580.75 0 31.5 S
1194.75 596.5 31.5 0 S
1211 580.75 0 31.5 S
1195.25 596.5 31.5 0 S
1211.5 580.25 0 31.5 S
1195.75 596 31.5 0 S
1212 580.25 0 31.5 S
1196.25 596 31.5 0 S
1212.5 579.75 0 31.5 S
1196.75 595.5 31.5 0 S
1214.5 579.75 0 31.5 S
1198.75 595.5 31.5 0 S
1215 579.75 0 31.5 S
1199.25 595.5 31.5 0 S
1215.5 579.25 0 31.5 S
1199.75 595 31.5 0 S
1216 579.25 0 31.5 S
1200.25 595 31.5 0 S
1216.5 578.75 0 31.5 S
1200.75 594.5 31.5 0 S
1217.5 578.75 0 31.5 S
1201.75 594.5 31.5 0 S
1218 578.25 0 31.5 S
1202.25 594 31.5 0 S
1219 578.25 0 31.5 S
1203.25 594 31.5 0 S
1220 577.75 0 31.5 S
1204.25 593.5 31.5 0 S
1221 577.75 0 31.5 S
1205.25 593.5 31.5 0 S
1222 577.25 0 31.5 S
1206.25 593 31.5 0 S
1222.5 577.25 0 31.5 S
1206.75 593 31.5 0 S
1223 577.25 0 31.5 S
1207.25 593 31.5 0 S
1223.5 576.75 0 31.5 S
1207.75 592.5 31.5 0 S
1226 576.75 0 31.5 S
1210.25 592.5 31.5 0 S
1227.5 576.25 0 31.5 S
1211.75 592 31.5 0 S
1230.5 576.25 0 31.5 S
1214.75 592 31.5 0 S
1231 575.75 0 31.5 S
1215.25 591.5 31.5 0 S
1234 575.75 0 31.5 S
1218.25 591.5 31.5 0 S
1234.5 575.25 0 31.5 S
1218.75 591 31.5 0 S
1236.5 575.25 0 31.5 S
1220.75 591 31.5 0 S
1237 575.25 0 31.5 S
1221.25 591 31.5 0 S
1239.5 574.75 0 31.5 S
1223.75 590.5 31.5 0 S
1241 574.25 0 31.5 S
1225.25 590 31.5 0 S
1242 574.25 0 31.5 S
1226.25 590 31.5 0 S
1242.5 574.25 0 31.5 S
1226.75 590 31.5 0 S
1243.5 573.75 0 31.5 S
1227.75 589.5 31.5 0 S
1244.5 573.75 0 31.5 S
1228.75 589.5 31.5 0 S
1245 573.75 0 31.5 S
1229.25 589.5 31.5 0 S
1245.5 573.25 0 31.5 S
1229.75 589 31.5 0 S
1246 572.75 0 31.5 S
1230.25 588.5 31.5 0 S
1249.5 572.75 0 31.5 S
1233.75 588.5 31.5 0 S
1250 572.75 0 31.5 S
1234.25 588.5 31.5 0 S
1252.5 572.25 0 31.5 S
1236.75 588 31.5 0 S
1256 572.25 0 31.5 S
1240.25 588 31.5 0 S
1256.5 571.75 0 31.5 S
1240.75 587.5 31.5 0 S
1258.5 571.75 0 31.5 S
1242.75 587.5 31.5 0 S
1259 571.25 0 31.5 S
1243.25 587 31.5 0 S
1260.5 571.25 0 31.5 S
1244.75 587 31.5 0 S
1261.5 570.75 0 31.5 S
1245.75 586.5 31.5 0 S
1264.5 570.75 0 31.5 S
1248.75 586.5 31.5 0 S
1265 570.75 0 31.5 S
1249.25 586.5 31.5 0 S
1266 570.25 0 31.5 S
1250.25 586 31.5 0 S
1268.5 570.25 0 31.5 S
1252.75 586 31.5 0 S
1270 570.25 0 31.5 S
1254.25 586 31.5 0 S
1270.5 569.75 0 31.5 S
1254.75 585.5 31.5 0 S
1271 569.75 0 31.5 S
1255.25 585.5 31.5 0 S
1272 569.25 0 31.5 S
1256.25 585 31.5 0 S
1273 569.25 0 31.5 S
1257.25 585 31.5 0 S
1275 568.75 0 31.5 S
1259.25 584.5 31.5 0 S
1277.5 568.75 0 31.5 S
1261.75 584.5 31.5 0 S
1278.5 568.75 0 31.5 S
1262.75 584.5 31.5 0 S
1281 568.25 0 31.5 S
1265.25 584 31.5 0 S
1281.5 568.25 0 31.5 S
1265.75 584 31.5 0 S
1282 567.75 0 31.5 S
1266.25 583.5 31.5 0 S
1286.5 567.75 0 31.5 S
1270.75 583.5 31.5 0 S
1287.5 567.75 0 31.5 S
1271.75 583.5 31.5 0 S
1291 567.25 0 31.5 S
1275.25 583 31.5 0 S
1294.5 567.25 0 31.5 S
1278.75 583 31.5 0 S
1296.5 566.75 0 31.5 S
1280.75 582.5 31.5 0 S
1304.5 566.75 0 31.5 S
1288.75 582.5 31.5 0 S
1309.5 566.25 0 31.5 S
1293.75 582 31.5 0 S
1310 566.25 0 31.5 S
1294.25 582 31.5 0 S
1310.5 565.75 0 31.5 S
1294.75 581.5 31.5 0 S
1319 565.25 0 31.5 S
1303.25 581 31.5 0 S
1320.5 565.25 0 31.5 S
1304.75 581 31.5 0 S
1434 565.25 0 31.5 S
1418.25 581 31.5 0 S
1702 564.75 0 31.5 S
1686.25 580.5 31.5 0 S
1838.5 564.25 0 31.5 S
1822.75 580 31.5 0 S
5 w
800 580 1080 592 re
S
cleartomark end end pagesave restore
 showpage
%%PageTrailer
%%Trailer
%%Pages: 1
