%!PS-Adobe-3.0 EPSF-3.0
%%BoundingBox: 67 53 337 118
%%HiResBoundingBox: 67.700000 53.900000 336.200000 117.100000
%.....................................
%%Creator: GPL Ghostscript 871 (epswrite)
%%CreationDate: 2012/01/28 17:04:37
%%DocumentData: Clean7Bit
%%LanguageLevel: 2
%%EndComments
%%BeginProlog
% This copyright applies to everything between here and the %%EndProlog:
% Copyright (C) 2010 Artifex Software, Inc.  All rights reserved.
%%BeginResource: procset GS_epswrite_2_0_1001 1.001 0
/GS_epswrite_2_0_1001 80 dict dup begin
/PageSize 2 array def/setpagesize{ PageSize aload pop 3 index eq exch
4 index eq and{ pop pop pop}{ PageSize dup  1
5 -1 roll put 0 4 -1 roll put dup null eq {false} {dup where} ifelse{ exch get exec}
{ pop/setpagedevice where
{ pop 1 dict dup /PageSize PageSize put setpagedevice}
{ /setpage where{ pop PageSize aload pop pageparams 3 {exch pop} repeat
setpage}if}ifelse}ifelse}ifelse} bind def
/!{bind def}bind def/#{load def}!/N/counttomark #
/rG{3{3 -1 roll 255 div}repeat setrgbcolor}!/G{255 div setgray}!/K{0 G}!
/r6{dup 3 -1 roll rG}!/r5{dup 3 1 roll rG}!/r3{dup rG}!
/w/setlinewidth #/J/setlinecap #
/j/setlinejoin #/M/setmiterlimit #/d/setdash #/i/setflat #
/m/moveto #/l/lineto #/c/rcurveto #
/p{N 2 idiv{N -2 roll rlineto}repeat}!
/P{N 0 gt{N -2 roll moveto p}if}!
/h{p closepath}!/H{P closepath}!
/lx{0 rlineto}!/ly{0 exch rlineto}!/v{0 0 6 2 roll c}!/y{2 copy c}!
/re{4 -2 roll m exch dup lx exch ly neg lx h}!
/^{3 index neg 3 index neg}!
/f{P fill}!/f*{P eofill}!/s{H stroke}!/S{P stroke}!
/q/gsave #/Q/grestore #/rf{re fill}!
/Y{P clip newpath}!/Y*{P eoclip newpath}!/rY{re Y}!
/|={pop exch 4 1 roll 1 array astore cvx 3 array astore cvx exch 1 index def exec}!
/|{exch string readstring |=}!
/+{dup type/nametype eq{2 index 7 add -3 bitshift 2 index mul}if}!
/@/currentfile #/${+ @ |}!
/B{{2 copy string{readstring pop}aload pop 4 array astore cvx
3 1 roll}repeat pop pop true}!
/Ix{[1 0 0 1 11 -2 roll exch neg exch neg]exch}!
/,{true exch Ix imagemask}!/If{false exch Ix imagemask}!/I{exch Ix image}!
/Ic{exch Ix false 3 colorimage}!
/F{/Columns counttomark 3 add -2 roll/Rows exch/K -1/BlackIs1 true>>
/CCITTFaxDecode filter}!/FX{<</EndOfBlock false F}!
/X{/ASCII85Decode filter}!/@X{@ X}!/&2{2 index 2 index}!
/@F{@ &2<<F}!/@C{@X &2 FX}!
/$X{+ @X |}!/&4{4 index 4 index}!/$F{+ @ &4<<F |}!/$C{+ @X &4 FX |}!
/IC{3 1 roll 10 dict begin 1{/ImageType/Interpolate/Decode/DataSource
/ImageMatrix/BitsPerComponent/Height/Width}{exch def}forall
currentdict end image}!
/~{@ read {pop} if}!
end def
%%EndResource
/pagesave null def
%%EndProlog
%%Page: 1 1
%%BeginPageSetup
GS_epswrite_2_0_1001 begin
/pagesave save store 197 dict begin
0.1 0.1 scale
%%EndPageSetup
gsave mark
Q q
0 0 250000 250000 re
Y
5 w
K
842 620 31.5 0 P
3290 620 -31.5 0 P
806 620 S
769 599 34 44 /3U
$C
23%r'%\5X)j2)<u^Zk'1J,ZoQs8W-!s8VJ_s8Qk\g>99H(eYmM:r7r$~>
,
842 673 31.5 0 P
3290 673 -31.5 0 P
806 673 S
710 653 17 43 /6U
$C
,Tm'ds8W-!s-F.@R>;m@If~>
,
735 652 3U ,
769 652 3U ,
842 725.5 31.5 0 P
3290 725.5 -31.5 0 P
806 725.5 S
702 706 34 43 /3Y
$C
4;jd(Qp5fN^"]dYfPna4iOE=NL>hOS^UAOiqu,+3CMbUV[OTh+@7(A~>
,
735 705 3U ,
769 705 3U ,
842 778.5 31.5 0 P
3290 778.5 -31.5 0 P
806 778.5 S
702 758 34 44 /6Y
$C
3f*tLK;VJ#ZZne#2lEeH?]XK;@:la`Yct@m+Q2(jDLDKapAVZrg>Sl<[;*R2"T~>
,
735 758 3U ,
769 758 3U ,
842 831 31.5 0 P
3290 831 -31.5 0 P
806 831 S
702 811 35 43 /4C
$C
.M)RZs3Cmfr0V$lmIpMQmIpMQmJH;FpY5/kn_X9>^V/P~>
,
735 810 3U ,
769 810 3U ,
842 884 31.5 0 P
3290 884 -31.5 0 P
806 884 S
702 863 35 44 /7C
$C
2%'Ns&9R0a'Aa:<PNfbDGdm_=;rkC=Bjl_7CKWS'fO25hs7ZK6."D-0~>
,
735 863 3U ,
769 863 3U ,
842 937 31.5 0 P
3290 937 -31.5 0 P
806 937 S
702 916 35 44 /4G
$C
22__[-UH4U05uPcT2!a`He7T^qXqU=['7F,Z=C&h$n`Au*WOE]DtUNIgIhr,MR@1;L'd~>
,
735 916 3U ,
769 916 3U ,
842 989.5 31.5 0 P
3290 989.5 -31.5 0 P
806 989.5 S
702 970 35 43 /7G
$C
,Sg=Wrr)ibmJYqspAMaEgV3(PG5]%%Ho""&~>
,
735 969 3U ,
769 969 3U ,
842 1042.5 31.5 0 P
3290 1042.5 -31.5 0 P
806 1042.5 S
702 1022 35 44 /4K
$C
2$jBqS07(D'Aa:H#WJZ`e,TIHX4Gk>$!:Ud'l"Rbl-UTa#WJZ`l2Ue`CO4^e@4ZT(6OF59~>
,
735 1022 3U ,
769 1022 3U ,
842 1095 31.5 0 P
3290 1095 -31.5 0 P
806 1095 S
702 1074 34 44 /7K
$C
3f=8'6.=X%ER7#DhOCS3MgtWLU=_cj#H+8i0B!.-l1\MVs0)+QHJ7+ZV.#(s>)'+,0VA~>
,
735 1074 3U ,
769 1074 3U ,
842 1148 31.5 0 P
3290 1148 -31.5 0 P
806 1148 S
677 1128 6U ,
702 1127 3U ,
735 1127 3U ,
769 1127 3U ,
841 620 0 31.5 P
841 1148 0 -31.5 P
841 560 S
829 539 3U ,
1086 620 0 31.5 P
1086 1148 0 -31.5 P
1086 560 S
1040 539 7C ,
1074 539 3U ,
1107 539 3U ,
1331 620 0 31.5 P
1331 1148 0 -31.5 P
1331 560 S
1277 540 6U ,
1302 539 3U ,
1335 539 3U ,
1369 539 3U ,
1575.5 620 0 31.5 P
1575.5 1148 0 -31.5 P
1575.5 560 S
1521 540 6U ,
1546 539 7C ,
1580 539 3U ,
1613 539 3U ,
1820.5 620 0 31.5 P
1820.5 1148 0 -31.5 P
1820.5 560 S
1758 540 3Y ,
1791 539 3U ,
1825 539 3U ,
1858 539 3U ,
2065.5 620 0 31.5 P
2065.5 1148 0 -31.5 P
2065.5 560 S
2003 540 3Y ,
2036 539 7C ,
2070 539 3U ,
2103 539 3U ,
2310.5 620 0 31.5 P
2310.5 1148 0 -31.5 P
2310.5 560 S
2248 539 6Y ,
2281 539 3U ,
2315 539 3U ,
2348 539 3U ,
2555.5 620 0 31.5 P
2555.5 1148 0 -31.5 P
2555.5 560 S
2493 539 6Y ,
2526 539 7C ,
2560 539 3U ,
2593 539 3U ,
2800 620 0 31.5 P
2800 1148 0 -31.5 P
2800 560 S
2738 540 4C ,
2771 539 3U ,
2804 539 3U ,
2838 539 3U ,
3045 620 0 31.5 P
3045 1148 0 -31.5 P
3045 560 S
2983 540 4C ,
3016 539 7C ,
3049 539 3U ,
3083 539 3U ,
3290 620 0 31.5 P
3290 1148 0 -31.5 P
3290 560 S
3228 539 7C ,
3261 539 3U ,
3294 539 3U ,
3328 539 3U ,
842 620 2448 528 re
S
2.5 w
842 623.5 0.5 0 0.5 0 0.5 0 0.5 0.5 0.5 -0.5 0.5 2.5 0.5 -2.5 
0.5 2.5 0 -0.5 0.5 -0.5 0.5 -1 0.5 0 0.5 43 0.5 -17 0.5 -19.5 
0.5 -6.5 0.5 2 0.5 0 0.5 1.5 0.5 0 0.5 -0.5 0.5 1 0.5 -2.5 
0.5 0 0.5 0 0.5 2.5 0.5 -4 0.5 2 0.5 -2 0.5 1.5 0.5 0 
0.5 0 0.5 0.5 0.5 -2 0.5 2.5 0.5 -1 0.5 0 0.5 0 0.5 0 
0.5 0 0.5 0 0.5 0 0.5 0 0.5 0 0.5 0 0.5 -1.5 0.5 6.5 
0.5 -5.5 0.5 -1 0.5 1 0.5 3.5 0.5 0 0.5 0 0.5 0 0.5 0 
0.5 0 0.5 0 0.5 0 0.5 0 0.5 0 0.5 -1 0.5 -2 0.5 -0.5 
0.5 -1 0.5 1 0.5 4 0.5 -1.5 0.5 0 0.5 -0.5 0.5 1.5 7.5 1.5 
0.5 -0.5 0.5 -5.5 0.5 3.5 0.5 2.5 0.5 0 0.5 -0.5 0.5 -2.5 0.5 0 
0.5 1 0.5 -0.5 0.5 0.5 0.5 0 P
890.5 622 0.5 1.5 0.5 0 0.5 0 0.5 0 0.5 0.5 0.5 -0.5 0.5 2.5 
0.5 -2.5 0.5 -3 0.5 4.5 0.5 -1 0.5 0 0.5 43 0.5 -17 0.5 -19.5 
0.5 -6.5 0.5 2 0.5 0 0.5 1.5 0.5 0 S
900.5 627.5 0.5 -0.5 0.5 1 0.5 -2.5 0.5 0 0.5 0 0.5 2.5 0.5 -4 
0.5 2 0.5 -2 0.5 1.5 0.5 0 0.5 0 0.5 1 0.5 -2.5 0.5 -3.5 
0.5 5 0.5 0 0.5 0 0.5 0 0.5 0 0.5 0 0.5 0 0.5 0 
0.5 0 0.5 0 0.5 -1.5 0.5 6.5 0.5 -5.5 0.5 -1 0.5 1 0.5 3.5 
0.5 0 0.5 0 0.5 0 0.5 0 0.5 0 0.5 0 0.5 0 0.5 0 
0.5 0 0.5 -1 0.5 -2 0.5 -0.5 0.5 -1 0.5 1 0.5 4 0.5 -1.5 
0.5 0 0.5 -0.5 0.5 1.5 0.5 -8 0.5 6.5 0.5 0.5 0.5 -7 0.5 5 
0.5 0 0.5 0 0.5 0 0.5 2.5 0.5 -7.5 0.5 5.5 0.5 -5.5 0.5 7.5 
0.5 -7.5 0.5 9.5 0.5 -0.5 0.5 -5.5 0.5 3.5 0.5 2.5 0.5 0 0.5 -0.5 
0.5 -2.5 0.5 0 0.5 1 0.5 -0.5 0.5 0.5 0.5 -7 0.5 2.5 0.5 -0.5 
0.5 2.5 0.5 0 0.5 0 0.5 0 0.5 0 0.5 2 0.5 -6.5 0.5 4.5 
0.5 -4.5 0.5 0 -93 7 94 -7 0.5 0 0.5 0 0.5 0 0.5 4.5 
0.5 2.5 0.5 0 0.5 0 0.5 0 0 -7 0.5 7 0.5 -0.5 0.5 4 
0.5 -2.5 0.5 0 0.5 -8 0.5 5.5 0.5 -0.5 0.5 0 0.5 -2 0.5 -3 
0.5 3 0.5 1 0.5 -1.5 0.5 0.5 0.5 0 0.5 0 0.5 0 0.5 1.5 
0.5 -0.5 0.5 -1 0.5 0 0.5 0 0.5 0 0.5 1 0.5 0 0.5 0.5 
0.5 -2.5 0.5 1 0.5 1.5 0.5 -1.5 0.5 2.5 0.5 -1.5 0.5 0 0.5 0 
0.5 0 0.5 0.5 0.5 -0.5 0.5 0 0.5 1 0.5 -1 0.5 0 0.5 -1.5 
0.5 4.5 0.5 -4.5 0.5 1.5 0.5 -4 0.5 12 0 -1 0.5 4.5 0.5 -0.5 
0.5 0 0.5 0 0.5 -0.5 0.5 -5 0.5 -1.5 0.5 -2.5 0.5 3 0.5 -3 
0.5 0 0.5 -5.5 0.5 12 0.5 -9 0.5 -3 0.5 0 0.5 6.5 0.5 -1 
0.5 2 0.5 -4.5 0.5 1 0.5 3.5 0.5 3 0.5 -3 0.5 -2 0.5 5.5 
0.5 -6.5 0.5 0 0.5 0 0.5 0 0.5 0 0.5 -0.5 0.5 3 0.5 -6.5 
0.5 5.5 0.5 -1.5 0.5 0.5 0.5 4 0.5 -6 0.5 1.5 0.5 0.5 0.5 3 
0.5 0 0.5 0 0.5 0 0.5 0 S
997 629 0.5 0 0.5 -1 0 1 0.5 -1 0.5 0 0.5 0 0.5 0 
0.5 -2.5 0.5 0 0.5 0 0.5 3.5 0.5 -4 0.5 2 0.5 0 0.5 2.5 
0.5 3 0.5 -3 0.5 -0.5 0.5 -3 0.5 0.5 0.5 -1 0.5 0 0.5 -0.5 
0.5 1 0.5 -1 0.5 -1 0.5 1 0.5 0 0.5 0.5 0.5 -2 0.5 2.5 
0.5 3 0.5 -4 0.5 -1 0.5 1 0.5 -1.5 0.5 1.5 0.5 -1 0.5 0 
0.5 0 0.5 1.5 0.5 -2 0.5 5.5 0.5 0 0.5 0 0.5 -4 0.5 -1 
0.5 4.5 0.5 0.5 0.5 -3 0.5 -0.5 0 -0.5 0.5 1 0.5 0 0.5 2.5 
0.5 -3 0.5 9 0.5 0 0.5 -1 0.5 0 0.5 2 0.5 -1 0.5 2.5 
0.5 -5 0.5 -0.5 0.5 -0.5 0.5 -4 0.5 -2 0.5 5.5 0.5 0 0.5 -5.5 
0.5 0.5 0.5 -0.5 0.5 6 0.5 -6 0.5 3 0.5 0 0.5 0 0.5 -6.5 
0.5 7.5 0.5 0 0.5 0.5 0.5 -8 0.5 8 0.5 0 0.5 -2 0.5 -2 
0.5 1 0.5 0 0.5 -1.5 0.5 -1.5 0.5 5.5 0.5 -5.5 0.5 0 0.5 0.5 
0.5 6 0.5 -6 0.5 1 0.5 2 0.5 1.5 0 -3.5 0.5 1 0.5 1.5 
0.5 5 S
1047.5 632.5 0.5 -10.5 0.5 36.5 0.5 0 0.5 8.5 0.5 -8.5 0.5 0 0.5 14 
0.5 -7.5 0.5 -2 0.5 -4 0.5 18 0.5 -50 0.5 -1.5 0.5 1.5 0.5 5 
0.5 -6.5 0.5 2 0.5 0 0.5 -0.5 0.5 0 0.5 0 0.5 -0.5 0.5 -2.5 
0.5 2.5 0.5 -0.5 0.5 -1 0.5 0 0.5 1.5 0.5 -1 0.5 0.5 0.5 -0.5 
0.5 -1.5 0.5 0 0.5 -2 0.5 0 0.5 0 0.5 0 0.5 4.5 0.5 0 
0.5 0 0.5 0 0.5 -1 0.5 3.5 0.5 0 0.5 -1.5 0 1.5 0.5 -1.5 
0.5 1.5 0.5 -1.5 0.5 1.5 0.5 0 0.5 -7 0.5 1.5 0.5 -1.5 0.5 0 
0.5 0 0.5 8 0.5 0 0.5 -8 0.5 0 0.5 0 0.5 5 0.5 4 
0.5 -4 0.5 -1.5 0.5 0.5 0.5 -0.5 0.5 0 0.5 -3.5 0.5 0 0.5 8 
0.5 -5 0.5 1 0.5 -2 0.5 0 0.5 5 0.5 -2.5 0.5 -3 0.5 -0.5 
0.5 3.5 0.5 1.5 0.5 -1.5 0.5 0 0.5 3 0.5 -4.5 0.5 2 0.5 -4 
0.5 3 0.5 -2 0.5 -1 0.5 4 0.5 -3.5 0.5 0.5 0.5 1 0 -2.5 
0.5 0 0.5 0 0.5 0 0.5 5.5 0.5 -2.5 0.5 6.5 0.5 5 0.5 -1.5 
0.5 1 S
1098.5 636.5 0.5 0 0.5 -0.5 0.5 -0.5 0.5 -0.5 0.5 -8.5 0.5 1 0.5 -1.5 
0.5 -2 0.5 3 0.5 -1.5 0.5 -0.5 0.5 0 0.5 0.5 0.5 -0.5 0.5 0 
0.5 0 0.5 0 0.5 0 0.5 2 0.5 -3 0.5 1 0.5 0 0.5 1 
0.5 -3.5 0.5 4.5 0.5 -2 0.5 0.5 0.5 4 0.5 -4.5 0.5 49 0.5 -46 
0.5 24 0.5 -3 0.5 0 0.5 0 0.5 0 0.5 -0.5 0.5 2.5 0.5 12.5 
0 3 0.5 -35 0.5 3.5 0.5 -0.5 0.5 -4 0.5 0 0.5 -1 0.5 0.5 
0.5 -0.5 0.5 0 0.5 1 0.5 -1 0.5 0 0.5 0 0.5 0 0.5 -3.5 
0.5 3 0.5 -3 0.5 0 0.5 0 0.5 0 0.5 15.5 0.5 6.5 0.5 -16 
0.5 -5 0.5 -2 0.5 2.5 0.5 0.5 0.5 0 0.5 -0.5 0.5 0 0.5 0 
0.5 0 0.5 0.5 0.5 0 0.5 1.5 0.5 -2 0.5 0 0.5 0 0.5 0 
0.5 0.5 0.5 -0.5 0.5 0 0.5 0.5 0.5 -4 0.5 3.5 0.5 -1 0.5 0 
0.5 0 0 -3.5 0.5 2.5 0.5 -0.5 0.5 -1 0.5 0 0.5 2.5 0.5 1 
0.5 -3.5 0.5 1.5 0.5 -1.5 0.5 0 0.5 1 0.5 -1 0.5 0 0.5 1 
0.5 0 S
1149.5 625 0.5 24 0.5 0 0.5 1.5 0.5 -22 0.5 -3 0.5 61.5 0.5 2 
0.5 -25 0.5 22 0.5 -19.5 0.5 -19.5 0.5 4.5 0.5 -1 0.5 -12.5 0.5 7.5 
0.5 -16 0.5 -4 0.5 -0.5 0.5 1 0.5 0.5 0.5 1 0.5 0.5 0.5 -1.5 
0.5 3 0.5 0.5 0.5 -0.5 0.5 0 0.5 0.5 0.5 0 0.5 0 0.5 0 
0.5 0 0.5 -4 0 1 0.5 -3.5 0.5 8.5 0.5 -6 0.5 14 0.5 -0.5 
0.5 -8 0.5 2 0.5 7.5 0.5 -6.5 0.5 1.5 0.5 4 0.5 -4 0.5 -6 
0.5 -3 0.5 0 0.5 1 0.5 2 0.5 -3 0.5 -1.5 0.5 -2.5 0.5 2.5 
0.5 -0.5 0.5 1 0.5 0 0.5 2 0.5 0.5 0.5 -1.5 0.5 1 0.5 0 
0.5 -1 0.5 0.5 0.5 -4.5 0.5 2 0.5 1 0.5 2 0.5 -4 0.5 1 
0.5 -1 0.5 2.5 0.5 1.5 0.5 0.5 0.5 -1 0.5 -1.5 0.5 2.5 0.5 -5 
0.5 0 0.5 3.5 0.5 -1.5 0 2 0.5 3 0.5 -3 0.5 0 0.5 0 
0.5 0 0.5 -1 0.5 2.5 0.5 0 0.5 -2 0.5 -0.5 0.5 0 0.5 1 
0.5 19 0.5 5 0.5 -18.5 0.5 -5 0.5 3.5 0.5 -8 0.5 16 0.5 -7.5 
0.5 1 S
1200.5 633 0.5 44 0.5 -22 0.5 -20.5 0.5 -3.5 0.5 -2.5 0.5 -1 0.5 -1.5 
0.5 2 0.5 3.5 0.5 17 0.5 -11 0.5 -2.5 0.5 3 0.5 -2.5 0.5 -0.5 
0.5 2.5 0.5 3 0.5 -4 0.5 -10.5 0.5 4 0.5 0 0.5 -6.5 0.5 5.5 
0.5 2.5 0.5 -2.5 0.5 3.5 0.5 0 0.5 -4.5 0.5 -1.5 0.5 2.5 0.5 1 
0.5 1.5 0.5 4 0.5 0.5 0.5 0 0.5 0 0.5 0 0.5 0 0.5 0 
0.5 1.5 0.5 -10 0.5 -1 0.5 -1.5 0.5 1 0.5 0.5 0.5 8.5 0.5 -2 
0.5 -6.5 0.5 1.5 0.5 -0.5 0.5 -2 0.5 -1.5 0.5 3.5 0.5 -1 0.5 -1 
0.5 2 0.5 -1 0.5 -3 0.5 3 0.5 1.5 0.5 -1.5 0.5 0 0.5 -3 
0.5 5.5 0.5 7.5 0.5 -3.5 0.5 5.5 0.5 7.5 0.5 -12.5 0.5 -2.5 0.5 4.5 
0.5 -10.5 0.5 0 0.5 1.5 0.5 -1.5 0 1 0.5 1.5 0.5 0 0.5 1 
0.5 -1 0.5 1.5 0.5 6.5 0.5 -6 0.5 7 0.5 5.5 0.5 -1 0.5 -12 
0.5 0 0.5 -1 0.5 -2 0.5 1.5 0.5 0 0.5 -3.5 0.5 6.5 0.5 2.5 
0.5 -5.5 0.5 -0.5 0.5 2 0.5 -3.5 0.5 -1.5 0.5 1.5 0.5 3.5 0.5 0 
0.5 -0.5 S
1252 628.5 0.5 -3.5 0.5 0.5 0.5 -2 0.5 8.5 0.5 -6.5 0.5 1.5 0.5 -1 
0.5 -1 0.5 0 0.5 3 0.5 -3 0.5 3 0.5 -0.5 0.5 1 0.5 -1.5 
0.5 1.5 0.5 -2 0.5 -1 0.5 2.5 0.5 0 0 -1 0.5 0 0.5 0 
0.5 -0.5 0.5 0.5 0.5 -1 0.5 0 0.5 -0.5 0.5 -0.5 0.5 -1.5 0.5 1.5 
0.5 4 0.5 -3.5 0.5 0.5 0.5 -0.5 0.5 3 0.5 -0.5 0.5 -1.5 0.5 0 
0.5 0 0.5 0 0.5 -1 0.5 0 0.5 1.5 0.5 -2 0.5 -1 0.5 2.5 
0.5 -1 0.5 0 0.5 2 0.5 -0.5 0.5 -3 0.5 1.5 0.5 5 0.5 -4.5 
0.5 0.5 0.5 -1 0.5 2 0.5 -0.5 0.5 2 0.5 -2 0.5 -1 0.5 2 
0.5 -1.5 0.5 1 0.5 -1.5 0.5 1 0.5 21.5 0.5 -12.5 0 59.5 0.5 -65.5 
0.5 13 0.5 -6 0.5 -4.5 0.5 -1.5 0.5 1 0.5 5.5 0.5 -0.5 0.5 -2.5 
0.5 0 0.5 -6.5 0.5 0.5 0.5 -3.5 0.5 5 0.5 -2 0.5 0 0.5 3.5 
0.5 -4.5 0.5 1.5 0.5 1.5 0.5 -1 0.5 2 0.5 -3.5 0.5 1 0.5 0 
0.5 -3.5 0.5 0 0.5 -1 0.5 -0.5 0.5 5.5 0.5 -3.5 0.5 -1.5 0.5 1.5 
0.5 0 S
1303 625.5 0.5 1 0.5 5 0.5 -4 0.5 -2 0.5 8 0 514.5 P
1306.5 1148 0.5 -507 0.5 -15.5 0.5 0 0.5 0.5 0.5 -2 0.5 1.5 0.5 11.5 
0 -11.5 0.5 0 0.5 3.5 0.5 -1 0.5 0.5 0.5 17 0.5 -18 0.5 0 
0.5 1.5 0.5 -1.5 0.5 7.5 0.5 2.5 0.5 -2 0.5 -7.5 0.5 6.5 0.5 0.5 
0.5 0.5 0.5 1.5 0.5 -6 0.5 0 0.5 4 0.5 -0.5 0.5 0 0.5 -9.5 
0.5 2 0.5 6.5 0.5 -5.5 0.5 -2 0.5 3.5 0.5 -1.5 0.5 -2 0.5 1 
0.5 -0.5 0.5 1 0.5 -1.5 0.5 -0.5 0.5 2.5 0.5 -1 0.5 4 0.5 0 
0.5 0 0.5 0 0.5 -5.5 0.5 0 0.5 0 0.5 0 0.5 5 0.5 -2.5 
0.5 0 0 -1 0.5 1 0.5 0 0.5 -0.5 0.5 -1 0.5 0.5 0.5 4.5 
0.5 -3 0.5 -2.5 0.5 -0.5 0.5 4 0.5 -0.5 0.5 -5 0.5 -0.5 0.5 2.5 
0.5 1 0.5 3.5 0.5 -1 0.5 -2.5 0.5 3 0.5 -4.5 0.5 0.5 0.5 -2 
0.5 4.5 0.5 1.5 0.5 0 0.5 -0.5 0.5 0 0.5 0.5 0.5 -1 0.5 1 
0.5 -1 0.5 -2 0.5 -0.5 0.5 0 0.5 1 0.5 0 0.5 -1 0.5 -1.5 
0.5 -1 0.5 2.5 S
1354 626.5 0.5 -1 0.5 -1.5 0.5 -0.5 0.5 3.5 0.5 -1 0.5 -2.5 0.5 5 
0.5 -1.5 0 -3 0.5 3 0.5 -3 0.5 2 0.5 3 0.5 -2.5 0.5 0 
0.5 0 0.5 0 0.5 0.5 0.5 -0.5 0.5 21 0.5 -19.5 0.5 14 0.5 1 
0.5 -14 0.5 2.5 0.5 0 0.5 2 0.5 -2 0.5 13 0.5 -12 0.5 -0.5 
0.5 1 0.5 1.5 0.5 -2.5 0.5 -5 0.5 0 0.5 -2 0.5 0.5 0.5 1 
0.5 -0.5 0.5 1 0.5 3 0.5 -5 0.5 0.5 0.5 0.5 0.5 0.5 0.5 5 
0.5 -4 0.5 -1.5 0.5 0 0.5 -0.5 0.5 0.5 0.5 0 0.5 0 0.5 -1 
0.5 0 0.5 1 0.5 -1 0.5 1 0.5 -0.5 P
1384 626 0.5 -0.5 0.5 0.5 0.5 0 0.5 2 0.5 -1 0.5 -1 0.5 0 
0.5 0 0.5 -0.5 0.5 2.5 0.5 0 0.5 0 0.5 0 0.5 -2 0.5 2 
0.5 -0.5 0.5 4 0.5 -2.5 0.5 0 0.5 -3 0.5 0.5 0.5 -0.5 0.5 0 
0.5 -2 0.5 2 0.5 -2 0.5 1 0.5 -1.5 0.5 0.5 0.5 0 0.5 0 
0.5 0 0.5 1.5 0.5 -0.5 0.5 -1 0.5 0 0.5 0 0.5 0 0.5 1 
0.5 0 0.5 0.5 0.5 -2.5 0.5 1 S
1405.5 624 0.5 1.5 0 -1.5 0.5 2.5 0.5 -1.5 0.5 0 0.5 0 0.5 0 
0.5 0.5 0.5 -0.5 0.5 0 0.5 1 0.5 -1 0.5 0 0.5 -1.5 0.5 4.5 
0.5 -4.5 0.5 1.5 0.5 1 0.5 7 0.5 -1 0.5 4.5 0.5 -0.5 0.5 0 
0.5 0 0.5 -0.5 0.5 -5 0.5 -1.5 0.5 -2.5 0.5 3 0.5 -3 0.5 0 
0.5 -0.5 0.5 7 0.5 -9 0.5 2 0.5 0 0.5 1.5 0.5 -1 0.5 2 
0.5 -4.5 0.5 1 0.5 3.5 0.5 3 0.5 -3 0.5 -2 0.5 5.5 0.5 -6.5 
0.5 0 P
1429.5 622 0.5 1.5 0.5 0 0.5 0 0.5 0.5 0.5 -0.5 0.5 2.5 0.5 -2.5 
0.5 3 0.5 -1.5 0.5 -1 0.5 0 0.5 43 0.5 -17 0.5 -19.5 0.5 -6.5 
0.5 2 0.5 0 0.5 1.5 0.5 0 0.5 -0.5 0.5 1 0.5 -2.5 0.5 0 
0.5 0 0.5 0 0.5 2.5 0.5 -4 0.5 2 0.5 -2 0.5 1.5 0.5 0 
0.5 0 0.5 1 0.5 -2.5 0.5 2.5 0.5 -1 0.5 0 0.5 0 0.5 0 
0.5 0 0.5 0 0.5 0 0.5 0 0.5 0 0.5 0 0.5 -1.5 0.5 6.5 
0.5 -5.5 0.5 -1 0 1 0.5 3.5 0.5 0 0.5 0 0.5 0 0.5 0 S
1456.5 628.5 0.5 0 0.5 0 0.5 0 0.5 0 0.5 0 0.5 -1 0.5 -2 
0.5 -0.5 0.5 -1 0.5 1 0.5 4 0.5 -1.5 0.5 0 0.5 -0.5 0.5 1.5 
0.5 -2 0.5 0 0.5 0.5 0.5 0.5 0.5 -1 0.5 -1 0.5 0 0.5 0 
0.5 0 0.5 2.5 0.5 -1.5 0.5 -0.5 0.5 0.5 0.5 1.5 0.5 -1.5 0.5 3.5 
0.5 -0.5 0.5 -5.5 0.5 3.5 0.5 2.5 0.5 0 0.5 -0.5 0.5 -2.5 0.5 0 
0.5 1 0.5 -0.5 0.5 0.5 0.5 -1 0 -3.5 0.5 -0.5 0.5 2.5 0.5 0 
0.5 0 0.5 0 0.5 0 0.5 2 0.5 -0.5 0.5 -1.5 0.5 1.5 0.5 0 
0.5 1 0.5 -1 0.5 0 0.5 0 0.5 0 0.5 -1.5 0.5 2.5 0.5 0 
0.5 0 0.5 0 0.5 -1 0.5 1 0.5 -0.5 0.5 4 0.5 -2.5 0.5 0 
0.5 -2 0.5 -0.5 0.5 -0.5 0.5 0 0.5 -2 0.5 3 0.5 -3 0.5 1 
0.5 -1.5 0.5 0.5 0.5 0 0.5 0 0.5 0 0.5 1.5 0.5 -0.5 0.5 -1 
0.5 0 0.5 0 0.5 0 0.5 1 0.5 0 0 0.5 0.5 -2.5 0.5 1 
0.5 1.5 0.5 -1.5 0.5 2.5 0.5 -1.5 0.5 0 0.5 0 0.5 0 0.5 0.5 
0.5 -0.5 S
1507.5 625 0.5 0 0.5 1 0.5 -1 0.5 0 0.5 -1.5 0.5 4.5 0.5 -4.5 
0.5 1.5 0.5 2 0.5 6 0.5 -1 0.5 4.5 0.5 -0.5 0.5 0 0.5 0 
0.5 -0.5 0.5 -5 0.5 -1.5 0.5 -2.5 0.5 3 0.5 -3 0.5 0 0.5 0.5 
0.5 6 0.5 -9 0.5 3 0.5 0 0.5 0.5 0.5 -1 0.5 2 0.5 -4.5 
0.5 1 0.5 3.5 0.5 3 0.5 -3 0.5 -2 0.5 5.5 0 -6.5 0.5 0 
0.5 0 0.5 0 0.5 0 0.5 -0.5 0.5 3 0.5 -0.5 0.5 -0.5 0.5 -1.5 
0.5 0.5 0.5 4 0.5 -6 0.5 1.5 0.5 0.5 0.5 3 0.5 0 0.5 0 
0.5 0 0.5 0 0.5 0 0.5 -1 0.5 1 0.5 -1 0.5 0 0.5 0 
0.5 0 0.5 -2.5 0.5 0 0.5 0 0.5 3.5 0.5 -4 0.5 2 0.5 0 
0.5 2.5 0.5 3 0.5 -3 0.5 -0.5 0.5 -3 0.5 0.5 0.5 -1 0.5 0 
0.5 -0.5 0.5 1 0.5 -1 0.5 -1 0.5 1 0.5 0 0.5 0.5 0 -2 
0.5 2.5 0.5 3 0.5 -4 0.5 -1 0.5 1 0.5 -1.5 0.5 1.5 0.5 -1 
0.5 0 0.5 0 0.5 1.5 0.5 -2 0.5 5.5 0.5 0 0.5 0 0.5 -4 
0.5 -1 S
1558.5 624 0.5 4.5 0.5 0.5 0.5 -3 0.5 -0.5 0.5 -0.5 0.5 1 0.5 0 
0.5 2.5 0.5 -3 0.5 9 0.5 0 0.5 -1 0.5 0 0.5 2 0.5 -1 
0.5 2.5 0.5 -5 0.5 -0.5 0.5 -0.5 0.5 -4 0.5 -2 0.5 5.5 0.5 0 
0.5 -5.5 0.5 0.5 0.5 -0.5 0.5 6 0.5 -6 0.5 3 0.5 0 0.5 0 
0 -0.5 0.5 1.5 0.5 0 0.5 0.5 0.5 -2 0.5 2 0.5 0 0.5 -2 
0.5 -2 0.5 1 0.5 0 0.5 -1.5 0.5 -1.5 0.5 5.5 0.5 -5.5 0.5 0 
0.5 0.5 0.5 6 0.5 -6 0.5 1 0.5 2 0.5 1.5 0.5 -3.5 0.5 1 
0.5 1.5 0.5 5 0.5 -4.5 0.5 30.5 0.5 0 0.5 8.5 0.5 -8.5 0.5 0 
0.5 14 0.5 -7.5 0.5 -2 0.5 -4 0.5 18 0.5 -50 0.5 -1.5 0.5 1.5 
0.5 5 0.5 -6.5 0.5 2 0.5 0 0.5 -0.5 0.5 0 0.5 0 0.5 -0.5 
0.5 -2.5 0 2.5 0.5 -0.5 0.5 -1 0.5 0 0.5 1.5 0.5 -1 0.5 0.5 
0.5 -0.5 0.5 -1.5 0.5 0 0.5 4 0.5 0 0.5 0 0.5 0 0.5 -1.5 
0.5 0 0.5 0 0.5 0 0.5 -1 0.5 3.5 0.5 0 0.5 -1.5 0.5 1.5 
0.5 -1.5 S
1609.5 627.5 0.5 1.5 0.5 -1.5 0.5 1.5 0.5 0 0.5 -1 0.5 -4.5 0.5 4.5 
0.5 0 0.5 0 0.5 2 0.5 0 0.5 -2 0.5 0 0.5 0 0.5 -1 
0.5 4 0.5 -4 0.5 -1.5 0.5 0.5 0.5 -0.5 0.5 0 0.5 2.5 0.5 0 
0.5 2 0.5 -5 0 1 0.5 -2 0.5 0 0.5 5 0.5 -2.5 0.5 -3 
0.5 -0.5 0.5 3.5 0.5 1.5 0.5 -1.5 0.5 0 0.5 3 0.5 -4.5 0.5 2 
0.5 -4 0.5 3 0.5 -2 0.5 -1 0.5 4 0.5 -3.5 0.5 0.5 0.5 1 
0.5 3.5 0.5 0 0.5 0 0.5 0 0.5 -0.5 0.5 -2.5 0.5 6.5 0.5 5 
0.5 -1.5 0.5 1 0.5 0 0.5 -0.5 0.5 -0.5 0.5 -0.5 0.5 -8.5 0.5 1 
0.5 -1.5 0.5 -2 0.5 3 0.5 -1.5 0.5 -0.5 0.5 0 0.5 0.5 0.5 -0.5 
0.5 0 0.5 0 0.5 0 0.5 2 0.5 -3 0.5 1 0.5 0 0.5 1 
0.5 -3.5 0.5 4.5 0.5 -2 0.5 0.5 0.5 4 0.5 -4.5 0.5 49 0.5 -46 
0.5 24 0.5 -3 0.5 0 0.5 0 0.5 0 0.5 -0.5 0.5 2.5 0.5 12.5 
0.5 3 0.5 -35 0.5 3.5 0.5 -0.5 0.5 -4 0.5 0 0.5 -1 0.5 0.5 
0.5 -0.5 S
1661 629.5 0.5 0 0.5 1 0.5 -1 0.5 0 0.5 0 0.5 0 0.5 -3.5 
0.5 3 0.5 -3 0.5 0 0.5 0 0.5 0 0.5 15.5 0.5 6.5 0.5 -16 
0.5 -5 0.5 -2 0.5 2.5 0 0.5 0.5 0 0.5 -0.5 0.5 0 0.5 0 
0.5 0 0.5 0.5 0.5 0 0.5 1.5 0.5 -2 0.5 0 0.5 0 0.5 0 
0.5 0.5 0.5 -0.5 0.5 0 0.5 0.5 0.5 -4 0.5 3.5 0.5 -1 0.5 0 
0.5 0 0.5 2.5 0.5 -3.5 0.5 -0.5 0.5 -1 0.5 0 0.5 2.5 0.5 1 
0.5 -3.5 0.5 1.5 0.5 -1.5 0.5 0 0.5 1 0.5 -1 0.5 0 0.5 1 
0.5 0 0.5 24 0.5 0 0.5 1.5 0.5 -22 0.5 -3 0.5 61.5 0.5 2 
0.5 -25 0.5 22 0.5 -19.5 0.5 -19.5 0 4.5 0.5 -1 0.5 -12.5 0.5 7.5 
0.5 -16 0.5 -4 0.5 -0.5 0.5 1 0.5 0.5 0.5 1 0.5 0.5 0.5 -1.5 
0.5 3 0.5 0.5 0.5 -0.5 0.5 0 0.5 0.5 0.5 0 0.5 0 0.5 0 
0.5 0 0.5 -4 0.5 1 0.5 -3.5 0.5 8.5 0.5 -6 0.5 14 0.5 -0.5 
0.5 -8 0.5 2 0.5 7.5 0.5 -6.5 0.5 1.5 0.5 4 0.5 -4 0.5 -6 
0.5 -3 S
1712 627 0.5 0 0.5 1 0.5 2 0.5 -3 0.5 -1.5 0.5 3.5 0.5 -3.5 
0.5 -0.5 0.5 1 0.5 0 0.5 2 0.5 0.5 0 -1.5 0.5 1 0.5 0 
0.5 -1 0.5 0.5 0.5 1.5 0.5 -4 0.5 1 0.5 2 0.5 -4 0.5 1 
0.5 -1 0.5 2.5 0.5 1.5 0.5 0.5 0.5 -1 0.5 -1.5 0.5 2.5 0.5 1 
0.5 0 0.5 -2.5 0.5 -1.5 0.5 2 0.5 3 0.5 -3 0.5 0 0.5 0 
0.5 0 0.5 -1 0.5 2.5 0.5 0 0.5 -2 0.5 -0.5 0.5 0 0.5 1 
0.5 19 0.5 5 0.5 -18.5 0.5 -5 0.5 3.5 0.5 -2 0.5 10 0.5 -7.5 
0.5 1 0.5 44 0.5 -22 0.5 -20.5 0.5 -3.5 0.5 -2.5 0 -1 0.5 -1.5 
0.5 2 0.5 3.5 0.5 17 0.5 -11 0.5 -2.5 0.5 3 0.5 -2.5 0.5 -0.5 
0.5 2.5 0.5 3 0.5 -4 0.5 -10.5 0.5 4 0.5 0 0.5 -0.5 0.5 -0.5 
0.5 2.5 0.5 -2.5 0.5 3.5 0.5 0 0.5 0 0.5 -4.5 0.5 -1.5 0.5 2.5 
0.5 1 0.5 1.5 0.5 4 0.5 0.5 0.5 0 0.5 0 0.5 0 0.5 0 
0.5 0 0.5 1.5 0.5 -10 0.5 -1 0.5 -1.5 0.5 1 0.5 0.5 0.5 8.5 
0.5 -2 S
1763 633 0.5 -6.5 0.5 1.5 0.5 -0.5 0.5 -2 0.5 -1.5 0.5 3.5 0 -1 
0.5 -1 0.5 2 0.5 -1 0.5 3 0.5 -3 0.5 1.5 0.5 -1.5 0.5 0 
0.5 -3 0.5 5.5 0.5 7.5 0.5 -3.5 0.5 5.5 0.5 7.5 0.5 -12.5 0.5 -2.5 
0.5 4.5 0.5 -10.5 0.5 0 0.5 1.5 0.5 -1.5 0.5 1 0.5 1.5 0.5 0 
0.5 1 0.5 -1 0.5 1.5 0.5 6.5 0.5 -6 0.5 7 0.5 5.5 0.5 -1 
0.5 -12 0.5 0 0.5 -1 0.5 -2 0.5 1.5 0.5 0 0.5 -3.5 0.5 6.5 
0.5 2.5 0.5 -5.5 0.5 -0.5 0.5 2 0.5 -3.5 0.5 -1.5 0.5 1.5 0.5 3.5 
0.5 -0.5 0.5 -3.5 0.5 0.5 0.5 -2 0.5 8.5 0.5 -6.5 0.5 1.5 0.5 -1 
0.5 -1 0.5 0 0.5 3 0.5 -3 0.5 3 0.5 -0.5 0.5 1 0.5 -1.5 
0.5 1.5 0.5 -2 0.5 -1 0.5 2.5 0.5 0 0.5 -1 0.5 0 0.5 0 
0.5 -0.5 0.5 0.5 0.5 -1 0.5 0 0.5 -0.5 0.5 -0.5 0.5 -1.5 0.5 1.5 
0.5 4 0.5 -3.5 0.5 0.5 0.5 -0.5 0.5 3 0.5 -0.5 0.5 -1.5 0.5 0 
0.5 0 0.5 0 0.5 -1 0.5 0 0.5 1.5 0.5 -2 0.5 -1 0.5 2.5 
0 -1 S
1814 625.5 0.5 0 0.5 2 0.5 -0.5 0.5 3 0.5 -4.5 0.5 5 0.5 -4.5 
0.5 0.5 0.5 -1 0.5 2 0.5 -0.5 0.5 2 0.5 -2 0.5 -1 0.5 2 
0.5 -1.5 0.5 1 0.5 -1.5 0.5 1 0.5 21.5 0.5 -12.5 0.5 59.5 0.5 -65.5 
0.5 13 0.5 -6 0.5 -4.5 0.5 -1.5 0.5 1 0.5 5.5 0.5 -0.5 0.5 -2.5 
0.5 0 0.5 -6.5 0.5 0.5 0.5 -3.5 0.5 5 0.5 -2 0.5 0 0.5 3.5 
0.5 -4.5 0.5 1.5 0.5 1.5 0.5 -1 0.5 2 0.5 -3.5 0.5 1 0.5 0 
0.5 -3.5 0.5 -1 0.5 -0.5 0.5 5.5 0.5 -3.5 0.5 -1.5 0.5 1.5 0.5 0 
0.5 1 0.5 5 0.5 -4 0.5 -2 0.5 8 0 514.5 P
1845.5 1148 0 -507 0.5 -15.5 0.5 0 0.5 0.5 0.5 -2 0.5 1.5 0.5 11.5 
0.5 -11.5 0.5 0 0.5 3.5 0.5 -1 0.5 0.5 0.5 17 0.5 -18 0.5 0 
0.5 1.5 0.5 -1.5 0.5 7.5 0.5 2.5 0.5 -2 0.5 -7.5 0.5 6.5 0.5 0.5 
0.5 0.5 0.5 1.5 0.5 -6 0.5 0 0.5 4 0.5 -0.5 0.5 0 0.5 -4 
0.5 -3.5 0.5 6.5 0.5 -5.5 0 -2 0.5 3.5 0.5 -1.5 0.5 -2 0.5 1 
0.5 -0.5 0.5 1 0.5 -1.5 S
1865.5 626 0.5 -0.5 0.5 2.5 0.5 -1 0.5 4 0.5 0 0.5 0 0.5 0 
0.5 0 0.5 0 0.5 0 0.5 0 0.5 -0.5 0.5 -2.5 0.5 0 0.5 -1 
0.5 1 0.5 0 0.5 -0.5 0.5 -1 0.5 0.5 0.5 4.5 0.5 -3 0.5 -2.5 
0.5 5 0.5 -1.5 0.5 -0.5 0.5 -5 0.5 -0.5 0.5 2.5 0.5 1 0.5 3.5 
0.5 -1 0.5 -2.5 0.5 3 0.5 -4.5 0.5 0.5 0.5 -2 0.5 4.5 0.5 1.5 
0.5 0 0.5 -0.5 0.5 0.5 0.5 -1 0.5 1 0.5 -1 0.5 -2 0.5 -0.5 
0.5 0 0.5 1 0.5 0 0.5 -1 0.5 -1.5 0.5 -1 0.5 2.5 0.5 -1 
0.5 -1.5 0.5 -0.5 0.5 3.5 0.5 -1 0.5 -2.5 0.5 5 0.5 -1.5 0.5 -3 
0.5 3 0.5 -3 0.5 2 0.5 3 0.5 -2.5 0.5 0 0.5 0 0.5 0 
0.5 0.5 0.5 -0.5 0.5 21 0.5 -19.5 0.5 14 0.5 1 0.5 -14 0.5 2.5 
0.5 0 0.5 2 0.5 -2 0.5 13 0.5 -12 0.5 -0.5 0.5 1 0.5 1.5 
0.5 -2.5 0.5 -5 0.5 -2 0.5 0.5 0.5 1 0.5 -0.5 0.5 1 0.5 3 
0.5 -5 0.5 0.5 0.5 0.5 0.5 0.5 0.5 5 0.5 -4 0.5 -1.5 0.5 0 
0.5 -0.5 S
1917.5 625.5 0.5 0.5 0.5 0 0.5 0 0.5 -1 0.5 0 0.5 1 0.5 0 
0.5 -1 0.5 1 0.5 -0.5 0.5 -2 0.5 0.5 0.5 0 0.5 1.5 0.5 -0.5 
0.5 -1 0.5 2.5 0.5 -1 0.5 0 0.5 2.5 0.5 -3 0.5 1.5 0.5 -1.5 
0.5 0.5 0.5 -0.5 0.5 -1.5 0.5 4 0.5 -1.5 0.5 -0.5 0.5 -0.5 0.5 0 
0.5 0 0.5 0 0 0.5 0.5 0 0.5 1.5 0.5 -1.5 0.5 -1.5 0.5 -1 
0.5 0 0.5 0.5 0.5 1.5 0.5 1.5 0.5 -2.5 0.5 -0.5 0.5 0.5 0.5 3 
0.5 -2 0.5 0 0.5 0 0.5 0 0.5 -1 0.5 1.5 0.5 5 0.5 0 
0.5 5.5 0.5 -1 0.5 3.5 0.5 1 0.5 7.5 0.5 -4.5 0.5 4 0.5 1 
0.5 -0.5 0.5 -2.5 0.5 -3 0.5 2.5 0.5 -3.5 0.5 -0.5 0.5 -0.5 0.5 -10 
0.5 6 0.5 -10 0.5 -1.5 0.5 2.5 0.5 1 0.5 -1 0.5 0 0.5 -3 
0.5 7 0.5 0 0.5 0 0.5 0 0.5 0 0.5 0 0.5 0 0.5 0 
0.5 -5.5 0.5 1.5 0.5 -1 0.5 -0.5 0.5 42.5 0.5 6 0.5 2.5 0.5 -8 
0.5 -0.5 0.5 -16 0.5 -17 0.5 -4.5 0.5 0 0.5 -2 0.5 4 0.5 19.5 
0.5 -4 S
1969 647.5 0.5 0.5 0.5 1 0.5 15.5 0.5 0 0.5 0 0.5 0 0.5 0 
0.5 0 0.5 0 0.5 0 0.5 -0.5 0.5 -15.5 0.5 -19.5 0.5 -1.5 0.5 0 
0.5 0 0.5 1 0.5 1.5 0.5 -2.5 0.5 0 0.5 -0.5 0.5 -2 0.5 2.5 
0.5 -2.5 0.5 0.5 0.5 0.5 0 -1 0.5 0.5 0.5 0 0.5 0 0.5 0.5 
0.5 0 0.5 -0.5 0.5 10.5 0.5 -2.5 0.5 -9.5 0.5 0 0.5 3.5 0.5 -1.5 
0.5 -0.5 0.5 0.5 0.5 -0.5 0.5 1.5 0.5 -1.5 0.5 0 0.5 1.5 0.5 0 
0.5 -1.5 0.5 0.5 0.5 -1 0.5 -1.5 0.5 0.5 0.5 1 0.5 0 0.5 2 
0.5 -1.5 0.5 1.5 0.5 -0.5 0.5 1 0.5 3.5 0.5 -2 0.5 1.5 0.5 -5.5 
0.5 0.5 0.5 7.5 0.5 -0.5 0.5 -0.5 0.5 -1.5 0.5 10 0.5 -11 0.5 2.5 
0.5 -4 0.5 0 0.5 1.5 0.5 -4.5 0 4 0.5 -1 0.5 0 0.5 0 
0.5 0 0.5 -1.5 0.5 -1 0.5 0.5 0.5 -1 0.5 0 0.5 -1 0.5 0 
0.5 1.5 0.5 3 0.5 0 0.5 5 0 514.5 P
2015 1148 0 -486.5 0.5 -33 0.5 0 0.5 223 0 296.5 P
2017.5 1148 0 -521.5 0.5 -2.5 0.5 3 0.5 0 0.5 0 S
2019.5 627 0.5 0 0.5 1.5 0.5 0 0.5 6.5 0.5 1 0.5 0 0.5 -0.5 
0.5 -2 0.5 1.5 0.5 -1.5 0.5 3 0.5 -0.5 0.5 -2.5 0.5 -7 0.5 0 
0.5 0 0.5 -1 0.5 0.5 0.5 0 0.5 -0.5 0.5 1 0 -1.5 0.5 2 
0.5 0 0.5 0 0.5 3.5 0.5 -3.5 0.5 0 0.5 4 0.5 0 0.5 0.5 
0.5 0.5 0.5 -0.5 0.5 -1 0.5 0 0.5 1 0.5 -1.5 0.5 -3.5 0.5 0 
0.5 0 0.5 2.5 0.5 0 0.5 0 0.5 0 0.5 -3 0.5 1.5 0.5 2 
0.5 0 0.5 0 0.5 5 0.5 -2 0.5 -7.5 0.5 0.5 0.5 0 0.5 -0.5 
0.5 1 0.5 1 0.5 -1 0.5 -0.5 0.5 1 0.5 0 0.5 1.5 0.5 -1.5 
0.5 0 0.5 0 0.5 0 0.5 0 0.5 1 0.5 0 0.5 0 0.5 0 
0.5 8 0.5 -8 0.5 0 0.5 0 0.5 0 0.5 -3.5 0.5 1.5 0.5 -0.5 
0.5 -1 0.5 1 0.5 1.5 0.5 0 0.5 -1 0.5 0 0.5 0 0.5 0.5 
0.5 4.5 0.5 -5 0.5 1 0.5 -0.5 0.5 0.5 0.5 0 0.5 0 0.5 -1.5 
0.5 -1 0.5 0 0.5 0 0.5 6 0.5 -2 0.5 -2.5 0.5 0 0.5 -2 
0.5 1.5 S
2071 625 0.5 -1.5 0.5 0 0.5 2.5 0.5 -2 0.5 0 0.5 1.5 0.5 11.5 
0.5 -9.5 0.5 -1 0.5 -1.5 0.5 -1 0.5 1 0.5 -1 0.5 1 0 -2 
0.5 1 0.5 1.5 0.5 4.5 0.5 -6 0.5 -1 0.5 8.5 0.5 -3 0.5 -4.5 
0.5 0 0.5 1 0.5 1 0.5 0 0.5 -0.5 0.5 -1.5 0.5 -0.5 0.5 1.5 
0.5 0 0.5 0.5 0.5 2 0.5 -0.5 0.5 0 0.5 1 0.5 1 0.5 -1.5 
0.5 -0.5 0.5 0 0.5 2.5 0.5 -2.5 0.5 0 0.5 0 0.5 2 0.5 -2 
0.5 0 0.5 -2 0.5 1 0.5 -1 0.5 1.5 0.5 -3 0.5 1.5 0.5 0 
0.5 1 0.5 7 0.5 -4.5 0.5 9.5 0.5 -6 0.5 0 0.5 -6 0.5 -0.5 
0 0.5 0.5 -3 0.5 1 0.5 5.5 0.5 -3.5 0.5 -0.5 0.5 -2.5 0.5 2 
0.5 10 0.5 2 0.5 -0.5 0.5 6.5 0.5 -12 0.5 -7 0.5 1 0.5 4.5 
0.5 -4.5 0.5 -1 0.5 1.5 0.5 9 0.5 -8 0.5 12 0.5 -5 0.5 -6.5 
0.5 6 0.5 -3.5 0.5 -3 0.5 3 0.5 7 0.5 -11.5 0.5 0 0.5 0.5 
0.5 3 0.5 13.5 0.5 -11.5 0.5 -5 0.5 4.5 0.5 0 0.5 -4.5 0.5 2.5 
0.5 5.5 S
2122 633.5 0.5 -7 0.5 -1.5 0.5 0.5 0.5 0 0.5 0 0.5 -0.5 0.5 0 
0.5 1.5 0 -2.5 0.5 3 0.5 -0.5 0.5 16.5 0.5 505 P
2131 1148 0 -519.5 0.5 -5 0.5 0 0.5 0 0.5 -0.5 0.5 2.5 0.5 0.5 
0.5 0.5 0.5 -1.5 0.5 0 0.5 0.5 0.5 0 0.5 2 0.5 -1.5 0.5 3.5 
0.5 0 0.5 -2 0.5 0 0.5 0.5 0.5 -4 0.5 4 0.5 0 0.5 -1.5 
0.5 0.5 0.5 8 0.5 -11 0.5 1 0.5 0 0.5 1 0.5 -3 0.5 2 
0.5 0.5 0.5 2 0.5 -2 0.5 0 0.5 0 0.5 0 0.5 0.5 0.5 -0.5 
0.5 -0.5 0.5 1.5 0.5 0 0.5 -2.5 0.5 -0.5 0.5 6 0.5 -4 0.5 0 
0.5 0 0.5 0 0.5 0 0.5 0.5 0.5 1 0.5 -1.5 0.5 5.5 0.5 -5.5 
0.5 0.5 0.5 4.5 0.5 -5.5 0.5 0.5 0.5 20.5 0.5 0 0.5 0 0.5 0 
0.5 0 0.5 0 0.5 0 0.5 -14.5 0.5 0 0.5 -5.5 0.5 1 0.5 -4 
0.5 1 0.5 4.5 0.5 -4.5 0.5 -0.5 0.5 2 0.5 0 0.5 -0.5 0.5 0 
0.5 1 0.5 -0.5 0.5 2 0.5 2 0.5 -4 0.5 0.5 0.5 0 0.5 0 
0.5 1 0.5 -1 0.5 2 S
2175.5 628 0.5 0.5 0.5 -1.5 0.5 -0.5 0.5 0 0.5 -2.5 0.5 2 0.5 -1 
0.5 -1 0.5 1 0.5 -1 0.5 2 0.5 1 0.5 0 0.5 3 0.5 0 
0.5 0 0.5 0 0.5 0 0.5 0 0.5 0 0.5 0 0.5 0.5 0.5 -3 
0.5 0 0.5 -1 0.5 -0.5 0.5 20 0.5 -20 0.5 56.5 0.5 1 0.5 -0.5 
0.5 -2 0.5 -56 0.5 0 0.5 2.5 0.5 0.5 0.5 -1 0.5 6.5 0.5 -7 
0.5 4.5 0.5 -4.5 0.5 2 0.5 -1 0.5 -0.5 0.5 -1.5 0 12 0.5 -7.5 
0.5 -4 0.5 5 0.5 -6 0.5 0.5 0.5 0.5 0.5 1 0.5 -3 0.5 1 
0.5 33 0.5 -4 0.5 -3.5 0.5 -2.5 0.5 6 0.5 -19.5 0.5 -7.5 0.5 3.5 
0.5 -4 0.5 0 0.5 0 0.5 0.5 0.5 0 0.5 0 0.5 0 0.5 0 
0.5 0 0.5 -0.5 0.5 -0.5 0.5 0 0.5 0.5 0.5 0.5 0.5 -2 0.5 0 
0.5 -1.5 0.5 2.5 0.5 -2 0.5 1.5 0.5 0 0.5 -0.5 0.5 -1 0.5 1 
0.5 -2 0.5 2 0.5 0 0.5 -1.5 0.5 2 0.5 0 0.5 -2 0 -0.5 
0.5 0 0.5 2.5 0.5 11 0.5 -0.5 0.5 0 0.5 -2.5 0.5 0 0.5 -8.5 
0.5 0.5 S
2226.5 625.5 0.5 11 0.5 -8 0.5 0 0.5 0 0.5 0.5 0.5 -0.5 0.5 6.5 
0.5 -4 0.5 1 0.5 -0.5 0.5 1.5 0.5 -4 0.5 3 0.5 0 0.5 0 
0.5 -0.5 0.5 -1 0.5 0 0.5 0 0.5 0 0.5 33.5 0.5 -25 0.5 -10.5 
0.5 121.5 0.5 0 0.5 0 0.5 2 0.5 -1 0.5 -1 0.5 18.5 0.5 2.5 
0.5 -25 0.5 -78.5 0.5 -41 0.5 0.5 0.5 0 0.5 -0.5 0.5 0 0.5 0 
0.5 0 0.5 0 0.5 -1.5 0.5 0 0.5 -1 0.5 1 0.5 0.5 0.5 0 
0.5 0 0.5 -2 0.5 16 0.5 6.5 0.5 0 0.5 -0.5 0.5 0.5 0.5 -0.5 
0.5 -3.5 0.5 -1.5 0.5 1 0.5 -2 0.5 0 0.5 -1 0.5 -2.5 0.5 -7.5 
0.5 0 0.5 0 0.5 0 0.5 0 0.5 -5.5 0.5 3 0.5 -1 0.5 -1.5 
0.5 2 0.5 -2 0.5 1.5 0.5 -1 0.5 -0.5 0.5 2 0.5 0 0.5 -0.5 
0.5 2 0.5 0 0.5 -0.5 0.5 0 0.5 3.5 0.5 -3 0.5 -0.5 0.5 0.5 
0 3.5 0.5 -5 0.5 1.5 0.5 4 0.5 -5 0.5 -0.5 0.5 0 0.5 0 
0.5 0 0.5 0.5 0.5 -0.5 0.5 0.5 0.5 -0.5 0.5 0 0.5 -1.5 0.5 0 
0.5 7 S
2278 631 0.5 -2.5 0.5 1.5 0.5 -6 0.5 0 0.5 12.5 0.5 -0.5 0.5 -9 
0.5 3.5 0.5 0 0.5 0 0.5 -3.5 0.5 -2 0.5 0.5 0.5 3 0.5 -3 
0.5 0 0.5 3 0.5 0 0.5 -3 0.5 0 0.5 3.5 0.5 -3.5 0.5 0 
0.5 0.5 0.5 -0.5 0.5 0.5 0.5 0 0.5 -3 0.5 2.5 0.5 1.5 0.5 1.5 
0.5 -1 0 -0.5 0.5 0 0.5 0 0.5 0 0.5 2 0.5 -2 0.5 -1.5 
0.5 0 0.5 -0.5 0.5 0.5 0.5 0.5 0.5 0 0.5 0 0.5 2.5 0.5 -2.5 
0.5 0 0.5 0 0.5 0 0.5 0 0.5 2.5 0.5 -2.5 0.5 -1 0.5 2 
0.5 -1.5 0.5 0 0.5 0 0.5 3 0.5 -2 0.5 -1.5 0.5 -1 0.5 1 
0.5 -1 0.5 0 0.5 0 0.5 0 0.5 1 0.5 1.5 0.5 -1 0.5 1 
0.5 -1.5 0.5 5 0.5 -2 0.5 -1 0.5 -1.5 0.5 0.5 0.5 0 0.5 0 
0.5 1.5 0.5 7 0 -5 0.5 3 0.5 -6.5 0.5 -0.5 0.5 14 0.5 -0.5 
0.5 0.5 0.5 -1 0.5 -12 0.5 -2.5 0.5 2.5 0.5 -1 0.5 0 0.5 0 
0.5 0 0.5 5 0.5 -6.5 0.5 1 0.5 -1 0.5 3.5 0.5 -1.5 0.5 0 
0.5 0 S
2329 626 0.5 0 0.5 0 0.5 0 0.5 0 0.5 0 0.5 0 0.5 0 
0.5 3.5 0.5 -3 0.5 -0.5 0.5 0 0.5 0 0.5 -1 0.5 2.5 0.5 -0.5 
0.5 -0.5 0.5 -0.5 0.5 0 0.5 0 0.5 0 0.5 0 0.5 0 0.5 0 
0.5 0 0.5 -2 0.5 1 0 8 0.5 -7 0.5 0 0.5 -1 0.5 1.5 
0.5 -0.5 0.5 -1 0.5 5.5 0.5 -4.5 0.5 -1 0.5 -1 0.5 0 0.5 3.5 
0.5 -1 0.5 0 0.5 0 0.5 0 0.5 0 0.5 0 0.5 0 0.5 6 
0.5 -1 0.5 -6.5 0.5 1.5 0.5 0 0.5 0.5 0.5 -0.5 0.5 3 0.5 0.5 
0.5 -1 0.5 -0.5 0.5 0 0.5 0 0.5 0 0.5 0 0.5 0 0.5 -0.5 
0.5 0 0.5 0 0.5 -1 0.5 -1 0.5 -2.5 0.5 0.5 0.5 1.5 0.5 -0.5 
0.5 3.5 0.5 -3.5 0.5 4.5 0.5 1.5 0.5 -4 0.5 1.5 0.5 -3 0.5 -0.5 
0.5 1 0.5 1.5 0.5 -3.5 0.5 0 0.5 1 0.5 0 0.5 0 0.5 3.5 
0.5 -3.5 0.5 14 0.5 -0.5 0.5 -10.5 0.5 0 0.5 13.5 0.5 -14.5 0.5 0 
0.5 -1 0.5 0 0.5 1 0.5 2.5 0.5 0 0.5 0 0.5 1.5 0.5 -0.5 
0.5 -1 S
2380.5 629.5 0.5 0 0.5 0 0.5 -3 0.5 -0.5 0.5 0 0.5 0 0.5 0.5 
0.5 2 0.5 -2 0.5 0 0.5 0 0.5 0 0.5 0 0.5 1.5 0.5 -1.5 
0.5 0 0.5 0 0.5 1 0.5 -0.5 0 -3.5 0.5 3 0.5 -3 0.5 2 
0.5 4.5 0.5 -4 0.5 -2.5 0.5 3 0.5 -0.5 0.5 -0.5 0.5 1 0.5 -2.5 
0.5 3 0.5 -1.5 0.5 0 0.5 0.5 0.5 -2.5 0.5 3 0.5 -0.5 0.5 -2.5 
0.5 0.5 0.5 1 0.5 -1 0.5 2 0.5 -2 0.5 0 0.5 1 0.5 -1 
0.5 3 0.5 -2 0.5 -1.5 0.5 0.5 0.5 1 0.5 1 0.5 0 0.5 0 
0.5 0 0.5 0 0.5 0 0.5 0 0.5 2 0.5 -2 0.5 0 0.5 -1 
0.5 0.5 0.5 -1.5 0.5 -0.5 0.5 0 0.5 2 0 1 0.5 4 0.5 0 
0.5 -0.5 0.5 0 0.5 -1 0.5 0 0.5 -0.5 0.5 -1 0.5 -1 0.5 4.5 
0.5 -1.5 0.5 0.5 0.5 0 0.5 -3 0.5 -0.5 0.5 3 0.5 -6.5 0.5 4.5 
0.5 -0.5 0.5 -0.5 0.5 1 0.5 -1 0.5 -1.5 0.5 0.5 0.5 1.5 0.5 -3 
0.5 0 0.5 2 0.5 1 0.5 -1 0.5 0 0.5 0 0.5 1 0.5 -0.5 
0.5 0 S
2431.5 626.5 0.5 -2.5 0.5 1.5 0.5 6 0.5 -0.5 0.5 -4 0.5 -2 0.5 -1 
0.5 -0.5 0.5 2.5 0.5 1 0.5 0 0.5 0 0.5 1.5 0.5 0 0.5 0.5 
0.5 -2 0.5 -2 0.5 0 0.5 0.5 0.5 -2 0.5 2 0.5 4 0.5 -4 
0.5 0 0.5 -2 0.5 3 0.5 1 0.5 -1 0.5 0.5 0.5 -0.5 0.5 0 
0.5 0 0.5 0 0.5 0 0.5 0 0.5 -3 0.5 2 0.5 3 0.5 0 
0.5 0 0.5 0 0.5 0 0.5 0 0.5 0 0.5 0 0.5 0 0.5 -3 
0.5 -0.5 0.5 -1 0.5 2 0.5 0 0.5 -2 0.5 1 0.5 1 0.5 -1 
0.5 0.5 0.5 -1.5 0.5 1.5 0.5 -1.5 0.5 0 0.5 3 0.5 -3 0.5 1 
0.5 0.5 0.5 1 0.5 -2.5 0.5 1 0.5 -1 0.5 2 0.5 -2.5 0.5 0 
0.5 2 0.5 1.5 0.5 -0.5 0.5 0.5 0.5 -1 0.5 -1 0.5 0.5 0.5 -0.5 
0.5 2.5 0.5 0 0.5 1.5 0.5 0 0.5 0 0.5 0 0.5 -3.5 0.5 1.5 
0.5 0 0.5 -3 0.5 1 0.5 2 0.5 0.5 0.5 -0.5 0.5 0 0.5 1.5 
0.5 -1.5 0.5 1 0.5 -1.5 0.5 0 0.5 0 0.5 -1.5 0.5 1.5 0.5 -1.5 
0.5 3 S
2483.5 628 0.5 -1 0.5 -1 0.5 -2 0.5 1 0.5 0.5 0 0.5 0.5 -3 
0.5 2 0.5 0 0.5 0.5 0.5 -1.5 0.5 3.5 0.5 -1 0.5 1.5 0.5 -2 
0.5 0 0.5 0 0.5 1 0.5 0 0.5 0.5 0.5 -1 0.5 1 0.5 -2.5 
0.5 0.5 0.5 -1.5 0.5 0 0.5 16.5 0.5 0 0.5 0 0.5 0 0.5 0 
0.5 0 0.5 0 0.5 0 0.5 0 0.5 0 0.5 -16.5 0.5 1 0.5 -1 
0.5 0 0.5 0 0.5 1 0.5 0 0.5 -1 0.5 2.5 0.5 -2.5 0.5 1 
0.5 0 0.5 1.5 0.5 1 0.5 -1.5 0.5 -0.5 0.5 0 0.5 0 0.5 0 
0.5 0 0.5 0 0.5 0 0.5 -1.5 0.5 0 0.5 1.5 0.5 -1.5 0.5 0 
0.5 -0.5 0.5 4 0.5 -3.5 0.5 2.5 0.5 1 0.5 -2.5 0.5 0.5 0.5 0 
0.5 -0.5 0.5 0 0.5 2.5 0.5 -2.5 0.5 0 0.5 0 0.5 0.5 0.5 -0.5 
0.5 1.5 0.5 0 0.5 5 0.5 -5 0.5 0 0.5 4 0.5 -4.5 0.5 -0.5 
0.5 3 0.5 -2.5 0.5 0.5 0.5 3.5 0.5 -3.5 0.5 0 0.5 0 0.5 0 
0.5 1 0.5 -1 0.5 0 0.5 -0.5 0.5 0 0.5 0 0.5 0 0.5 -2 
0.5 -0.5 S
2535 623.5 0.5 2.5 0.5 -2.5 0.5 -0.5 0.5 4 0.5 -1 0.5 -2 0.5 1 
0.5 -1 0.5 2 0.5 -2 0.5 3.5 0.5 -3.5 0.5 1 0.5 -1 0.5 1 
0.5 0 0.5 6 0.5 -4.5 0.5 -1.5 0.5 0 0.5 1.5 0.5 0.5 0.5 3 
0.5 -2.5 0.5 -0.5 0.5 0 0.5 1.5 0.5 0 0.5 0.5 0.5 -2 0.5 -0.5 
0.5 -0.5 0.5 -0.5 0.5 1 0.5 -2.5 0.5 2 0.5 -2 0.5 2 0.5 -0.5 
0.5 0 0.5 2 0.5 2 0.5 -2 0.5 0 0.5 0 0.5 0 0 1 
0.5 0.5 0.5 0 0.5 -1.5 0.5 0 0.5 0 0.5 0 0.5 -2.5 0.5 1.5 
0.5 -0.5 0.5 0.5 0.5 7 0.5 -0.5 0.5 -7 0.5 0 0.5 1.5 0.5 0 
0.5 0 0.5 -2.5 0.5 1 0.5 0 0.5 0 0.5 0 0.5 1 0.5 0 
0.5 -0.5 0.5 -0.5 0.5 0.5 0.5 -1 0.5 0 0.5 1.5 0.5 -0.5 0.5 3 
0.5 -3 0.5 0.5 0.5 -0.5 0.5 0 0.5 0 0.5 0 0.5 0 0.5 2 
0.5 -3 0.5 -1.5 0.5 2 0.5 -1 0.5 0.5 0.5 -2 0.5 0.5 0.5 0 
0 4 0.5 -1 0.5 -0.5 0.5 -2.5 0.5 1.5 0.5 -0.5 0.5 1 0.5 -2 
0.5 2 S
2586 626 0.5 2 0.5 -2 0.5 -1 0.5 0.5 0.5 -0.5 0.5 1 0.5 0 
0.5 0 0.5 0.5 0.5 -0.5 0.5 0 0.5 0 0.5 0.5 0.5 -0.5 0.5 2.5 
0.5 -2.5 0.5 0 0.5 -0.5 0.5 1.5 0.5 -1.5 0.5 0 0.5 9 0.5 -1 
0.5 3 0.5 -1.5 0.5 -3 0.5 5.5 0.5 -6 0.5 -0.5 0.5 -0.5 0.5 -0.5 
0.5 0 0.5 -2.5 0.5 0.5 0.5 3.5 0.5 -5.5 0.5 0 0.5 1.5 0.5 7.5 
0.5 0.5 0 -0.5 0.5 -0.5 0.5 1 0.5 -0.5 0.5 -0.5 0.5 -4 0.5 -4.5 
0.5 0 0.5 0 0.5 9 0.5 0.5 0.5 0 0.5 0 0.5 2.5 0.5 -2.5 
0.5 -9 0.5 11.5 0.5 -8.5 0.5 -0.5 0.5 0 0.5 -1 0.5 0 0.5 0 
0.5 1.5 0.5 3 0.5 -1 0.5 -3.5 0.5 0 0.5 3 0.5 0.5 0.5 0.5 
0.5 -0.5 0.5 -1 0.5 -2.5 0.5 -3 0.5 0 0.5 -1 0.5 0 0.5 0 
0.5 1 0.5 0 0.5 -1.5 0.5 2 0.5 -1.5 0.5 -1 0.5 2.5 0.5 -0.5 
0.5 -2 0.5 2.5 0 1 0.5 -0.5 0.5 -1 0.5 1.5 0.5 -1.5 0.5 2 
0.5 -2 0.5 0 0.5 0 0.5 0 0.5 -1 0.5 24 0.5 -24 0.5 1.5 
0.5 -0.5 S
2637 625 0.5 18 0.5 -17 0.5 -3 0.5 0.5 0.5 3 0.5 -0.5 0.5 0 
0.5 -2.5 0.5 53.5 0.5 -4.5 0.5 -47.5 0.5 45.5 0.5 4.5 0.5 -2 0.5 4 
0.5 3 0.5 -4.5 0.5 1 0.5 -3.5 0.5 -15 0.5 -13.5 0.5 -19 0.5 0.5 
0.5 1.5 0.5 -2 0.5 1 0.5 0 0.5 -0.5 0.5 3.5 0.5 -0.5 0.5 0.5 
0.5 -0.5 0.5 -0.5 0.5 -3 0 -2 0.5 0.5 0.5 0 0.5 -0.5 0.5 2.5 
0.5 3.5 0.5 -4 0.5 -1.5 0.5 1.5 0.5 0.5 0.5 0 0.5 5 0.5 -1 
0.5 -0.5 0.5 -0.5 0.5 -3 0.5 -1 0.5 0 0.5 2 0.5 -2 0.5 5.5 
0.5 0 0.5 -1.5 0.5 -1 0.5 -1 0.5 3.5 0.5 -1 0.5 -0.5 0.5 0 
0.5 0 0.5 1 0.5 -1 0.5 0 0.5 -0.5 0.5 -0.5 0.5 0 0.5 -2 
0.5 -1 0.5 1 0.5 -1 0.5 1 0.5 0 0.5 1 0.5 -0.5 0.5 -3 
0.5 0.5 0.5 0 0.5 2 0.5 0 0 0.5 0.5 -1 0.5 0.5 0.5 -2 
0.5 0 0.5 1.5 0.5 1 0.5 0 0.5 0 0.5 -0.5 0.5 -2 0.5 3 
0.5 -3.5 0.5 2.5 0.5 -1 0.5 2.5 0.5 1.5 0.5 0 0.5 0 0.5 -0.5 
0.5 0 S
2688 628.5 0.5 0 0.5 0 0.5 -0.5 0.5 -1.5 0.5 -0.5 0.5 1 0.5 -1 
0.5 -1 0.5 0 0.5 0 0.5 5 0.5 -1.5 0.5 -1 0.5 1 0.5 1.5 
0.5 -4 0.5 -1 0.5 0 0.5 1.5 0.5 6 0.5 0 0.5 -1 0.5 -2 
0.5 0 0.5 0.5 0.5 1 0.5 -3.5 0.5 0 0 9.5 0.5 -2 0.5 -4.5 
0.5 -0.5 0.5 -0.5 0.5 0.5 0.5 0.5 0.5 -5 0.5 0 0.5 -1.5 0.5 1 
0.5 2 0.5 0 0.5 0.5 0.5 0 0.5 3 0.5 0 0.5 0 0.5 0 
0.5 -3.5 0.5 -0.5 0.5 -1 0.5 0 0.5 0.5 0.5 5.5 0.5 -0.5 0.5 -0.5 
0.5 -5 0.5 19 0.5 -8.5 0.5 -6 0.5 0.5 0.5 11.5 0.5 -12.5 0.5 5 
0.5 0 0.5 10 0.5 -2.5 0.5 -15.5 0.5 1 0.5 -2 0.5 0 0.5 -2 
0.5 0.5 0.5 0 0.5 5 0.5 0 0.5 -3.5 0.5 -0.5 0 -1 0.5 1.5 
0.5 -1.5 0.5 4.5 0.5 -5 0.5 2 0.5 0 0.5 -0.5 0.5 1 0.5 7.5 
0.5 -7.5 0.5 -0.5 0.5 2.5 0.5 2 0.5 -2.5 0.5 -1 0.5 -1 0.5 1 
0.5 1 0.5 -2 0.5 -0.5 0.5 1.5 0.5 0.5 0.5 0 0.5 -1 0.5 0.5 
0.5 0.5 S
2739 627 0.5 -1 0.5 0.5 0.5 -1.5 0.5 0 0.5 0 0.5 3.5 0.5 -3.5 
0.5 3 0.5 -2.5 0.5 0.5 0.5 0 0.5 2 0.5 0 0.5 0 0.5 0 
0.5 0 0.5 -1.5 0.5 4 0.5 -4.5 0.5 4 0.5 -4.5 0.5 -0.5 0.5 -1 
0.5 5 0.5 -5 0.5 1.5 0.5 0 0.5 0 0.5 1 0.5 -1 0.5 9.5 
0.5 0 0.5 0 0.5 0 0.5 0 0.5 -4.5 0.5 0 0.5 0 0.5 0 
0.5 0.5 0.5 -2.5 0.5 -3 0.5 0 0.5 -1.5 0.5 1.5 0.5 0 0.5 0 
0.5 0 0.5 0 0.5 -0.5 0.5 4.5 0.5 -2.5 0.5 -2 0.5 0 0.5 0.5 
0.5 -0.5 0.5 0 0.5 0.5 0.5 -0.5 0.5 0 0.5 0 0.5 0 0.5 0 
0.5 0.5 0.5 0 0.5 3 0.5 -3.5 0.5 0 0.5 0 0.5 0 0 0.5 
0.5 0.5 0.5 -1 0.5 0 0.5 1.5 0.5 2.5 0.5 -2.5 0.5 0 0.5 3.5 
0.5 -5 0.5 1 0.5 -2 0.5 -1 0.5 2.5 0.5 0 0.5 -0.5 0.5 -2 
0.5 2 0.5 0.5 0.5 1.5 0.5 -2 0.5 0 0.5 0 0.5 0 0.5 0.5 
0.5 5 0.5 -3.5 0.5 -1.5 0.5 -0.5 0.5 0 0.5 7 0.5 0 0.5 0 
0.5 -5.5 S
2790.5 626.5 0.5 -2.5 0.5 1 0.5 0 0.5 0 0.5 0 0.5 1.5 0.5 -1.5 
0.5 0 0.5 4 0.5 -5.5 0.5 0 0.5 1.5 0.5 2 0.5 -1 0.5 2.5 
0 -4.5 0.5 -1 0.5 0 0.5 5.5 0.5 -4.5 0.5 1 0.5 -1.5 0.5 0 
0.5 0.5 0.5 -1 0.5 5 0.5 -2.5 0.5 -1.5 0.5 1 0.5 -1 0.5 -0.5 
0.5 2 0.5 1 0.5 0 0.5 -1.5 0.5 -2 0.5 2.5 0.5 4.5 0.5 0 
0.5 0 0.5 -0.5 0.5 0 0.5 0 0.5 0 0.5 2.5 0.5 -1.5 0.5 -1.5 
0.5 -4 0.5 2.5 0.5 -3.5 0.5 0 0.5 0 0.5 1 0.5 -1 0.5 0 
0.5 -0.5 0.5 5 0.5 -5 0.5 2 0.5 -0.5 0.5 0 0.5 -1.5 0.5 2.5 
0.5 -2 0 1 0.5 5.5 0.5 0 0.5 0 0.5 0 0.5 0 0.5 0 
0.5 0 0.5 0 0.5 0 0.5 -0.5 0.5 -2.5 0.5 0.5 0.5 -0.5 0.5 -1 
0.5 0 0.5 1 0.5 5 0.5 -2.5 0.5 -3 0.5 2 0.5 -0.5 0.5 1.5 
0.5 -5 0.5 4.5 0.5 -4.5 0.5 0.5 0.5 -0.5 0.5 2.5 0.5 0 0.5 0 
0.5 1 0.5 -1 0.5 2.5 0.5 1 0.5 -3 0.5 -0.5 0.5 -2.5 0.5 0.5 
0.5 -0.5 S
2841.5 625 0.5 0 0.5 0 0.5 0 0.5 -1 0.5 0 0.5 0 0.5 1.5 
0.5 2.5 0.5 -3 0 23 0.5 0.5 0.5 -22.5 0.5 0 0.5 0.5 0.5 -1 
0.5 -0.5 0.5 0 0.5 0 0.5 0 0.5 11.5 0.5 5 0.5 -12.5 0.5 -4 
0.5 1 0.5 0.5 0.5 0 0.5 2.5 0.5 -3.5 0.5 88 0.5 0 0.5 -87 
0.5 -1.5 0.5 1 0.5 -1 0.5 4.5 0.5 -4.5 0.5 -1 0.5 1.5 0.5 -1.5 
0.5 1.5 0.5 -0.5 0.5 0.5 0.5 2.5 0.5 -2.5 0.5 2.5 0.5 -4 0.5 -0.5 
0.5 0 0.5 2.5 0.5 1 0.5 1.5 0.5 -2 0.5 -3 0.5 0 0.5 0.5 
0.5 1 0.5 -1.5 0.5 0 0 2 0.5 1 0.5 -1 0.5 -1.5 0.5 1.5 
0.5 1.5 0.5 -3 0.5 0 0.5 0 0.5 0 0.5 0 0.5 -0.5 0.5 0.5 
0.5 0 0.5 -1 0.5 2 0.5 0.5 0.5 1.5 0.5 -1.5 0.5 -0.5 0.5 0.5 
0.5 -0.5 0.5 0 0.5 0.5 0.5 -0.5 0.5 1.5 0.5 -0.5 0.5 1.5 0.5 -2.5 
0.5 7 0.5 0 0.5 -7 0.5 0 0.5 0 0.5 0 0.5 0 0.5 0 
0.5 2 0.5 3 0.5 -3.5 0.5 -1 0.5 0 0.5 0 0.5 0 0.5 0 
0.5 2 S
2892.5 627.5 0.5 -1 0.5 1 0.5 0.5 0 -1 0.5 0 0.5 0 0.5 0 
0.5 0.5 0.5 -0.5 0.5 -0.5 0.5 -0.5 0.5 1.5 0.5 -1 0.5 -0.5 0.5 0 
0.5 3.5 0.5 -3.5 0.5 2 0.5 0 0.5 -1 0.5 -0.5 0.5 0 0.5 0 
0.5 0 0.5 0 0.5 0 0.5 0 0.5 3.5 0.5 -6.5 0.5 2.5 0.5 0.5 
0.5 -3 0.5 3.5 0.5 -0.5 0.5 -1 0.5 0 0.5 0.5 0.5 0 0.5 1 
0.5 -2 0.5 0.5 0.5 1.5 0.5 -2 0.5 2.5 0.5 0.5 0.5 -2.5 0.5 0.5 
0.5 4.5 0.5 -5 0.5 0 0.5 -1.5 0.5 0 0 5 0.5 0 0.5 8.5 
0.5 -1 0.5 -4.5 0.5 -0.5 0.5 0 0.5 0 0.5 0.5 0.5 -1 0.5 0 
0.5 0 0.5 0 0.5 -4.5 0.5 -1 0.5 -2.5 0.5 2 0.5 0 0.5 -2 
0.5 0.5 0.5 0 0.5 0.5 0.5 2 0.5 -0.5 0.5 0 0.5 0.5 0.5 -1 
0.5 0 0.5 1.5 0.5 -0.5 0.5 -2 0.5 3 0.5 -1 0.5 0 0.5 0.5 
0.5 -0.5 0.5 1.5 0.5 0 0.5 -0.5 0.5 -3.5 0.5 5.5 0.5 -2 0.5 -0.5 
0.5 -0.5 0.5 0 0.5 12.5 0.5 0 0.5 0 0.5 -6.5 0 -6.5 0.5 4 
0.5 5 S
2943 634.5 0.5 -10.5 0.5 -0.5 0.5 0.5 0.5 1.5 0.5 0 0.5 0 0.5 0 
0.5 0 0.5 1 0.5 -1 0.5 1.5 0.5 -0.5 0.5 0 0.5 0 0.5 0.5 
0.5 1.5 0.5 2.5 0.5 -4.5 0.5 2 0.5 -1 0.5 8.5 0.5 -10 0.5 -1 
0.5 -1 0.5 2 0.5 -2 0.5 3.5 0.5 0 0.5 2 0.5 -3 0.5 -2.5 
0.5 0 0.5 1 0.5 1 0.5 -0.5 0.5 0 0.5 1 0.5 -0.5 0.5 -1 
0.5 0 0.5 0 0.5 -1 0.5 2.5 0.5 -3 0.5 0.5 0.5 1.5 0.5 0 
0.5 1.5 0.5 -3 0.5 1.5 0.5 2.5 0.5 -3 0.5 -1 0.5 1.5 0.5 -0.5 
0.5 1.5 0.5 2.5 0.5 -5 0.5 1 0.5 -1 0.5 0 0.5 1 0.5 3 
0.5 -4.5 0.5 0 0.5 0.5 0.5 1 0.5 0 0.5 -1 0.5 1.5 0.5 -2 
0.5 2 0.5 2 0.5 -2.5 0.5 0 0.5 1 0.5 -2.5 0.5 1.5 0.5 6 
0.5 -5 0.5 -0.5 0.5 2 0.5 -1 0.5 1 0.5 1.5 0.5 2 0.5 -5 
0.5 0 0.5 0 0.5 0 0.5 0 0.5 -2 0.5 0 0.5 1.5 0.5 1 
0.5 0.5 0.5 -1.5 0.5 0 0.5 0 0.5 0 0.5 0 0.5 1.5 0.5 -0.5 
0.5 -1 S
2995 625.5 0.5 5 0.5 0 0.5 -5 0.5 2.5 0.5 0 0.5 0 0.5 0 
0.5 0 0.5 0 0.5 0 0.5 0 0.5 0 0.5 0 0.5 -2.5 0.5 -1.5 
0.5 -0.5 0.5 2.5 0.5 -2 0.5 3.5 0.5 0 0.5 -1.5 0.5 0.5 0.5 1 
0.5 0 0.5 0 0.5 -1 0.5 1.5 0.5 -1.5 0.5 0.5 0.5 -2 0.5 0 
0.5 0 0.5 2.5 0.5 -2.5 0.5 0 0.5 0 0.5 0 0.5 -1 0.5 2 
0.5 -1 0.5 0.5 0.5 -0.5 0.5 0 0.5 2 0.5 -1.5 0.5 -1.5 0.5 -1 
0.5 1 0.5 -0.5 0.5 0 0.5 2.5 0.5 -0.5 0.5 0 0.5 1 0.5 0 
0.5 0 0.5 0 0.5 0 0.5 0 0.5 0 0.5 0 0.5 -1 0.5 -1.5 
0.5 0 0.5 0 0.5 0 0.5 3 0.5 -2 0.5 0.5 0.5 0 0.5 0 
0.5 0 0.5 -2 0.5 1.5 0.5 0 0.5 0.5 0.5 0 0.5 0 0.5 1 
0.5 -3.5 0.5 5 0.5 -4 0.5 1 0.5 0.5 0.5 -1.5 0.5 -0.5 0 1.5 
0.5 0.5 0.5 -1.5 0.5 1 0.5 0.5 0.5 2 0.5 1.5 0.5 3 0.5 -6 
0.5 -0.5 0.5 0 0.5 0 0.5 86 0.5 2.5 0.5 -1 0.5 -6 0.5 -75.5 
0.5 -5 S
3046.5 626.5 0.5 -1.5 0.5 2 0.5 -1 0.5 -0.5 0.5 0.5 0.5 0.5 0.5 0 
0.5 -0.5 0.5 1 0.5 -0.5 0.5 1 0.5 0.5 0.5 1.5 0.5 0 0.5 -4.5 
0.5 1 0.5 -0.5 0.5 6.5 0.5 -1.5 0.5 0 0.5 10.5 0.5 -6.5 0.5 -2.5 
0.5 0.5 0.5 0.5 0.5 0.5 0.5 -1 0.5 -3 0.5 -1 0.5 -0.5 0.5 -1 
0 -0.5 0.5 6 0.5 -4.5 0.5 1.5 0.5 4 0.5 -6.5 0.5 0 0.5 -0.5 
0.5 0 0.5 -0.5 0.5 4.5 0.5 -4.5 0.5 1 0.5 2 0.5 -2.5 0.5 0.5 
0.5 -0.5 0.5 0.5 0.5 8 0.5 -3.5 0.5 -0.5 0.5 -2 0.5 0 0.5 -3 
0.5 0 0.5 1.5 0.5 -1.5 0.5 -1 0.5 2 0.5 0 0.5 0 0.5 -4 
0.5 0.5 0.5 2 0.5 4.5 0.5 -1.5 0.5 0.5 0.5 -5.5 0.5 2 0.5 -2 
0.5 0.5 0.5 2.5 0.5 -2.5 0.5 1.5 0.5 -0.5 0.5 1.5 0.5 0 0.5 0 
0.5 2.5 0.5 0 0.5 1 0.5 -1.5 0.5 1 0.5 -0.5 0.5 -2 0.5 0 
0.5 -1 0.5 1.5 0.5 -2 0.5 -0.5 0.5 0 0.5 0 0.5 1.5 0.5 1 
0.5 0 0.5 0 0.5 1 0.5 -1.5 0.5 1 0.5 0 0.5 -0.5 0.5 -0.5 
0.5 -0.5 S
3098 626.5 0.5 -2.5 0.5 0 0.5 1.5 0.5 1.5 0.5 1 0.5 -1 0.5 0 
0.5 0 0.5 0 0.5 0 0.5 0 0.5 0 0.5 -0.5 0.5 0.5 0.5 -3 
0.5 0 0.5 1 0.5 -1.5 0.5 0.5 0.5 1 0.5 3.5 0.5 -4.5 0.5 1 
0.5 2.5 0 -2 0.5 -0.5 0.5 1.5 0.5 -3.5 0.5 2.5 0.5 -1.5 0.5 1 
0.5 -1.5 0.5 2 0.5 -0.5 0.5 0 0.5 -1.5 0.5 0.5 0.5 1.5 0.5 0.5 
0.5 0 0.5 -1 0.5 -1.5 0.5 -0.5 0.5 5 0.5 0 0.5 0.5 0.5 -0.5 
0.5 0 0.5 1 0.5 -1 0.5 -2 0.5 0 0.5 0 0.5 3.5 0.5 -2.5 
0.5 -3.5 0.5 0.5 0.5 -0.5 0.5 0.5 0.5 2.5 0.5 -1 0.5 3.5 0.5 -3.5 
0.5 0 0.5 0 0.5 -0.5 0.5 -1.5 0.5 0 0.5 2.5 0.5 1 0.5 -0.5 
0.5 1 0.5 -1 0.5 -2.5 0.5 1 0.5 -1 0.5 1.5 0.5 0.5 0.5 -2.5 
0.5 0.5 0.5 1 0.5 0 0.5 0 0.5 0.5 0.5 -0.5 0.5 0.5 0.5 2 
0.5 3 0.5 -4.5 0.5 -1 0.5 1 0.5 -1 0.5 3 0.5 0 0.5 -1.5 
0.5 -2.5 0.5 1.5 0.5 2 0.5 -2 0.5 0 0.5 0 0.5 2.5 0.5 -3 
0.5 1 S
3149.5 626 0.5 -0.5 0.5 0 0.5 0.5 0.5 -2.5 0.5 2 0.5 0.5 0.5 -2 
0.5 1 0.5 -1 0.5 0 0.5 -0.5 0.5 0 0.5 1.5 0.5 4.5 0.5 -0.5 
0.5 -5.5 0.5 1.5 0 3 0.5 -3 0.5 2.5 0.5 0.5 0.5 -2.5 0.5 -0.5 
0.5 0 0.5 0 0.5 1 0.5 -2 0.5 3 0.5 -1.5 0.5 -2 0.5 1.5 
0.5 1 0.5 -0.5 0.5 -0.5 0.5 3 0.5 -2 0.5 -1 0.5 0 0.5 2.5 
0.5 -1.5 0.5 0 0.5 0 0.5 -1 0.5 0 0.5 0.5 0.5 -0.5 0.5 26 
0.5 -1.5 0.5 4.5 0.5 2 0.5 -8 0.5 1 0.5 77.5 0.5 2.5 0.5 -3 
0.5 -60.5 0.5 -3.5 0.5 -3 0.5 -2.5 0.5 -3 0.5 -1.5 0.5 -17 0.5 -8.5 
0.5 0 0.5 0 0.5 0 0.5 -1.5 0.5 16.5 0.5 0.5 0.5 2 0.5 -15.5 
0.5 -2.5 0.5 1 0.5 0 0.5 -0.5 0.5 0.5 0.5 0 0.5 0 0.5 0 
0.5 0 0.5 0 0.5 47.5 0.5 -1.5 0.5 3 0.5 -49 0.5 0 0.5 8 
0.5 0 0.5 -2 0.5 6.5 0.5 -8 0.5 -0.5 0.5 0 0.5 -3 0.5 -0.5 
0.5 -2 0.5 -1.5 0.5 5 0.5 15.5 0.5 -13.5 0.5 0.5 0.5 1.5 0.5 -0.5 
0.5 3 S
3201 635.5 0.5 -2 0.5 -1 0.5 -0.5 0.5 -1 0.5 -1.5 0.5 0.5 0.5 -1.5 
0.5 -2 0.5 8.5 0.5 0.5 0 -1 0.5 1 0.5 0 0.5 -2 0.5 2 
0.5 -0.5 0.5 0.5 0.5 0 0.5 -7 0.5 2.5 0.5 0.5 0.5 -2 0.5 3.5 
0.5 -5.5 0.5 0 0.5 0 0.5 0 0.5 0.5 0.5 -1 0.5 0 0.5 0 
0.5 -1.5 0.5 -0.5 0.5 0 0.5 -1 0.5 1.5 0.5 -1.5 0.5 0 0.5 1.5 
0.5 0 0.5 2.5 0.5 -4 0.5 3 0.5 -1.5 0.5 -1.5 0.5 3 0.5 0 
0.5 -1 0.5 0 0.5 0 0.5 0 0.5 0 0.5 0.5 0.5 -0.5 0.5 3 
0.5 5.5 0.5 2 0.5 -8 0.5 1 0 -0.5 0.5 0 0.5 0 0.5 -4 
0.5 0.5 0.5 1.5 0.5 3.5 0.5 0 0.5 0 0.5 0 0.5 -2 0.5 0 
0.5 0 0.5 0 0.5 -2 0.5 1.5 0.5 -1 0.5 4.5 0.5 -3.5 0.5 -1.5 
0.5 2.5 0.5 -1.5 0.5 1.5 0.5 -3 0.5 0.5 0.5 -1.5 0.5 4.5 0.5 -1.5 
0.5 0.5 0.5 0.5 0.5 -3 0.5 -0.5 0.5 0 0.5 0 0.5 0 0.5 -0.5 
0.5 1 0.5 -2 0.5 1 0.5 1 0.5 3.5 0.5 -2 0.5 -2.5 0.5 0.5 
0.5 0.5 S
3252 626 0.5 0 0.5 0 0.5 -0.5 0.5 -1.5 0.5 1 0.5 2 0.5 -3 
0.5 0 0.5 1.5 0.5 1.5 0.5 -3 0.5 1 0.5 1 0.5 0 0.5 -1 
0.5 0.5 0.5 -1.5 0.5 1.5 0.5 5 0.5 0 0.5 0 0.5 0 0.5 0 
0.5 0 0.5 0 0.5 -2 0.5 -0.5 0.5 -2.5 0.5 4 0.5 -0.5 0.5 -0.5 
0.5 0 0.5 0.5 0.5 0 0.5 0 0.5 0 0.5 0 0.5 0 0.5 -2 
0.5 -1.5 0.5 -2 0.5 0.5 0.5 -1 0.5 3 0.5 -0.5 0.5 1 0.5 4 
0.5 -4 0.5 0 0.5 0 0.5 0 0.5 2 0.5 3 0.5 -3 0.5 0 
0.5 -2.5 0.5 4 0.5 0 0.5 0 0.5 0 0.5 -4 0.5 3 0.5 0 
0.5 -0.5 0.5 0 0.5 -0.5 0.5 2 0.5 -1 0.5 -3.5 0.5 0.5 0.5 0 
0.5 2.5 0.5 -3 0.5 27 0.5 -3.5 0.5 -3 S
5 w
842 620 2448 528 re
S
cleartomark end end pagesave restore
 showpage
%%PageTrailer
%%Trailer
%%Pages: 1
