%!PS-Adobe-3.0 EPSF-3.0
%%BoundingBox: 63 52 196 119
%%HiResBoundingBox: 63.200000 52.900000 195.200000 118.300000
%.....................................
%%Creator: GPL Ghostscript 871 (epswrite)
%%CreationDate: 2012/01/28 17:04:38
%%DocumentData: Clean7Bit
%%LanguageLevel: 2
%%EndComments
%%BeginProlog
% This copyright applies to everything between here and the %%EndProlog:
% Copyright (C) 2010 Artifex Software, Inc.  All rights reserved.
%%BeginResource: procset GS_epswrite_2_0_1001 1.001 0
/GS_epswrite_2_0_1001 80 dict dup begin
/PageSize 2 array def/setpagesize{ PageSize aload pop 3 index eq exch
4 index eq and{ pop pop pop}{ PageSize dup  1
5 -1 roll put 0 4 -1 roll put dup null eq {false} {dup where} ifelse{ exch get exec}
{ pop/setpagedevice where
{ pop 1 dict dup /PageSize PageSize put setpagedevice}
{ /setpage where{ pop PageSize aload pop pageparams 3 {exch pop} repeat
setpage}if}ifelse}ifelse}ifelse} bind def
/!{bind def}bind def/#{load def}!/N/counttomark #
/rG{3{3 -1 roll 255 div}repeat setrgbcolor}!/G{255 div setgray}!/K{0 G}!
/r6{dup 3 -1 roll rG}!/r5{dup 3 1 roll rG}!/r3{dup rG}!
/w/setlinewidth #/J/setlinecap #
/j/setlinejoin #/M/setmiterlimit #/d/setdash #/i/setflat #
/m/moveto #/l/lineto #/c/rcurveto #
/p{N 2 idiv{N -2 roll rlineto}repeat}!
/P{N 0 gt{N -2 roll moveto p}if}!
/h{p closepath}!/H{P closepath}!
/lx{0 rlineto}!/ly{0 exch rlineto}!/v{0 0 6 2 roll c}!/y{2 copy c}!
/re{4 -2 roll m exch dup lx exch ly neg lx h}!
/^{3 index neg 3 index neg}!
/f{P fill}!/f*{P eofill}!/s{H stroke}!/S{P stroke}!
/q/gsave #/Q/grestore #/rf{re fill}!
/Y{P clip newpath}!/Y*{P eoclip newpath}!/rY{re Y}!
/|={pop exch 4 1 roll 1 array astore cvx 3 array astore cvx exch 1 index def exec}!
/|{exch string readstring |=}!
/+{dup type/nametype eq{2 index 7 add -3 bitshift 2 index mul}if}!
/@/currentfile #/${+ @ |}!
/B{{2 copy string{readstring pop}aload pop 4 array astore cvx
3 1 roll}repeat pop pop true}!
/Ix{[1 0 0 1 11 -2 roll exch neg exch neg]exch}!
/,{true exch Ix imagemask}!/If{false exch Ix imagemask}!/I{exch Ix image}!
/Ic{exch Ix false 3 colorimage}!
/F{/Columns counttomark 3 add -2 roll/Rows exch/K -1/BlackIs1 true>>
/CCITTFaxDecode filter}!/FX{<</EndOfBlock false F}!
/X{/ASCII85Decode filter}!/@X{@ X}!/&2{2 index 2 index}!
/@F{@ &2<<F}!/@C{@X &2 FX}!
/$X{+ @X |}!/&4{4 index 4 index}!/$F{+ @ &4<<F |}!/$C{+ @X &4 FX |}!
/IC{3 1 roll 10 dict begin 1{/ImageType/Interpolate/Decode/DataSource
/ImageMatrix/BitsPerComponent/Height/Width}{exch def}forall
currentdict end image}!
/~{@ read {pop} if}!
end def
%%EndResource
/pagesave null def
%%EndProlog
%%Page: 1 1
%%BeginPageSetup
GS_epswrite_2_0_1001 begin
/pagesave save store 197 dict begin
0.1 0.1 scale
%%EndPageSetup
gsave mark
Q q
0 0 250000 250000 re
Y
5 w
K
810.5 590 31.5 0 P
1872.5 590 -31.5 0 P
783.5 590 S
707 575 17 32 /3U
$C
+i"'Ws8W*](WjZ;pV6~>
,
732 574 24 33 /6U
$C
-QF8ne"Tt:oUF>0ot#YQs8W,nXfqbA/ZlCbg4g:qTE~>
,
757 574 6U ,
810.5 633.5 15.5 0 P
1872.5 633.5 -15.5 0 P
810.5 658.5 15.5 0 P
1872.5 658.5 -15.5 0 P
810.5 676.5 15.5 0 P
1872.5 676.5 -15.5 0 P
810.5 690.5 15.5 0 P
1872.5 690.5 -15.5 0 P
810.5 702 15.5 0 P
1872.5 702 -15.5 0 P
810.5 711.5 15.5 0 P
1872.5 711.5 -15.5 0 P
810.5 720 15.5 0 P
1872.5 720 -15.5 0 P
810.5 727.5 15.5 0 P
1872.5 727.5 -15.5 0 P
810.5 734 31.5 0 P
1872.5 734 -31.5 0 P
783.5 734 S
682 719 3U ,
707 718 6U ,
732 718 6U ,
757 718 6U ,
810.5 777.5 15.5 0 P
1872.5 777.5 -15.5 0 P
810.5 802.5 15.5 0 P
1872.5 802.5 -15.5 0 P
810.5 820.5 15.5 0 P
1872.5 820.5 -15.5 0 P
810.5 834.5 15.5 0 P
1872.5 834.5 -15.5 0 P
810.5 846 15.5 0 P
1872.5 846 -15.5 0 P
810.5 855.5 15.5 0 P
1872.5 855.5 -15.5 0 P
810.5 864 15.5 0 P
1872.5 864 -15.5 0 P
810.5 871.5 15.5 0 P
1872.5 871.5 -15.5 0 P
810.5 878 31.5 0 P
1872.5 878 -31.5 0 P
783.5 878 S
657 863 3U ,
682 862 6U ,
707 862 6U ,
732 862 6U ,
757 862 6U ,
810.5 921.5 15.5 0 P
1872.5 921.5 -15.5 0 P
810.5 946.5 15.5 0 P
1872.5 946.5 -15.5 0 P
810.5 964.5 15.5 0 P
1872.5 964.5 -15.5 0 P
810.5 978.5 15.5 0 P
1872.5 978.5 -15.5 0 P
810.5 990 15.5 0 P
1872.5 990 -15.5 0 P
810.5 999.5 15.5 0 P
1872.5 999.5 -15.5 0 P
810.5 1008 15.5 0 P
1872.5 1008 -15.5 0 P
810.5 1015.5 15.5 0 P
1872.5 1015.5 -15.5 0 P
810.5 1022 31.5 0 P
1872.5 1022 -31.5 0 P
783.5 1022 S
632 1007 3U ,
657 1006 6U ,
682 1006 6U ,
707 1006 6U ,
732 1006 6U ,
757 1006 6U ,
810.5 1065.5 15.5 0 P
1872.5 1065.5 -15.5 0 P
810.5 1090.5 15.5 0 P
1872.5 1090.5 -15.5 0 P
810.5 1108.5 15.5 0 P
1872.5 1108.5 -15.5 0 P
810.5 1122.5 15.5 0 P
1872.5 1122.5 -15.5 0 P
810.5 1134 15.5 0 P
1872.5 1134 -15.5 0 P
810.5 1143.5 15.5 0 P
1872.5 1143.5 -15.5 0 P
810.5 1152 15.5 0 P
1872.5 1152 -15.5 0 P
810.5 1159.5 15.5 0 P
1872.5 1159.5 -15.5 0 P
810.5 1166 31.5 0 P
1872.5 1166 -31.5 0 P
783.5 1166 S
656 1151 3U ,
681 1150 24 26 /3Y
$C
-QF8m3cn$+DNj>L&-!fWfB%e^m<Z4N@4N(>$5cS~>
,
706 1151 25 21 /6Y
$C
+lE>"o)R[hGQ7^@~>
,
732 1150 6U ,
757 1150 24 33 /4C
$C
-QF8m3mfL'6+Xe6FMIj`lYD4k'p^oJE5LXRrKFkj>7E)'X&-Z`~>
,
810.5 590 0 31.5 P
810.5 1166 0 -31.5 P
810.5 545 S
803 530 3U ,
874.5 590 0 15.5 P
874.5 1166 0 -15.5 P
959 590 0 15.5 P
959 1166 0 -15.5 P
1002.5 590 0 15.5 P
1002.5 1166 0 -15.5 P
1023 590 0 31.5 P
1023 1166 0 -31.5 P
1023 545 S
1003 530 3U ,
1028 529 6U ,
1087 590 0 15.5 P
1087 1166 0 -15.5 P
1171.5 590 0 15.5 P
1171.5 1166 0 -15.5 P
1214.5 590 0 15.5 P
1214.5 1166 0 -15.5 P
1235.5 590 0 31.5 P
1235.5 1166 0 -31.5 P
1235.5 545 S
1203 530 3U ,
1228 529 6U ,
1253 529 6U ,
1299 590 0 15.5 P
1299 1166 0 -15.5 P
1384 590 0 15.5 P
1384 1166 0 -15.5 P
1427 590 0 15.5 P
1427 1166 0 -15.5 P
1447.5 590 0 31.5 P
1447.5 1166 0 -31.5 P
1447.5 545 S
1403 530 3U ,
1428 529 6U ,
1453 529 6U ,
1478 529 6U ,
1511.5 590 0 15.5 P
1511.5 1166 0 -15.5 P
1596 590 0 15.5 P
1596 1166 0 -15.5 P
1639.5 590 0 15.5 P
1639.5 1166 0 -15.5 P
1660 590 0 31.5 P
1660 1166 0 -31.5 P
1660 545 S
1603 530 3U ,
1628 529 6U ,
1653 529 6U ,
1678 529 6U ,
1703 529 6U ,
1724 590 0 15.5 P
1724 1166 0 -15.5 P
1808.5 590 0 15.5 P
1808.5 1166 0 -15.5 P
1852 590 0 15.5 P
1852 1166 0 -15.5 P
1872.5 590 0 31.5 P
1872.5 1166 0 -31.5 P
1872.5 545 S
1803 530 3U ,
1828 529 6U ,
1853 529 6U ,
1878 529 6U ,
1903 529 6U ,
1928 529 6U ,
810.5 590 1062 576 re
S
2.5 w
938.5 609.75 0 31.5 S
922.75 625.5 31.5 0 S
959 680.75 0 31.5 S
943.25 696.5 31.5 0 S
976 922.25 0 31.5 S
960.25 938 31.5 0 S
990 997.25 0 31.5 S
974.25 1013 31.5 0 S
1002.5 1053.25 0 31.5 S
986.75 1069 31.5 0 S
1013 1072.75 0 31.5 S
997.25 1088.5 31.5 0 S
1023 1081.25 0 31.5 S
1007.25 1097 31.5 0 S
1031.5 1066.25 0 31.5 S
1015.75 1082 31.5 0 S
1039.5 1064.25 0 31.5 S
1023.75 1080 31.5 0 S
1047 1046.75 0 31.5 S
1031.25 1062.5 31.5 0 S
1054 1029.25 0 31.5 S
1038.25 1045 31.5 0 S
1060.5 1024.25 0 31.5 S
1044.75 1040 31.5 0 S
1066.5 1010.25 0 31.5 S
1050.75 1026 31.5 0 S
1072 1006.25 0 31.5 S
1056.25 1022 31.5 0 S
1077 986.25 0 31.5 S
1061.25 1002 31.5 0 S
1082 975.75 0 31.5 S
1066.25 991.5 31.5 0 S
1087 985.25 0 31.5 S
1071.25 1001 31.5 0 S
1091.5 962.25 0 31.5 S
1075.75 978 31.5 0 S
1095.5 940.75 0 31.5 S
1079.75 956.5 31.5 0 S
1099.5 922.75 0 31.5 S
1083.75 938.5 31.5 0 S
1103.5 890.75 0 31.5 S
1087.75 906.5 31.5 0 S
1107.5 874.25 0 31.5 S
1091.75 890 31.5 0 S
1111 895.25 0 31.5 S
1095.25 911 31.5 0 S
1114.5 912.75 0 31.5 S
1098.75 928.5 31.5 0 S
1118 913.25 0 31.5 S
1102.25 929 31.5 0 S
1121 897.75 0 31.5 S
1105.25 913.5 31.5 0 S
1124 897.25 0 31.5 S
1108.25 913 31.5 0 S
1127.5 867.75 0 31.5 S
1111.75 883.5 31.5 0 S
1130 852.25 0 31.5 S
1114.25 868 31.5 0 S
1133 836.25 0 31.5 S
1117.25 852 31.5 0 S
1136 796.75 0 31.5 S
1120.25 812.5 31.5 0 S
1138.5 828.75 0 31.5 S
1122.75 844.5 31.5 0 S
1141 797.25 0 31.5 S
1125.25 813 31.5 0 S
1143.5 849.25 0 31.5 S
1127.75 865 31.5 0 S
1146 783.25 0 31.5 S
1130.25 799 31.5 0 S
1148.5 861.75 0 31.5 S
1132.75 877.5 31.5 0 S
1151 794.25 0 31.5 S
1135.25 810 31.5 0 S
1153 805.25 0 31.5 S
1137.25 821 31.5 0 S
1155.5 815.25 0 31.5 S
1139.75 831 31.5 0 S
1157.5 688.75 0 31.5 S
1141.75 704.5 31.5 0 S
1159.5 811.75 0 31.5 S
1143.75 827.5 31.5 0 S
1161.5 736.75 0 31.5 S
1145.75 752.5 31.5 0 S
1163.5 825.25 0 31.5 S
1147.75 841 31.5 0 S
1165.5 703.75 0 31.5 S
1149.75 719.5 31.5 0 S
1167.5 800.25 0 31.5 S
1151.75 816 31.5 0 S
1169.5 859.75 0 31.5 S
1153.75 875.5 31.5 0 S
1171.5 741.75 0 31.5 S
1155.75 757.5 31.5 0 S
1173 763.75 0 31.5 S
1157.25 779.5 31.5 0 S
1175 759.25 0 31.5 S
1159.25 775 31.5 0 S
1176.5 822.75 0 31.5 S
1160.75 838.5 31.5 0 S
1178.5 834.75 0 31.5 S
1162.75 850.5 31.5 0 S
1180 854.75 0 31.5 S
1164.25 870.5 31.5 0 S
1182 685.75 0 31.5 S
1166.25 701.5 31.5 0 S
1183.5 692.75 0 31.5 S
1167.75 708.5 31.5 0 S
1185 784.75 0 31.5 S
1169.25 800.5 31.5 0 S
1186.5 745.25 0 31.5 S
1170.75 761 31.5 0 S
1188 783.25 0 31.5 S
1172.25 799 31.5 0 S
1189.5 741.75 0 31.5 S
1173.75 757.5 31.5 0 S
1191 691.75 0 31.5 S
1175.25 707.5 31.5 0 S
1192.5 741.75 0 31.5 S
1176.75 757.5 31.5 0 S
1194 764.75 0 31.5 S
1178.25 780.5 31.5 0 S
1195.5 693.25 0 31.5 S
1179.75 709 31.5 0 S
1197 720.75 0 31.5 S
1181.25 736.5 31.5 0 S
1199.5 738.75 0 31.5 S
1183.75 754.5 31.5 0 S
1201 738.75 0 31.5 S
1185.25 754.5 31.5 0 S
1202.5 697.75 0 31.5 S
1186.75 713.5 31.5 0 S
1205 747.75 0 31.5 S
1189.25 763.5 31.5 0 S
1206.5 784.75 0 31.5 S
1190.75 800.5 31.5 0 S
1207.5 736.75 0 31.5 S
1191.75 752.5 31.5 0 S
1210 696.75 0 31.5 S
1194.25 712.5 31.5 0 S
1213.5 765.25 0 31.5 S
1197.75 781 31.5 0 S
1214.5 695.25 0 31.5 S
1198.75 711 31.5 0 S
1216 699.25 0 31.5 S
1200.25 715 31.5 0 S
1217 715.75 0 31.5 S
1201.25 731.5 31.5 0 S
1218 770.75 0 31.5 S
1202.25 786.5 31.5 0 S
1219 824.75 0 31.5 S
1203.25 840.5 31.5 0 S
1220.5 700.25 0 31.5 S
1204.75 716 31.5 0 S
1221.5 693.25 0 31.5 S
1205.75 709 31.5 0 S
1223.5 755.75 0 31.5 S
1207.75 771.5 31.5 0 S
1224.5 739.75 0 31.5 S
1208.75 755.5 31.5 0 S
1225.5 768.25 0 31.5 S
1209.75 784 31.5 0 S
1226.5 694.25 0 31.5 S
1210.75 710 31.5 0 S
1231.5 707.25 0 31.5 S
1215.75 723 31.5 0 S
1234.5 750.75 0 31.5 S
1218.75 766.5 31.5 0 S
1235.5 770.25 0 31.5 S
1219.75 786 31.5 0 S
1236 694.25 0 31.5 S
1220.25 710 31.5 0 S
1237 705.75 0 31.5 S
1221.25 721.5 31.5 0 S
1238 689.25 0 31.5 S
1222.25 705 31.5 0 S
1239 704.25 0 31.5 S
1223.25 720 31.5 0 S
1240 706.75 0 31.5 S
1224.25 722.5 31.5 0 S
1240.5 739.25 0 31.5 S
1224.75 755 31.5 0 S
1241.5 706.75 0 31.5 S
1225.75 722.5 31.5 0 S
1242.5 793.75 0 31.5 S
1226.75 809.5 31.5 0 S
1247.5 703.25 0 31.5 S
1231.75 719 31.5 0 S
1249 689.25 0 31.5 S
1233.25 705 31.5 0 S
1250.5 682.75 0 31.5 S
1234.75 698.5 31.5 0 S
1251.5 691.25 0 31.5 S
1235.75 707 31.5 0 S
1252 690.75 0 31.5 S
1236.25 706.5 31.5 0 S
1256 706.75 0 31.5 S
1240.25 722.5 31.5 0 S
1257.5 715.75 0 31.5 S
1241.75 731.5 31.5 0 S
1260 715.25 0 31.5 S
1244.25 731 31.5 0 S
1268.5 716.75 0 31.5 S
1252.75 732.5 31.5 0 S
1281.5 691.75 0 31.5 S
1265.75 707.5 31.5 0 S
1283 693.25 0 31.5 S
1267.25 709 31.5 0 S
1286 695.25 0 31.5 S
1270.25 711 31.5 0 S
1287.5 691.75 0 31.5 S
1271.75 707.5 31.5 0 S
1288 732.25 0 31.5 S
1272.25 748 31.5 0 S
1288.5 687.25 0 31.5 S
1272.75 703 31.5 0 S
1290 691.75 0 31.5 S
1274.25 707.5 31.5 0 S
1293.5 739.25 0 31.5 S
1277.75 755 31.5 0 S
1294 686.75 0 31.5 S
1278.25 702.5 31.5 0 S
1295 689.75 0 31.5 S
1279.25 705.5 31.5 0 S
1296 689.75 0 31.5 S
1280.25 705.5 31.5 0 S
1297 694.25 0 31.5 S
1281.25 710 31.5 0 S
1297.5 689.25 0 31.5 S
1281.75 705 31.5 0 S
1299 691.75 0 31.5 S
1283.25 707.5 31.5 0 S
1299.5 687.25 0 31.5 S
1283.75 703 31.5 0 S
1300 693.25 0 31.5 S
1284.25 709 31.5 0 S
1302 689.25 0 31.5 S
1286.25 705 31.5 0 S
1315.5 710.25 0 31.5 S
1299.75 726 31.5 0 S
1318.5 805.75 0 31.5 S
1302.75 821.5 31.5 0 S
1319 718.75 0 31.5 S
1303.25 734.5 31.5 0 S
1320 721.75 0 31.5 S
1304.25 737.5 31.5 0 S
1330.5 717.25 0 31.5 S
1314.75 733 31.5 0 S
1332 714.75 0 31.5 S
1316.25 730.5 31.5 0 S
1371.5 756.25 0 31.5 S
1355.75 772 31.5 0 S
1584.5 691.75 0 31.5 S
1568.75 707.5 31.5 0 S
1600.5 688.25 0 31.5 S
1584.75 704 31.5 0 S
1653 641.75 0 31.5 S
1637.25 657.5 31.5 0 S
1656 630.75 0 31.5 S
1640.25 646.5 31.5 0 S
1673.5 617.25 0 31.5 S
1657.75 633 31.5 0 S
1674 614.75 0 31.5 S
1658.25 630.5 31.5 0 S
1674.5 614.25 0 31.5 S
1658.75 630 31.5 0 S
1675 638.75 0 31.5 S
1659.25 654.5 31.5 0 S
1675 614.25 0 31.5 S
1659.25 630 31.5 0 S
1675.5 613.75 0 31.5 S
1659.75 629.5 31.5 0 S
1675.5 621.75 0 31.5 S
1659.75 637.5 31.5 0 S
5 w
810.5 590 1062 576 re
S
cleartomark end end pagesave restore
 showpage
%%PageTrailer
%%Trailer
%%Pages: 1
