%!PS-Adobe-3.0 EPSF-3.0
%%BoundingBox: 63 52 196 119
%%HiResBoundingBox: 63.200000 52.900000 195.200000 118.300000
%.....................................
%%Creator: GPL Ghostscript 871 (epswrite)
%%CreationDate: 2012/01/28 17:04:38
%%DocumentData: Clean7Bit
%%LanguageLevel: 2
%%EndComments
%%BeginProlog
% This copyright applies to everything between here and the %%EndProlog:
% Copyright (C) 2010 Artifex Software, Inc.  All rights reserved.
%%BeginResource: procset GS_epswrite_2_0_1001 1.001 0
/GS_epswrite_2_0_1001 80 dict dup begin
/PageSize 2 array def/setpagesize{ PageSize aload pop 3 index eq exch
4 index eq and{ pop pop pop}{ PageSize dup  1
5 -1 roll put 0 4 -1 roll put dup null eq {false} {dup where} ifelse{ exch get exec}
{ pop/setpagedevice where
{ pop 1 dict dup /PageSize PageSize put setpagedevice}
{ /setpage where{ pop PageSize aload pop pageparams 3 {exch pop} repeat
setpage}if}ifelse}ifelse}ifelse} bind def
/!{bind def}bind def/#{load def}!/N/counttomark #
/rG{3{3 -1 roll 255 div}repeat setrgbcolor}!/G{255 div setgray}!/K{0 G}!
/r6{dup 3 -1 roll rG}!/r5{dup 3 1 roll rG}!/r3{dup rG}!
/w/setlinewidth #/J/setlinecap #
/j/setlinejoin #/M/setmiterlimit #/d/setdash #/i/setflat #
/m/moveto #/l/lineto #/c/rcurveto #
/p{N 2 idiv{N -2 roll rlineto}repeat}!
/P{N 0 gt{N -2 roll moveto p}if}!
/h{p closepath}!/H{P closepath}!
/lx{0 rlineto}!/ly{0 exch rlineto}!/v{0 0 6 2 roll c}!/y{2 copy c}!
/re{4 -2 roll m exch dup lx exch ly neg lx h}!
/^{3 index neg 3 index neg}!
/f{P fill}!/f*{P eofill}!/s{H stroke}!/S{P stroke}!
/q/gsave #/Q/grestore #/rf{re fill}!
/Y{P clip newpath}!/Y*{P eoclip newpath}!/rY{re Y}!
/|={pop exch 4 1 roll 1 array astore cvx 3 array astore cvx exch 1 index def exec}!
/|{exch string readstring |=}!
/+{dup type/nametype eq{2 index 7 add -3 bitshift 2 index mul}if}!
/@/currentfile #/${+ @ |}!
/B{{2 copy string{readstring pop}aload pop 4 array astore cvx
3 1 roll}repeat pop pop true}!
/Ix{[1 0 0 1 11 -2 roll exch neg exch neg]exch}!
/,{true exch Ix imagemask}!/If{false exch Ix imagemask}!/I{exch Ix image}!
/Ic{exch Ix false 3 colorimage}!
/F{/Columns counttomark 3 add -2 roll/Rows exch/K -1/BlackIs1 true>>
/CCITTFaxDecode filter}!/FX{<</EndOfBlock false F}!
/X{/ASCII85Decode filter}!/@X{@ X}!/&2{2 index 2 index}!
/@F{@ &2<<F}!/@C{@X &2 FX}!
/$X{+ @X |}!/&4{4 index 4 index}!/$F{+ @ &4<<F |}!/$C{+ @X &4 FX |}!
/IC{3 1 roll 10 dict begin 1{/ImageType/Interpolate/Decode/DataSource
/ImageMatrix/BitsPerComponent/Height/Width}{exch def}forall
currentdict end image}!
/~{@ read {pop} if}!
end def
%%EndResource
/pagesave null def
%%EndProlog
%%Page: 1 1
%%BeginPageSetup
GS_epswrite_2_0_1001 begin
/pagesave save store 197 dict begin
0.1 0.1 scale
%%EndPageSetup
gsave mark
Q q
0 0 250000 250000 re
Y
5 w
K
810.5 590 31.5 0 P
1872.5 590 -31.5 0 P
783.5 590 S
707 575 17 32 /3U
$C
+i"'Ws8W*](WjZ;pV6~>
,
732 574 24 33 /6U
$C
-QF8ne"Tt:oUF>0ot#YQs8W,nXfqbA/ZlCbg4g:qTE~>
,
757 574 6U ,
810.5 624.5 15.5 0 P
1872.5 624.5 -15.5 0 P
810.5 670.5 15.5 0 P
1872.5 670.5 -15.5 0 P
810.5 694 15.5 0 P
1872.5 694 -15.5 0 P
810.5 705 31.5 0 P
1872.5 705 -31.5 0 P
783.5 705 S
682 690 3U ,
707 689 6U ,
732 689 6U ,
757 689 6U ,
810.5 740 15.5 0 P
1872.5 740 -15.5 0 P
810.5 785.5 15.5 0 P
1872.5 785.5 -15.5 0 P
810.5 809 15.5 0 P
1872.5 809 -15.5 0 P
810.5 820.5 31.5 0 P
1872.5 820.5 -31.5 0 P
783.5 820.5 S
657 806 3U ,
682 805 6U ,
707 805 6U ,
732 805 6U ,
757 805 6U ,
810.5 855 15.5 0 P
1872.5 855 -15.5 0 P
810.5 901 15.5 0 P
1872.5 901 -15.5 0 P
810.5 924.5 15.5 0 P
1872.5 924.5 -15.5 0 P
810.5 935.5 31.5 0 P
1872.5 935.5 -31.5 0 P
783.5 935.5 S
632 921 3U ,
657 920 6U ,
682 920 6U ,
707 920 6U ,
732 920 6U ,
757 920 6U ,
810.5 970.5 15.5 0 P
1872.5 970.5 -15.5 0 P
810.5 1016 15.5 0 P
1872.5 1016 -15.5 0 P
810.5 1039.5 15.5 0 P
1872.5 1039.5 -15.5 0 P
810.5 1051 31.5 0 P
1872.5 1051 -31.5 0 P
783.5 1051 S
656 1036 3U ,
681 1035 24 26 /3Y
$C
-QF8m3cn$+DNj>L&-!fWfB%e^m<Z4N@4N(>$5cS~>
,
706 1036 25 21 /6Y
$C
+lE>"o)R[hGQ7^@~>
,
732 1035 6U ,
757 1035 24 33 /4C
$C
-QF8m3mfL'6+Xe6FMIj`lYD4k'p^oJE5LXRrKFkj>7E)'X&-Z`~>
,
810.5 1085.5 15.5 0 P
1872.5 1085.5 -15.5 0 P
810.5 1131.5 15.5 0 P
1872.5 1131.5 -15.5 0 P
810.5 1155 15.5 0 P
1872.5 1155 -15.5 0 P
810.5 1166 31.5 0 P
1872.5 1166 -31.5 0 P
783.5 1166 S
656 1151 3U ,
681 1150 3Y ,
706 1151 6Y ,
732 1150 6U ,
757 1151 24 32 /7C
$C
5'R%]rnmGJpO1qCh7N+KpM@W]qu~>
,
810.5 590 0 31.5 P
810.5 1166 0 -31.5 P
810.5 545 S
803 530 3U ,
874.5 590 0 15.5 P
874.5 1166 0 -15.5 P
959 590 0 15.5 P
959 1166 0 -15.5 P
1002.5 590 0 15.5 P
1002.5 1166 0 -15.5 P
1023 590 0 31.5 P
1023 1166 0 -31.5 P
1023 545 S
1003 530 3U ,
1028 529 6U ,
1087 590 0 15.5 P
1087 1166 0 -15.5 P
1171.5 590 0 15.5 P
1171.5 1166 0 -15.5 P
1214.5 590 0 15.5 P
1214.5 1166 0 -15.5 P
1235.5 590 0 31.5 P
1235.5 1166 0 -31.5 P
1235.5 545 S
1203 530 3U ,
1228 529 6U ,
1253 529 6U ,
1299 590 0 15.5 P
1299 1166 0 -15.5 P
1384 590 0 15.5 P
1384 1166 0 -15.5 P
1427 590 0 15.5 P
1427 1166 0 -15.5 P
1447.5 590 0 31.5 P
1447.5 1166 0 -31.5 P
1447.5 545 S
1403 530 3U ,
1428 529 6U ,
1453 529 6U ,
1478 529 6U ,
1511.5 590 0 15.5 P
1511.5 1166 0 -15.5 P
1596 590 0 15.5 P
1596 1166 0 -15.5 P
1639.5 590 0 15.5 P
1639.5 1166 0 -15.5 P
1660 590 0 31.5 P
1660 1166 0 -31.5 P
1660 545 S
1603 530 3U ,
1628 529 6U ,
1653 529 6U ,
1678 529 6U ,
1703 529 6U ,
1724 590 0 15.5 P
1724 1166 0 -15.5 P
1808.5 590 0 15.5 P
1808.5 1166 0 -15.5 P
1852 590 0 15.5 P
1852 1166 0 -15.5 P
1872.5 590 0 31.5 P
1872.5 1166 0 -31.5 P
1872.5 545 S
1803 530 3U ,
1828 529 6U ,
1853 529 6U ,
1878 529 6U ,
1903 529 6U ,
1928 529 6U ,
810.5 590 1062 576 re
S
2.5 w
938.5 1086.25 0 31.5 S
922.75 1102 31.5 0 S
959 1086.25 0 31.5 S
943.25 1102 31.5 0 S
976 1085.75 0 31.5 S
960.25 1101.5 31.5 0 S
990 1084.25 0 31.5 S
974.25 1100 31.5 0 S
1002.5 1080.25 0 31.5 S
986.75 1096 31.5 0 S
1013 1074.25 0 31.5 S
997.25 1090 31.5 0 S
1023 1065.75 0 31.5 S
1007.25 1081.5 31.5 0 S
1031.5 1058.25 0 31.5 S
1015.75 1074 31.5 0 S
1039.5 1049.25 0 31.5 S
1023.75 1065 31.5 0 S
1047 1041.75 0 31.5 S
1031.25 1057.5 31.5 0 S
1054 1034.75 0 31.5 S
1038.25 1050.5 31.5 0 S
1060.5 1027.75 0 31.5 S
1044.75 1043.5 31.5 0 S
1066.5 1021.25 0 31.5 S
1050.75 1037 31.5 0 S
1072 1014.25 0 31.5 S
1056.25 1030 31.5 0 S
1077 1008.25 0 31.5 S
1061.25 1024 31.5 0 S
1082 1002.75 0 31.5 S
1066.25 1018.5 31.5 0 S
1087 995.25 0 31.5 S
1071.25 1011 31.5 0 S
1091.5 989.75 0 31.5 S
1075.75 1005.5 31.5 0 S
1095.5 985.25 0 31.5 S
1079.75 1001 31.5 0 S
1099.5 981.25 0 31.5 S
1083.75 997 31.5 0 S
1103.5 979.25 0 31.5 S
1087.75 995 31.5 0 S
1107.5 977.25 0 31.5 S
1091.75 993 31.5 0 S
1111 974.25 0 31.5 S
1095.25 990 31.5 0 S
1114.5 970.25 0 31.5 S
1098.75 986 31.5 0 S
1118 966.25 0 31.5 S
1102.25 982 31.5 0 S
1121 962.75 0 31.5 S
1105.25 978.5 31.5 0 S
1124 958.75 0 31.5 S
1108.25 974.5 31.5 0 S
1127.5 956.25 0 31.5 S
1111.75 972 31.5 0 S
1130 954.25 0 31.5 S
1114.25 970 31.5 0 S
1133 952.25 0 31.5 S
1117.25 968 31.5 0 S
1136 951.25 0 31.5 S
1120.25 967 31.5 0 S
1138.5 949.75 0 31.5 S
1122.75 965.5 31.5 0 S
1141 948.75 0 31.5 S
1125.25 964.5 31.5 0 S
1143.5 946.75 0 31.5 S
1127.75 962.5 31.5 0 S
1146 945.75 0 31.5 S
1130.25 961.5 31.5 0 S
1148.5 942.75 0 31.5 S
1132.75 958.5 31.5 0 S
1151 941.75 0 31.5 S
1135.25 957.5 31.5 0 S
1153 940.25 0 31.5 S
1137.25 956 31.5 0 S
1155.5 938.75 0 31.5 S
1139.75 954.5 31.5 0 S
1157.5 938.25 0 31.5 S
1141.75 954 31.5 0 S
1159.5 936.75 0 31.5 S
1143.75 952.5 31.5 0 S
1161.5 936.25 0 31.5 S
1145.75 952 31.5 0 S
1163.5 934.25 0 31.5 S
1147.75 950 31.5 0 S
1165.5 934.25 0 31.5 S
1149.75 950 31.5 0 S
1167.5 932.75 0 31.5 S
1151.75 948.5 31.5 0 S
1169.5 928.75 0 31.5 S
1153.75 944.5 31.5 0 S
1171.5 928.25 0 31.5 S
1155.75 944 31.5 0 S
1173 927.25 0 31.5 S
1157.25 943 31.5 0 S
1175 926.25 0 31.5 S
1159.25 942 31.5 0 S
1176.5 924.25 0 31.5 S
1160.75 940 31.5 0 S
1178.5 920.75 0 31.5 S
1162.75 936.5 31.5 0 S
1180 916.25 0 31.5 S
1164.25 932 31.5 0 S
1182 916.25 0 31.5 S
1166.25 932 31.5 0 S
1183.5 915.75 0 31.5 S
1167.75 931.5 31.5 0 S
1185 914.25 0 31.5 S
1169.25 930 31.5 0 S
1186.5 913.25 0 31.5 S
1170.75 929 31.5 0 S
1188 911.75 0 31.5 S
1172.25 927.5 31.5 0 S
1189.5 910.75 0 31.5 S
1173.75 926.5 31.5 0 S
1191 910.25 0 31.5 S
1175.25 926 31.5 0 S
1192.5 909.25 0 31.5 S
1176.75 925 31.5 0 S
1194 908.25 0 31.5 S
1178.25 924 31.5 0 S
1195.5 907.75 0 31.5 S
1179.75 923.5 31.5 0 S
1197 907.25 0 31.5 S
1181.25 923 31.5 0 S
1199.5 906.25 0 31.5 S
1183.75 922 31.5 0 S
1201 905.25 0 31.5 S
1185.25 921 31.5 0 S
1202.5 904.75 0 31.5 S
1186.75 920.5 31.5 0 S
1205 903.75 0 31.5 S
1189.25 919.5 31.5 0 S
1206.5 901.75 0 31.5 S
1190.75 917.5 31.5 0 S
1207.5 900.75 0 31.5 S
1191.75 916.5 31.5 0 S
1210 900.25 0 31.5 S
1194.25 916 31.5 0 S
1213.5 898.75 0 31.5 S
1197.75 914.5 31.5 0 S
1214.5 897.75 0 31.5 S
1198.75 913.5 31.5 0 S
1216 897.25 0 31.5 S
1200.25 913 31.5 0 S
1217 896.75 0 31.5 S
1201.25 912.5 31.5 0 S
1218 894.75 0 31.5 S
1202.25 910.5 31.5 0 S
1219 890.25 0 31.5 S
1203.25 906 31.5 0 S
1220.5 889.25 0 31.5 S
1204.75 905 31.5 0 S
1221.5 888.75 0 31.5 S
1205.75 904.5 31.5 0 S
1223.5 887.25 0 31.5 S
1207.75 903 31.5 0 S
1224.5 885.75 0 31.5 S
1208.75 901.5 31.5 0 S
1225.5 883.25 0 31.5 S
1209.75 899 31.5 0 S
1226.5 882.75 0 31.5 S
1210.75 898.5 31.5 0 S
1231.5 881.75 0 31.5 S
1215.75 897.5 31.5 0 S
1234.5 879.75 0 31.5 S
1218.75 895.5 31.5 0 S
1235.5 877.25 0 31.5 S
1219.75 893 31.5 0 S
1236 876.25 0 31.5 S
1220.25 892 31.5 0 S
1237 875.75 0 31.5 S
1221.25 891.5 31.5 0 S
1238 874.75 0 31.5 S
1222.25 890.5 31.5 0 S
1239 873.75 0 31.5 S
1223.25 889.5 31.5 0 S
1240 872.75 0 31.5 S
1224.25 888.5 31.5 0 S
1240.5 870.75 0 31.5 S
1224.75 886.5 31.5 0 S
1241.5 869.75 0 31.5 S
1225.75 885.5 31.5 0 S
1242.5 864.75 0 31.5 S
1226.75 880.5 31.5 0 S
1247.5 863.75 0 31.5 S
1231.75 879.5 31.5 0 S
1249 862.75 0 31.5 S
1233.25 878.5 31.5 0 S
1250.5 861.75 0 31.5 S
1234.75 877.5 31.5 0 S
1251.5 860.75 0 31.5 S
1235.75 876.5 31.5 0 S
1252 859.75 0 31.5 S
1236.25 875.5 31.5 0 S
1256 858.25 0 31.5 S
1240.25 874 31.5 0 S
1257.5 856.75 0 31.5 S
1241.75 872.5 31.5 0 S
1260 854.75 0 31.5 S
1244.25 870.5 31.5 0 S
1268.5 853.25 0 31.5 S
1252.75 869 31.5 0 S
1281.5 851.75 0 31.5 S
1265.75 867.5 31.5 0 S
1283 850.75 0 31.5 S
1267.25 866.5 31.5 0 S
1286 849.25 0 31.5 S
1270.25 865 31.5 0 S
1287.5 847.75 0 31.5 S
1271.75 863.5 31.5 0 S
1288 845.25 0 31.5 S
1272.25 861 31.5 0 S
1288.5 843.75 0 31.5 S
1272.75 859.5 31.5 0 S
1290 842.25 0 31.5 S
1274.25 858 31.5 0 S
1293.5 838.75 0 31.5 S
1277.75 854.5 31.5 0 S
1294 837.25 0 31.5 S
1278.25 853 31.5 0 S
1295 835.75 0 31.5 S
1279.25 851.5 31.5 0 S
1296 833.75 0 31.5 S
1280.25 849.5 31.5 0 S
1297 831.75 0 31.5 S
1281.25 847.5 31.5 0 S
1297.5 830.25 0 31.5 S
1281.75 846 31.5 0 S
1299 827.75 0 31.5 S
1283.25 843.5 31.5 0 S
1299.5 826.25 0 31.5 S
1283.75 842 31.5 0 S
1300 823.75 0 31.5 S
1284.25 839.5 31.5 0 S
1302 821.75 0 31.5 S
1286.25 837.5 31.5 0 S
1315.5 818.25 0 31.5 S
1299.75 834 31.5 0 S
1318.5 799.75 0 31.5 S
1302.75 815.5 31.5 0 S
1319 794.25 0 31.5 S
1303.25 810 31.5 0 S
1320 787.25 0 31.5 S
1304.25 803 31.5 0 S
1330.5 779.75 0 31.5 S
1314.75 795.5 31.5 0 S
1332 771.25 0 31.5 S
1316.25 787 31.5 0 S
1371.5 748.75 0 31.5 S
1355.75 764.5 31.5 0 S
1584.5 737.75 0 31.5 S
1568.75 753.5 31.5 0 S
1600.5 723.75 0 31.5 S
1584.75 739.5 31.5 0 S
1653 715.75 0 31.5 S
1637.25 731.5 31.5 0 S
1656 708.25 0 31.5 S
1640.25 724 31.5 0 S
1673.5 700.75 0 31.5 S
1657.75 716.5 31.5 0 S
1674 692.25 0 31.5 S
1658.25 708 31.5 0 S
1674.5 682.75 0 31.5 S
1658.75 698.5 31.5 0 S
1675 663.25 0 31.5 S
1659.25 679 31.5 0 S
1675 643.75 0 31.5 S
1659.25 659.5 31.5 0 S
1675.5 612.25 0 31.5 S
1659.75 628 31.5 0 S
5 w
810.5 590 1062 576 re
S
cleartomark end end pagesave restore
 showpage
%%PageTrailer
%%Trailer
%%Pages: 1
