%!PS-Adobe-3.0 EPSF-3.0
%%BoundingBox: 63 52 196 119
%%HiResBoundingBox: 63.200000 52.900000 195.200000 118.300000
%.....................................
%%Creator: GPL Ghostscript 871 (epswrite)
%%CreationDate: 2012/01/28 17:04:39
%%DocumentData: Clean7Bit
%%LanguageLevel: 2
%%EndComments
%%BeginProlog
% This copyright applies to everything between here and the %%EndProlog:
% Copyright (C) 2010 Artifex Software, Inc.  All rights reserved.
%%BeginResource: procset GS_epswrite_2_0_1001 1.001 0
/GS_epswrite_2_0_1001 80 dict dup begin
/PageSize 2 array def/setpagesize{ PageSize aload pop 3 index eq exch
4 index eq and{ pop pop pop}{ PageSize dup  1
5 -1 roll put 0 4 -1 roll put dup null eq {false} {dup where} ifelse{ exch get exec}
{ pop/setpagedevice where
{ pop 1 dict dup /PageSize PageSize put setpagedevice}
{ /setpage where{ pop PageSize aload pop pageparams 3 {exch pop} repeat
setpage}if}ifelse}ifelse}ifelse} bind def
/!{bind def}bind def/#{load def}!/N/counttomark #
/rG{3{3 -1 roll 255 div}repeat setrgbcolor}!/G{255 div setgray}!/K{0 G}!
/r6{dup 3 -1 roll rG}!/r5{dup 3 1 roll rG}!/r3{dup rG}!
/w/setlinewidth #/J/setlinecap #
/j/setlinejoin #/M/setmiterlimit #/d/setdash #/i/setflat #
/m/moveto #/l/lineto #/c/rcurveto #
/p{N 2 idiv{N -2 roll rlineto}repeat}!
/P{N 0 gt{N -2 roll moveto p}if}!
/h{p closepath}!/H{P closepath}!
/lx{0 rlineto}!/ly{0 exch rlineto}!/v{0 0 6 2 roll c}!/y{2 copy c}!
/re{4 -2 roll m exch dup lx exch ly neg lx h}!
/^{3 index neg 3 index neg}!
/f{P fill}!/f*{P eofill}!/s{H stroke}!/S{P stroke}!
/q/gsave #/Q/grestore #/rf{re fill}!
/Y{P clip newpath}!/Y*{P eoclip newpath}!/rY{re Y}!
/|={pop exch 4 1 roll 1 array astore cvx 3 array astore cvx exch 1 index def exec}!
/|{exch string readstring |=}!
/+{dup type/nametype eq{2 index 7 add -3 bitshift 2 index mul}if}!
/@/currentfile #/${+ @ |}!
/B{{2 copy string{readstring pop}aload pop 4 array astore cvx
3 1 roll}repeat pop pop true}!
/Ix{[1 0 0 1 11 -2 roll exch neg exch neg]exch}!
/,{true exch Ix imagemask}!/If{false exch Ix imagemask}!/I{exch Ix image}!
/Ic{exch Ix false 3 colorimage}!
/F{/Columns counttomark 3 add -2 roll/Rows exch/K -1/BlackIs1 true>>
/CCITTFaxDecode filter}!/FX{<</EndOfBlock false F}!
/X{/ASCII85Decode filter}!/@X{@ X}!/&2{2 index 2 index}!
/@F{@ &2<<F}!/@C{@X &2 FX}!
/$X{+ @X |}!/&4{4 index 4 index}!/$F{+ @ &4<<F |}!/$C{+ @X &4 FX |}!
/IC{3 1 roll 10 dict begin 1{/ImageType/Interpolate/Decode/DataSource
/ImageMatrix/BitsPerComponent/Height/Width}{exch def}forall
currentdict end image}!
/~{@ read {pop} if}!
end def
%%EndResource
/pagesave null def
%%EndProlog
%%Page: 1 1
%%BeginPageSetup
GS_epswrite_2_0_1001 begin
/pagesave save store 197 dict begin
0.1 0.1 scale
%%EndPageSetup
gsave mark
Q q
0 0 250000 250000 re
Y
5 w
K
810.5 590 31.5 0 P
1872.5 590 -31.5 0 P
783.5 590 S
757 575 17 32 /3U
$C
+i"'Ws8W*](WjZ;pV6~>
,
810.5 619 15.5 0 P
1872.5 619 -15.5 0 P
810.5 657 15.5 0 P
1872.5 657 -15.5 0 P
810.5 676.5 15.5 0 P
1872.5 676.5 -15.5 0 P
810.5 686 31.5 0 P
1872.5 686 -31.5 0 P
783.5 686 S
732 671 3U ,
757 670 24 33 /6U
$C
-QF8ne"Tt:oUF>0ot#YQs8W,nXfqbA/ZlCbg4g:qTE~>
,
810.5 715 15.5 0 P
1872.5 715 -15.5 0 P
810.5 753 15.5 0 P
1872.5 753 -15.5 0 P
810.5 772.5 15.5 0 P
1872.5 772.5 -15.5 0 P
810.5 782 31.5 0 P
1872.5 782 -31.5 0 P
783.5 782 S
707 767 3U ,
732 766 6U ,
757 766 6U ,
810.5 811 15.5 0 P
1872.5 811 -15.5 0 P
810.5 849 15.5 0 P
1872.5 849 -15.5 0 P
810.5 868.5 15.5 0 P
1872.5 868.5 -15.5 0 P
810.5 878 31.5 0 P
1872.5 878 -31.5 0 P
783.5 878 S
682 863 3U ,
707 862 6U ,
732 862 6U ,
757 862 6U ,
810.5 907 15.5 0 P
1872.5 907 -15.5 0 P
810.5 945 15.5 0 P
1872.5 945 -15.5 0 P
810.5 964.5 15.5 0 P
1872.5 964.5 -15.5 0 P
810.5 974 31.5 0 P
1872.5 974 -31.5 0 P
783.5 974 S
657 959 3U ,
682 958 6U ,
707 958 6U ,
732 958 6U ,
757 958 6U ,
810.5 1003 15.5 0 P
1872.5 1003 -15.5 0 P
810.5 1041 15.5 0 P
1872.5 1041 -15.5 0 P
810.5 1060.5 15.5 0 P
1872.5 1060.5 -15.5 0 P
810.5 1070 31.5 0 P
1872.5 1070 -31.5 0 P
783.5 1070 S
632 1055 3U ,
657 1054 6U ,
682 1054 6U ,
707 1054 6U ,
732 1054 6U ,
757 1054 6U ,
810.5 1099 15.5 0 P
1872.5 1099 -15.5 0 P
810.5 1137 15.5 0 P
1872.5 1137 -15.5 0 P
810.5 1156.5 15.5 0 P
1872.5 1156.5 -15.5 0 P
810.5 1166 31.5 0 P
1872.5 1166 -31.5 0 P
783.5 1166 S
656 1151 3U ,
681 1150 24 26 /3Y
$C
-QF8m3cn$+DNj>L&-!fWfB%e^m<Z4N@4N(>$5cS~>
,
706 1151 25 21 /6Y
$C
+lE>"o)R[hGQ7^@~>
,
732 1150 6U ,
757 1150 24 33 /4C
$C
-QF8m3mfL'6+Xe6FMIj`lYD4k'p^oJE5LXRrKFkj>7E)'X&-Z`~>
,
810.5 590 0 31.5 P
810.5 1166 0 -31.5 P
810.5 545 S
803 530 3U ,
874.5 590 0 15.5 P
874.5 1166 0 -15.5 P
959 590 0 15.5 P
959 1166 0 -15.5 P
1002.5 590 0 15.5 P
1002.5 1166 0 -15.5 P
1023 590 0 31.5 P
1023 1166 0 -31.5 P
1023 545 S
1003 530 3U ,
1028 529 6U ,
1087 590 0 15.5 P
1087 1166 0 -15.5 P
1171.5 590 0 15.5 P
1171.5 1166 0 -15.5 P
1214.5 590 0 15.5 P
1214.5 1166 0 -15.5 P
1235.5 590 0 31.5 P
1235.5 1166 0 -31.5 P
1235.5 545 S
1203 530 3U ,
1228 529 6U ,
1253 529 6U ,
1299 590 0 15.5 P
1299 1166 0 -15.5 P
1384 590 0 15.5 P
1384 1166 0 -15.5 P
1427 590 0 15.5 P
1427 1166 0 -15.5 P
1447.5 590 0 31.5 P
1447.5 1166 0 -31.5 P
1447.5 545 S
1403 530 3U ,
1428 529 6U ,
1453 529 6U ,
1478 529 6U ,
1511.5 590 0 15.5 P
1511.5 1166 0 -15.5 P
1596 590 0 15.5 P
1596 1166 0 -15.5 P
1639.5 590 0 15.5 P
1639.5 1166 0 -15.5 P
1660 590 0 31.5 P
1660 1166 0 -31.5 P
1660 545 S
1603 530 3U ,
1628 529 6U ,
1653 529 6U ,
1678 529 6U ,
1703 529 6U ,
1724 590 0 15.5 P
1724 1166 0 -15.5 P
1808.5 590 0 15.5 P
1808.5 1166 0 -15.5 P
1852 590 0 15.5 P
1852 1166 0 -15.5 P
1872.5 590 0 31.5 P
1872.5 1166 0 -31.5 P
1872.5 545 S
1803 530 3U ,
1828 529 6U ,
1853 529 6U ,
1878 529 6U ,
1903 529 6U ,
1928 529 6U ,
810.5 590 1062 576 re
S
2.5 w
810.5 1136.75 0 31.5 S
794.75 1152.5 31.5 0 S
874.5 1096.75 0 31.5 S
858.75 1112.5 31.5 0 S
912 1065.75 0 31.5 S
896.25 1081.5 31.5 0 S
938.5 1039.25 0 31.5 S
922.75 1055 31.5 0 S
959 1018.25 0 31.5 S
943.25 1034 31.5 0 S
976 999.75 0 31.5 S
960.25 1015.5 31.5 0 S
990 982.25 0 31.5 S
974.25 998 31.5 0 S
1002.5 965.25 0 31.5 S
986.75 981 31.5 0 S
1013 950.75 0 31.5 S
997.25 966.5 31.5 0 S
1023 937.25 0 31.5 S
1007.25 953 31.5 0 S
1031.5 926.75 0 31.5 S
1015.75 942.5 31.5 0 S
1039.5 916.25 0 31.5 S
1023.75 932 31.5 0 S
1047 907.25 0 31.5 S
1031.25 923 31.5 0 S
1054 899.75 0 31.5 S
1038.25 915.5 31.5 0 S
1060.5 892.75 0 31.5 S
1044.75 908.5 31.5 0 S
1066.5 886.75 0 31.5 S
1050.75 902.5 31.5 0 S
1072 880.25 0 31.5 S
1056.25 896 31.5 0 S
1077 874.75 0 31.5 S
1061.25 890.5 31.5 0 S
1082 870.25 0 31.5 S
1066.25 886 31.5 0 S
1087 865.25 0 31.5 S
1071.25 881 31.5 0 S
1091.5 860.25 0 31.5 S
1075.75 876 31.5 0 S
1095.5 856.25 0 31.5 S
1079.75 872 31.5 0 S
1099.5 852.75 0 31.5 S
1083.75 868.5 31.5 0 S
1103.5 850.25 0 31.5 S
1087.75 866 31.5 0 S
1107.5 848.25 0 31.5 S
1091.75 864 31.5 0 S
1111 845.25 0 31.5 S
1095.25 861 31.5 0 S
1114.5 841.75 0 31.5 S
1098.75 857.5 31.5 0 S
1118 837.75 0 31.5 S
1102.25 853.5 31.5 0 S
1121 834.25 0 31.5 S
1105.25 850 31.5 0 S
1124 831.25 0 31.5 S
1108.25 847 31.5 0 S
1127.5 828.75 0 31.5 S
1111.75 844.5 31.5 0 S
1130 826.75 0 31.5 S
1114.25 842.5 31.5 0 S
1133 825.75 0 31.5 S
1117.25 841.5 31.5 0 S
1136 824.25 0 31.5 S
1120.25 840 31.5 0 S
1138.5 821.75 0 31.5 S
1122.75 837.5 31.5 0 S
1141 820.75 0 31.5 S
1125.25 836.5 31.5 0 S
1143.5 818.25 0 31.5 S
1127.75 834 31.5 0 S
1146 817.25 0 31.5 S
1130.25 833 31.5 0 S
1148.5 814.75 0 31.5 S
1132.75 830.5 31.5 0 S
1151 813.75 0 31.5 S
1135.25 829.5 31.5 0 S
1153 812.25 0 31.5 S
1137.25 828 31.5 0 S
1155.5 810.75 0 31.5 S
1139.75 826.5 31.5 0 S
1157.5 810.25 0 31.5 S
1141.75 826 31.5 0 S
1159.5 809.25 0 31.5 S
1143.75 825 31.5 0 S
1161.5 808.75 0 31.5 S
1145.75 824.5 31.5 0 S
1163.5 806.75 0 31.5 S
1147.75 822.5 31.5 0 S
1165.5 806.25 0 31.5 S
1149.75 822 31.5 0 S
1167.5 804.75 0 31.5 S
1151.75 820.5 31.5 0 S
1169.5 801.25 0 31.5 S
1153.75 817 31.5 0 S
1171.5 799.75 0 31.5 S
1155.75 815.5 31.5 0 S
1173 798.75 0 31.5 S
1157.25 814.5 31.5 0 S
1175 797.75 0 31.5 S
1159.25 813.5 31.5 0 S
1176.5 795.25 0 31.5 S
1160.75 811 31.5 0 S
1178.5 792.75 0 31.5 S
1162.75 808.5 31.5 0 S
1180 789.75 0 31.5 S
1164.25 805.5 31.5 0 S
1182 789.25 0 31.5 S
1166.25 805 31.5 0 S
1183.5 788.75 0 31.5 S
1167.75 804.5 31.5 0 S
1185 787.25 0 31.5 S
1169.25 803 31.5 0 S
1186.5 786.75 0 31.5 S
1170.75 802.5 31.5 0 S
1188 785.25 0 31.5 S
1172.25 801 31.5 0 S
1189.5 783.75 0 31.5 S
1173.75 799.5 31.5 0 S
1191 783.25 0 31.5 S
1175.25 799 31.5 0 S
1192.5 782.75 0 31.5 S
1176.75 798.5 31.5 0 S
1194 781.75 0 31.5 S
1178.25 797.5 31.5 0 S
1195.5 781.25 0 31.5 S
1179.75 797 31.5 0 S
1197 780.75 0 31.5 S
1181.25 796.5 31.5 0 S
1198.5 780.25 0 31.5 S
1182.75 796 31.5 0 S
1199.5 779.75 0 31.5 S
1183.75 795.5 31.5 0 S
1201 779.25 0 31.5 S
1185.25 795 31.5 0 S
1202.5 778.75 0 31.5 S
1186.75 794.5 31.5 0 S
1203.5 778.25 0 31.5 S
1187.75 794 31.5 0 S
1205 776.75 0 31.5 S
1189.25 792.5 31.5 0 S
1206.5 774.75 0 31.5 S
1190.75 790.5 31.5 0 S
1207.5 773.75 0 31.5 S
1191.75 789.5 31.5 0 S
1210 772.75 0 31.5 S
1194.25 788.5 31.5 0 S
1212.5 772.25 0 31.5 S
1196.75 788 31.5 0 S
1213.5 772.25 0 31.5 S
1197.75 788 31.5 0 S
1214.5 771.75 0 31.5 S
1198.75 787.5 31.5 0 S
1216 771.25 0 31.5 S
1200.25 787 31.5 0 S
1217 770.75 0 31.5 S
1201.25 786.5 31.5 0 S
1218 769.75 0 31.5 S
1202.25 785.5 31.5 0 S
1219 766.75 0 31.5 S
1203.25 782.5 31.5 0 S
1220.5 765.75 0 31.5 S
1204.75 781.5 31.5 0 S
1221.5 765.25 0 31.5 S
1205.75 781 31.5 0 S
1223.5 764.75 0 31.5 S
1207.75 780.5 31.5 0 S
1224.5 763.75 0 31.5 S
1208.75 779.5 31.5 0 S
1225.5 762.25 0 31.5 S
1209.75 778 31.5 0 S
1226.5 761.25 0 31.5 S
1210.75 777 31.5 0 S
1229.5 760.75 0 31.5 S
1213.75 776.5 31.5 0 S
1231.5 759.75 0 31.5 S
1215.75 775.5 31.5 0 S
1234.5 758.75 0 31.5 S
1218.75 774.5 31.5 0 S
1235.5 757.25 0 31.5 S
1219.75 773 31.5 0 S
1236 756.75 0 31.5 S
1220.25 772.5 31.5 0 S
1237 755.75 0 31.5 S
1221.25 771.5 31.5 0 S
1238 755.25 0 31.5 S
1222.25 771 31.5 0 S
1239 754.25 0 31.5 S
1223.25 770 31.5 0 S
1240 753.75 0 31.5 S
1224.25 769.5 31.5 0 S
1240.5 751.25 0 31.5 S
1224.75 767 31.5 0 S
1241.5 750.75 0 31.5 S
1225.75 766.5 31.5 0 S
1242.5 748.25 0 31.5 S
1226.75 764 31.5 0 S
1247.5 747.75 0 31.5 S
1231.75 763.5 31.5 0 S
1249 746.75 0 31.5 S
1233.25 762.5 31.5 0 S
1250.5 746.25 0 31.5 S
1234.75 762 31.5 0 S
1251.5 744.75 0 31.5 S
1235.75 760.5 31.5 0 S
1252 744.25 0 31.5 S
1236.25 760 31.5 0 S
1253.5 743.75 0 31.5 S
1237.75 759.5 31.5 0 S
1256 742.75 0 31.5 S
1240.25 758.5 31.5 0 S
1257.5 742.25 0 31.5 S
1241.75 758 31.5 0 S
1260 741.25 0 31.5 S
1244.25 757 31.5 0 S
1265 740.75 0 31.5 S
1249.25 756.5 31.5 0 S
1268.5 739.75 0 31.5 S
1252.75 755.5 31.5 0 S
1271 738.75 0 31.5 S
1255.25 754.5 31.5 0 S
1272.5 738.25 0 31.5 S
1256.75 754 31.5 0 S
1278.5 737.25 0 31.5 S
1262.75 753 31.5 0 S
1280 736.75 0 31.5 S
1264.25 752.5 31.5 0 S
1281.5 735.75 0 31.5 S
1265.75 751.5 31.5 0 S
1283 734.75 0 31.5 S
1267.25 750.5 31.5 0 S
1285.5 733.75 0 31.5 S
1269.75 749.5 31.5 0 S
1286 732.75 0 31.5 S
1270.25 748.5 31.5 0 S
1287.5 732.25 0 31.5 S
1271.75 748 31.5 0 S
1288 730.25 0 31.5 S
1272.25 746 31.5 0 S
1288.5 728.25 0 31.5 S
1272.75 744 31.5 0 S
1290 726.75 0 31.5 S
1274.25 742.5 31.5 0 S
1293.5 724.75 0 31.5 S
1277.75 740.5 31.5 0 S
1294 723.75 0 31.5 S
1278.25 739.5 31.5 0 S
1295 722.25 0 31.5 S
1279.25 738 31.5 0 S
1296 721.25 0 31.5 S
1280.25 737 31.5 0 S
1297 720.25 0 31.5 S
1281.25 736 31.5 0 S
1297.5 718.75 0 31.5 S
1281.75 734.5 31.5 0 S
1298 717.25 0 31.5 S
1282.25 733 31.5 0 S
1299 716.25 0 31.5 S
1283.25 732 31.5 0 S
1299 714.75 0 31.5 S
1283.25 730.5 31.5 0 S
1299.5 713.25 0 31.5 S
1283.75 729 31.5 0 S
1300 711.75 0 31.5 S
1284.25 727.5 31.5 0 S
1302 710.25 0 31.5 S
1286.25 726 31.5 0 S
1312.5 708.25 0 31.5 S
1296.75 724 31.5 0 S
1315.5 706.75 0 31.5 S
1299.75 722.5 31.5 0 S
1318.5 699.25 0 31.5 S
1302.75 715 31.5 0 S
1319 697.25 0 31.5 S
1303.25 713 31.5 0 S
1320 694.75 0 31.5 S
1304.25 710.5 31.5 0 S
1330.5 692.25 0 31.5 S
1314.75 708 31.5 0 S
1332 689.75 0 31.5 S
1316.25 705.5 31.5 0 S
1344.5 687.25 0 31.5 S
1328.75 703 31.5 0 S
1355.5 684.25 0 31.5 S
1339.75 700 31.5 0 S
1371.5 681.25 0 31.5 S
1355.75 697 31.5 0 S
1382.5 677.75 0 31.5 S
1366.75 693.5 31.5 0 S
1434.5 674.25 0 31.5 S
1418.75 690 31.5 0 S
1584.5 670.25 0 31.5 S
1568.75 686 31.5 0 S
1600.5 665.75 0 31.5 S
1584.75 681.5 31.5 0 S
1653 660.75 0 31.5 S
1637.25 676.5 31.5 0 S
1656 655.25 0 31.5 S
1640.25 671 31.5 0 S
1673.5 648.75 0 31.5 S
1657.75 664.5 31.5 0 S
1674 641.25 0 31.5 S
1658.25 657 31.5 0 S
1674.5 632.25 0 31.5 S
1658.75 648 31.5 0 S
1675 620.25 0 31.5 S
1659.25 636 31.5 0 S
1675 603.25 0 31.5 S
1659.25 619 31.5 0 S
1675.5 574.25 0 31.5 S
1659.75 590 31.5 0 S
5 w
810.5 590 1062 576 re
S
cleartomark end end pagesave restore
 showpage
%%PageTrailer
%%Trailer
%%Pages: 1
