%!PS-Adobe-3.0 EPSF-3.0
%%BoundingBox: 63 52 196 119
%%HiResBoundingBox: 63.200000 52.900000 195.200000 118.300000
%.....................................
%%Creator: GPL Ghostscript 871 (epswrite)
%%CreationDate: 2012/01/28 17:04:38
%%DocumentData: Clean7Bit
%%LanguageLevel: 2
%%EndComments
%%BeginProlog
% This copyright applies to everything between here and the %%EndProlog:
% Copyright (C) 2010 Artifex Software, Inc.  All rights reserved.
%%BeginResource: procset GS_epswrite_2_0_1001 1.001 0
/GS_epswrite_2_0_1001 80 dict dup begin
/PageSize 2 array def/setpagesize{ PageSize aload pop 3 index eq exch
4 index eq and{ pop pop pop}{ PageSize dup  1
5 -1 roll put 0 4 -1 roll put dup null eq {false} {dup where} ifelse{ exch get exec}
{ pop/setpagedevice where
{ pop 1 dict dup /PageSize PageSize put setpagedevice}
{ /setpage where{ pop PageSize aload pop pageparams 3 {exch pop} repeat
setpage}if}ifelse}ifelse}ifelse} bind def
/!{bind def}bind def/#{load def}!/N/counttomark #
/rG{3{3 -1 roll 255 div}repeat setrgbcolor}!/G{255 div setgray}!/K{0 G}!
/r6{dup 3 -1 roll rG}!/r5{dup 3 1 roll rG}!/r3{dup rG}!
/w/setlinewidth #/J/setlinecap #
/j/setlinejoin #/M/setmiterlimit #/d/setdash #/i/setflat #
/m/moveto #/l/lineto #/c/rcurveto #
/p{N 2 idiv{N -2 roll rlineto}repeat}!
/P{N 0 gt{N -2 roll moveto p}if}!
/h{p closepath}!/H{P closepath}!
/lx{0 rlineto}!/ly{0 exch rlineto}!/v{0 0 6 2 roll c}!/y{2 copy c}!
/re{4 -2 roll m exch dup lx exch ly neg lx h}!
/^{3 index neg 3 index neg}!
/f{P fill}!/f*{P eofill}!/s{H stroke}!/S{P stroke}!
/q/gsave #/Q/grestore #/rf{re fill}!
/Y{P clip newpath}!/Y*{P eoclip newpath}!/rY{re Y}!
/|={pop exch 4 1 roll 1 array astore cvx 3 array astore cvx exch 1 index def exec}!
/|{exch string readstring |=}!
/+{dup type/nametype eq{2 index 7 add -3 bitshift 2 index mul}if}!
/@/currentfile #/${+ @ |}!
/B{{2 copy string{readstring pop}aload pop 4 array astore cvx
3 1 roll}repeat pop pop true}!
/Ix{[1 0 0 1 11 -2 roll exch neg exch neg]exch}!
/,{true exch Ix imagemask}!/If{false exch Ix imagemask}!/I{exch Ix image}!
/Ic{exch Ix false 3 colorimage}!
/F{/Columns counttomark 3 add -2 roll/Rows exch/K -1/BlackIs1 true>>
/CCITTFaxDecode filter}!/FX{<</EndOfBlock false F}!
/X{/ASCII85Decode filter}!/@X{@ X}!/&2{2 index 2 index}!
/@F{@ &2<<F}!/@C{@X &2 FX}!
/$X{+ @X |}!/&4{4 index 4 index}!/$F{+ @ &4<<F |}!/$C{+ @X &4 FX |}!
/IC{3 1 roll 10 dict begin 1{/ImageType/Interpolate/Decode/DataSource
/ImageMatrix/BitsPerComponent/Height/Width}{exch def}forall
currentdict end image}!
/~{@ read {pop} if}!
end def
%%EndResource
/pagesave null def
%%EndProlog
%%Page: 1 1
%%BeginPageSetup
GS_epswrite_2_0_1001 begin
/pagesave save store 197 dict begin
0.1 0.1 scale
%%EndPageSetup
gsave mark
Q q
0 0 250000 250000 re
Y
5 w
K
810.5 590 31.5 0 P
1872.5 590 -31.5 0 P
783.5 590 S
757 575 17 32 /3U
$C
+i"'Ws8W*](WjZ;pV6~>
,
810.5 615 15.5 0 P
1872.5 615 -15.5 0 P
810.5 647.5 15.5 0 P
1872.5 647.5 -15.5 0 P
810.5 664.5 15.5 0 P
1872.5 664.5 -15.5 0 P
810.5 672.5 31.5 0 P
1872.5 672.5 -31.5 0 P
783.5 672.5 S
732 658 3U ,
757 657 24 33 /6U
$C
-QF8ne"Tt:oUF>0ot#YQs8W,nXfqbA/ZlCbg4g:qTE~>
,
810.5 697 15.5 0 P
1872.5 697 -15.5 0 P
810.5 730 15.5 0 P
1872.5 730 -15.5 0 P
810.5 746.5 15.5 0 P
1872.5 746.5 -15.5 0 P
810.5 754.5 31.5 0 P
1872.5 754.5 -31.5 0 P
783.5 754.5 S
707 740 3U ,
732 739 6U ,
757 739 6U ,
810.5 779.5 15.5 0 P
1872.5 779.5 -15.5 0 P
810.5 812 15.5 0 P
1872.5 812 -15.5 0 P
810.5 829 15.5 0 P
1872.5 829 -15.5 0 P
810.5 837 31.5 0 P
1872.5 837 -31.5 0 P
783.5 837 S
682 822 3U ,
707 821 6U ,
732 821 6U ,
757 821 6U ,
810.5 861.5 15.5 0 P
1872.5 861.5 -15.5 0 P
810.5 894.5 15.5 0 P
1872.5 894.5 -15.5 0 P
810.5 911 15.5 0 P
1872.5 911 -15.5 0 P
810.5 919 31.5 0 P
1872.5 919 -31.5 0 P
783.5 919 S
657 904 3U ,
682 903 6U ,
707 903 6U ,
732 903 6U ,
757 903 6U ,
810.5 944 15.5 0 P
1872.5 944 -15.5 0 P
810.5 976.5 15.5 0 P
1872.5 976.5 -15.5 0 P
810.5 993.5 15.5 0 P
1872.5 993.5 -15.5 0 P
810.5 1001.5 31.5 0 P
1872.5 1001.5 -31.5 0 P
783.5 1001.5 S
632 987 3U ,
657 986 6U ,
682 986 6U ,
707 986 6U ,
732 986 6U ,
757 986 6U ,
810.5 1026 15.5 0 P
1872.5 1026 -15.5 0 P
810.5 1059 15.5 0 P
1872.5 1059 -15.5 0 P
810.5 1075.5 15.5 0 P
1872.5 1075.5 -15.5 0 P
810.5 1083.5 31.5 0 P
1872.5 1083.5 -31.5 0 P
783.5 1083.5 S
656 1069 3U ,
681 1068 24 26 /3Y
$C
-QF8m3cn$+DNj>L&-!fWfB%e^m<Z4N@4N(>$5cS~>
,
706 1069 25 21 /6Y
$C
+lE>"o)R[hGQ7^@~>
,
732 1068 6U ,
757 1068 24 33 /4C
$C
-QF8m3mfL'6+Xe6FMIj`lYD4k'p^oJE5LXRrKFkj>7E)'X&-Z`~>
,
810.5 1108.5 15.5 0 P
1872.5 1108.5 -15.5 0 P
810.5 1141 15.5 0 P
1872.5 1141 -15.5 0 P
810.5 1158 15.5 0 P
1872.5 1158 -15.5 0 P
810.5 1166 31.5 0 P
1872.5 1166 -31.5 0 P
783.5 1166 S
656 1151 3U ,
681 1150 3Y ,
706 1151 6Y ,
732 1150 6U ,
757 1151 24 32 /7C
$C
5'R%]rnmGJpO1qCh7N+KpM@W]qu~>
,
810.5 590 0 31.5 P
810.5 1166 0 -31.5 P
810.5 545 S
803 530 3U ,
874.5 590 0 15.5 P
874.5 1166 0 -15.5 P
959 590 0 15.5 P
959 1166 0 -15.5 P
1002.5 590 0 15.5 P
1002.5 1166 0 -15.5 P
1023 590 0 31.5 P
1023 1166 0 -31.5 P
1023 545 S
1003 530 3U ,
1028 529 6U ,
1087 590 0 15.5 P
1087 1166 0 -15.5 P
1171.5 590 0 15.5 P
1171.5 1166 0 -15.5 P
1214.5 590 0 15.5 P
1214.5 1166 0 -15.5 P
1235.5 590 0 31.5 P
1235.5 1166 0 -31.5 P
1235.5 545 S
1203 530 3U ,
1228 529 6U ,
1253 529 6U ,
1299 590 0 15.5 P
1299 1166 0 -15.5 P
1384 590 0 15.5 P
1384 1166 0 -15.5 P
1427 590 0 15.5 P
1427 1166 0 -15.5 P
1447.5 590 0 31.5 P
1447.5 1166 0 -31.5 P
1447.5 545 S
1403 530 3U ,
1428 529 6U ,
1453 529 6U ,
1478 529 6U ,
1511.5 590 0 15.5 P
1511.5 1166 0 -15.5 P
1596 590 0 15.5 P
1596 1166 0 -15.5 P
1639.5 590 0 15.5 P
1639.5 1166 0 -15.5 P
1660 590 0 31.5 P
1660 1166 0 -31.5 P
1660 545 S
1603 530 3U ,
1628 529 6U ,
1653 529 6U ,
1678 529 6U ,
1703 529 6U ,
1724 590 0 15.5 P
1724 1166 0 -15.5 P
1808.5 590 0 15.5 P
1808.5 1166 0 -15.5 P
1852 590 0 15.5 P
1852 1166 0 -15.5 P
1872.5 590 0 31.5 P
1872.5 1166 0 -31.5 P
1872.5 545 S
1803 530 3U ,
1828 529 6U ,
1853 529 6U ,
1878 529 6U ,
1903 529 6U ,
1928 529 6U ,
810.5 590 1062 576 re
S
2.5 w
810.5 1093.75 0 31.5 S
794.75 1109.5 31.5 0 S
874.5 1039.25 0 31.5 S
858.75 1055 31.5 0 S
912 998.75 0 31.5 S
896.25 1014.5 31.5 0 S
938.5 968.25 0 31.5 S
922.75 984 31.5 0 S
959 939.75 0 31.5 S
943.25 955.5 31.5 0 S
976 918.75 0 31.5 S
960.25 934.5 31.5 0 S
990 900.75 0 31.5 S
974.25 916.5 31.5 0 S
1002.5 884.75 0 31.5 S
986.75 900.5 31.5 0 S
1013 865.75 0 31.5 S
997.25 881.5 31.5 0 S
1023 850.75 0 31.5 S
1007.25 866.5 31.5 0 S
1031.5 831.25 0 31.5 S
1015.75 847 31.5 0 S
1039.5 823.25 0 31.5 S
1023.75 839 31.5 0 S
1047 808.75 0 31.5 S
1031.25 824.5 31.5 0 S
1054 794.75 0 31.5 S
1038.25 810.5 31.5 0 S
1060.5 786.25 0 31.5 S
1044.75 802 31.5 0 S
1066.5 776.75 0 31.5 S
1050.75 792.5 31.5 0 S
1072 773.25 0 31.5 S
1056.25 789 31.5 0 S
1077 759.75 0 31.5 S
1061.25 775.5 31.5 0 S
1082 752.25 0 31.5 S
1066.25 768 31.5 0 S
1087 749.75 0 31.5 S
1071.25 765.5 31.5 0 S
1091.5 744.25 0 31.5 S
1075.75 760 31.5 0 S
1095.5 736.75 0 31.5 S
1079.75 752.5 31.5 0 S
1099.5 723.25 0 31.5 S
1083.75 739 31.5 0 S
1103.5 713.25 0 31.5 S
1087.75 729 31.5 0 S
1107.5 700.25 0 31.5 S
1091.75 716 31.5 0 S
1111 710.25 0 31.5 S
1095.25 726 31.5 0 S
1114.5 716.25 0 31.5 S
1098.75 732 31.5 0 S
1118 721.25 0 31.5 S
1102.25 737 31.5 0 S
1121 708.75 0 31.5 S
1105.25 724.5 31.5 0 S
1124 702.25 0 31.5 S
1108.25 718 31.5 0 S
1127.5 694.75 0 31.5 S
1111.75 710.5 31.5 0 S
1130 677.75 0 31.5 S
1114.25 693.5 31.5 0 S
1133 665.75 0 31.5 S
1117.25 681.5 31.5 0 S
1136 663.25 0 31.5 S
1120.25 679 31.5 0 S
1138.5 690.75 0 31.5 S
1122.75 706.5 31.5 0 S
1141 652.75 0 31.5 S
1125.25 668.5 31.5 0 S
1143.5 681.25 0 31.5 S
1127.75 697 31.5 0 S
1146 652.75 0 31.5 S
1130.25 668.5 31.5 0 S
1148.5 679.25 0 31.5 S
1132.75 695 31.5 0 S
1151 643.75 0 31.5 S
1135.25 659.5 31.5 0 S
1153 656.75 0 31.5 S
1137.25 672.5 31.5 0 S
1155.5 659.75 0 31.5 S
1139.75 675.5 31.5 0 S
1157.5 613.75 0 31.5 S
1141.75 629.5 31.5 0 S
1159.5 648.75 0 31.5 S
1143.75 664.5 31.5 0 S
1161.5 623.75 0 31.5 S
1145.75 639.5 31.5 0 S
1163.5 665.75 0 31.5 S
1147.75 681.5 31.5 0 S
1165.5 623.75 0 31.5 S
1149.75 639.5 31.5 0 S
1167.5 652.75 0 31.5 S
1151.75 668.5 31.5 0 S
1169.5 681.25 0 31.5 S
1153.75 697 31.5 0 S
1171.5 643.75 0 31.5 S
1155.75 659.5 31.5 0 S
1173 631.75 0 31.5 S
1157.25 647.5 31.5 0 S
1175 638.25 0 31.5 S
1159.25 654 31.5 0 S
1176.5 665.75 0 31.5 S
1160.75 681.5 31.5 0 S
1178.5 663.25 0 31.5 S
1162.75 679 31.5 0 S
1180 663.25 0 31.5 S
1164.25 679 31.5 0 S
1182 613.75 0 31.5 S
1166.25 629.5 31.5 0 S
1183.5 574.25 0 31.5 S
1167.75 590 31.5 0 S
1185 638.25 0 31.5 S
1169.25 654 31.5 0 S
1186.5 613.75 0 31.5 S
1170.75 629.5 31.5 0 S
1188 638.25 0 31.5 S
1172.25 654 31.5 0 S
1189.5 623.75 0 31.5 S
1173.75 639.5 31.5 0 S
1191 599.25 0 31.5 S
1175.25 615 31.5 0 S
1192.5 613.75 0 31.5 S
1176.75 629.5 31.5 0 S
1194 613.75 0 31.5 S
1178.25 629.5 31.5 0 S
1195.5 599.25 0 31.5 S
1179.75 615 31.5 0 S
1197 599.25 0 31.5 S
1181.25 615 31.5 0 S
1198.5 574.25 0 31.5 S
1182.75 590 31.5 0 S
1199.5 599.25 0 31.5 S
1183.75 615 31.5 0 S
1201 599.25 0 31.5 S
1185.25 615 31.5 0 S
1202.5 574.25 0 31.5 S
1186.75 590 31.5 0 S
1203.5 574.25 0 31.5 S
1187.75 590 31.5 0 S
1205 638.25 0 31.5 S
1189.25 654 31.5 0 S
1206.5 638.25 0 31.5 S
1190.75 654 31.5 0 S
1207.5 613.75 0 31.5 S
1191.75 629.5 31.5 0 S
1210 599.25 0 31.5 S
1194.25 615 31.5 0 S
1212.5 574.25 0 31.5 S
1196.75 590 31.5 0 S
1213.5 574.25 0 31.5 S
1197.75 590 31.5 0 S
1214.5 574.25 0 31.5 S
1198.75 590 31.5 0 S
1216 574.25 0 31.5 S
1200.25 590 31.5 0 S
1217 574.25 0 31.5 S
1201.25 590 31.5 0 S
1218 613.75 0 31.5 S
1202.25 629.5 31.5 0 S
1219 648.75 0 31.5 S
1203.25 664.5 31.5 0 S
1220.5 599.25 0 31.5 S
1204.75 615 31.5 0 S
1221.5 574.25 0 31.5 S
1205.75 590 31.5 0 S
1223.5 599.25 0 31.5 S
1207.75 615 31.5 0 S
1224.5 599.25 0 31.5 S
1208.75 615 31.5 0 S
1225.5 613.75 0 31.5 S
1209.75 629.5 31.5 0 S
1226.5 599.25 0 31.5 S
1210.75 615 31.5 0 S
1229.5 574.25 0 31.5 S
1213.75 590 31.5 0 S
1231.5 599.25 0 31.5 S
1215.75 615 31.5 0 S
1234.5 599.25 0 31.5 S
1218.75 615 31.5 0 S
1235.5 613.75 0 31.5 S
1219.75 629.5 31.5 0 S
1236 574.25 0 31.5 S
1220.25 590 31.5 0 S
1237 599.25 0 31.5 S
1221.25 615 31.5 0 S
1238 574.25 0 31.5 S
1222.25 590 31.5 0 S
1239 599.25 0 31.5 S
1223.25 615 31.5 0 S
1240 574.25 0 31.5 S
1224.25 590 31.5 0 S
1240.5 623.75 0 31.5 S
1224.75 639.5 31.5 0 S
1241.5 574.25 0 31.5 S
1225.75 590 31.5 0 S
1242.5 623.75 0 31.5 S
1226.75 639.5 31.5 0 S
1247.5 574.25 0 31.5 S
1231.75 590 31.5 0 S
1249 574.25 0 31.5 S
1233.25 590 31.5 0 S
1250.5 574.25 0 31.5 S
1234.75 590 31.5 0 S
1251.5 599.25 0 31.5 S
1235.75 615 31.5 0 S
1252 574.25 0 31.5 S
1236.25 590 31.5 0 S
1253.5 574.25 0 31.5 S
1237.75 590 31.5 0 S
1256 574.25 0 31.5 S
1240.25 590 31.5 0 S
1257.5 574.25 0 31.5 S
1241.75 590 31.5 0 S
1260 574.25 0 31.5 S
1244.25 590 31.5 0 S
1265 574.25 0 31.5 S
1249.25 590 31.5 0 S
1268.5 574.25 0 31.5 S
1252.75 590 31.5 0 S
1271 574.25 0 31.5 S
1255.25 590 31.5 0 S
1272.5 574.25 0 31.5 S
1256.75 590 31.5 0 S
1278.5 574.25 0 31.5 S
1262.75 590 31.5 0 S
1280 574.25 0 31.5 S
1264.25 590 31.5 0 S
1281.5 574.25 0 31.5 S
1265.75 590 31.5 0 S
1283 574.25 0 31.5 S
1267.25 590 31.5 0 S
1285.5 574.25 0 31.5 S
1269.75 590 31.5 0 S
1286 574.25 0 31.5 S
1270.25 590 31.5 0 S
1287.5 574.25 0 31.5 S
1271.75 590 31.5 0 S
1288 599.25 0 31.5 S
1272.25 615 31.5 0 S
1288.5 599.25 0 31.5 S
1272.75 615 31.5 0 S
1290 574.25 0 31.5 S
1274.25 590 31.5 0 S
1293.5 599.25 0 31.5 S
1277.75 615 31.5 0 S
1294 574.25 0 31.5 S
1278.25 590 31.5 0 S
1295 574.25 0 31.5 S
1279.25 590 31.5 0 S
1296 574.25 0 31.5 S
1280.25 590 31.5 0 S
1297 574.25 0 31.5 S
1281.25 590 31.5 0 S
1297.5 574.25 0 31.5 S
1281.75 590 31.5 0 S
1298 574.25 0 31.5 S
1282.25 590 31.5 0 S
1299 574.25 0 31.5 S
1283.25 590 31.5 0 S
1299 574.25 0 31.5 S
1283.25 590 31.5 0 S
1299.5 574.25 0 31.5 S
1283.75 590 31.5 0 S
1300 574.25 0 31.5 S
1284.25 590 31.5 0 S
1302 574.25 0 31.5 S
1286.25 590 31.5 0 S
1312.5 574.25 0 31.5 S
1296.75 590 31.5 0 S
1315.5 574.25 0 31.5 S
1299.75 590 31.5 0 S
1318.5 623.75 0 31.5 S
1302.75 639.5 31.5 0 S
1319 574.25 0 31.5 S
1303.25 590 31.5 0 S
1320 574.25 0 31.5 S
1304.25 590 31.5 0 S
1330.5 574.25 0 31.5 S
1314.75 590 31.5 0 S
1332 574.25 0 31.5 S
1316.25 590 31.5 0 S
1344.5 574.25 0 31.5 S
1328.75 590 31.5 0 S
1355.5 574.25 0 31.5 S
1339.75 590 31.5 0 S
1371.5 574.25 0 31.5 S
1355.75 590 31.5 0 S
1382.5 574.25 0 31.5 S
1366.75 590 31.5 0 S
1434.5 574.25 0 31.5 S
1418.75 590 31.5 0 S
1584.5 574.25 0 31.5 S
1568.75 590 31.5 0 S
1600.5 574.25 0 31.5 S
1584.75 590 31.5 0 S
1653 574.25 0 31.5 S
1637.25 590 31.5 0 S
1656 574.25 0 31.5 S
1640.25 590 31.5 0 S
1673.5 574.25 0 31.5 S
1657.75 590 31.5 0 S
1674 574.25 0 31.5 S
1658.25 590 31.5 0 S
1674.5 574.25 0 31.5 S
1658.75 590 31.5 0 S
1675 574.25 0 31.5 S
1659.25 590 31.5 0 S
1675 574.25 0 31.5 S
1659.25 590 31.5 0 S
1675.5 574.25 0 31.5 S
1659.75 590 31.5 0 S
1675.5 574.25 0 31.5 S
1659.75 590 31.5 0 S
5 w
810.5 590 1062 576 re
S
cleartomark end end pagesave restore
 showpage
%%PageTrailer
%%Trailer
%%Pages: 1
