%!PS-Adobe-2.0 EPSF-2.0
%%Title: cliques-ex.fig
%%Creator: fig2dev Version 3.2 Patchlevel 5c
%%CreationDate: Mon Nov  3 14:03:23 2014
%%For: latapy@matthieu (Matthieu Latapy,,,)
%%BoundingBox: 0 0 777 294
%Magnification: 1.0000
%%EndComments
%%BeginProlog
/$F2psDict 200 dict def
$F2psDict begin
$F2psDict /mtrx matrix put
/col-1 {0 setgray} bind def
/col0 {0.000 0.000 0.000 srgb} bind def
/col1 {0.000 0.000 1.000 srgb} bind def
/col2 {0.000 1.000 0.000 srgb} bind def
/col3 {0.000 1.000 1.000 srgb} bind def
/col4 {1.000 0.000 0.000 srgb} bind def
/col5 {1.000 0.000 1.000 srgb} bind def
/col6 {1.000 1.000 0.000 srgb} bind def
/col7 {1.000 1.000 1.000 srgb} bind def
/col8 {0.000 0.000 0.560 srgb} bind def
/col9 {0.000 0.000 0.690 srgb} bind def
/col10 {0.000 0.000 0.820 srgb} bind def
/col11 {0.530 0.810 1.000 srgb} bind def
/col12 {0.000 0.560 0.000 srgb} bind def
/col13 {0.000 0.690 0.000 srgb} bind def
/col14 {0.000 0.820 0.000 srgb} bind def
/col15 {0.000 0.560 0.560 srgb} bind def
/col16 {0.000 0.690 0.690 srgb} bind def
/col17 {0.000 0.820 0.820 srgb} bind def
/col18 {0.560 0.000 0.000 srgb} bind def
/col19 {0.690 0.000 0.000 srgb} bind def
/col20 {0.820 0.000 0.000 srgb} bind def
/col21 {0.560 0.000 0.560 srgb} bind def
/col22 {0.690 0.000 0.690 srgb} bind def
/col23 {0.820 0.000 0.820 srgb} bind def
/col24 {0.500 0.190 0.000 srgb} bind def
/col25 {0.630 0.250 0.000 srgb} bind def
/col26 {0.750 0.380 0.000 srgb} bind def
/col27 {1.000 0.500 0.500 srgb} bind def
/col28 {1.000 0.630 0.630 srgb} bind def
/col29 {1.000 0.750 0.750 srgb} bind def
/col30 {1.000 0.880 0.880 srgb} bind def
/col31 {1.000 0.840 0.000 srgb} bind def
/col32 {0.733 0.733 0.733 srgb} bind def
/col33 {0.267 0.267 0.267 srgb} bind def

end

/cp {closepath} bind def
/ef {eofill} bind def
/gr {grestore} bind def
/gs {gsave} bind def
/sa {save} bind def
/rs {restore} bind def
/l {lineto} bind def
/m {moveto} bind def
/rm {rmoveto} bind def
/n {newpath} bind def
/s {stroke} bind def
/sh {show} bind def
/slc {setlinecap} bind def
/slj {setlinejoin} bind def
/slw {setlinewidth} bind def
/srgb {setrgbcolor} bind def
/rot {rotate} bind def
/sc {scale} bind def
/sd {setdash} bind def
/ff {findfont} bind def
/sf {setfont} bind def
/scf {scalefont} bind def
/sw {stringwidth} bind def
/tr {translate} bind def
/tnt {dup dup currentrgbcolor
  4 -2 roll dup 1 exch sub 3 -1 roll mul add
  4 -2 roll dup 1 exch sub 3 -1 roll mul add
  4 -2 roll dup 1 exch sub 3 -1 roll mul add srgb}
  bind def
/shd {dup dup currentrgbcolor 4 -2 roll mul 4 -2 roll mul
  4 -2 roll mul srgb} bind def
 /DrawEllipse {
	/endangle exch def
	/startangle exch def
	/yrad exch def
	/xrad exch def
	/y exch def
	/x exch def
	/savematrix mtrx currentmatrix def
	x y tr xrad yrad sc 0 0 1 startangle endangle arc
	closepath
	savematrix setmatrix
	} def

/$F2psBegin {$F2psDict begin /$F2psEnteredState save def} def
/$F2psEnd {$F2psEnteredState restore end} def

/pageheader {
save
newpath 0 294 moveto 0 0 lineto 777 0 lineto 777 294 lineto closepath clip newpath
-17.1 310.6 translate
1 -1 scale
$F2psBegin
10 setmiterlimit
0 slj 0 slc
 0.06000 0.06000 sc
} bind def
/pagefooter {
$F2psEnd
restore
} bind def
%%EndProlog
pageheader
%
% Fig objects follow
%
% 
% here starts figure with depth 70
/Times-Roman ff 200.00 scf sf
922 1110 m
gs 1 -1 sc (0) dup sw pop 2 div neg 0 rm  col0 sh gr
/Times-Roman ff 200.00 scf sf
5722 1110 m
gs 1 -1 sc (8) dup sw pop 2 div neg 0 rm  col0 sh gr
/Times-Roman ff 200.00 scf sf
4522 1110 m
gs 1 -1 sc (6) dup sw pop 2 div neg 0 rm  col0 sh gr
/Times-Roman ff 200.00 scf sf
3322 1110 m
gs 1 -1 sc (4) dup sw pop 2 div neg 0 rm  col0 sh gr
/Times-Roman ff 200.00 scf sf
2122 1110 m
gs 1 -1 sc (2) dup sw pop 2 div neg 0 rm  col0 sh gr
% Polyline
0 slj
0 slc
7.500 slw
 [60] 0 sd
n 1500 1215 m
 1500 2865 l gs col32 1.00 shd ef gr gs col32 s gr  [] 0 sd
% Polyline
 [60] 0 sd
n 2100 1215 m
 2100 2865 l gs col32 1.00 shd ef gr gs col32 s gr  [] 0 sd
% Polyline
 [60] 0 sd
n 6300 1215 m
 6300 2865 l gs col32 1.00 shd ef gr gs col32 s gr  [] 0 sd
% Polyline
 [60] 0 sd
n 5100 1215 m
 5100 2865 l gs col32 1.00 shd ef gr gs col32 s gr  [] 0 sd
% Polyline
 [60] 0 sd
n 4500 1215 m
 4500 2865 l gs col32 1.00 shd ef gr gs col32 s gr  [] 0 sd
% Polyline
 [60] 0 sd
n 3300 1215 m
 3300 2865 l gs col32 1.00 shd ef gr gs col32 s gr  [] 0 sd
% Polyline
 [60] 0 sd
n 2700 1215 m
 2700 2865 l gs col32 1.00 shd ef gr gs col32 s gr  [] 0 sd
% Polyline
 [60] 0 sd
n 3900 1215 m
 3900 2865 l gs col32 1.00 shd ef gr gs col32 s gr  [] 0 sd
% Polyline
 [60] 0 sd
n 5700 1215 m
 5700 2865 l gs col32 1.00 shd ef gr gs col32 s gr  [] 0 sd
% Polyline
 [60] 0 sd
n 900 1215 m
 900 2865 l gs col32 1.00 shd ef gr gs col32 s gr  [] 0 sd
/Times-Roman ff 200.00 scf sf
7522 1095 m
gs 1 -1 sc (0) dup sw pop 2 div neg 0 rm  col0 sh gr
/Times-Roman ff 200.00 scf sf
12322 1095 m
gs 1 -1 sc (8) dup sw pop 2 div neg 0 rm  col0 sh gr
/Times-Roman ff 200.00 scf sf
11122 1095 m
gs 1 -1 sc (6) dup sw pop 2 div neg 0 rm  col0 sh gr
/Times-Roman ff 200.00 scf sf
9922 1095 m
gs 1 -1 sc (4) dup sw pop 2 div neg 0 rm  col0 sh gr
/Times-Roman ff 200.00 scf sf
8722 1095 m
gs 1 -1 sc (2) dup sw pop 2 div neg 0 rm  col0 sh gr
% Polyline
 [60] 0 sd
n 8100 1200 m
 8100 2850 l gs col32 1.00 shd ef gr gs col32 s gr  [] 0 sd
% Polyline
 [60] 0 sd
n 8700 1200 m
 8700 2850 l gs col32 1.00 shd ef gr gs col32 s gr  [] 0 sd
% Polyline
 [60] 0 sd
n 12900 1200 m
 12900 2850 l gs col32 1.00 shd ef gr gs col32 s gr  [] 0 sd
% Polyline
 [60] 0 sd
n 11700 1200 m
 11700 2850 l gs col32 1.00 shd ef gr gs col32 s gr  [] 0 sd
% Polyline
 [60] 0 sd
n 11100 1200 m
 11100 2850 l gs col32 1.00 shd ef gr gs col32 s gr  [] 0 sd
% Polyline
 [60] 0 sd
n 9900 1200 m
 9900 2850 l gs col32 1.00 shd ef gr gs col32 s gr  [] 0 sd
% Polyline
 [60] 0 sd
n 9300 1200 m
 9300 2850 l gs col32 1.00 shd ef gr gs col32 s gr  [] 0 sd
% Polyline
 [60] 0 sd
n 10500 1200 m
 10500 2850 l gs col32 1.00 shd ef gr gs col32 s gr  [] 0 sd
% Polyline
 [60] 0 sd
n 12300 1200 m
 12300 2850 l gs col32 1.00 shd ef gr gs col32 s gr  [] 0 sd
% Polyline
 [60] 0 sd
n 7500 1200 m
 7500 2850 l gs col32 1.00 shd ef gr gs col32 s gr  [] 0 sd
/Times-Roman ff 200.00 scf sf
7522 3345 m
gs 1 -1 sc (0) dup sw pop 2 div neg 0 rm  col0 sh gr
/Times-Roman ff 200.00 scf sf
12322 3345 m
gs 1 -1 sc (8) dup sw pop 2 div neg 0 rm  col0 sh gr
/Times-Roman ff 200.00 scf sf
11122 3345 m
gs 1 -1 sc (6) dup sw pop 2 div neg 0 rm  col0 sh gr
/Times-Roman ff 200.00 scf sf
9922 3345 m
gs 1 -1 sc (4) dup sw pop 2 div neg 0 rm  col0 sh gr
/Times-Roman ff 200.00 scf sf
8722 3345 m
gs 1 -1 sc (2) dup sw pop 2 div neg 0 rm  col0 sh gr
% Polyline
 [60] 0 sd
n 8100 3450 m
 8100 5100 l gs col32 1.00 shd ef gr gs col32 s gr  [] 0 sd
% Polyline
 [60] 0 sd
n 8700 3450 m
 8700 5100 l gs col32 1.00 shd ef gr gs col32 s gr  [] 0 sd
% Polyline
 [60] 0 sd
n 12900 3450 m
 12900 5100 l gs col32 1.00 shd ef gr gs col32 s gr  [] 0 sd
% Polyline
 [60] 0 sd
n 11700 3450 m
 11700 5100 l gs col32 1.00 shd ef gr gs col32 s gr  [] 0 sd
% Polyline
 [60] 0 sd
n 11100 3450 m
 11100 5100 l gs col32 1.00 shd ef gr gs col32 s gr  [] 0 sd
% Polyline
 [60] 0 sd
n 9900 3450 m
 9900 5100 l gs col32 1.00 shd ef gr gs col32 s gr  [] 0 sd
% Polyline
 [60] 0 sd
n 9300 3450 m
 9300 5100 l gs col32 1.00 shd ef gr gs col32 s gr  [] 0 sd
% Polyline
 [60] 0 sd
n 10500 3450 m
 10500 5100 l gs col32 1.00 shd ef gr gs col32 s gr  [] 0 sd
% Polyline
 [60] 0 sd
n 12300 3450 m
 12300 5100 l gs col32 1.00 shd ef gr gs col32 s gr  [] 0 sd
% Polyline
 [60] 0 sd
n 7500 3450 m
 7500 5100 l gs col32 1.00 shd ef gr gs col32 s gr  [] 0 sd
/Times-Roman ff 200.00 scf sf
922 3345 m
gs 1 -1 sc (0) dup sw pop 2 div neg 0 rm  col0 sh gr
/Times-Roman ff 200.00 scf sf
5722 3345 m
gs 1 -1 sc (8) dup sw pop 2 div neg 0 rm  col0 sh gr
/Times-Roman ff 200.00 scf sf
4522 3345 m
gs 1 -1 sc (6) dup sw pop 2 div neg 0 rm  col0 sh gr
/Times-Roman ff 200.00 scf sf
3322 3345 m
gs 1 -1 sc (4) dup sw pop 2 div neg 0 rm  col0 sh gr
/Times-Roman ff 200.00 scf sf
2122 3345 m
gs 1 -1 sc (2) dup sw pop 2 div neg 0 rm  col0 sh gr
% Polyline
 [60] 0 sd
n 1500 3450 m
 1500 5100 l gs col32 1.00 shd ef gr gs col32 s gr  [] 0 sd
% Polyline
 [60] 0 sd
n 2100 3450 m
 2100 5100 l gs col32 1.00 shd ef gr gs col32 s gr  [] 0 sd
% Polyline
 [60] 0 sd
n 6300 3450 m
 6300 5100 l gs col32 1.00 shd ef gr gs col32 s gr  [] 0 sd
% Polyline
 [60] 0 sd
n 5100 3450 m
 5100 5100 l gs col32 1.00 shd ef gr gs col32 s gr  [] 0 sd
% Polyline
 [60] 0 sd
n 4500 3450 m
 4500 5100 l gs col32 1.00 shd ef gr gs col32 s gr  [] 0 sd
% Polyline
 [60] 0 sd
n 3300 3450 m
 3300 5100 l gs col32 1.00 shd ef gr gs col32 s gr  [] 0 sd
% Polyline
 [60] 0 sd
n 2700 3450 m
 2700 5100 l gs col32 1.00 shd ef gr gs col32 s gr  [] 0 sd
% Polyline
 [60] 0 sd
n 3900 3450 m
 3900 5100 l gs col32 1.00 shd ef gr gs col32 s gr  [] 0 sd
% Polyline
 [60] 0 sd
n 5700 3450 m
 5700 5100 l gs col32 1.00 shd ef gr gs col32 s gr  [] 0 sd
% Polyline
 [60] 0 sd
n 900 3450 m
 900 5100 l gs col32 1.00 shd ef gr gs col32 s gr  [] 0 sd
% here ends figure;
% 
% here starts figure with depth 54
% Polyline
0 slj
0 slc
0.000 slw
 [30] 0 sd
n 12300 5025 m 10725 5025 l 10725 3600 l 10350 3600 l 10350 5025 l 8700 5025 l
 8700 5175 l 12300 5175 l
 12300 4500 l gs col14 1.00 shd ef gr  [] 0 sd
% Polyline
 [30] 0 sd
n 8700 1425 m 9150 1425 l 9150 2850 l 11250 2850 l 11250 1425 l 11700 1425 l
 11700 1275 l
 8700 1275 l gs col11 1.00 shd ef gr  [] 0 sd
% here ends figure;
% 
% here starts figure with depth 51
% Polyline
0 slj
0 slc
7.500 slw
n 7200 1500 m
 13200 1500 l gs 0.00 setgray ef gr gs col0 s gr 
% Polyline
0.000 slw
 [30] 0 sd
n 5100 5175 m 1500 5175 l 1500 5025 l 3150 5025 l 3150 4200 l 3450 4200 l
 3450 5025 l
 5100 5025 l gs col32 1.00 shd ef gr  [] 0 sd
% Polyline
n 900 1425 m 2550 1425 l 2550 2250 l 2850 2250 l 2850 1425 l 4350 1425 l
 4350 2250 l 4650 2250 l 4650 1425 l 6300 1425 l 6300 1275 l

 900 1275 l gs col27 1.00 shd ef gr 
/Symbol ff 333.33 scf sf
1200 525 m
gs 1 -1 sc (D = 3) dup sw pop 2 div neg 0 rm  col33 sh gr
% Ellipse
n 2700 1500 75 75 0 360 DrawEllipse gs 0.00 setgray ef gr 
% Ellipse
n 4500 1500 75 75 0 360 DrawEllipse gs 0.00 setgray ef gr 
% Ellipse
n 2700 2100 75 75 0 360 DrawEllipse gs 0.00 setgray ef gr 
% Ellipse
n 4500 2100 75 75 0 360 DrawEllipse gs 0.00 setgray ef gr 
% Ellipse
n 3300 2100 75 75 0 360 DrawEllipse gs 0.00 setgray ef gr 
% Ellipse
n 3900 2700 75 75 0 360 DrawEllipse gs 0.00 setgray ef gr 
% Ellipse
n 3300 2700 75 75 0 360 DrawEllipse gs 0.00 setgray ef gr 
% Ellipse
n 9300 1500 75 75 0 360 DrawEllipse gs 0.00 setgray ef gr 
% Ellipse
n 9300 2100 75 75 0 360 DrawEllipse gs 0.00 setgray ef gr 
% Ellipse
n 11100 2100 75 75 0 360 DrawEllipse gs 0.00 setgray ef gr 
% Ellipse
n 10500 1500 75 75 0 360 DrawEllipse gs 0.00 setgray ef gr 
% Ellipse
n 9900 2100 75 75 0 360 DrawEllipse gs 0.00 setgray ef gr 
% Ellipse
n 9900 2700 75 75 0 360 DrawEllipse gs 0.00 setgray ef gr 
% Ellipse
n 10500 2700 75 75 0 360 DrawEllipse gs 0.00 setgray ef gr 
% Ellipse
n 11100 1500 75 75 0 360 DrawEllipse gs 0.00 setgray ef gr 
% Ellipse
n 2700 3750 75 75 0 360 DrawEllipse gs 0.00 setgray ef gr 
% Ellipse
n 4500 3750 75 75 0 360 DrawEllipse gs 0.00 setgray ef gr 
% Ellipse
n 2700 4350 75 75 0 360 DrawEllipse gs 0.00 setgray ef gr 
% Ellipse
n 4500 4350 75 75 0 360 DrawEllipse gs 0.00 setgray ef gr 
% Ellipse
n 3900 3750 75 75 0 360 DrawEllipse gs 0.00 setgray ef gr 
% Ellipse
n 3300 4350 75 75 0 360 DrawEllipse gs 0.00 setgray ef gr 
% Ellipse
n 3900 4950 75 75 0 360 DrawEllipse gs 0.00 setgray ef gr 
% Ellipse
n 9300 3750 75 75 0 360 DrawEllipse gs 0.00 setgray ef gr 
% Ellipse
n 11100 3750 75 75 0 360 DrawEllipse gs 0.00 setgray ef gr 
% Ellipse
n 9300 4350 75 75 0 360 DrawEllipse gs 0.00 setgray ef gr 
% Ellipse
n 11100 4350 75 75 0 360 DrawEllipse gs 0.00 setgray ef gr 
% Ellipse
n 10500 3750 75 75 0 360 DrawEllipse gs 0.00 setgray ef gr 
% Ellipse
n 9900 4350 75 75 0 360 DrawEllipse gs 0.00 setgray ef gr 
% Ellipse
n 10500 4950 75 75 0 360 DrawEllipse gs 0.00 setgray ef gr 
% Ellipse
n 9900 4950 75 75 0 360 DrawEllipse gs 0.00 setgray ef gr 
% Ellipse
n 3300 4950 75 75 0 360 DrawEllipse gs 0.00 setgray ef gr 
% Ellipse
n 3900 1500 75 75 0 360 DrawEllipse gs 0.00 setgray ef gr 
% Polyline
7.500 slw
n 600 1500 m
 6600 1500 l gs 0.00 setgray ef gr gs col0 s gr 
% Polyline
15.000 slw
n 600 1500 m
 6600 1500 l gs 0.00 setgray ef gr gs col0 s gr 
% Polyline
n 600 1500 m
 6600 1500 l gs 0.00 setgray ef gr gs col0 s gr 
% Polyline
7.500 slw
gs  clippath
2096 772 m 2115 772 l 2115 577 l 2096 577 l 2096 675 l 2096 577 l 2096 772 l cp
304 577 m 285 577 l 285 772 l 304 772 l 304 675 l 304 772 l 304 577 l cp
eoclip
n 300 675 m
 2100 675 l gs col0 s gr gr

% arrowhead
n 304 577 m 304 772 l  col0 s
% arrowhead
n 2096 772 m 2096 577 l  col0 s
% Polyline
15.000 slw
n 7200 1500 m
 13200 1500 l gs 0.00 setgray ef gr gs col0 s gr 
% Polyline
n 7200 2100 m
 13200 2100 l gs 0.00 setgray ef gr gs col0 s gr 
% Polyline
n 7200 1500 m
 13200 1500 l gs 0.00 setgray ef gr gs col0 s gr 
% Polyline
n 600 2100 m
 6600 2100 l gs 0.00 setgray ef gr gs col0 s gr 
% Polyline
7.500 slw
n 600 3750 m
 6600 3750 l gs 0.00 setgray ef gr gs col0 s gr 
% Polyline
15.000 slw
n 600 3750 m
 6600 3750 l gs 0.00 setgray ef gr gs col0 s gr 
% Polyline
n 600 4950 m
 6600 4950 l gs 0.00 setgray ef gr gs col0 s gr 
% Polyline
n 600 4350 m
 6600 4350 l gs 0.00 setgray ef gr gs col0 s gr 
% Polyline
n 600 3750 m
 6600 3750 l gs 0.00 setgray ef gr gs col0 s gr 
% Polyline
7.500 slw
n 7200 3750 m
 13200 3750 l gs 0.00 setgray ef gr gs col0 s gr 
% Polyline
15.000 slw
n 7200 3750 m
 13200 3750 l gs 0.00 setgray ef gr gs col0 s gr 
% Polyline
n 7200 4950 m
 13200 4950 l gs 0.00 setgray ef gr gs col0 s gr 
% Polyline
n 7200 4350 m
 13200 4350 l gs 0.00 setgray ef gr gs col0 s gr 
% Polyline
n 7200 3750 m
 13200 3750 l gs 0.00 setgray ef gr gs col0 s gr 
% Polyline
n 600 2700 m
 6600 2700 l gs 0.00 setgray ef gr gs col0 s gr 
% Polyline
n 7200 2700 m
 13200 2700 l gs 0.00 setgray ef gr gs col0 s gr 
% Polyline
2 slj
n 4500 1500 m 4500 1501 l 4501 1504 l 4503 1513 l 4507 1529 l 4511 1550 l
 4517 1575 l 4523 1603 l 4528 1631 l 4534 1658 l 4538 1683 l
 4542 1706 l 4545 1727 l 4547 1747 l 4549 1765 l 4550 1783 l
 4550 1800 l 4550 1817 l 4549 1835 l 4547 1853 l 4545 1873 l
 4542 1894 l 4538 1917 l 4534 1942 l 4528 1969 l 4523 1997 l
 4517 2025 l 4511 2050 l 4507 2071 l 4503 2087 l 4501 2096 l
 4500 2099 l
 4500 2100 l gs col0 s gr 
% Polyline
n 2700 1500 m 2700 1501 l 2701 1504 l 2703 1513 l 2707 1529 l 2711 1550 l
 2717 1575 l 2723 1603 l 2728 1631 l 2734 1658 l 2738 1683 l
 2742 1706 l 2745 1727 l 2747 1747 l 2749 1765 l 2750 1783 l
 2750 1800 l 2750 1817 l 2749 1835 l 2747 1853 l 2745 1873 l
 2742 1894 l 2738 1917 l 2734 1942 l 2728 1969 l 2723 1997 l
 2717 2025 l 2711 2050 l 2707 2071 l 2703 2087 l 2701 2096 l
 2700 2099 l
 2700 2100 l gs col0 s gr 
% Polyline
n 3900 1500 m 3900 1501 l 3901 1504 l 3903 1513 l 3907 1529 l 3912 1550 l
 3919 1575 l 3926 1603 l 3933 1631 l 3939 1658 l 3946 1683 l
 3952 1706 l 3957 1727 l 3962 1747 l 3966 1765 l 3971 1783 l
 3975 1800 l 3979 1817 l 3984 1835 l 3988 1853 l 3992 1871 l
 3997 1890 l 4001 1910 l 4005 1930 l 4009 1950 l 4013 1970 l
 4016 1990 l 4019 2010 l 4021 2029 l 4023 2047 l 4024 2065 l
 4025 2083 l 4025 2100 l 4025 2117 l 4024 2135 l 4023 2153 l
 4021 2171 l 4019 2190 l 4016 2210 l 4013 2230 l 4009 2250 l
 4005 2270 l 4001 2290 l 3997 2310 l 3992 2329 l 3988 2347 l
 3984 2365 l 3979 2383 l 3975 2400 l 3971 2417 l 3966 2435 l
 3962 2453 l 3957 2473 l 3952 2494 l 3946 2517 l 3939 2542 l
 3933 2569 l 3926 2597 l 3919 2625 l 3912 2650 l 3907 2671 l
 3903 2687 l 3901 2696 l 3900 2699 l
 3900 2700 l gs col0 s gr 
% Polyline
n 3300 2100 m 3300 2101 l 3301 2104 l 3303 2113 l 3307 2129 l 3311 2150 l
 3317 2175 l 3323 2203 l 3328 2231 l 3334 2258 l 3338 2283 l
 3342 2306 l 3345 2327 l 3347 2347 l 3349 2365 l 3350 2383 l
 3350 2400 l 3350 2417 l 3349 2435 l 3347 2453 l 3345 2473 l
 3342 2494 l 3338 2517 l 3334 2542 l 3328 2569 l 3323 2597 l
 3317 2625 l 3311 2650 l 3307 2671 l 3303 2687 l 3301 2696 l
 3300 2699 l
 3300 2700 l gs col0 s gr 
% Polyline
n 11100 1500 m 11100 1501 l 11101 1504 l 11103 1513 l 11107 1529 l 11111 1550 l
 11117 1575 l 11123 1603 l 11128 1631 l 11134 1658 l 11138 1683 l
 11142 1706 l 11145 1727 l 11147 1747 l 11149 1765 l 11150 1783 l
 11150 1800 l 11150 1817 l 11149 1835 l 11147 1853 l 11145 1873 l
 11142 1894 l 11138 1917 l 11134 1942 l 11128 1969 l 11123 1997 l
 11117 2025 l 11111 2050 l 11107 2071 l 11103 2087 l 11101 2096 l
 11100 2099 l
 11100 2100 l gs col0 s gr 
% Polyline
n 9300 1500 m 9300 1501 l 9301 1504 l 9303 1513 l 9307 1529 l 9311 1550 l
 9317 1575 l 9323 1603 l 9328 1631 l 9334 1658 l 9338 1683 l
 9342 1706 l 9345 1727 l 9347 1747 l 9349 1765 l 9350 1783 l
 9350 1800 l 9350 1817 l 9349 1835 l 9347 1853 l 9345 1873 l
 9342 1894 l 9338 1917 l 9334 1942 l 9328 1969 l 9323 1997 l
 9317 2025 l 9311 2050 l 9307 2071 l 9303 2087 l 9301 2096 l
 9300 2099 l
 9300 2100 l gs col0 s gr 
% Polyline
n 10500 1500 m 10500 1501 l 10501 1504 l 10503 1513 l 10507 1529 l 10512 1550 l
 10519 1575 l 10526 1603 l 10533 1631 l 10539 1658 l 10546 1683 l
 10552 1706 l 10557 1727 l 10562 1747 l 10566 1765 l 10571 1783 l
 10575 1800 l 10579 1817 l 10584 1835 l 10588 1853 l 10592 1871 l
 10597 1890 l 10601 1910 l 10605 1930 l 10609 1950 l 10613 1970 l
 10616 1990 l 10619 2010 l 10621 2029 l 10623 2047 l 10624 2065 l
 10625 2083 l 10625 2100 l 10625 2117 l 10624 2135 l 10623 2153 l
 10621 2171 l 10619 2190 l 10616 2210 l 10613 2230 l 10609 2250 l
 10605 2270 l 10601 2290 l 10597 2310 l 10592 2329 l 10588 2347 l
 10584 2365 l 10579 2383 l 10575 2400 l 10571 2417 l 10566 2435 l
 10562 2453 l 10557 2473 l 10552 2494 l 10546 2517 l 10539 2542 l
 10533 2569 l 10526 2597 l 10519 2625 l 10512 2650 l 10507 2671 l
 10503 2687 l 10501 2696 l 10500 2699 l
 10500 2700 l gs col0 s gr 
% Polyline
n 9900 2100 m 9900 2101 l 9901 2104 l 9903 2113 l 9907 2129 l 9911 2150 l
 9917 2175 l 9923 2203 l 9928 2231 l 9934 2258 l 9938 2283 l
 9942 2306 l 9945 2327 l 9947 2347 l 9949 2365 l 9950 2383 l
 9950 2400 l 9950 2417 l 9949 2435 l 9947 2453 l 9945 2473 l
 9942 2494 l 9938 2517 l 9934 2542 l 9928 2569 l 9923 2597 l
 9917 2625 l 9911 2650 l 9907 2671 l 9903 2687 l 9901 2696 l
 9900 2699 l
 9900 2700 l gs col0 s gr 
% Polyline
n 4500 3750 m 4500 3751 l 4501 3754 l 4503 3763 l 4507 3779 l 4511 3800 l
 4517 3825 l 4523 3853 l 4528 3881 l 4534 3908 l 4538 3933 l
 4542 3956 l 4545 3977 l 4547 3997 l 4549 4015 l 4550 4033 l
 4550 4050 l 4550 4067 l 4549 4085 l 4547 4103 l 4545 4123 l
 4542 4144 l 4538 4167 l 4534 4192 l 4528 4219 l 4523 4247 l
 4517 4275 l 4511 4300 l 4507 4321 l 4503 4337 l 4501 4346 l
 4500 4349 l
 4500 4350 l gs col0 s gr 
% Polyline
n 2700 3750 m 2700 3751 l 2701 3754 l 2703 3763 l 2707 3779 l 2711 3800 l
 2717 3825 l 2723 3853 l 2728 3881 l 2734 3908 l 2738 3933 l
 2742 3956 l 2745 3977 l 2747 3997 l 2749 4015 l 2750 4033 l
 2750 4050 l 2750 4067 l 2749 4085 l 2747 4103 l 2745 4123 l
 2742 4144 l 2738 4167 l 2734 4192 l 2728 4219 l 2723 4247 l
 2717 4275 l 2711 4300 l 2707 4321 l 2703 4337 l 2701 4346 l
 2700 4349 l
 2700 4350 l gs col0 s gr 
% Polyline
n 3900 3750 m 3900 3751 l 3901 3754 l 3903 3763 l 3907 3779 l 3912 3800 l
 3919 3825 l 3926 3853 l 3933 3881 l 3939 3908 l 3946 3933 l
 3952 3956 l 3957 3977 l 3962 3997 l 3966 4015 l 3971 4033 l
 3975 4050 l 3979 4067 l 3984 4085 l 3988 4103 l 3992 4121 l
 3997 4140 l 4001 4160 l 4005 4180 l 4009 4200 l 4013 4220 l
 4016 4240 l 4019 4260 l 4021 4279 l 4023 4297 l 4024 4315 l
 4025 4333 l 4025 4350 l 4025 4367 l 4024 4385 l 4023 4403 l
 4021 4421 l 4019 4440 l 4016 4460 l 4013 4480 l 4009 4500 l
 4005 4520 l 4001 4540 l 3997 4560 l 3992 4579 l 3988 4597 l
 3984 4615 l 3979 4633 l 3975 4650 l 3971 4667 l 3966 4685 l
 3962 4703 l 3957 4723 l 3952 4744 l 3946 4767 l 3939 4792 l
 3933 4819 l 3926 4847 l 3919 4875 l 3912 4900 l 3907 4921 l
 3903 4937 l 3901 4946 l 3900 4949 l
 3900 4950 l gs col0 s gr 
% Polyline
n 3300 4350 m 3300 4351 l 3301 4354 l 3303 4363 l 3307 4379 l 3311 4400 l
 3317 4425 l 3323 4453 l 3328 4481 l 3334 4508 l 3338 4533 l
 3342 4556 l 3345 4577 l 3347 4597 l 3349 4615 l 3350 4633 l
 3350 4650 l 3350 4667 l 3349 4685 l 3347 4703 l 3345 4723 l
 3342 4744 l 3338 4767 l 3334 4792 l 3328 4819 l 3323 4847 l
 3317 4875 l 3311 4900 l 3307 4921 l 3303 4937 l 3301 4946 l
 3300 4949 l
 3300 4950 l gs col0 s gr 
% Polyline
n 11100 3750 m 11100 3751 l 11101 3754 l 11103 3763 l 11107 3779 l 11111 3800 l
 11117 3825 l 11123 3853 l 11128 3881 l 11134 3908 l 11138 3933 l
 11142 3956 l 11145 3977 l 11147 3997 l 11149 4015 l 11150 4033 l
 11150 4050 l 11150 4067 l 11149 4085 l 11147 4103 l 11145 4123 l
 11142 4144 l 11138 4167 l 11134 4192 l 11128 4219 l 11123 4247 l
 11117 4275 l 11111 4300 l 11107 4321 l 11103 4337 l 11101 4346 l
 11100 4349 l
 11100 4350 l gs col0 s gr 
% Polyline
n 9300 3750 m 9300 3751 l 9301 3754 l 9303 3763 l 9307 3779 l 9311 3800 l
 9317 3825 l 9323 3853 l 9328 3881 l 9334 3908 l 9338 3933 l
 9342 3956 l 9345 3977 l 9347 3997 l 9349 4015 l 9350 4033 l
 9350 4050 l 9350 4067 l 9349 4085 l 9347 4103 l 9345 4123 l
 9342 4144 l 9338 4167 l 9334 4192 l 9328 4219 l 9323 4247 l
 9317 4275 l 9311 4300 l 9307 4321 l 9303 4337 l 9301 4346 l
 9300 4349 l
 9300 4350 l gs col0 s gr 
% Polyline
n 10500 3750 m 10500 3751 l 10501 3754 l 10503 3763 l 10507 3779 l 10512 3800 l
 10519 3825 l 10526 3853 l 10533 3881 l 10539 3908 l 10546 3933 l
 10552 3956 l 10557 3977 l 10562 3997 l 10566 4015 l 10571 4033 l
 10575 4050 l 10579 4067 l 10584 4085 l 10588 4103 l 10592 4121 l
 10597 4140 l 10601 4160 l 10605 4180 l 10609 4200 l 10613 4220 l
 10616 4240 l 10619 4260 l 10621 4279 l 10623 4297 l 10624 4315 l
 10625 4333 l 10625 4350 l 10625 4367 l 10624 4385 l 10623 4403 l
 10621 4421 l 10619 4440 l 10616 4460 l 10613 4480 l 10609 4500 l
 10605 4520 l 10601 4540 l 10597 4560 l 10592 4579 l 10588 4597 l
 10584 4615 l 10579 4633 l 10575 4650 l 10571 4667 l 10566 4685 l
 10562 4703 l 10557 4723 l 10552 4744 l 10546 4767 l 10539 4792 l
 10533 4819 l 10526 4847 l 10519 4875 l 10512 4900 l 10507 4921 l
 10503 4937 l 10501 4946 l 10500 4949 l
 10500 4950 l gs col0 s gr 
% Polyline
n 9900 4350 m 9900 4351 l 9901 4354 l 9903 4363 l 9907 4379 l 9911 4400 l
 9917 4425 l 9923 4453 l 9928 4481 l 9934 4508 l 9938 4533 l
 9942 4556 l 9945 4577 l 9947 4597 l 9949 4615 l 9950 4633 l
 9950 4650 l 9950 4667 l 9949 4685 l 9947 4703 l 9945 4723 l
 9942 4744 l 9938 4767 l 9934 4792 l 9928 4819 l 9923 4847 l
 9917 4875 l 9911 4900 l 9907 4921 l 9903 4937 l 9901 4946 l
 9900 4949 l
 9900 4950 l gs col0 s gr 
/Times-Roman ff 400.00 scf sf
300 1575 m
gs 1 -1 sc (a) col0 sh gr
/Times-Roman ff 400.00 scf sf
300 2175 m
gs 1 -1 sc (b) col0 sh gr
/Times-Roman ff 400.00 scf sf
300 2775 m
gs 1 -1 sc (c) col0 sh gr
/Times-Roman ff 400.00 scf sf
6900 1575 m
gs 1 -1 sc (a) col0 sh gr
/Times-Roman ff 400.00 scf sf
6900 2175 m
gs 1 -1 sc (b) col0 sh gr
/Times-Roman ff 400.00 scf sf
6900 2775 m
gs 1 -1 sc (c) col0 sh gr
/Times-Roman ff 400.00 scf sf
300 3825 m
gs 1 -1 sc (a) col0 sh gr
/Times-Roman ff 400.00 scf sf
300 4425 m
gs 1 -1 sc (b) col0 sh gr
/Times-Roman ff 400.00 scf sf
300 5025 m
gs 1 -1 sc (c) col0 sh gr
/Times-Roman ff 400.00 scf sf
6900 3825 m
gs 1 -1 sc (a) col0 sh gr
/Times-Roman ff 400.00 scf sf
6900 4425 m
gs 1 -1 sc (b) col0 sh gr
/Times-Roman ff 400.00 scf sf
6900 5025 m
gs 1 -1 sc (c) col0 sh gr
% here ends figure;
pagefooter
showpage
%%Trailer
%EOF
