#FIG 3.2  Produced by xfig version 3.2.5c
Landscape
Center
Metric
A4      
100.00
Single
-2
1200 2
0 32 #555555
0 33 #aaaaaa
1 3 0 1 0 7 50 -1 0 0.000 1 0.0000 4950 1350 45 45 4950 1350 4950 1395
1 3 0 2 0 7 50 -1 0 0.000 1 0.0000 4950 1800 45 45 4950 1800 4950 1845
1 3 0 1 0 7 50 -1 0 0.000 1 0.0000 5850 2250 45 45 5850 2250 5850 2295
1 3 0 1 0 7 50 -1 0 0.000 1 0.0000 5850 1350 45 45 5850 1350 5850 1395
1 3 0 1 0 7 50 -1 0 0.000 1 0.0000 5400 1800 45 45 5400 1800 5400 1845
1 3 0 2 0 7 50 -1 0 0.000 1 0.0000 5400 2250 45 45 5400 2250 5400 2295
1 3 0 1 0 7 50 -1 0 0.000 1 0.0000 6300 2250 45 45 6300 2250 6300 2295
1 3 0 2 0 7 50 -1 0 0.000 1 0.0000 6300 2700 45 45 6300 2700 6300 2745
1 3 0 1 0 7 50 -1 0 0.000 1 0.0000 7425 1800 45 45 7425 1800 7425 1845
1 3 0 1 0 7 50 -1 0 0.000 1 0.0000 7425 2700 45 45 7425 2700 7425 2745
2 2 0 1 4 4 70 -1 30 0.000 0 0 7 0 0 5
	 5850 1350 6750 1350 6750 2250 5850 2250 5850 1350
2 1 0 1 0 12 48 -1 -1 4.000 0 0 -1 0 0 2
	 5850 1350 5850 2250
2 1 0 1 0 12 48 -1 -1 4.000 0 0 -1 0 0 2
	 4950 1350 4950 1800
2 1 0 1 0 12 48 -1 -1 4.000 0 0 -1 0 0 2
	 5400 1800 5400 2250
2 1 0 1 0 12 48 -1 -1 4.000 0 0 -1 0 0 2
	 6300 2250 6300 2700
2 1 0 1 0 12 48 -1 -1 4.000 0 0 -1 0 0 2
	 6300 2475 8100 2475
2 1 0 1 0 12 48 -1 -1 4.000 0 0 -1 0 0 2
	 5850 1755 7200 1755
2 1 0 1 0 12 48 -1 -1 4.000 0 0 -1 0 0 2
	 4950 1575 6750 1575
2 1 0 1 0 12 48 -1 -1 4.000 0 0 -1 0 0 2
	 7425 1800 7425 2745
2 1 0 1 0 12 48 -1 -1 4.000 0 0 -1 0 0 2
	 7425 2205 8325 2205
2 2 0 1 11 11 52 -1 30 4.000 0 0 7 0 0 5
	 7425 1800 8100 1800 8100 2700 7425 2700 7425 1800
2 1 0 1 0 11 48 -1 30 4.000 0 0 7 0 0 2
	 5400 2025 8100 2025
2 1 0 1 0 11 48 -1 30 4.000 0 0 7 1 0 2
	1 1 1.00 60.00 120.00
	 4500 2925 9000 2925
2 1 1 1 0 11 48 -1 30 4.000 0 0 7 0 0 2
	 4500 1350 9000 1350
2 1 1 1 0 11 48 -1 30 4.000 0 0 7 0 0 2
	 4500 1800 9000 1800
2 1 1 1 0 11 48 -1 30 4.000 0 0 7 0 0 2
	 4500 2250 9000 2250
2 1 1 1 0 11 48 -1 30 4.000 0 0 7 0 0 2
	 4500 2700 9000 2700
2 1 0 1 0 11 48 -1 30 4.000 0 0 -1 0 0 2
	 4950 2925 4950 2880
2 1 0 1 0 11 48 -1 30 4.000 0 0 -1 0 0 2
	 5400 2925 5400 2880
2 1 0 1 0 11 48 -1 30 4.000 0 0 -1 0 0 2
	 5850 2925 5850 2880
2 1 0 1 0 11 48 -1 30 4.000 0 0 -1 0 0 2
	 6300 2925 6300 2880
2 1 0 1 0 11 48 -1 30 4.000 0 0 -1 0 0 2
	 6750 2925 6750 2880
2 1 0 1 0 11 48 -1 30 4.000 0 0 -1 0 0 2
	 7200 2925 7200 2880
2 1 0 1 0 11 48 -1 30 4.000 0 0 -1 0 0 2
	 7650 2925 7650 2880
2 1 0 1 0 11 48 -1 30 4.000 0 0 -1 0 0 2
	 8100 2925 8100 2880
2 1 0 1 0 11 48 -1 30 4.000 0 0 -1 0 0 2
	 8550 2925 8550 2880
4 0 0 48 -1 0 13 0.0000 4 135 375 9135 3150 time\001
4 0 0 48 -1 0 13 0.0000 4 135 105 4275 2745 d\001
4 0 0 48 -1 0 13 0.0000 4 90 90 4275 2295 c\001
4 0 0 48 -1 0 13 0.0000 4 135 105 4275 1845 b\001
4 0 0 48 -1 0 13 0.0000 4 90 90 4275 1395 a\001
4 0 0 48 -1 0 10 0.0000 4 105 90 4905 3150 2\001
4 0 0 48 -1 0 10 0.0000 4 105 90 6255 3150 8\001
4 0 0 48 -1 0 10 0.0000 4 105 180 7560 3150 14\001
