%!PS-Adobe-3.0
%%Creator: graphviz version 2.38.0 (20140413.2041)
%%Title: G
%%Pages: (atend)
%%BoundingBox: (atend)
%%EndComments
save
%%BeginProlog
/DotDict 200 dict def
DotDict begin

/setupLatin1 {
mark
/EncodingVector 256 array def
 EncodingVector 0

ISOLatin1Encoding 0 255 getinterval putinterval
EncodingVector 45 /hyphen put

% Set up ISO Latin 1 character encoding
/starnetISO {
        dup dup findfont dup length dict begin
        { 1 index /FID ne { def }{ pop pop } ifelse
        } forall
        /Encoding EncodingVector def
        currentdict end definefont
} def
/Times-Roman starnetISO def
/Times-Italic starnetISO def
/Times-Bold starnetISO def
/Times-BoldItalic starnetISO def
/Helvetica starnetISO def
/Helvetica-Oblique starnetISO def
/Helvetica-Bold starnetISO def
/Helvetica-BoldOblique starnetISO def
/Courier starnetISO def
/Courier-Oblique starnetISO def
/Courier-Bold starnetISO def
/Courier-BoldOblique starnetISO def
cleartomark
} bind def

%%BeginResource: procset graphviz 0 0
/coord-font-family /Times-Roman def
/default-font-family /Times-Roman def
/coordfont coord-font-family findfont 8 scalefont def

/InvScaleFactor 1.0 def
/set_scale {
       dup 1 exch div /InvScaleFactor exch def
       scale
} bind def

% styles
/solid { [] 0 setdash } bind def
/dashed { [9 InvScaleFactor mul dup ] 0 setdash } bind def
/dotted { [1 InvScaleFactor mul 6 InvScaleFactor mul] 0 setdash } bind def
/invis {/fill {newpath} def /stroke {newpath} def /show {pop newpath} def} bind def
/bold { 2 setlinewidth } bind def
/filled { } bind def
/unfilled { } bind def
/rounded { } bind def
/diagonals { } bind def
/tapered { } bind def

% hooks for setting color 
/nodecolor { sethsbcolor } bind def
/edgecolor { sethsbcolor } bind def
/graphcolor { sethsbcolor } bind def
/nopcolor {pop pop pop} bind def

/beginpage {	% i j npages
	/npages exch def
	/j exch def
	/i exch def
	/str 10 string def
	npages 1 gt {
		gsave
			coordfont setfont
			0 0 moveto
			(\() show i str cvs show (,) show j str cvs show (\)) show
		grestore
	} if
} bind def

/set_font {
	findfont exch
	scalefont setfont
} def

% draw text fitted to its expected width
/alignedtext {			% width text
	/text exch def
	/width exch def
	gsave
		width 0 gt {
			[] 0 setdash
			text stringwidth pop width exch sub text length div 0 text ashow
		} if
	grestore
} def

/boxprim {				% xcorner ycorner xsize ysize
		4 2 roll
		moveto
		2 copy
		exch 0 rlineto
		0 exch rlineto
		pop neg 0 rlineto
		closepath
} bind def

/ellipse_path {
	/ry exch def
	/rx exch def
	/y exch def
	/x exch def
	matrix currentmatrix
	newpath
	x y translate
	rx ry scale
	0 0 1 0 360 arc
	setmatrix
} bind def

/endpage { showpage } bind def
/showpage { } def

/layercolorseq
	[	% layer color sequence - darkest to lightest
		[0 0 0]
		[.2 .8 .8]
		[.4 .8 .8]
		[.6 .8 .8]
		[.8 .8 .8]
	]
def

/layerlen layercolorseq length def

/setlayer {/maxlayer exch def /curlayer exch def
	layercolorseq curlayer 1 sub layerlen mod get
	aload pop sethsbcolor
	/nodecolor {nopcolor} def
	/edgecolor {nopcolor} def
	/graphcolor {nopcolor} def
} bind def

/onlayer { curlayer ne {invis} if } def

/onlayers {
	/myupper exch def
	/mylower exch def
	curlayer mylower lt
	curlayer myupper gt
	or
	{invis} if
} def

/curlayer 0 def

%%EndResource
%%EndProlog
%%BeginSetup
14 default-font-family set_font
1 setmiterlimit
% /arrowlength 10 def
% /arrowwidth 5 def

% make sure pdfmark is harmless for PS-interpreters other than Distiller
/pdfmark where {pop} {userdict /pdfmark /cleartomark load put} ifelse
% make '<<' and '>>' safe on PS Level 1 devices
/languagelevel where {pop languagelevel}{1} ifelse
2 lt {
    userdict (<<) cvn ([) cvn load put
    userdict (>>) cvn ([) cvn load put
} if

%%EndSetup
setupLatin1
%%Page: 1 1
%%PageBoundingBox: 36 36 530 368
%%PageOrientation: Portrait
0 0 1 beginpage
gsave
36 36 494 332 boxprim clip newpath
1 1 set_scale 0 rotate 40 40 translate
% a,b\n6;6
gsave
0 0 0 nodecolor
14 /Times-Roman set_font
144.64 308.8 moveto 16.71 (a,b) alignedtext
0 0 0 nodecolor
14 /Times-Roman set_font
144.06 294.8 moveto 17.89 (6;6) alignedtext
grestore
% a,b\n6;9
gsave
0 0 0 nodecolor
14 /Times-Roman set_font
162.64 236.8 moveto 16.71 (a,b) alignedtext
0 0 0 nodecolor
14 /Times-Roman set_font
162.06 222.8 moveto 17.89 (6;9) alignedtext
grestore
% a,b\n6;6--a,b\n6;9
gsave
1 setlinewidth
0 0 0 edgecolor
newpath 157.45 287.7 moveto
160.24 276.85 163.82 262.92 166.6 252.1 curveto
stroke
grestore
% a,b\n3;6
gsave
0 0 0 nodecolor
14 /Times-Roman set_font
90.64 236.8 moveto 16.71 (a,b) alignedtext
0 0 0 nodecolor
14 /Times-Roman set_font
90.06 222.8 moveto 17.89 (3;6) alignedtext
grestore
% a,b\n6;6--a,b\n3;6
gsave
4 setlinewidth
0.66667 1 1 edgecolor
newpath 139.65 287.7 moveto
131.28 276.85 120.54 262.92 112.19 252.1 curveto
stroke
grestore
% a,b\n3;9
gsave
0 0 0 nodecolor
14 /Times-Roman set_font
90.64 164.8 moveto 16.71 (a,b) alignedtext
0 0 0 nodecolor
14 /Times-Roman set_font
90.06 150.8 moveto 17.89 (3;9) alignedtext
grestore
% a,b\n6;9--a,b\n3;9
gsave
1 setlinewidth
0 0 0 edgecolor
newpath 153.2 215.7 moveto
142.04 204.85 127.71 190.92 116.59 180.1 curveto
stroke
grestore
% a,b\n3;6--a,b\n3;9
gsave
1 setlinewidth
0 0 0 edgecolor
newpath 99 215.7 moveto
99 204.85 99 190.92 99 180.1 curveto
stroke
grestore
% a,b,c\n3;6
gsave
0 0 0 nodecolor
14 /Times-Roman set_font
157.79 164.8 moveto 26.43 (a,b,c) alignedtext
0 0 0 nodecolor
14 /Times-Roman set_font
162.06 150.8 moveto 17.89 (3;6) alignedtext
grestore
% a,b\n3;6--a,b,c\n3;6
gsave
4 setlinewidth
dashed
0.66667 1 1 edgecolor
newpath 116.8 215.7 moveto
127.96 204.85 142.29 190.92 153.41 180.1 curveto
stroke
grestore
% a,b\n0;6
gsave
0 0 0 nodecolor
14 /Times-Roman set_font
18.64 164.8 moveto 16.71 (a,b) alignedtext
0 0 0 nodecolor
14 /Times-Roman set_font
18.06 150.8 moveto 17.89 (0;6) alignedtext
grestore
% a,b\n3;6--a,b\n0;6
gsave
1 setlinewidth
0 0 0 edgecolor
newpath 81.2 215.7 moveto
70.04 204.85 55.71 190.92 44.59 180.1 curveto
stroke
grestore
% a,c\n5;5
gsave
0 0 0 nodecolor
14 /Times-Roman set_font
415.04 308.8 moveto 15.93 (a,c) alignedtext
0 0 0 nodecolor
14 /Times-Roman set_font
414.06 294.8 moveto 17.89 (5;5) alignedtext
grestore
% a,c\n5;8
gsave
0 0 0 nodecolor
14 /Times-Roman set_font
451.04 236.8 moveto 15.93 (a,c) alignedtext
0 0 0 nodecolor
14 /Times-Roman set_font
450.06 222.8 moveto 17.89 (5;8) alignedtext
grestore
% a,c\n5;5--a,c\n5;8
gsave
1 setlinewidth
0 0 0 edgecolor
newpath 431.9 287.7 moveto
437.48 276.85 444.64 262.92 450.2 252.1 curveto
stroke
grestore
% a,c\n2;5
gsave
0 0 0 nodecolor
14 /Times-Roman set_font
379.04 236.8 moveto 15.93 (a,c) alignedtext
0 0 0 nodecolor
14 /Times-Roman set_font
378.06 222.8 moveto 17.89 (2;5) alignedtext
grestore
% a,c\n5;5--a,c\n2;5
gsave
1 setlinewidth
0 0 0 edgecolor
newpath 414.1 287.7 moveto
408.52 276.85 401.36 262.92 395.8 252.1 curveto
stroke
grestore
% a,c\n2;8
gsave
0.33333 1 0.39216 nodecolor
14 /Times-bold set_font
450.64 164.8 moveto 16.71 (a,c) alignedtext
0.33333 1 0.39216 nodecolor
14 /Times-bold set_font
449.67 150.8 moveto 18.66 (2;8) alignedtext
grestore
% a,c\n5;8--a,c\n2;8
gsave
1 setlinewidth
0 0 0 edgecolor
newpath 459 215.7 moveto
459 204.85 459 190.92 459 180.1 curveto
stroke
grestore
% a,b,c\n4;7
gsave
0 0 0 nodecolor
14 /Times-Roman set_font
229.79 164.8 moveto 26.43 (a,b,c) alignedtext
0 0 0 nodecolor
14 /Times-Roman set_font
234.06 150.8 moveto 17.89 (4;7) alignedtext
grestore
% a,b,c\n3;7
gsave
0 0 0 nodecolor
14 /Times-Roman set_font
193.79 92.8 moveto 26.43 (a,b,c) alignedtext
0 0 0 nodecolor
14 /Times-Roman set_font
198.06 78.8 moveto 17.89 (3;7) alignedtext
grestore
% a,b,c\n4;7--a,b,c\n3;7
gsave
1 setlinewidth
0 0 0 edgecolor
newpath 234.1 143.7 moveto
228.52 132.85 221.36 118.92 215.8 108.1 curveto
stroke
grestore
% b,c\n4;4
gsave
0 0 0 nodecolor
14 /Times-Roman set_font
270.64 308.8 moveto 16.71 (b,c) alignedtext
0 0 0 nodecolor
14 /Times-Roman set_font
270.06 294.8 moveto 17.89 (4;4) alignedtext
grestore
% b,c\n4;7
gsave
0 0 0 nodecolor
14 /Times-Roman set_font
234.64 236.8 moveto 16.71 (b,c) alignedtext
0 0 0 nodecolor
14 /Times-Roman set_font
234.06 222.8 moveto 17.89 (4;7) alignedtext
grestore
% b,c\n4;4--b,c\n4;7
gsave
1 setlinewidth
0 0 0 edgecolor
newpath 270.1 287.7 moveto
264.52 276.85 257.36 262.92 251.8 252.1 curveto
stroke
grestore
% b,c\n1;4
gsave
0 0 0 nodecolor
14 /Times-Roman set_font
306.64 236.8 moveto 16.71 (b,c) alignedtext
0 0 0 nodecolor
14 /Times-Roman set_font
306.06 222.8 moveto 17.89 (1;4) alignedtext
grestore
% b,c\n4;4--b,c\n1;4
gsave
1 setlinewidth
0 0 0 edgecolor
newpath 287.9 287.7 moveto
293.48 276.85 300.64 262.92 306.2 252.1 curveto
stroke
grestore
% b,c\n4;7--a,b,c\n4;7
gsave
1 setlinewidth
dashed
0 0 0 edgecolor
newpath 243 215.7 moveto
243 204.85 243 190.92 243 180.1 curveto
stroke
grestore
% b,c\n1;7
gsave
0 0 0.36863 nodecolor
14 /Times-bold set_font
306.25 164.8 moveto 17.5 (b,c) alignedtext
0 0 0.36863 nodecolor
14 /Times-bold set_font
305.67 150.8 moveto 18.66 (1;7) alignedtext
grestore
% b,c\n4;7--b,c\n1;7
gsave
1 setlinewidth
0 0 0 edgecolor
newpath 260.8 215.7 moveto
271.96 204.85 286.29 190.92 297.41 180.1 curveto
stroke
grestore
% a,b,c\n2;7
gsave
0.66667 1 1 nodecolor
14 /Times-bold set_font
229 20.8 moveto 28 (a,b,c) alignedtext
0.66667 1 1 nodecolor
14 /Times-bold set_font
233.67 6.8 moveto 18.66 (2;7) alignedtext
grestore
% b,c\n1;4--b,c\n1;7
gsave
1 setlinewidth
0 0 0 edgecolor
newpath 315 215.7 moveto
315 204.85 315 190.92 315 180.1 curveto
stroke
grestore
% a,b\n0;9
gsave
0 1 1 nodecolor
14 /Times-bold set_font
53.86 92.8 moveto 18.29 (a,b) alignedtext
0 1 1 nodecolor
14 /Times-bold set_font
53.67 78.8 moveto 18.66 (0;9) alignedtext
grestore
% a,b\n3;9--a,b\n0;9
gsave
1 setlinewidth
0 0 0 edgecolor
newpath 90.1 143.7 moveto
84.52 132.85 77.36 118.92 71.8 108.1 curveto
stroke
grestore
% a,c\n2;5--a,c\n2;8
gsave
1 setlinewidth
0 0 0 edgecolor
newpath 404.8 215.7 moveto
415.96 204.85 430.29 190.92 441.41 180.1 curveto
stroke
grestore
% a,b,c\n2;5
gsave
0 0 0 nodecolor
14 /Times-Roman set_font
373.79 164.8 moveto 26.43 (a,b,c) alignedtext
0 0 0 nodecolor
14 /Times-Roman set_font
378.06 150.8 moveto 17.89 (2;5) alignedtext
grestore
% a,c\n2;5--a,b,c\n2;5
gsave
1 setlinewidth
dashed
0 0 0 edgecolor
newpath 387 215.7 moveto
387 204.85 387 190.92 387 180.1 curveto
stroke
grestore
% a,b,c\n3;6--a,b,c\n3;7
gsave
4 setlinewidth
0.66667 1 1 edgecolor
newpath 179.9 143.7 moveto
185.48 132.85 192.64 118.92 198.2 108.1 curveto
stroke
grestore
% a,b,c\n2;6
gsave
0 0 0 nodecolor
14 /Times-Roman set_font
265.79 92.8 moveto 26.43 (a,b,c) alignedtext
0 0 0 nodecolor
14 /Times-Roman set_font
270.06 78.8 moveto 17.89 (2;6) alignedtext
grestore
% a,b,c\n3;6--a,b,c\n2;6
gsave
1 setlinewidth
0 0 0 edgecolor
newpath 197.42 143.88 moveto
214.16 133.03 235.72 119.05 252.48 108.19 curveto
stroke
grestore
% a,b,c\n3;7--a,b,c\n2;7
gsave
4 setlinewidth
0.66667 1 1 edgecolor
newpath 215.9 71.7 moveto
221.48 60.85 228.64 46.92 234.2 36.1 curveto
stroke
grestore
% a,b\n3;3
gsave
0 0 0 nodecolor
14 /Times-Roman set_font
36.64 308.8 moveto 16.71 (a,b) alignedtext
0 0 0 nodecolor
14 /Times-Roman set_font
36.06 294.8 moveto 17.89 (3;3) alignedtext
grestore
% a,b\n3;3--a,b\n3;6
gsave
1 setlinewidth
0 0 0 edgecolor
newpath 58.35 287.7 moveto
66.72 276.85 77.46 262.92 85.81 252.1 curveto
stroke
grestore
% a,b\n0;3
gsave
0 0 0 nodecolor
14 /Times-Roman set_font
18.64 236.8 moveto 16.71 (a,b) alignedtext
0 0 0 nodecolor
14 /Times-Roman set_font
18.06 222.8 moveto 17.89 (0;3) alignedtext
grestore
% a,b\n3;3--a,b\n0;3
gsave
1 setlinewidth
0 0 0 edgecolor
newpath 40.55 287.7 moveto
37.76 276.85 34.18 262.92 31.4 252.1 curveto
stroke
grestore
% a,b,c\n2;6--a,b,c\n2;7
gsave
1 setlinewidth
0 0 0 edgecolor
newpath 270.1 71.7 moveto
264.52 60.85 257.36 46.92 251.8 36.1 curveto
stroke
grestore
% a,b,c\n2;5--a,b,c\n2;6
gsave
1 setlinewidth
0 0 0 edgecolor
newpath 360.58 143.88 moveto
343.84 133.03 322.28 119.05 305.52 108.19 curveto
stroke
grestore
% a,b\n0;3--a,b\n0;6
gsave
1 setlinewidth
0 0 0 edgecolor
newpath 27 215.7 moveto
27 204.85 27 190.92 27 180.1 curveto
stroke
grestore
% a,b\n0;6--a,b\n0;9
gsave
1 setlinewidth
0 0 0 edgecolor
newpath 35.9 143.7 moveto
41.48 132.85 48.64 118.92 54.2 108.1 curveto
stroke
grestore
endpage
showpage
grestore
%%PageTrailer
%%EndPage: 1
%%Trailer
%%Pages: 1
%%BoundingBox: 36 36 530 368
end
restore
%%EOF
