%!PS-Adobe-3.0 EPSF-3.0
%%Title: configmodel.fig
%%Creator: fig2dev Version 3.2 Patchlevel 5d
%%CreationDate: Mon May  2 13:00:32 2016
%%For: tiphaine@MacBook-Pro-de-Tiphaine.local (Tiphaine Viard)
%%BoundingBox: 0 0 312 315
%Magnification: 1.0000
%%EndComments
%%BeginProlog
/$F2psDict 200 dict def
$F2psDict begin
$F2psDict /mtrx matrix put
/col-1 {0 setgray} bind def
/col0 {0.000 0.000 0.000 srgb} bind def
/col1 {0.000 0.000 1.000 srgb} bind def
/col2 {0.000 1.000 0.000 srgb} bind def
/col3 {0.000 1.000 1.000 srgb} bind def
/col4 {1.000 0.000 0.000 srgb} bind def
/col5 {1.000 0.000 1.000 srgb} bind def
/col6 {1.000 1.000 0.000 srgb} bind def
/col7 {1.000 1.000 1.000 srgb} bind def
/col8 {0.000 0.000 0.560 srgb} bind def
/col9 {0.000 0.000 0.690 srgb} bind def
/col10 {0.000 0.000 0.820 srgb} bind def
/col11 {0.530 0.810 1.000 srgb} bind def
/col12 {0.000 0.560 0.000 srgb} bind def
/col13 {0.000 0.690 0.000 srgb} bind def
/col14 {0.000 0.820 0.000 srgb} bind def
/col15 {0.000 0.560 0.560 srgb} bind def
/col16 {0.000 0.690 0.690 srgb} bind def
/col17 {0.000 0.820 0.820 srgb} bind def
/col18 {0.560 0.000 0.000 srgb} bind def
/col19 {0.690 0.000 0.000 srgb} bind def
/col20 {0.820 0.000 0.000 srgb} bind def
/col21 {0.560 0.000 0.560 srgb} bind def
/col22 {0.690 0.000 0.690 srgb} bind def
/col23 {0.820 0.000 0.820 srgb} bind def
/col24 {0.500 0.190 0.000 srgb} bind def
/col25 {0.630 0.250 0.000 srgb} bind def
/col26 {0.750 0.380 0.000 srgb} bind def
/col27 {1.000 0.500 0.500 srgb} bind def
/col28 {1.000 0.630 0.630 srgb} bind def
/col29 {1.000 0.750 0.750 srgb} bind def
/col30 {1.000 0.880 0.880 srgb} bind def
/col31 {1.000 0.840 0.000 srgb} bind def

end

/cp {closepath} bind def
/ef {eofill} bind def
/gr {grestore} bind def
/gs {gsave} bind def
/sa {save} bind def
/rs {restore} bind def
/l {lineto} bind def
/m {moveto} bind def
/rm {rmoveto} bind def
/n {newpath} bind def
/s {stroke} bind def
/sh {show} bind def
/slc {setlinecap} bind def
/slj {setlinejoin} bind def
/slw {setlinewidth} bind def
/srgb {setrgbcolor} bind def
/rot {rotate} bind def
/sc {scale} bind def
/sd {setdash} bind def
/ff {findfont} bind def
/sf {setfont} bind def
/scf {scalefont} bind def
/sw {stringwidth} bind def
/tr {translate} bind def
/tnt {dup dup currentrgbcolor
  4 -2 roll dup 1 exch sub 3 -1 roll mul add
  4 -2 roll dup 1 exch sub 3 -1 roll mul add
  4 -2 roll dup 1 exch sub 3 -1 roll mul add srgb}
  bind def
/shd {dup dup currentrgbcolor 4 -2 roll mul 4 -2 roll mul
  4 -2 roll mul srgb} bind def
 /DrawEllipse {
	/endangle exch def
	/startangle exch def
	/yrad exch def
	/xrad exch def
	/y exch def
	/x exch def
	/savematrix mtrx currentmatrix def
	x y tr xrad yrad sc 0 0 1 startangle endangle arc
	closepath
	savematrix setmatrix
	} def

/$F2psBegin {$F2psDict begin /$F2psEnteredState save def} def
/$F2psEnd {$F2psEnteredState restore end} def

/pageheader {
save
newpath 0 315 moveto 0 0 lineto 312 0 lineto 312 315 lineto closepath clip newpath
-304.0 377.5 translate
1 -1 scale
$F2psBegin
10 setmiterlimit
0 slj 0 slc
 0.06000 0.06000 sc
} bind def
/pagefooter {
$F2psEnd
restore
} bind def
%%EndProlog
pageheader
%
% Fig objects follow
%
% 
% here starts figure with depth 50
% Polyline
2 slj
0 slc
30.000 slw
 [120] 0 sd
n 9300 3300 m 9303 3303 l 9310 3309 l 9322 3320 l 9338 3334 l 9358 3351 l
 9380 3369 l 9402 3387 l 9424 3404 l 9445 3418 l 9464 3431 l
 9482 3441 l 9500 3449 l 9516 3455 l 9533 3460 l 9550 3463 l
 9566 3464 l 9582 3464 l 9599 3463 l 9618 3461 l 9638 3457 l
 9660 3452 l 9685 3446 l 9712 3438 l 9741 3430 l 9771 3420 l
 9801 3410 l 9829 3400 l 9854 3391 l 9874 3384 l 9888 3379 l
 9896 3376 l 9899 3375 l
 9900 3375 l gs col0 s gr  [] 0 sd
% Ellipse
7.500 slw
n 7275 1350 270 270 0 360 DrawEllipse gs 0.00 setgray ef gr gs col0 s gr

% Ellipse
n 9075 1350 270 270 0 360 DrawEllipse gs 0.00 setgray ef gr gs col0 s gr

% Ellipse
n 9975 1350 270 270 0 360 DrawEllipse gs 0.00 setgray ef gr gs col0 s gr

% Ellipse
n 8175 1350 270 270 0 360 DrawEllipse gs 0.00 setgray ef gr gs col0 s gr

% Ellipse
n 5465 1319 270 270 0 360 DrawEllipse gs 0.00 setgray ef gr gs col0 s gr

% Polyline
0 slj
30.000 slw
n 6375 1425 m
 6375 1950 l gs 0.00 setgray ef gr gs col0 s gr 
% Polyline
n 7200 1425 m
 6975 1875 l gs 0.00 setgray ef gr gs col0 s gr 
% Polyline
n 7350 1425 m
 7575 1875 l gs 0.00 setgray ef gr gs col0 s gr 
% Polyline
n 9000 1425 m
 8775 1875 l gs 0.00 setgray ef gr gs col0 s gr 
% Polyline
n 9150 1425 m
 9375 1875 l gs 0.00 setgray ef gr gs col0 s gr 
% Polyline
n 5475 1350 m
 5175 1950 l gs 0.00 setgray ef gr gs col0 s gr 
% Polyline
n 5475 1425 m
 5475 1950 l gs 0.00 setgray ef gr gs col0 s gr 
% Polyline
n 5475 1425 m
 5775 1950 l gs 0.00 setgray ef gr gs col0 s gr 
% Polyline
n 8175 1425 m
 8175 1950 l gs 0.00 setgray ef gr gs col0 s gr 
% Polyline
n 9975 1425 m
 9975 1950 l gs 0.00 setgray ef gr gs col0 s gr 
% Ellipse
7.500 slw
n 6300 2775 270 270 0 360 DrawEllipse gs 0.00 setgray ef gr gs col0 s gr

% Ellipse
n 7200 2775 270 270 0 360 DrawEllipse gs 0.00 setgray ef gr gs col0 s gr

% Ellipse
n 9000 2775 270 270 0 360 DrawEllipse gs 0.00 setgray ef gr gs col0 s gr

% Ellipse
n 9900 2775 270 270 0 360 DrawEllipse gs 0.00 setgray ef gr gs col0 s gr

% Ellipse
n 8100 2775 270 270 0 360 DrawEllipse gs 0.00 setgray ef gr gs col0 s gr

% Ellipse
n 5390 2744 270 270 0 360 DrawEllipse gs 0.00 setgray ef gr gs col0 s gr

% Polyline
30.000 slw
n 6300 2850 m
 6300 3375 l gs 0.00 setgray ef gr gs col0 s gr 
% Polyline
n 7125 2850 m
 6900 3300 l gs 0.00 setgray ef gr gs col0 s gr 
% Polyline
n 7275 2850 m
 7500 3300 l gs 0.00 setgray ef gr gs col0 s gr 
% Polyline
n 8925 2850 m
 8700 3300 l gs 0.00 setgray ef gr gs col0 s gr 
% Polyline
n 9075 2850 m
 9300 3300 l gs 0.00 setgray ef gr gs col0 s gr 
% Polyline
n 5400 2775 m
 5100 3375 l gs 0.00 setgray ef gr gs col0 s gr 
% Polyline
n 5400 2850 m
 5400 3375 l gs 0.00 setgray ef gr gs col0 s gr 
% Polyline
n 5400 2850 m
 5700 3375 l gs 0.00 setgray ef gr gs col0 s gr 
% Polyline
n 8100 2850 m
 8100 3375 l gs 0.00 setgray ef gr gs col0 s gr 
% Polyline
n 9900 2850 m
 9900 3375 l gs 0.00 setgray ef gr gs col0 s gr 
% Ellipse
7.500 slw
n 6375 4875 270 270 0 360 DrawEllipse gs 0.00 setgray ef gr gs col0 s gr

% Ellipse
n 7275 4875 270 270 0 360 DrawEllipse gs 0.00 setgray ef gr gs col0 s gr

% Ellipse
n 9075 4875 270 270 0 360 DrawEllipse gs 0.00 setgray ef gr gs col0 s gr

% Ellipse
n 9975 4875 270 270 0 360 DrawEllipse gs 0.00 setgray ef gr gs col0 s gr

% Ellipse
n 8175 4875 270 270 0 360 DrawEllipse gs 0.00 setgray ef gr gs col0 s gr

% Ellipse
n 5465 4844 270 270 0 360 DrawEllipse gs 0.00 setgray ef gr gs col0 s gr

% Polyline
30.000 slw
n 6375 4950 m
 6375 5475 l gs 0.00 setgray ef gr gs col0 s gr 
% Polyline
n 7200 4950 m
 6975 5400 l gs 0.00 setgray ef gr gs col0 s gr 
% Polyline
n 7350 4950 m
 7575 5400 l gs 0.00 setgray ef gr gs col0 s gr 
% Polyline
n 9000 4950 m
 8775 5400 l gs 0.00 setgray ef gr gs col0 s gr 
% Polyline
n 9150 4950 m
 9375 5400 l gs 0.00 setgray ef gr gs col0 s gr 
% Polyline
n 5475 4875 m
 5175 5475 l gs 0.00 setgray ef gr gs col0 s gr 
% Polyline
n 5475 4950 m
 5475 5475 l gs 0.00 setgray ef gr gs col0 s gr 
% Polyline
n 5475 4950 m
 5775 5475 l gs 0.00 setgray ef gr gs col0 s gr 
% Polyline
n 8175 4950 m
 8175 5475 l gs 0.00 setgray ef gr gs col0 s gr 
% Polyline
n 9975 4950 m
 9975 5475 l gs 0.00 setgray ef gr gs col0 s gr 
% Arc
 [120] 0 sd
n 6075.0 5387.5 312.5 163.7398 16.2602 arcn
gs col0 s gr
 [] 0 sd
% Polyline
2 slj
 [120] 0 sd
n 8175 5400 m 8178 5402 l 8184 5407 l 8194 5415 l 8210 5426 l 8230 5441 l
 8254 5458 l 8280 5476 l 8307 5495 l 8334 5514 l 8360 5531 l
 8385 5546 l 8407 5559 l 8428 5571 l 8447 5580 l 8465 5588 l
 8481 5593 l 8497 5597 l 8511 5599 l 8525 5600 l 8542 5599 l
 8559 5595 l 8575 5589 l 8593 5580 l 8611 5568 l 8630 5553 l
 8651 5535 l 8673 5514 l 8695 5490 l 8717 5467 l 8737 5445 l
 8753 5426 l 8765 5412 l 8772 5404 l 8775 5401 l
 8775 5400 l gs col0 s gr  [] 0 sd
% Polyline
 [120] 0 sd
n 9375 5400 m 9377 5403 l 9382 5409 l 9391 5419 l 9404 5434 l 9420 5453 l
 9438 5473 l 9458 5495 l 9477 5516 l 9497 5535 l 9515 5553 l
 9533 5568 l 9549 5581 l 9565 5591 l 9580 5599 l 9595 5605 l
 9610 5610 l 9625 5613 l 9641 5614 l 9657 5613 l 9674 5611 l
 9693 5607 l 9713 5601 l 9735 5593 l 9760 5583 l 9787 5571 l
 9816 5558 l 9846 5543 l 9876 5528 l 9904 5513 l 9929 5500 l
 9949 5489 l 9963 5482 l 9971 5477 l 9974 5475 l
 9975 5475 l gs col0 s gr  [] 0 sd
% Polyline
 [120] 0 sd
n 5175 5475 m 5177 5477 l 5180 5481 l 5187 5489 l 5197 5500 l 5211 5517 l
 5229 5538 l 5252 5563 l 5278 5593 l 5307 5626 l 5338 5661 l
 5372 5698 l 5406 5736 l 5441 5774 l 5476 5811 l 5510 5847 l
 5543 5881 l 5575 5914 l 5606 5945 l 5635 5973 l 5664 6000 l
 5691 6024 l 5717 6047 l 5743 6067 l 5768 6087 l 5792 6104 l
 5816 6120 l 5840 6135 l 5864 6149 l 5888 6163 l 5912 6175 l
 5936 6186 l 5961 6197 l 5987 6207 l 6013 6216 l 6039 6224 l
 6067 6232 l 6095 6238 l 6123 6244 l 6152 6249 l 6182 6253 l
 6212 6256 l 6242 6258 l 6273 6259 l 6303 6258 l 6334 6257 l
 6365 6255 l 6396 6252 l 6427 6247 l 6457 6242 l 6487 6236 l
 6517 6228 l 6546 6220 l 6574 6211 l 6603 6201 l 6630 6190 l
 6658 6178 l 6684 6165 l 6711 6152 l 6738 6138 l 6761 6124 l
 6784 6110 l 6807 6094 l 6831 6078 l 6855 6060 l 6879 6041 l
 6904 6021 l 6930 5999 l 6957 5975 l 6985 5950 l 7014 5923 l
 7044 5894 l 7076 5863 l 7108 5830 l 7142 5796 l 7177 5760 l
 7213 5722 l 7250 5683 l 7287 5644 l 7323 5604 l 7359 5565 l
 7394 5527 l 7426 5491 l 7457 5458 l 7484 5427 l 7508 5401 l
 7528 5378 l 7544 5360 l 7556 5346 l 7565 5336 l 7571 5330 l
 7574 5327 l
 7575 5325 l gs col20 s gr  [] 0 sd
% Polyline
 [120] 0 sd
n 5475 5475 m 5476 5476 l 5478 5478 l 5482 5482 l 5488 5489 l 5497 5497 l
 5509 5509 l 5523 5523 l 5541 5540 l 5561 5560 l 5584 5582 l
 5609 5605 l 5636 5631 l 5665 5657 l 5696 5684 l 5728 5712 l
 5761 5739 l 5795 5767 l 5830 5793 l 5866 5819 l 5902 5845 l
 5940 5869 l 5978 5891 l 6018 5912 l 6058 5932 l 6100 5950 l
 6143 5965 l 6188 5979 l 6233 5989 l 6280 5996 l 6328 6000 l
 6375 6000 l 6424 5995 l 6471 5986 l 6515 5973 l 6556 5956 l
 6594 5937 l 6629 5916 l 6662 5892 l 6692 5867 l 6720 5840 l
 6746 5811 l 6770 5782 l 6793 5751 l 6814 5719 l 6834 5688 l
 6853 5655 l 6871 5624 l 6887 5592 l 6903 5562 l 6917 5533 l
 6929 5507 l 6940 5482 l 6949 5461 l 6957 5443 l 6963 5429 l
 6968 5417 l 6971 5409 l 6973 5404 l 6975 5401 l
 6975 5400 l gs col20 s gr  [] 0 sd
% Polyline
 [120] 0 sd
n 5700 3375 m 5703 3377 l 5710 3382 l 5721 3389 l 5737 3400 l 5758 3413 l
 5781 3428 l 5806 3443 l 5831 3458 l 5855 3471 l 5878 3483 l
 5899 3493 l 5918 3501 l 5936 3507 l 5953 3511 l 5969 3513 l
 5985 3514 l 6000 3513 l 6015 3510 l 6031 3505 l 6047 3499 l
 6064 3491 l 6082 3481 l 6101 3468 l 6122 3453 l 6145 3435 l
 6169 3416 l 6194 3395 l 6219 3373 l 6242 3353 l 6263 3334 l
 6279 3319 l 6290 3309 l 6297 3303 l
 6300 3300 l gs col0 s gr  [] 0 sd
% Polyline
 [120] 0 sd
n 5400 3375 m 5403 3377 l 5409 3380 l 5419 3386 l 5435 3396 l 5457 3409 l
 5484 3425 l 5515 3443 l 5550 3463 l 5587 3484 l 5624 3505 l
 5661 3526 l 5698 3545 l 5733 3564 l 5766 3581 l 5798 3597 l
 5827 3611 l 5855 3624 l 5881 3635 l 5906 3645 l 5930 3654 l
 5954 3662 l 5977 3669 l 6000 3675 l 6025 3681 l 6050 3686 l
 6076 3690 l 6102 3694 l 6128 3696 l 6155 3698 l 6182 3699 l
 6210 3700 l 6238 3699 l 6265 3697 l 6293 3695 l 6320 3692 l
 6347 3688 l 6373 3683 l 6399 3678 l 6423 3672 l 6447 3666 l
 6469 3658 l 6491 3651 l 6511 3643 l 6531 3634 l 6550 3625 l
 6570 3614 l 6590 3603 l 6610 3590 l 6629 3576 l 6649 3561 l
 6669 3543 l 6691 3524 l 6713 3503 l 6736 3480 l 6761 3455 l
 6785 3429 l 6809 3403 l 6832 3377 l 6853 3354 l 6870 3334 l
 6884 3319 l 6893 3309 l 6898 3303 l
 6900 3300 l gs col0 s gr  [] 0 sd
% Polyline
 [120] 0 sd
n 7500 3300 m 7503 3303 l 7510 3309 l 7521 3319 l 7537 3334 l 7558 3352 l
 7581 3372 l 7606 3393 l 7631 3414 l 7655 3432 l 7678 3449 l
 7699 3463 l 7718 3475 l 7736 3485 l 7753 3492 l 7769 3496 l
 7785 3499 l 7800 3500 l 7815 3499 l 7831 3496 l 7847 3492 l
 7864 3485 l 7882 3475 l 7901 3463 l 7922 3449 l 7945 3432 l
 7969 3414 l 7994 3393 l 8019 3372 l 8042 3352 l 8063 3334 l
 8079 3319 l 8090 3309 l 8097 3303 l
 8100 3300 l gs col0 s gr  [] 0 sd
% Polyline
 [120] 0 sd
n 5100 3375 m 5101 3376 l 5105 3379 l 5111 3383 l 5121 3390 l 5135 3401 l
 5153 3414 l 5175 3430 l 5201 3448 l 5231 3469 l 5264 3492 l
 5299 3517 l 5337 3542 l 5375 3568 l 5414 3594 l 5453 3619 l
 5491 3644 l 5529 3667 l 5567 3690 l 5603 3711 l 5638 3731 l
 5673 3749 l 5706 3767 l 5739 3783 l 5772 3797 l 5804 3811 l
 5836 3824 l 5868 3836 l 5900 3847 l 5933 3857 l 5966 3866 l
 6000 3875 l 6031 3882 l 6062 3889 l 6095 3896 l 6128 3902 l
 6162 3908 l 6197 3914 l 6233 3919 l 6270 3924 l 6308 3928 l
 6347 3932 l 6387 3935 l 6428 3938 l 6469 3941 l 6512 3943 l
 6554 3944 l 6598 3945 l 6641 3946 l 6685 3946 l 6730 3945 l
 6774 3944 l 6818 3942 l 6862 3940 l 6906 3938 l 6949 3935 l
 6992 3931 l 7035 3927 l 7077 3922 l 7118 3917 l 7159 3912 l
 7199 3906 l 7238 3900 l 7276 3893 l 7314 3886 l 7352 3879 l
 7389 3871 l 7425 3863 l 7461 3854 l 7497 3844 l 7533 3834 l
 7569 3824 l 7605 3812 l 7641 3800 l 7678 3787 l 7716 3774 l
 7755 3759 l 7795 3743 l 7836 3726 l 7878 3708 l 7922 3688 l
 7968 3668 l 8015 3646 l 8064 3623 l 8113 3599 l 8164 3575 l
 8216 3549 l 8267 3524 l 8319 3498 l 8369 3472 l 8418 3447 l
 8465 3423 l 8509 3401 l 8549 3380 l 8584 3361 l 8615 3345 l
 8640 3332 l 8661 3321 l 8677 3313 l 8688 3307 l 8695 3303 l
 8698 3301 l
 8700 3300 l gs col0 s gr  [] 0 sd
% Ellipse
7.500 slw
n 6375 1350 270 270 0 360 DrawEllipse gs 0.00 setgray ef gr gs col0 s gr

% here ends figure;
pagefooter
showpage
%%Trailer
%EOF
