%!PS-Adobe-3.0 EPSF-3.0
%%Title: connected_part.fig
%%Creator: fig2dev Version 3.2 Patchlevel 5e
%%CreationDate: Wed Dec 16 21:40:56 2015
%%BoundingBox: 0 0 208 62
%Magnification: 1.0000
%%EndComments
%%BeginProlog
/$F2psDict 200 dict def
$F2psDict begin
$F2psDict /mtrx matrix put
/col-1 {0 setgray} bind def
/col0 {0.000 0.000 0.000 srgb} bind def
/col1 {0.000 0.000 1.000 srgb} bind def
/col2 {0.000 1.000 0.000 srgb} bind def
/col3 {0.000 1.000 1.000 srgb} bind def
/col4 {1.000 0.000 0.000 srgb} bind def
/col5 {1.000 0.000 1.000 srgb} bind def
/col6 {1.000 1.000 0.000 srgb} bind def
/col7 {1.000 1.000 1.000 srgb} bind def
/col8 {0.000 0.000 0.560 srgb} bind def
/col9 {0.000 0.000 0.690 srgb} bind def
/col10 {0.000 0.000 0.820 srgb} bind def
/col11 {0.530 0.810 1.000 srgb} bind def
/col12 {0.000 0.560 0.000 srgb} bind def
/col13 {0.000 0.690 0.000 srgb} bind def
/col14 {0.000 0.820 0.000 srgb} bind def
/col15 {0.000 0.560 0.560 srgb} bind def
/col16 {0.000 0.690 0.690 srgb} bind def
/col17 {0.000 0.820 0.820 srgb} bind def
/col18 {0.560 0.000 0.000 srgb} bind def
/col19 {0.690 0.000 0.000 srgb} bind def
/col20 {0.820 0.000 0.000 srgb} bind def
/col21 {0.560 0.000 0.560 srgb} bind def
/col22 {0.690 0.000 0.690 srgb} bind def
/col23 {0.820 0.000 0.820 srgb} bind def
/col24 {0.500 0.190 0.000 srgb} bind def
/col25 {0.630 0.250 0.000 srgb} bind def
/col26 {0.750 0.380 0.000 srgb} bind def
/col27 {1.000 0.500 0.500 srgb} bind def
/col28 {1.000 0.630 0.630 srgb} bind def
/col29 {1.000 0.750 0.750 srgb} bind def
/col30 {1.000 0.880 0.880 srgb} bind def
/col31 {1.000 0.840 0.000 srgb} bind def

end

/cp {closepath} bind def
/ef {eofill} bind def
/gr {grestore} bind def
/gs {gsave} bind def
/sa {save} bind def
/rs {restore} bind def
/l {lineto} bind def
/m {moveto} bind def
/rm {rmoveto} bind def
/n {newpath} bind def
/s {stroke} bind def
/sh {show} bind def
/slc {setlinecap} bind def
/slj {setlinejoin} bind def
/slw {setlinewidth} bind def
/srgb {setrgbcolor} bind def
/rot {rotate} bind def
/sc {scale} bind def
/sd {setdash} bind def
/ff {findfont} bind def
/sf {setfont} bind def
/scf {scalefont} bind def
/sw {stringwidth} bind def
/tr {translate} bind def
/tnt {dup dup currentrgbcolor
  4 -2 roll dup 1 exch sub 3 -1 roll mul add
  4 -2 roll dup 1 exch sub 3 -1 roll mul add
  4 -2 roll dup 1 exch sub 3 -1 roll mul add srgb}
  bind def
/shd {dup dup currentrgbcolor 4 -2 roll mul 4 -2 roll mul
  4 -2 roll mul srgb} bind def
 /DrawEllipse {
	/endangle exch def
	/startangle exch def
	/yrad exch def
	/xrad exch def
	/y exch def
	/x exch def
	/savematrix mtrx currentmatrix def
	x y tr xrad yrad sc 0 0 1 startangle endangle arc
	closepath
	savematrix setmatrix
	} def

/$F2psBegin {$F2psDict begin /$F2psEnteredState save def} def
/$F2psEnd {$F2psEnteredState restore end} def

/pageheader {
save
newpath 0 62 moveto 0 0 lineto 208 0 lineto 208 62 lineto closepath clip newpath
-350.8 183.1 translate
1 -1 scale
$F2psBegin
10 setmiterlimit
0 slj 0 slc
 0.06000 0.06000 sc
} bind def
/pagefooter {
$F2psEnd
restore
} bind def
%%EndProlog
pageheader
%
% Fig objects follow
%
% 
% here starts figure with depth 50
% Ellipse
7.500 slw
n 6675 2400 42 42 0 360 DrawEllipse gs col7 0.00 shd ef gr gs col0 s gr

% Ellipse
n 6675 2700 42 42 0 360 DrawEllipse gs col7 0.00 shd ef gr gs col0 s gr

% Polyline
0 slj
0 slc
15.000 slw
n 6675 2400 m
 6675 2700 l gs col0 s gr 
% Ellipse
7.500 slw
n 7350 2700 42 42 0 360 DrawEllipse gs col7 0.00 shd ef gr gs col0 s gr

% Ellipse
n 7350 3000 42 42 0 360 DrawEllipse gs col7 0.00 shd ef gr gs col0 s gr

% Polyline
15.000 slw
n 7350 2700 m
 7350 3000 l gs col0 s gr 
% Ellipse
7.500 slw
n 6150 2100 42 42 0 360 DrawEllipse gs col7 0.00 shd ef gr gs col0 s gr

% Ellipse
n 6150 2400 42 42 0 360 DrawEllipse gs col7 0.00 shd ef gr gs col0 s gr

% Ellipse
n 8400 3000 42 42 0 360 DrawEllipse gs 0.00 setgray ef gr gs col0 s gr

% Ellipse
n 8400 2100 42 42 0 360 DrawEllipse gs 0.00 setgray ef gr gs col0 s gr

% Polyline
15.000 slw
n 6150 2100 m
 6150 2400 l gs col0 s gr 
% Polyline
7.500 slw
 [15 45] 45 sd
n 6000 3000 m
 9300 3000 l gs col0 s gr  [] 0 sd
% Polyline
 [15 45] 45 sd
n 6000 2400 m
 9300 2400 l gs col0 s gr  [] 0 sd
% Polyline
 [15 45] 45 sd
n 6000 2100 m
 9300 2100 l gs col0 s gr  [] 0 sd
% Polyline
 [15 45] 45 sd
n 6000 2700 m
 9300 2700 l gs col0 s gr  [] 0 sd
% Polyline
2 slj
15.000 slw
n 8400 2100 m 8401 2102 l 8403 2105 l 8407 2111 l 8413 2121 l 8421 2134 l
 8431 2150 l 8442 2168 l 8453 2189 l 8466 2213 l 8478 2237 l
 8490 2263 l 8501 2291 l 8512 2321 l 8522 2352 l 8531 2386 l
 8539 2423 l 8545 2463 l 8549 2505 l 8550 2550 l 8549 2595 l
 8545 2637 l 8539 2677 l 8531 2714 l 8522 2748 l 8512 2779 l
 8501 2809 l 8490 2837 l 8478 2863 l 8466 2888 l 8453 2911 l
 8442 2932 l 8431 2950 l 8421 2966 l 8413 2979 l 8407 2989 l
 8403 2995 l 8401 2998 l
 8400 3000 l gs col0 s gr 
/Times-Roman ff 200.00 scf sf
5954 2140 m
gs 1 -1 sc (a) dup sw pop neg 0 rm  col0 sh gr
/Times-Roman ff 200.00 scf sf
5969 2461 m
gs 1 -1 sc (b) dup sw pop neg 0 rm  col0 sh gr
/Times-Roman ff 200.00 scf sf
5964 2744 m
gs 1 -1 sc (c) dup sw pop neg 0 rm  col0 sh gr
/Times-Roman ff 200.00 scf sf
5977 3037 m
gs 1 -1 sc (d) dup sw pop neg 0 rm  col0 sh gr
% here ends figure;
pagefooter
showpage
%%Trailer
%EOF
