#FIG 3.2  Produced by xfig version 3.2.5c
Landscape
Center
Metric
A4      
100.00
Single
-2
1200 2
0 32 #555555
0 33 #aaaaaa
1 3 0 1 0 0 58 -1 20 4.000 1 0.0000 4050 1800 45 45 4050 1800 4095 1800
1 3 0 1 0 0 53 -1 20 3.000 1 0.0000 4050 1350 45 45 4050 1350 4095 1350
1 3 0 1 0 0 53 -1 20 3.000 1 0.0000 4725 1800 45 45 4725 1800 4770 1800
1 3 0 1 0 0 53 -1 20 3.000 1 0.0000 4725 2250 45 45 4725 2250 4770 2250
2 1 1 1 0 0 58 -1 20 4.000 0 0 -1 0 0 2
	 3825 1800 6075 1800
2 1 1 1 0 0 58 -1 20 4.000 0 0 -1 0 0 2
	 3825 2250 6075 2250
2 1 0 1 0 0 58 -1 20 4.000 0 0 -1 1 0 2
	1 1 1.00 60.00 120.00
	 3825 2475 6075 2475
2 1 0 1 0 0 58 -1 20 4.000 0 0 -1 0 0 2
	 4275 2475 4275 2430
2 1 0 1 0 0 58 -1 20 4.000 0 0 -1 0 0 2
	 4725 2475 4725 2430
2 1 0 1 0 0 58 -1 20 4.000 0 0 -1 0 0 2
	 5175 2475 5175 2430
2 1 0 1 0 0 58 -1 20 4.000 0 0 -1 0 0 2
	 5625 2475 5625 2430
2 1 0 1 0 0 58 -1 20 4.000 0 0 -1 0 0 2
	 4725 1800 4725 2250
2 1 0 1 0 0 58 -1 20 4.000 0 0 -1 0 0 2
	 4050 1350 4050 1800
2 1 0 1 0 0 58 -1 20 4.000 0 0 -1 0 0 2
	 4050 1575 5175 1575
2 1 2 1 0 0 58 -1 20 3.000 0 0 -1 0 0 3
	 3825 1125 3825 2610 3825 2565
2 1 0 1 27 27 57 -1 20 3.000 0 0 -1 0 0 2
	 3825 1350 4050 1350
2 1 0 1 27 27 57 -1 20 3.000 0 0 -1 0 0 2
	 4050 1350 4725 1350
2 1 0 1 27 27 57 -1 20 3.000 0 0 -1 0 0 2
	 4725 1665 4725 2250
2 2 0 1 27 27 60 -1 30 3.000 0 0 7 0 0 5
	 4050 1350 4725 1350 4725 1800 4050 1800 4050 1350
2 1 1 1 0 0 58 -1 20 4.000 0 0 -1 0 0 2
	 3825 1350 6075 1350
2 1 0 1 0 0 58 -1 20 4.000 0 0 -1 0 0 2
	 4725 2025 5625 2025
4 0 0 58 -1 0 13 0.0000 4 135 105 3600 1845 b\001
4 0 0 58 -1 0 13 0.0000 4 90 90 3600 1395 a\001
4 0 0 58 -1 0 13 0.0000 4 90 90 3600 2295 c\001
4 0 0 58 -1 0 10 0.0000 4 105 90 4230 2700 2\001
4 0 0 58 -1 0 10 0.0000 4 105 90 5580 2700 8\001
4 0 0 58 -1 0 13 0.0000 4 135 375 5805 2700 time\001
4 0 0 58 -1 0 10 0.0000 4 90 45 3735 2700 t\001
