#FIG 3.2  Produced by xfig version 3.2.5c
Landscape
Center
Metric
A4      
100.00
Single
-2
1200 2
0 32 #666666
1 3 0 4 0 0 52 -1 20 10.000 1 0.0000 2250 2025 10 10 2250 2025 2257 2018
1 3 0 4 0 0 52 -1 20 10.000 1 0.0000 2250 2475 10 10 2250 2475 2257 2468
2 1 1 1 0 0 52 -1 20 4.000 0 0 -1 0 0 2
	 2250 1575 4500 1575
2 1 1 1 0 0 52 -1 20 4.000 0 0 -1 0 0 2
	 2250 2025 4500 2025
2 1 1 1 0 0 52 -1 20 4.000 0 0 -1 0 0 2
	 2250 2475 4500 2475
2 1 0 1 0 0 52 -1 20 4.000 0 0 -1 1 0 2
	1 1 1.00 60.00 120.00
	 2250 2700 4500 2700
2 1 0 1 0 0 52 -1 20 4.000 0 0 -1 0 0 2
	 2700 2700 2700 2655
2 1 0 1 0 0 52 -1 20 4.000 0 0 -1 0 0 2
	 3150 2700 3150 2655
2 1 0 1 0 0 52 -1 20 4.000 0 0 -1 0 0 2
	 3600 2700 3600 2655
2 1 0 1 0 0 52 -1 20 4.000 0 0 -1 0 0 2
	 4050 2700 4050 2655
2 1 0 1 0 0 52 -1 20 4.000 0 0 7 0 0 2
	 2250 2025 2250 2475
2 1 0 1 0 0 52 -1 20 4.000 0 0 -1 0 0 2
	 2250 2250 3375 2250
2 2 0 1 11 11 53 -1 20 4.000 0 0 7 0 0 5
	 2250 1530 4455 1530 4455 1620 2250 1620 2250 1530
2 2 0 1 11 11 53 -1 20 4.000 0 0 7 0 0 5
	 2250 1980 4455 1980 4455 2070 2250 2070 2250 1980
2 2 0 1 11 11 53 -1 20 4.000 0 0 -1 0 0 5
	 2250 2430 3375 2430 3375 2520 2250 2520 2250 2430
4 0 0 52 -1 0 13 0.0000 4 90 90 2025 2520 c\001
4 0 0 52 -1 0 13 0.0000 4 135 105 2025 2070 b\001
4 0 0 52 -1 0 13 0.0000 4 90 90 2025 1620 a\001
4 0 0 52 -1 0 10 0.0000 4 105 90 2655 2925 2\001
4 0 0 52 -1 0 10 0.0000 4 105 90 4005 2925 8\001
