%!PS-Adobe-3.0 EPSF-3.0
%%Title: density-degree-cluster.fig
%%Creator: fig2dev Version 3.2 Patchlevel 5e
%%CreationDate: Mon Jul 25 16:34:39 2016
%%BoundingBox: 0 0 361 118
%Magnification: 1.0000
%%EndComments
%%BeginProlog
/$F2psDict 200 dict def
$F2psDict begin
$F2psDict /mtrx matrix put
/col-1 {0 setgray} bind def
/col0 {0.000 0.000 0.000 srgb} bind def
/col1 {0.000 0.000 1.000 srgb} bind def
/col2 {0.000 1.000 0.000 srgb} bind def
/col3 {0.000 1.000 1.000 srgb} bind def
/col4 {1.000 0.000 0.000 srgb} bind def
/col5 {1.000 0.000 1.000 srgb} bind def
/col6 {1.000 1.000 0.000 srgb} bind def
/col7 {1.000 1.000 1.000 srgb} bind def
/col8 {0.000 0.000 0.560 srgb} bind def
/col9 {0.000 0.000 0.690 srgb} bind def
/col10 {0.000 0.000 0.820 srgb} bind def
/col11 {0.530 0.810 1.000 srgb} bind def
/col12 {0.000 0.560 0.000 srgb} bind def
/col13 {0.000 0.690 0.000 srgb} bind def
/col14 {0.000 0.820 0.000 srgb} bind def
/col15 {0.000 0.560 0.560 srgb} bind def
/col16 {0.000 0.690 0.690 srgb} bind def
/col17 {0.000 0.820 0.820 srgb} bind def
/col18 {0.560 0.000 0.000 srgb} bind def
/col19 {0.690 0.000 0.000 srgb} bind def
/col20 {0.820 0.000 0.000 srgb} bind def
/col21 {0.560 0.000 0.560 srgb} bind def
/col22 {0.690 0.000 0.690 srgb} bind def
/col23 {0.820 0.000 0.820 srgb} bind def
/col24 {0.500 0.190 0.000 srgb} bind def
/col25 {0.630 0.250 0.000 srgb} bind def
/col26 {0.750 0.380 0.000 srgb} bind def
/col27 {1.000 0.500 0.500 srgb} bind def
/col28 {1.000 0.630 0.630 srgb} bind def
/col29 {1.000 0.750 0.750 srgb} bind def
/col30 {1.000 0.880 0.880 srgb} bind def
/col31 {1.000 0.840 0.000 srgb} bind def
/col32 {0.400 0.400 0.400 srgb} bind def

end

/cp {closepath} bind def
/ef {eofill} bind def
/gr {grestore} bind def
/gs {gsave} bind def
/sa {save} bind def
/rs {restore} bind def
/l {lineto} bind def
/m {moveto} bind def
/rm {rmoveto} bind def
/n {newpath} bind def
/s {stroke} bind def
/sh {show} bind def
/slc {setlinecap} bind def
/slj {setlinejoin} bind def
/slw {setlinewidth} bind def
/srgb {setrgbcolor} bind def
/rot {rotate} bind def
/sc {scale} bind def
/sd {setdash} bind def
/ff {findfont} bind def
/sf {setfont} bind def
/scf {scalefont} bind def
/sw {stringwidth} bind def
/tr {translate} bind def
/tnt {dup dup currentrgbcolor
  4 -2 roll dup 1 exch sub 3 -1 roll mul add
  4 -2 roll dup 1 exch sub 3 -1 roll mul add
  4 -2 roll dup 1 exch sub 3 -1 roll mul add srgb}
  bind def
/shd {dup dup currentrgbcolor 4 -2 roll mul 4 -2 roll mul
  4 -2 roll mul srgb} bind def
 /DrawEllipse {
	/endangle exch def
	/startangle exch def
	/yrad exch def
	/xrad exch def
	/y exch def
	/x exch def
	/savematrix mtrx currentmatrix def
	x y tr xrad yrad sc 0 0 1 startangle endangle arc
	closepath
	savematrix setmatrix
	} def

/$F2psBegin {$F2psDict begin /$F2psEnteredState save def} def
/$F2psEnd {$F2psEnteredState restore end} def

/pageheader {
save
newpath 0 118 moveto 0 0 lineto 361 0 lineto 361 118 lineto closepath clip newpath
-41.6 298.6 translate
1 -1 scale
$F2psBegin
10 setmiterlimit
0 slj 0 slc
 0.06299 0.06299 sc
} bind def
/pagefooter {
$F2psEnd
restore
} bind def
%%EndProlog
pageheader
%
% Fig objects follow
%
% 
% here starts figure with depth 58
% Polyline
0 slj
0 slc
7.500 slw
n 4050 3780 m 6300 3780 l 6300 3870 l 4050 3870 l
 cp gs col11 1.00 shd ef gr gs col11 s gr 
% Polyline
n 4050 4230 m 6300 4230 l 6300 4320 l 4050 4320 l
 cp gs col11 1.00 shd ef gr gs col11 s gr 
% Polyline
n 900 3780 m 3150 3780 l 3150 3870 l 900 3870 l
 cp gs col11 1.00 shd ef gr gs col11 s gr 
% Polyline
n 2025 4230 m 3150 4230 l 3150 4320 l 2025 4320 l
 cp gs col11 1.00 shd ef gr gs col11 s gr 
% Polyline
n 900 3330 m 2025 3330 l 2025 3420 l 900 3420 l
 cp gs col11 1.00 shd ef gr gs col11 s gr 
% here ends figure;
% 
% here starts figure with depth 55
/Times-Roman ff 222.25 scf sf
1935 3060 m
gs 1 -1 sc (C) col0 sh gr
/Times-Roman ff 222.25 scf sf
5085 3060 m
gs 1 -1 sc (C') col0 sh gr
% Polyline
0 slj
0 slc
7.500 slw
gs  clippath
3014 4530 m 3165 4530 l 3165 4470 l 3014 4470 l 3014 4470 l 3134 4500 l 3014 4530 l cp
eoclip
n 900 4500 m
 3150 4500 l gs col11 1.00 shd ef gr gs col0 s gr gr

% arrowhead
n 3014 4530 m 3134 4500 l 3014 4470 l 3014 4530 l  cp gs 0.00 setgray ef gr  col0 s
% Polyline
n 1350 4500 m
 1350 4455 l gs col11 1.00 shd ef gr gs col0 s gr 
% Polyline
n 1800 4500 m
 1800 4455 l gs col11 1.00 shd ef gr gs col0 s gr 
% Polyline
n 2250 4500 m
 2250 4455 l gs col11 1.00 shd ef gr gs col0 s gr 
% Polyline
n 2700 4500 m
 2700 4455 l gs col11 1.00 shd ef gr gs col0 s gr 
% Polyline
gs  clippath
6164 4530 m 6315 4530 l 6315 4470 l 6164 4470 l 6164 4470 l 6284 4500 l 6164 4530 l cp
eoclip
n 4050 4500 m
 6300 4500 l gs col11 1.00 shd ef gr gs col0 s gr gr

% arrowhead
n 6164 4530 m 6284 4500 l 6164 4470 l 6164 4530 l  cp gs 0.00 setgray ef gr  col0 s
% Polyline
n 4500 4500 m
 4500 4455 l gs col11 1.00 shd ef gr gs col0 s gr 
% Polyline
n 4950 4500 m
 4950 4455 l gs col11 1.00 shd ef gr gs col0 s gr 
% Polyline
n 5400 4500 m
 5400 4455 l gs col11 1.00 shd ef gr gs col0 s gr 
% Polyline
n 5850 4500 m
 5850 4455 l gs col11 1.00 shd ef gr gs col0 s gr 
% Ellipse
n 900 3375 45 45 0 360 DrawEllipse gs 0.00 setgray ef gr gs col0 s gr

% Ellipse
n 900 3825 45 45 0 360 DrawEllipse gs 0.00 setgray ef gr gs col0 s gr

% Ellipse
n 2025 3825 45 45 0 360 DrawEllipse gs 0.00 setgray ef gr gs col0 s gr

% Ellipse
n 2025 4275 45 45 0 360 DrawEllipse gs 0.00 setgray ef gr gs col0 s gr

% Ellipse
n 4050 3825 45 45 0 360 DrawEllipse gs 0.00 setgray ef gr gs col0 s gr

% Ellipse
n 4050 4275 45 45 0 360 DrawEllipse gs 0.00 setgray ef gr gs col0 s gr

% Polyline
 [60] 0 sd
n 900 3375 m
 3150 3375 l gs col11 1.00 shd ef gr gs col0 s gr  [] 0 sd
% Polyline
 [60] 0 sd
n 900 4275 m
 3150 4275 l gs col11 1.00 shd ef gr gs col0 s gr  [] 0 sd
% Polyline
 [60] 0 sd
n 4050 3825 m
 6300 3825 l gs col11 1.00 shd ef gr gs col0 s gr  [] 0 sd
% Polyline
 [60] 0 sd
n 4050 4275 m
 6300 4275 l gs col11 1.00 shd ef gr gs col0 s gr  [] 0 sd
% Polyline
 [60] 0 sd
n 900 3825 m
 3150 3825 l gs col11 1.00 shd ef gr gs col0 s gr  [] 0 sd
% Polyline
 [60] 0 sd
n 4050 3375 m
 6300 3375 l gs col11 1.00 shd ef gr gs col0 s gr  [] 0 sd
% Polyline
n 900 3375 m
 900 3825 l gs 0.00 setgray ef gr gs col0 s gr 
% Polyline
n 2025 3825 m
 2025 4275 l gs 0.00 setgray ef gr gs col0 s gr 
% Polyline
n 4050 3825 m
 4050 4275 l gs 0.00 setgray ef gr gs col0 s gr 
/Times-Roman ff 206.38 scf sf
675 3420 m
gs 1 -1 sc (a) col0 sh gr
/Times-Roman ff 206.38 scf sf
675 3870 m
gs 1 -1 sc (b) col0 sh gr
/Times-Roman ff 158.75 scf sf
1305 4725 m
gs 1 -1 sc (2) col0 sh gr
/Times-Roman ff 158.75 scf sf
2655 4725 m
gs 1 -1 sc (8) col0 sh gr
/Times-Roman ff 206.38 scf sf
2880 4725 m
gs 1 -1 sc (time) col0 sh gr
/Times-Roman ff 206.38 scf sf
3825 3420 m
gs 1 -1 sc (a) col0 sh gr
/Times-Roman ff 206.38 scf sf
3825 3870 m
gs 1 -1 sc (b) col0 sh gr
/Times-Roman ff 158.75 scf sf
4455 4725 m
gs 1 -1 sc (2) col0 sh gr
/Times-Roman ff 158.75 scf sf
5805 4725 m
gs 1 -1 sc (8) col0 sh gr
/Times-Roman ff 206.38 scf sf
5985 4725 m
gs 1 -1 sc (time) col0 sh gr
% here ends figure;
% 
% here starts figure with depth 50
% Polyline
0 slj
0 slc
7.500 slw
n 900 3600 m
 2025 3600 l gs col7 0.00 shd ef gr gs col0 s gr 
% Polyline
n 2025 4050 m
 3150 4050 l gs col7 0.00 shd ef gr gs col0 s gr 
% Polyline
n 4050 4050 m
 6300 4050 l gs col7 0.00 shd ef gr gs col0 s gr 
/Times-Roman ff 206.38 scf sf
675 4320 m
gs 1 -1 sc (c) col0 sh gr
/Times-Roman ff 206.38 scf sf
3825 4320 m
gs 1 -1 sc (c) col0 sh gr
% here ends figure;
pagefooter
showpage
%%Trailer
%EOF
