%!PS-Adobe-3.0 EPSF-3.0
%%BoundingBox: 64 53 337 118
%%HiResBoundingBox: 64.600000 53.900000 336.200000 117.100000
%.....................................
%%Creator: GPL Ghostscript 871 (epswrite)
%%CreationDate: 2012/01/28 17:04:39
%%DocumentData: Clean7Bit
%%LanguageLevel: 2
%%EndComments
%%BeginProlog
% This copyright applies to everything between here and the %%EndProlog:
% Copyright (C) 2010 Artifex Software, Inc.  All rights reserved.
%%BeginResource: procset GS_epswrite_2_0_1001 1.001 0
/GS_epswrite_2_0_1001 80 dict dup begin
/PageSize 2 array def/setpagesize{ PageSize aload pop 3 index eq exch
4 index eq and{ pop pop pop}{ PageSize dup  1
5 -1 roll put 0 4 -1 roll put dup null eq {false} {dup where} ifelse{ exch get exec}
{ pop/setpagedevice where
{ pop 1 dict dup /PageSize PageSize put setpagedevice}
{ /setpage where{ pop PageSize aload pop pageparams 3 {exch pop} repeat
setpage}if}ifelse}ifelse}ifelse} bind def
/!{bind def}bind def/#{load def}!/N/counttomark #
/rG{3{3 -1 roll 255 div}repeat setrgbcolor}!/G{255 div setgray}!/K{0 G}!
/r6{dup 3 -1 roll rG}!/r5{dup 3 1 roll rG}!/r3{dup rG}!
/w/setlinewidth #/J/setlinecap #
/j/setlinejoin #/M/setmiterlimit #/d/setdash #/i/setflat #
/m/moveto #/l/lineto #/c/rcurveto #
/p{N 2 idiv{N -2 roll rlineto}repeat}!
/P{N 0 gt{N -2 roll moveto p}if}!
/h{p closepath}!/H{P closepath}!
/lx{0 rlineto}!/ly{0 exch rlineto}!/v{0 0 6 2 roll c}!/y{2 copy c}!
/re{4 -2 roll m exch dup lx exch ly neg lx h}!
/^{3 index neg 3 index neg}!
/f{P fill}!/f*{P eofill}!/s{H stroke}!/S{P stroke}!
/q/gsave #/Q/grestore #/rf{re fill}!
/Y{P clip newpath}!/Y*{P eoclip newpath}!/rY{re Y}!
/|={pop exch 4 1 roll 1 array astore cvx 3 array astore cvx exch 1 index def exec}!
/|{exch string readstring |=}!
/+{dup type/nametype eq{2 index 7 add -3 bitshift 2 index mul}if}!
/@/currentfile #/${+ @ |}!
/B{{2 copy string{readstring pop}aload pop 4 array astore cvx
3 1 roll}repeat pop pop true}!
/Ix{[1 0 0 1 11 -2 roll exch neg exch neg]exch}!
/,{true exch Ix imagemask}!/If{false exch Ix imagemask}!/I{exch Ix image}!
/Ic{exch Ix false 3 colorimage}!
/F{/Columns counttomark 3 add -2 roll/Rows exch/K -1/BlackIs1 true>>
/CCITTFaxDecode filter}!/FX{<</EndOfBlock false F}!
/X{/ASCII85Decode filter}!/@X{@ X}!/&2{2 index 2 index}!
/@F{@ &2<<F}!/@C{@X &2 FX}!
/$X{+ @X |}!/&4{4 index 4 index}!/$F{+ @ &4<<F |}!/$C{+ @X &4 FX |}!
/IC{3 1 roll 10 dict begin 1{/ImageType/Interpolate/Decode/DataSource
/ImageMatrix/BitsPerComponent/Height/Width}{exch def}forall
currentdict end image}!
/~{@ read {pop} if}!
end def
%%EndResource
/pagesave null def
%%EndProlog
%%Page: 1 1
%%BeginPageSetup
GS_epswrite_2_0_1001 begin
/pagesave save store 197 dict begin
0.1 0.1 scale
%%EndPageSetup
gsave mark
Q q
0 0 250000 250000 re
Y
5 w
K
806 620 31.5 0 P
3290 620 -31.5 0 P
770 620 S
646 615 21 4 /3S
$C
4qID~>
,
674 600 17 43 /6S
$C
,Tm'ds8W-!s-F.@R>;m@If~>
,
699 599 34 44 /3W
$C
23%r'%\5X)j2)<u^Zk'1J,ZoQs8W-!s8VJ_s8Qk\g>99H(eYmM:r7r$~>
,
733 599 3W ,
806 673 31.5 0 P
3290 673 -31.5 0 P
770 673 S
679 668 3S ,
699 652 35 44 /6W
$C
2$jBqS07(D'Aa:H#WJZ`e,TIHX4Gk>$!:Ud'l"Rbl-UTa#WJZ`l2Ue`CO4^e@4ZT(6OF59~>
,
733 652 3W ,
806 725.5 31.5 0 P
3290 725.5 -31.5 0 P
770 725.5 S
679 721 3S ,
699 705 35 44 /4A
$C
22__[-UH4U05uPcT2!a`He7T^qXqU=['7F,Z=C&h$n`Au*WOE]DtUNIgIhr,MR@1;L'd~>
,
733 705 3W ,
806 778.5 31.5 0 P
3290 778.5 -31.5 0 P
770 778.5 S
679 774 3S ,
699 759 35 43 /7A
$C
.M)RZs3Cmfr0V$lmIpMQmIpMQmJH;FpY5/kn_X9>^V/P~>
,
733 758 3W ,
806 831 31.5 0 P
3290 831 -31.5 0 P
770 831 S
679 826 3S ,
699 811 34 43 /4E
$C
4;jd(Qp5fN^"]dYfPna4iOE=NL>hOS^UAOiqu,+3CMbUV[OTh+@7(A~>
,
733 810 3W ,
806 884 31.5 0 P
3290 884 -31.5 0 P
770 884 S
733 863 3W ,
806 937 31.5 0 P
3290 937 -31.5 0 P
770 937 S
699 917 4E ,
733 916 3W ,
806 989.5 31.5 0 P
3290 989.5 -31.5 0 P
770 989.5 S
699 970 7A ,
733 969 3W ,
806 1042.5 31.5 0 P
3290 1042.5 -31.5 0 P
770 1042.5 S
699 1022 4A ,
733 1022 3W ,
806 1095 31.5 0 P
3290 1095 -31.5 0 P
770 1095 S
699 1074 6W ,
733 1074 3W ,
806 1148 31.5 0 P
3290 1148 -31.5 0 P
770 1148 S
674 1128 6S ,
699 1127 3W ,
733 1127 3W ,
805 620 0 31.5 P
805 1148 0 -31.5 P
805 560 S
793 539 3W ,
1053.5 620 0 31.5 P
1053.5 1148 0 -31.5 P
1053.5 560 S
1008 539 35 44 /7G
$C
2%'Ns&9R0a'Aa:<PNfbDGdm_=;rkC=Bjl_7CKWS'fO25hs7ZK6."D-0~>
,
1041 539 3W ,
1075 539 3W ,
1302 620 0 31.5 P
1302 1148 0 -31.5 P
1302 560 S
1248 540 6S ,
1273 539 3W ,
1306 539 3W ,
1340 539 3W ,
1550.5 620 0 31.5 P
1550.5 1148 0 -31.5 P
1550.5 560 S
1496 540 6S ,
1521 539 7G ,
1555 539 3W ,
1588 539 3W ,
1799 620 0 31.5 P
1799 1148 0 -31.5 P
1799 560 S
1737 540 4E ,
1770 539 3W ,
1803 539 3W ,
1837 539 3W ,
2047.5 620 0 31.5 P
2047.5 1148 0 -31.5 P
2047.5 560 S
1985 540 4E ,
2018 539 7G ,
2052 539 3W ,
2085 539 3W ,
2296 620 0 31.5 P
2296 1148 0 -31.5 P
2296 560 S
2234 539 34 44 /4K
$C
3f*tLK;VJ#ZZne#2lEeH?]XK;@:la`Yct@m+Q2(jDLDKapAVZrg>Sl<[;*R2"T~>
,
2267 539 3W ,
2300 539 3W ,
2334 539 3W ,
2544.5 620 0 31.5 P
2544.5 1148 0 -31.5 P
2544.5 560 S
2482 539 4K ,
2515 539 7G ,
2549 539 3W ,
2582 539 3W ,
2793 620 0 31.5 P
2793 1148 0 -31.5 P
2793 560 S
2731 540 7A ,
2764 539 3W ,
2797 539 3W ,
2831 539 3W ,
3041.5 620 0 31.5 P
3041.5 1148 0 -31.5 P
3041.5 560 S
2979 540 7A ,
3012 539 7G ,
3046 539 3W ,
3079 539 3W ,
3290 620 0 31.5 P
3290 1148 0 -31.5 P
3290 560 S
3228 539 7G ,
3261 539 3W ,
3294 539 3W ,
3328 539 3W ,
806 620 2484 528 re
S
2.5 w
806 877.5 0.5 0 0.5 6.5 0.5 0 0.5 0 0.5 0 0.5 0 0.5 0 
0.5 0 0.5 0 0.5 0 0.5 0 0.5 0 0.5 0 0.5 0 0.5 0 
0.5 6.5 0.5 1.5 0.5 -6.5 0.5 -1.5 0.5 12 0.5 0 0.5 -12 0.5 6.5 
0.5 0 0.5 -6.5 0.5 2.5 0.5 0 0.5 -2.5 0.5 0 0.5 0 0.5 0 
0.5 0 0.5 0 0.5 0 0.5 0 0.5 0 0.5 0 0.5 -2.5 0.5 0 
0.5 2.5 0.5 0 0.5 0 0.5 0 0.5 0 0.5 0 0.5 0 0.5 0 
0.5 0 0.5 0 0.5 0 0.5 0 0.5 0 0.5 4 0.5 5 0.5 -9 
0.5 0 0.5 0 0.5 8 0.5 6.5 0.5 -12 0.5 1.5 0.5 9 0.5 -13 
0.5 0 0.5 0 0.5 0 0.5 0 0.5 0 0.5 0 0.5 0 0.5 0 
0.5 0 0.5 0 0.5 0 0.5 0 0.5 0 0.5 -1.5 0.5 -1 0.5 1 
0.5 -13 0.5 0 0.5 6.5 0.5 0 0 5.5 0.5 -32 0.5 3 0.5 31.5 
0.5 -6.5 0.5 0 0.5 6.5 0.5 0 0.5 -6.5 0.5 0 0.5 1 0.5 -1 
0.5 1 0.5 -1 0.5 6.5 0.5 0 0.5 0 0.5 0 0.5 0 0.5 0 
0.5 0 S
857.5 884 0.5 0 0.5 0 0.5 0 0.5 0 0.5 0 0.5 0 0.5 0 
0.5 16 0.5 -12 0.5 2.5 0.5 -6.5 0.5 0 0.5 0 0.5 0 0.5 0 
0.5 0 0.5 0 0.5 0 0.5 0 0.5 0 0.5 0 0.5 0 0.5 0 
0.5 0 0.5 0 0.5 0 0.5 0 0.5 0 0.5 0 0.5 0 0.5 0 
0.5 0 0.5 0 0.5 0 0.5 0 0.5 0 0.5 0 0.5 0 0.5 0 
0.5 0 0.5 0 0.5 0 0.5 0 0.5 0 0.5 0 0.5 0 0.5 0 
0.5 0 0.5 0 0.5 0 0.5 0 0.5 0 0.5 0 0.5 0 0.5 0 
0.5 0 0.5 12 0.5 0 0.5 -12 0.5 0 0.5 0 0.5 0 0.5 0 
0.5 0 0.5 0 0.5 0 0.5 0 0.5 0 0.5 0 0.5 0 0.5 0 
0.5 0 0.5 0 0.5 -2.5 0.5 0 0.5 -4 0.5 4 0.5 -4 0.5 5 
0.5 -4 0.5 -2.5 0.5 1.5 0.5 0 0.5 5 0.5 1.5 0.5 -2.5 0.5 0 
0.5 2.5 0.5 0 0.5 0 0.5 -2.5 0.5 -4 0.5 0 0.5 1 0.5 5.5 
0.5 0 0.5 0 0.5 0 0.5 0 0.5 0 0.5 0 0.5 0 0.5 -1.5 
0.5 0 S
909.5 882.5 0.5 1.5 0.5 0 0.5 0 0.5 -9 0.5 0 0.5 2.5 0.5 0 
0.5 6.5 0.5 -5.5 0.5 0 0.5 5.5 0.5 0 0.5 -5.5 0.5 0 0.5 5.5 
0.5 0 0.5 0 0.5 0 0.5 0 0.5 -4 0.5 4 0.5 0 0.5 0 
0.5 0 0.5 0 0.5 0 0.5 0 0.5 0 0.5 0 0.5 0 0.5 0 
0.5 0 0.5 0 0.5 0 0.5 2.5 0.5 4 0.5 -2.5 0.5 12 0.5 -1.5 
0.5 -12 0.5 0 0 5.5 0.5 16 0.5 -7 0.5 -15.5 0.5 -1.5 0.5 8 
0.5 0 0.5 -8 0.5 0 0.5 0 0.5 1.5 0.5 0 0.5 -1.5 0.5 0 
0.5 0 0.5 0 0.5 0 0.5 0 0.5 0 0.5 0 0.5 0 0.5 0 
0.5 0 0.5 0 0.5 0 0.5 0 0.5 0 0.5 0 0.5 -1.5 0.5 0 
0.5 1.5 0.5 0 0.5 0 0.5 0 0.5 0 0.5 0 0.5 0 0.5 0 
0.5 -5.5 0.5 0 0.5 5.5 0.5 -5.5 0.5 -11.5 0.5 13 0.5 -1.5 0.5 4 
0.5 0 0.5 -6.5 0.5 -2.5 0.5 8 0.5 2.5 0.5 -5.5 0.5 0 0.5 4 
0.5 0 0.5 1.5 0.5 0 0.5 -6.5 0.5 0 0.5 0 0.5 0 0.5 4 
0.5 2.5 S
961 884 0.5 0 0.5 0 0.5 0 0.5 -4 0.5 0 0.5 4 0.5 0 
0.5 -21 0.5 0 0.5 12 0.5 0 0.5 6.5 0.5 1 0.5 1.5 0.5 0 
0.5 0 0.5 0 0.5 0 0.5 0 0.5 0 0.5 0 0.5 0 0.5 0 
0.5 0 0.5 0 0.5 0 0.5 1.5 0.5 9 0.5 -10.5 0.5 18.5 0.5 -10.5 
0.5 -8 0.5 0 0.5 0 0.5 2.5 0.5 0 0.5 -2.5 0.5 9 0.5 0 
0.5 -3.5 0.5 10.5 0.5 -5.5 0.5 -10.5 0.5 1.5 0.5 0 0.5 2.5 0.5 5 
0.5 -6.5 0.5 -2.5 0.5 0 0.5 0 0.5 0 0.5 0 0.5 0 0.5 0 
0.5 0 0.5 0 0.5 0 0.5 0 0.5 0 0.5 0 0.5 0 0.5 0 
0.5 0 0.5 0 0.5 -1.5 0.5 0 0.5 1.5 0.5 -4 0.5 1.5 0.5 1 
0.5 -15.5 0.5 0 0.5 17 0.5 0 0.5 0 0.5 0 0.5 -2.5 0.5 0 
0.5 2.5 0.5 0 0.5 0 0.5 -9 0.5 0 0.5 9 0.5 0 0.5 0 
0.5 0 0.5 0 0.5 -1.5 0.5 0 0.5 1.5 0.5 0 0.5 0 0.5 0 
0.5 0 0.5 0 0.5 0 0.5 0 0.5 0 0.5 0 0.5 0 0.5 0 
0.5 0 S
1013 884 0.5 0 0.5 0 0.5 0 0.5 0 0.5 0 0.5 0 0.5 0 
0.5 0 0.5 0 0.5 0 0.5 4 0.5 4 0.5 -4 0.5 -4 0.5 0 
0.5 0 0.5 0 0.5 13 0.5 0 0.5 -13 0.5 0 0.5 0 0.5 0 
0.5 0 0.5 0 0.5 0 0.5 0 0.5 0 0.5 0 0.5 0 0.5 0 
0.5 -4 0.5 4 0.5 4 0.5 -4 0.5 0 0.5 0 0.5 0 0.5 0 
0.5 0 0.5 0 0.5 0 0.5 0 0.5 0 0.5 0 0.5 0 0.5 0 
0.5 -4 0.5 4 0.5 4 0.5 -4 0.5 0 0.5 0 0.5 0 0.5 0 
0.5 0 0.5 0 0.5 0 0.5 0 0.5 0 0.5 0 0.5 0 0.5 0 
0.5 0 0.5 5.5 0.5 6.5 0.5 -12 0.5 0 0.5 0 0.5 0 0.5 0 
0.5 0 0.5 0 0.5 0 0.5 0 0.5 8 0.5 -5.5 0.5 -1 0.5 -1.5 
0.5 0 0.5 0 0.5 0 0.5 0 0.5 0 0.5 0 0.5 0 0.5 0 
0.5 0 0.5 0 0.5 0 0.5 0 0.5 0 0.5 -2.5 0.5 0 0.5 1 
0.5 0 0.5 1.5 0.5 0 0.5 0 0.5 0 0.5 0 0.5 0 0.5 0 
0.5 -12 S
1065 872 0.5 0 0.5 12 0.5 -5.5 0.5 0 0.5 5.5 0.5 0 0.5 0 
0.5 0 0.5 0 0.5 0 0.5 0 0.5 0 0.5 0 0.5 0 0.5 0 
0.5 0 0.5 0 0.5 0 0.5 0 0.5 0 0.5 0 0.5 0 0.5 0 
0.5 5.5 0.5 -5.5 0.5 0 0.5 0 0.5 13 0.5 22.5 0.5 -19.5 0.5 -16 
0.5 1.5 0.5 -1.5 0.5 0 0.5 0 0.5 0 0.5 0 0.5 0 0.5 0 
0.5 0 0.5 0 0.5 0 0.5 0 0.5 0 0.5 0 0.5 0 0.5 0 
0.5 0 0.5 0 0.5 0 0.5 0 0.5 0 0.5 0 0.5 0 0.5 -1.5 
0.5 0 0.5 1.5 0.5 -5.5 0.5 0 0.5 5.5 0.5 0 0.5 -12 0 9.5 
0.5 -4 0.5 6.5 0.5 0 0.5 0 0.5 0 0.5 0 0.5 0 0.5 0 
0.5 0 0.5 0 0.5 0 0.5 -5.5 0.5 -3.5 0.5 5 0.5 4 0.5 0 
0.5 0 0.5 0 0.5 0 0.5 0 0.5 0 0.5 0 0.5 0 0.5 0 
0.5 0 0.5 -1.5 0.5 1.5 0.5 0 0.5 0 0.5 0 0.5 0 0.5 0 
0.5 0 0.5 0 0.5 1.5 0.5 -1.5 0.5 0 0.5 0 0.5 0 0.5 0 
0.5 14.5 S
1116.5 898.5 0.5 0 0.5 43.5 0.5 0 0.5 -58 0.5 0 0.5 0 0.5 0 
0.5 0 0.5 0 0.5 0 0.5 0 0.5 0 0.5 0 0.5 0 0.5 0 
0.5 0 0.5 -34.5 0.5 34.5 0.5 -34.5 0.5 34.5 0.5 0 0.5 -21 0.5 0 
0.5 21 0.5 0 0.5 0 0.5 -1.5 0.5 -1 0.5 1 0.5 1.5 0.5 0 
0.5 0 0.5 0 0.5 0 0.5 0 0.5 0 0.5 0 0.5 0 0.5 0 
0.5 0 0.5 0 0.5 0 0.5 0 0.5 0 0.5 0 0.5 0 0.5 5.5 
0.5 -9.5 0.5 4 0.5 9 0.5 -9 0.5 4 0.5 -4 0.5 0 0.5 0 
0.5 0 0.5 0 0.5 0 0.5 0 0.5 0 0.5 0 0.5 0 0.5 -4 
0.5 4 0.5 0 0.5 0 0.5 0 0.5 -4 0.5 0 0.5 4 0.5 -2.5 
0.5 0 0.5 2.5 0.5 0 0.5 0 0.5 0 0.5 0 0.5 0 0.5 2.5 
0.5 -2.5 0.5 0 0.5 0 0.5 0 0.5 0 0.5 0 0.5 2.5 0.5 -2.5 
0.5 4 0.5 0 0.5 -4 0.5 0 0.5 0 0.5 0 0.5 0 0.5 0 
0.5 0 0.5 0 0.5 0 0.5 0 0.5 0 0.5 0 0.5 0 0.5 0 
0.5 0 S
1168.5 884 0.5 0 0.5 0 0.5 0 0.5 -4 0.5 0 0.5 4 0.5 -1.5 
0.5 0 0.5 1.5 0.5 -16 0.5 0 0.5 13.5 0.5 0 0.5 2.5 0.5 -5.5 
0.5 5.5 0.5 0 0.5 0 0.5 0 0.5 0 0.5 0 0.5 5.5 0.5 -5.5 
0.5 0 0.5 0 0.5 0 0.5 1.5 0.5 0 0.5 -1.5 0.5 0 0.5 0 
0.5 0 0.5 0 0.5 0 0.5 1.5 0.5 0 0.5 -1.5 0.5 0 0.5 1.5 
0.5 0 0.5 -1.5 0.5 0 0.5 0 0.5 0 0.5 0 0.5 0 0.5 0 
0.5 0 0.5 0 0.5 0 0.5 0 0.5 0 0.5 0 0.5 0 0.5 0 
0.5 0 0.5 -1.5 0.5 0 0.5 0 0.5 0 0.5 0 0.5 0 0.5 0 
0.5 0 0.5 0 0.5 1.5 0.5 0 0.5 0 0.5 0 0.5 0 0.5 0 
0.5 0 0.5 0 0.5 0 0.5 0 0.5 0 0.5 1.5 0.5 1 0.5 -2.5 
0.5 0 0.5 0 0.5 0 0.5 0 0.5 0 0.5 0 0.5 0 0.5 0 
0.5 2.5 0.5 -1 0.5 0 0.5 0 0.5 0 0.5 0 0.5 0 0.5 -1.5 
0.5 0 0.5 0 0.5 0 0.5 0 0.5 0 0.5 0 0.5 0 0.5 0 
0.5 0 S
1220.5 884 0.5 0 0.5 -2.5 0.5 2.5 0.5 0 0.5 0 0.5 0 0.5 -5.5 
0.5 -1 0.5 5 0.5 1.5 0.5 -9 0.5 0 0.5 9 0.5 -2.5 0.5 2.5 
0.5 0 0.5 0 0.5 -9 0.5 5 0.5 -4 0.5 2.5 0.5 0 0.5 4 
0.5 0 0.5 1.5 0.5 0 0.5 1.5 0.5 0 0.5 0 0.5 0 0.5 0 
0.5 0 0.5 0 0.5 0 0.5 0 0.5 0 0.5 -1.5 0.5 0 0.5 0 
0.5 0 0.5 0 0.5 0 0.5 20 0.5 4 0.5 -24 0.5 0 0.5 0 
0.5 0 0.5 0 0.5 0 0.5 0 0.5 0 0.5 -6.5 0.5 2.5 0.5 2.5 
0.5 -7.5 0.5 -5.5 0.5 5.5 0.5 9 0.5 0 0.5 0 0.5 0 0.5 0 
0.5 0 0.5 0 0.5 0 0.5 0 0.5 0 0.5 0 0.5 0 0.5 0 
0.5 0 0.5 21 0.5 5.5 0.5 -25 0.5 -1.5 0.5 0 0.5 0 0.5 0 
0.5 0 0.5 0 0.5 0 0.5 0 0.5 0 0.5 0 0.5 0 0.5 2.5 
0.5 -2.5 0.5 0 0.5 0 0.5 0 0.5 0 0.5 0 0.5 0 0.5 0 
0.5 0 0.5 0 0.5 0 0.5 -10.5 0.5 0 0.5 0 0.5 0 0.5 8 
0.5 0 S
1272.5 881.5 0.5 0 0.5 2.5 0.5 0 0.5 0 0.5 0 0.5 -2.5 0.5 2.5 
0.5 0 0.5 0 0.5 0 0.5 -5.5 0.5 -1 0.5 5 0.5 1.5 0.5 -9 
0.5 0 0.5 9 0.5 -2.5 0.5 2.5 0.5 0 0.5 0 0.5 -9 0.5 5 
0.5 -4 0.5 2.5 0.5 0 0.5 4 0.5 1.5 0.5 0 0.5 0 0.5 0 
0.5 0 0.5 0 0.5 0 0.5 0 0.5 4 0.5 0 0.5 -2.5 0.5 0 
0.5 7.5 0.5 0 0.5 -7.5 0.5 0 0.5 -1.5 0.5 0 0.5 0 0.5 0 
0.5 0 0.5 0 0.5 0 0.5 1.5 0.5 0 0.5 -1.5 0.5 0 0.5 0 
0.5 18.5 0.5 -16 0.5 8 0.5 -10.5 0.5 10.5 0.5 6.5 0.5 -17 0.5 0 
0.5 0 0.5 0 0.5 0 0.5 0 0.5 0 0.5 1.5 0.5 0 0.5 19.5 
0.5 0 0.5 -5 0.5 5 0.5 -21 0.5 0 0.5 0 0.5 0 0.5 0 
0.5 0 0.5 0 0.5 0 0.5 0 0.5 0 0.5 0 0.5 0 0.5 0 
0.5 0 0.5 0 0.5 0 0.5 0 0.5 0 0.5 220.5 0.5 -220.5 0.5 0 
0.5 0 0.5 0 0.5 0 0.5 0 0.5 0 0.5 0 0.5 0 0.5 0 
0.5 0 S
1324.5 884 0.5 0 0.5 0 0.5 0 0.5 0 0.5 0 0.5 -1.5 0.5 1.5 
0.5 0 0.5 0 0.5 0 0.5 0 0.5 0 0.5 0 0.5 0 0.5 0 
0.5 0 0.5 0 0.5 0 0.5 1.5 0.5 1 0.5 -2.5 0.5 0 0.5 2.5 
0.5 0 0.5 20 0.5 0 0.5 -22.5 0.5 8 0.5 0 0.5 -8 0.5 0 
0.5 0 0.5 24 0.5 6.5 0.5 -17.5 0.5 -4 0.5 -6.5 0.5 -1 0.5 5 
0 1.5 0.5 2.5 0.5 -2.5 0.5 -8 0.5 0 0.5 0 0.5 0 0.5 0 
0.5 0 0.5 0 0.5 0 0.5 4 0.5 0 0.5 -4 0.5 0 0.5 0 
0.5 0 0.5 0 0.5 0 0.5 0 0.5 1.5 0.5 0 0.5 -1.5 0.5 0 
0.5 0 0.5 0 0.5 0 0.5 0 0.5 0 0.5 0 0.5 0 0.5 0 
0.5 0 0.5 0 0.5 0 0.5 0 0.5 -5.5 0.5 0 0.5 0 0.5 -11.5 
0.5 5 0.5 5.5 0.5 0 0.5 2.5 0.5 0 0.5 4 0.5 -13 0.5 0 
0.5 13 0.5 -9 0.5 -7 0.5 8 0.5 6.5 0.5 -5 0.5 0 0.5 -5.5 
0.5 -13 0.5 23.5 0.5 1.5 0.5 0 0.5 0 0.5 0 0.5 0 0.5 0 
0.5 0 S
1376 884 0.5 0 0.5 -2.5 0.5 2.5 0.5 -1.5 0.5 1.5 0.5 -6.5 0.5 6.5 
0.5 0 0.5 0 0.5 0 0.5 0 0.5 0 0.5 1.5 0.5 -1.5 0.5 0 
0.5 4 0.5 0 0.5 -4 0.5 0 0.5 0 0.5 0 0.5 0 0.5 0 
0.5 0 0.5 0 0.5 0 0.5 0 0.5 0 0.5 0 0.5 0 0.5 0 
0.5 0 0.5 0 0.5 0 0.5 0 0.5 0 0.5 4 0.5 0 0.5 -4 
0.5 0 0.5 0 0.5 13 0.5 5.5 0.5 -13 0.5 -1.5 0.5 1.5 0.5 1 
0.5 -1 0.5 11.5 0.5 4 0.5 -15.5 0.5 15.5 0.5 0 0.5 -17 0.5 0 
0.5 -1.5 0.5 -1 0.5 -1.5 0.5 0 0.5 0 0.5 0 0.5 0 0.5 0 
0.5 0 0.5 0 0.5 0 0.5 0 0.5 0 0.5 0 0.5 0 0.5 0 
0.5 0 0.5 0 0.5 0 0.5 0 0.5 0 0.5 0 0.5 0 0.5 -6.5 
0.5 -2.5 0.5 5 0.5 0 0.5 -8 0.5 8 0.5 1.5 0.5 0 0.5 -5.5 
0.5 2.5 0.5 4 0.5 -2.5 0.5 -8 0.5 12 0.5 0 0.5 0 0.5 0 
0.5 0 0.5 0 0.5 0 0.5 0 0.5 0 0.5 0 0.5 0 0.5 0 
0.5 0 S
1428 884 0.5 5.5 0.5 5 0.5 -4 0.5 -4 0.5 -2.5 0.5 0 0.5 0 
0.5 0 0.5 1.5 0.5 0 0.5 4 0.5 0 0.5 -5.5 0.5 0 0.5 0 
0.5 1.5 0.5 0 0.5 -1.5 0.5 0 0.5 8 0.5 0 0.5 -8 0.5 0 
0.5 10.5 0.5 1.5 0.5 15.5 0.5 -1 0.5 -25 0.5 0 0.5 -1.5 0.5 0 
0.5 5.5 0.5 0 0.5 -5.5 0.5 2.5 0.5 0 0.5 -1 0.5 4 0.5 3.5 
0.5 -1 0.5 1 0.5 -2.5 0.5 -6.5 0.5 0 0.5 0 0.5 0 0.5 0 
0.5 4 0.5 0 0.5 -1.5 0.5 0 0.5 -2.5 0.5 0 0.5 0 0.5 0 
0.5 0 0.5 0 0.5 0 0.5 0 0.5 0 0.5 0 0.5 0 0.5 0 
0.5 0 0.5 0 0.5 0 0.5 0 0.5 -2.5 0.5 2.5 0.5 -1.5 0.5 -30 
0.5 -8 0.5 -10.5 0.5 10.5 0.5 37 0.5 -4 0.5 -9.5 0.5 14.5 0.5 -5 
0.5 6.5 0.5 0 0.5 0 0.5 0 0.5 0 0.5 0 0.5 0 0.5 0 
0.5 0 0.5 0 0.5 0 0.5 0 0.5 0 0.5 9 0.5 7 0.5 -7 
0.5 1.5 0.5 0 0.5 -10.5 0.5 0 0.5 4 0.5 0 0.5 -4 0.5 2.5 
0.5 0 S
1480 886.5 0.5 -2.5 0.5 0 0.5 2.5 0.5 4 0.5 24 0.5 0 0.5 -5.5 
0.5 4 0.5 -21 0.5 -8 0.5 5.5 0.5 0 0.5 -5.5 0.5 0 0.5 0 
0.5 0 0.5 0 0.5 4 0.5 0 0.5 -4 0.5 6.5 0.5 0 0.5 -6.5 
0.5 2.5 0.5 4 0.5 -2.5 0.5 -4 0.5 0 0.5 8 0.5 1 0.5 1.5 
0.5 6.5 0.5 -6.5 0.5 -4 0.5 -2.5 0.5 -4 0.5 0 0.5 0 0.5 0 
0.5 0 0.5 0 0.5 0 0.5 0 0.5 0 0.5 0 0.5 0 0.5 0 
0.5 0 0.5 0 0.5 0 0.5 0 0.5 -5.5 0.5 0 0.5 5.5 0.5 0 
0.5 -9 0.5 -7 0.5 7 0.5 -8 0.5 1 0.5 -17 0.5 8 0.5 13 
0.5 6.5 0.5 3 0.5 -21.5 0.5 -18 0.5 13 0.5 17 0.5 6.5 0.5 0 
0.5 -1 0.5 4 0.5 2.5 0.5 0 0.5 0 0.5 0 0.5 0 0.5 0 
0.5 0 0.5 0 0.5 0 0.5 0 0.5 0 0.5 -6.5 0.5 -1.5 0.5 2.5 
0.5 9.5 0.5 -4 0.5 0 0.5 0 0.5 0 0.5 0 0.5 0 0.5 0 
0.5 0 0.5 0 0.5 1.5 0.5 0 0.5 5 0.5 0 0.5 -6.5 0.5 1.5 
0.5 -1.5 S
1532 884 0.5 0 0.5 2.5 0.5 -2.5 0.5 0 0.5 0 0.5 0 0.5 0 
0.5 0 0.5 5.5 0.5 11.5 0.5 -5 0.5 -1.5 0.5 -4 0.5 -5 0.5 4 
0.5 0 0.5 13 0.5 -1.5 0.5 -2.5 0.5 10.5 0.5 -13 0.5 -10.5 0.5 -1.5 
0.5 0 0.5 1.5 0.5 1 0.5 10.5 0.5 8 0.5 -9 0.5 -9.5 0.5 -2.5 
0.5 0 0.5 0 0.5 0 0.5 0 0.5 0 0.5 0 0.5 5.5 0.5 -5.5 
0.5 0 0.5 0 0.5 0 0.5 0 0.5 0 0.5 0 0.5 0 0.5 0 
0.5 0 0.5 0 0.5 0 0.5 0 0.5 0 0.5 -13 0.5 -24 0.5 -8 
0.5 14.5 0.5 26.5 0.5 -4 0.5 -2.5 0.5 5 0.5 0 0.5 -3.5 0.5 -20 
0.5 6.5 0.5 22.5 0.5 0 0.5 -8 0.5 0 0.5 6.5 0.5 0 0.5 -4 
0.5 0 0.5 5.5 0.5 -4 0.5 0 0.5 4 0.5 -6.5 0.5 -5.5 0.5 6.5 
0.5 -1 0.5 -1.5 0.5 6.5 0.5 -7.5 0.5 0 0.5 9 0.5 0 0.5 0 
0.5 0 0.5 0 0.5 0 0.5 0 0.5 0 0.5 0 0.5 0 0.5 0 
0.5 0 0.5 0 0.5 0 0.5 0 0.5 0 0.5 0 0.5 0 0.5 0 
0.5 0 S
1584 884 0.5 0 0.5 9 0.5 37 0.5 16 0.5 -55.5 0.5 -4 0.5 13.5 
0.5 6.5 0.5 -13.5 0.5 -6.5 0.5 0 0.5 -2.5 0.5 0 0.5 0 0.5 0 
0.5 0 0.5 0 0.5 0 0.5 0 0.5 5.5 0.5 7.5 0.5 -5 0.5 4 
0.5 0 0.5 -10.5 0.5 1 0.5 -1 0.5 -1.5 0.5 0 0.5 0 0.5 0 
0.5 0 0.5 0 0.5 -1.5 0.5 1.5 0.5 0 0.5 0 0.5 0 0.5 0 
0.5 0 0.5 0 0.5 0 0.5 0 0.5 0 0.5 0 0.5 0 0.5 -1.5 
0.5 -4 0.5 3 0.5 -8 0.5 0 0.5 10.5 0.5 -6.5 0.5 -34.5 0.5 -5 
0.5 34 0.5 5.5 0.5 0 0.5 1 0.5 -25 0.5 -26.5 0.5 20 0.5 -35.5 
0.5 -183.5 0.5 260 0.5 -4 0.5 0 0.5 0 0.5 0 0.5 0 0.5 0 
0.5 0 0.5 0 0.5 0 0.5 0 0.5 0 0.5 0 0.5 0 0.5 0 
0.5 0 0.5 0 0.5 0 0.5 0 0.5 0 0.5 0 0.5 8 0.5 5 
0.5 -10.5 0.5 5.5 0.5 -4 0.5 0 0.5 -4 0.5 0 0.5 0 0.5 0 
0.5 0 0.5 1.5 0.5 0 0.5 -1.5 0.5 0 0.5 0 0.5 0 0.5 6.5 
0.5 14.5 S
1636 905 0.5 -6.5 0.5 -2.5 0.5 8 0.5 -12 0.5 -8 0.5 1.5 0.5 5 
0.5 16 0.5 -4 0.5 -13 0.5 -1.5 0.5 -4 0.5 6.5 0.5 -6.5 0.5 0 
0.5 0 0.5 0 0.5 0 0.5 0 0.5 0 0.5 0 0.5 0 0.5 0 
0.5 0 0.5 0 0.5 0 0.5 0 0.5 -39.5 0.5 54 0.5 -14.5 0.5 -45 
0.5 -12 0.5 13.5 0.5 43.5 0.5 0 0.5 0 0.5 0 0.5 0 0.5 0 
0.5 0 0.5 0 0.5 0 0.5 0 0.5 0 0.5 0 0.5 0 0.5 0 
0.5 0 0.5 0 0.5 0 0.5 0 0.5 0 0.5 -9 0.5 -21.5 0.5 9.5 
0.5 21 0.5 -2.5 0.5 0 0.5 2.5 0.5 0 0.5 0 0.5 0 0.5 0 
0.5 0 0.5 0 0.5 0 0.5 0 0.5 -22.5 0.5 -8 0.5 30.5 0.5 0 
0.5 0 0.5 0 0.5 0 0.5 0 0.5 0 0.5 0 0.5 0 0.5 0 
0.5 0 0.5 0 0.5 0 0.5 0 0.5 10.5 0.5 -2.5 0.5 9 0.5 -5 
0.5 -8 0.5 2.5 0.5 -4 0.5 -2.5 0.5 0 0.5 10.5 0.5 0 0.5 -10.5 
0.5 0 0.5 0 0.5 0 0.5 0 0.5 1.5 0.5 0 0.5 -1.5 0.5 8 
0.5 0 S
1688 892 0.5 -8 0.5 0 0.5 0 0.5 4 0.5 0 0.5 -4 0.5 5.5 
0.5 0 0.5 -3 0.5 0 0.5 -2.5 0.5 0 0.5 0 0.5 1.5 0.5 0 
0.5 -1.5 0.5 0 0.5 0 0.5 -1.5 0.5 0 0.5 0 0.5 0 0.5 1.5 
0.5 -1.5 0.5 0 0.5 1.5 0.5 0 0.5 0 0.5 0 0.5 0 0.5 0 
0.5 0 0.5 0 0.5 0 0.5 0 0.5 0 0.5 -2.5 0.5 0 0.5 2.5 
0.5 0 0.5 0 0.5 0 0.5 0 0.5 0 0.5 -2.5 0.5 0 0.5 -12 
0.5 -18.5 0.5 33 0.5 -16 0.5 16 0.5 0 0.5 -9 0.5 9 0.5 0 
0.5 0 0.5 0 0.5 0 0.5 0 0.5 0 0.5 0 0.5 0 0.5 0 
0.5 0 0.5 9 0.5 0 0.5 -3.5 0.5 -1.5 0.5 -4 0.5 0 0.5 0 
0.5 0 0.5 0 0.5 0 0.5 0 0.5 0 0.5 0 0.5 0 0.5 0 
0.5 -4 0.5 0 0.5 0 0.5 4 0.5 4 0.5 -4 0.5 -4 0.5 4 
0.5 0 0.5 0 0.5 0 0.5 0 0.5 0 0.5 0 0.5 0 0.5 0 
0.5 0 0.5 0 0.5 0 0.5 22.5 0.5 4 0.5 -12 0.5 0 0.5 -13 
0.5 0 S
1740 885.5 0.5 4 0.5 1 0.5 -5 0.5 -1.5 0.5 0 0.5 0 0.5 0 
0.5 1.5 0.5 0 0.5 -1.5 0.5 0 0.5 0 0.5 0 0.5 0 0.5 1.5 
0.5 0 0.5 -1.5 0.5 0 0.5 0 0.5 0 0.5 0 0.5 0 0.5 0 
0.5 -1.5 0.5 1.5 0.5 0 0.5 0 0.5 0 0.5 0 0.5 -1.5 0.5 1.5 
0.5 -5.5 0.5 -10.5 0.5 -4 0.5 5.5 0.5 8 0.5 1 0.5 4 0.5 0 
0.5 -9 0.5 -9.5 0.5 11 0.5 9 0.5 0 0.5 0 0.5 0 0.5 0 
0.5 0 0.5 0 0.5 0 0.5 0 0.5 0 0.5 0 0.5 0 0.5 0 
0.5 0 0.5 0 0.5 0 0.5 2.5 0.5 0 0.5 -2.5 0.5 0 0.5 6.5 
0.5 0 0.5 -6.5 0.5 4 0.5 0 0.5 -1.5 0.5 9.5 0.5 -3 0.5 1.5 
0.5 4 0.5 -10.5 0.5 -4 0.5 6.5 0.5 4 0.5 -6.5 0.5 9 0.5 0 
0.5 -13 0.5 6.5 0.5 0 0.5 -6.5 0.5 0 0.5 0 0.5 0 0.5 0 
0.5 0 0.5 0 0.5 0 0.5 0 0.5 0 0.5 0 0.5 0 0.5 8 
0.5 -8 0.5 0 0.5 0 0.5 0 0.5 0 0.5 0 0.5 1.5 0.5 63 
0.5 -59 S
1792 889.5 0.5 9 0.5 2.5 0.5 -14.5 0.5 -2.5 0.5 5.5 0.5 3.5 0.5 -5 
0.5 -2.5 0.5 0 0.5 -1.5 0.5 0 0.5 0 0.5 0 0.5 0 0.5 0 
0.5 0 0.5 0 0.5 0 0.5 0 0.5 0 0.5 0 0.5 0 0.5 -5.5 
0.5 -1 0.5 -5.5 0.5 1.5 0.5 8 0.5 0 0.5 -17.5 0.5 -33 0.5 13.5 
0.5 31.5 0.5 1.5 0.5 -5.5 0.5 5.5 0.5 6.5 0.5 0 0.5 -4 0.5 -8 
0.5 3 0.5 2.5 0.5 6.5 0.5 0 0.5 0 0.5 0 0.5 0 0.5 0 
0.5 0 0.5 0 0.5 0 0.5 0 0.5 0 0.5 0 0.5 0 0.5 0 
0.5 13 0.5 5.5 0.5 -18.5 0.5 0 0.5 0 0.5 0 0.5 0 0.5 0 
0.5 0 0.5 0 0.5 0 0.5 0 0.5 0 0.5 0 0.5 0 0.5 0 
0.5 0 0.5 0 0.5 0 0.5 0 0.5 0 0.5 0 0.5 0 0.5 0 
0.5 0 0.5 0 0.5 0 0.5 25 0.5 2.5 0.5 -9 0.5 -2.5 0.5 -3 
0.5 11 0.5 -5.5 0.5 -4 0.5 -8 0.5 -6.5 0.5 6.5 0.5 0 0.5 -1 
0.5 9 0.5 33 0.5 1.5 0 -9.5 0.5 -6.5 0.5 -16 0.5 -4 0.5 -11.5 
0.5 242.5 S
1843.5 1128 0.5 8 0.5 -228 0.5 -20 0.5 -4 0.5 0 0.5 0 0.5 0 
0.5 0 0.5 0 0.5 0 0.5 0 0.5 0 0.5 0 0.5 0 0.5 0 
0.5 0 0.5 0 0.5 -14.5 0.5 9 0.5 3 0.5 1 0.5 -11.5 0.5 -1.5 
0.5 13 0.5 1.5 0.5 -4 0.5 -13 0.5 4 0.5 13 0.5 -6.5 0.5 0 
0.5 6.5 0.5 0 0.5 0 0.5 0 0.5 -1.5 0.5 0 0.5 1.5 0.5 -2.5 
0.5 -6.5 0.5 -8 0.5 11.5 0.5 5.5 0.5 0 0.5 0 0.5 0 0.5 0 
0.5 0 0.5 0 0.5 0 0.5 0 0.5 0 0.5 -5.5 0.5 1.5 0.5 4 
0.5 0 0.5 0 0.5 4 0.5 -4 0.5 0 0.5 0 0.5 0 0.5 0 
0.5 0 0.5 0 0.5 0 0.5 5.5 0.5 0 0.5 -5.5 0.5 4 0.5 0 
0.5 -4 0.5 0 0.5 1.5 0.5 0 0.5 -1.5 0.5 0 0.5 0 0.5 0 
0.5 0 0.5 0 0.5 17 0.5 8 0.5 -17 0.5 -1.5 0.5 5.5 0.5 -6.5 
0.5 9 0.5 1.5 0.5 -12 0.5 -1.5 0.5 -2.5 0.5 18.5 0.5 8 0.5 -26.5 
0.5 0 0.5 0 0.5 0 0.5 0 0.5 0 0.5 0 0.5 0 0.5 0 
0.5 0 S
1895.5 884 0.5 0 0.5 0 0.5 0 0.5 0 0.5 -6.5 0.5 -21 0.5 10.5 
0.5 5 0.5 -6.5 0.5 6.5 0.5 10.5 0.5 -1 0.5 -3 0.5 1.5 0.5 2.5 
0.5 -2.5 0.5 0 0.5 4 0.5 0 0.5 0 0.5 0 0.5 0 0.5 0 
0.5 -4 0.5 0 0.5 4 0.5 0 0.5 -9 0.5 0 0.5 3.5 0.5 -14.5 
0.5 5.5 0.5 14.5 0.5 0 0.5 -6.5 0.5 0 0.5 6.5 0.5 -5.5 0.5 0 
0.5 5.5 0.5 0 0.5 0 0.5 0 0.5 0 0.5 0 0.5 0 0.5 0 
0.5 0 0.5 0 0.5 0 0.5 0 0.5 0 0.5 0 0.5 0 0.5 0 
0.5 6.5 0.5 0 0 -6.5 0.5 0 0.5 0 0.5 0 0.5 0 0.5 0 
0.5 5.5 0.5 0 0.5 -5.5 0.5 0 0.5 0 0.5 0 0.5 1.5 0.5 9 
0.5 -10.5 0.5 0 0.5 0 0.5 0 0.5 1.5 0.5 9 0.5 -4 0.5 0 
0.5 -4 0.5 0 0.5 1.5 0.5 0 0.5 -4 0.5 1.5 0.5 5 0.5 -1 
0.5 2.5 0.5 4 0.5 -12 0.5 0 0.5 0 0.5 0 0.5 0 0.5 0 
0.5 0 0.5 0 0.5 0 0.5 0 0.5 0 0.5 0 0.5 0 0.5 -4 
0.5 4 S
1947 884 0.5 -13 0.5 -5.5 0.5 8 0.5 4 0.5 5 0.5 -11.5 0.5 -12 
0.5 -5.5 0.5 12 0.5 12 0.5 -1.5 0.5 6.5 0.5 1.5 0.5 0 0.5 0 
0.5 0 0.5 0 0.5 0 0.5 0 0.5 0 0.5 0 0.5 0 0.5 0 
0.5 0 0.5 0 0.5 0 0.5 4 0.5 0 0.5 -4 0.5 8 0.5 0 
0.5 -8 0.5 0 0.5 0 0.5 0 0.5 0 0.5 0 0.5 0 0.5 0 
0.5 0 0.5 0 0.5 0 0.5 -1.5 0.5 0 0.5 1.5 0.5 0 0.5 0 
0.5 -6.5 0.5 0 0.5 6.5 0.5 0 0.5 0 0.5 -2.5 0.5 0 0.5 2.5 
0.5 0 0.5 0 0.5 -1.5 0.5 0 0.5 -1 0.5 0 0.5 -8 0.5 10.5 
0.5 0 0.5 0 0.5 0 0.5 0 0.5 0 0.5 0 0.5 0 0.5 0 
0.5 0 0.5 0 0.5 0 0.5 0 0.5 0 0.5 16 0.5 26 0.5 -15.5 
0.5 -22.5 0.5 -4 0.5 0 0.5 0 0.5 0 0.5 0 0.5 0 0.5 0 
0.5 0 0.5 0 0.5 0 0.5 0 0.5 0 0.5 0 0.5 0 0.5 -12 
0.5 -19.5 0.5 -4 0.5 21 0.5 -4 0.5 0 0.5 17 0.5 -2.5 0.5 4 
0.5 0 S
1999 884 0.5 -1.5 0.5 0 0.5 1.5 0.5 0 0.5 0 0.5 0 0.5 0 
0.5 0 0.5 0 0.5 0 0.5 0 0.5 0 0.5 0 0.5 0 0.5 -6.5 
0.5 6.5 0.5 -4 0.5 -21 0.5 4 0.5 21 0.5 0 0.5 -1.5 0.5 0 
0.5 1.5 0.5 0 0.5 -8 0.5 0 0.5 8 0.5 0 0.5 0 0.5 0 
0.5 0 0.5 0 0.5 0 0.5 -1.5 0.5 0 0.5 1.5 0.5 0 0.5 0 
0.5 0 0.5 -13 0.5 0 0.5 13 0.5 0 0.5 0 0.5 0 0.5 0 
0.5 0 0.5 0 0.5 0 0.5 0 0.5 0 0.5 0 0.5 0 0.5 0 
0.5 0 0.5 0 0.5 0 0.5 8 0.5 0 0.5 -8 0.5 0 0.5 0 
0.5 0 0.5 0 0.5 0 0.5 0 0.5 0 0.5 0 0.5 2.5 0.5 0 
0.5 -2.5 0.5 1.5 0.5 4 0.5 -5.5 0.5 0 0.5 0 0.5 0 0.5 0 
0.5 0 0.5 0 0.5 0 0.5 0 0.5 0 0.5 0 0.5 0 0.5 0 
0.5 0 0.5 -4 0.5 1.5 0.5 -10.5 0.5 2.5 0.5 10.5 0.5 0 0.5 -1.5 
0.5 -2.5 0.5 4 0.5 0 0.5 0 0.5 -2.5 0.5 2.5 0.5 0 0.5 0 
0.5 0 S
2051 884 0.5 0 0.5 0 0.5 0 0.5 0 0.5 0 0.5 0 0.5 0 
0.5 0 0.5 0 0.5 0 0.5 0 0.5 0 0.5 0 0.5 0 0.5 0 
0.5 0 0.5 0 0.5 0 0.5 0 0.5 0 0.5 0 0.5 0 0.5 -1.5 
0.5 -1 0.5 2.5 0.5 0 0.5 0 0.5 0 0.5 0 0.5 0 0.5 0 
0.5 0 0.5 0 0.5 0 0.5 0 0.5 0 0.5 0 0.5 0 0.5 2.5 
0.5 1.5 0.5 -4 0.5 0 0.5 0 0.5 0 0.5 0 0.5 0 0.5 0 
0.5 0 0.5 2.5 0.5 0 0.5 -2.5 0.5 0 0.5 0 0.5 0 0.5 4 
0.5 9 0.5 7 0.5 1 0.5 -10.5 0.5 -9 0.5 0 0.5 1 0.5 0 
0.5 -1 0.5 9 0.5 12 0.5 -9.5 0.5 -4 0.5 -5 0.5 -4 0.5 0 
0.5 0 0.5 0 0.5 0 0.5 0 0.5 0 0.5 0 0.5 0 0.5 0 
0.5 0 0.5 0 0.5 0 0.5 -17 0.5 -4 0.5 9 0.5 6.5 0.5 3 
0.5 1 0.5 5.5 0.5 5 0.5 -42 0.5 33 0.5 0 0.5 -5.5 0.5 0 
0.5 5.5 0.5 0 0.5 0 0.5 0 0.5 0 0.5 0 0.5 0 0.5 0 
0.5 0 S
2103 884 0.5 0 0.5 0 0.5 0 0.5 0 0.5 0 0.5 10.5 0.5 0 
0.5 -10.5 0.5 0 0.5 0 0.5 0 0.5 2.5 0.5 0 0.5 0 0.5 0 
0.5 -2.5 0.5 1.5 0.5 0 0.5 1 0.5 10.5 0.5 -2.5 0.5 -10.5 0.5 6.5 
0.5 4 0.5 -6.5 0.5 -1.5 0.5 -2.5 0.5 0 0.5 0 0.5 0 0.5 0 
0.5 0 0.5 0 0.5 0 0.5 0 0.5 0 0.5 0 0.5 0 0.5 0 
0.5 -6.5 0.5 2.5 0.5 4 0.5 0 0.5 0 0.5 0 0.5 0 0.5 0 
0.5 0 0.5 0 0.5 0 0.5 0 0.5 0 0.5 0 0.5 0 0.5 0 
0.5 0 0.5 2.5 0.5 0 0.5 0 0.5 0 0.5 -2.5 0.5 0 0.5 8 
0.5 0 0.5 -8 0.5 0 0.5 0 0.5 0 0.5 0 0.5 0 0.5 0 
0.5 0 0.5 0 0.5 0 0.5 2.5 0.5 0 0.5 -2.5 0.5 0 0.5 0 
0.5 0 0.5 0 0.5 0 0.5 -2.5 0.5 0 0.5 2.5 0.5 0 0.5 0 
0.5 0 0.5 0 0.5 0 0.5 0 0.5 0 0.5 1.5 0.5 0 0.5 -1.5 
0.5 1.5 0.5 0 0.5 -1.5 0.5 1.5 0.5 0 0.5 -1.5 0.5 0 0.5 2.5 
0.5 1.5 S
2155 888 0.5 -2.5 0.5 -5.5 0.5 0 0.5 4 0.5 0 0.5 0 0.5 0 
0.5 0 0.5 0 0.5 0 0.5 0 0.5 0 0.5 0 0.5 0 0.5 2.5 
0.5 0 0.5 5.5 0.5 -8 0.5 0 0.5 0 0.5 0 0.5 0 0.5 0 
0.5 0 0.5 0 0.5 0 0.5 0 0.5 0 0.5 0 0.5 0 0.5 2.5 
0.5 8 0.5 -1.5 0.5 0 0 22.5 0.5 -11.5 0.5 -13.5 0.5 10.5 0.5 -11.5 
0.5 1 0.5 -4 0.5 -2.5 0.5 0 0.5 0 0.5 0 0.5 13 0.5 7 
0.5 -14.5 0.5 -5.5 0.5 0 0.5 0 0.5 0 0.5 0 0.5 0 0.5 0 
0.5 0 0.5 0 0.5 0 0.5 0 0.5 0 0.5 0 0.5 0 0.5 -1.5 
0.5 0 0.5 -11.5 0.5 -4 0.5 10.5 0.5 -28 0.5 1.5 0.5 14.5 0.5 0 
0.5 -5.5 0.5 -1 0.5 18.5 0.5 -17.5 0.5 16 0.5 8 0.5 0 0.5 0 
0.5 0 0.5 0 0.5 0 0.5 0 0.5 0 0.5 0 0.5 0 0.5 0 
0.5 0 0.5 0 0.5 0 0.5 10.5 0.5 -10.5 0.5 0 0.5 0 0.5 0 
0.5 0 0.5 0 0.5 0 0.5 0 0.5 2.5 0.5 0 0.5 5.5 0.5 0 
0.5 -2.5 S
2206.5 889.5 0.5 0 0.5 -5.5 0.5 0 0.5 0 0.5 0 0.5 0 0.5 0 
0.5 0 0.5 0 0.5 0 0.5 0 0.5 0 0.5 0 0.5 0 0.5 0 
0.5 0 0.5 1.5 0.5 0 0.5 -1.5 0.5 0 0.5 0 0.5 0 0.5 0 
0.5 0 0.5 0 0.5 0 0.5 0 0.5 0 0.5 0 0.5 0 0.5 0 
0.5 0 0.5 0 0.5 4 0.5 5 0.5 -3.5 0.5 -4 0.5 0 0.5 4 
0.5 3.5 0.5 -5 0.5 -4 0.5 8 0.5 0 0.5 -8 0.5 0 0.5 0 
0.5 0 0.5 0 0.5 0 0.5 0 0.5 0 0.5 0 0.5 0 0.5 0 
0.5 0 0.5 0 0.5 0 0.5 0 0.5 0 0.5 0 0.5 -10.5 0.5 -33 
0.5 5 0.5 32 0.5 5 0.5 1.5 0.5 0 0.5 0 0.5 -4 0.5 0 
0.5 4 0.5 0 0.5 -6.5 0.5 0 0.5 6.5 0.5 0 0.5 -2.5 0.5 0 
0.5 2.5 0.5 0 0.5 0 0.5 0 0.5 -8 0.5 -4 0.5 8 0.5 4 
0.5 -13 0.5 5 0.5 8 0.5 0 0.5 0 0.5 0 0.5 0 0.5 0 
0.5 0 0.5 0 0.5 0 0.5 0 0.5 0 0.5 0 0.5 0 0.5 5.5 
0.5 10.5 S
2258.5 900 0.5 5 0.5 -15.5 0.5 -5.5 0.5 0 0.5 0 0.5 9 0.5 0 
0.5 -9 0.5 0 0.5 4 0.5 12 0.5 -4 0.5 -12 0.5 0 0.5 13 
0.5 4 0.5 -9 0.5 -4 0.5 -4 0.5 0 0.5 0 0.5 1.5 0.5 0 
0.5 -1.5 0.5 6.5 0.5 0 0.5 -6.5 0.5 0 0.5 0 0.5 5.5 0.5 0 
0.5 -5.5 0.5 0 0.5 25 0.5 6.5 0.5 -26 0.5 -5.5 0.5 0 0.5 0 
0.5 0 0.5 0 0.5 0 0.5 0 0.5 0 0.5 0 0.5 0 0.5 0 
0.5 0 0.5 0 0.5 0 0.5 -10.5 0.5 0 0.5 8 0.5 1 0.5 -7.5 
0.5 -17.5 0.5 -1 0.5 13 0.5 9 0.5 1.5 0.5 1.5 0.5 -13.5 0.5 4 
0.5 12 0.5 0 0.5 -4 0.5 4 0.5 0 0.5 0 0.5 0 0.5 0 
0.5 0 0.5 0 0.5 0 0.5 0 0.5 0 0.5 0 0.5 1.5 0.5 2.5 
0.5 -1.5 0.5 -2.5 0.5 0 0.5 0 0.5 0 0.5 0 0.5 0 0.5 0 
0.5 17 0.5 0 0.5 -17 0.5 0 0.5 0 0.5 0 0.5 0 0.5 0 
0.5 0 0.5 0 0.5 0 0.5 -6.5 0.5 6.5 0.5 0 0.5 0 0.5 0 
0.5 0 S
2310.5 884 0.5 -8 0.5 8 0.5 0 0.5 0 0.5 0 0.5 0 0.5 0 
0.5 0 0.5 0 0.5 0 0.5 0 0.5 0 0.5 0 0.5 0 0.5 0 
0.5 17 0.5 8 0.5 -18.5 0.5 -6.5 0.5 0 0.5 0 0.5 2.5 0.5 1.5 
0.5 20 0.5 -1.5 0.5 -22.5 0.5 0 0.5 10.5 0.5 0 0.5 -10.5 0.5 0 
0.5 0 0.5 0 0.5 0 0.5 0 0.5 0 0.5 0 0.5 0 0.5 0 
0.5 0 0.5 0 0.5 0 0.5 0 0.5 0 0.5 -1.5 0.5 0 0.5 -10.5 
0.5 0 0.5 -2.5 0.5 -17 0.5 10.5 0.5 -1.5 0.5 0 0.5 22.5 0.5 0 
0.5 -4 0.5 4 0.5 0 0.5 -1.5 0.5 1.5 0.5 0 0.5 0 0.5 0 
0.5 0 0.5 0 0.5 0 0.5 0 0.5 1.5 0.5 -1.5 0.5 0 0.5 0 
0.5 5.5 0.5 0 0.5 -5.5 0.5 2.5 0.5 -2.5 0.5 0 0.5 0 0.5 0 
0.5 0 0.5 0 0.5 0 0.5 0 0.5 0 0.5 -1.5 0.5 1.5 0.5 0 
0.5 0 0.5 0 0.5 0 0.5 -4 0.5 1.5 0.5 -8 0.5 2.5 0.5 5.5 
0.5 -5.5 0.5 4 0.5 4 0.5 0 0.5 0 0.5 0 0.5 0 0.5 0 
0.5 0 S
2362.5 884 0.5 0 0.5 0 0.5 0 0.5 0 0.5 0 0.5 0 0.5 0 
0.5 6.5 0.5 10.5 0.5 9.5 0.5 -9.5 0.5 -10.5 0.5 -2.5 0.5 -2.5 0.5 0 
0.5 -1.5 0.5 9 0.5 0 0.5 -7.5 0.5 0 0.5 0 0.5 0 0.5 -1.5 
0.5 0 0.5 4 0.5 -1.5 0.5 -2.5 0.5 0 0.5 0 0.5 0 0.5 0 
0.5 0 0.5 0 0.5 0 0.5 -1.5 0.5 0 0.5 -1 0.5 1 0.5 1.5 
0.5 0 0.5 -1.5 0.5 1.5 0.5 -9 0.5 -1.5 0.5 10.5 0.5 0 0.5 -9 
0.5 -8 0.5 8 0.5 2.5 0.5 -5.5 0.5 -13 0.5 6.5 0.5 18.5 0.5 -4 
0.5 -5 0.5 3.5 0.5 5.5 0.5 -6.5 0.5 0 0.5 4 0.5 0 0.5 2.5 
0.5 -2.5 0.5 -8 0.5 -4 0.5 8 0.5 -4 0.5 -1.5 0.5 9.5 0.5 1 
0.5 1.5 0.5 0 0.5 0 0.5 0 0.5 -5.5 0.5 0 0.5 4 0.5 -1 
0.5 -1.5 0.5 1.5 0.5 -1.5 0.5 4 0.5 0 0.5 0 0.5 0 0.5 0 
0.5 0 0.5 0 0.5 0 0.5 0 0.5 0 0.5 0 0.5 0 0.5 0 
0.5 0 0.5 2.5 0.5 24 0.5 -1.5 0.5 -19.5 0.5 -3 0.5 0 0.5 3 
0.5 0 S
2414.5 889.5 0.5 -5.5 0.5 4 0.5 0 0.5 -1.5 0.5 21.5 0.5 1 0.5 -21 
0.5 2.5 0.5 8 0.5 -1.5 0.5 -1 0.5 9 0 -2.5 0.5 -14.5 0.5 -4 
0.5 0 0.5 0 0.5 2.5 0.5 0 0.5 -2.5 0.5 0 0.5 0 0.5 0 
0.5 0 0.5 0 0.5 0 0.5 0 0.5 0 0.5 0 0.5 0 0.5 0 
0.5 0 0.5 0 0.5 0 0.5 -2.5 0.5 -1.5 0.5 0 0.5 1.5 0.5 2.5 
0.5 -9 0.5 -5.5 0.5 9 0.5 5.5 0.5 0 0.5 0 0.5 0 0.5 0 
0.5 0 0.5 0 0.5 -4 0.5 0 0.5 4 0.5 0 0.5 -8 0.5 0 
0.5 8 0.5 -1.5 0.5 -1 0.5 1 0.5 1.5 0.5 0 0.5 -8 0.5 0 
0.5 2.5 0.5 0 0.5 5.5 0.5 0 0.5 0 0.5 0 0.5 0 0.5 0 
0.5 0 0.5 0 0.5 0 0.5 0 0.5 0 0.5 0 0.5 0 0.5 0 
0.5 0 0.5 0 0.5 0 0.5 0 0.5 2.5 0.5 0 0.5 -2.5 0.5 0 
0.5 0 0.5 0 0.5 0 0.5 1.5 0.5 0 0.5 -1.5 0.5 0 0.5 13 
0.5 0 0.5 -11.5 0.5 0 0.5 -1.5 0.5 12 0.5 1 0.5 -11.5 0.5 22.5 
0.5 0 S
2466 908 0.5 -21.5 0.5 1.5 0.5 -2.5 0.5 -1.5 0.5 5.5 0.5 0 0.5 9 
0.5 4 0.5 -1.5 0.5 12 0.5 -10.5 0.5 -5.5 0.5 -1 0.5 -9.5 0.5 0 
0.5 -1 0.5 -1.5 0.5 0 0.5 0 0.5 0 0.5 2.5 0.5 0 0.5 -2.5 
0.5 0 0.5 0 0.5 0 0.5 0 0.5 0 0.5 0 0.5 0 0.5 0 
0.5 0 0.5 0 0.5 0 0.5 0 0.5 0 0.5 0 0.5 -12 0.5 -1 
0.5 -3 0.5 -1 0.5 11.5 0.5 -5 0.5 2.5 0.5 6.5 0.5 1.5 0.5 0 
0.5 0 0.5 0 0.5 -2.5 0.5 2.5 0.5 0 0.5 0 0.5 0 0.5 0 
0.5 0 0.5 0 0.5 0 0.5 0 0.5 0 0.5 1.5 0.5 -1.5 0.5 2.5 
0.5 -2.5 0.5 0 0.5 0 0.5 0 0.5 0 0.5 0 0.5 0 0.5 0 
0.5 0 0.5 0 0.5 0 0.5 0 0.5 0 0.5 0 0.5 1.5 0.5 0 
0.5 0 0.5 0 0.5 -1.5 0.5 0 0.5 0 0.5 0 0.5 0 0.5 0 
0.5 0 0.5 0 0.5 6.5 0.5 0 0.5 -2.5 0.5 8 0.5 13 0.5 -2.5 
0.5 -17 0.5 -5.5 0.5 0 0.5 0 0.5 0 0.5 0 0.5 4 0.5 0 
0.5 -4 S
2518 884 0.5 0 0.5 0 0.5 9 0.5 0 0.5 -6.5 0.5 0 0.5 -1 
0.5 0 0.5 0 0.5 0 0.5 -1.5 0.5 0 0.5 0 0.5 0 0.5 0 
0.5 0 0.5 0 0.5 0 0.5 0 0.5 0 0.5 0 0.5 0 0.5 0 
0.5 0 0.5 0 0.5 0 0.5 -17 0.5 -16 0.5 17 0.5 0 0.5 0 
0.5 16 0.5 -22.5 0.5 0 0.5 18.5 0.5 0 0.5 4 0.5 0 0.5 0 
0.5 0 0.5 0 0.5 0 0.5 0 0.5 0 0.5 0 0.5 0 0.5 0 
0.5 0 0.5 0 0.5 0 0.5 5.5 0.5 1 0.5 -5 0.5 -1.5 0.5 0 
0.5 6.5 0.5 4 0.5 -10.5 0.5 4 0.5 -4 0.5 0 0.5 0 0.5 0 
0.5 0 0.5 0 0.5 0 0.5 0 0.5 0 0.5 0 0.5 1.5 0.5 0 
0.5 -1.5 0.5 0 0.5 0 0.5 0 0.5 0 0.5 0 0.5 0 0.5 2.5 
0.5 -2.5 0.5 0 0.5 2.5 0.5 13.5 0.5 0 0.5 -8 0.5 1 0.5 -3.5 
0.5 -1.5 0.5 -1.5 0.5 13.5 0.5 8 0.5 -13.5 0.5 -9 0.5 2.5 0.5 13 
0.5 1.5 0.5 -14.5 0.5 -4 0.5 1.5 0.5 -1.5 0.5 0 0.5 0 0.5 0 
0.5 0 S
2570 884 0.5 0 0.5 0 0.5 0 0.5 0 0.5 0 0.5 0 0.5 0 
0.5 0 0.5 -1.5 0.5 -7.5 0.5 0 0.5 6.5 0.5 -1.5 0.5 2.5 0.5 -9 
0.5 -12 0.5 9.5 0.5 -9.5 0.5 -6.5 0.5 10.5 0.5 8 0.5 6.5 0.5 -5 
0.5 3.5 0.5 5.5 0.5 -4 0.5 0 0.5 4 0.5 0 0.5 -1.5 0.5 0 
0.5 1.5 0 -1.5 0.5 0 0.5 -2.5 0.5 0 0.5 4 0.5 0 0.5 0 
0.5 0 0.5 4 0.5 -2.5 0.5 -1.5 0.5 0 0.5 0 0.5 0 0.5 0 
0.5 0 0.5 0 0.5 0 0.5 1.5 0.5 7.5 0.5 3 0.5 2.5 0.5 -6.5 
0.5 -5.5 0.5 -2.5 0.5 0 0.5 0 0.5 12 0.5 0 0.5 -12 0.5 0 
0.5 0 0.5 6.5 0.5 0 0.5 -6.5 0.5 0 0.5 0 0.5 1.5 0.5 0 
0.5 6.5 0.5 0 0.5 -6.5 0.5 6.5 0.5 -1.5 0.5 -6.5 0.5 10.5 0.5 1.5 
0.5 -10.5 0.5 -1.5 0.5 0 0.5 1.5 0.5 0 0.5 4 0.5 0 0.5 -3 
0.5 0 0.5 -2.5 0.5 2.5 0.5 0 0.5 -2.5 0.5 0 0.5 2.5 0.5 1.5 
0.5 -2.5 0.5 1 0.5 0 0.5 -2.5 0.5 0 0.5 0 0.5 0 0.5 0 
0.5 0 S
2621.5 884 0.5 0 0.5 0 0.5 0 0.5 0 0.5 0 0.5 0 0.5 0 
0.5 -2.5 0.5 -8 0.5 -42.5 0.5 12 0.5 39.5 0.5 1.5 0.5 0 0.5 0 
0.5 0 0.5 0 0.5 0 0.5 -22.5 0.5 0 0.5 22.5 0.5 -13 0.5 0 
0.5 13 0.5 -5.5 0.5 0 0.5 5.5 0.5 0 0.5 0 0.5 0 0.5 0 
0.5 0 0.5 0 0.5 0 0.5 0 0.5 0 0.5 0 0.5 4 0.5 -4 
0.5 0 0.5 0 0.5 4 0.5 -2.5 0.5 5 0.5 -1 0.5 -5.5 0.5 0 
0.5 0 0.5 0 0.5 0 0.5 0 0.5 0 0.5 0 0.5 0 0.5 0 
0.5 0 0.5 0 0.5 0 0.5 0 0.5 -6.5 0.5 -4 0.5 2.5 0.5 8 
0.5 0 0.5 0 0.5 0 0.5 0 0.5 0 0.5 0 0.5 0 0.5 0 
0.5 0 0.5 0 0.5 0 0.5 0 0.5 0 0.5 0 0.5 12 0.5 -4 
0.5 -4 0.5 0 0.5 -4 0.5 0 0.5 8 0.5 0 0.5 -1.5 0.5 0 
0.5 -6.5 0.5 0 0.5 6.5 0.5 1.5 0.5 -6.5 0.5 2.5 0.5 14.5 0.5 -1.5 
0 -14.5 0.5 4 0.5 -6.5 0.5 0 0.5 0 0.5 0 0.5 0 0.5 0 
0.5 0 S
2673 884 0.5 0 0.5 0 0.5 0 0.5 0 0.5 0 0.5 0 0.5 0 
0.5 -5.5 0.5 -6.5 0.5 1.5 0.5 -1.5 0.5 9.5 0.5 1 0.5 -9 0.5 0 
0.5 9 0.5 -1 0.5 -3 0.5 1.5 0.5 1.5 0.5 0 0.5 2.5 0.5 0 
0.5 0 0.5 0 0.5 -4 0.5 0 0.5 -5 0.5 0 0.5 9 0.5 0 
0.5 -16 0.5 0 0.5 16 0.5 -4 0.5 -2.5 0.5 1 0.5 3 0.5 2.5 
0.5 -4 0.5 0 0.5 1.5 0.5 0 0.5 2.5 0.5 -1.5 0.5 0 0.5 -11.5 
0.5 -9.5 0.5 5.5 0.5 4 0.5 -1.5 0.5 2.5 0.5 12 0.5 0 0.5 0 
0.5 0 0.5 0 0.5 0 0.5 0 0.5 0 0.5 0 0.5 0 0.5 0 
0.5 0 0.5 0 0.5 0 0.5 1.5 0.5 2.5 0.5 4 0.5 12 0.5 -8 
0.5 -12 0.5 0 0.5 0 0.5 5.5 0.5 6.5 0.5 -12 0.5 0 0.5 0 
0.5 0 0.5 0 0.5 0 0.5 0 0.5 0 0.5 0 0.5 0 0.5 0 
0.5 0 0.5 0 0.5 0 0.5 -6.5 0.5 -6.5 0.5 0 0.5 13 0.5 -1.5 
0.5 -1 0.5 1 0.5 -7.5 0.5 -12 0.5 6.5 0.5 -16 0.5 -2.5 0.5 27.5 
0.5 1.5 S
2725 880 0.5 -21 0.5 4 0.5 15.5 0.5 0 0.5 -5 0.5 0 0.5 10.5 
0.5 -2.5 0.5 0 0.5 -6.5 0.5 -5.5 0.5 5.5 0.5 0 0.5 3.5 0.5 5.5 
0.5 0 0.5 -1.5 0.5 0 0.5 1.5 0.5 0 0.5 0 0.5 0 0.5 0 
0.5 0 0.5 0 0.5 0 0.5 0 0.5 0 0.5 0 0.5 0 0.5 0 
0.5 0 0.5 0 0.5 12 0.5 5 0.5 -11.5 0.5 25 0.5 5 0.5 -19.5 
0.5 -1.5 0.5 1.5 0.5 13 0.5 -8 0.5 -14.5 0.5 2.5 0.5 9.5 0.5 -6.5 
0.5 -10.5 0.5 0 0.5 -1.5 0.5 0 0.5 0 0.5 8 0.5 2.5 0 4 
0.5 -2.5 0.5 -12 0.5 0 0.5 0 0.5 0 0.5 8 0.5 10.5 0.5 -8 
0.5 -8 0.5 0 0.5 1.5 0.5 0 0.5 2.5 0.5 0 0.5 -6.5 0.5 0 
0.5 5.5 0.5 2.5 0.5 -1.5 0.5 -1 0.5 5 0.5 -1.5 0.5 -7.5 0.5 0 
0.5 -1.5 0.5 0 0.5 0 0.5 0 0.5 0 0.5 0 0.5 0 0.5 0 
0.5 0 0.5 0 0.5 0 0.5 0 0.5 0 0.5 0 0.5 0 0.5 -9 
0.5 -15 0.5 -15.5 0.5 12 0.5 25 0.5 -3 0.5 -2.5 0.5 5.5 0.5 2.5 
0.5 0 S
2776.5 884 0.5 0 0.5 -4 0.5 0 0.5 4 0.5 0 0.5 0 0.5 0 
0.5 0 0.5 0 0.5 0 0.5 0 0.5 0 0.5 0 0.5 0 0.5 0 
0.5 0 0.5 0 0.5 0 0.5 0 0.5 0 0.5 0 0.5 -5.5 0.5 0 
0.5 5.5 0.5 0 0.5 0 0.5 0 0.5 0 0.5 0 0.5 0 0.5 -10.5 
0.5 -1.5 0.5 10.5 0.5 1.5 0.5 0 0.5 0 0.5 -1.5 0.5 1.5 0.5 0 
0.5 0 0.5 0 0.5 0 0.5 0 0.5 0 0.5 0 0.5 0 0.5 0 
0.5 0 0.5 0 0.5 0 0.5 0 0.5 1.5 0.5 6.5 0.5 -2.5 0.5 -5.5 
0.5 2.5 0.5 0 0.5 -2.5 0.5 8 0.5 2.5 0.5 -8 0.5 1.5 0.5 0 
0.5 4 0.5 5 0.5 -7.5 0.5 5 0.5 13.5 0.5 -11 0.5 -6.5 0.5 0 
0.5 -5 0.5 0 0.5 -1.5 0.5 0 0.5 0 0.5 0 0.5 0 0.5 0 
0.5 0 0.5 0 0.5 0 0.5 0 0.5 0 0.5 0 0.5 0 0.5 0 
0.5 0 0.5 -27.5 0.5 0 0.5 1 0.5 -2.5 0.5 29 0.5 -2.5 0.5 2.5 
0.5 -1.5 0.5 -2.5 0.5 1.5 0.5 2.5 0.5 0 0.5 0 0.5 0 0.5 0 
0.5 0 S
2828.5 884 0.5 0 0.5 0 0.5 0 0.5 0 0.5 0 0.5 0 0.5 0 
0.5 0 0.5 0 0.5 0 0.5 0 0.5 0 0.5 0 0.5 0 0.5 0 
0.5 0 0.5 0 0.5 0 0.5 0 0.5 0 0.5 1.5 0.5 0 0.5 -1.5 
0.5 0 0.5 0 0.5 1.5 0.5 0 0.5 -1.5 0.5 1.5 0.5 0 0.5 -1.5 
0.5 1.5 0.5 0 0.5 4 0.5 0 0.5 -5.5 0.5 0 0.5 0 0.5 0 
0.5 0 0.5 1.5 0.5 4 0.5 -1.5 0.5 10.5 0.5 1.5 0.5 -5.5 0.5 10.5 
0.5 0 0.5 -9 0.5 -8 0.5 -2.5 0.5 -1.5 0.5 0 0.5 0 0.5 0 
0.5 0 0.5 1.5 0.5 0 0.5 -1.5 0.5 0 0.5 0 0.5 0 0.5 0 
0.5 0 0.5 0 0.5 0 0.5 0 0.5 0 0.5 0 0.5 0 0.5 0 
0.5 0 0.5 0 0.5 0 0.5 0 0.5 -14.5 0.5 -5.5 0.5 5.5 0.5 5.5 
0.5 7.5 0.5 -17 0.5 -1.5 0.5 12 0.5 -4 0.5 5.5 0.5 6.5 0.5 0 
0.5 -1.5 0.5 1.5 0.5 -1.5 0.5 1.5 0.5 0 0.5 0 0.5 0 0.5 0 
0.5 0 0.5 0 0.5 0 0.5 0 0.5 0 0.5 0 0.5 0 0.5 0 
0.5 0 S
2880.5 884 0.5 0 0.5 0 0.5 0 0.5 0 0.5 0 0.5 0 0.5 0 
0.5 0 0.5 0 0.5 -4 0.5 0 0.5 -1.5 0.5 0 0.5 3 0.5 0 
0.5 -9.5 0.5 -4 0.5 12 0.5 -12 0.5 0 0.5 14.5 0.5 -1 0.5 1 
0.5 -4 0.5 0 0.5 4 0.5 0 0.5 1.5 0.5 0 0.5 0 0.5 0 
0.5 0 0.5 0 0.5 0 0.5 0 0.5 0 0.5 0 0.5 0 0.5 0 
0.5 0 0.5 0 0.5 9 0.5 0 0.5 0 0.5 0 0.5 -6.5 0.5 9.5 
0.5 2.5 0.5 -9 0.5 -5.5 0.5 0 0.5 0 0.5 0 0.5 2.5 0.5 0 
0.5 -2.5 0.5 0 0.5 0 0.5 0 0.5 0 0.5 0 0.5 0 0.5 0 
0.5 0 0.5 0 0.5 0 0.5 0 0.5 0 0.5 0 0.5 0 0.5 -4 
0.5 4 0.5 0 0.5 0 0.5 0 0.5 -4 0.5 2.5 0.5 0 0.5 1.5 
0.5 0 0.5 0 0.5 0 0.5 0 0.5 0 0.5 0 0.5 -2.5 0.5 2.5 
0.5 0 0.5 2.5 0.5 -2.5 0.5 0 0.5 0 0.5 0 0.5 0 0.5 0 
0.5 0 0.5 0 0.5 2.5 0.5 0 0.5 -2.5 0.5 0 0.5 0 0.5 -2.5 
0.5 0 S
2932.5 881.5 0.5 2.5 0.5 0 0.5 0 0.5 0 0.5 0 0.5 0 0.5 0 
0.5 0 0.5 0 0.5 -6.5 0.5 6.5 0.5 0 0.5 0 0.5 -6.5 0.5 6.5 
0.5 0 0.5 0 0.5 0 0.5 0 0.5 0 0.5 0 0.5 0 0.5 0 
0.5 0 0.5 0 0.5 0 0.5 0 0.5 0 0.5 9 0.5 0 0.5 -7.5 
0.5 0 0.5 6.5 0.5 0 0.5 -5.5 0.5 14.5 0.5 1.5 0.5 -13 0.5 -4 
0.5 2.5 0.5 0 0.5 6.5 0.5 0 0.5 -10.5 0.5 1.5 0.5 5 0.5 -1 
0.5 -5.5 0.5 0 0.5 0 0.5 0 0.5 0 0.5 0 0.5 0 0.5 0 
0.5 0 0.5 0 0.5 0 0.5 0 0.5 0 0.5 0 0.5 -2.5 0.5 0 
0.5 2.5 0.5 -6.5 0.5 0 0.5 -10.5 0.5 -5.5 0.5 17 0.5 5.5 0.5 -1.5 
0.5 -6.5 0.5 6.5 0.5 1.5 0.5 0 0.5 0 0.5 0 0.5 0 0.5 0 
0.5 0 0.5 0 0.5 0 0.5 0 0.5 0 0.5 0 0.5 -5.5 0.5 5.5 
0.5 0 0.5 0 0.5 0 0.5 0 0.5 0 0.5 0 0.5 0 0.5 0 
0.5 0 0.5 0 0.5 0 0.5 -1.5 0.5 0 0.5 -1 0.5 2.5 0.5 -2.5 
0.5 1 S
2984.5 882.5 0.5 -14.5 0.5 -4 0.5 11 0.5 9 0.5 0 0.5 0 0.5 0 
0.5 0 0.5 0 0.5 0 0.5 0 0.5 0 0.5 0 0.5 0 0.5 0 
0.5 0 0.5 0 0.5 4 0.5 4 0.5 -5.5 0.5 5.5 0.5 9 0.5 -5 
0.5 -12 0.5 5.5 0.5 0 0.5 -5.5 0.5 0 0.5 0 0.5 0 0.5 0 
0 1.5 0.5 5 0.5 -1 0.5 -5.5 0.5 0 0.5 0 0.5 0 0.5 0 
0.5 0 0.5 14.5 0.5 0 0.5 -14.5 0.5 0 0.5 0 0.5 0 0.5 0 
0.5 0 0.5 -6.5 0.5 6.5 0.5 0 0.5 0 0.5 0 0.5 0 0.5 0 
0.5 0 0.5 0 0.5 -17 0.5 6.5 0.5 6.5 0.5 -1.5 0.5 4 0.5 0 
0.5 0 0.5 1.5 0.5 0 0.5 -9 0.5 0 0.5 3.5 0.5 -3.5 0.5 5 
0.5 -9 0.5 0 0.5 13 0.5 0 0.5 -10.5 0.5 -4 0.5 14.5 0.5 0 
0.5 0 0.5 0 0.5 0 0.5 0 0.5 0 0.5 0 0.5 0 0.5 0 
0.5 0 0.5 0 0.5 0 0.5 0 0.5 -10.5 0.5 10.5 0.5 0 0.5 0 
0.5 0 0.5 0 0.5 0 0.5 0 0.5 0 0.5 0 0.5 5.5 0.5 0 
0.5 0 S
3036 889.5 0.5 2.5 0.5 -1.5 0.5 -6.5 0.5 1.5 0.5 -1.5 0.5 0 0.5 0 
0.5 0 0.5 0 0.5 0 0.5 0 0.5 0 0.5 0 0.5 8 0.5 14.5 
0.5 -9.5 0.5 -10.5 0.5 4 0.5 -1 0.5 -5.5 0.5 0 0.5 0 0.5 0 
0.5 0 0.5 0 0.5 0 0.5 0 0.5 0 0.5 0 0.5 0 0.5 0 
0.5 0 0.5 0 0.5 -12 0.5 -1 0.5 13 0.5 0 0.5 0 0.5 -2.5 
0.5 2.5 0.5 0 0.5 0 0.5 0 0.5 0 0.5 0 0.5 0 0.5 0 
0.5 -2.5 0.5 2.5 0.5 -4 0.5 0 0.5 -8 0.5 0 0.5 12 0.5 0 
0.5 0 0.5 -2.5 0.5 2.5 0.5 -2.5 0.5 2.5 0.5 0 0.5 0 0.5 0 
0.5 0 0.5 -2.5 0.5 0 0.5 2.5 0.5 0 0.5 0 0.5 0 0.5 -1.5 
0.5 0 0.5 1.5 0.5 0 0.5 0 0.5 0 0.5 0 0.5 -1.5 0.5 0 
0.5 1.5 0.5 0 0.5 0 0.5 0 0.5 0 0.5 -8 0.5 0 0.5 8 
0.5 0 0.5 0 0.5 0 0.5 0 0.5 0 0.5 -12 0.5 -1 0 11.5 
0.5 1.5 0.5 0 0.5 0 0.5 0 0.5 0 0.5 -14.5 0.5 1.5 0.5 13 
0.5 0 S
3087.5 884 0.5 0 0.5 0 0.5 0 0.5 0 0.5 0 0.5 0 0.5 0 
0.5 0 0.5 0 0.5 0 0.5 0 0.5 0 0.5 5.5 0.5 10.5 0.5 15.5 
0.5 -7.5 0.5 -20 0.5 -4 0.5 4 0.5 8 0.5 -4 0.5 -8 0.5 5.5 
0.5 0 0.5 -4 0.5 -1.5 0.5 0 0.5 0 0.5 0 0.5 0 0.5 0 
0.5 0 0.5 0 0.5 0 0.5 0 0.5 0 0.5 0 0.5 0 0.5 0 
0.5 -1.5 0.5 -4 0.5 -1 0.5 -1.5 0.5 2.5 0.5 4 0.5 -4 0.5 0 
0.5 5.5 0.5 0 0.5 -6.5 0.5 -26.5 0.5 5.5 0.5 26 0.5 -4 0.5 -1 
0.5 -16 0.5 1.5 0.5 21 0.5 0 0.5 0 0.5 0 0.5 0 0.5 0 
0.5 0 0.5 -1.5 0.5 0 0.5 1.5 0.5 0 0.5 0 0.5 0 0.5 -6.5 
0.5 0 0.5 4 0.5 0 0.5 2.5 0.5 0 0.5 -4 0.5 0 0.5 1.5 
0.5 0 0.5 2.5 0.5 0 0.5 0 0.5 0 0.5 0 0.5 0 0.5 0 
0.5 0 0.5 0 0.5 0 0.5 0 0.5 0 0.5 0 0.5 0 0.5 0 
0.5 0 0.5 1.5 0.5 -1.5 0.5 0 0.5 8 0.5 4 0.5 2.5 0.5 -5.5 
0.5 -6.5 S
3139.5 886.5 0.5 0 0.5 -2.5 0.5 2.5 0.5 16 0.5 8 0.5 -9.5 0.5 -1 
0.5 -7 0.5 -3.5 0.5 1 0.5 -5 0.5 14.5 0.5 -3 0.5 -13 0.5 0 
0.5 0 0.5 0 0.5 0 0.5 0 0.5 0 0.5 0 0.5 0 0.5 0 
0.5 0 0.5 0 0.5 0 0.5 0 0.5 -2.5 0.5 2.5 0.5 -2.5 0.5 -18.5 
0.5 -37 0.5 9 0.5 40 0.5 9 0.5 0 0.5 0 0.5 -2.5 0.5 0 
0.5 2.5 0.5 -2.5 0.5 0 0.5 2.5 0.5 0 0.5 0 0.5 0 0.5 0 
0.5 0 0.5 0 0.5 0 0.5 0 0.5 -5.5 0.5 0 0 5.5 0.5 0 
0.5 0 0.5 0 0.5 0 0.5 0 0.5 0 0.5 0 0.5 2.5 0.5 0 
0.5 -1 0.5 -1.5 0.5 0 0.5 0 0.5 0 0.5 0 0.5 0 0.5 0 
0.5 0 0.5 0 0.5 0 0.5 0 0.5 1.5 0.5 -1.5 0.5 17 0.5 0 
0.5 -17 0.5 0 0.5 0 0.5 0 0.5 0 0.5 2.5 0.5 0 0.5 -2.5 
0.5 1.5 0.5 10.5 0.5 0 0.5 -5.5 0.5 -1 0.5 -5.5 0.5 8 0.5 1 
0.5 1.5 0.5 2.5 0.5 -6.5 0.5 -4 0.5 -2.5 0.5 4 0.5 0 0.5 -4 
0.5 0 S
3191 884 0.5 4 0.5 1.5 0.5 -4 0.5 -1.5 0.5 0 0.5 0 0.5 0 
0.5 4 0.5 2.5 0.5 8 0.5 8 0.5 -16 0.5 -6.5 0.5 0 0.5 0 
0.5 0 0.5 0 0.5 0 0.5 0 0.5 0 0.5 0 0.5 0 0.5 0 
0.5 0 0.5 0 0.5 0 0.5 -12 0.5 -4 0.5 -5 0.5 2.5 0.5 10.5 
0.5 -6.5 0.5 0 0.5 12 0.5 2.5 0.5 -5.5 0.5 0 0.5 5.5 0.5 0 
0.5 -2.5 0.5 0 0.5 2.5 0.5 0 0.5 -12 0.5 0 0.5 10.5 0.5 1.5 
0.5 0 0.5 0 0.5 0 0.5 0 0.5 0 0.5 0 0.5 0 0.5 0 
0.5 0 0.5 0 0.5 0 0.5 0 0.5 0 0.5 27.5 0.5 1.5 0.5 -29 
0.5 2.5 0.5 0 0.5 -2.5 0.5 0 0.5 4 0.5 0 0.5 4 0.5 2.5 
0.5 -8 0.5 -2.5 0.5 0 0.5 1.5 0.5 0 0.5 1 0.5 0 0.5 -2.5 
0.5 0 0.5 0 0.5 0 0.5 0 0.5 0 0.5 1.5 0.5 5 0.5 -1 
0.5 -5.5 0.5 8 0.5 0 0.5 0 0.5 2.5 0.5 -8 0.5 -2.5 0.5 2.5 
0.5 14.5 0.5 5.5 0.5 -12 0.5 -6.5 0.5 -2.5 0.5 13 0.5 1.5 0.5 -14.5 
0.5 1 S
3243 886.5 0.5 0 0.5 -2.5 0.5 0 0.5 0 0.5 0 0.5 0 0.5 0 
0.5 0 0.5 0 0.5 0 0.5 0 0.5 0 0.5 0 0.5 0 0.5 -16 
0.5 -15.5 0.5 10.5 0.5 12 0.5 -9.5 0.5 -2.5 0.5 14.5 0.5 -8 0.5 0 
0.5 14.5 0.5 -1.5 0.5 -17 0.5 1.5 0.5 15.5 0.5 0 0.5 0 0.5 0 
0.5 0 0.5 0 0.5 0 0.5 0 0.5 1.5 0.5 0 0.5 0 0.5 0 
0.5 0 0.5 0 0.5 0 0.5 0 0.5 0 0.5 0 0.5 0 0.5 0 
0.5 0 0.5 0 0.5 0 0.5 0 0.5 0 0.5 0 S
5 w
806 620 2484 528 re
S
cleartomark end end pagesave restore
 showpage
%%PageTrailer
%%Trailer
%%Pages: 1
