%!PS-Adobe-3.0 EPSF-3.0
%%BoundingBox: 62 52 192 119
%%HiResBoundingBox: 62.800000 52.900000 191.400000 118.300000
%.....................................
%%Creator: GPL Ghostscript 871 (epswrite)
%%CreationDate: 2012/01/28 17:04:40
%%DocumentData: Clean7Bit
%%LanguageLevel: 2
%%EndComments
%%BeginProlog
% This copyright applies to everything between here and the %%EndProlog:
% Copyright (C) 2010 Artifex Software, Inc.  All rights reserved.
%%BeginResource: procset GS_epswrite_2_0_1001 1.001 0
/GS_epswrite_2_0_1001 80 dict dup begin
/PageSize 2 array def/setpagesize{ PageSize aload pop 3 index eq exch
4 index eq and{ pop pop pop}{ PageSize dup  1
5 -1 roll put 0 4 -1 roll put dup null eq {false} {dup where} ifelse{ exch get exec}
{ pop/setpagedevice where
{ pop 1 dict dup /PageSize PageSize put setpagedevice}
{ /setpage where{ pop PageSize aload pop pageparams 3 {exch pop} repeat
setpage}if}ifelse}ifelse}ifelse} bind def
/!{bind def}bind def/#{load def}!/N/counttomark #
/rG{3{3 -1 roll 255 div}repeat setrgbcolor}!/G{255 div setgray}!/K{0 G}!
/r6{dup 3 -1 roll rG}!/r5{dup 3 1 roll rG}!/r3{dup rG}!
/w/setlinewidth #/J/setlinecap #
/j/setlinejoin #/M/setmiterlimit #/d/setdash #/i/setflat #
/m/moveto #/l/lineto #/c/rcurveto #
/p{N 2 idiv{N -2 roll rlineto}repeat}!
/P{N 0 gt{N -2 roll moveto p}if}!
/h{p closepath}!/H{P closepath}!
/lx{0 rlineto}!/ly{0 exch rlineto}!/v{0 0 6 2 roll c}!/y{2 copy c}!
/re{4 -2 roll m exch dup lx exch ly neg lx h}!
/^{3 index neg 3 index neg}!
/f{P fill}!/f*{P eofill}!/s{H stroke}!/S{P stroke}!
/q/gsave #/Q/grestore #/rf{re fill}!
/Y{P clip newpath}!/Y*{P eoclip newpath}!/rY{re Y}!
/|={pop exch 4 1 roll 1 array astore cvx 3 array astore cvx exch 1 index def exec}!
/|{exch string readstring |=}!
/+{dup type/nametype eq{2 index 7 add -3 bitshift 2 index mul}if}!
/@/currentfile #/${+ @ |}!
/B{{2 copy string{readstring pop}aload pop 4 array astore cvx
3 1 roll}repeat pop pop true}!
/Ix{[1 0 0 1 11 -2 roll exch neg exch neg]exch}!
/,{true exch Ix imagemask}!/If{false exch Ix imagemask}!/I{exch Ix image}!
/Ic{exch Ix false 3 colorimage}!
/F{/Columns counttomark 3 add -2 roll/Rows exch/K -1/BlackIs1 true>>
/CCITTFaxDecode filter}!/FX{<</EndOfBlock false F}!
/X{/ASCII85Decode filter}!/@X{@ X}!/&2{2 index 2 index}!
/@F{@ &2<<F}!/@C{@X &2 FX}!
/$X{+ @X |}!/&4{4 index 4 index}!/$F{+ @ &4<<F |}!/$C{+ @X &4 FX |}!
/IC{3 1 roll 10 dict begin 1{/ImageType/Interpolate/Decode/DataSource
/ImageMatrix/BitsPerComponent/Height/Width}{exch def}forall
currentdict end image}!
/~{@ read {pop} if}!
end def
%%EndResource
/pagesave null def
%%EndProlog
%%Page: 1 1
%%BeginPageSetup
GS_epswrite_2_0_1001 begin
/pagesave save store 197 dict begin
0.1 0.1 scale
%%EndPageSetup
gsave mark
Q q
0 0 250000 250000 re
Y
5 w
K
756.5 590 31.5 0 P
1872.5 590 -31.5 0 P
729.5 590 S
703 574 24 33 /3U
$C
-QF8ne"Tt:oUF>0ot#YQs8W,nXfqbA/ZlCbg4g:qTE~>
,
756.5 647.5 31.5 0 P
1872.5 647.5 -31.5 0 P
729.5 647.5 S
653 632 24 33 /6U
$C
-QE\>l-V,*&9#:sf`189D/d?oonA_5>^tZ2+N(t`~>
,
678 632 3U ,
703 632 3U ,
756.5 705 31.5 0 P
1872.5 705 -31.5 0 P
729.5 705 S
628 690 17 32 /3Y
$C
+i"'Ws8W*](WjZ;pV6~>
,
653 689 3U ,
678 689 3U ,
703 689 3U ,
756.5 763 31.5 0 P
1872.5 763 -31.5 0 P
729.5 763 S
628 748 3Y ,
653 747 6U ,
678 747 3U ,
703 747 3U ,
756.5 820.5 31.5 0 P
1872.5 820.5 -31.5 0 P
729.5 820.5 S
628 806 24 32 /6Y
$C
0H36C?Z1,TfQQ5/@D`QoL@9'80`Si<m4/St.b$<a'E~>
,
653 805 3U ,
678 805 3U ,
703 805 3U ,
756.5 878 31.5 0 P
1872.5 878 -31.5 0 P
729.5 878 S
628 863 6Y ,
653 862 6U ,
678 862 3U ,
703 862 3U ,
756.5 935.5 31.5 0 P
1872.5 935.5 -31.5 0 P
729.5 935.5 S
628 920 24 33 /4C
$C
1_pXAKA@1'5mQkUs2WY>ao^l:F&Bhur58R3CV&/&'mg9):]~>
,
653 920 3U ,
678 920 3U ,
703 920 3U ,
756.5 993 31.5 0 P
1872.5 993 -31.5 0 P
729.5 993 S
628 977 4C ,
653 977 6U ,
678 977 3U ,
703 977 3U ,
756.5 1051 31.5 0 P
1872.5 1051 -31.5 0 P
729.5 1051 S
628 1036 24 32 /7C
$C
2*_-?>T<\ojkG3trqh-BpA9::pA5rFn*bK~>
,
653 1035 3U ,
678 1035 3U ,
703 1035 3U ,
756.5 1108.5 31.5 0 P
1872.5 1108.5 -31.5 0 P
729.5 1108.5 S
628 1094 7C ,
653 1093 6U ,
678 1093 3U ,
703 1093 3U ,
756.5 1166 31.5 0 P
1872.5 1166 -31.5 0 P
729.5 1166 S
628 1150 6U ,
653 1150 3U ,
678 1150 3U ,
703 1150 3U ,
756.5 590 0 31.5 P
756.5 1166 0 -31.5 P
756.5 545 S
710 540 14 4 /4G
$X
+8d5Y+8d5Y~>
,
725 530 3Y ,
750 529 3U ,
776 529 3U ,
868 590 0 31.5 P
868 1166 0 -31.5 P
868 545 S
834 540 4G ,
849 529 24 33 /7G
$C
-QF8f#>U*Fi<Ri_l2Ue<95@shXAstcFA!YdH;4G>rNrfGfW/&HK`~>
,
874 529 3U ,
979.5 590 0 31.5 P
979.5 1166 0 -31.5 P
979.5 545 S
946 540 4G ,
961 529 24 33 /4K
$C
-QF8m3mfL'6+Xe6FMIj`lYD4k'p^oJE5LXRrKFkj>7E)'X&-Z`~>
,
986 529 3U ,
1091.5 590 0 31.5 P
1091.5 1166 0 -31.5 P
1091.5 545 S
1058 540 4G ,
1073 530 7C ,
1098 529 3U ,
1203 590 0 31.5 P
1203 1166 0 -31.5 P
1203 545 S
1169 540 4G ,
1184 530 6Y ,
1209 529 3U ,
1314.5 590 0 31.5 P
1314.5 1166 0 -31.5 P
1314.5 545 S
1307 529 3U ,
1426 590 0 31.5 P
1426 1166 0 -31.5 P
1426 545 S
1406 530 6Y ,
1431 529 3U ,
1537.5 590 0 31.5 P
1537.5 1166 0 -31.5 P
1537.5 545 S
1518 530 7C ,
1543 529 3U ,
1649.5 590 0 31.5 P
1649.5 1166 0 -31.5 P
1649.5 545 S
1630 529 4K ,
1655 529 3U ,
1761 590 0 31.5 P
1761 1166 0 -31.5 P
1761 545 S
1741 529 7G ,
1766 529 3U ,
1872.5 590 0 31.5 P
1872.5 1166 0 -31.5 P
1872.5 545 S
1840 530 3Y ,
1865 529 3U ,
1890 529 3U ,
756.5 590 1116 576 re
S
2.5 w
773 1138.25 0 31.5 S
757.25 1154 31.5 0 S
1161 1138.25 0 31.5 S
1145.25 1154 31.5 0 S
1191.5 1138.25 0 31.5 S
1175.75 1154 31.5 0 S
1194.5 1137.75 0 31.5 S
1178.75 1153.5 31.5 0 S
1203 1137.75 0 31.5 S
1187.25 1153.5 31.5 0 S
1208.5 1137.75 0 31.5 S
1192.75 1153.5 31.5 0 S
1211.5 1137.25 0 31.5 S
1195.75 1153 31.5 0 S
1219.5 1137.25 0 31.5 S
1203.75 1153 31.5 0 S
1217 1137.25 0 31.5 S
1201.25 1153 31.5 0 S
1225 1137.25 0 31.5 S
1209.25 1153 31.5 0 S
1222.5 1136.75 0 31.5 S
1206.75 1152.5 31.5 0 S
1231 1136.25 0 31.5 S
1215.25 1152 31.5 0 S
1228 1135.75 0 31.5 S
1212.25 1151.5 31.5 0 S
1236.5 1135.75 0 31.5 S
1220.75 1151.5 31.5 0 S
1233.5 1135.75 0 31.5 S
1217.75 1151.5 31.5 0 S
1242 1135.25 0 31.5 S
1226.25 1151 31.5 0 S
1239 1134.75 0 31.5 S
1223.25 1150.5 31.5 0 S
1247.5 1134.25 0 31.5 S
1231.75 1150 31.5 0 S
1245 1133.25 0 31.5 S
1229.25 1149 31.5 0 S
1253 1132.75 0 31.5 S
1237.25 1148.5 31.5 0 S
1250.5 1132.25 0 31.5 S
1234.75 1148 31.5 0 S
1258.5 1132.25 0 31.5 S
1242.75 1148 31.5 0 S
1256 1131.25 0 31.5 S
1240.25 1147 31.5 0 S
1264.5 1130.75 0 31.5 S
1248.75 1146.5 31.5 0 S
1261.5 1129.75 0 31.5 S
1245.75 1145.5 31.5 0 S
1270 1128.25 0 31.5 S
1254.25 1144 31.5 0 S
1267 1126.75 0 31.5 S
1251.25 1142.5 31.5 0 S
1275.5 1125.25 0 31.5 S
1259.75 1141 31.5 0 S
1272.5 1124.25 0 31.5 S
1256.75 1140 31.5 0 S
1281 1121.75 0 31.5 S
1265.25 1137.5 31.5 0 S
1278 1119.75 0 31.5 S
1262.25 1135.5 31.5 0 S
1286.5 1116.75 0 31.5 S
1270.75 1132.5 31.5 0 S
1284 1113.75 0 31.5 S
1268.25 1129.5 31.5 0 S
1292 1110.25 0 31.5 S
1276.25 1126 31.5 0 S
1289.5 1105.75 0 31.5 S
1273.75 1121.5 31.5 0 S
1298 1101.75 0 31.5 S
1282.25 1117.5 31.5 0 S
1295 1095.75 0 31.5 S
1279.25 1111.5 31.5 0 S
1303.5 1085.75 0 31.5 S
1287.75 1101.5 31.5 0 S
1300.5 1076.25 0 31.5 S
1284.75 1092 31.5 0 S
1309 1062.25 0 31.5 S
1293.25 1078 31.5 0 S
1306 1052.75 0 31.5 S
1290.25 1068.5 31.5 0 S
1543.5 1138.25 0 31.5 S
1527.75 1154 31.5 0 S
1314.5 703.75 0 31.5 S
1298.75 719.5 31.5 0 S
1311.5 687.25 0 31.5 S
1295.75 703 31.5 0 S
1317.5 668.75 0 31.5 S
1301.75 684.5 31.5 0 S
1320 653.25 0 31.5 S
1304.25 669 31.5 0 S
1323 640.75 0 31.5 S
1307.25 656.5 31.5 0 S
1325.5 630.75 0 31.5 S
1309.75 646.5 31.5 0 S
1328.5 621.75 0 31.5 S
1312.75 637.5 31.5 0 S
1331 613.75 0 31.5 S
1315.25 629.5 31.5 0 S
1334 608.75 0 31.5 S
1318.25 624.5 31.5 0 S
1337 603.25 0 31.5 S
1321.25 619 31.5 0 S
1339.5 598.75 0 31.5 S
1323.75 614.5 31.5 0 S
1342.5 595.75 0 31.5 S
1326.75 611.5 31.5 0 S
1345 592.25 0 31.5 S
1329.25 608 31.5 0 S
1348 590.25 0 31.5 S
1332.25 606 31.5 0 S
1351 586.75 0 31.5 S
1335.25 602.5 31.5 0 S
1353.5 584.75 0 31.5 S
1337.75 600.5 31.5 0 S
1356.5 584.25 0 31.5 S
1340.75 600 31.5 0 S
1359 582.75 0 31.5 S
1343.25 598.5 31.5 0 S
1362 581.25 0 31.5 S
1346.25 597 31.5 0 S
1364.5 580.25 0 31.5 S
1348.75 596 31.5 0 S
1367.5 578.75 0 31.5 S
1351.75 594.5 31.5 0 S
1370.5 578.25 0 31.5 S
1354.75 594 31.5 0 S
1373 577.75 0 31.5 S
1357.25 593.5 31.5 0 S
1376 577.25 0 31.5 S
1360.25 593 31.5 0 S
1378.5 576.75 0 31.5 S
1362.75 592.5 31.5 0 S
1381.5 576.25 0 31.5 S
1365.75 592 31.5 0 S
1384.5 576.25 0 31.5 S
1368.75 592 31.5 0 S
1390 575.75 0 31.5 S
1374.25 591.5 31.5 0 S
1398 575.75 0 31.5 S
1382.25 591.5 31.5 0 S
1401 575.75 0 31.5 S
1385.25 591.5 31.5 0 S
1404 575.75 0 31.5 S
1388.25 591.5 31.5 0 S
1412 575.25 0 31.5 S
1396.25 591 31.5 0 S
1415 575.25 0 31.5 S
1399.25 591 31.5 0 S
1417.5 575.25 0 31.5 S
1401.75 591 31.5 0 S
1437.5 574.75 0 31.5 S
1421.75 590.5 31.5 0 S
1445.5 574.75 0 31.5 S
1429.75 590.5 31.5 0 S
1451 574.75 0 31.5 S
1435.25 590.5 31.5 0 S
1780.5 574.25 0 31.5 S
1764.75 590 31.5 0 S
1830.5 574.25 0 31.5 S
1814.75 590 31.5 0 S
1847.5 574.25 0 31.5 S
1831.75 590 31.5 0 S
5 w
756.5 590 1116 576 re
S
cleartomark end end pagesave restore
 showpage
%%PageTrailer
%%Trailer
%%Pages: 1
