%!PS-Adobe-3.0 EPSF-3.0
%%BoundingBox: 62 52 192 119
%%HiResBoundingBox: 62.800000 52.900000 191.400000 118.300000
%.....................................
%%Creator: GPL Ghostscript 871 (epswrite)
%%CreationDate: 2012/01/28 17:04:40
%%DocumentData: Clean7Bit
%%LanguageLevel: 2
%%EndComments
%%BeginProlog
% This copyright applies to everything between here and the %%EndProlog:
% Copyright (C) 2010 Artifex Software, Inc.  All rights reserved.
%%BeginResource: procset GS_epswrite_2_0_1001 1.001 0
/GS_epswrite_2_0_1001 80 dict dup begin
/PageSize 2 array def/setpagesize{ PageSize aload pop 3 index eq exch
4 index eq and{ pop pop pop}{ PageSize dup  1
5 -1 roll put 0 4 -1 roll put dup null eq {false} {dup where} ifelse{ exch get exec}
{ pop/setpagedevice where
{ pop 1 dict dup /PageSize PageSize put setpagedevice}
{ /setpage where{ pop PageSize aload pop pageparams 3 {exch pop} repeat
setpage}if}ifelse}ifelse}ifelse} bind def
/!{bind def}bind def/#{load def}!/N/counttomark #
/rG{3{3 -1 roll 255 div}repeat setrgbcolor}!/G{255 div setgray}!/K{0 G}!
/r6{dup 3 -1 roll rG}!/r5{dup 3 1 roll rG}!/r3{dup rG}!
/w/setlinewidth #/J/setlinecap #
/j/setlinejoin #/M/setmiterlimit #/d/setdash #/i/setflat #
/m/moveto #/l/lineto #/c/rcurveto #
/p{N 2 idiv{N -2 roll rlineto}repeat}!
/P{N 0 gt{N -2 roll moveto p}if}!
/h{p closepath}!/H{P closepath}!
/lx{0 rlineto}!/ly{0 exch rlineto}!/v{0 0 6 2 roll c}!/y{2 copy c}!
/re{4 -2 roll m exch dup lx exch ly neg lx h}!
/^{3 index neg 3 index neg}!
/f{P fill}!/f*{P eofill}!/s{H stroke}!/S{P stroke}!
/q/gsave #/Q/grestore #/rf{re fill}!
/Y{P clip newpath}!/Y*{P eoclip newpath}!/rY{re Y}!
/|={pop exch 4 1 roll 1 array astore cvx 3 array astore cvx exch 1 index def exec}!
/|{exch string readstring |=}!
/+{dup type/nametype eq{2 index 7 add -3 bitshift 2 index mul}if}!
/@/currentfile #/${+ @ |}!
/B{{2 copy string{readstring pop}aload pop 4 array astore cvx
3 1 roll}repeat pop pop true}!
/Ix{[1 0 0 1 11 -2 roll exch neg exch neg]exch}!
/,{true exch Ix imagemask}!/If{false exch Ix imagemask}!/I{exch Ix image}!
/Ic{exch Ix false 3 colorimage}!
/F{/Columns counttomark 3 add -2 roll/Rows exch/K -1/BlackIs1 true>>
/CCITTFaxDecode filter}!/FX{<</EndOfBlock false F}!
/X{/ASCII85Decode filter}!/@X{@ X}!/&2{2 index 2 index}!
/@F{@ &2<<F}!/@C{@X &2 FX}!
/$X{+ @X |}!/&4{4 index 4 index}!/$F{+ @ &4<<F |}!/$C{+ @X &4 FX |}!
/IC{3 1 roll 10 dict begin 1{/ImageType/Interpolate/Decode/DataSource
/ImageMatrix/BitsPerComponent/Height/Width}{exch def}forall
currentdict end image}!
/~{@ read {pop} if}!
end def
%%EndResource
/pagesave null def
%%EndProlog
%%Page: 1 1
%%BeginPageSetup
GS_epswrite_2_0_1001 begin
/pagesave save store 197 dict begin
0.1 0.1 scale
%%EndPageSetup
gsave mark
Q q
0 0 250000 250000 re
Y
5 w
K
756.5 590 31.5 0 P
1872.5 590 -31.5 0 P
729.5 590 S
703 574 24 33 /3U
$C
-QF8ne"Tt:oUF>0ot#YQs8W,nXfqbA/ZlCbg4g:qTE~>
,
756.5 672.5 31.5 0 P
1872.5 672.5 -31.5 0 P
729.5 672.5 S
653 657 24 33 /6U
$C
-QE\>l-V,*&9#:sf`189D/d?oonA_5>^tZ2+N(t`~>
,
678 657 3U ,
703 657 3U ,
756.5 754.5 31.5 0 P
1872.5 754.5 -31.5 0 P
729.5 754.5 S
628 740 17 32 /3Y
$C
+i"'Ws8W*](WjZ;pV6~>
,
653 739 3U ,
678 739 3U ,
703 739 3U ,
756.5 837 31.5 0 P
1872.5 837 -31.5 0 P
729.5 837 S
628 822 3Y ,
653 821 6U ,
678 821 3U ,
703 821 3U ,
756.5 919 31.5 0 P
1872.5 919 -31.5 0 P
729.5 919 S
628 904 24 32 /6Y
$C
0H36C?Z1,TfQQ5/@D`QoL@9'80`Si<m4/St.b$<a'E~>
,
653 903 3U ,
678 903 3U ,
703 903 3U ,
756.5 1001.5 31.5 0 P
1872.5 1001.5 -31.5 0 P
729.5 1001.5 S
628 987 6Y ,
653 986 6U ,
678 986 3U ,
703 986 3U ,
756.5 1083.5 31.5 0 P
1872.5 1083.5 -31.5 0 P
729.5 1083.5 S
628 1068 24 33 /4C
$C
1_pXAKA@1'5mQkUs2WY>ao^l:F&Bhur58R3CV&/&'mg9):]~>
,
653 1068 3U ,
678 1068 3U ,
703 1068 3U ,
756.5 1166 31.5 0 P
1872.5 1166 -31.5 0 P
729.5 1166 S
628 1150 4C ,
653 1150 6U ,
678 1150 3U ,
703 1150 3U ,
756.5 590 0 31.5 P
756.5 1166 0 -31.5 P
756.5 545 S
710 540 14 4 /7C
$X
+8d5Y+8d5Y~>
,
725 530 3Y ,
750 529 3U ,
776 529 3U ,
868 590 0 31.5 P
868 1166 0 -31.5 P
868 545 S
834 540 7C ,
849 529 24 33 /4G
$C
-QF8f#>U*Fi<Ri_l2Ue<95@shXAstcFA!YdH;4G>rNrfGfW/&HK`~>
,
874 529 3U ,
979.5 590 0 31.5 P
979.5 1166 0 -31.5 P
979.5 545 S
946 540 7C ,
961 529 24 33 /7G
$C
-QF8m3mfL'6+Xe6FMIj`lYD4k'p^oJE5LXRrKFkj>7E)'X&-Z`~>
,
986 529 3U ,
1091.5 590 0 31.5 P
1091.5 1166 0 -31.5 P
1091.5 545 S
1058 540 7C ,
1073 530 24 32 /4K
$C
2*_-?>T<\ojkG3trqh-BpA9::pA5rFn*bK~>
,
1098 529 3U ,
1203 590 0 31.5 P
1203 1166 0 -31.5 P
1203 545 S
1169 540 7C ,
1184 530 6Y ,
1209 529 3U ,
1314.5 590 0 31.5 P
1314.5 1166 0 -31.5 P
1314.5 545 S
1307 529 3U ,
1426 590 0 31.5 P
1426 1166 0 -31.5 P
1426 545 S
1406 530 6Y ,
1431 529 3U ,
1537.5 590 0 31.5 P
1537.5 1166 0 -31.5 P
1537.5 545 S
1518 530 4K ,
1543 529 3U ,
1649.5 590 0 31.5 P
1649.5 1166 0 -31.5 P
1649.5 545 S
1630 529 7G ,
1655 529 3U ,
1761 590 0 31.5 P
1761 1166 0 -31.5 P
1761 545 S
1741 529 4G ,
1766 529 3U ,
1872.5 590 0 31.5 P
1872.5 1166 0 -31.5 P
1872.5 545 S
1840 530 3Y ,
1865 529 3U ,
1890 529 3U ,
756.5 590 1116 576 re
S
2.5 w
773 574.25 0 31.5 S
757.25 590 31.5 0 S
1161 574.25 0 31.5 S
1145.25 590 31.5 0 S
1191.5 574.25 0 31.5 S
1175.75 590 31.5 0 S
1194.5 574.75 0 31.5 S
1178.75 590.5 31.5 0 S
1203 574.75 0 31.5 S
1187.25 590.5 31.5 0 S
1208.5 574.25 0 31.5 S
1192.75 590 31.5 0 S
1211.5 574.25 0 31.5 S
1195.75 590 31.5 0 S
1219.5 574.75 0 31.5 S
1203.75 590.5 31.5 0 S
1217 574.25 0 31.5 S
1201.25 590 31.5 0 S
1225 574.25 0 31.5 S
1209.25 590 31.5 0 S
1222.5 574.75 0 31.5 S
1206.75 590.5 31.5 0 S
1231 575.25 0 31.5 S
1215.25 591 31.5 0 S
1228 574.75 0 31.5 S
1212.25 590.5 31.5 0 S
1236.5 574.75 0 31.5 S
1220.75 590.5 31.5 0 S
1233.5 574.25 0 31.5 S
1217.75 590 31.5 0 S
1242 574.75 0 31.5 S
1226.25 590.5 31.5 0 S
1239 574.75 0 31.5 S
1223.25 590.5 31.5 0 S
1247.5 575.25 0 31.5 S
1231.75 591 31.5 0 S
1245 575.25 0 31.5 S
1229.25 591 31.5 0 S
1253 574.75 0 31.5 S
1237.25 590.5 31.5 0 S
1250.5 575.25 0 31.5 S
1234.75 591 31.5 0 S
1258.5 574.75 0 31.5 S
1242.75 590.5 31.5 0 S
1256 575.25 0 31.5 S
1240.25 591 31.5 0 S
1264.5 574.75 0 31.5 S
1248.75 590.5 31.5 0 S
1261.5 575.75 0 31.5 S
1245.75 591.5 31.5 0 S
1270 576.75 0 31.5 S
1254.25 592.5 31.5 0 S
1267 576.25 0 31.5 S
1251.25 592 31.5 0 S
1275.5 576.75 0 31.5 S
1259.75 592.5 31.5 0 S
1272.5 575.25 0 31.5 S
1256.75 591 31.5 0 S
1281 577.75 0 31.5 S
1265.25 593.5 31.5 0 S
1278 577.25 0 31.5 S
1262.25 593 31.5 0 S
1286.5 578.75 0 31.5 S
1270.75 594.5 31.5 0 S
1284 578.25 0 31.5 S
1268.25 594 31.5 0 S
1292 579.75 0 31.5 S
1276.25 595.5 31.5 0 S
1289.5 580.75 0 31.5 S
1273.75 596.5 31.5 0 S
1298 579.75 0 31.5 S
1282.25 595.5 31.5 0 S
1295 582.25 0 31.5 S
1279.25 598 31.5 0 S
1303.5 589.25 0 31.5 S
1287.75 605 31.5 0 S
1300.5 587.75 0 31.5 S
1284.75 603.5 31.5 0 S
1309 593.75 0 31.5 S
1293.25 609.5 31.5 0 S
1306 588.25 0 31.5 S
1290.25 604 31.5 0 S
1314.5 1072.25 0 31.5 S
1298.75 1088 31.5 0 S
1311.5 597.75 0 31.5 S
1295.75 613.5 31.5 0 S
1317.5 601.25 0 31.5 S
1301.75 617 31.5 0 S
1320 596.25 0 31.5 S
1304.25 612 31.5 0 S
1323 592.25 0 31.5 S
1307.25 608 31.5 0 S
1325.5 588.75 0 31.5 S
1309.75 604.5 31.5 0 S
1328.5 586.75 0 31.5 S
1312.75 602.5 31.5 0 S
1331 585.75 0 31.5 S
1315.25 601.5 31.5 0 S
1334 581.25 0 31.5 S
1318.25 597 31.5 0 S
1337 581.75 0 31.5 S
1321.25 597.5 31.5 0 S
1339.5 580.75 0 31.5 S
1323.75 596.5 31.5 0 S
1342.5 579.25 0 31.5 S
1326.75 595 31.5 0 S
1345 578.75 0 31.5 S
1329.25 594.5 31.5 0 S
1348 577.75 0 31.5 S
1332.25 593.5 31.5 0 S
1351 578.75 0 31.5 S
1335.25 594.5 31.5 0 S
1353.5 577.25 0 31.5 S
1337.75 593 31.5 0 S
1356.5 575.25 0 31.5 S
1340.75 591 31.5 0 S
1359 576.25 0 31.5 S
1343.25 592 31.5 0 S
1362 576.25 0 31.5 S
1346.25 592 31.5 0 S
1364.5 576.25 0 31.5 S
1348.75 592 31.5 0 S
1367.5 575.75 0 31.5 S
1351.75 591.5 31.5 0 S
1370.5 575.75 0 31.5 S
1354.75 591.5 31.5 0 S
1373 574.75 0 31.5 S
1357.25 590.5 31.5 0 S
1376 575.25 0 31.5 S
1360.25 591 31.5 0 S
1378.5 575.25 0 31.5 S
1362.75 591 31.5 0 S
1381.5 574.75 0 31.5 S
1365.75 590.5 31.5 0 S
1384.5 574.25 0 31.5 S
1368.75 590 31.5 0 S
1390 574.75 0 31.5 S
1374.25 590.5 31.5 0 S
1398 574.25 0 31.5 S
1382.25 590 31.5 0 S
1401 574.25 0 31.5 S
1385.25 590 31.5 0 S
1404 574.25 0 31.5 S
1388.25 590 31.5 0 S
1412 574.25 0 31.5 S
1396.25 590 31.5 0 S
1415 574.25 0 31.5 S
1399.25 590 31.5 0 S
1417.5 574.25 0 31.5 S
1401.75 590 31.5 0 S
1437.5 574.75 0 31.5 S
1421.75 590.5 31.5 0 S
1445.5 574.25 0 31.5 S
1429.75 590 31.5 0 S
1451 574.25 0 31.5 S
1435.25 590 31.5 0 S
1780.5 574.75 0 31.5 S
1764.75 590.5 31.5 0 S
1830.5 574.25 0 31.5 S
1814.75 590 31.5 0 S
1847.5 574.25 0 31.5 S
1831.75 590 31.5 0 S
5 w
756.5 590 1116 576 re
S
cleartomark end end pagesave restore
 showpage
%%PageTrailer
%%Trailer
%%Pages: 1
