%!PS-Adobe-3.0 EPSF-3.0
%%BoundingBox: 63 52 193 119
%%HiResBoundingBox: 63.200000 52.900000 192.700000 118.300000
%.....................................
%%Creator: GPL Ghostscript 871 (epswrite)
%%CreationDate: 2012/01/28 17:04:41
%%DocumentData: Clean7Bit
%%LanguageLevel: 2
%%EndComments
%%BeginProlog
% This copyright applies to everything between here and the %%EndProlog:
% Copyright (C) 2010 Artifex Software, Inc.  All rights reserved.
%%BeginResource: procset GS_epswrite_2_0_1001 1.001 0
/GS_epswrite_2_0_1001 80 dict dup begin
/PageSize 2 array def/setpagesize{ PageSize aload pop 3 index eq exch
4 index eq and{ pop pop pop}{ PageSize dup  1
5 -1 roll put 0 4 -1 roll put dup null eq {false} {dup where} ifelse{ exch get exec}
{ pop/setpagedevice where
{ pop 1 dict dup /PageSize PageSize put setpagedevice}
{ /setpage where{ pop PageSize aload pop pageparams 3 {exch pop} repeat
setpage}if}ifelse}ifelse}ifelse} bind def
/!{bind def}bind def/#{load def}!/N/counttomark #
/rG{3{3 -1 roll 255 div}repeat setrgbcolor}!/G{255 div setgray}!/K{0 G}!
/r6{dup 3 -1 roll rG}!/r5{dup 3 1 roll rG}!/r3{dup rG}!
/w/setlinewidth #/J/setlinecap #
/j/setlinejoin #/M/setmiterlimit #/d/setdash #/i/setflat #
/m/moveto #/l/lineto #/c/rcurveto #
/p{N 2 idiv{N -2 roll rlineto}repeat}!
/P{N 0 gt{N -2 roll moveto p}if}!
/h{p closepath}!/H{P closepath}!
/lx{0 rlineto}!/ly{0 exch rlineto}!/v{0 0 6 2 roll c}!/y{2 copy c}!
/re{4 -2 roll m exch dup lx exch ly neg lx h}!
/^{3 index neg 3 index neg}!
/f{P fill}!/f*{P eofill}!/s{H stroke}!/S{P stroke}!
/q/gsave #/Q/grestore #/rf{re fill}!
/Y{P clip newpath}!/Y*{P eoclip newpath}!/rY{re Y}!
/|={pop exch 4 1 roll 1 array astore cvx 3 array astore cvx exch 1 index def exec}!
/|{exch string readstring |=}!
/+{dup type/nametype eq{2 index 7 add -3 bitshift 2 index mul}if}!
/@/currentfile #/${+ @ |}!
/B{{2 copy string{readstring pop}aload pop 4 array astore cvx
3 1 roll}repeat pop pop true}!
/Ix{[1 0 0 1 11 -2 roll exch neg exch neg]exch}!
/,{true exch Ix imagemask}!/If{false exch Ix imagemask}!/I{exch Ix image}!
/Ic{exch Ix false 3 colorimage}!
/F{/Columns counttomark 3 add -2 roll/Rows exch/K -1/BlackIs1 true>>
/CCITTFaxDecode filter}!/FX{<</EndOfBlock false F}!
/X{/ASCII85Decode filter}!/@X{@ X}!/&2{2 index 2 index}!
/@F{@ &2<<F}!/@C{@X &2 FX}!
/$X{+ @X |}!/&4{4 index 4 index}!/$F{+ @ &4<<F |}!/$C{+ @X &4 FX |}!
/IC{3 1 roll 10 dict begin 1{/ImageType/Interpolate/Decode/DataSource
/ImageMatrix/BitsPerComponent/Height/Width}{exch def}forall
currentdict end image}!
/~{@ read {pop} if}!
end def
%%EndResource
/pagesave null def
%%EndProlog
%%Page: 1 1
%%BeginPageSetup
GS_epswrite_2_0_1001 begin
/pagesave save store 197 dict begin
0.1 0.1 scale
%%EndPageSetup
gsave mark
Q q
0 0 250000 250000 re
Y
5 w
K
810.5 590 31.5 0 P
1872.5 590 -31.5 0 P
783.5 590 S
732 575 17 32 /3U
$C
+i"'Ws8W*](WjZ;pV6~>
,
757 574 24 33 /6U
$C
-QF8ne"Tt:oUF>0ot#YQs8W,nXfqbA/ZlCbg4g:qTE~>
,
810.5 624.5 15.5 0 P
1872.5 624.5 -15.5 0 P
810.5 670.5 15.5 0 P
1872.5 670.5 -15.5 0 P
810.5 694 15.5 0 P
1872.5 694 -15.5 0 P
810.5 705 31.5 0 P
1872.5 705 -31.5 0 P
783.5 705 S
707 690 3U ,
732 689 6U ,
757 689 6U ,
810.5 740 15.5 0 P
1872.5 740 -15.5 0 P
810.5 785.5 15.5 0 P
1872.5 785.5 -15.5 0 P
810.5 809 15.5 0 P
1872.5 809 -15.5 0 P
810.5 820.5 31.5 0 P
1872.5 820.5 -31.5 0 P
783.5 820.5 S
682 806 3U ,
707 805 6U ,
732 805 6U ,
757 805 6U ,
810.5 855 15.5 0 P
1872.5 855 -15.5 0 P
810.5 901 15.5 0 P
1872.5 901 -15.5 0 P
810.5 924.5 15.5 0 P
1872.5 924.5 -15.5 0 P
810.5 935.5 31.5 0 P
1872.5 935.5 -31.5 0 P
783.5 935.5 S
657 921 3U ,
682 920 6U ,
707 920 6U ,
732 920 6U ,
757 920 6U ,
810.5 970.5 15.5 0 P
1872.5 970.5 -15.5 0 P
810.5 1016 15.5 0 P
1872.5 1016 -15.5 0 P
810.5 1039.5 15.5 0 P
1872.5 1039.5 -15.5 0 P
810.5 1051 31.5 0 P
1872.5 1051 -31.5 0 P
783.5 1051 S
632 1036 3U ,
657 1035 6U ,
682 1035 6U ,
707 1035 6U ,
732 1035 6U ,
757 1035 6U ,
810.5 1085.5 15.5 0 P
1872.5 1085.5 -15.5 0 P
810.5 1131.5 15.5 0 P
1872.5 1131.5 -15.5 0 P
810.5 1155 15.5 0 P
1872.5 1155 -15.5 0 P
810.5 1166 31.5 0 P
1872.5 1166 -31.5 0 P
783.5 1166 S
656 1151 3U ,
681 1150 24 26 /3Y
$C
-QF8m3cn$+DNj>L&-!fWfB%e^m<Z4N@4N(>$5cS~>
,
706 1151 25 21 /6Y
$C
+lE>"o)R[hGQ7^@~>
,
732 1150 6U ,
757 1150 24 33 /4C
$C
-QF8m3mfL'6+Xe6FMIj`lYD4k'p^oJE5LXRrKFkj>7E)'X&-Z`~>
,
810.5 590 0 31.5 P
810.5 1166 0 -31.5 P
810.5 545 S
803 530 3U ,
917 590 0 15.5 P
917 1166 0 -15.5 P
979.5 590 0 15.5 P
979.5 1166 0 -15.5 P
1023.5 590 0 15.5 P
1023.5 1166 0 -15.5 P
1058 590 0 15.5 P
1058 1166 0 -15.5 P
1086 590 0 15.5 P
1086 1166 0 -15.5 P
1109.5 590 0 15.5 P
1109.5 1166 0 -15.5 P
1130 590 0 15.5 P
1130 1166 0 -15.5 P
1148.5 590 0 15.5 P
1148.5 1166 0 -15.5 P
1164.5 590 0 31.5 P
1164.5 1166 0 -31.5 P
1164.5 545 S
1145 530 3U ,
1170 529 6U ,
1271 590 0 15.5 P
1271 1166 0 -15.5 P
1333.5 590 0 15.5 P
1333.5 1166 0 -15.5 P
1377.5 590 0 15.5 P
1377.5 1166 0 -15.5 P
1412 590 0 15.5 P
1412 1166 0 -15.5 P
1440 590 0 15.5 P
1440 1166 0 -15.5 P
1463.5 590 0 15.5 P
1463.5 1166 0 -15.5 P
1484 590 0 15.5 P
1484 1166 0 -15.5 P
1502.5 590 0 15.5 P
1502.5 1166 0 -15.5 P
1518.5 590 0 31.5 P
1518.5 1166 0 -31.5 P
1518.5 545 S
1486 530 3U ,
1511 529 6U ,
1536 529 6U ,
1625 590 0 15.5 P
1625 1166 0 -15.5 P
1687.5 590 0 15.5 P
1687.5 1166 0 -15.5 P
1731.5 590 0 15.5 P
1731.5 1166 0 -15.5 P
1766 590 0 15.5 P
1766 1166 0 -15.5 P
1794 590 0 15.5 P
1794 1166 0 -15.5 P
1817.5 590 0 15.5 P
1817.5 1166 0 -15.5 P
1838 590 0 15.5 P
1838 1166 0 -15.5 P
1856.5 590 0 15.5 P
1856.5 1166 0 -15.5 P
1872.5 590 0 31.5 P
1872.5 1166 0 -31.5 P
1872.5 545 S
1828 530 3U ,
1853 529 6U ,
1878 529 6U ,
1903 529 6U ,
810.5 590 1062 576 re
S
2.5 w
810.5 1110.25 0 31.5 S
794.75 1126 31.5 0 S
917 1116.75 0 31.5 S
901.25 1132.5 31.5 0 S
979.5 1101.75 0 31.5 S
963.75 1117.5 31.5 0 S
1023.5 1088.75 0 31.5 S
1007.75 1104.5 31.5 0 S
1058 1070.25 0 31.5 S
1042.25 1086 31.5 0 S
1086 1052.25 0 31.5 S
1070.25 1068 31.5 0 S
1109.5 1033.75 0 31.5 S
1093.75 1049.5 31.5 0 S
1130 1014.25 0 31.5 S
1114.25 1030 31.5 0 S
1148.5 998.25 0 31.5 S
1132.75 1014 31.5 0 S
1164.5 982.75 0 31.5 S
1148.75 998.5 31.5 0 S
1179 973.25 0 31.5 S
1163.25 989 31.5 0 S
1192.5 967.25 0 31.5 S
1176.75 983 31.5 0 S
1205 961.75 0 31.5 S
1189.25 977.5 31.5 0 S
1216 956.25 0 31.5 S
1200.25 972 31.5 0 S
1227 951.25 0 31.5 S
1211.25 967 31.5 0 S
1237 945.75 0 31.5 S
1221.25 961.5 31.5 0 S
1246 940.25 0 31.5 S
1230.25 956 31.5 0 S
1255 929.75 0 31.5 S
1239.25 945.5 31.5 0 S
1263 924.75 0 31.5 S
1247.25 940.5 31.5 0 S
1271 917.25 0 31.5 S
1255.25 933 31.5 0 S
1278.5 911.25 0 31.5 S
1262.75 927 31.5 0 S
1285.5 901.75 0 31.5 S
1269.75 917.5 31.5 0 S
1292.5 895.75 0 31.5 S
1276.75 911.5 31.5 0 S
1299 891.75 0 31.5 S
1283.25 907.5 31.5 0 S
1305.5 882.25 0 31.5 S
1289.75 898 31.5 0 S
1311.5 882.25 0 31.5 S
1295.75 898 31.5 0 S
1317 870.75 0 31.5 S
1301.25 886.5 31.5 0 S
1323 865.25 0 31.5 S
1307.25 881 31.5 0 S
1328 867.75 0 31.5 S
1312.25 883.5 31.5 0 S
1333.5 867.75 0 31.5 S
1317.75 883.5 31.5 0 S
1338.5 857.75 0 31.5 S
1322.75 873.5 31.5 0 S
1343.5 850.25 0 31.5 S
1327.75 866 31.5 0 S
1348 850.25 0 31.5 S
1332.25 866 31.5 0 S
1352.5 850.75 0 31.5 S
1336.75 866.5 31.5 0 S
1357 843.25 0 31.5 S
1341.25 859 31.5 0 S
1361.5 838.25 0 31.5 S
1345.75 854 31.5 0 S
1365.5 839.75 0 31.5 S
1349.75 855.5 31.5 0 S
1369.5 835.25 0 31.5 S
1353.75 851 31.5 0 S
1373.5 830.75 0 31.5 S
1357.75 846.5 31.5 0 S
1377.5 832.25 0 31.5 S
1361.75 848 31.5 0 S
1381.5 820.75 0 31.5 S
1365.75 836.5 31.5 0 S
1385 813.25 0 31.5 S
1369.25 829 31.5 0 S
1388.5 806.75 0 31.5 S
1372.75 822.5 31.5 0 S
1392.5 805.75 0 31.5 S
1376.75 821.5 31.5 0 S
1395.5 791.25 0 31.5 S
1379.75 807 31.5 0 S
1399 801.25 0 31.5 S
1383.25 817 31.5 0 S
1402.5 798.25 0 31.5 S
1386.75 814 31.5 0 S
1405.5 768.75 0 31.5 S
1389.75 784.5 31.5 0 S
1409 790.75 0 31.5 S
1393.25 806.5 31.5 0 S
1412 776.75 0 31.5 S
1396.25 792.5 31.5 0 S
1415 786.25 0 31.5 S
1399.25 802 31.5 0 S
1418 756.75 0 31.5 S
1402.25 772.5 31.5 0 S
1421 763.75 0 31.5 S
1405.25 779.5 31.5 0 S
1424 724.75 0 31.5 S
1408.25 740.5 31.5 0 S
1426.5 765.25 0 31.5 S
1410.75 781 31.5 0 S
1429.5 763.25 0 31.5 S
1413.75 779 31.5 0 S
1432 731.75 0 31.5 S
1416.25 747.5 31.5 0 S
1435 747.75 0 31.5 S
1419.25 763.5 31.5 0 S
1437.5 715.75 0 31.5 S
1421.75 731.5 31.5 0 S
1440 705.75 0 31.5 S
1424.25 721.5 31.5 0 S
1442.5 689.25 0 31.5 S
1426.75 705 31.5 0 S
1445 710.25 0 31.5 S
1429.25 726 31.5 0 S
1447.5 618.25 0 31.5 S
1431.75 634 31.5 0 S
1450 633.75 0 31.5 S
1434.25 649.5 31.5 0 S
1452.5 659.75 0 31.5 S
1436.75 675.5 31.5 0 S
1454.5 670.25 0 31.5 S
1438.75 686 31.5 0 S
1457 663.75 0 31.5 S
1441.25 679.5 31.5 0 S
1459 702.75 0 31.5 S
1443.25 718.5 31.5 0 S
1461.5 665.75 0 31.5 S
1445.75 681.5 31.5 0 S
1463.5 670.75 0 31.5 S
1447.75 686.5 31.5 0 S
1466 642.25 0 31.5 S
1450.25 658 31.5 0 S
1468 611.25 0 31.5 S
1452.25 627 31.5 0 S
1470 600.75 0 31.5 S
1454.25 616.5 31.5 0 S
1500.5 764.25 0 31.5 S
1484.75 780 31.5 0 S
1585 745.75 0 31.5 S
1569.25 761.5 31.5 0 S
1599 715.75 0 31.5 S
1583.25 731.5 31.5 0 S
1616.5 724.75 0 31.5 S
1600.75 740.5 31.5 0 S
1618 775.75 0 31.5 S
1602.25 791.5 31.5 0 S
5 w
810.5 590 1062 576 re
S
cleartomark end end pagesave restore
 showpage
%%PageTrailer
%%Trailer
%%Pages: 1
