%!PS-Adobe-3.0 EPSF-3.0
%%BoundingBox: 63 52 192 119
%%HiResBoundingBox: 63.200000 52.900000 191.400000 118.300000
%.....................................
%%Creator: GPL Ghostscript 871 (epswrite)
%%CreationDate: 2012/01/28 17:04:40
%%DocumentData: Clean7Bit
%%LanguageLevel: 2
%%EndComments
%%BeginProlog
% This copyright applies to everything between here and the %%EndProlog:
% Copyright (C) 2010 Artifex Software, Inc.  All rights reserved.
%%BeginResource: procset GS_epswrite_2_0_1001 1.001 0
/GS_epswrite_2_0_1001 80 dict dup begin
/PageSize 2 array def/setpagesize{ PageSize aload pop 3 index eq exch
4 index eq and{ pop pop pop}{ PageSize dup  1
5 -1 roll put 0 4 -1 roll put dup null eq {false} {dup where} ifelse{ exch get exec}
{ pop/setpagedevice where
{ pop 1 dict dup /PageSize PageSize put setpagedevice}
{ /setpage where{ pop PageSize aload pop pageparams 3 {exch pop} repeat
setpage}if}ifelse}ifelse}ifelse} bind def
/!{bind def}bind def/#{load def}!/N/counttomark #
/rG{3{3 -1 roll 255 div}repeat setrgbcolor}!/G{255 div setgray}!/K{0 G}!
/r6{dup 3 -1 roll rG}!/r5{dup 3 1 roll rG}!/r3{dup rG}!
/w/setlinewidth #/J/setlinecap #
/j/setlinejoin #/M/setmiterlimit #/d/setdash #/i/setflat #
/m/moveto #/l/lineto #/c/rcurveto #
/p{N 2 idiv{N -2 roll rlineto}repeat}!
/P{N 0 gt{N -2 roll moveto p}if}!
/h{p closepath}!/H{P closepath}!
/lx{0 rlineto}!/ly{0 exch rlineto}!/v{0 0 6 2 roll c}!/y{2 copy c}!
/re{4 -2 roll m exch dup lx exch ly neg lx h}!
/^{3 index neg 3 index neg}!
/f{P fill}!/f*{P eofill}!/s{H stroke}!/S{P stroke}!
/q/gsave #/Q/grestore #/rf{re fill}!
/Y{P clip newpath}!/Y*{P eoclip newpath}!/rY{re Y}!
/|={pop exch 4 1 roll 1 array astore cvx 3 array astore cvx exch 1 index def exec}!
/|{exch string readstring |=}!
/+{dup type/nametype eq{2 index 7 add -3 bitshift 2 index mul}if}!
/@/currentfile #/${+ @ |}!
/B{{2 copy string{readstring pop}aload pop 4 array astore cvx
3 1 roll}repeat pop pop true}!
/Ix{[1 0 0 1 11 -2 roll exch neg exch neg]exch}!
/,{true exch Ix imagemask}!/If{false exch Ix imagemask}!/I{exch Ix image}!
/Ic{exch Ix false 3 colorimage}!
/F{/Columns counttomark 3 add -2 roll/Rows exch/K -1/BlackIs1 true>>
/CCITTFaxDecode filter}!/FX{<</EndOfBlock false F}!
/X{/ASCII85Decode filter}!/@X{@ X}!/&2{2 index 2 index}!
/@F{@ &2<<F}!/@C{@X &2 FX}!
/$X{+ @X |}!/&4{4 index 4 index}!/$F{+ @ &4<<F |}!/$C{+ @X &4 FX |}!
/IC{3 1 roll 10 dict begin 1{/ImageType/Interpolate/Decode/DataSource
/ImageMatrix/BitsPerComponent/Height/Width}{exch def}forall
currentdict end image}!
/~{@ read {pop} if}!
end def
%%EndResource
/pagesave null def
%%EndProlog
%%Page: 1 1
%%BeginPageSetup
GS_epswrite_2_0_1001 begin
/pagesave save store 197 dict begin
0.1 0.1 scale
%%EndPageSetup
gsave mark
Q q
0 0 250000 250000 re
Y
5 w
K
810.5 590 31.5 0 P
1872.5 590 -31.5 0 P
783.5 590 S
757 575 17 32 /3U
$C
+i"'Ws8W*](WjZ;pV6~>
,
810.5 615 15.5 0 P
1872.5 615 -15.5 0 P
810.5 647.5 15.5 0 P
1872.5 647.5 -15.5 0 P
810.5 664.5 15.5 0 P
1872.5 664.5 -15.5 0 P
810.5 672.5 31.5 0 P
1872.5 672.5 -31.5 0 P
783.5 672.5 S
732 658 3U ,
757 657 24 33 /6U
$C
-QF8ne"Tt:oUF>0ot#YQs8W,nXfqbA/ZlCbg4g:qTE~>
,
810.5 697 15.5 0 P
1872.5 697 -15.5 0 P
810.5 730 15.5 0 P
1872.5 730 -15.5 0 P
810.5 746.5 15.5 0 P
1872.5 746.5 -15.5 0 P
810.5 754.5 31.5 0 P
1872.5 754.5 -31.5 0 P
783.5 754.5 S
707 740 3U ,
732 739 6U ,
757 739 6U ,
810.5 779.5 15.5 0 P
1872.5 779.5 -15.5 0 P
810.5 812 15.5 0 P
1872.5 812 -15.5 0 P
810.5 829 15.5 0 P
1872.5 829 -15.5 0 P
810.5 837 31.5 0 P
1872.5 837 -31.5 0 P
783.5 837 S
682 822 3U ,
707 821 6U ,
732 821 6U ,
757 821 6U ,
810.5 861.5 15.5 0 P
1872.5 861.5 -15.5 0 P
810.5 894.5 15.5 0 P
1872.5 894.5 -15.5 0 P
810.5 911 15.5 0 P
1872.5 911 -15.5 0 P
810.5 919 31.5 0 P
1872.5 919 -31.5 0 P
783.5 919 S
657 904 3U ,
682 903 6U ,
707 903 6U ,
732 903 6U ,
757 903 6U ,
810.5 944 15.5 0 P
1872.5 944 -15.5 0 P
810.5 976.5 15.5 0 P
1872.5 976.5 -15.5 0 P
810.5 993.5 15.5 0 P
1872.5 993.5 -15.5 0 P
810.5 1001.5 31.5 0 P
1872.5 1001.5 -31.5 0 P
783.5 1001.5 S
632 987 3U ,
657 986 6U ,
682 986 6U ,
707 986 6U ,
732 986 6U ,
757 986 6U ,
810.5 1026 15.5 0 P
1872.5 1026 -15.5 0 P
810.5 1059 15.5 0 P
1872.5 1059 -15.5 0 P
810.5 1075.5 15.5 0 P
1872.5 1075.5 -15.5 0 P
810.5 1083.5 31.5 0 P
1872.5 1083.5 -31.5 0 P
783.5 1083.5 S
656 1069 3U ,
681 1068 24 26 /3Y
$C
-QF8m3cn$+DNj>L&-!fWfB%e^m<Z4N@4N(>$5cS~>
,
706 1069 25 21 /6Y
$C
+lE>"o)R[hGQ7^@~>
,
732 1068 6U ,
757 1068 24 33 /4C
$C
-QF8m3mfL'6+Xe6FMIj`lYD4k'p^oJE5LXRrKFkj>7E)'X&-Z`~>
,
810.5 1108.5 15.5 0 P
1872.5 1108.5 -15.5 0 P
810.5 1141 15.5 0 P
1872.5 1141 -15.5 0 P
810.5 1158 15.5 0 P
1872.5 1158 -15.5 0 P
810.5 1166 31.5 0 P
1872.5 1166 -31.5 0 P
783.5 1166 S
656 1151 3U ,
681 1150 3Y ,
706 1151 6Y ,
732 1150 6U ,
757 1151 24 32 /7C
$C
5'R%]rnmGJpO1qCh7N+KpM@W]qu~>
,
810.5 590 0 31.5 P
810.5 1166 0 -31.5 P
810.5 545 S
803 530 3U ,
970.5 590 0 15.5 P
970.5 1166 0 -15.5 P
1064 590 0 15.5 P
1064 1166 0 -15.5 P
1130 590 0 15.5 P
1130 1166 0 -15.5 P
1181.5 590 0 15.5 P
1181.5 1166 0 -15.5 P
1223.5 590 0 15.5 P
1223.5 1166 0 -15.5 P
1259 590 0 15.5 P
1259 1166 0 -15.5 P
1290 590 0 15.5 P
1290 1166 0 -15.5 P
1317 590 0 15.5 P
1317 1166 0 -15.5 P
1341.5 590 0 31.5 P
1341.5 1166 0 -31.5 P
1341.5 545 S
1322 530 3U ,
1347 529 6U ,
1501.5 590 0 15.5 P
1501.5 1166 0 -15.5 P
1595 590 0 15.5 P
1595 1166 0 -15.5 P
1661 590 0 15.5 P
1661 1166 0 -15.5 P
1712.5 590 0 15.5 P
1712.5 1166 0 -15.5 P
1754.5 590 0 15.5 P
1754.5 1166 0 -15.5 P
1790 590 0 15.5 P
1790 1166 0 -15.5 P
1821 590 0 15.5 P
1821 1166 0 -15.5 P
1848 590 0 15.5 P
1848 1166 0 -15.5 P
1872.5 590 0 31.5 P
1872.5 1166 0 -31.5 P
1872.5 545 S
1840 530 3U ,
1865 529 6U ,
1890 529 6U ,
810.5 590 1062 576 re
S
2.5 w
970.5 1065.75 0 31.5 S
954.75 1081.5 31.5 0 S
1064 1078.75 0 31.5 S
1048.25 1094.5 31.5 0 S
1130 957.25 0 31.5 S
1114.25 973 31.5 0 S
1181.5 960.75 0 31.5 S
1165.75 976.5 31.5 0 S
1223.5 905.25 0 31.5 S
1207.75 921 31.5 0 S
1259 916.75 0 31.5 S
1243.25 932.5 31.5 0 S
1290 878.75 0 31.5 S
1274.25 894.5 31.5 0 S
1317 897.25 0 31.5 S
1301.25 913 31.5 0 S
1341.5 874.25 0 31.5 S
1325.75 890 31.5 0 S
1363.5 871.25 0 31.5 S
1347.75 887 31.5 0 S
1383.5 845.25 0 31.5 S
1367.75 861 31.5 0 S
1402 853.25 0 31.5 S
1386.25 869 31.5 0 S
1419 847.25 0 31.5 S
1403.25 863 31.5 0 S
1435 842.75 0 31.5 S
1419.25 858.5 31.5 0 S
1450 835.25 0 31.5 S
1434.25 851 31.5 0 S
1464 841.75 0 31.5 S
1448.25 857.5 31.5 0 S
1477 816.25 0 31.5 S
1461.25 832 31.5 0 S
1489.5 812.75 0 31.5 S
1473.75 828.5 31.5 0 S
1501.5 795.75 0 31.5 S
1485.75 811.5 31.5 0 S
1512.5 792.25 0 31.5 S
1496.75 808 31.5 0 S
1523.5 787.75 0 31.5 S
1507.75 803.5 31.5 0 S
1533.5 791.25 0 31.5 S
1517.75 807 31.5 0 S
1543.5 785.75 0 31.5 S
1527.75 801.5 31.5 0 S
1553 772.25 0 31.5 S
1537.25 788 31.5 0 S
1562 725.75 0 31.5 S
1546.25 741.5 31.5 0 S
1570.5 742.75 0 31.5 S
1554.75 758.5 31.5 0 S
1579 743.75 0 31.5 S
1563.25 759.5 31.5 0 S
1587 656.75 0 31.5 S
1571.25 672.5 31.5 0 S
1595 648.75 0 31.5 S
1579.25 664.5 31.5 0 S
1602.5 613.75 0 31.5 S
1586.75 629.5 31.5 0 S
1609.5 638.25 0 31.5 S
1593.75 654 31.5 0 S
1617 613.75 0 31.5 S
1601.25 629.5 31.5 0 S
1623.5 613.75 0 31.5 S
1607.75 629.5 31.5 0 S
1637 631.75 0 31.5 S
1621.25 647.5 31.5 0 S
5 w
810.5 590 1062 576 re
S
cleartomark end end pagesave restore
 showpage
%%PageTrailer
%%Trailer
%%Pages: 1
