#FIG 3.2  Produced by xfig version 3.2.5c
Landscape
Center
Metric
A4      
100.00
Single
-2
1200 2
0 32 #666666
6 1350 2925 6120 3195
2 1 0 1 0 32 51 -1 20 3.000 0 0 7 1 0 2
	1 1 1.00 60.00 120.00
	 1350 2970 6075 2970
2 1 0 1 0 32 51 -1 20 3.000 0 0 -1 0 0 2
	 1800 2925 1800 2970
2 1 0 1 0 32 51 -1 20 3.000 0 0 -1 0 0 2
	 2250 2925 2250 2970
2 1 0 1 0 32 51 -1 20 3.000 0 0 -1 0 0 2
	 2700 2925 2700 2970
2 1 0 1 0 32 51 -1 20 3.000 0 0 -1 0 0 2
	 3150 2925 3150 2970
2 1 0 1 0 32 51 -1 20 3.000 0 0 -1 0 0 2
	 3600 2925 3600 2970
2 1 0 1 0 32 51 -1 20 3.000 0 0 -1 0 0 2
	 4050 2925 4050 2970
2 1 0 1 0 32 51 -1 20 3.000 0 0 -1 0 0 2
	 4500 2925 4500 2970
2 1 0 1 0 32 51 -1 20 3.000 0 0 -1 0 0 2
	 4950 2925 4950 2970
2 1 0 1 0 32 51 -1 20 3.000 0 0 -1 0 0 2
	 5400 2925 5400 2970
4 0 0 51 -1 0 13 0.0000 4 135 375 5715 3195 time\001
4 0 0 51 -1 0 11 0.0000 4 120 180 4860 3195 16\001
4 0 0 51 -1 0 11 0.0000 4 120 180 3510 3195 10\001
4 0 0 51 -1 0 11 0.0000 4 120 90 1755 3195 2\001
-6
1 3 0 1 0 7 50 -1 0 4.000 1 0.0000 4500 2700 45 45 4500 2700 4500 2655
1 3 0 1 0 7 50 -1 0 4.000 1 0.0000 4500 2250 45 45 4500 2250 4500 2205
1 3 0 1 0 7 50 -1 0 4.000 1 0.0000 5400 2700 45 45 5400 2700 5400 2655
1 3 0 1 0 7 50 -1 0 4.000 1 0.0000 5400 2250 45 45 5400 2250 5400 2205
1 3 0 1 0 7 50 -1 0 4.000 1 0.0000 1800 1350 45 45 1800 1350 1800 1305
1 3 0 1 0 7 50 -1 0 4.000 1 0.0000 1800 1800 45 45 1800 1800 1800 1755
1 3 0 1 0 7 50 -1 0 4.000 1 0.0000 1575 1800 45 45 1575 1800 1575 1755
1 3 0 1 0 7 50 -1 0 4.000 1 0.0000 1575 2250 45 45 1575 2250 1575 2205
1 3 0 1 0 7 50 -1 0 4.000 1 0.0000 2475 1350 45 45 2475 1350 2475 1305
1 3 0 1 0 7 50 -1 0 4.000 1 0.0000 2475 2250 45 45 2475 2250 2475 2205
1 3 0 1 0 7 50 -1 0 4.000 1 0.0000 3150 1800 45 45 3150 1800 3150 1755
1 3 0 1 0 7 50 -1 0 4.000 1 0.0000 3150 2250 45 45 3150 2250 3150 2205
1 3 0 1 0 7 50 -1 0 4.000 1 0.0000 3375 2250 45 45 3375 2250 3375 2205
1 3 0 1 0 7 50 -1 0 4.000 1 0.0000 3375 2700 45 45 3375 2700 3375 2655
1 3 0 1 0 7 50 -1 0 4.000 1 0.0000 4275 1350 45 45 4275 1350 4275 1305
1 3 0 1 0 7 50 -1 0 4.000 1 0.0000 4275 2250 45 45 4275 2250 4275 2205
1 3 0 1 0 7 50 -1 0 4.000 1 0.0000 4725 1350 45 45 4725 1350 4725 1305
1 3 0 1 0 7 50 -1 0 4.000 1 0.0000 4725 1800 45 45 4725 1800 4725 1755
2 1 1 1 0 7 50 -1 -1 4.000 0 0 7 0 0 2
	 1350 1350 6075 1350
2 1 1 1 0 7 50 -1 -1 4.000 0 0 7 0 0 2
	 1350 1800 6075 1800
2 1 1 1 0 7 50 -1 -1 4.000 0 0 7 0 0 2
	 1350 2250 6075 2250
2 1 1 1 0 7 50 -1 -1 4.000 0 0 7 0 0 2
	 1350 2700 6075 2700
2 1 0 1 0 7 50 -1 0 4.000 0 0 -1 0 0 2
	 4500 2250 4500 2700
2 1 0 1 0 7 50 -1 0 4.000 0 0 -1 0 0 2
	 5400 2250 5400 2700
2 1 0 1 0 7 50 -1 0 4.000 0 0 -1 0 0 2
	 4500 2475 4725 2475
2 1 0 1 0 7 50 -1 0 4.000 0 0 -1 0 0 2
	 5400 2475 5625 2475
2 1 0 1 0 7 50 -1 0 4.000 0 0 -1 0 0 2
	 1800 1350 1800 1800
2 1 0 1 0 7 50 -1 0 4.000 0 0 -1 0 0 2
	 1575 1800 1575 2250
2 1 0 1 0 7 50 -1 0 4.000 0 0 -1 0 0 2
	 2475 1350 2475 2250
2 1 0 1 0 7 50 -1 0 4.000 0 0 -1 0 0 2
	 1800 1575 3375 1575
2 1 0 1 0 7 50 -1 0 4.000 0 0 -1 0 0 2
	 1575 2025 2925 2025
2 1 0 1 0 7 50 -1 0 4.000 0 0 -1 0 0 2
	 2475 1710 3600 1710
2 1 0 1 0 7 50 -1 0 4.000 0 0 -1 0 0 2
	 4275 1350 4275 2250
2 1 0 1 0 7 50 -1 0 4.000 0 0 -1 0 0 2
	 3150 1800 3150 2250
2 1 0 1 0 7 50 -1 0 4.000 0 0 -1 0 0 2
	 3375 2250 3375 2700
2 1 0 1 0 7 50 -1 0 4.000 0 0 -1 0 0 2
	 3150 2025 3825 2025
2 1 0 1 0 7 50 -1 0 4.000 0 0 -1 0 0 2
	 3375 2475 3825 2475
2 1 0 1 0 7 50 -1 0 4.000 0 0 -1 0 0 2
	 4725 1350 4725 1800
2 1 0 1 0 7 50 -1 0 4.000 0 0 -1 0 0 2
	 4725 1575 5850 1575
2 1 0 1 0 32 51 -1 20 3.000 0 0 -1 0 0 2
	 4275 2025 5400 2025
4 0 0 50 -1 0 13 0.0000 4 90 90 1125 1395 a\001
4 0 0 50 -1 0 13 0.0000 4 135 105 1125 1845 b\001
4 0 0 50 -1 0 13 0.0000 4 90 90 1125 2295 c\001
4 0 0 50 -1 0 13 0.0000 4 135 105 1125 2745 d\001
