%!PS-Adobe-3.0 EPSF-3.0
%%Title: gamma-path-stream.fig
%%Creator: fig2dev Version 3.2 Patchlevel 5e
%%CreationDate: Sun Jul 17 21:54:15 2016
%%BoundingBox: 0 0 177 115
%Magnification: 1.0000
%%EndComments
%%BeginProlog
/$F2psDict 200 dict def
$F2psDict begin
$F2psDict /mtrx matrix put
/col-1 {0 setgray} bind def
/col0 {0.000 0.000 0.000 srgb} bind def
/col1 {0.000 0.000 1.000 srgb} bind def
/col2 {0.000 1.000 0.000 srgb} bind def
/col3 {0.000 1.000 1.000 srgb} bind def
/col4 {1.000 0.000 0.000 srgb} bind def
/col5 {1.000 0.000 1.000 srgb} bind def
/col6 {1.000 1.000 0.000 srgb} bind def
/col7 {1.000 1.000 1.000 srgb} bind def
/col8 {0.000 0.000 0.560 srgb} bind def
/col9 {0.000 0.000 0.690 srgb} bind def
/col10 {0.000 0.000 0.820 srgb} bind def
/col11 {0.530 0.810 1.000 srgb} bind def
/col12 {0.000 0.560 0.000 srgb} bind def
/col13 {0.000 0.690 0.000 srgb} bind def
/col14 {0.000 0.820 0.000 srgb} bind def
/col15 {0.000 0.560 0.560 srgb} bind def
/col16 {0.000 0.690 0.690 srgb} bind def
/col17 {0.000 0.820 0.820 srgb} bind def
/col18 {0.560 0.000 0.000 srgb} bind def
/col19 {0.690 0.000 0.000 srgb} bind def
/col20 {0.820 0.000 0.000 srgb} bind def
/col21 {0.560 0.000 0.560 srgb} bind def
/col22 {0.690 0.000 0.690 srgb} bind def
/col23 {0.820 0.000 0.820 srgb} bind def
/col24 {0.500 0.190 0.000 srgb} bind def
/col25 {0.630 0.250 0.000 srgb} bind def
/col26 {0.750 0.380 0.000 srgb} bind def
/col27 {1.000 0.500 0.500 srgb} bind def
/col28 {1.000 0.630 0.630 srgb} bind def
/col29 {1.000 0.750 0.750 srgb} bind def
/col30 {1.000 0.880 0.880 srgb} bind def
/col31 {1.000 0.840 0.000 srgb} bind def
/col32 {0.333 0.333 0.333 srgb} bind def
/col33 {0.667 0.667 0.667 srgb} bind def

end

/cp {closepath} bind def
/ef {eofill} bind def
/gr {grestore} bind def
/gs {gsave} bind def
/sa {save} bind def
/rs {restore} bind def
/l {lineto} bind def
/m {moveto} bind def
/rm {rmoveto} bind def
/n {newpath} bind def
/s {stroke} bind def
/sh {show} bind def
/slc {setlinecap} bind def
/slj {setlinejoin} bind def
/slw {setlinewidth} bind def
/srgb {setrgbcolor} bind def
/rot {rotate} bind def
/sc {scale} bind def
/sd {setdash} bind def
/ff {findfont} bind def
/sf {setfont} bind def
/scf {scalefont} bind def
/sw {stringwidth} bind def
/tr {translate} bind def
/tnt {dup dup currentrgbcolor
  4 -2 roll dup 1 exch sub 3 -1 roll mul add
  4 -2 roll dup 1 exch sub 3 -1 roll mul add
  4 -2 roll dup 1 exch sub 3 -1 roll mul add srgb}
  bind def
/shd {dup dup currentrgbcolor 4 -2 roll mul 4 -2 roll mul
  4 -2 roll mul srgb} bind def
 /DrawEllipse {
	/endangle exch def
	/startangle exch def
	/yrad exch def
	/xrad exch def
	/y exch def
	/x exch def
	/savematrix mtrx currentmatrix def
	x y tr xrad yrad sc 0 0 1 startangle endangle arc
	closepath
	savematrix setmatrix
	} def

/$F2psBegin {$F2psDict begin /$F2psEnteredState save def} def
/$F2psEnd {$F2psEnteredState restore end} def

/pageheader {
save
newpath 0 115 moveto 0 0 lineto 177 0 lineto 177 115 lineto closepath clip newpath
-197.5 256.1 translate
1 -1 scale
$F2psBegin
10 setmiterlimit
0 slj 0 slc
 0.06299 0.06299 sc
} bind def
/pagefooter {
$F2psEnd
restore
} bind def
%%EndProlog
pageheader
%
% Fig objects follow
%
% 
% here starts figure with depth 51
% Ellipse
7.500 slw
n 4050 2700 45 45 0 360 DrawEllipse gs 0.00 setgray ef gr gs col0 s gr

% Ellipse
n 4050 3150 45 45 0 360 DrawEllipse gs 0.00 setgray ef gr gs col0 s gr

% Ellipse
n 3600 3150 45 45 0 360 DrawEllipse gs 0.00 setgray ef gr gs col0 s gr

% Ellipse
n 3600 3600 45 45 0 360 DrawEllipse gs 0.00 setgray ef gr gs col0 s gr

% Polyline
0 slj
0 slc
 [60] 0 sd
n 3375 2700 m
 5625 2700 l gs 0.00 setgray ef gr gs col0 s gr  [] 0 sd
% Polyline
 [60] 0 sd
n 3375 3150 m
 5625 3150 l gs 0.00 setgray ef gr gs col0 s gr  [] 0 sd
% Polyline
 [60] 0 sd
n 3375 3600 m
 5625 3600 l gs 0.00 setgray ef gr gs col0 s gr  [] 0 sd
% Polyline
n 3600 3150 m
 3600 3600 l gs 0.00 setgray ef gr gs col0 s gr 
% Polyline
n 4050 2700 m
 4050 3150 l gs 0.00 setgray ef gr gs col0 s gr 
% Polyline
n 4050 2925 m
 5400 2925 l gs 0.00 setgray ef gr gs col0 s gr 
% Polyline
n 3600 3375 m
 4950 3375 l gs 0.00 setgray ef gr gs col0 s gr 
% Polyline
 [15 45] 45 sd
n 4050 2700 m
 4275 3150 l gs 0.00 setgray ef gr gs col0 s gr  [] 0 sd
% Polyline
 [15 45] 45 sd
n 4275 3150 m
 4500 3600 l gs 0.00 setgray ef gr gs col0 s gr  [] 0 sd
% Polyline
n 4275 2700 m
 4275 3600 l gs 0.00 setgray ef gr gs col20 s gr 
% Polyline
gs  clippath
3596 2505 m 3615 2505 l 3615 2445 l 3596 2445 l 3596 2475 l 3596 2445 l 3596 2505 l cp
3379 2445 m 3360 2445 l 3360 2505 l 3379 2505 l 3379 2475 l 3379 2505 l 3379 2445 l cp
eoclip
n 3375 2475 m
 3600 2475 l gs 0.00 setgray ef gr gs col0 s gr gr

% arrowhead
n 3379 2445 m 3379 2505 l  col0 s
% arrowhead
n 3596 2505 m 3596 2445 l  col0 s
% Polyline
gs  clippath
5489 3855 m 5640 3855 l 5640 3795 l 5489 3795 l 5489 3795 l 5609 3825 l 5489 3855 l cp
eoclip
n 3375 3825 m
 5625 3825 l gs 0.00 setgray ef gr gs col0 s gr gr

% arrowhead
n 5489 3855 m 5609 3825 l 5489 3795 l 5489 3855 l  cp gs 0.00 setgray ef gr  col0 s
% Polyline
n 3825 3825 m
 3825 3780 l gs 0.00 setgray ef gr gs col0 s gr 
% Polyline
n 4275 3825 m
 4275 3780 l gs 0.00 setgray ef gr gs col0 s gr 
% Polyline
n 4725 3825 m
 4725 3780 l gs 0.00 setgray ef gr gs col0 s gr 
% Polyline
n 5175 3825 m
 5175 3780 l gs 0.00 setgray ef gr gs col0 s gr 
/Times-Roman ff 206.38 scf sf
3150 3645 m
gs 1 -1 sc (c) col0 sh gr
/Times-Roman ff 206.38 scf sf
3150 3195 m
gs 1 -1 sc (b) col0 sh gr
/Times-Roman ff 206.38 scf sf
3150 2745 m
gs 1 -1 sc (a) col0 sh gr
/Symbol ff 206.38 scf sf
3420 2385 m
gs 1 -1 sc (g) col0 sh gr
/Times-Roman ff 206.38 scf sf
5535 4050 m
gs 1 -1 sc (time) col0 sh gr
/Times-Roman ff 158.75 scf sf
3780 4050 m
gs 1 -1 sc (2) col0 sh gr
/Times-Roman ff 158.75 scf sf
5130 4050 m
gs 1 -1 sc (8) col0 sh gr
% here ends figure;
pagefooter
showpage
%%Trailer
%EOF
