#FIG 3.2  Produced by xfig version 3.2.5c
Landscape
Center
Metric
A4      
100.00
Single
-2
1200 2
1 3 0 1 0 0 50 -1 20 4.000 1 0.0000 1350 4275 45 45 1350 4275 1350 4230
1 3 0 1 0 0 50 -1 20 4.000 1 0.0000 1350 4725 45 45 1350 4725 1350 4680
1 3 0 1 0 0 50 -1 20 4.000 1 0.0000 1575 5175 45 45 1575 5175 1575 5130
1 3 0 1 0 0 50 -1 20 4.000 1 0.0000 1575 5625 45 45 1575 5625 1575 5580
1 3 0 1 0 0 50 -1 20 4.000 1 0.0000 2025 5175 45 45 2025 5175 2025 5130
1 3 0 1 0 0 50 -1 20 4.000 1 0.0000 2025 4725 45 45 2025 4725 2025 4680
1 3 0 1 0 0 50 -1 20 4.000 1 0.0000 3600 5175 45 45 3600 5175 3600 5130
1 3 0 1 0 0 50 -1 20 4.000 1 0.0000 3600 4725 45 45 3600 4725 3600 4680
1 3 0 1 0 0 50 -1 20 4.000 1 0.0000 6750 4725 45 45 6750 4725 6750 4680
1 3 0 1 0 0 50 -1 20 4.000 1 0.0000 6750 5175 45 45 6750 5175 6750 5130
1 3 0 1 0 0 50 -1 20 4.000 1 0.0000 4500 4725 45 45 4500 4725 4500 4680
1 3 0 1 0 0 50 -1 20 4.000 1 0.0000 4500 4275 45 45 4500 4275 4500 4230
2 1 1 1 0 7 50 -1 -1 4.000 0 0 7 0 0 2
	 1125 4275 6975 4275
2 1 1 1 0 7 50 -1 -1 4.000 0 0 7 0 0 2
	 2025 4725 3150 4725
2 1 1 1 0 7 50 -1 -1 4.000 0 0 7 0 0 2
	 3600 4725 5850 4725
2 1 1 1 0 7 50 -1 -1 4.000 0 0 7 0 0 2
	 6750 4725 6975 4725
2 1 1 1 0 7 50 -1 -1 4.000 0 0 7 0 0 2
	 1125 4725 1575 4725
2 1 1 1 0 7 50 -1 -1 4.000 0 0 7 0 0 2
	 1125 5175 6975 5175
2 1 1 1 0 7 50 -1 -1 4.000 0 0 7 0 0 2
	 1125 5625 3825 5625
2 1 0 1 0 0 50 -1 20 4.000 0 0 -1 0 0 2
	 1350 4275 1350 4725
2 1 0 1 0 0 50 -1 20 4.000 0 0 -1 0 0 2
	 2025 4725 2025 5175
2 1 0 1 0 0 50 -1 20 4.000 0 0 -1 0 0 2
	 1575 5175 1575 5625
2 1 0 1 0 0 50 -1 20 4.000 0 0 -1 0 0 2
	 3600 4725 3600 5175
2 1 0 1 0 0 50 -1 20 4.000 0 0 -1 0 0 2
	 4500 4275 4500 4725
2 1 0 1 0 0 50 -1 20 4.000 0 0 -1 0 0 2
	 6750 4725 6750 5175
2 1 0 1 0 0 50 -1 20 4.000 0 0 -1 0 0 2
	 1350 4500 1575 4500
2 1 0 1 0 0 50 -1 20 4.000 0 0 -1 0 0 2
	 2025 4950 2700 4950
2 1 0 1 0 0 50 -1 20 4.000 0 0 -1 0 0 2
	 3600 4950 5625 4950
2 1 0 1 0 0 50 -1 20 4.000 0 0 -1 0 0 2
	 4500 4500 5850 4500
2 1 0 1 0 0 50 -1 20 4.000 0 0 -1 0 0 2
	 6750 4950 6975 4950
2 1 0 1 0 0 50 -1 20 4.000 0 0 -1 0 0 2
	 1575 5400 2475 5400
4 0 0 50 -1 0 18 0.0000 4 210 150 900 5670 d\001
4 0 0 50 -1 0 18 0.0000 4 135 135 900 5220 c\001
4 0 0 50 -1 0 18 0.0000 4 210 150 900 4770 b\001
4 0 0 50 -1 0 18 0.0000 4 135 135 900 4320 a\001
