%!PS-Adobe-3.0 EPSF-3.0
%%Title: graph-redundancy.fig
%%Creator: fig2dev Version 3.2 Patchlevel 5e
%%CreationDate: Tue Jul  5 17:15:10 2016
%%BoundingBox: 0 0 215 194
%Magnification: 1.0000
%%EndComments
%%BeginProlog
/$F2psDict 200 dict def
$F2psDict begin
$F2psDict /mtrx matrix put
/col-1 {0 setgray} bind def
/col0 {0.000 0.000 0.000 srgb} bind def
/col1 {0.000 0.000 1.000 srgb} bind def
/col2 {0.000 1.000 0.000 srgb} bind def
/col3 {0.000 1.000 1.000 srgb} bind def
/col4 {1.000 0.000 0.000 srgb} bind def
/col5 {1.000 0.000 1.000 srgb} bind def
/col6 {1.000 1.000 0.000 srgb} bind def
/col7 {1.000 1.000 1.000 srgb} bind def
/col8 {0.000 0.000 0.560 srgb} bind def
/col9 {0.000 0.000 0.690 srgb} bind def
/col10 {0.000 0.000 0.820 srgb} bind def
/col11 {0.530 0.810 1.000 srgb} bind def
/col12 {0.000 0.560 0.000 srgb} bind def
/col13 {0.000 0.690 0.000 srgb} bind def
/col14 {0.000 0.820 0.000 srgb} bind def
/col15 {0.000 0.560 0.560 srgb} bind def
/col16 {0.000 0.690 0.690 srgb} bind def
/col17 {0.000 0.820 0.820 srgb} bind def
/col18 {0.560 0.000 0.000 srgb} bind def
/col19 {0.690 0.000 0.000 srgb} bind def
/col20 {0.820 0.000 0.000 srgb} bind def
/col21 {0.560 0.000 0.560 srgb} bind def
/col22 {0.690 0.000 0.690 srgb} bind def
/col23 {0.820 0.000 0.820 srgb} bind def
/col24 {0.500 0.190 0.000 srgb} bind def
/col25 {0.630 0.250 0.000 srgb} bind def
/col26 {0.750 0.380 0.000 srgb} bind def
/col27 {1.000 0.500 0.500 srgb} bind def
/col28 {1.000 0.630 0.630 srgb} bind def
/col29 {1.000 0.750 0.750 srgb} bind def
/col30 {1.000 0.880 0.880 srgb} bind def
/col31 {1.000 0.840 0.000 srgb} bind def

end

/cp {closepath} bind def
/ef {eofill} bind def
/gr {grestore} bind def
/gs {gsave} bind def
/sa {save} bind def
/rs {restore} bind def
/l {lineto} bind def
/m {moveto} bind def
/rm {rmoveto} bind def
/n {newpath} bind def
/s {stroke} bind def
/sh {show} bind def
/slc {setlinecap} bind def
/slj {setlinejoin} bind def
/slw {setlinewidth} bind def
/srgb {setrgbcolor} bind def
/rot {rotate} bind def
/sc {scale} bind def
/sd {setdash} bind def
/ff {findfont} bind def
/sf {setfont} bind def
/scf {scalefont} bind def
/sw {stringwidth} bind def
/tr {translate} bind def
/tnt {dup dup currentrgbcolor
  4 -2 roll dup 1 exch sub 3 -1 roll mul add
  4 -2 roll dup 1 exch sub 3 -1 roll mul add
  4 -2 roll dup 1 exch sub 3 -1 roll mul add srgb}
  bind def
/shd {dup dup currentrgbcolor 4 -2 roll mul 4 -2 roll mul
  4 -2 roll mul srgb} bind def
 /DrawEllipse {
	/endangle exch def
	/startangle exch def
	/yrad exch def
	/xrad exch def
	/y exch def
	/x exch def
	/savematrix mtrx currentmatrix def
	x y tr xrad yrad sc 0 0 1 startangle endangle arc
	closepath
	savematrix setmatrix
	} def

/$F2psBegin {$F2psDict begin /$F2psEnteredState save def} def
/$F2psEnd {$F2psEnteredState restore end} def

/pageheader {
save
newpath 0 194 moveto 0 0 lineto 215 0 lineto 215 194 lineto closepath clip newpath
-38.7 417.6 translate
1 -1 scale
$F2psBegin
10 setmiterlimit
0 slj 0 slc
 0.06299 0.06299 sc
} bind def
/pagefooter {
$F2psEnd
restore
} bind def
%%EndProlog
pageheader
%
% Fig objects follow
%
% 
% here starts figure with depth 50
% Ellipse
7.500 slw
n 3240 6075 64 64 0 360 DrawEllipse gs 0.00 setgray ef gr gs col0 s gr

% Ellipse
n 3690 6075 64 64 0 360 DrawEllipse gs 0.00 setgray ef gr gs col0 s gr

% Ellipse
n 3240 6525 64 64 0 360 DrawEllipse gs 0.00 setgray ef gr gs col0 s gr

% Ellipse
n 3690 6525 64 64 0 360 DrawEllipse gs 0.00 setgray ef gr gs col0 s gr

% Polyline
0 slj
0 slc
n 3240 6075 m
 3240 6525 l gs 0.00 setgray ef gr gs col0 s gr 
% Polyline
n 3690 6075 m
 3690 6525 l gs 0.00 setgray ef gr gs col0 s gr 
% Polyline
n 3240 6525 m
 3690 6525 l gs 0.00 setgray ef gr gs col0 s gr 
% Polyline
n 3240 6075 m
 3690 6075 l gs 0.00 setgray ef gr gs col0 s gr 
% Polyline
n 3217 6052 m
 3667 6502 l gs 0.00 setgray ef gr gs col0 s gr 
% Polyline
n 3712 6052 m
 3262 6502 l gs 0.00 setgray ef gr gs col0 s gr 
% Ellipse
n 1080 6075 64 64 0 360 DrawEllipse gs 0.00 setgray ef gr gs col0 s gr

% Ellipse
n 1530 6075 64 64 0 360 DrawEllipse gs 0.00 setgray ef gr gs col0 s gr

% Ellipse
n 1080 6525 64 64 0 360 DrawEllipse gs 0.00 setgray ef gr gs col0 s gr

% Ellipse
n 1530 6525 64 64 0 360 DrawEllipse gs 0.00 setgray ef gr gs col0 s gr

% Polyline
n 1530 6075 m
 1530 6525 l gs 0.00 setgray ef gr gs col0 s gr 
% Polyline
n 1080 6525 m
 1530 6525 l gs 0.00 setgray ef gr gs col0 s gr 
% Polyline
n 1530 6075 m
 1080 6525 l gs 0.00 setgray ef gr gs col0 s gr 
% Ellipse
n 1800 4500 64 64 0 360 DrawEllipse gs 0.00 setgray ef gr gs col0 s gr

% Ellipse
n 2250 4500 64 64 0 360 DrawEllipse gs 0.00 setgray ef gr gs col0 s gr

% Ellipse
n 2700 4500 64 64 0 360 DrawEllipse gs 0.00 setgray ef gr gs col0 s gr

% Ellipse
n 3150 4500 64 64 0 360 DrawEllipse gs 0.00 setgray ef gr gs col0 s gr

% Ellipse
n 2925 3825 64 64 0 360 DrawEllipse gs 0.00 setgray ef gr gs col0 s gr

% Ellipse
n 2025 3825 64 64 0 360 DrawEllipse gs 0.00 setgray ef gr gs col0 s gr

% Polyline
n 2025 3825 m
 2250 4500 l gs 0.00 setgray ef gr gs col0 s gr 
% Polyline
n 2025 3825 m
 1800 4500 l gs 0.00 setgray ef gr gs col0 s gr 
% Polyline
n 2025 3825 m
 2700 4500 l gs 0.00 setgray ef gr gs col0 s gr 
% Polyline
n 2025 3825 m
 3150 4500 l gs 0.00 setgray ef gr gs col0 s gr 
% Polyline
n 2925 3825 m
 2700 4500 l gs 0.00 setgray ef gr gs col0 s gr 
% Polyline
n 2925 3825 m
 3150 4500 l gs 0.00 setgray ef gr gs col0 s gr 
% Polyline
n 2925 3825 m
 2250 4500 l gs 0.00 setgray ef gr gs col0 s gr 
% Polyline
gs  clippath
3435 5804 m 3435 5955 l 3495 5955 l 3495 5804 l 3495 5804 l 3465 5924 l 3435 5804 l cp
eoclip
n 3465 5490 m
 3465 5940 l gs 0.00 setgray ef gr gs col0 s gr gr

% arrowhead
n 3435 5804 m 3465 5924 l 3495 5804 l 3435 5804 l  cp gs 0.00 setgray ef gr  col0 s
% Polyline
n 3236 4773 m
 3461 5088 l gs 0.00 setgray ef gr gs col0 s gr 
% Polyline
n 1654 4760 m
 1384 5075 l gs 0.00 setgray ef gr gs col0 s gr 
% Polyline
gs  clippath
1320 5759 m 1320 5910 l 1380 5910 l 1380 5759 l 1380 5759 l 1350 5879 l 1320 5759 l cp
eoclip
n 1350 5445 m
 1350 5895 l gs 0.00 setgray ef gr gs col0 s gr gr

% arrowhead
n 1320 5759 m 1350 5879 l 1380 5759 l 1320 5759 l  cp gs 0.00 setgray ef gr  col0 s
/Times-Roman ff 222.25 scf sf
2970 6120 m
gs 1 -1 sc (A) col0 sh gr
/Times-Roman ff 222.25 scf sf
3825 6120 m
gs 1 -1 sc (B) col0 sh gr
/Times-Roman ff 222.25 scf sf
2970 6615 m
gs 1 -1 sc (C) col0 sh gr
/Times-Roman ff 222.25 scf sf
3825 6615 m
gs 1 -1 sc (D) col0 sh gr
/Times-Roman ff 222.25 scf sf
810 6120 m
gs 1 -1 sc (A) col0 sh gr
/Times-Roman ff 222.25 scf sf
1665 6120 m
gs 1 -1 sc (B) col0 sh gr
/Times-Roman ff 222.25 scf sf
810 6615 m
gs 1 -1 sc (C) col0 sh gr
/Times-Roman ff 222.25 scf sf
1665 6615 m
gs 1 -1 sc (D) col0 sh gr
/Times-Roman ff 222.25 scf sf
1710 4770 m
gs 1 -1 sc (A) col0 sh gr
/Times-Roman ff 222.25 scf sf
2160 4770 m
gs 1 -1 sc (B) col0 sh gr
/Times-Roman ff 222.25 scf sf
2610 4770 m
gs 1 -1 sc (C) col0 sh gr
/Times-Roman ff 222.25 scf sf
3060 4770 m
gs 1 -1 sc (D) col0 sh gr
/Times-Roman ff 222.25 scf sf
2880 3735 m
gs 1 -1 sc (2) col0 sh gr
/Times-Roman ff 222.25 scf sf
1980 3735 m
gs 1 -1 sc (1) col0 sh gr
/Times-Roman ff 158.75 scf sf
2790 5220 m
gs 1 -1 sc (Projection without) col0 sh gr
/Times-Roman ff 158.75 scf sf
3195 5400 m
gs 1 -1 sc (node "2") col0 sh gr
/Times-Roman ff 158.75 scf sf
630 5220 m
gs 1 -1 sc (Projection without) col0 sh gr
/Times-Roman ff 158.75 scf sf
990 5400 m
gs 1 -1 sc (node "1") col0 sh gr
% here ends figure;
pagefooter
showpage
%%Trailer
%EOF
