%!PS-Adobe-3.0 EPSF-3.0
%%Title: graphproj-bip.fig
%%Creator: fig2dev Version 3.2 Patchlevel 5e
%%CreationDate: Thu Jun 30 16:17:12 2016
%%BoundingBox: 0 0 153 279
%Magnification: 1.0000
%%EndComments
%%BeginProlog
/$F2psDict 200 dict def
$F2psDict begin
$F2psDict /mtrx matrix put
/col-1 {0 setgray} bind def
/col0 {0.000 0.000 0.000 srgb} bind def
/col1 {0.000 0.000 1.000 srgb} bind def
/col2 {0.000 1.000 0.000 srgb} bind def
/col3 {0.000 1.000 1.000 srgb} bind def
/col4 {1.000 0.000 0.000 srgb} bind def
/col5 {1.000 0.000 1.000 srgb} bind def
/col6 {1.000 1.000 0.000 srgb} bind def
/col7 {1.000 1.000 1.000 srgb} bind def
/col8 {0.000 0.000 0.560 srgb} bind def
/col9 {0.000 0.000 0.690 srgb} bind def
/col10 {0.000 0.000 0.820 srgb} bind def
/col11 {0.530 0.810 1.000 srgb} bind def
/col12 {0.000 0.560 0.000 srgb} bind def
/col13 {0.000 0.690 0.000 srgb} bind def
/col14 {0.000 0.820 0.000 srgb} bind def
/col15 {0.000 0.560 0.560 srgb} bind def
/col16 {0.000 0.690 0.690 srgb} bind def
/col17 {0.000 0.820 0.820 srgb} bind def
/col18 {0.560 0.000 0.000 srgb} bind def
/col19 {0.690 0.000 0.000 srgb} bind def
/col20 {0.820 0.000 0.000 srgb} bind def
/col21 {0.560 0.000 0.560 srgb} bind def
/col22 {0.690 0.000 0.690 srgb} bind def
/col23 {0.820 0.000 0.820 srgb} bind def
/col24 {0.500 0.190 0.000 srgb} bind def
/col25 {0.630 0.250 0.000 srgb} bind def
/col26 {0.750 0.380 0.000 srgb} bind def
/col27 {1.000 0.500 0.500 srgb} bind def
/col28 {1.000 0.630 0.630 srgb} bind def
/col29 {1.000 0.750 0.750 srgb} bind def
/col30 {1.000 0.880 0.880 srgb} bind def
/col31 {1.000 0.840 0.000 srgb} bind def

end

/cp {closepath} bind def
/ef {eofill} bind def
/gr {grestore} bind def
/gs {gsave} bind def
/sa {save} bind def
/rs {restore} bind def
/l {lineto} bind def
/m {moveto} bind def
/rm {rmoveto} bind def
/n {newpath} bind def
/s {stroke} bind def
/sh {show} bind def
/slc {setlinecap} bind def
/slj {setlinejoin} bind def
/slw {setlinewidth} bind def
/srgb {setrgbcolor} bind def
/rot {rotate} bind def
/sc {scale} bind def
/sd {setdash} bind def
/ff {findfont} bind def
/sf {setfont} bind def
/scf {scalefont} bind def
/sw {stringwidth} bind def
/tr {translate} bind def
/tnt {dup dup currentrgbcolor
  4 -2 roll dup 1 exch sub 3 -1 roll mul add
  4 -2 roll dup 1 exch sub 3 -1 roll mul add
  4 -2 roll dup 1 exch sub 3 -1 roll mul add srgb}
  bind def
/shd {dup dup currentrgbcolor 4 -2 roll mul 4 -2 roll mul
  4 -2 roll mul srgb} bind def
 /DrawEllipse {
	/endangle exch def
	/startangle exch def
	/yrad exch def
	/xrad exch def
	/y exch def
	/x exch def
	/savematrix mtrx currentmatrix def
	x y tr xrad yrad sc 0 0 1 startangle endangle arc
	closepath
	savematrix setmatrix
	} def

/$F2psBegin {$F2psDict begin /$F2psEnteredState save def} def
/$F2psEnd {$F2psEnteredState restore end} def

/pageheader {
save
newpath 0 279 moveto 0 0 lineto 153 0 lineto 153 279 lineto closepath clip newpath
-64.3 259.6 translate
1 -1 scale
$F2psBegin
10 setmiterlimit
0 slj 0 slc
 0.06299 0.06299 sc
} bind def
/pagefooter {
$F2psEnd
restore
} bind def
%%EndProlog
pageheader
%
% Fig objects follow
%
% 
% here starts figure with depth 50
% Ellipse
7.500 slw
n 1575 1350 64 64 0 360 DrawEllipse gs col10 1.00 shd ef gr gs col10 s gr

% Ellipse
n 2025 1350 64 64 0 360 DrawEllipse gs col4 1.00 shd ef gr gs col4 s gr

% Ellipse
n 2475 1350 64 64 0 360 DrawEllipse gs col13 1.00 shd ef gr gs col13 s gr

% Ellipse
n 2925 1350 64 64 0 360 DrawEllipse gs col23 1.00 shd ef gr gs col23 s gr

% Polyline
0 slj
0 slc
n 2250 3150 m
 2250 3600 l gs col7 0.00 shd ef gr gs col0 s gr 
% Polyline
n 1575 1350 m
 1125 2250 l gs col10 1.00 shd ef gr gs col10 s gr 
% Polyline
n 1575 1350 m
 1575 2250 l gs col10 1.00 shd ef gr gs col10 s gr 
% Polyline
n 1575 1350 m
 2025 2250 l gs col10 1.00 shd ef gr gs col10 s gr 
% Polyline
n 2250 3150 m
 1800 3375 l gs col10 1.00 shd ef gr gs col10 s gr 
% Polyline
n 1800 3375 m
 2250 3600 l gs col10 1.00 shd ef gr gs col10 s gr 
% Polyline
n 2025 1350 m
 1575 2250 l gs col4 1.00 shd ef gr gs col4 s gr 
% Polyline
n 2025 1350 m
 2025 2250 l gs col4 1.00 shd ef gr gs col4 s gr 
% Polyline
n 2025 1350 m
 2475 2250 l gs col4 1.00 shd ef gr gs col4 s gr 
% Polyline
n 2700 3375 m
 2250 3150 l gs col4 1.00 shd ef gr gs col4 s gr 
% Polyline
n 2250 3600 m
 2700 3375 l gs col4 1.00 shd ef gr gs col4 s gr 
% Polyline
n 2475 1350 m
 2025 2250 l gs col13 1.00 shd ef gr gs col13 s gr 
% Polyline
n 2475 1350 m
 2925 2250 l gs col13 1.00 shd ef gr gs col13 s gr 
% Polyline
n 2250 3600 m
 2025 4050 l gs col13 1.00 shd ef gr gs col13 s gr 
% Polyline
n 2925 1350 m
 2475 2250 l gs col23 1.00 shd ef gr gs col23 s gr 
% Polyline
n 2925 1350 m
 3375 2250 l gs col23 1.00 shd ef gr gs col23 s gr 
% Polyline
n 2700 3375 m
 2925 3825 l gs col23 1.00 shd ef gr gs col23 s gr 
% Polyline
n 2925 0 m
 2475 -225 l gs 0.00 setgray ef gr gs col0 s gr 
% Polyline
n 2925 0 m
 2475 225 l gs 0.00 setgray ef gr gs col0 s gr 
% Polyline
n 2475 -225 m
 2475 225 l gs 0.00 setgray ef gr gs col0 s gr 
% Polyline
n 2475 225 m
 1800 225 l gs 0.00 setgray ef gr gs col0 s gr 
% Polyline
gs  clippath
2280 586 m 2280 435 l 2220 435 l 2220 586 l 2220 586 l 2250 466 l 2280 586 l cp
eoclip
n 2250 900 m
 2250 450 l gs 0.00 setgray ef gr gs col0 s gr gr

% arrowhead
n 2280 586 m 2250 466 l 2220 586 l 2280 586 l  cp gs 0.00 setgray ef gr  col0 s
% Polyline
gs  clippath
2220 2789 m 2220 2940 l 2280 2940 l 2280 2789 l 2280 2789 l 2250 2909 l 2220 2789 l cp
eoclip
n 2250 2520 m
 2250 2925 l gs 0.00 setgray ef gr gs col0 s gr gr

% arrowhead
n 2220 2789 m 2250 2909 l 2280 2789 l 2220 2789 l  cp gs 0.00 setgray ef gr  col0 s
/Times-Roman ff 222.25 scf sf
1980 1260 m
gs 1 -1 sc (2) col0 sh gr
/Times-Roman ff 222.25 scf sf
1530 1260 m
gs 1 -1 sc (1) col0 sh gr
/Times-Roman ff 222.25 scf sf
2430 1260 m
gs 1 -1 sc (3) col0 sh gr
/Times-Roman ff 222.25 scf sf
2880 1260 m
gs 1 -1 sc (4) col0 sh gr
/Times-Roman ff 222.25 scf sf
1485 2520 m
gs 1 -1 sc (B) col0 sh gr
/Times-Roman ff 222.25 scf sf
1935 2520 m
gs 1 -1 sc (C) col0 sh gr
/Times-Roman ff 222.25 scf sf
2385 2520 m
gs 1 -1 sc (D) col0 sh gr
/Times-Roman ff 222.25 scf sf
2835 2520 m
gs 1 -1 sc (E) col0 sh gr
/Times-Roman ff 222.25 scf sf
3285 2520 m
gs 1 -1 sc (F) col0 sh gr
/Times-Roman ff 222.25 scf sf
1035 2520 m
gs 1 -1 sc (A) col0 sh gr
% Ellipse
n 2025 4050 64 64 0 360 DrawEllipse gs 0.00 setgray ef gr gs col0 s gr

% Ellipse
n 2250 3600 64 64 0 360 DrawEllipse gs 0.00 setgray ef gr gs col0 s gr

% Ellipse
n 2925 3825 64 64 0 360 DrawEllipse gs 0.00 setgray ef gr gs col0 s gr

% Ellipse
n 2700 3375 64 64 0 360 DrawEllipse gs 0.00 setgray ef gr gs col0 s gr

% Ellipse
n 2250 3150 64 64 0 360 DrawEllipse gs 0.00 setgray ef gr gs col0 s gr

% Ellipse
n 1800 3375 64 64 0 360 DrawEllipse gs 0.00 setgray ef gr gs col0 s gr

% Ellipse
n 1125 2250 64 64 0 360 DrawEllipse gs 0.00 setgray ef gr gs col0 s gr

% Ellipse
n 1575 2250 64 64 0 360 DrawEllipse gs 0.00 setgray ef gr gs col0 s gr

% Ellipse
n 2025 2250 64 64 0 360 DrawEllipse gs 0.00 setgray ef gr gs col0 s gr

% Ellipse
n 2475 2250 64 64 0 360 DrawEllipse gs 0.00 setgray ef gr gs col0 s gr

% Ellipse
n 2925 2250 64 64 0 360 DrawEllipse gs 0.00 setgray ef gr gs col0 s gr

% Ellipse
n 3375 2250 64 64 0 360 DrawEllipse gs 0.00 setgray ef gr gs col0 s gr

% Ellipse
n 2475 -225 64 64 0 360 DrawEllipse gs col10 1.00 shd ef gr gs col10 s gr

% Ellipse
n 2925 0 64 64 0 360 DrawEllipse gs col13 1.00 shd ef gr gs col13 s gr

% Ellipse
n 2475 225 64 64 0 360 DrawEllipse gs col4 1.00 shd ef gr gs col4 s gr

% Ellipse
n 1800 225 64 64 0 360 DrawEllipse gs col23 1.00 shd ef gr gs col23 s gr

% here ends figure;
pagefooter
showpage
%%Trailer
%EOF
