%!PS-Adobe-2.0
%%Title: ipspersecond-inset.eps
%%Creator: gnuplot 4.6 patchlevel 4
%%CreationDate: Mon Jul 18 16:15:26 2016
%%DocumentFonts: (atend)
%%BoundingBox: 50 50 554 770
%%Orientation: Landscape
%%Pages: (atend)
%%EndComments
%%BeginProlog
/gnudict 256 dict def
gnudict begin
%
% The following true/false flags may be edited by hand if desired.
% The unit line width and grayscale image gamma correction may also be changed.
%
/Color true def
/Blacktext false def
/Solid false def
/Dashlength 1 def
/Landscape true def
/Level1 false def
/Rounded false def
/ClipToBoundingBox false def
/SuppressPDFMark false def
/TransparentPatterns false def
/gnulinewidth 5.000 def
/userlinewidth gnulinewidth def
/Gamma 1.0 def
/BackgroundColor {-1.000 -1.000 -1.000} def
%
/vshift -46 def
/dl1 {
  10.0 Dashlength mul mul
  Rounded { currentlinewidth 0.75 mul sub dup 0 le { pop 0.01 } if } if
} def
/dl2 {
  10.0 Dashlength mul mul
  Rounded { currentlinewidth 0.75 mul add } if
} def
/hpt_ 31.5 def
/vpt_ 31.5 def
/hpt hpt_ def
/vpt vpt_ def
/doclip {
  ClipToBoundingBox {
    newpath 50 50 moveto 554 50 lineto 554 770 lineto 50 770 lineto closepath
    clip
  } if
} def
%
% Gnuplot Prolog Version 4.6 (September 2012)
%
%/SuppressPDFMark true def
%
/M {moveto} bind def
/L {lineto} bind def
/R {rmoveto} bind def
/V {rlineto} bind def
/N {newpath moveto} bind def
/Z {closepath} bind def
/C {setrgbcolor} bind def
/f {rlineto fill} bind def
/g {setgray} bind def
/Gshow {show} def   % May be redefined later in the file to support UTF-8
/vpt2 vpt 2 mul def
/hpt2 hpt 2 mul def
/Lshow {currentpoint stroke M 0 vshift R 
	Blacktext {gsave 0 setgray show grestore} {show} ifelse} def
/Rshow {currentpoint stroke M dup stringwidth pop neg vshift R
	Blacktext {gsave 0 setgray show grestore} {show} ifelse} def
/Cshow {currentpoint stroke M dup stringwidth pop -2 div vshift R 
	Blacktext {gsave 0 setgray show grestore} {show} ifelse} def
/UP {dup vpt_ mul /vpt exch def hpt_ mul /hpt exch def
  /hpt2 hpt 2 mul def /vpt2 vpt 2 mul def} def
/DL {Color {setrgbcolor Solid {pop []} if 0 setdash}
 {pop pop pop 0 setgray Solid {pop []} if 0 setdash} ifelse} def
/BL {stroke userlinewidth 2 mul setlinewidth
	Rounded {1 setlinejoin 1 setlinecap} if} def
/AL {stroke userlinewidth 2 div setlinewidth
	Rounded {1 setlinejoin 1 setlinecap} if} def
/UL {dup gnulinewidth mul /userlinewidth exch def
	dup 1 lt {pop 1} if 10 mul /udl exch def} def
/PL {stroke userlinewidth setlinewidth
	Rounded {1 setlinejoin 1 setlinecap} if} def
3.8 setmiterlimit
% Default Line colors
/LCw {1 1 1} def
/LCb {0 0 0} def
/LCa {0 0 0} def
/LC0 {1 0 0} def
/LC1 {0 1 0} def
/LC2 {0 0 1} def
/LC3 {1 0 1} def
/LC4 {0 1 1} def
/LC5 {1 1 0} def
/LC6 {0 0 0} def
/LC7 {1 0.3 0} def
/LC8 {0.5 0.5 0.5} def
% Default Line Types
/LTw {PL [] 1 setgray} def
/LTb {BL [] LCb DL} def
/LTa {AL [1 udl mul 2 udl mul] 0 setdash LCa setrgbcolor} def
/LT0 {PL [] LC0 DL} def
/LT1 {PL [4 dl1 2 dl2] LC1 DL} def
/LT2 {PL [2 dl1 3 dl2] LC2 DL} def
/LT3 {PL [1 dl1 1.5 dl2] LC3 DL} def
/LT4 {PL [6 dl1 2 dl2 1 dl1 2 dl2] LC4 DL} def
/LT5 {PL [3 dl1 3 dl2 1 dl1 3 dl2] LC5 DL} def
/LT6 {PL [2 dl1 2 dl2 2 dl1 6 dl2] LC6 DL} def
/LT7 {PL [1 dl1 2 dl2 6 dl1 2 dl2 1 dl1 2 dl2] LC7 DL} def
/LT8 {PL [2 dl1 2 dl2 2 dl1 2 dl2 2 dl1 2 dl2 2 dl1 4 dl2] LC8 DL} def
/Pnt {stroke [] 0 setdash gsave 1 setlinecap M 0 0 V stroke grestore} def
/Dia {stroke [] 0 setdash 2 copy vpt add M
  hpt neg vpt neg V hpt vpt neg V
  hpt vpt V hpt neg vpt V closepath stroke
  Pnt} def
/Pls {stroke [] 0 setdash vpt sub M 0 vpt2 V
  currentpoint stroke M
  hpt neg vpt neg R hpt2 0 V stroke
 } def
/Box {stroke [] 0 setdash 2 copy exch hpt sub exch vpt add M
  0 vpt2 neg V hpt2 0 V 0 vpt2 V
  hpt2 neg 0 V closepath stroke
  Pnt} def
/Crs {stroke [] 0 setdash exch hpt sub exch vpt add M
  hpt2 vpt2 neg V currentpoint stroke M
  hpt2 neg 0 R hpt2 vpt2 V stroke} def
/TriU {stroke [] 0 setdash 2 copy vpt 1.12 mul add M
  hpt neg vpt -1.62 mul V
  hpt 2 mul 0 V
  hpt neg vpt 1.62 mul V closepath stroke
  Pnt} def
/Star {2 copy Pls Crs} def
/BoxF {stroke [] 0 setdash exch hpt sub exch vpt add M
  0 vpt2 neg V hpt2 0 V 0 vpt2 V
  hpt2 neg 0 V closepath fill} def
/TriUF {stroke [] 0 setdash vpt 1.12 mul add M
  hpt neg vpt -1.62 mul V
  hpt 2 mul 0 V
  hpt neg vpt 1.62 mul V closepath fill} def
/TriD {stroke [] 0 setdash 2 copy vpt 1.12 mul sub M
  hpt neg vpt 1.62 mul V
  hpt 2 mul 0 V
  hpt neg vpt -1.62 mul V closepath stroke
  Pnt} def
/TriDF {stroke [] 0 setdash vpt 1.12 mul sub M
  hpt neg vpt 1.62 mul V
  hpt 2 mul 0 V
  hpt neg vpt -1.62 mul V closepath fill} def
/DiaF {stroke [] 0 setdash vpt add M
  hpt neg vpt neg V hpt vpt neg V
  hpt vpt V hpt neg vpt V closepath fill} def
/Pent {stroke [] 0 setdash 2 copy gsave
  translate 0 hpt M 4 {72 rotate 0 hpt L} repeat
  closepath stroke grestore Pnt} def
/PentF {stroke [] 0 setdash gsave
  translate 0 hpt M 4 {72 rotate 0 hpt L} repeat
  closepath fill grestore} def
/Circle {stroke [] 0 setdash 2 copy
  hpt 0 360 arc stroke Pnt} def
/CircleF {stroke [] 0 setdash hpt 0 360 arc fill} def
/C0 {BL [] 0 setdash 2 copy moveto vpt 90 450 arc} bind def
/C1 {BL [] 0 setdash 2 copy moveto
	2 copy vpt 0 90 arc closepath fill
	vpt 0 360 arc closepath} bind def
/C2 {BL [] 0 setdash 2 copy moveto
	2 copy vpt 90 180 arc closepath fill
	vpt 0 360 arc closepath} bind def
/C3 {BL [] 0 setdash 2 copy moveto
	2 copy vpt 0 180 arc closepath fill
	vpt 0 360 arc closepath} bind def
/C4 {BL [] 0 setdash 2 copy moveto
	2 copy vpt 180 270 arc closepath fill
	vpt 0 360 arc closepath} bind def
/C5 {BL [] 0 setdash 2 copy moveto
	2 copy vpt 0 90 arc
	2 copy moveto
	2 copy vpt 180 270 arc closepath fill
	vpt 0 360 arc} bind def
/C6 {BL [] 0 setdash 2 copy moveto
	2 copy vpt 90 270 arc closepath fill
	vpt 0 360 arc closepath} bind def
/C7 {BL [] 0 setdash 2 copy moveto
	2 copy vpt 0 270 arc closepath fill
	vpt 0 360 arc closepath} bind def
/C8 {BL [] 0 setdash 2 copy moveto
	2 copy vpt 270 360 arc closepath fill
	vpt 0 360 arc closepath} bind def
/C9 {BL [] 0 setdash 2 copy moveto
	2 copy vpt 270 450 arc closepath fill
	vpt 0 360 arc closepath} bind def
/C10 {BL [] 0 setdash 2 copy 2 copy moveto vpt 270 360 arc closepath fill
	2 copy moveto
	2 copy vpt 90 180 arc closepath fill
	vpt 0 360 arc closepath} bind def
/C11 {BL [] 0 setdash 2 copy moveto
	2 copy vpt 0 180 arc closepath fill
	2 copy moveto
	2 copy vpt 270 360 arc closepath fill
	vpt 0 360 arc closepath} bind def
/C12 {BL [] 0 setdash 2 copy moveto
	2 copy vpt 180 360 arc closepath fill
	vpt 0 360 arc closepath} bind def
/C13 {BL [] 0 setdash 2 copy moveto
	2 copy vpt 0 90 arc closepath fill
	2 copy moveto
	2 copy vpt 180 360 arc closepath fill
	vpt 0 360 arc closepath} bind def
/C14 {BL [] 0 setdash 2 copy moveto
	2 copy vpt 90 360 arc closepath fill
	vpt 0 360 arc} bind def
/C15 {BL [] 0 setdash 2 copy vpt 0 360 arc closepath fill
	vpt 0 360 arc closepath} bind def
/Rec {newpath 4 2 roll moveto 1 index 0 rlineto 0 exch rlineto
	neg 0 rlineto closepath} bind def
/Square {dup Rec} bind def
/Bsquare {vpt sub exch vpt sub exch vpt2 Square} bind def
/S0 {BL [] 0 setdash 2 copy moveto 0 vpt rlineto BL Bsquare} bind def
/S1 {BL [] 0 setdash 2 copy vpt Square fill Bsquare} bind def
/S2 {BL [] 0 setdash 2 copy exch vpt sub exch vpt Square fill Bsquare} bind def
/S3 {BL [] 0 setdash 2 copy exch vpt sub exch vpt2 vpt Rec fill Bsquare} bind def
/S4 {BL [] 0 setdash 2 copy exch vpt sub exch vpt sub vpt Square fill Bsquare} bind def
/S5 {BL [] 0 setdash 2 copy 2 copy vpt Square fill
	exch vpt sub exch vpt sub vpt Square fill Bsquare} bind def
/S6 {BL [] 0 setdash 2 copy exch vpt sub exch vpt sub vpt vpt2 Rec fill Bsquare} bind def
/S7 {BL [] 0 setdash 2 copy exch vpt sub exch vpt sub vpt vpt2 Rec fill
	2 copy vpt Square fill Bsquare} bind def
/S8 {BL [] 0 setdash 2 copy vpt sub vpt Square fill Bsquare} bind def
/S9 {BL [] 0 setdash 2 copy vpt sub vpt vpt2 Rec fill Bsquare} bind def
/S10 {BL [] 0 setdash 2 copy vpt sub vpt Square fill 2 copy exch vpt sub exch vpt Square fill
	Bsquare} bind def
/S11 {BL [] 0 setdash 2 copy vpt sub vpt Square fill 2 copy exch vpt sub exch vpt2 vpt Rec fill
	Bsquare} bind def
/S12 {BL [] 0 setdash 2 copy exch vpt sub exch vpt sub vpt2 vpt Rec fill Bsquare} bind def
/S13 {BL [] 0 setdash 2 copy exch vpt sub exch vpt sub vpt2 vpt Rec fill
	2 copy vpt Square fill Bsquare} bind def
/S14 {BL [] 0 setdash 2 copy exch vpt sub exch vpt sub vpt2 vpt Rec fill
	2 copy exch vpt sub exch vpt Square fill Bsquare} bind def
/S15 {BL [] 0 setdash 2 copy Bsquare fill Bsquare} bind def
/D0 {gsave translate 45 rotate 0 0 S0 stroke grestore} bind def
/D1 {gsave translate 45 rotate 0 0 S1 stroke grestore} bind def
/D2 {gsave translate 45 rotate 0 0 S2 stroke grestore} bind def
/D3 {gsave translate 45 rotate 0 0 S3 stroke grestore} bind def
/D4 {gsave translate 45 rotate 0 0 S4 stroke grestore} bind def
/D5 {gsave translate 45 rotate 0 0 S5 stroke grestore} bind def
/D6 {gsave translate 45 rotate 0 0 S6 stroke grestore} bind def
/D7 {gsave translate 45 rotate 0 0 S7 stroke grestore} bind def
/D8 {gsave translate 45 rotate 0 0 S8 stroke grestore} bind def
/D9 {gsave translate 45 rotate 0 0 S9 stroke grestore} bind def
/D10 {gsave translate 45 rotate 0 0 S10 stroke grestore} bind def
/D11 {gsave translate 45 rotate 0 0 S11 stroke grestore} bind def
/D12 {gsave translate 45 rotate 0 0 S12 stroke grestore} bind def
/D13 {gsave translate 45 rotate 0 0 S13 stroke grestore} bind def
/D14 {gsave translate 45 rotate 0 0 S14 stroke grestore} bind def
/D15 {gsave translate 45 rotate 0 0 S15 stroke grestore} bind def
/DiaE {stroke [] 0 setdash vpt add M
  hpt neg vpt neg V hpt vpt neg V
  hpt vpt V hpt neg vpt V closepath stroke} def
/BoxE {stroke [] 0 setdash exch hpt sub exch vpt add M
  0 vpt2 neg V hpt2 0 V 0 vpt2 V
  hpt2 neg 0 V closepath stroke} def
/TriUE {stroke [] 0 setdash vpt 1.12 mul add M
  hpt neg vpt -1.62 mul V
  hpt 2 mul 0 V
  hpt neg vpt 1.62 mul V closepath stroke} def
/TriDE {stroke [] 0 setdash vpt 1.12 mul sub M
  hpt neg vpt 1.62 mul V
  hpt 2 mul 0 V
  hpt neg vpt -1.62 mul V closepath stroke} def
/PentE {stroke [] 0 setdash gsave
  translate 0 hpt M 4 {72 rotate 0 hpt L} repeat
  closepath stroke grestore} def
/CircE {stroke [] 0 setdash 
  hpt 0 360 arc stroke} def
/Opaque {gsave closepath 1 setgray fill grestore 0 setgray closepath} def
/DiaW {stroke [] 0 setdash vpt add M
  hpt neg vpt neg V hpt vpt neg V
  hpt vpt V hpt neg vpt V Opaque stroke} def
/BoxW {stroke [] 0 setdash exch hpt sub exch vpt add M
  0 vpt2 neg V hpt2 0 V 0 vpt2 V
  hpt2 neg 0 V Opaque stroke} def
/TriUW {stroke [] 0 setdash vpt 1.12 mul add M
  hpt neg vpt -1.62 mul V
  hpt 2 mul 0 V
  hpt neg vpt 1.62 mul V Opaque stroke} def
/TriDW {stroke [] 0 setdash vpt 1.12 mul sub M
  hpt neg vpt 1.62 mul V
  hpt 2 mul 0 V
  hpt neg vpt -1.62 mul V Opaque stroke} def
/PentW {stroke [] 0 setdash gsave
  translate 0 hpt M 4 {72 rotate 0 hpt L} repeat
  Opaque stroke grestore} def
/CircW {stroke [] 0 setdash 
  hpt 0 360 arc Opaque stroke} def
/BoxFill {gsave Rec 1 setgray fill grestore} def
/Density {
  /Fillden exch def
  currentrgbcolor
  /ColB exch def /ColG exch def /ColR exch def
  /ColR ColR Fillden mul Fillden sub 1 add def
  /ColG ColG Fillden mul Fillden sub 1 add def
  /ColB ColB Fillden mul Fillden sub 1 add def
  ColR ColG ColB setrgbcolor} def
/BoxColFill {gsave Rec PolyFill} def
/PolyFill {gsave Density fill grestore grestore} def
/h {rlineto rlineto rlineto gsave closepath fill grestore} bind def
%
% PostScript Level 1 Pattern Fill routine for rectangles
% Usage: x y w h s a XX PatternFill
%	x,y = lower left corner of box to be filled
%	w,h = width and height of box
%	  a = angle in degrees between lines and x-axis
%	 XX = 0/1 for no/yes cross-hatch
%
/PatternFill {gsave /PFa [ 9 2 roll ] def
  PFa 0 get PFa 2 get 2 div add PFa 1 get PFa 3 get 2 div add translate
  PFa 2 get -2 div PFa 3 get -2 div PFa 2 get PFa 3 get Rec
  TransparentPatterns {} {gsave 1 setgray fill grestore} ifelse
  clip
  currentlinewidth 0.5 mul setlinewidth
  /PFs PFa 2 get dup mul PFa 3 get dup mul add sqrt def
  0 0 M PFa 5 get rotate PFs -2 div dup translate
  0 1 PFs PFa 4 get div 1 add floor cvi
	{PFa 4 get mul 0 M 0 PFs V} for
  0 PFa 6 get ne {
	0 1 PFs PFa 4 get div 1 add floor cvi
	{PFa 4 get mul 0 2 1 roll M PFs 0 V} for
 } if
  stroke grestore} def
%
/languagelevel where
 {pop languagelevel} {1} ifelse
 2 lt
	{/InterpretLevel1 true def}
	{/InterpretLevel1 Level1 def}
 ifelse
%
% PostScript level 2 pattern fill definitions
%
/Level2PatternFill {
/Tile8x8 {/PaintType 2 /PatternType 1 /TilingType 1 /BBox [0 0 8 8] /XStep 8 /YStep 8}
	bind def
/KeepColor {currentrgbcolor [/Pattern /DeviceRGB] setcolorspace} bind def
<< Tile8x8
 /PaintProc {0.5 setlinewidth pop 0 0 M 8 8 L 0 8 M 8 0 L stroke} 
>> matrix makepattern
/Pat1 exch def
<< Tile8x8
 /PaintProc {0.5 setlinewidth pop 0 0 M 8 8 L 0 8 M 8 0 L stroke
	0 4 M 4 8 L 8 4 L 4 0 L 0 4 L stroke}
>> matrix makepattern
/Pat2 exch def
<< Tile8x8
 /PaintProc {0.5 setlinewidth pop 0 0 M 0 8 L
	8 8 L 8 0 L 0 0 L fill}
>> matrix makepattern
/Pat3 exch def
<< Tile8x8
 /PaintProc {0.5 setlinewidth pop -4 8 M 8 -4 L
	0 12 M 12 0 L stroke}
>> matrix makepattern
/Pat4 exch def
<< Tile8x8
 /PaintProc {0.5 setlinewidth pop -4 0 M 8 12 L
	0 -4 M 12 8 L stroke}
>> matrix makepattern
/Pat5 exch def
<< Tile8x8
 /PaintProc {0.5 setlinewidth pop -2 8 M 4 -4 L
	0 12 M 8 -4 L 4 12 M 10 0 L stroke}
>> matrix makepattern
/Pat6 exch def
<< Tile8x8
 /PaintProc {0.5 setlinewidth pop -2 0 M 4 12 L
	0 -4 M 8 12 L 4 -4 M 10 8 L stroke}
>> matrix makepattern
/Pat7 exch def
<< Tile8x8
 /PaintProc {0.5 setlinewidth pop 8 -2 M -4 4 L
	12 0 M -4 8 L 12 4 M 0 10 L stroke}
>> matrix makepattern
/Pat8 exch def
<< Tile8x8
 /PaintProc {0.5 setlinewidth pop 0 -2 M 12 4 L
	-4 0 M 12 8 L -4 4 M 8 10 L stroke}
>> matrix makepattern
/Pat9 exch def
/Pattern1 {PatternBgnd KeepColor Pat1 setpattern} bind def
/Pattern2 {PatternBgnd KeepColor Pat2 setpattern} bind def
/Pattern3 {PatternBgnd KeepColor Pat3 setpattern} bind def
/Pattern4 {PatternBgnd KeepColor Landscape {Pat5} {Pat4} ifelse setpattern} bind def
/Pattern5 {PatternBgnd KeepColor Landscape {Pat4} {Pat5} ifelse setpattern} bind def
/Pattern6 {PatternBgnd KeepColor Landscape {Pat9} {Pat6} ifelse setpattern} bind def
/Pattern7 {PatternBgnd KeepColor Landscape {Pat8} {Pat7} ifelse setpattern} bind def
} def
%
%
%End of PostScript Level 2 code
%
/PatternBgnd {
  TransparentPatterns {} {gsave 1 setgray fill grestore} ifelse
} def
%
% Substitute for Level 2 pattern fill codes with
% grayscale if Level 2 support is not selected.
%
/Level1PatternFill {
/Pattern1 {0.250 Density} bind def
/Pattern2 {0.500 Density} bind def
/Pattern3 {0.750 Density} bind def
/Pattern4 {0.125 Density} bind def
/Pattern5 {0.375 Density} bind def
/Pattern6 {0.625 Density} bind def
/Pattern7 {0.875 Density} bind def
} def
%
% Now test for support of Level 2 code
%
Level1 {Level1PatternFill} {Level2PatternFill} ifelse
%
/Symbol-Oblique /Symbol findfont [1 0 .167 1 0 0] makefont
dup length dict begin {1 index /FID eq {pop pop} {def} ifelse} forall
currentdict end definefont pop
Level1 SuppressPDFMark or 
{} {
/SDict 10 dict def
systemdict /pdfmark known not {
  userdict /pdfmark systemdict /cleartomark get put
} if
SDict begin [
  /Title (ipspersecond-inset.eps)
  /Subject (gnuplot plot)
  /Creator (gnuplot 4.6 patchlevel 4)
  /Author (tiphaine)
%  /Producer (gnuplot)
%  /Keywords ()
  /CreationDate (Mon Jul 18 16:15:26 2016)
  /DOCINFO pdfmark
end
} ifelse
end
%%EndProlog
%%Page: 1 1
gnudict begin
gsave
doclip
50 50 translate
0.100 0.100 scale
90 rotate
0 -5040 translate
0 setgray
newpath
(Helvetica) findfont 140 scalefont setfont
BackgroundColor 0 lt 3 1 roll 0 lt exch 0 lt or or not {gsave BackgroundColor C clippath fill grestore} if
1.000 UL
LTb
LCb setrgbcolor
770 448 M
63 0 V
6114 0 R
-63 0 V
/Helvetica findfont 200 scalefont setfont
/vshift -66 def
686 448 M
( 2000) Rshow
/Helvetica findfont 140 scalefont setfont
/vshift -46 def
1.000 UL
LTb
LCb setrgbcolor
770 1554 M
63 0 V
6114 0 R
-63 0 V
/Helvetica findfont 200 scalefont setfont
/vshift -66 def
-6198 0 R
( 2500) Rshow
/Helvetica findfont 140 scalefont setfont
/vshift -46 def
1.000 UL
LTb
LCb setrgbcolor
770 2660 M
63 0 V
6114 0 R
-63 0 V
/Helvetica findfont 200 scalefont setfont
/vshift -66 def
-6198 0 R
( 3000) Rshow
/Helvetica findfont 140 scalefont setfont
/vshift -46 def
1.000 UL
LTb
LCb setrgbcolor
770 3765 M
63 0 V
6114 0 R
-63 0 V
/Helvetica findfont 200 scalefont setfont
/vshift -66 def
-6198 0 R
( 3500) Rshow
/Helvetica findfont 140 scalefont setfont
/vshift -46 def
1.000 UL
LTb
LCb setrgbcolor
770 4871 M
63 0 V
6114 0 R
-63 0 V
/Helvetica findfont 200 scalefont setfont
/vshift -66 def
-6198 0 R
( 4000) Rshow
/Helvetica findfont 140 scalefont setfont
/vshift -46 def
1.000 UL
LTb
LCb setrgbcolor
770 448 M
0 63 V
0 4360 R
0 -63 V
/Helvetica findfont 200 scalefont setfont
/vshift -66 def
770 308 M
( 1500) Cshow
/Helvetica findfont 140 scalefont setfont
/vshift -46 def
1.000 UL
LTb
LCb setrgbcolor
2005 448 M
0 63 V
0 4360 R
0 -63 V
/Helvetica findfont 200 scalefont setfont
/vshift -66 def
0 -4500 R
( 1600) Cshow
/Helvetica findfont 140 scalefont setfont
/vshift -46 def
1.000 UL
LTb
LCb setrgbcolor
3241 448 M
0 63 V
0 4360 R
0 -63 V
/Helvetica findfont 200 scalefont setfont
/vshift -66 def
0 -4500 R
( 1700) Cshow
/Helvetica findfont 140 scalefont setfont
/vshift -46 def
1.000 UL
LTb
LCb setrgbcolor
4476 448 M
0 63 V
0 4360 R
0 -63 V
/Helvetica findfont 200 scalefont setfont
/vshift -66 def
0 -4500 R
( 1800) Cshow
/Helvetica findfont 140 scalefont setfont
/vshift -46 def
1.000 UL
LTb
LCb setrgbcolor
5712 448 M
0 63 V
0 4360 R
0 -63 V
/Helvetica findfont 200 scalefont setfont
/vshift -66 def
0 -4500 R
( 1900) Cshow
/Helvetica findfont 140 scalefont setfont
/vshift -46 def
1.000 UL
LTb
LCb setrgbcolor
6947 448 M
0 63 V
0 4360 R
0 -63 V
/Helvetica findfont 200 scalefont setfont
/vshift -66 def
0 -4500 R
( 2000) Cshow
/Helvetica findfont 140 scalefont setfont
/vshift -46 def
1.000 UL
LTb
LCb setrgbcolor
1.000 UL
LTb
LCb setrgbcolor
770 4871 N
770 448 L
6177 0 V
0 4423 V
-6177 0 V
Z stroke
LCb setrgbcolor
/Helvetica findfont 240 scalefont setfont
/vshift -80 def
112 2659 M
currentpoint gsave translate -270 rotate 0 0 M
(Number of IPs) Cshow
grestore
/Helvetica findfont 140 scalefont setfont
/vshift -46 def
LTb
LCb setrgbcolor
/Helvetica findfont 240 scalefont setfont
/vshift -80 def
3858 98 M
(Time) Cshow
/Helvetica findfont 140 scalefont setfont
/vshift -46 def
LTb
1.000 UP
1.000 UL
LTb
LCb setrgbcolor
% Begin plot #1
1.000 UL
LT0
LC0 setrgbcolor
770 1905 M
12 578 V
13 311 V
12 -216 V
12 -356 V
13 31 V
12 -277 V
12 47 V
13 110 V
12 -250 V
13 -57 V
12 228 V
12 -213 V
13 27 V
12 35 V
12 -106 V
13 88 V
12 184 V
12 -217 V
13 100 V
12 20 V
12 141 V
13 -68 V
12 -155 V
12 265 V
13 -148 V
12 -146 V
13 193 V
12 -312 V
1 3129 V
51 0 R
10 -2822 V
12 -382 V
12 154 V
13 -121 V
12 239 V
12 -84 V
13 66 V
12 -84 V
13 18 V
12 -233 V
12 -154 V
13 356 V
12 4 V
12 -82 V
13 250 V
12 -172 V
12 6 V
13 246 V
12 -109 V
12 -95 V
13 -24 V
12 20 V
12 -93 V
13 168 V
12 -303 V
13 239 V
12 -80 V
12 228 V
13 -113 V
12 -13 V
12 480 V
13 -383 V
12 -287 V
12 115 V
13 104 V
12 86 V
12 -117 V
13 -137 V
12 238 V
12 -84 V
13 -148 V
12 106 V
13 -161 V
12 99 V
12 -11 V
13 124 V
12 -77 V
12 203 V
13 -360 V
12 99 V
12 142 V
4 2939 V
17 0 R
4 -3147 V
12 294 V
13 33 V
12 -311 V
13 221 V
12 150 V
12 -442 V
13 389 V
12 -44 V
12 -190 V
13 -104 V
12 340 V
12 -398 V
13 166 V
12 -69 V
12 230 V
13 -356 V
12 193 V
12 -67 V
13 259 V
12 -234 V
stroke 2067 1784 M
13 -5 V
12 20 V
12 -64 V
13 -57 V
7 3193 V
40 0 R
2 -2897 V
12 276 V
13 -128 V
12 -232 V
12 144 V
13 316 V
12 -170 V
12 205 V
13 -159 V
12 537 V
13 -486 V
12 296 V
12 -320 V
13 168 V
12 86 V
12 -120 V
13 -126 V
12 124 V
12 9 V
13 338 V
12 -550 V
12 163 V
13 7 V
12 230 V
12 64 V
13 -161 V
12 6 V
13 42 V
12 16 V
12 -100 V
13 -2 V
12 133 V
12 -159 V
13 278 V
12 -261 V
12 193 V
13 -197 V
12 210 V
12 -522 V
13 376 V
12 55 V
13 93 V
12 -115 V
12 53 V
13 -13 V
12 -117 V
12 -38 V
13 341 V
12 -137 V
12 197 V
13 -191 V
12 -70 V
12 225 V
13 -462 V
12 -49 V
12 56 V
13 66 V
12 60 V
13 13 V
12 -13 V
12 -111 V
13 -86 V
12 148 V
12 175 V
13 -631 V
12 513 V
12 -81 V
13 274 V
12 -308 V
12 345 V
13 -318 V
12 429 V
12 -427 V
13 164 V
12 -78 V
13 138 V
12 -235 V
12 403 V
13 -381 V
12 -117 V
12 146 V
13 -77 V
12 44 V
12 99 V
13 -37 V
12 374 V
12 -421 V
13 584 V
12 -296 V
13 -104 V
12 -124 V
12 29 V
13 -195 V
12 204 V
12 -219 V
13 440 V
12 -159 V
12 37 V
stroke 3364 2593 M
13 -270 V
12 208 V
12 49 V
13 0 V
12 -120 V
12 436 V
13 363 V
12 296 V
13 -345 V
12 139 V
12 14 V
13 73 V
12 -303 V
12 287 V
13 -33 V
12 -336 V
12 20 V
13 407 V
12 -91 V
12 243 V
13 -639 V
12 18 V
12 -27 V
13 142 V
12 13 V
13 697 V
12 -458 V
12 24 V
13 -261 V
12 219 V
12 -272 V
13 84 V
12 -64 V
12 416 V
13 22 V
12 24 V
12 -294 V
13 38 V
12 9 V
13 409 V
12 -420 V
12 68 V
13 -219 V
12 131 V
12 -294 V
13 422 V
12 -250 V
12 117 V
13 -157 V
12 241 V
12 -499 V
13 -314 V
12 -213 V
12 155 V
13 -226 V
12 228 V
13 -305 V
12 281 V
12 -440 V
13 325 V
12 -69 V
12 -188 V
13 69 V
12 345 V
12 -210 V
13 91 V
12 -144 V
12 263 V
13 -106 V
12 179 V
12 -272 V
13 -155 V
12 42 V
13 274 V
12 -404 V
12 135 V
13 2 V
12 146 V
12 -124 V
13 155 V
12 -367 V
12 283 V
13 -206 V
12 520 V
12 -502 V
13 513 V
12 -217 V
12 -35 V
13 6 V
12 190 V
13 -203 V
12 117 V
12 -241 V
13 434 V
12 -16 V
12 -321 V
13 40 V
12 -31 V
12 -112 V
13 174 V
12 -155 V
12 292 V
13 -194 V
12 -60 V
stroke 4649 2299 M
13 -142 V
12 253 V
12 -270 V
13 55 V
12 -55 V
12 192 V
13 -239 V
12 345 V
12 -221 V
13 16 V
12 190 V
12 -13 V
13 -146 V
12 -40 V
12 -212 V
13 -31 V
12 -69 V
13 73 V
12 -100 V
12 -188 V
13 169 V
12 11 V
12 -71 V
13 -159 V
12 77 V
12 71 V
13 22 V
12 -201 V
12 154 V
13 138 V
12 81 V
12 -437 V
13 475 V
12 -509 V
13 210 V
12 -99 V
12 230 V
13 111 V
12 8 V
12 -117 V
13 104 V
12 -272 V
12 310 V
13 -458 V
12 68 V
12 334 V
13 7 V
12 -135 V
13 243 V
12 -382 V
12 33 V
13 -18 V
12 268 V
12 -254 V
13 42 V
12 -162 V
12 146 V
13 -55 V
12 108 V
12 -66 V
13 24 V
12 33 V
12 131 V
13 -343 V
12 11 V
13 -374 V
12 341 V
12 175 V
13 68 V
12 206 V
12 -542 V
13 175 V
12 0 V
12 -33 V
13 174 V
12 -143 V
12 46 V
13 -64 V
12 239 V
12 -146 V
13 -16 V
12 -53 V
13 325 V
12 -349 V
12 159 V
13 -184 V
12 124 V
12 -161 V
13 170 V
12 -55 V
12 -24 V
13 -87 V
5 3322 V
42 0 R
2 -3227 V
12 326 V
13 -328 V
12 89 V
13 97 V
12 307 V
12 -460 V
13 248 V
12 -263 V
12 20 V
stroke 5946 1680 M
13 139 V
12 190 V
12 36 V
13 201 V
12 -217 V
12 75 V
13 -199 V
12 58 V
13 -325 V
12 236 V
12 -258 V
13 143 V
12 -378 V
12 341 V
13 -157 V
12 429 V
12 -345 V
13 323 V
12 -427 V
12 252 V
13 -148 V
12 53 V
12 38 V
13 28 V
12 -203 V
13 203 V
12 -270 V
12 138 V
13 188 V
12 192 V
12 -464 V
13 221 V
12 -69 V
12 71 V
13 62 V
12 183 V
12 -278 V
13 327 V
12 -334 V
12 358 V
13 -497 V
12 190 V
13 18 V
2 3067 V
42 0 R
5 -3448 V
12 219 V
13 -20 V
12 208 V
12 -44 V
13 75 V
12 -110 V
12 347 V
13 -496 V
12 235 V
13 -42 V
12 161 V
12 -214 V
13 201 V
12 -11 V
12 197 V
13 -173 V
12 -37 V
12 -226 V
13 398 V
12 -345 V
12 254 V
13 -232 V
12 343 V
12 -343 V
13 352 V
12 -557 V
13 123 V
12 155 V
12 -232 V
13 84 V
12 332 V
12 -277 V
13 -17 V
12 130 V
% End plot #1
stroke
LTb
LCb setrgbcolor
770 4871 N
770 448 L
6177 0 V
0 4423 V
-6177 0 V
Z stroke
1.000 UP
1.000 UL
LTb
LCb setrgbcolor
stroke
grestore
end
showpage
