%!PS-Adobe-3.0 EPSF-3.0
%%Title: line-graph-clusters.fig
%%Creator: fig2dev Version 3.2 Patchlevel 5e
%%CreationDate: Thu Jul 14 20:25:48 2016
%%BoundingBox: 0 0 236 173
%Magnification: 1.0000
%%EndComments
%%BeginProlog
/$F2psDict 200 dict def
$F2psDict begin
$F2psDict /mtrx matrix put
/col-1 {0 setgray} bind def
/col0 {0.000 0.000 0.000 srgb} bind def
/col1 {0.000 0.000 1.000 srgb} bind def
/col2 {0.000 1.000 0.000 srgb} bind def
/col3 {0.000 1.000 1.000 srgb} bind def
/col4 {1.000 0.000 0.000 srgb} bind def
/col5 {1.000 0.000 1.000 srgb} bind def
/col6 {1.000 1.000 0.000 srgb} bind def
/col7 {1.000 1.000 1.000 srgb} bind def
/col8 {0.000 0.000 0.560 srgb} bind def
/col9 {0.000 0.000 0.690 srgb} bind def
/col10 {0.000 0.000 0.820 srgb} bind def
/col11 {0.530 0.810 1.000 srgb} bind def
/col12 {0.000 0.560 0.000 srgb} bind def
/col13 {0.000 0.690 0.000 srgb} bind def
/col14 {0.000 0.820 0.000 srgb} bind def
/col15 {0.000 0.560 0.560 srgb} bind def
/col16 {0.000 0.690 0.690 srgb} bind def
/col17 {0.000 0.820 0.820 srgb} bind def
/col18 {0.560 0.000 0.000 srgb} bind def
/col19 {0.690 0.000 0.000 srgb} bind def
/col20 {0.820 0.000 0.000 srgb} bind def
/col21 {0.560 0.000 0.560 srgb} bind def
/col22 {0.690 0.000 0.690 srgb} bind def
/col23 {0.820 0.000 0.820 srgb} bind def
/col24 {0.500 0.190 0.000 srgb} bind def
/col25 {0.630 0.250 0.000 srgb} bind def
/col26 {0.750 0.380 0.000 srgb} bind def
/col27 {1.000 0.500 0.500 srgb} bind def
/col28 {1.000 0.630 0.630 srgb} bind def
/col29 {1.000 0.750 0.750 srgb} bind def
/col30 {1.000 0.880 0.880 srgb} bind def
/col31 {1.000 0.840 0.000 srgb} bind def
/col32 {0.400 0.400 0.400 srgb} bind def

end

/cp {closepath} bind def
/ef {eofill} bind def
/gr {grestore} bind def
/gs {gsave} bind def
/sa {save} bind def
/rs {restore} bind def
/l {lineto} bind def
/m {moveto} bind def
/rm {rmoveto} bind def
/n {newpath} bind def
/s {stroke} bind def
/sh {show} bind def
/slc {setlinecap} bind def
/slj {setlinejoin} bind def
/slw {setlinewidth} bind def
/srgb {setrgbcolor} bind def
/rot {rotate} bind def
/sc {scale} bind def
/sd {setdash} bind def
/ff {findfont} bind def
/sf {setfont} bind def
/scf {scalefont} bind def
/sw {stringwidth} bind def
/tr {translate} bind def
/tnt {dup dup currentrgbcolor
  4 -2 roll dup 1 exch sub 3 -1 roll mul add
  4 -2 roll dup 1 exch sub 3 -1 roll mul add
  4 -2 roll dup 1 exch sub 3 -1 roll mul add srgb}
  bind def
/shd {dup dup currentrgbcolor 4 -2 roll mul 4 -2 roll mul
  4 -2 roll mul srgb} bind def
 /DrawEllipse {
	/endangle exch def
	/startangle exch def
	/yrad exch def
	/xrad exch def
	/y exch def
	/x exch def
	/savematrix mtrx currentmatrix def
	x y tr xrad yrad sc 0 0 1 startangle endangle arc
	closepath
	savematrix setmatrix
	} def

/$F2psBegin {$F2psDict begin /$F2psEnteredState save def} def
/$F2psEnd {$F2psEnteredState restore end} def

/pageheader {
save
newpath 0 173 moveto 0 0 lineto 236 0 lineto 236 173 lineto closepath clip newpath
-132.3 213.2 translate
1 -1 scale
$F2psBegin
10 setmiterlimit
0 slj 0 slc
 0.06299 0.06299 sc
} bind def
/pagefooter {
$F2psEnd
restore
} bind def
%%EndProlog
pageheader
%
% Fig objects follow
%
% 
% here starts figure with depth 52
% Ellipse
7.500 slw
n 2250 1350 45 45 0 360 DrawEllipse gs 0.00 setgray ef gr gs col0 s gr

% Ellipse
n 2700 1575 45 45 0 360 DrawEllipse gs 0.00 setgray ef gr gs col0 s gr

% Ellipse
n 3150 1350 45 45 0 360 DrawEllipse gs 0.00 setgray ef gr gs col0 s gr

% Ellipse
n 2700 2295 45 45 0 360 DrawEllipse gs 0.00 setgray ef gr gs col0 s gr

% Ellipse
n 2700 2745 45 45 0 360 DrawEllipse gs 0.00 setgray ef gr gs col0 s gr

% Ellipse
n 2925 3195 45 45 0 360 DrawEllipse gs 0.00 setgray ef gr gs col0 s gr

% Ellipse
n 3150 2745 45 45 0 360 DrawEllipse gs 0.00 setgray ef gr gs col0 s gr

% Ellipse
n 2250 2745 45 45 0 360 DrawEllipse gs 0.00 setgray ef gr gs col0 s gr

% Ellipse
n 2475 3195 45 45 0 360 DrawEllipse gs 0.00 setgray ef gr gs col0 s gr

% Ellipse
n 4500 2745 45 45 0 360 DrawEllipse gs 0.00 setgray ef gr gs col0 s gr

% Ellipse
n 4950 2475 45 45 0 360 DrawEllipse gs 0.00 setgray ef gr gs col0 s gr

% Ellipse
n 5400 2745 45 45 0 360 DrawEllipse gs 0.00 setgray ef gr gs col0 s gr

% Ellipse
n 4725 3240 45 45 0 360 DrawEllipse gs 0.00 setgray ef gr gs col0 s gr

% Ellipse
n 5175 3240 45 45 0 360 DrawEllipse gs 0.00 setgray ef gr gs col0 s gr

% Ellipse
n 2700 1125 45 45 0 360 DrawEllipse gs 0.00 setgray ef gr gs col0 s gr

% Ellipse
n 4950 900 45 45 0 360 DrawEllipse gs 0.00 setgray ef gr gs col0 s gr

% Ellipse
n 4500 1125 45 45 0 360 DrawEllipse gs 0.00 setgray ef gr gs col0 s gr

% Ellipse
n 5400 1125 45 45 0 360 DrawEllipse gs 0.00 setgray ef gr gs col0 s gr

% Ellipse
n 5400 1575 45 45 0 360 DrawEllipse gs 0.00 setgray ef gr gs col0 s gr

% Ellipse
n 4500 1575 45 45 0 360 DrawEllipse gs 0.00 setgray ef gr gs col0 s gr

% Ellipse
n 4950 1800 45 45 0 360 DrawEllipse gs 0.00 setgray ef gr gs col0 s gr

% Polyline
0 slj
0 slc
n 2700 2745 m
 2700 2295 l gs 0.00 setgray ef gr gs col0 s gr 
% Polyline
n 2700 2745 m
 3150 2745 l gs 0.00 setgray ef gr gs col0 s gr 
% Polyline
n 2700 2745 m
 2250 2745 l gs 0.00 setgray ef gr gs col0 s gr 
% Polyline
n 2700 2745 m
 2475 3195 l gs 0.00 setgray ef gr gs col0 s gr 
% Polyline
n 2700 2745 m
 2925 3195 l gs 0.00 setgray ef gr gs col0 s gr 
% Polyline
gs  clippath
3914 1380 m 4065 1380 l 4065 1320 l 3914 1320 l 3914 1320 l 4034 1350 l 3914 1380 l cp
eoclip
n 3375 1350 m
 4050 1350 l gs 0.00 setgray ef gr gs col0 s gr gr

% arrowhead
n 3914 1380 m 4034 1350 l 3914 1320 l 3914 1380 l  cp gs 0.00 setgray ef gr  col0 s
% Polyline
gs  clippath
3914 2775 m 4065 2775 l 4065 2715 l 3914 2715 l 3914 2715 l 4034 2745 l 3914 2775 l cp
eoclip
n 3375 2745 m
 4050 2745 l gs 0.00 setgray ef gr gs col0 s gr gr

% arrowhead
n 3914 2775 m 4034 2745 l 3914 2715 l 3914 2775 l  cp gs 0.00 setgray ef gr  col0 s
% Polyline
n 4950 2475 m
 4500 2745 l gs 0.00 setgray ef gr gs col0 s gr 
% Polyline
n 4500 2745 m
 4725 3240 l gs 0.00 setgray ef gr gs col0 s gr 
% Polyline
n 4725 3240 m
 5175 3240 l gs 0.00 setgray ef gr gs col0 s gr 
% Polyline
n 5175 3240 m
 5400 2745 l gs 0.00 setgray ef gr gs col0 s gr 
% Polyline
n 5400 2745 m
 4950 2475 l gs 0.00 setgray ef gr gs col0 s gr 
% Polyline
n 4950 2475 m
 5175 3240 l gs 0.00 setgray ef gr gs col0 s gr 
% Polyline
n 4950 2475 m
 4725 3240 l gs 0.00 setgray ef gr gs col0 s gr 
% Polyline
n 5400 2745 m
 4500 2745 l gs 0.00 setgray ef gr gs col0 s gr 
% Polyline
n 5400 2745 m
 4725 3240 l gs 0.00 setgray ef gr gs col0 s gr 
% Polyline
n 5175 3240 m
 4500 2745 l gs 0.00 setgray ef gr gs col0 s gr 
% Polyline
n 2700 1125 m
 3150 1350 l gs 0.00 setgray ef gr gs col0 s gr 
% Polyline
n 3150 1350 m
 2250 1350 l gs 0.00 setgray ef gr gs col0 s gr 
% Polyline
n 2250 1350 m
 2700 1575 l gs 0.00 setgray ef gr gs col0 s gr 
% Polyline
n 2700 1125 m
 2250 1350 l gs 0.00 setgray ef gr gs col0 s gr 
% Polyline
n 3150 1350 m
 2700 1575 l gs 0.00 setgray ef gr gs col0 s gr 
% Polyline
n 4500 1125 m
 4950 900 l gs 0.00 setgray ef gr gs col0 s gr 
% Polyline
n 4950 900 m
 5400 1125 l gs 0.00 setgray ef gr gs col0 s gr 
% Polyline
n 5400 1125 m
 5400 1575 l gs 0.00 setgray ef gr gs col0 s gr 
% Polyline
n 5400 1575 m
 4950 1800 l gs 0.00 setgray ef gr gs col0 s gr 
% Polyline
n 4950 1800 m
 4500 1575 l gs 0.00 setgray ef gr gs col0 s gr 
% Polyline
n 4950 900 m
 4950 1800 l gs 0.00 setgray ef gr gs col0 s gr 
% Polyline
n 4950 900 m
 4500 1575 l gs 0.00 setgray ef gr gs col0 s gr 
% Polyline
n 4500 1125 m
 5400 1125 l gs 0.00 setgray ef gr gs col0 s gr 
% Polyline
n 4500 1125 m
 5400 1575 l gs 0.00 setgray ef gr gs col0 s gr 
% Polyline
n 4500 1125 m
 4950 1800 l gs 0.00 setgray ef gr gs col0 s gr 
% Polyline
n 4500 1575 m
 5400 1125 l gs 0.00 setgray ef gr gs col0 s gr 
% Polyline
n 4500 1575 m
 5400 1575 l gs 0.00 setgray ef gr gs col0 s gr 
% Polyline
n 2700 1125 m
 2700 1575 l gs 0.00 setgray ef gr gs col0 s gr 
/Times-Roman ff 158.75 scf sf
2565 2700 m
gs 1 -1 sc (a) col0 sh gr
/Times-Roman ff 158.75 scf sf
2655 2205 m
gs 1 -1 sc (b) col0 sh gr
/Times-Roman ff 158.75 scf sf
3195 2700 m
gs 1 -1 sc (c) col0 sh gr
/Times-Roman ff 158.75 scf sf
2970 3330 m
gs 1 -1 sc (d) col0 sh gr
/Times-Roman ff 158.75 scf sf
2340 3330 m
gs 1 -1 sc (e) col0 sh gr
/Times-Roman ff 158.75 scf sf
2115 2745 m
gs 1 -1 sc (f) col0 sh gr
/Times-Roman ff 158.75 scf sf
2655 1035 m
gs 1 -1 sc (a) col0 sh gr
/Times-Roman ff 158.75 scf sf
3150 1260 m
gs 1 -1 sc (b) col0 sh gr
/Times-Roman ff 158.75 scf sf
4815 2385 m
gs 1 -1 sc (\(a,b\)) col0 sh gr
/Times-Roman ff 158.75 scf sf
5490 2655 m
gs 1 -1 sc (\(a,c\)) col0 sh gr
/Times-Roman ff 158.75 scf sf
5265 3330 m
gs 1 -1 sc (\(a,d\)) col0 sh gr
/Times-Roman ff 158.75 scf sf
4320 3330 m
gs 1 -1 sc (\(a,e\)) col0 sh gr
/Times-Roman ff 158.75 scf sf
4185 2655 m
gs 1 -1 sc (\(a,f\)) col0 sh gr
/Times-Roman ff 158.75 scf sf
2115 1260 m
gs 1 -1 sc (c) col0 sh gr
/Times-Roman ff 158.75 scf sf
2655 1800 m
gs 1 -1 sc (d) col0 sh gr
/Times-Roman ff 158.75 scf sf
4815 765 m
gs 1 -1 sc (\(a,b\)) col0 sh gr
/Times-Roman ff 158.75 scf sf
4140 1035 m
gs 1 -1 sc (\(b,d\)) col0 sh gr
/Times-Roman ff 158.75 scf sf
5490 1035 m
gs 1 -1 sc (\(b,c\)) col0 sh gr
/Times-Roman ff 158.75 scf sf
5490 1710 m
gs 1 -1 sc (\(c,d\)) col0 sh gr
/Times-Roman ff 158.75 scf sf
4140 1710 m
gs 1 -1 sc (\(a,c\)) col0 sh gr
/Times-Roman ff 158.75 scf sf
4815 1980 m
gs 1 -1 sc (\(a,d\)) col0 sh gr
% here ends figure;
pagefooter
showpage
%%Trailer
%EOF
