%!PS-Adobe-3.0 EPSF-3.0
%%Title: line-stream.fig
%%Creator: fig2dev Version 3.2 Patchlevel 5e
%%CreationDate: Thu Jul 14 14:07:42 2016
%%BoundingBox: 0 0 449 96
%Magnification: 1.0000
%%EndComments
%%BeginProlog
/$F2psDict 200 dict def
$F2psDict begin
$F2psDict /mtrx matrix put
/col-1 {0 setgray} bind def
/col0 {0.000 0.000 0.000 srgb} bind def
/col1 {0.000 0.000 1.000 srgb} bind def
/col2 {0.000 1.000 0.000 srgb} bind def
/col3 {0.000 1.000 1.000 srgb} bind def
/col4 {1.000 0.000 0.000 srgb} bind def
/col5 {1.000 0.000 1.000 srgb} bind def
/col6 {1.000 1.000 0.000 srgb} bind def
/col7 {1.000 1.000 1.000 srgb} bind def
/col8 {0.000 0.000 0.560 srgb} bind def
/col9 {0.000 0.000 0.690 srgb} bind def
/col10 {0.000 0.000 0.820 srgb} bind def
/col11 {0.530 0.810 1.000 srgb} bind def
/col12 {0.000 0.560 0.000 srgb} bind def
/col13 {0.000 0.690 0.000 srgb} bind def
/col14 {0.000 0.820 0.000 srgb} bind def
/col15 {0.000 0.560 0.560 srgb} bind def
/col16 {0.000 0.690 0.690 srgb} bind def
/col17 {0.000 0.820 0.820 srgb} bind def
/col18 {0.560 0.000 0.000 srgb} bind def
/col19 {0.690 0.000 0.000 srgb} bind def
/col20 {0.820 0.000 0.000 srgb} bind def
/col21 {0.560 0.000 0.560 srgb} bind def
/col22 {0.690 0.000 0.690 srgb} bind def
/col23 {0.820 0.000 0.820 srgb} bind def
/col24 {0.500 0.190 0.000 srgb} bind def
/col25 {0.630 0.250 0.000 srgb} bind def
/col26 {0.750 0.380 0.000 srgb} bind def
/col27 {1.000 0.500 0.500 srgb} bind def
/col28 {1.000 0.630 0.630 srgb} bind def
/col29 {1.000 0.750 0.750 srgb} bind def
/col30 {1.000 0.880 0.880 srgb} bind def
/col31 {1.000 0.840 0.000 srgb} bind def
/col32 {0.400 0.400 0.400 srgb} bind def

end

/cp {closepath} bind def
/ef {eofill} bind def
/gr {grestore} bind def
/gs {gsave} bind def
/sa {save} bind def
/rs {restore} bind def
/l {lineto} bind def
/m {moveto} bind def
/rm {rmoveto} bind def
/n {newpath} bind def
/s {stroke} bind def
/sh {show} bind def
/slc {setlinecap} bind def
/slj {setlinejoin} bind def
/slw {setlinewidth} bind def
/srgb {setrgbcolor} bind def
/rot {rotate} bind def
/sc {scale} bind def
/sd {setdash} bind def
/ff {findfont} bind def
/sf {setfont} bind def
/scf {scalefont} bind def
/sw {stringwidth} bind def
/tr {translate} bind def
/tnt {dup dup currentrgbcolor
  4 -2 roll dup 1 exch sub 3 -1 roll mul add
  4 -2 roll dup 1 exch sub 3 -1 roll mul add
  4 -2 roll dup 1 exch sub 3 -1 roll mul add srgb}
  bind def
/shd {dup dup currentrgbcolor 4 -2 roll mul 4 -2 roll mul
  4 -2 roll mul srgb} bind def
 /DrawEllipse {
	/endangle exch def
	/startangle exch def
	/yrad exch def
	/xrad exch def
	/y exch def
	/x exch def
	/savematrix mtrx currentmatrix def
	x y tr xrad yrad sc 0 0 1 startangle endangle arc
	closepath
	savematrix setmatrix
	} def

/$F2psBegin {$F2psDict begin /$F2psEnteredState save def} def
/$F2psEnd {$F2psEnteredState restore end} def

/pageheader {
save
newpath 0 96 moveto 0 0 lineto 449 0 lineto 449 96 lineto closepath clip newpath
-69.9 173.9 translate
1 -1 scale
$F2psBegin
10 setmiterlimit
0 slj 0 slc
 0.06299 0.06299 sc
} bind def
/pagefooter {
$F2psEnd
restore
} bind def
%%EndProlog
pageheader
%
% Fig objects follow
%
% 
% here starts figure with depth 51
% Polyline
0 slj
0 slc
7.500 slw
n 1800 2475 m
 1800 2520 l gs col32 1.00 shd ef gr gs col0 s gr 
% Polyline
n 2250 2475 m
 2250 2520 l gs col32 1.00 shd ef gr gs col0 s gr 
% Polyline
n 2700 2475 m
 2700 2520 l gs col32 1.00 shd ef gr gs col0 s gr 
% Polyline
n 3150 2475 m
 3150 2520 l gs col32 1.00 shd ef gr gs col0 s gr 
% Polyline
n 3600 2475 m
 3600 2520 l gs col32 1.00 shd ef gr gs col0 s gr 
% Polyline
gs  clippath
3689 2550 m 3840 2550 l 3840 2490 l 3689 2490 l 3689 2490 l 3809 2520 l 3689 2550 l cp
eoclip
n 1350 2520 m
 3825 2520 l gs col32 1.00 shd ef gr gs col0 s gr gr

% arrowhead
n 3689 2550 m 3809 2520 l 3689 2490 l 3689 2550 l  cp gs 0.00 setgray ef gr  col0 s
% Polyline
 [60] 0 sd
n 1350 1350 m
 3600 1350 l gs col32 1.00 shd ef gr gs col0 s gr  [] 0 sd
% Polyline
 [60] 0 sd
n 1350 1800 m
 3600 1800 l gs col32 1.00 shd ef gr gs col0 s gr  [] 0 sd
% Polyline
 [60] 0 sd
n 1350 2250 m
 3600 2250 l gs col32 1.00 shd ef gr gs col0 s gr  [] 0 sd
% Polyline
n 5850 2475 m
 5850 2520 l gs col32 1.00 shd ef gr gs col0 s gr 
% Polyline
n 6300 2475 m
 6300 2520 l gs col32 1.00 shd ef gr gs col0 s gr 
% Polyline
n 6750 2475 m
 6750 2520 l gs col32 1.00 shd ef gr gs col0 s gr 
% Polyline
n 7200 2475 m
 7200 2520 l gs col32 1.00 shd ef gr gs col0 s gr 
% Polyline
n 7650 2475 m
 7650 2520 l gs col32 1.00 shd ef gr gs col0 s gr 
% Polyline
gs  clippath
7739 2550 m 7890 2550 l 7890 2490 l 7739 2490 l 7739 2490 l 7859 2520 l 7739 2550 l cp
eoclip
n 5400 2520 m
 7875 2520 l gs col32 1.00 shd ef gr gs col0 s gr gr

% arrowhead
n 7739 2550 m 7859 2520 l 7739 2490 l 7739 2550 l  cp gs 0.00 setgray ef gr  col0 s
% Polyline
gs  clippath
4589 1830 m 4740 1830 l 4740 1770 l 4589 1770 l 4589 1770 l 4709 1800 l 4589 1830 l cp
eoclip
n 3825 1800 m
 4725 1800 l gs col32 1.00 shd ef gr gs col0 s gr gr

% arrowhead
n 4589 1830 m 4709 1800 l 4589 1770 l 4589 1830 l  cp gs 0.00 setgray ef gr  col0 s
% Polyline
 [60] 0 sd
n 5400 1350 m
 7650 1350 l gs col32 1.00 shd ef gr gs col0 s gr  [] 0 sd
% Polyline
 [60] 0 sd
n 5400 1800 m
 7650 1800 l gs col32 1.00 shd ef gr gs col0 s gr  [] 0 sd
% Polyline
 [60] 0 sd
n 5400 2250 m
 7650 2250 l gs col32 1.00 shd ef gr gs col0 s gr  [] 0 sd
% Polyline
n 2025 1800 m
 2025 2250 l gs col32 1.00 shd ef gr gs col0 s gr 
% Polyline
n 2475 1350 m
 2475 2250 l gs col32 1.00 shd ef gr gs col0 s gr 
% Polyline
n 1575 1350 m
 1575 1800 l gs col32 1.00 shd ef gr gs col0 s gr 
% Polyline
n 1575 1575 m
 3150 1575 l gs col32 1.00 shd ef gr gs col0 s gr 
% Polyline
n 2475 1935 m
 3375 1935 l gs col32 1.00 shd ef gr gs col0 s gr 
% Polyline
n 2025 2025 m
 2250 2025 l gs col32 1.00 shd ef gr gs col0 s gr 
% Polyline
n 6075 1350 m
 6075 1800 l gs col32 1.00 shd ef gr gs col0 s gr 
% Polyline
n 6525 1350 m
 6525 2250 l gs col32 1.00 shd ef gr gs col0 s gr 
% Polyline
n 6525 1890 m
 7200 1890 l gs col32 1.00 shd ef gr gs col0 s gr 
% Polyline
n 6075 1575 m
 6300 1575 l gs col32 1.00 shd ef gr gs col0 s gr 
/Times-Roman ff 174.63 scf sf
3510 2745 m
gs 1 -1 sc (10) col0 sh gr
/Times-Roman ff 174.63 scf sf
1755 2745 m
gs 1 -1 sc (2) col0 sh gr
/Times-Roman ff 206.38 scf sf
3780 2745 m
gs 1 -1 sc (time) col0 sh gr
/Times-Roman ff 174.63 scf sf
7560 2745 m
gs 1 -1 sc (10) col0 sh gr
/Times-Roman ff 174.63 scf sf
5805 2745 m
gs 1 -1 sc (2) col0 sh gr
/Times-Roman ff 206.38 scf sf
7830 2745 m
gs 1 -1 sc (time) col0 sh gr
/Times-Roman ff 206.38 scf sf
4950 1395 m
gs 1 -1 sc (\(a,b\)) col0 sh gr
/Times-Roman ff 206.38 scf sf
4950 1845 m
gs 1 -1 sc (\(b,c\)) col0 sh gr
/Times-Roman ff 206.38 scf sf
4950 2295 m
gs 1 -1 sc (\(a,c\)) col0 sh gr
% Ellipse
n 1575 1350 45 45 0 360 DrawEllipse gs col7 0.00 shd ef gr gs col0 s gr

% Ellipse
n 1575 1800 45 45 0 360 DrawEllipse gs col7 0.00 shd ef gr gs col0 s gr

% Ellipse
n 2025 1800 45 45 0 360 DrawEllipse gs col7 0.00 shd ef gr gs col0 s gr

% Ellipse
n 2025 2250 45 45 0 360 DrawEllipse gs col7 0.00 shd ef gr gs col0 s gr

% Ellipse
n 2475 2250 45 45 0 360 DrawEllipse gs col7 0.00 shd ef gr gs col0 s gr

% Ellipse
n 2475 1350 45 45 0 360 DrawEllipse gs col7 0.00 shd ef gr gs col0 s gr

% Ellipse
n 6075 1350 45 45 0 360 DrawEllipse gs col7 0.00 shd ef gr gs col0 s gr

% Ellipse
n 6075 1800 45 45 0 360 DrawEllipse gs col7 0.00 shd ef gr gs col0 s gr

% Ellipse
n 6525 1350 45 45 0 360 DrawEllipse gs col7 0.00 shd ef gr gs col0 s gr

% Ellipse
n 6525 2250 45 45 0 360 DrawEllipse gs col7 0.00 shd ef gr gs col0 s gr

/Times-Roman ff 206.38 scf sf
1125 1395 m
gs 1 -1 sc (a) col0 sh gr
/Times-Roman ff 206.38 scf sf
1125 1845 m
gs 1 -1 sc (b) col0 sh gr
/Times-Roman ff 206.38 scf sf
1125 2295 m
gs 1 -1 sc (c) col0 sh gr
% here ends figure;
pagefooter
showpage
%%Trailer
%EOF
