%!PS-Adobe-3.0 EPSF-3.0
%%Title: link-cluster-density.fig
%%Creator: fig2dev Version 3.2 Patchlevel 5d
%%CreationDate: Mon May  9 21:32:59 2016
%%For: tiphaine@MacBook-Pro-de-Tiphaine.local (Tiphaine Viard)
%%BoundingBox: 0 0 250 199
%Magnification: 1.0000
%%EndComments
%%BeginProlog
/$F2psDict 200 dict def
$F2psDict begin
$F2psDict /mtrx matrix put
/col-1 {0 setgray} bind def
/col0 {0.000 0.000 0.000 srgb} bind def
/col1 {0.000 0.000 1.000 srgb} bind def
/col2 {0.000 1.000 0.000 srgb} bind def
/col3 {0.000 1.000 1.000 srgb} bind def
/col4 {1.000 0.000 0.000 srgb} bind def
/col5 {1.000 0.000 1.000 srgb} bind def
/col6 {1.000 1.000 0.000 srgb} bind def
/col7 {1.000 1.000 1.000 srgb} bind def
/col8 {0.000 0.000 0.560 srgb} bind def
/col9 {0.000 0.000 0.690 srgb} bind def
/col10 {0.000 0.000 0.820 srgb} bind def
/col11 {0.530 0.810 1.000 srgb} bind def
/col12 {0.000 0.560 0.000 srgb} bind def
/col13 {0.000 0.690 0.000 srgb} bind def
/col14 {0.000 0.820 0.000 srgb} bind def
/col15 {0.000 0.560 0.560 srgb} bind def
/col16 {0.000 0.690 0.690 srgb} bind def
/col17 {0.000 0.820 0.820 srgb} bind def
/col18 {0.560 0.000 0.000 srgb} bind def
/col19 {0.690 0.000 0.000 srgb} bind def
/col20 {0.820 0.000 0.000 srgb} bind def
/col21 {0.560 0.000 0.560 srgb} bind def
/col22 {0.690 0.000 0.690 srgb} bind def
/col23 {0.820 0.000 0.820 srgb} bind def
/col24 {0.500 0.190 0.000 srgb} bind def
/col25 {0.630 0.250 0.000 srgb} bind def
/col26 {0.750 0.380 0.000 srgb} bind def
/col27 {1.000 0.500 0.500 srgb} bind def
/col28 {1.000 0.630 0.630 srgb} bind def
/col29 {1.000 0.750 0.750 srgb} bind def
/col30 {1.000 0.880 0.880 srgb} bind def
/col31 {1.000 0.840 0.000 srgb} bind def

end

/cp {closepath} bind def
/ef {eofill} bind def
/gr {grestore} bind def
/gs {gsave} bind def
/sa {save} bind def
/rs {restore} bind def
/l {lineto} bind def
/m {moveto} bind def
/rm {rmoveto} bind def
/n {newpath} bind def
/s {stroke} bind def
/sh {show} bind def
/slc {setlinecap} bind def
/slj {setlinejoin} bind def
/slw {setlinewidth} bind def
/srgb {setrgbcolor} bind def
/rot {rotate} bind def
/sc {scale} bind def
/sd {setdash} bind def
/ff {findfont} bind def
/sf {setfont} bind def
/scf {scalefont} bind def
/sw {stringwidth} bind def
/tr {translate} bind def
/tnt {dup dup currentrgbcolor
  4 -2 roll dup 1 exch sub 3 -1 roll mul add
  4 -2 roll dup 1 exch sub 3 -1 roll mul add
  4 -2 roll dup 1 exch sub 3 -1 roll mul add srgb}
  bind def
/shd {dup dup currentrgbcolor 4 -2 roll mul 4 -2 roll mul
  4 -2 roll mul srgb} bind def
 /DrawEllipse {
	/endangle exch def
	/startangle exch def
	/yrad exch def
	/xrad exch def
	/y exch def
	/x exch def
	/savematrix mtrx currentmatrix def
	x y tr xrad yrad sc 0 0 1 startangle endangle arc
	closepath
	savematrix setmatrix
	} def

/$F2psBegin {$F2psDict begin /$F2psEnteredState save def} def
/$F2psEnd {$F2psEnteredState restore end} def

/pageheader {
save
newpath 0 199 moveto 0 0 lineto 250 0 lineto 250 199 lineto closepath clip newpath
-21.6 308.8 translate
1 -1 scale
$F2psBegin
10 setmiterlimit
0 slj 0 slc
 0.06000 0.06000 sc
} bind def
/pagefooter {
$F2psEnd
restore
} bind def
%%EndProlog
pageheader
%
% Fig objects follow
%
% 
% here starts figure with depth 51
% Polyline
2 slj
0 slc
0.000 slw
n 1000 4013 m 998 4034 l 996 4056 l 995 4079 l 994 4102 l 993 4126 l
 993 4151 l 993 4176 l 994 4203 l 996 4229 l 999 4257 l
 1002 4285 l 1007 4313 l 1013 4342 l 1020 4372 l 1029 4401 l
 1038 4431 l 1049 4461 l 1062 4491 l 1076 4520 l 1092 4550 l
 1109 4579 l 1128 4607 l 1149 4635 l 1171 4663 l 1195 4690 l
 1220 4716 l 1247 4742 l 1276 4767 l 1307 4791 l 1339 4814 l
 1373 4836 l 1409 4858 l 1447 4879 l 1488 4900 l 1520 4915 l
 1554 4931 l 1590 4945 l 1627 4960 l 1666 4974 l 1706 4988 l
 1748 5001 l 1791 5014 l 1835 5027 l 1881 5039 l 1929 5051 l
 1977 5062 l 2027 5072 l 2078 5083 l 2130 5092 l 2183 5101 l
 2236 5109 l 2291 5116 l 2346 5123 l 2401 5129 l 2457 5134 l
 2513 5138 l 2568 5141 l 2624 5144 l 2679 5145 l 2734 5146 l
 2789 5145 l 2842 5144 l 2895 5142 l 2947 5138 l 2998 5134 l
 3048 5129 l 3096 5122 l 3144 5115 l 3190 5107 l 3234 5098 l
 3277 5087 l 3319 5076 l 3359 5064 l 3398 5051 l 3435 5036 l
 3471 5021 l 3505 5005 l 3538 4988 l 3569 4969 l 3599 4949 l
 3627 4928 l 3655 4906 l 3681 4883 l 3706 4859 l 3729 4834 l
 3751 4807 l 3772 4779 l 3792 4751 l 3810 4721 l 3827 4690 l
 3843 4659 l 3857 4626 l 3869 4593 l 3880 4559 l 3890 4524 l
 3897 4489 l 3904 4453 l 3909 4417 l 3912 4381 l 3913 4345 l
 3913 4308 l 3911 4272 l 3908 4236 l 3903 4199 l 3897 4164 l
 3889 4128 l 3879 4094 l 3868 4060 l 3856 4026 l 3842 3993 l
 3827 3961 l 3810 3930 l 3792 3900 l 3773 3871 l 3752 3843 l
 3731 3816 l 3708 3790 l 3684 3765 l 3658 3741 l 3632 3718 l
 3604 3696 l 3575 3675 l 3543 3654 l 3510 3635 l 3475 3616 l
 3439 3598 l 3401 3582 l 3362 3566 l 3321 3551 l 3278 3537 l
 3234 3523 l 3189 3511 l 3143 3499 l 3095 3488 l 3046 3478 l
 2995 3469 l 2944 3460 l 2892 3452 l 2839 3445 l 2786 3439 l
 2732 3433 l 2678 3428 l 2623 3424 l 2569 3420 l 2515 3417 l
 2460 3414 l 2407 3412 l 2354 3410 l 2302 3409 l 2250 3409 l
 2200 3408 l 2150 3409 l 2102 3409 l 2055 3410 l 2009 3411 l
 1965 3412 l 1922 3413 l 1880 3415 l 1840 3416 l 1802 3418 l
 1765 3420 l 1729 3422 l 1695 3423 l 1663 3425 l 1609 3428 l
 1559 3430 l 1512 3433 l 1469 3435 l 1429 3438 l 1391 3440 l
 1357 3442 l 1325 3445 l 1296 3448 l 1270 3451 l 1246 3454 l
 1225 3457 l 1206 3461 l 1190 3464 l 1176 3469 l 1164 3473 l
 1154 3478 l 1145 3484 l 1138 3489 l 1131 3495 l 1126 3502 l
 1121 3509 l 1117 3517 l 1113 3525 l 1108 3535 l 1103 3546 l
 1098 3557 l 1092 3571 l 1087 3585 l 1081 3601 l 1076 3618 l
 1070 3637 l 1064 3657 l 1058 3678 l 1052 3701 l 1046 3725 l
 1040 3750 l 1035 3776 l 1029 3803 l 1024 3831 l 1019 3860 l
 1015 3889 l 1011 3919 l 1007 3949 l 1003 3980 l
 cp gs col12 1.00 shd ef gr 
% Polyline
n 2800 2250 m 2787 2261 l 2775 2273 l 2764 2286 l 2754 2301 l 2745 2316 l
 2737 2334 l 2730 2352 l 2724 2372 l 2718 2393 l 2714 2416 l
 2710 2439 l 2707 2462 l 2705 2487 l 2703 2511 l 2702 2536 l
 2701 2561 l 2700 2586 l 2700 2612 l 2700 2637 l 2700 2663 l
 2700 2681 l 2700 2700 l 2700 2719 l 2701 2739 l 2702 2759 l
 2703 2779 l 2705 2800 l 2707 2822 l 2710 2843 l 2714 2865 l
 2719 2887 l 2725 2909 l 2732 2930 l 2740 2952 l 2749 2973 l
 2759 2994 l 2771 3015 l 2784 3035 l 2798 3054 l 2813 3072 l
 2830 3089 l 2848 3106 l 2868 3122 l 2888 3137 l 2911 3151 l
 2935 3164 l 2960 3176 l 2988 3188 l 3013 3197 l 3040 3206 l
 3069 3214 l 3099 3222 l 3130 3229 l 3164 3235 l 3199 3241 l
 3235 3246 l 3273 3250 l 3311 3254 l 3351 3256 l 3392 3258 l
 3434 3259 l 3477 3259 l 3519 3258 l 3563 3257 l 3606 3254 l
 3648 3250 l 3691 3245 l 3733 3240 l 3774 3233 l 3814 3226 l
 3852 3217 l 3890 3208 l 3926 3197 l 3961 3186 l 3995 3174 l
 4026 3161 l 4056 3147 l 4085 3132 l 4112 3117 l 4138 3100 l
 4160 3083 l 4181 3066 l 4202 3047 l 4221 3028 l 4238 3007 l
 4255 2986 l 4271 2963 l 4285 2940 l 4298 2916 l 4310 2891 l
 4321 2865 l 4331 2838 l 4339 2811 l 4346 2784 l 4352 2756 l
 4356 2728 l 4359 2700 l 4361 2672 l 4361 2644 l 4361 2616 l
 4359 2589 l 4356 2562 l 4351 2535 l 4346 2509 l 4339 2484 l
 4331 2460 l 4323 2437 l 4313 2414 l 4303 2393 l 4291 2372 l
 4279 2353 l 4266 2334 l 4252 2317 l 4238 2300 l 4217 2280 l
 4195 2261 l 4171 2243 l 4146 2227 l 4119 2211 l 4091 2197 l
 4061 2184 l 4030 2172 l 3998 2162 l 3965 2152 l 3931 2143 l
 3897 2136 l 3862 2129 l 3828 2124 l 3794 2119 l 3760 2116 l
 3727 2113 l 3695 2111 l 3664 2109 l 3634 2109 l 3606 2108 l
 3579 2109 l 3554 2109 l 3530 2110 l 3508 2111 l 3488 2113 l
 3457 2115 l 3430 2117 l 3405 2120 l 3383 2123 l 3363 2127 l
 3345 2130 l 3328 2134 l 3312 2138 l 3298 2141 l 3284 2145 l
 3271 2148 l 3258 2152 l 3245 2155 l 3231 2158 l 3216 2160 l
 3200 2163 l 3186 2164 l 3170 2166 l 3153 2167 l 3134 2169 l
 3114 2171 l 3093 2173 l 3071 2175 l 3048 2177 l 3024 2180 l
 3000 2184 l 2976 2188 l 2952 2192 l 2929 2197 l 2907 2203 l
 2886 2209 l 2866 2216 l 2847 2223 l 2830 2231 l 2814 2240 l

 cp gs col11 1.00 shd ef gr 
% Polyline
n 2125 3788 m 2106 3809 l 2087 3830 l 2066 3850 l 2044 3868 l 2021 3886 l
 1998 3902 l 1973 3917 l 1947 3930 l 1920 3943 l 1892 3954 l
 1863 3964 l 1833 3972 l 1803 3979 l 1772 3985 l 1740 3989 l
 1708 3992 l 1675 3993 l 1642 3992 l 1609 3990 l 1576 3987 l
 1543 3982 l 1510 3976 l 1477 3968 l 1445 3958 l 1413 3947 l
 1382 3935 l 1352 3921 l 1322 3906 l 1293 3890 l 1265 3872 l
 1238 3853 l 1212 3833 l 1187 3812 l 1162 3790 l 1139 3766 l
 1117 3741 l 1095 3715 l 1075 3688 l 1057 3660 l 1039 3632 l
 1022 3602 l 1006 3571 l 990 3539 l 976 3505 l 962 3470 l
 949 3434 l 937 3397 l 925 3358 l 914 3318 l 905 3278 l
 896 3236 l 888 3193 l 881 3150 l 875 3106 l 870 3062 l
 867 3017 l 864 2972 l 862 2927 l 861 2882 l 862 2837 l
 863 2792 l 866 2748 l 869 2704 l 874 2661 l 879 2619 l
 886 2577 l 893 2537 l 902 2498 l 912 2460 l 922 2423 l
 933 2387 l 946 2353 l 959 2320 l 973 2288 l 988 2258 l
 1003 2229 l 1020 2201 l 1038 2175 l 1059 2146 l 1083 2118 l
 1107 2091 l 1133 2066 l 1161 2043 l 1189 2021 l 1220 2000 l
 1251 1980 l 1284 1962 l 1317 1945 l 1352 1929 l 1388 1914 l
 1424 1901 l 1461 1889 l 1499 1878 l 1537 1869 l 1575 1861 l
 1613 1854 l 1651 1848 l 1689 1843 l 1726 1839 l 1762 1837 l
 1798 1835 l 1833 1834 l 1866 1834 l 1899 1835 l 1930 1837 l
 1961 1839 l 1989 1842 l 2017 1845 l 2043 1849 l 2067 1853 l
 2091 1858 l 2113 1863 l 2141 1870 l 2168 1878 l 2192 1887 l
 2214 1896 l 2234 1906 l 2252 1916 l 2269 1927 l 2283 1939 l
 2296 1951 l 2307 1963 l 2317 1975 l 2324 1988 l 2331 2000 l
 2336 2012 l 2339 2024 l 2342 2036 l 2343 2048 l 2344 2059 l
 2344 2069 l 2343 2079 l 2342 2088 l 2340 2097 l 2339 2105 l
 2338 2113 l 2336 2122 l 2334 2130 l 2333 2139 l 2331 2147 l
 2330 2157 l 2330 2168 l 2329 2180 l 2329 2195 l 2328 2211 l
 2329 2231 l 2329 2253 l 2330 2278 l 2330 2306 l 2331 2337 l
 2333 2372 l 2334 2410 l 2336 2453 l 2338 2500 l 2338 2526 l
 2339 2552 l 2340 2581 l 2341 2610 l 2342 2641 l 2343 2674 l
 2343 2708 l 2344 2743 l 2344 2779 l 2344 2817 l 2343 2856 l
 2342 2896 l 2341 2936 l 2339 2978 l 2337 3020 l 2334 3062 l
 2330 3105 l 2326 3148 l 2321 3191 l 2316 3234 l 2310 3276 l
 2303 3318 l 2296 3359 l 2287 3400 l 2278 3439 l 2269 3478 l
 2258 3515 l 2247 3551 l 2235 3585 l 2222 3618 l 2208 3650 l
 2193 3681 l 2178 3709 l 2161 3737 l 2144 3763 l
 cp gs col27 1.00 shd ef gr 
% Arc
15.000 slw
n 1237.5 3900.0 637.5 28.0725 -28.0725 arcn
gs col0 s gr

% Arc
n 1237.5 4500.0 637.5 28.0725 -28.0725 arcn
gs col0 s gr

% Arc
n 2137.5 3900.0 637.5 28.0725 -28.0725 arcn
gs col0 s gr

% Arc
n 2737.5 4500.0 637.5 28.0725 -28.0725 arcn
gs col0 s gr

% Arc
n 2437.5 2700.0 637.5 28.0725 -28.0725 arcn
gs col0 s gr

% Arc
n 2737.5 2700.0 637.5 28.0725 -28.0725 arcn
gs col0 s gr

% Arc
n 3037.5 2700.0 637.5 28.0725 -28.0725 arcn
gs col0 s gr

% Arc
n 3337.5 2700.0 637.5 28.0725 -28.0725 arcn
gs col0 s gr

% Arc
n 937.5 3300.0 637.5 28.0725 -28.0725 arcn
gs col0 s gr

% Arc
n -262.5 3000.0 2437.5 -14.2500 14.2500 arc
gs col0 s gr

% Arc
n 37.5 4200.0 2437.5 -14.2500 14.2500 arc
gs col0 s gr

% Ellipse
7.500 slw
n 1200 2400 75 75 0 360 DrawEllipse gs 0.00 setgray ef gr gs col0 s gr

% Ellipse
n 1200 3000 75 75 0 360 DrawEllipse gs 0.00 setgray ef gr gs col0 s gr

% Ellipse
n 1500 3000 75 75 0 360 DrawEllipse gs 0.00 setgray ef gr gs col0 s gr

% Ellipse
n 1500 3600 75 75 0 360 DrawEllipse gs 0.00 setgray ef gr gs col0 s gr

% Ellipse
n 1800 3600 75 75 0 360 DrawEllipse gs 0.00 setgray ef gr gs col0 s gr

% Ellipse
n 3000 2400 75 75 0 360 DrawEllipse gs 0.00 setgray ef gr gs col0 s gr

% Ellipse
n 3000 3000 75 75 0 360 DrawEllipse gs 0.00 setgray ef gr gs col0 s gr

% Ellipse
n 3300 3000 75 75 0 360 DrawEllipse gs 0.00 setgray ef gr gs col0 s gr

% Ellipse
n 3300 2400 75 75 0 360 DrawEllipse gs 0.00 setgray ef gr gs col0 s gr

% Ellipse
n 3600 2400 75 75 0 360 DrawEllipse gs 0.00 setgray ef gr gs col0 s gr

% Ellipse
n 3600 3000 75 75 0 360 DrawEllipse gs 0.00 setgray ef gr gs col0 s gr

% Ellipse
n 3900 2400 75 75 0 360 DrawEllipse gs 0.00 setgray ef gr gs col0 s gr

% Ellipse
n 3900 3000 75 75 0 360 DrawEllipse gs 0.00 setgray ef gr gs col0 s gr

% Ellipse
n 1200 4200 75 75 0 360 DrawEllipse gs 0.00 setgray ef gr gs col0 s gr

% Ellipse
n 1200 3600 75 75 0 360 DrawEllipse gs 0.00 setgray ef gr gs col0 s gr

% Ellipse
n 1800 4200 75 75 0 360 DrawEllipse gs 0.00 setgray ef gr gs col0 s gr

% Ellipse
n 1800 4800 75 75 0 360 DrawEllipse gs 0.00 setgray ef gr gs col0 s gr

% Ellipse
n 2400 4800 75 75 0 360 DrawEllipse gs 0.00 setgray ef gr gs col0 s gr

% Ellipse
n 2400 3600 75 75 0 360 DrawEllipse gs 0.00 setgray ef gr gs col0 s gr

% Ellipse
n 2700 4200 75 75 0 360 DrawEllipse gs 0.00 setgray ef gr gs col0 s gr

% Ellipse
n 2700 3600 75 75 0 360 DrawEllipse gs 0.00 setgray ef gr gs col0 s gr

% Ellipse
n 3300 4200 75 75 0 360 DrawEllipse gs 0.00 setgray ef gr gs col0 s gr

% Ellipse
n 3300 4800 75 75 0 360 DrawEllipse gs 0.00 setgray ef gr gs col0 s gr

% Ellipse
n 2100 2400 75 75 0 360 DrawEllipse gs 0.00 setgray ef gr gs col0 s gr

% Ellipse
n 2100 3600 75 75 0 360 DrawEllipse gs 0.00 setgray ef gr gs col0 s gr

% Polyline
0 slj
n 600 2400 m
 4500 2400 l gs col0 s gr 
% Polyline
n 600 3000 m
 4500 3000 l gs col0 s gr 
% Polyline
n 600 3600 m
 4500 3600 l gs col0 s gr 
% Polyline
n 600 4800 m
 4500 4800 l gs col0 s gr 
% Polyline
n 600 4200 m
 4500 4200 l gs col0 s gr 
/Times-Roman ff 400.00 scf sf
375 4875 m
gs 1 -1 sc (e) col0 sh gr
/Times-Roman ff 400.00 scf sf
375 4275 m
gs 1 -1 sc (d) col0 sh gr
/Times-Roman ff 400.00 scf sf
375 3675 m
gs 1 -1 sc (c) col0 sh gr
/Times-Roman ff 400.00 scf sf
375 3075 m
gs 1 -1 sc (b) col0 sh gr
% Arc
15.000 slw
n 637.5 2700.0 637.5 28.0725 -28.0725 arcn
gs col0 s gr

/Times-Roman ff 400.00 scf sf
375 2475 m
gs 1 -1 sc (a) col0 sh gr
% Arc
n 637.5 3300.0 637.5 28.0725 -28.0725 arcn
gs col0 s gr

% Arc
n 637.5 3900.0 637.5 28.0725 -28.0725 arcn
gs col0 s gr

% here ends figure;
pagefooter
showpage
%%Trailer
%EOF
