%!PS-Adobe-3.0 EPSF-3.0
%%Title: tmp.fig
%%Creator: fig2dev Version 3.2 Patchlevel 5d
%%CreationDate: Sun May 24 17:59:54 2015
%%For: jordanviard@MacBook-Pro-de-Jordan.local (Jordan VIARD)
%%BoundingBox: 0 0 200 68
%Magnification: 1.0000
%%EndComments
%%BeginProlog
/$F2psDict 200 dict def
$F2psDict begin
$F2psDict /mtrx matrix put
/col-1 {0 setgray} bind def
/col0 {0.000 0.000 0.000 srgb} bind def
/col1 {0.000 0.000 1.000 srgb} bind def
/col2 {0.000 1.000 0.000 srgb} bind def
/col3 {0.000 1.000 1.000 srgb} bind def
/col4 {1.000 0.000 0.000 srgb} bind def
/col5 {1.000 0.000 1.000 srgb} bind def
/col6 {1.000 1.000 0.000 srgb} bind def
/col7 {1.000 1.000 1.000 srgb} bind def
/col8 {0.000 0.000 0.560 srgb} bind def
/col9 {0.000 0.000 0.690 srgb} bind def
/col10 {0.000 0.000 0.820 srgb} bind def
/col11 {0.530 0.810 1.000 srgb} bind def
/col12 {0.000 0.560 0.000 srgb} bind def
/col13 {0.000 0.690 0.000 srgb} bind def
/col14 {0.000 0.820 0.000 srgb} bind def
/col15 {0.000 0.560 0.560 srgb} bind def
/col16 {0.000 0.690 0.690 srgb} bind def
/col17 {0.000 0.820 0.820 srgb} bind def
/col18 {0.560 0.000 0.000 srgb} bind def
/col19 {0.690 0.000 0.000 srgb} bind def
/col20 {0.820 0.000 0.000 srgb} bind def
/col21 {0.560 0.000 0.560 srgb} bind def
/col22 {0.690 0.000 0.690 srgb} bind def
/col23 {0.820 0.000 0.820 srgb} bind def
/col24 {0.500 0.190 0.000 srgb} bind def
/col25 {0.630 0.250 0.000 srgb} bind def
/col26 {0.750 0.380 0.000 srgb} bind def
/col27 {1.000 0.500 0.500 srgb} bind def
/col28 {1.000 0.630 0.630 srgb} bind def
/col29 {1.000 0.750 0.750 srgb} bind def
/col30 {1.000 0.880 0.880 srgb} bind def
/col31 {1.000 0.840 0.000 srgb} bind def

end

/cp {closepath} bind def
/ef {eofill} bind def
/gr {grestore} bind def
/gs {gsave} bind def
/sa {save} bind def
/rs {restore} bind def
/l {lineto} bind def
/m {moveto} bind def
/rm {rmoveto} bind def
/n {newpath} bind def
/s {stroke} bind def
/sh {show} bind def
/slc {setlinecap} bind def
/slj {setlinejoin} bind def
/slw {setlinewidth} bind def
/srgb {setrgbcolor} bind def
/rot {rotate} bind def
/sc {scale} bind def
/sd {setdash} bind def
/ff {findfont} bind def
/sf {setfont} bind def
/scf {scalefont} bind def
/sw {stringwidth} bind def
/tr {translate} bind def
/tnt {dup dup currentrgbcolor
  4 -2 roll dup 1 exch sub 3 -1 roll mul add
  4 -2 roll dup 1 exch sub 3 -1 roll mul add
  4 -2 roll dup 1 exch sub 3 -1 roll mul add srgb}
  bind def
/shd {dup dup currentrgbcolor 4 -2 roll mul 4 -2 roll mul
  4 -2 roll mul srgb} bind def
 /DrawEllipse {
	/endangle exch def
	/startangle exch def
	/yrad exch def
	/xrad exch def
	/y exch def
	/x exch def
	/savematrix mtrx currentmatrix def
	x y tr xrad yrad sc 0 0 1 startangle endangle arc
	closepath
	savematrix setmatrix
	} def

/$F2psBegin {$F2psDict begin /$F2psEnteredState save def} def
/$F2psEnd {$F2psEnteredState restore end} def

/pageheader {
save
newpath 0 68 moveto 0 0 lineto 200 0 lineto 200 68 lineto closepath clip newpath
-107.1 239.4 translate
1 -1 scale
$F2psBegin
10 setmiterlimit
0 slj 0 slc
 0.06000 0.06000 sc
} bind def
/pagefooter {
$F2psEnd
restore
} bind def
%%EndProlog
pageheader
%
% Fig objects follow
%
% 
% here starts figure with depth 50
/Times-Roman ff 300.00 scf sf
1800 3375 m
gs 1 -1 sc (a) col0 sh gr
% Ellipse
7.500 slw
n 3000 3900 75 75 0 360 DrawEllipse gs 0.00 setgray ef gr gs col0 s gr

% Ellipse
n 3000 3300 75 75 0 360 DrawEllipse gs 0.00 setgray ef gr gs col0 s gr

% Ellipse
n 4200 3300 75 75 0 360 DrawEllipse gs 0.00 setgray ef gr gs col0 s gr

% Polyline
0 slj
0 slc
n 2100 3900 m
 5100 3900 l gs col0 s gr 
% Polyline
n 2100 3300 m
 5100 3300 l gs col0 s gr 
% Polyline
2 slj
15.000 slw
n 3000 3300 m 3000 3301 l 3001 3304 l 3003 3313 l 3007 3329 l 3011 3350 l
 3017 3375 l 3023 3403 l 3028 3431 l 3034 3458 l 3038 3483 l
 3042 3506 l 3045 3527 l 3047 3547 l 3049 3565 l 3050 3583 l
 3050 3600 l 3050 3617 l 3049 3635 l 3047 3653 l 3045 3673 l
 3042 3694 l 3038 3717 l 3034 3742 l 3028 3769 l 3023 3797 l
 3017 3825 l 3011 3850 l 3007 3871 l 3003 3887 l 3001 3896 l
 3000 3899 l
 3000 3900 l gs col0 s gr 
% Polyline
n 4200 3300 m 4200 3301 l 4201 3304 l 4203 3313 l 4207 3329 l 4211 3350 l
 4217 3375 l 4223 3403 l 4228 3431 l 4234 3458 l 4238 3483 l
 4242 3506 l 4245 3527 l 4247 3547 l 4249 3565 l 4250 3583 l
 4250 3600 l 4250 3617 l 4249 3635 l 4247 3653 l 4245 3673 l
 4242 3694 l 4238 3717 l 4234 3742 l 4228 3769 l 4223 3797 l
 4217 3825 l 4211 3850 l 4207 3871 l 4203 3887 l 4201 3896 l
 4200 3899 l
 4200 3900 l gs col0 s gr 
/Times-Roman ff 300.00 scf sf
1800 3975 m
gs 1 -1 sc (b) col0 sh gr
/Times-Roman ff 300.00 scf sf
2925 3075 m
gs 1 -1 sc (3) col0 sh gr
/Times-Roman ff 300.00 scf sf
4125 3075 m
gs 1 -1 sc (5) col0 sh gr
% Ellipse
7.500 slw
n 4200 3900 75 75 0 360 DrawEllipse gs 0.00 setgray ef gr gs col0 s gr

% here ends figure;
pagefooter
showpage
%%Trailer
%EOF
