%!PS-Adobe-3.0 EPSF-3.0
%%BoundingBox: 66 53 337 118
%%HiResBoundingBox: 66.300000 53.900000 336.200000 117.100000
%.....................................
%%Creator: GPL Ghostscript 871 (epswrite)
%%CreationDate: 2012/01/28 17:04:44
%%DocumentData: Clean7Bit
%%LanguageLevel: 2
%%EndComments
%%BeginProlog
% This copyright applies to everything between here and the %%EndProlog:
% Copyright (C) 2010 Artifex Software, Inc.  All rights reserved.
%%BeginResource: procset GS_epswrite_2_0_1001 1.001 0
/GS_epswrite_2_0_1001 80 dict dup begin
/PageSize 2 array def/setpagesize{ PageSize aload pop 3 index eq exch
4 index eq and{ pop pop pop}{ PageSize dup  1
5 -1 roll put 0 4 -1 roll put dup null eq {false} {dup where} ifelse{ exch get exec}
{ pop/setpagedevice where
{ pop 1 dict dup /PageSize PageSize put setpagedevice}
{ /setpage where{ pop PageSize aload pop pageparams 3 {exch pop} repeat
setpage}if}ifelse}ifelse}ifelse} bind def
/!{bind def}bind def/#{load def}!/N/counttomark #
/rG{3{3 -1 roll 255 div}repeat setrgbcolor}!/G{255 div setgray}!/K{0 G}!
/r6{dup 3 -1 roll rG}!/r5{dup 3 1 roll rG}!/r3{dup rG}!
/w/setlinewidth #/J/setlinecap #
/j/setlinejoin #/M/setmiterlimit #/d/setdash #/i/setflat #
/m/moveto #/l/lineto #/c/rcurveto #
/p{N 2 idiv{N -2 roll rlineto}repeat}!
/P{N 0 gt{N -2 roll moveto p}if}!
/h{p closepath}!/H{P closepath}!
/lx{0 rlineto}!/ly{0 exch rlineto}!/v{0 0 6 2 roll c}!/y{2 copy c}!
/re{4 -2 roll m exch dup lx exch ly neg lx h}!
/^{3 index neg 3 index neg}!
/f{P fill}!/f*{P eofill}!/s{H stroke}!/S{P stroke}!
/q/gsave #/Q/grestore #/rf{re fill}!
/Y{P clip newpath}!/Y*{P eoclip newpath}!/rY{re Y}!
/|={pop exch 4 1 roll 1 array astore cvx 3 array astore cvx exch 1 index def exec}!
/|{exch string readstring |=}!
/+{dup type/nametype eq{2 index 7 add -3 bitshift 2 index mul}if}!
/@/currentfile #/${+ @ |}!
/B{{2 copy string{readstring pop}aload pop 4 array astore cvx
3 1 roll}repeat pop pop true}!
/Ix{[1 0 0 1 11 -2 roll exch neg exch neg]exch}!
/,{true exch Ix imagemask}!/If{false exch Ix imagemask}!/I{exch Ix image}!
/Ic{exch Ix false 3 colorimage}!
/F{/Columns counttomark 3 add -2 roll/Rows exch/K -1/BlackIs1 true>>
/CCITTFaxDecode filter}!/FX{<</EndOfBlock false F}!
/X{/ASCII85Decode filter}!/@X{@ X}!/&2{2 index 2 index}!
/@F{@ &2<<F}!/@C{@X &2 FX}!
/$X{+ @X |}!/&4{4 index 4 index}!/$F{+ @ &4<<F |}!/$C{+ @X &4 FX |}!
/IC{3 1 roll 10 dict begin 1{/ImageType/Interpolate/Decode/DataSource
/ImageMatrix/BitsPerComponent/Height/Width}{exch def}forall
currentdict end image}!
/~{@ read {pop} if}!
end def
%%EndResource
/pagesave null def
%%EndProlog
%%Page: 1 1
%%BeginPageSetup
GS_epswrite_2_0_1001 begin
/pagesave save store 197 dict begin
0.1 0.1 scale
%%EndPageSetup
gsave mark
Q q
0 0 250000 250000 re
Y
5 w
K
770 620 31.5 0 P
3290 620 -31.5 0 P
734 620 S
697 599 34 44 /3U
$C
23%r'%\5X)j2)<u^Zk'1J,ZoQs8W-!s8VJ_s8Qk\g>99H(eYmM:r7r$~>
,
770 686 31.5 0 P
3290 686 -31.5 0 P
734 686 S
697 665 35 44 /6U
$C
2%'Ns&9R0a'Aa:<PNfbDGdm_=;rkC=Bjl_7CKWS'fO25hs7ZK6."D-0~>
,
770 752 31.5 0 P
3290 752 -31.5 0 P
734 752 S
671 732 17 43 /3Y
$C
,Tm'ds8W-!s-F.@R>;m@If~>
,
697 731 3U ,
770 818 31.5 0 P
3290 818 -31.5 0 P
734 818 S
671 798 3Y ,
697 797 6U ,
770 884 31.5 0 P
3290 884 -31.5 0 P
734 884 S
663 864 34 43 /6Y
$C
4;jd(Qp5fN^"]dYfPna4iOE=NL>hOS^UAOiqu,+3CMbUV[OTh+@7(A~>
,
697 863 3U ,
770 950 31.5 0 P
3290 950 -31.5 0 P
734 950 S
663 930 6Y ,
697 929 6U ,
770 1016 31.5 0 P
3290 1016 -31.5 0 P
734 1016 S
663 995 34 44 /4C
$C
3f*tLK;VJ#ZZne#2lEeH?]XK;@:la`Yct@m+Q2(jDLDKapAVZrg>Sl<[;*R2"T~>
,
697 995 3U ,
770 1082 31.5 0 P
3290 1082 -31.5 0 P
734 1082 S
663 1061 4C ,
697 1061 6U ,
770 1148 31.5 0 P
3290 1148 -31.5 0 P
734 1148 S
663 1128 35 43 /7C
$C
.M)RZs3Cmfr0V$lmIpMQmIpMQmJH;FpY5/kn_X9>^V/P~>
,
697 1127 3U ,
769 620 0 31.5 P
769 1148 0 -31.5 P
769 560 S
757 539 3U ,
1021 620 0 31.5 P
1021 1148 0 -31.5 P
1021 560 S
975 539 6U ,
1009 539 3U ,
1042 539 3U ,
1273 620 0 31.5 P
1273 1148 0 -31.5 P
1273 560 S
1219 540 3Y ,
1244 539 3U ,
1277 539 3U ,
1311 539 3U ,
1525.5 620 0 31.5 P
1525.5 1148 0 -31.5 P
1525.5 560 S
1471 540 3Y ,
1496 539 6U ,
1530 539 3U ,
1563 539 3U ,
1777.5 620 0 31.5 P
1777.5 1148 0 -31.5 P
1777.5 560 S
1715 540 6Y ,
1748 539 3U ,
1782 539 3U ,
1815 539 3U ,
2029.5 620 0 31.5 P
2029.5 1148 0 -31.5 P
2029.5 560 S
1967 540 6Y ,
2000 539 6U ,
2034 539 3U ,
2067 539 3U ,
2281.5 620 0 31.5 P
2281.5 1148 0 -31.5 P
2281.5 560 S
2219 539 4C ,
2252 539 3U ,
2286 539 3U ,
2319 539 3U ,
2533.5 620 0 31.5 P
2533.5 1148 0 -31.5 P
2533.5 560 S
2471 539 4C ,
2504 539 6U ,
2538 539 3U ,
2571 539 3U ,
2786 620 0 31.5 P
2786 1148 0 -31.5 P
2786 560 S
2724 540 7C ,
2757 539 3U ,
2790 539 3U ,
2824 539 3U ,
3038 620 0 31.5 P
3038 1148 0 -31.5 P
3038 560 S
2976 540 7C ,
3009 539 6U ,
3042 539 3U ,
3076 539 3U ,
3290 620 0 31.5 P
3290 1148 0 -31.5 P
3290 560 S
3228 539 6U ,
3261 539 3U ,
3294 539 3U ,
3328 539 3U ,
770 620 2520 528 re
S
2.5 w
770 752 0.5 0 0.5 132 0.5 -13 0.5 52.5 0.5 -171.5 0.5 0 0.5 39.5 
0.5 132 0.5 0 0.5 -79 0.5 0 0.5 -66 0.5 39.5 0.5 158.5 0.5 0 
0.5 -105.5 0.5 -79.5 0.5 -52.5 0.5 26 0.5 26.5 0.5 0 0.5 -52.5 0.5 105.5 
0.5 0 0.5 -79.5 0.5 0 0.5 185 0.5 -132 0.5 39.5 0.5 -79 0.5 0 
0.5 105.5 0.5 -66 0.5 39.5 0.5 0 0.5 -13 0.5 0 0.5 26.5 0.5 0 
0.5 -145.5 0.5 -13 0.5 52.5 0.5 0 0.5 -26 0.5 105.5 0.5 0 0.5 -119 
0.5 0 0.5 -13 0.5 0 0.5 -13.5 0.5 119 0.5 -13 0.5 39.5 0.5 0 
0.5 0 0.5 -66 0.5 0 0.5 -13.5 1 0 0.5 -52.5 0.5 0 0.5 171.5 
0.5 0 0.5 -105.5 0.5 92.5 0.5 0 0.5 -92.5 0.5 13 0.5 105.5 0.5 0 
0.5 -26 0.5 39.5 0.5 -13.5 0.5 -13 0.5 -119 0.5 -52.5 0.5 79 0.5 13.5 
0.5 -53 0.5 26.5 0.5 0 0.5 -39.5 0.5 66 0.5 0 0.5 -13.5 0.5 -26.5 
0.5 185 0.5 0 0.5 0 0.5 -158.5 0.5 0 0.5 0 0.5 119 0.5 0 
0.5 -145.5 0.5 -13 0.5 13 0.5 132 0.5 -92 0.5 0 0.5 -40 0.5 0 
0.5 79.5 S
822.5 844.5 0.5 0 0.5 66 0.5 -132 0.5 0 0.5 52.5 0.5 -79 0.5 39.5 
0.5 0 0.5 -105.5 0.5 39.5 0.5 0 0.5 -13 0.5 158.5 0.5 13 0.5 -105.5 
0.5 0 0.5 -13.5 0.5 0 0.5 -39.5 0.5 -13 0.5 52.5 0.5 79.5 0.5 0 
0.5 -79.5 0.5 0 0.5 -13 0.5 0 0.5 -53 0.5 277.5 0.5 -132 0.5 -92.5 
0.5 13 0.5 0 0.5 13.5 0.5 26.5 0.5 -53 0.5 0 0.5 13 0.5 0 
0.5 -26 0.5 0 0.5 0 0.5 158 0.5 -198 0.5 26.5 0.5 66 0.5 0 
0.5 0 0.5 -26.5 0.5 0 0.5 -52.5 0.5 250.5 0.5 0 0.5 -105.5 0.5 39.5 
0.5 -13 0.5 0 0.5 -92.5 0.5 26.5 0.5 0 0.5 -105.5 0.5 39.5 0.5 0 
0.5 -66 0.5 145 0.5 0 0.5 -52.5 0.5 0 0.5 132 0.5 0 0.5 -39.5 
0.5 -26.5 0.5 39.5 0.5 0 1 -66 0.5 0 0.5 -79 0.5 158 0.5 0 
0.5 -92 0.5 0 0.5 13 0.5 0 0.5 145 0.5 0 0.5 -92 0.5 0 
0.5 39.5 0.5 -158.5 0.5 0 0.5 13 0.5 0 0.5 -39.5 0.5 26.5 0.5 -13 
0.5 -53 0.5 13 0.5 53 0.5 0 0.5 -13 0.5 66 0.5 0 0.5 -13.5 
0.5 53 S
875 844.5 0.5 0 0.5 -92.5 0.5 26.5 0.5 0 0.5 -53 0.5 92.5 0.5 0 
0.5 -53 0.5 0 0.5 13.5 0.5 39.5 0.5 0 0.5 -79 0.5 26 0.5 106 
0.5 -92.5 0.5 79 0.5 0 0.5 -132 0.5 -13 0.5 92.5 0.5 0 0.5 39.5 
0.5 26.5 0.5 0 0.5 -132 0.5 0 0.5 -13.5 0.5 0 0.5 -13 0.5 -13.5 
0.5 -13 0.5 39.5 0.5 13.5 0.5 105.5 0.5 -66 0.5 0 0.5 -26.5 0.5 39.5 
0.5 66 0.5 -132 0.5 -13 0.5 132 0.5 0 0.5 -66 0.5 39.5 0.5 0 
0.5 -26.5 0.5 -52.5 0.5 -13.5 0.5 0 0.5 13.5 0.5 118.5 0.5 0 0.5 -26.5 
0.5 -92 0.5 13 0.5 66 0.5 0 0.5 -53 0.5 0 0.5 13.5 0.5 0 
0.5 145 0.5 0 0.5 -92.5 0.5 -13 0.5 0 0.5 -53 0.5 0 0.5 53 
0.5 0 0.5 13 0.5 0 0.5 -39.5 0.5 92.5 0.5 0 0.5 -39.5 0.5 -105.5 
0.5 39.5 0.5 0 0.5 -66 0.5 13 0.5 13.5 0.5 158 0.5 0 0.5 -52.5 
0.5 -13.5 0.5 13.5 1 0 0.5 26.5 0.5 0 0.5 -53 0.5 79 0.5 -66 
0.5 -52.5 0.5 0 0.5 13 0.5 145.5 0.5 0 0.5 -198 0.5 39.5 0.5 0 
0.5 -13.5 S
927.5 765 0.5 26.5 0.5 66 0.5 0 0.5 -26.5 0.5 -52.5 0.5 26.5 0.5 0 
0.5 -92.5 0.5 92.5 0.5 -53 0.5 39.5 0.5 0 0.5 -13 0.5 132 0.5 0 
0.5 -13.5 0.5 0 0.5 -211 0.5 53 0.5 39.5 0.5 0 0.5 105.5 0.5 0 
0.5 53 0.5 0 0.5 -106 0.5 40 0.5 -79.5 0.5 53 0.5 0 0.5 -105.5 
0.5 -13.5 0.5 -13 0.5 66 0.5 66 0.5 0 0.5 -132 0.5 66 0.5 0 
0.5 13 0.5 105.5 0.5 0 0.5 -171.5 0.5 0 0.5 39.5 0.5 92.5 0.5 0 
0.5 -105.5 0.5 0 0.5 79 0.5 0 0.5 0 0.5 0 0.5 13.5 0.5 0 
0.5 -39.5 0.5 26 0.5 0 0.5 -26 0.5 39.5 0.5 0 0.5 -92.5 0.5 105.5 
0.5 -52.5 0.5 -53 0.5 158.5 0.5 -26.5 0.5 0 0.5 -119 0.5 0 0.5 158.5 
0.5 -39.5 0.5 0 0.5 -158.5 0.5 66 0.5 -79 0.5 237.5 0.5 -39.5 0.5 -145.5 
0.5 -52.5 0.5 224.5 0.5 -158.5 0.5 52.5 0.5 0 0.5 -66 0.5 66 0.5 0 
0.5 79.5 0.5 -145.5 0.5 -66 0.5 172 0.5 -13.5 0.5 13.5 0.5 0 0.5 -92.5 
0.5 0 0.5 0 0.5 -53 0.5 171.5 0.5 0 0.5 -52.5 0.5 -39.5 0.5 13 
0.5 -39.5 S
979.5 778.5 1 79 0.5 0 0.5 -39.5 0.5 -26.5 0.5 0 0.5 -13 0.5 158.5 
0.5 0 0.5 -106 0.5 -118.5 0.5 0 0.5 105.5 0.5 -13 0.5 -66 0.5 0 
0.5 -26.5 0.5 13 0.5 105.5 0.5 0 0.5 -52.5 0.5 79 0.5 0 0.5 -92.5 
0.5 132 0.5 0 0.5 -184.5 0.5 92.5 0.5 13 0.5 0 0.5 0 0.5 0 
0.5 79 0.5 0 0.5 -198 0.5 13.5 0.5 13 0.5 53 0.5 0 0.5 52.5 
0.5 0 0.5 26.5 0.5 13.5 0.5 -79.5 0.5 39.5 0.5 0 0.5 -66 0.5 0 
0.5 0 0.5 40 0.5 0 0.5 -66 0.5 -26.5 0.5 26.5 0.5 0 0.5 13 
0.5 26.5 0.5 0 0.5 -39.5 0.5 52.5 0.5 0 0.5 -52.5 0.5 92 0.5 0 
0.5 -66 0.5 -39.5 0.5 119 0.5 0 0.5 0 0.5 -26.5 0.5 -92.5 0.5 26.5 
0.5 -66 0.5 66 0.5 0 0.5 39.5 0.5 39.5 0.5 0 0.5 66 0.5 0 
0.5 -66 0.5 -13 0.5 185 0.5 -40 0.5 -26 0.5 0 0.5 -132 0.5 0 
0.5 0 0.5 -119 0.5 92.5 0.5 118.5 0.5 0 0.5 -184.5 0.5 -26.5 0.5 0 
0.5 0 0.5 0 0.5 0 0.5 0 0.5 185 0.5 26 0.5 -118.5 0.5 66 
0.5 26.5 S
1032 871 0.5 0 0.5 -106 0.5 -39.5 0.5 0 0.5 -13 0.5 66 0.5 0 
0.5 171.5 0.5 0 0.5 -119 0.5 0 0.5 -52.5 0.5 -66 0.5 198 0.5 0 
1 -132 0.5 92.5 0.5 0 0.5 -92.5 0.5 13 0.5 0 0.5 -79 0.5 52.5 
0.5 66 0.5 0 0.5 -79 0.5 0 0.5 -13 0.5 -53 0.5 66 0.5 0 
0.5 92.5 0.5 0 0.5 -53 0.5 -39.5 0.5 26.5 0.5 0 0.5 118.5 0.5 0 
0.5 -92 0.5 -13.5 0.5 -26.5 0.5 26.5 0.5 39.5 0.5 0 0.5 -105.5 0.5 0 
0.5 0 0.5 211.5 0.5 0 0.5 -132 0.5 0 0.5 66 0.5 0 0.5 -119 
0.5 39.5 0.5 -92.5 0.5 0 0.5 26.5 0.5 26.5 0.5 105.5 0.5 0 0.5 -132 
0.5 185 0.5 0 0.5 66 0.5 -198 0.5 -13.5 0.5 66 0.5 0 0.5 -39.5 
0.5 0 0.5 66 0.5 -132 0.5 211.5 0.5 0 0.5 -211.5 0.5 79.5 0.5 -26.5 
0.5 92.5 0.5 -106 0.5 -13 0.5 0 0.5 13 0.5 0 0.5 -26 0.5 105.5 
0.5 0 0.5 -119 0.5 39.5 0.5 0 0.5 26.5 0.5 0 0.5 79.5 0.5 0 
0.5 -119 0.5 185 0.5 0 0.5 -106 0.5 -145 0.5 132 0.5 0 0.5 -39.5 
0.5 0 S
1084.5 778.5 0.5 79 0.5 0 0.5 -92.5 0.5 79.5 0.5 0 0.5 -145.5 0.5 66 
0.5 53 0.5 0 0.5 -39.5 0.5 -26.5 0.5 -53 0.5 13.5 0.5 13 0.5 26.5 
0.5 13 0.5 0 0.5 0 0.5 13.5 0.5 0 0.5 -13.5 0.5 -26 0.5 79 
0.5 0 0.5 13 0.5 0 0.5 -66 0.5 0 0.5 -13 0.5 92.5 1 0 
0.5 -79.5 0.5 -26 0.5 105.5 0.5 0 0.5 -132 0.5 158.5 0.5 -13.5 0.5 -13 
0.5 -79.5 0.5 13.5 0.5 132 0.5 0 0.5 -145.5 0.5 13.5 0.5 66 0.5 0 
0.5 -105.5 0.5 118.5 0.5 0 0.5 -118.5 0.5 0 0.5 39.5 0.5 0 0.5 79 
0.5 0 0.5 -26.5 0.5 53 0.5 -119 0.5 79.5 0.5 0 0.5 -39.5 0.5 -26.5 
0.5 -53 0.5 39.5 0.5 172 0.5 0 0.5 -158.5 0.5 -13.5 0.5 -52.5 0.5 52.5 
0.5 53 0.5 0 0.5 -66 0.5 53 0.5 13 0.5 0 0.5 13 0.5 -132 
0.5 -13 0.5 26.5 0.5 26.5 0.5 26 0.5 119 0.5 0 0.5 -158.5 0.5 119 
0.5 0 0.5 -105.5 0.5 0 0.5 39.5 0.5 0 0.5 171.5 0.5 0 0.5 -53 
0.5 0 0.5 -13 0.5 0 0.5 -119 0.5 -52.5 0.5 26.5 0.5 26 0.5 13.5 
0.5 -26.5 S
1137 752 0.5 -13 0.5 0 0.5 39.5 0.5 0 0.5 -13.5 0.5 -39.5 0.5 185 
0.5 0 0.5 -145.5 -90 13.5 91 -66 0.5 13 0.5 66 0.5 79.5 0.5 26 
0.5 0 0.5 -39.5 0.5 -13 0.5 0 0.5 -79.5 0.5 13.5 0.5 0 0.5 0 
0.5 52.5 0.5 26.5 0.5 -52.5 0.5 -79.5 0.5 0 0.5 185 0.5 0 0.5 -26.5 
0.5 -53 0.5 0 0.5 -52.5 0.5 52.5 0.5 -145 0.5 66 0.5 13 0.5 92.5 
0.5 0 0.5 -92.5 0.5 79.5 0.5 0 0.5 -105.5 0.5 26 1 79.5 0.5 0 
0.5 -105.5 0.5 198 0.5 0 0.5 -145.5 0.5 -26.5 0.5 145.5 0.5 -66 0.5 0 
0.5 -92.5 0.5 0 0.5 53 0.5 -66 0.5 26 0.5 13.5 0.5 0 0.5 -39.5 
0.5 26 0.5 0 0.5 0 0.5 13.5 0.5 0 0.5 52.5 0.5 0 0.5 26.5 
0.5 0 0.5 -132 0.5 79.5 0.5 26 0.5 0 0.5 79.5 0.5 0 0.5 79 
0.5 -39.5 0.5 -105.5 0.5 52.5 0.5 0 0.5 -39.5 0.5 0 0.5 39.5 0.5 0 
0.5 -39.5 0.5 -79 0.5 0 0.5 0 0.5 39.5 0.5 0 0.5 -79 0.5 0 
0.5 52.5 0.5 0 0.5 53 0.5 13 0.5 -13 0.5 0 0.5 -145.5 0.5 40 
0.5 -13.5 0.5 -13 0.5 132 0.5 13 0.5 0 0.5 -158.5 0.5 79.5 0.5 39.5 
0.5 0 0.5 39.5 0.5 0 0.5 -52.5 S
1195 805 0.5 -40 0.5 119 0.5 0 0.5 -79 0.5 -66 0.5 0 0.5 92 
0.5 -52.5 0.5 -13.5 0.5 79.5 0.5 0 0.5 13 0.5 -79 0.5 0 0.5 92.5 
0.5 -66 0.5 66 0.5 52.5 0.5 -79 0.5 13 0.5 0 0.5 -132 0.5 79.5 
0.5 -40 0.5 79.5 0.5 -26.5 0.5 -13 0.5 -26.5 0.5 -13.5 0.5 119 0.5 0 
0.5 -105.5 0.5 0 0.5 13 0.5 0 0.5 -66 0.5 0 0.5 79.5 0.5 0 
0.5 -53 0.5 145 0.5 0 0.5 -184.5 0.5 66 0.5 118.5 0.5 0 0.5 -145 
0.5 79 0.5 0 1 0 0.5 -13 0.5 -39.5 0.5 0 0.5 66 0.5 52.5 
0.5 0 0.5 -132 0.5 -13 0.5 0 0.5 0 0.5 105.5 0.5 39.5 0.5 -39.5 
0.5 0 0.5 0 0.5 -92.5 0.5 13.5 0.5 0 0.5 -13.5 0.5 -13 0.5 0 
0.5 -39.5 0.5 66 0.5 0 0.5 0 0.5 105.5 0.5 0 0.5 -105.5 0.5 39.5 
0.5 0 0.5 -66 0.5 66 0.5 0 0.5 13 0.5 0 0.5 -13 0.5 13 
0.5 0 0.5 -92 0.5 39.5 0.5 118.5 0.5 0 0.5 -132 0.5 66 0.5 66 
0.5 0 0.5 -118.5 0.5 -66 0.5 26.5 0.5 92 0.5 66 0.5 0 0.5 -145 
0.5 66 S
1247.5 818 0.5 -26.5 0.5 -13 0.5 0 0.5 -26.5 0.5 26.5 0.5 26.5 0.5 39.5 
0.5 0 0.5 -92.5 0.5 0 0.5 66 0.5 0 0.5 0 0.5 0 0.5 -105.5 
0.5 -26.5 0.5 119 0.5 0 0.5 39.5 0.5 0 0.5 -66 0.5 0 0.5 -79.5 
0.5 185 0.5 0 0.5 -79 0.5 -119 0.5 66 0.5 66 0.5 53 0.5 -26.5 
0.5 -39.5 0.5 0 0.5 13 0.5 39.5 0.5 0 0.5 13.5 0.5 0 0.5 -53 
0.5 -66 0.5 39.5 0.5 66 0.5 -26.5 0.5 26.5 0.5 0 0.5 -92.5 0.5 0 
0.5 -39.5 0.5 -26.5 0.5 79.5 0.5 39.5 0.5 0 0.5 -92.5 0.5 92.5 0.5 0 
0.5 -105.5 0.5 79 0.5 0 0.5 -52.5 0.5 52.5 0.5 0 0.5 0 0.5 26.5 
0.5 0 1 -39.5 0.5 0 0.5 -39.5 0.5 0 0.5 -26.5 0.5 52.5 0.5 132 
0.5 -79 0.5 -105.5 0.5 79 0.5 0 0.5 -52.5 0.5 0 0.5 105.5 0.5 0 
0.5 -26.5 0.5 79 0.5 0 0.5 -92 0.5 0 0.5 -40 0.5 -13 0.5 0 
0.5 39.5 0.5 53 0.5 0 0.5 -39.5 0.5 66 0.5 -13.5 0.5 0 0.5 -145 
0.5 39.5 0.5 26.5 0.5 0 0.5 -26.5 0.5 0 0.5 -39.5 0.5 13 0.5 0 
0.5 39.5 S
1300 765 0.5 -26 0.5 -13.5 0.5 0 0.5 211.5 0.5 0 0.5 -92.5 0.5 13 
0.5 -79 0.5 0 0.5 26.5 0.5 0 0.5 -26.5 0.5 118.5 0.5 0 0.5 -184.5 
0.5 26.5 0.5 0 0.5 66 0.5 66 0.5 13 0.5 -171.5 0.5 79 0.5 0 
0.5 -79 0.5 66 0.5 0 0.5 26.5 0.5 79 0.5 -39.5 0.5 -13.5 0.5 66 
0.5 0 0.5 -171.5 0.5 39.5 0.5 0 0.5 -26 0.5 -26.5 0.5 237.5 0.5 0 
0.5 -171.5 0.5 0 0.5 -13.5 0.5 0 0.5 -39.5 0.5 0 0.5 158.5 0.5 0 
0.5 -79 0.5 -66 0.5 92 0.5 13.5 0.5 0 0.5 0 0.5 0 0.5 -79.5 
0.5 79.5 0.5 0 0.5 -105.5 0.5 -26.5 0.5 26.5 0.5 13 0.5 -39.5 0.5 0 
0.5 92.5 0.5 0 0.5 13 0.5 -105.5 0.5 52.5 0.5 0 0.5 -39.5 0.5 0 
0.5 -13 0.5 118.5 0.5 0 0.5 40 0.5 0 0.5 -158.5 0.5 132 0.5 -79.5 
1 79.5 -12 66 13 -105.5 0.5 -92.5 0.5 145 0.5 79.5 0.5 0 0.5 -66 
0.5 -158.5 0.5 0 0.5 -13.5 0.5 198 0.5 0 0.5 -39.5 0.5 -145 0.5 224.5 
0.5 0 0.5 -106 0.5 -132 0.5 13.5 0.5 26.5 0.5 -13.5 0.5 26.5 0.5 66 
0.5 0 S
1352.5 818 0.5 66 0.5 0 0.5 -198 0.5 26.5 0.5 198 0.5 0 0.5 -158.5 
0.5 -26.5 0.5 39.5 0.5 0 0.5 -66 0.5 172 0.5 52.5 0.5 0 0.5 -184.5 
0.5 105.5 0.5 -92.5 0.5 0 0.5 0 0.5 132 0.5 0 0.5 -119 0.5 66 
0.5 0 0.5 -52.5 0.5 66 0.5 66 0.5 0 0.5 -132 0.5 -66 0.5 118.5 
0.5 13.5 0.5 0 0.5 -79.5 0.5 0 0.5 53 0.5 -79 0.5 26 0.5 0 
0.5 106 0.5 -66 0.5 -92.5 0.5 13 0.5 211.5 0.5 -13.5 0.5 -39.5 0.5 -39.5 
0.5 39.5 0.5 -13 0.5 39.5 0.5 -39.5 0.5 -132 0.5 211 0.5 0 0.5 -26.5 
0.5 -158.5 0.5 106 0.5 13 0.5 105.5 0.5 0 0.5 -250.5 0.5 52.5 0.5 -66 
0.5 13.5 0.5 0 0.5 13 0.5 13 0.5 66 0.5 40 0.5 0 0.5 -13.5 
0.5 -132 0.5 -13 0.5 52.5 0.5 0 0.5 -26 -11.5 0 12.5 -53 0.5 53 
0.5 105.5 0.5 0 0.5 -66 0.5 118.5 0.5 0 0.5 -184.5 0.5 0 0.5 92.5 
0.5 0 0.5 -26.5 0.5 0 0.5 -39.5 0.5 118.5 0.5 0 0.5 0 1 0 
0.5 -118.5 0.5 250.5 0.5 0 0.5 -224.5 0.5 0 0.5 0 0.5 -52.5 0.5 0 
0.5 39.5 S
1405 752 0.5 0 0.5 -26.5 0.5 0 0.5 13.5 0.5 0 0.5 66 0.5 66 
0.5 0 0.5 -13.5 0.5 39.5 0.5 0 0.5 -105.5 0.5 -26.5 0.5 238 0.5 -238 
0.5 -26 0.5 0 0.5 -26.5 0.5 26.5 0.5 145 0.5 0 0.5 -145 0.5 52.5 
0.5 0 0.5 -39.5 0.5 105.5 0.5 0 0.5 -79 0.5 0 0.5 66 0.5 0 
0.5 -105.5 0.5 211 0.5 -211 0.5 158 0.5 0 0.5 -158 0.5 0 0.5 39.5 
0.5 0 0.5 -13.5 0.5 40 0.5 0 0.5 -66 0.5 0 0.5 52.5 0.5 -105.5 
0.5 53 0.5 26 0.5 -13 0.5 39.5 0.5 -52.5 0.5 -26.5 0.5 211 0.5 -184.5 
0.5 0 0.5 52.5 0.5 -105.5 0.5 303.5 0.5 0 0.5 -105.5 0.5 -66 0.5 -13 
0.5 -26.5 0.5 13 0.5 53 0.5 0 0.5 -13.5 0.5 -39.5 0.5 119 0.5 -171.5 
0.5 52.5 -11.5 53 12.5 39.5 0.5 -171.5 0.5 -26.5 0.5 53 0.5 39.5 0.5 -13.5 
0.5 53 0.5 0 0.5 0 0.5 -26.5 0.5 26.5 0.5 -13 0.5 39.5 0.5 0 
0.5 -105.5 0.5 0 0.5 39.5 0.5 52.5 0.5 26.5 0.5 -145 0.5 79 0.5 0 
0.5 198 0.5 0 0.5 -198 0.5 132 0.5 0 0.5 0 0.5 -158.5 0.5 -26 
0.5 92 S
1457 831 0.5 13.5 0.5 0 0.5 -158.5 0.5 26.5 0.5 66 1 92.5 0.5 0 
0.5 -26.5 0.5 52.5 0.5 0 0.5 -79 0.5 0 0.5 -26.5 0.5 0 0.5 39.5 
0.5 0 0.5 -105.5 0.5 79.5 0.5 -119 0.5 158.5 0.5 -26.5 0.5 -26.5 0.5 -105.5 
0.5 13 0.5 13.5 0.5 26.5 0.5 171.5 0.5 0 0.5 -171.5 0.5 0 0.5 -26.5 
0.5 171.5 0.5 0 0.5 -13 0.5 -158.5 0.5 198 0.5 0 0.5 0 0.5 -66 
0.5 -53 0.5 -26.5 0.5 92.5 0.5 0 0.5 -66 0.5 -13 0.5 52.5 0.5 0 
0.5 -118.5 0.5 145 0.5 0 0.5 -39.5 0.5 0 0.5 -13 0.5 0 0.5 184.5 
0.5 0 0.5 -224.5 0.5 53 0.5 0 0.5 26.5 0.5 0 0.5 -92.5 0.5 0 
0.5 13 0.5 0 0.5 40 0.5 0 0.5 -106 0.5 172 0.5 0 0.5 -13.5 
0.5 -13 0.5 -13.5 0.5 -92 0.5 -26.5 0.5 52.5 0.5 0 0.5 0 0.5 79.5 
0.5 -105.5 0.5 0 0.5 -53 0.5 79 0.5 0 0.5 40 0.5 -79.5 0.5 0 
0.5 26.5 0.5 132 0.5 92.5 0.5 0 0.5 -224.5 0.5 39.5 0.5 -13 0.5 92.5 
0.5 -132 0.5 0 0.5 39.5 0.5 0 0.5 -92.5 0.5 -26.5 0.5 211.5 0.5 0 
0.5 -106 S
1509.5 765 0.5 -13 0.5 -66 0.5 105.5 0.5 79.5 0.5 -132 0.5 -26.5 0.5 -26.5 
0.5 132 0.5 92.5 0.5 0 0.5 66 0.5 0 0.5 -185 0.5 53 0.5 0 
0.5 -26.5 0.5 0 0.5 26.5 0.5 -105.5 0.5 0 1 105.5 0.5 0 0.5 39.5 
0.5 26.5 0.5 -105.5 0.5 0 0.5 -66 0.5 250.5 0.5 0 0.5 -211 0.5 0 
0.5 13 0.5 0 0.5 92.5 0.5 0 0.5 -79 0.5 -66 0.5 184.5 0.5 13.5 
0.5 0 0.5 -53 0.5 -66 0.5 0 0.5 53 0.5 -158.5 0.5 26.5 0.5 0 
0.5 105.5 0.5 39.5 0.5 -92.5 0.5 26.5 0.5 13 0.5 0 0.5 -66 0.5 0 
0.5 185 0.5 0 0.5 -92.5 0.5 -39.5 0.5 -119 0.5 53 0.5 0 0.5 0 
0.5 -13 0.5 13 0.5 0 0.5 13 0.5 -79 0.5 26.5 0.5 132 0.5 0 
0.5 -105.5 0.5 0 0.5 26 0.5 92.5 0.5 0 0.5 -92.5 0.5 92.5 0.5 0 
0.5 -66 0.5 -13 0.5 -66 0.5 0 0.5 26.5 0.5 0 0.5 118.5 0.5 0 
0.5 -13 0.5 0 0.5 -132 0.5 0 0.5 0 0.5 118.5 0.5 0 0.5 -105.5 
0.5 0 0.5 66 0.5 0 0.5 119 0.5 0 0.5 -53 0.5 -132 0.5 0 
0.5 26.5 S
1562 752 0.5 -39.5 0.5 118.5 0.5 0 0.5 13.5 0.5 26.5 0.5 118.5 0.5 0 
0.5 -250.5 0.5 237.5 0.5 0 0.5 -198 0.5 -26.5 0.5 26.5 0.5 13 0.5 0 
0.5 -66 0.5 -13 0.5 132 0.5 0 0.5 0 0.5 0 0.5 -79.5 0.5 0 
0.5 0 0.5 -26 0.5 79 0.5 39.5 0.5 -13 0.5 0 0.5 105.5 0.5 0 
0.5 -171.5 0.5 92.5 0.5 0 0.5 26 1 0 0.5 92.5 0.5 0 0.5 -237.5 
0.5 39.5 0.5 26.5 0.5 53 0.5 0 0.5 -79.5 0.5 26.5 0.5 0 0.5 -79 
0.5 0 0.5 171.5 0.5 -92.5 0.5 105.5 0.5 13.5 0.5 -145.5 0.5 53 0.5 0 
0.5 0 0.5 0 0.5 -79.5 0.5 -66 0.5 53 0.5 92.5 0.5 0 0.5 -158.5 
0.5 0 0.5 0 0.5 0 0.5 13 0.5 40 0.5 92 0.5 53 0.5 -145 
0.5 0 0.5 13 0.5 53 0.5 118.5 0.5 0 0.5 -39.5 0.5 92.5 0.5 0 
0.5 -211.5 0.5 -13 0.5 0 0.5 66 0.5 0 0.5 -39.5 0.5 158.5 0.5 13 
0.5 -53 0.5 -66 0.5 -26 0.5 0 0.5 0 0.5 -53 0.5 119 0.5 0 
0.5 -40 0.5 0 0.5 -79 0.5 0 0.5 92.5 0.5 0 0.5 -145.5 0.5 13.5 
0.5 66 S
1614.5 778.5 0.5 105.5 0.5 0 0.5 -66 0.5 -79 0.5 13 0.5 0 0.5 -66 
0.5 13 0.5 145.5 0.5 0 0.5 -26.5 0.5 -13 0.5 0 0.5 52.5 0.5 0 
0.5 -158.5 0.5 92.5 0.5 0 0.5 145.5 0.5 -40 0.5 0 0.5 26.5 0.5 -184.5 
0.5 145 0.5 0 0.5 -13 0.5 0 0.5 -40 0.5 92.5 0.5 0 0.5 -158.5 
0.5 -52.5 0.5 118.5 0.5 0 0.5 -92 0.5 250.5 0.5 0 0.5 -79 0.5 0 
0.5 -211.5 0.5 0 0.5 -13 0.5 39.5 0.5 39.5 0.5 0 0.5 0 0.5 0 
0.5 -26 0.5 66 0.5 0 1 -13.5 0.5 -26.5 0.5 -26 0.5 105.5 0.5 26.5 
0.5 -132 0.5 224 0.5 0 0.5 -79 0.5 0 0.5 53 0.5 0 0.5 -106 
0.5 0 0.5 -79 0.5 -39.5 0.5 -13.5 0.5 26.5 0.5 105.5 0.5 -26 0.5 -40 
0.5 79.5 0.5 0 0.5 -132 0.5 277 0.5 0 0.5 -224.5 0.5 -79 0.5 119 
0.5 13 0.5 -26.5 0.5 0 0.5 -66 0.5 132 0.5 -13 0.5 -53 0.5 0 
0.5 -79 0.5 39.5 0.5 39.5 0.5 0 0.5 53 0.5 0 0.5 -79.5 0.5 53 
0.5 0 0.5 -66 0.5 53 0.5 39.5 0.5 -39.5 0.5 0 0.5 13 0.5 -92.5 
0.5 -13 S
1667 712.5 0.5 145 0.5 0 0.5 -52.5 0.5 0 0.5 -79.5 0.5 13.5 0.5 132 
0.5 0 0.5 -132 0.5 0 0.5 52.5 0.5 0 0.5 39.5 0.5 53 0.5 0 
0.5 -79 0.5 0 0.5 0 0.5 13 0.5 0 0.5 66 0.5 -79 0.5 13 
0.5 0 0.5 185 0.5 -211.5 0.5 -13 0.5 39.5 0.5 171.5 0.5 0 0.5 -224.5 
0.5 53 0.5 0 0.5 -53 0.5 53 0.5 -79 0.5 0 0.5 26 0.5 0 
0.5 79.5 0.5 0 0.5 -105.5 0.5 0 0.5 158 0.5 0 0.5 -158 0.5 79 
0.5 0 0.5 -13 0.5 13 0.5 -53 0.5 0 0.5 13.5 0.5 0 0.5 -13.5 
0.5 119 0.5 0 0.5 -132 0.5 92.5 0.5 52.5 0.5 0 0.5 0 0.5 -132 
0.5 26.5 0.5 198 1 0 0.5 -224.5 0.5 0 0.5 40 0.5 0 0.5 -79.5 
0.5 119 0.5 0 0.5 -79.5 0.5 53 0.5 -26.5 0.5 -26.5 0.5 -26 0.5 26 
0.5 132 0.5 0 0.5 -118.5 0.5 0 0.5 -13.5 0.5 26.5 0.5 26.5 0.5 0 
0.5 -53 0.5 -26 0.5 66 0.5 13 0.5 0 0.5 -39.5 0.5 0 0.5 -53 
0.5 -13 0.5 39.5 0.5 0 0.5 39.5 0.5 0 0.5 -26.5 0.5 26.5 0.5 -52.5 
0.5 0 S
1719.5 739 0.5 0 0.5 39.5 0.5 0 0.5 -79.5 0.5 -13 0.5 13 0.5 198 
0.5 -39.5 0.5 66 0.5 0 0.5 -92.5 0.5 0 0.5 -13 0.5 0 0.5 -13 
0.5 0 0.5 -79.5 0.5 0 0.5 39.5 0.5 -26 0.5 0 0.5 26 0.5 0 
0.5 0 0.5 224.5 0.5 -171.5 0.5 0 0.5 145 0.5 -158 0.5 13 0.5 13 
0.5 -26 0.5 0 0.5 39.5 0.5 -53 0.5 -13 0.5 0 0.5 -13.5 0.5 66 
0.5 0 0.5 -39.5 0.5 0 0.5 -79 0.5 79 0.5 53 0.5 -79.5 0.5 0 
0.5 40 0.5 52.5 0.5 -13 0.5 -53 0.5 79.5 0.5 0 0.5 -106 0.5 13.5 
0.5 13 0.5 26.5 0.5 -79 0.5 0 0.5 250.5 0.5 0 0.5 -264 0.5 -13 
0.5 0 0.5 52.5 0.5 0 0.5 106 0.5 0 0.5 -106 0.5 106 0.5 0 
0.5 -119 0.5 13 0.5 0 0.5 0 0.5 53 0.5 0 0.5 -26.5 0.5 -26.5 
0.5 66 1 -118.5 0.5 39.5 0.5 53 0.5 66 0.5 0 0.5 -66 0.5 0 
0.5 66 0.5 -92.5 0.5 13 0.5 26.5 0.5 0 0.5 119 0.5 0 0.5 -26.5 
0.5 0 0.5 -105.5 0.5 39.5 0.5 13 0.5 -105.5 0.5 0 0.5 -13 0.5 118.5 
0.5 0 S
1772 857.5 0.5 -92.5 0.5 0 0.5 79.5 0.5 -13.5 0.5 0 0.5 -13 0.5 0 
0.5 -53 0.5 0 0.5 0 0.5 0 0.5 0 0.5 26.5 0.5 13.5 0.5 -53 
0.5 0 0.5 13 0.5 0 0.5 -66 0.5 92.5 0.5 26.5 0.5 105.5 0.5 0 
0.5 13.5 0.5 0 0.5 -211.5 0.5 79.5 0.5 0 0.5 39.5 0.5 0 0.5 -105.5 
0.5 13 0.5 0 0.5 13 0.5 40 0.5 0 0.5 -66 0.5 184.5 0.5 0 
0.5 -26.5 0.5 -145 0.5 39.5 0.5 0 0.5 0 0.5 132 0.5 0 0.5 -52.5 
0.5 39.5 0.5 -145.5 0.5 0 0.5 13.5 0.5 -53 0.5 13.5 0.5 0 0.5 0 
0.5 250.5 0.5 0 0.5 -132 0.5 -105.5 0.5 -79 0.5 118.5 0.5 0 0.5 -26.5 
0.5 40 0.5 0 0.5 0 0.5 0 0.5 -26.5 0.5 -39.5 0.5 0 0.5 -13.5 
0.5 79.5 0.5 92 0.5 -79 0.5 -13 0.5 0 0.5 -26.5 0.5 -13.5 0.5 26.5 
0.5 0 0.5 -52.5 0.5 66 0.5 -53 0.5 -26.5 0.5 66 0.5 303.5 0.5 -92 
0.5 -132 0.5 -92.5 0.5 0 0.5 -26.5 0.5 0 0.5 0 0.5 -26.5 0.5 171.5 
1 13.5 0.5 -145.5 0.5 -13 0.5 158.5 0.5 0 0.5 -119 0.5 13.5 0.5 79 
0.5 13 S
1824.5 897 0.5 -184.5 0.5 0 0.5 26.5 0.5 52.5 0.5 171.5 0.5 0 0.5 -52.5 
0.5 -132 0.5 -26.5 0.5 39.5 0.5 53 0.5 0 0.5 0 0.5 -39.5 0.5 79 
0.5 0 0.5 -39.5 0.5 0 0.5 0 0.5 -105.5 0.5 52.5 0.5 13.5 0.5 -13.5 
0.5 79.5 0.5 39.5 0.5 -92.5 0.5 -26.5 0.5 0 0.5 -13 0.5 0 0.5 -53 
0.5 119 0.5 0 0.5 145 0.5 0 0.5 -211 0.5 -13.5 0.5 79.5 0.5 13 
0.5 0 0.5 -66 0.5 0 0.5 13.5 0.5 13 0.5 -26.5 0.5 0 0.5 105.5 
0.5 -184.5 0.5 145 0.5 0 0.5 13.5 0.5 0 0.5 -26.5 0.5 0 0.5 -26.5 
0.5 -105.5 0.5 158.5 0.5 0 0.5 -158.5 0.5 52.5 0.5 26.5 0.5 0 0.5 -13 
0.5 -79.5 0.5 0 0.5 92.5 0.5 105.5 0.5 13.5 0.5 0 0.5 -26.5 0.5 0 
0.5 -13 0.5 -79.5 0.5 -105.5 0.5 79 0.5 0 0.5 0 0.5 -13 0.5 119 
0.5 -13.5 0.5 39.5 0.5 0 0.5 -52.5 0.5 -26.5 0.5 39.5 0.5 0 0.5 -145 
0.5 224.5 0.5 0 0.5 -40 0.5 -39.5 0.5 0 0.5 -52.5 0.5 -66 0.5 -26.5 
0.5 13 0.5 26.5 0.5 26.5 0.5 39.5 0.5 -53 0.5 -13 0.5 26.5 0.5 66 
0.5 -26.5 S
1876.5 818 0.5 0 0.5 0 0.5 79 0.5 0 0.5 -158 0.5 66 1 158 
0.5 0 0.5 -39.5 0.5 0 0.5 -105.5 0.5 -92.5 0.5 -13 0.5 211 0.5 -13 
0.5 -171.5 0.5 13 0.5 13 0.5 -66 0.5 106 0.5 0 0.5 -40 0.5 0 
0.5 -52.5 0.5 26.5 0.5 79 0.5 105.5 0.5 0 0.5 -132 0.5 0 0.5 -26.5 
0.5 0 0.5 -26 0.5 0 0.5 66 0.5 -40 0.5 -52.5 0.5 39.5 0.5 0 
0.5 -26.5 0.5 0 0.5 -26.5 0.5 92.5 0.5 0 0.5 -79 0.5 0 0.5 264 
0.5 0 0.5 -132 0.5 0 0.5 -132 0.5 39.5 0.5 0 0.5 66 0.5 0 
0.5 -13 0.5 52.5 0.5 -52.5 0.5 66 0.5 0 0.5 -106 0.5 79.5 0.5 0 
0.5 -92.5 0.5 79 0.5 0 0.5 -66 0.5 40 0.5 0 0.5 -40 0.5 79.5 
0.5 -53 0.5 -39.5 0.5 -13 0.5 0 0.5 39.5 0.5 52.5 0.5 0 0.5 -92 
0.5 0 0.5 26 0.5 0 0.5 26.5 0.5 211.5 0.5 -185 0.5 -13 0.5 -92.5 
0.5 26.5 0.5 0 0.5 66 0.5 0 0.5 -53 0.5 92.5 0.5 0 0.5 -13.5 
0.5 40 0.5 92 0.5 0 0.5 -118.5 0.5 -79.5 0.5 40 0.5 0 0.5 0 
0.5 0 S
1929 805 0.5 -13.5 0.5 -13 0.5 13 0.5 0 0.5 -66 0.5 198 0.5 0 
0.5 -52.5 0.5 66 0.5 0 0.5 -172 0.5 132 0.5 -118.5 0.5 -79.5 0.5 145.5 
0.5 0 0.5 -79.5 0.5 79.5 0.5 0 0.5 -145.5 0.5 66 1 132 0.5 0 
0.5 -79 0.5 -26.5 0.5 -105.5 0.5 53 0.5 52.5 0.5 0 0.5 0 0.5 26.5 
0.5 0 0.5 -132 0.5 158.5 0.5 0 0.5 -79.5 0.5 66 0.5 0 0.5 -118.5 
0.5 0 0.5 52.5 0.5 0 0.5 79.5 0.5 -13.5 0.5 0 0.5 13.5 0.5 -39.5 
0.5 -40 0.5 0 0.5 0 0.5 0 0.5 0 0.5 79.5 0.5 0 0.5 13 
0.5 -132 0.5 158.5 0.5 0 0.5 -66 0.5 0 0.5 13 0.5 0 0.5 -92 
0.5 -26.5 0.5 52.5 0.5 0 0.5 145.5 0.5 -79.5 0.5 -92 0.5 132 0.5 0 
0.5 -13.5 0.5 0 0.5 -132 0.5 13.5 0.5 184.5 0.5 0 0.5 -118.5 0.5 26 
0.5 -105.5 0.5 26.5 0.5 26.5 0.5 13 0.5 -26.5 0.5 0 0.5 26.5 0.5 -26.5 
0.5 -52.5 0.5 26.5 0.5 0 0.5 105.5 0.5 0 0.5 -79.5 0.5 -26 0.5 52.5 
0.5 0 0.5 -52.5 1.5 158 0.5 0 0.5 26.5 0.5 0 1 -158.5 0.5 172 
0.5 0 S
1983 937 0.5 -66 0.5 -53 0.5 92.5 0.5 0 0.5 -26.5 0.5 -53 0.5 0 
0.5 -66 0.5 26.5 0.5 0 0.5 -52.5 0.5 -13.5 0.5 119 0.5 0 0.5 -119 
0.5 -26.5 0.5 106 0.5 13 0.5 0 0.5 -119 0.5 40 0.5 -26.5 0.5 26.5 
0.5 -53 0.5 105.5 0.5 0 0.5 53 0.5 0 0.5 -13.5 0.5 0 0.5 -118.5 
0.5 39.5 0.5 66 1 0 0.5 -92.5 0.5 0 0.5 13.5 0.5 79 0.5 0 
0.5 -53 0.5 198 0.5 -26 0.5 -92.5 0.5 0 0.5 -26.5 0.5 -53 0.5 -66 
0.5 53 0.5 0 0.5 -66 0.5 185 0.5 0 0.5 -92.5 0.5 -53 0.5 119 
0.5 0 0.5 -79.5 0.5 0 0.5 -26 0.5 0 0.5 0 0.5 79 0.5 0 
0.5 185 0.5 -79.5 0.5 -145 0.5 92.5 0.5 -106 0.5 -26 0.5 0 0.5 66 
0.5 0 0.5 -40 0.5 40 0.5 92 0.5 0 0.5 -132 0.5 224.5 0.5 -158.5 
0.5 106 0.5 0 0.5 -132 0.5 0 0.5 0 0.5 0 0.5 39.5 0.5 -13.5 
0.5 -52.5 0.5 39.5 0.5 -13 0.5 0 0.5 -66 0.5 0 0.5 13 0.5 92.5 
0.5 52.5 0.5 -132 0.5 -79 0.5 0 0.5 53 0.5 52.5 0.5 39.5 0.5 79.5 
0.5 -171.5 S
2035.5 739 0.5 39.5 0.5 0 0.5 -26.5 0.5 -66 0.5 0 0.5 105.5 0.5 -39.5 
0.5 0 0.5 53 0.5 0 0.5 -119 0.5 39.5 0.5 26.5 0.5 0 0.5 -39.5 
0.5 264 0.5 0 0.5 -251 0.5 -13 0.5 39.5 0.5 0 0.5 13 0.5 0 
0.5 26.5 0.5 0 0.5 -52.5 0.5 0 0.5 118.5 0.5 0 0.5 -92.5 0.5 -13 
0.5 53 0.5 79 0.5 0 0.5 -145 0.5 198 0.5 0 0.5 -211.5 0.5 -39.5 
0.5 158.5 0.5 13 0.5 -26.5 0.5 -66 0.5 0 0.5 -52.5 0.5 145 0.5 0 
0.5 39.5 1 0 0.5 -145 0.5 -53 0.5 0 0.5 -13 0.5 0 0.5 66 
0.5 0 0.5 -13 0.5 26 0.5 26.5 0.5 53 0.5 0 0.5 -13.5 0.5 -92 
0.5 79 0.5 0 0.5 132 0.5 -145 0.5 -79.5 0.5 13.5 0.5 0 0.5 158 
0.5 0 0.5 -211 0.5 211 0.5 0 0.5 -92 0.5 13 0.5 -79 0.5 -26.5 
0.5 26.5 0.5 105.5 0.5 13 0.5 0 0.5 -39.5 0.5 0 0.5 -79 0.5 -26.5 
0.5 52.5 0.5 185 0.5 0 0.5 -132 0.5 13 0.5 -118.5 0.5 13 0.5 39.5 
0.5 66 0.5 -26 0.5 39.5 0.5 -79.5 0.5 53 0.5 0 0.5 -66 0.5 0 
0.5 -13 S
2088 739 0.5 -26.5 0.5 52.5 0.5 26.5 0.5 0 0.5 -13 0.5 0 0.5 52.5 
0.5 -92 0.5 -53 0.5 0 0.5 13 0.5 66 0.5 0 0.5 -79 0.5 0 
3 -26.5 0.5 224.5 0.5 0 0.5 105.5 0.5 0 0.5 -79 0.5 39.5 0.5 0 
0.5 -119 0.5 0 0.5 158.5 0.5 0 0.5 -237.5 0.5 -66 0.5 145 0.5 40 
0.5 -79.5 0.5 0 0.5 -105.5 0.5 0 0.5 66 0.5 -26.5 0.5 0 0.5 39.5 
0.5 0 0.5 185 0.5 0 0.5 -145 0.5 105.5 0.5 -66 0.5 0 0.5 -79.5 
0.5 158.5 0.5 0 0.5 -52.5 0.5 52.5 0.5 -118.5 0.5 -66 0.5 0 0.5 92 
0.5 0 0.5 -79 0.5 0 1 92.5 0.5 0 0.5 -79.5 0.5 0 0.5 -39.5 
0.5 -13 0.5 92.5 0.5 -53 0.5 0 0.5 0 0.5 0 0.5 0 0.5 13 
0.5 92.5 0.5 26.5 0.5 -145 0.5 26 0.5 0 0.5 79.5 0.5 79 0.5 -145 
0.5 -39.5 0.5 0 0.5 0 0.5 -13.5 0.5 66 0.5 26.5 0.5 13 0.5 26.5 
0.5 0 0.5 -92.5 0.5 185 0.5 0 0.5 -171.5 0.5 -39.5 0.5 -40 0.5 26.5 
0.5 0 0.5 198 0.5 0 0.5 -105.5 0.5 -13 0.5 0 0.5 -66 0.5 79 
0.5 39.5 S
2143 857.5 0.5 0 0.5 -13 0.5 0 0.5 0 0.5 0 0.5 -92.5 0.5 -39.5 
0.5 39.5 0.5 0 0.5 -53 0.5 40 0.5 92 0.5 119 0.5 0 0.5 -53 
0.5 0 0.5 -105.5 0.5 -39.5 0.5 -13 0.5 0 0.5 -13.5 0.5 0 0.5 66 
0.5 0 0.5 -66 0.5 198 0.5 0 0.5 -158.5 0.5 0 0.5 92.5 0.5 -66 
0.5 39.5 0.5 0 0.5 -118.5 0.5 118.5 0.5 0 0.5 13.5 0.5 13 0.5 0 
0.5 -13 0.5 -92.5 0.5 92.5 0.5 0 0.5 -105.5 0.5 66 0.5 13 0.5 0 
0.5 -53 0.5 132 0.5 0 0.5 13.5 0.5 0 0.5 -26.5 0.5 66 0.5 0 
0.5 -237.5 0.5 39.5 0.5 26.5 0.5 105.5 0.5 0 0.5 -13 0.5 0 0.5 -53 
0.5 0 0.5 0 0.5 -39.5 0.5 -92.5 0.5 79 0.5 0 0.5 0 0.5 0 
0.5 79.5 0.5 26.5 1 -40 0.5 -39.5 0.5 -26.5 0.5 0 0.5 53 0.5 105.5 
0.5 -158.5 0.5 119 0.5 0 0.5 -132 0.5 -13 0.5 13 0.5 -26.5 0.5 26.5 
0.5 13 0.5 -66 0.5 79.5 0.5 79 0.5 0 0.5 -198 0.5 53 0.5 0 
0.5 -13.5 0.5 40 0.5 132 0.5 -79.5 0.5 -13 0.5 0 0.5 171.5 0.5 0 
0.5 -105.5 S
2195.5 844.5 0.5 0 0.5 0 0.5 0 0.5 -79.5 0.5 -39.5 0.5 0 0.5 145.5 
0.5 66 0.5 0 0.5 -132 0.5 0 0.5 -40 0.5 26.5 0.5 0 0.5 -52.5 
0.5 92 0.5 0 0.5 -79 0.5 79 0.5 0 0.5 13.5 0.5 39.5 0.5 0 
0.5 53 0.5 39.5 0.5 -26.5 0.5 -26.5 0.5 -66 0.5 0 0.5 -145 0.5 52.5 
0.5 0 0.5 -26 0.5 -13.5 0.5 105.5 0.5 0 0.5 -13 0.5 -132 0.5 39.5 
0.5 158.5 0.5 0 0.5 -79 0.5 39.5 0.5 52.5 0.5 53 0.5 -119 0.5 -132 
0.5 119 0.5 0 0.5 -13 0.5 0 0.5 -92.5 0.5 26.5 0.5 0 0.5 -13.5 
0.5 66 0.5 0 0.5 158.5 0.5 0 0.5 -119 0.5 -79 0.5 0 0.5 13 
0.5 106 0.5 0 0.5 -119 0.5 92.5 0.5 0 0.5 -79.5 0.5 40 0.5 0 
0.5 66 0.5 0 0.5 -172 0.5 158.5 0.5 0 0.5 -171.5 0.5 119 0.5 0 
0.5 26 0.5 -132 0.5 13.5 0.5 52.5 0.5 79.5 0.5 39.5 0.5 0 0.5 -132 
0.5 13 1 0 0.5 92.5 0.5 0 0.5 -39.5 0.5 -66 0.5 -39.5 0.5 0 
0.5 66 0.5 0 0.5 -39.5 0.5 79 0.5 -26.5 0.5 -39.5 0.5 26.5 0.5 79 
0.5 -13 S
2248 844.5 0.5 -39.5 0.5 0 0.5 145 0.5 0 0.5 -132 0.5 -26.5 0.5 0 
0.5 -39.5 0.5 -26.5 0.5 132 0.5 0 0.5 0 0.5 0 0.5 -145 0.5 79 
0.5 0 0.5 -52.5 0.5 13 0.5 92.5 0.5 79 0.5 0 0.5 -52.5 0.5 0 
0.5 105.5 0.5 -158.5 0.5 -13 0.5 -79.5 0.5 0 0.5 -26.5 0.5 145.5 0.5 0 
0.5 -26.5 0.5 -105.5 0.5 52.5 0.5 0 0.5 0 0.5 145.5 0.5 0 0.5 -39.5 
0.5 0 0.5 -132 0.5 0 0.5 13 0.5 26.5 0.5 -13.5 0.5 40 0.5 -26.5 
0.5 39.5 0.5 39.5 0.5 0 0.5 -171.5 0.5 66 0.5 105.5 0.5 0 0.5 -118.5 
0.5 -13.5 0.5 145.5 0.5 39.5 0.5 0 0.5 -145.5 0.5 13.5 0.5 39.5 0.5 0 
0.5 158.5 0.5 -119 0.5 -118.5 0.5 13 0.5 53 0.5 0 0.5 -66 0.5 26 
0.5 66 0.5 0 0.5 -145 0.5 211 0.5 0 0.5 -52.5 0.5 0 0.5 -132 
0.5 66 0.5 118.5 0.5 26.5 0.5 -13 0.5 -145.5 0.5 13.5 0.5 -13.5 0.5 -26 
0.5 171.5 0.5 -145.5 0.5 0 0.5 13.5 0.5 39.5 0.5 26.5 0.5 13 0.5 0 
0.5 -92.5 0.5 0 0.5 -52.5 0.5 13 0.5 0 0.5 66 0.5 0 0.5 -66 
1 119 S
2300.5 844.5 0.5 0 0.5 -92.5 0.5 26.5 0.5 26.5 0.5 0 0.5 26 0.5 0 
0.5 -52.5 0.5 -92.5 0.5 26.5 0.5 145 0.5 0 0.5 -39.5 0.5 -39.5 0.5 145 
0.5 -211 0.5 66 0.5 0 0.5 26.5 0.5 0 0.5 66 0.5 0 0.5 -92.5 
0.5 118.5 0.5 -158 0.5 211 0.5 26.5 0.5 -251 0.5 303.5 0.5 -198 0.5 -66 
0.5 92.5 0.5 39.5 0.5 40 0.5 0 0.5 -172 0.5 26.5 0.5 39.5 0.5 185 
0.5 -211 0.5 0 0.5 -40 0.5 132 0.5 0 0.5 -118.5 0.5 -26.5 0.5 13 
0.5 13.5 0.5 0 0.5 26.5 0.5 52.5 0.5 0 0.5 -145 0.5 158.5 0.5 0 
0.5 -106 0.5 277.5 0.5 -303.5 0.5 -26.5 0.5 -13.5 0.5 40 0.5 26 0.5 66 
0.5 0 0.5 -118.5 0.5 0 0.5 0 0.5 211 0.5 0 0.5 -52.5 0.5 0 
0.5 -185 0.5 79 0.5 79.5 0.5 26.5 0.5 0 0.5 -106 0.5 -79 0.5 119 
0.5 0 0.5 -13.5 0.5 119 0.5 13 0.5 0 0.5 39.5 0.5 -145 0.5 0 
0.5 -105.5 0.5 198 0.5 0 0.5 -66 0.5 -39.5 0.5 26 0.5 53 0.5 0 
0.5 -171.5 0.5 39.5 0.5 0 0.5 185 0.5 0 0.5 -224.5 0.5 92.5 0.5 0 
0.5 -66 S
2352.5 739 0.5 184.5 0.5 0 0.5 -66 0.5 0 0.5 -13 0.5 0 0.5 -132 
0.5 52.5 0.5 0 0.5 -26 0.5 145 0.5 0 0.5 53 0.5 0 1 -40 
0.5 0 0.5 -211 0.5 26.5 0.5 0 0.5 0 0.5 0 0.5 -26.5 0.5 145 
0.5 119 0.5 0 0.5 -66 0.5 -26.5 0.5 -145 0.5 92.5 0.5 0 0.5 -106 
0.5 0 0.5 106 0.5 105.5 0.5 -145.5 0.5 13.5 0.5 92.5 0.5 -13.5 0.5 -66 
0.5 0 0.5 -79 0.5 171.5 0.5 0 0.5 -158.5 0.5 39.5 0.5 0 0.5 -26 
0.5 0 0.5 26 0.5 0 0.5 0 0.5 53 0.5 0 0.5 39.5 0.5 0 
0.5 -145 0.5 224.5 0.5 0 0.5 -158.5 0.5 -66 0.5 145 0.5 0 0.5 -13 
0.5 13 0.5 0 0.5 -66 0.5 0 0.5 -66 0.5 0 0.5 0 0.5 39.5 
0.5 0 0.5 -79 0.5 171.5 0.5 0 0.5 -118.5 0.5 66 0.5 26 0.5 0 
0.5 13.5 0.5 26.5 0.5 0 0.5 -53 0.5 -132 0.5 92.5 0.5 0 0.5 -53 
0.5 13.5 0.5 0 0.5 -40 0.5 13.5 0.5 0 0.5 26.5 0.5 132 0.5 39.5 
0.5 0 0.5 79 0.5 -52.5 0.5 0 0.5 -251 0.5 158.5 0.5 13 0.5 0 
0.5 13.5 S
2405 871 0.5 0 0.5 -145.5 0.5 0 0.5 0 0.5 79.5 0.5 132 0.5 0 
0.5 0 0.5 -79.5 0.5 -118.5 0.5 52.5 0.5 132 0.5 0 0.5 -184.5 0.5 145 
0.5 0 0.5 39.5 0.5 0 0.5 -198 0.5 -13 0.5 224.5 0.5 0 0.5 -198 
0.5 0 0.5 -53 0.5 105.5 0.5 13.5 0.5 39.5 0.5 0 1 13 0.5 0 
0.5 -66 0.5 13.5 0.5 0 0.5 -66 0.5 0 0.5 92 0.5 106 0.5 0 
0.5 -92.5 0.5 0 0.5 -13.5 0.5 0 0.5 0 0.5 0 0.5 -26 0.5 -145.5 
0.5 66 0.5 13.5 0.5 0 0.5 66 0.5 0 0.5 26 0.5 -26 0.5 26 
0.5 13.5 0.5 13 0.5 -105.5 0.5 -39.5 0.5 66 0.5 0 0.5 66 0.5 0 
0.5 26.5 0.5 0 0.5 0 0.5 0 0.5 79 0.5 -211 0.5 237.5 0.5 0 
0.5 -171.5 0.5 -92.5 0.5 26.5 0.5 0 0.5 0 0.5 0 0.5 66 0.5 0 
0.5 -66 0.5 0 0.5 0 0.5 0 0.5 -53 0.5 53 0.5 145 0.5 0 
0.5 53 0.5 0 0.5 -158.5 0.5 0 0.5 66 0.5 0 0.5 66 0.5 0 
0.5 -105.5 0.5 79 0.5 53 0.5 -26.5 0.5 -198 0.5 13 0.5 26.5 0.5 0 
0.5 -26.5 S
2457.5 725.5 0.5 -13 0.5 0 0.5 26.5 0.5 0 0.5 -53 0.5 0 0.5 0 
0.5 53 0.5 -26.5 0.5 158.5 0.5 0 0.5 39.5 0.5 -66 0.5 -26.5 0.5 0 
0.5 -26.5 0.5 0 0.5 -26.5 0.5 -26 0.5 0 0.5 -13.5 0.5 0 0.5 79.5 
0.5 0 0.5 -66 0.5 132 0.5 0 0.5 -158.5 0.5 0 0.5 211 0.5 -171.5 
0.5 171.5 0.5 -158.5 0.5 40 0.5 26 0.5 0 0.5 -145 0.5 13 0.5 13.5 
0.5 52.5 0.5 79.5 0.5 0 0.5 -39.5 0.5 -92.5 1 39.5 0.5 0 0.5 92.5 
0.5 0 0.5 -105.5 0.5 105.5 0.5 0 0.5 -158.5 0.5 79 0.5 119 0.5 0 
0.5 -13 0.5 -66 0.5 -92.5 0.5 -13.5 0.5 66 0.5 0 0.5 172 0.5 0 
0.5 -13.5 0.5 -184.5 0.5 118.5 0.5 66 0.5 -145 0.5 -39.5 0.5 0 0.5 -13.5 
0.5 -39.5 0.5 132 0.5 119 0.5 0 0.5 -185 0.5 -39.5 0.5 26.5 0.5 0 
0.5 198 0.5 0 0.5 -211.5 0.5 0 0.5 53 0.5 -26.5 0.5 105.5 0.5 39.5 
0.5 0 0.5 -26 0.5 -132 0.5 118.5 0.5 -13 0.5 -119 0.5 0 0.5 -26.5 
0.5 238 0.5 0 0.5 -185 0.5 0 0.5 -39.5 0.5 0 0.5 132 0.5 39.5 
0.5 0 S
2510 884 0.5 -13 0.5 -132 0.5 0 0.5 -26.5 0.5 0 0.5 39.5 0.5 79 
0.5 -39.5 0.5 -26.5 0.5 -26 0.5 0 0.5 66 0.5 0 0.5 52.5 0.5 0 
0.5 -145 0.5 158.5 0.5 0 0.5 -185 0.5 26.5 0.5 92.5 0.5 13 0.5 0 
0.5 26.5 0.5 0 0.5 105.5 0.5 0 0.5 -105.5 0.5 105.5 0.5 0 0.5 -237.5 
0.5 92.5 0.5 -13.5 0.5 -26.5 0.5 0 0.5 -26 0.5 -26.5 0.5 237.5 0.5 0 
0.5 -171.5 0.5 0 0.5 -13.5 0.5 0 0.5 -39.5 0.5 0 0.5 158.5 0.5 0 
0.5 -79 0.5 -66 0.5 92 0.5 13.5 0.5 0 0.5 0 0.5 0 0.5 -79.5 
0.5 79.5 0.5 0 0.5 -105.5 0.5 -26.5 1 26.5 0.5 13 0.5 -39.5 0.5 0 
0.5 92.5 0.5 0 0.5 13 0.5 -105.5 0.5 52.5 0.5 0 0.5 -39.5 0.5 0 
0.5 -13 0.5 118.5 0.5 0 0.5 40 0.5 0 0.5 -158.5 0.5 132 0.5 -79.5 
0.5 79.5 0.5 66 0.5 -105.5 0.5 -92.5 0.5 145 0.5 79.5 0.5 0 0.5 -66 
0.5 -158.5 0.5 0 0.5 -13.5 0.5 198 0.5 0 0.5 -39.5 0.5 -145 0.5 224.5 
0.5 0 0.5 -106 0.5 -132 0.5 13.5 0.5 26.5 0.5 -13.5 0.5 26.5 0.5 66 
0.5 0 S
2562.5 818 0.5 66 0.5 0 0.5 -198 0.5 26.5 0.5 198 0.5 0 0.5 -158.5 
0.5 -26.5 0.5 39.5 0.5 0 0.5 -66 0.5 172 0.5 52.5 0.5 0 0.5 -184.5 
0.5 105.5 0.5 -92.5 0.5 0 0.5 0 0.5 132 0.5 0 0.5 -119 0.5 66 
0.5 0 0.5 -52.5 0.5 66 0.5 66 0.5 0 0.5 -132 0.5 -66 0.5 118.5 
0.5 13.5 0.5 0 0.5 -79.5 0.5 0 0.5 53 0.5 -79 0.5 26 0.5 0 
0.5 106 0.5 -66 0.5 -92.5 0.5 13 0.5 211.5 0.5 0 0.5 -13.5 0.5 -39.5 
0.5 -53 0.5 13.5 0.5 0 0.5 26.5 0.5 13 0.5 -171.5 0.5 0 0.5 26.5 
0.5 66 0.5 0 0.5 -13.5 0.5 0 0.5 13.5 0.5 0 0.5 0 0.5 0 
0.5 92 0.5 0 0.5 -26 0.5 -106 0.5 -26 0.5 0 0.5 158 0.5 0 
0.5 -39.5 0.5 -105.5 0.5 26.5 1 -13.5 0.5 26.5 0.5 53 0.5 0 0.5 -53 
0.5 -26.5 0.5 13.5 0.5 0 0.5 79 0.5 -39.5 0.5 -79 0.5 184.5 0.5 -39.5 
0.5 -145 0.5 79 0.5 0 0.5 -132 0.5 26.5 0.5 105.5 0.5 0 0.5 -53 
0.5 185 0.5 39.5 0.5 -264 0.5 119 0.5 -92.5 0.5 0 0.5 185 0.5 -66 
0.5 -79.5 S
2615 791.5 0.5 -79 0.5 224.5 0.5 -145.5 0.5 79.5 0.5 0 0.5 0 0.5 -79.5 
0.5 0 0.5 -39.5 0.5 -13 0.5 0 0.5 92 0.5 66 0.5 0 0.5 -184.5 
0.5 79 0.5 0 0.5 158.5 0.5 0 0.5 -92.5 0.5 -105.5 0.5 53 0.5 0 
0.5 -92.5 0.5 13 0.5 79.5 0.5 13 0.5 0 0.5 0 0.5 -53 0.5 0 
0.5 66 0.5 0 0.5 -39.5 0.5 0 0.5 -92.5 0.5 224.5 0.5 0 0.5 -26.5 
0.5 0 0.5 -158 0.5 105.5 0.5 0 0.5 -26.5 0.5 53 0.5 26 0.5 0 
0.5 -13 0.5 0 0.5 -92.5 0.5 -39.5 0.5 79 0.5 0 0.5 40 0.5 0 
0.5 -106 0.5 -13 0.5 13 0.5 0 0.5 0 0.5 53 0.5 0 0.5 13 
0.5 0 0.5 119 0.5 0 0.5 -39.5 0.5 -198 0.5 105.5 0.5 -105.5 0.5 0 
0.5 132 0.5 -26.5 0.5 -79 0.5 0 0.5 211 0.5 0 0.5 -132 0.5 -66 
0.5 79 0.5 -26 0.5 -53 0.5 -13 0.5 0 0.5 79 0.5 26.5 0.5 0 
0.5 0 0.5 -92.5 1 0 0.5 -13 0.5 0 0.5 13 0.5 -13 0.5 0 
0.5 -53 0.5 66 0.5 13 0.5 0 0.5 -13 0.5 79 0.5 0 0.5 -26 
0.5 -53 S
2667.5 752 0.5 0 0.5 -39.5 0.5 79 0.5 13.5 0.5 0 0.5 -66 0.5 79 
0.5 0 0.5 26.5 0.5 0 0.5 -53 0.5 -26.5 0.5 0 0.5 -13 0.5 53 
0.5 -66 0.5 66 0.5 13 0.5 -26.5 0.5 0 0.5 26.5 0.5 0 0.5 -53 
0.5 0 0.5 66 0.5 66 0.5 -118.5 0.5 0 0.5 -92.5 0.5 79 0.5 -39.5 
0.5 -13 0.5 0 0.5 13 0.5 66 0.5 0 0.5 -52.5 0.5 -26.5 0.5 132 
0.5 0 0.5 -105.5 0.5 79 0.5 66 0.5 -66 0.5 -13 0.5 -106 0.5 92.5 
0.5 13.5 0.5 0 0.5 145 0.5 0 0.5 -53 0.5 -79 0.5 0 0.5 -13 
0.5 66 0.5 0 0.5 -79.5 0.5 26.5 0.5 92.5 0.5 0 0.5 -53 0.5 0 
0.5 -118.5 0.5 211 0.5 0 0.5 -171.5 0.5 -66 0.5 132 0.5 0 0.5 -79.5 
0.5 -52.5 0.5 145 0.5 0 0.5 -13 0.5 -26.5 0.5 -13 0.5 -26.5 0.5 13 
0.5 105.5 0.5 0 0.5 -105.5 0.5 39.5 0.5 106 0.5 0 0.5 -13.5 0.5 0 
0.5 -132 0.5 -39.5 0.5 26.5 0.5 145 0.5 0 0.5 0 0.5 -79 0.5 0 
0.5 -26.5 0.5 -26.5 0.5 -52.5 0.5 13 0.5 13 0.5 0 0.5 13.5 0.5 0 
0.5 52.5 S
2719.5 831 1 0 0.5 13.5 0.5 -13.5 0.5 0 0.5 -66 0.5 0 0.5 -13 
0.5 0 0.5 39.5 0.5 -39.5 0.5 -66 0.5 53 0.5 13 0.5 -26.5 0.5 39.5 
0.5 119 0.5 -198 0.5 53 0.5 0 0.5 52.5 0.5 79.5 0.5 0 0.5 -79.5 
0.5 0 0.5 53 0.5 0 0.5 -105.5 0.5 0 0.5 -26.5 0.5 66 0.5 13 
0.5 0 0.5 -26.5 0.5 26.5 0.5 0 0.5 53 0.5 -26.5 0.5 26.5 0.5 0 
0.5 -53 0.5 0 0.5 0 0.5 -52.5 0.5 -53 0.5 92.5 0.5 0 0.5 -13.5 
0.5 145.5 0.5 26.5 0.5 0 0.5 -79.5 0.5 0 0.5 66 0.5 13.5 0.5 -106 
0.5 -39.5 0.5 -66 0.5 39.5 0.5 -26 0.5 79 0.5 -132 0.5 13 0.5 0 
0.5 119 0.5 -13 0.5 13 0.5 -105.5 0.5 26.5 0.5 92 0.5 53 0.5 0 
0.5 -132 0.5 0 0.5 0 0.5 0 0.5 0 0.5 -39.5 0.5 198 0.5 0 
0.5 -132 0.5 92.5 0.5 -158.5 0.5 132 0.5 0 0.5 13 0.5 0 0.5 -118.5 
0.5 0 0.5 158 0.5 0 0.5 0 0.5 0 0.5 -26 0.5 0 0.5 13 
0.5 0 0.5 -171.5 0.5 224.5 0.5 -172 0.5 79.5 0.5 0 0.5 -26.5 0.5 0 
0.5 -105.5 S
2772 712.5 0.5 39.5 0.5 0 0.5 -39.5 0.5 118.5 0.5 0 0.5 -118.5 0.5 105.5 
0.5 -105.5 0.5 158.5 0.5 -40 0.5 -66 0.5 0 0.5 -13 0.5 13 0.5 0 
1 79.5 0.5 0 0.5 -105.5 0.5 26 0.5 0 0.5 119 0.5 0 0.5 0 
0.5 -158.5 0.5 0 0.5 -13 0.5 0 0.5 0 0.5 158.5 0.5 0 0.5 -79.5 
0.5 66 0.5 0 0.5 -79 0.5 0 0.5 -66 0.5 92.5 0.5 0 0.5 26 
0.5 0 0.5 -92 0.5 0 0.5 105.5 0.5 0 0.5 -119 0.5 -13 0.5 132 
0.5 0 0.5 -105.5 0.5 0 0.5 145 0.5 -171.5 0.5 52.5 0.5 106 0.5 0 
0.5 -92.5 0.5 -66 0.5 0 0.5 92.5 0.5 13 0.5 -132 0.5 158.5 0.5 -26.5 
0.5 0 0.5 -132 0.5 185 0.5 0 0.5 -158.5 0.5 79 0.5 26.5 0.5 0 
0.5 -132 0.5 66 0.5 13 0.5 0 0.5 26.5 0.5 105.5 0.5 13.5 0.5 0 
0.5 -92.5 0.5 39.5 0.5 0 0.5 -13 0.5 0 0.5 -13.5 0.5 -79 0.5 13 
0.5 0 0.5 -13 0.5 -13 0.5 0 0.5 26 0.5 0 0.5 -13 0.5 39.5 
0.5 0 0.5 53 0.5 0 0.5 52.5 0.5 0 0.5 -79 0.5 0 0.5 -132 
0.5 158.5 S
2824.5 844.5 0.5 0 0.5 -119 0.5 -66 0.5 185 0.5 0 0.5 -105.5 0.5 0 
0.5 0 0.5 -53 0.5 0 0.5 26.5 0.5 79 0.5 0 0.5 66 0.5 0 
0.5 39.5 0.5 0 0.5 -52.5 0.5 0 0.5 -132 0.5 66 0.5 0 0.5 -66 
0.5 52.5 0.5 79.5 0.5 26.5 0.5 -132 0.5 171.5 0.5 0 0.5 -39.5 1 0 
0.5 0 0.5 -26.5 0.5 -13.5 0.5 13.5 0.5 0 0.5 -79.5 0.5 40 0.5 0 
0.5 132 0.5 -251 0.5 66 0.5 119 0.5 0 0.5 -158.5 0.5 132 0.5 0 
0.5 -26.5 0.5 39.5 0.5 0 0.5 -105.5 0.5 -13 0.5 224 0.5 -158 0.5 39.5 
0.5 92.5 0.5 0 0.5 -224.5 0.5 13 0.5 13.5 0.5 132 0.5 0 0.5 -26.5 
0.5 0 0.5 -105.5 0.5 118.5 0.5 0 0.5 -79 0.5 26.5 0.5 145 0.5 0 
0.5 -119 0.5 0 0.5 -79 0.5 0 0.5 -39.5 0.5 0 0.5 52.5 0.5 0 
0.5 40 0.5 0 0.5 -92.5 0.5 0 0.5 0 0.5 0 0.5 132 0.5 0 
0.5 -132 0.5 118.5 0.5 0 0.5 66 0.5 0 0.5 -132 0.5 0 0.5 92.5 
0.5 0 0.5 -26.5 0.5 13.5 0.5 0 0.5 -132 0.5 26.5 0.5 0 0.5 171.5 
0.5 0 S
2877 910.5 0.5 13 0.5 -132 0.5 -52.5 0.5 -26.5 0.5 105.5 0.5 0 0.5 13 
0.5 0 0.5 -52.5 0.5 -39.5 0.5 118.5 0.5 0 0.5 13.5 0.5 -158.5 0.5 132 
0.5 0 0.5 -39.5 0.5 -40 0.5 13.5 0.5 0 0.5 -39.5 0.5 0 0.5 0 
0.5 26 0.5 40 0.5 0 0.5 0 0.5 -40 0.5 0 0.5 0 0.5 79.5 
0.5 0 0.5 0 0.5 26.5 0.5 0 0.5 -119 0.5 0 0.5 79 0.5 0 
0.5 -39.5 0.5 -39.5 0.5 92.5 0.5 26.5 0.5 -79.5 0.5 92.5 1 0 0.5 -105.5 
0.5 -39.5 0.5 66 0.5 13 0.5 0 0.5 119 0.5 0 0.5 -211.5 0.5 119 
0.5 0 0.5 -26.5 0.5 13 0.5 -66 0.5 0 0.5 119 0.5 -119 0.5 79.5 
0.5 39.5 0.5 0 0.5 -39.5 0.5 0 0.5 -66 0.5 -39.5 0.5 66 0.5 118.5 
0.5 0 0.5 -171.5 0.5 53 0.5 0 0.5 -53 0.5 13 0.5 13.5 0.5 26.5 
0.5 0 0.5 118.5 0.5 0 0.5 -198 0.5 0 0.5 0 0.5 119 0.5 0 
0.5 -79.5 0.5 0 0.5 0 0.5 66 0.5 79.5 0.5 0 0.5 -79.5 0.5 0 
0.5 -13 0.5 -53 0.5 0 0.5 -52.5 0.5 0 0.5 0 0.5 0 0.5 0 
0.5 39.5 S
2929.5 752 0.5 13 0.5 53 0.5 0 0.5 53 0.5 0 0.5 -92.5 0.5 66 
0.5 0 0.5 -119 0.5 39.5 0.5 66 0.5 13.5 0.5 0 0.5 13 0.5 -171.5 
0.5 237.5 0.5 0 0.5 -184.5 0.5 26 0.5 0 0.5 66 0.5 0 0.5 -52.5 
0.5 0 0.5 26.5 0.5 0 0.5 -66 0.5 66 0.5 0 0.5 -53 0.5 53 
0.5 -53 0.5 66 0.5 0 0.5 -66 0.5 26.5 0.5 79 0.5 26.5 0.5 0 
0.5 -198 0.5 53 0.5 184.5 0.5 0 0.5 -158.5 0.5 185 0.5 13 0.5 -105.5 
0.5 -92.5 0.5 158.5 0.5 0 0.5 -158.5 0.5 0 0.5 0 0.5 0 0.5 158.5 
0.5 26.5 0.5 -105.5 0.5 -92.5 0.5 0 0.5 -53 1 13.5 0.5 118.5 0.5 0 
0.5 -66 0.5 0 0.5 0 0.5 145.5 0.5 0 0.5 -66 0.5 0 0.5 0 
0.5 -79.5 0.5 40 0.5 -53 0.5 79 0.5 0 0.5 -79 0.5 26.5 0.5 0 
0.5 -26.5 0.5 13 0.5 0 0.5 -52.5 0.5 0 0.5 66 0.5 0 0.5 132 
0.5 -224.5 0.5 158.5 0.5 0 0.5 -119 0.5 -39.5 0.5 145 0.5 40 0.5 -66 
0.5 0 0.5 -106 0.5 13.5 0.5 0 0.5 26.5 0.5 13 0.5 0 0.5 119 
0.5 0 S
2982 871 0.5 -132 0.5 0 0.5 52.5 0.5 39.5 0.5 13.5 0.5 52.5 0.5 0 
0.5 -132 0.5 0 0.5 -13 0.5 -13 0.5 -53 0.5 26.5 0.5 39.5 0.5 0 
0.5 26.5 0.5 92.5 0.5 -106 0.5 119 0.5 53 0.5 -26.5 0.5 -132 0.5 0 
0.5 92.5 0.5 52.5 0.5 0 0.5 -66 0.5 0 0.5 -13 0.5 -92.5 0.5 13 
0.5 40 0.5 0 0.5 -66 0.5 66 0.5 0 0.5 -40 0.5 -26 0.5 92 
0.5 -118.5 0.5 105.5 0.5 0 0.5 -105.5 0.5 158.5 0.5 -40 0.5 13.5 0.5 0 
0.5 -26.5 0.5 92.5 0.5 0 0.5 -66 0.5 -79.5 0.5 119 0.5 0 0.5 -145 
0.5 -26.5 0.5 0 0.5 0 0.5 171.5 0.5 0 0.5 26.5 0.5 -145.5 0.5 13.5 
0.5 -39.5 0.5 -40 0.5 145.5 0.5 -26.5 0.5 92.5 0.5 -105.5 0.5 0 0.5 0 
0.5 -53 0.5 132 0.5 39.5 0.5 0 1 -92.5 0.5 0 0.5 -79 0.5 0 
0.5 26.5 0.5 26.5 0.5 0 0.5 -92.5 0.5 79 0.5 39.5 0.5 0 0.5 -66 
0.5 40 0.5 0 0.5 -119 0.5 132 0.5 0 0.5 39.5 0.5 0 0.5 -79 
0.5 -13.5 0.5 40 0.5 0 0.5 -66 0.5 105.5 0.5 0 0.5 -158.5 0.5 251 
0.5 -198 S
3034.5 739 0.5 92 0.5 0 0.5 -92 0.5 158 0.5 0 0.5 -158 0.5 66 
0.5 -13.5 0.5 66 0.5 0 0.5 -26.5 0.5 92.5 0.5 0 0.5 -184.5 0.5 66 
0.5 -26.5 0.5 -26.5 0.5 0 0.5 92.5 0.5 -79.5 0.5 66 0.5 0 0.5 -13 
0.5 -105.5 0.5 26.5 0.5 13 0.5 0 0.5 39.5 0.5 0 0.5 -92.5 0.5 13.5 
0.5 0 0.5 264 0.5 0 0.5 -158.5 0.5 0 0.5 0 0.5 26.5 0.5 26.5 
0.5 0 0.5 -119 0.5 0 0.5 39.5 0.5 -26.5 0.5 53 0.5 0 0.5 13 
0.5 0 0.5 -39.5 0.5 13.5 0.5 39.5 0.5 0 0.5 132 0.5 0 0.5 -237.5 
0.5 237.5 0.5 -105.5 0.5 0 0.5 -106 0.5 79.5 0.5 66 0.5 0 0.5 -171.5 
0.5 26 0.5 66 0.5 0 0.5 -39.5 0.5 -39.5 0.5 119 0.5 -13.5 0.5 0 
0.5 -145 0.5 92.5 0.5 -92.5 0.5 0 0.5 0 0.5 -13.5 0.5 53 0.5 26.5 
0.5 0 0.5 -39.5 0.5 171.5 0.5 0 0.5 -79.5 0.5 -52.5 0.5 264 0.5 0 
0.5 -211.5 0.5 0 0.5 40 1 0 0.5 -145.5 0.5 224.5 0.5 0 0.5 -185 
0.5 106 0.5 0 0.5 -53 0.5 -92.5 0.5 13.5 0.5 0 0.5 -40 0.5 40 
0.5 -53 S
3087 686 0.5 158.5 0.5 13 0.5 0 0.5 -118.5 0.5 198 0.5 0 0.5 -106 
0.5 -13 0.5 66 0.5 -39.5 0.5 -92.5 0.5 66 0.5 0 0.5 13 0.5 0 
0.5 -26 0.5 0 0.5 184.5 0.5 0 0.5 -118.5 0.5 -53 0.5 26.5 0.5 0 
0.5 -145.5 0.5 40 0.5 132 0.5 0 0.5 -53 0.5 -119 0.5 172 0.5 39.5 
0.5 0 0.5 -66 0.5 0 0.5 -158.5 0.5 26.5 0.5 39.5 0.5 13 0.5 0 
0.5 0 0.5 -79 0.5 171.5 0.5 0 0.5 -39.5 0.5 53 0.5 0 0.5 -40 
0.5 -26 0.5 0 0.5 -26.5 0.5 0 0.5 26.5 0.5 66 0.5 -26.5 0.5 -39.5 
0.5 0 0.5 -26.5 0.5 52.5 0.5 0 0.5 -13 0.5 0 0.5 -105.5 0.5 132 
0.5 0 0.5 -26.5 0.5 -66 0.5 -66 0.5 145 0.5 0 0.5 -105.5 0.5 -39.5 
0.5 0 0.5 79 0.5 0 0.5 26.5 0.5 0 0.5 -79 0.5 52.5 0.5 0 
0.5 -52.5 0.5 0 0.5 118.5 0.5 0 0.5 119 0.5 0 0.5 -158.5 0.5 26.5 
0.5 26.5 0.5 0 0.5 13 0.5 13.5 0.5 0 0.5 -13.5 0.5 -158.5 0.5 119 
0.5 26.5 0.5 0 0.5 -26.5 0.5 -13 0.5 -79.5 0.5 0 0.5 39.5 0.5 -52.5 
0.5 0 S
3139 712.5 0.5 132 1 0 0.5 -132 0.5 92.5 0.5 118.5 0.5 -171.5 0.5 0 
0.5 0 0.5 -39.5 0.5 -13.5 0.5 79.5 0.5 39.5 0.5 -105.5 0.5 52.5 0.5 0 
0.5 106 0.5 0 0.5 -92.5 0.5 132 0.5 -105.5 0.5 171.5 0.5 -26.5 0.5 -132 
0.5 0 0.5 -39.5 0.5 -13.5 0.5 -13 0.5 79 0.5 0 0.5 -79 0.5 0 
0.5 13 0.5 0 0.5 106 0.5 0 0.5 -106 0.5 -26 0.5 -40 0.5 13.5 
0.5 0 0.5 26.5 0.5 0 0.5 13 0.5 0 0.5 -53 0.5 172 0.5 0 
0.5 -26.5 0.5 -13.5 0.5 0 0.5 0 0.5 0 0.5 0 0.5 0 0.5 -92 
0.5 52.5 0.5 0 0.5 -79 0.5 0 0.5 -26.5 0.5 0 0.5 79 0.5 0 
0.5 -79 0.5 13 0.5 132 0.5 -66 0.5 0 0.5 -39.5 0.5 92.5 0.5 0 
0.5 -119 0.5 79.5 0.5 52.5 0.5 -52.5 0.5 39.5 0.5 53 0.5 0 0.5 -119 
0.5 0 0.5 -66 0.5 198 0.5 0 0.5 -39.5 0.5 39.5 0.5 -26.5 0.5 0 
0.5 -66 0.5 -39.5 0.5 119 0.5 79 0.5 0 0.5 -132 0.5 0 0.5 92.5 
0.5 0 0.5 -145.5 0.5 13.5 0.5 0 0.5 -66 0.5 118.5 0.5 0 0.5 26.5 
0.5 0 S
3191.5 857.5 0.5 -66 0.5 -39.5 0.5 0 0.5 39.5 0.5 132 0.5 0 0.5 -79 
0.5 0 0.5 -66 0.5 39.5 0.5 158.5 0.5 0 0.5 -105.5 0.5 -79.5 0.5 -52.5 
0.5 26 1 26.5 0.5 0 0.5 -52.5 0.5 105.5 0.5 0 0.5 -79.5 0.5 0 
0.5 185 0.5 -132 0.5 39.5 0.5 -79 0.5 0 0.5 105.5 0.5 -66 0.5 39.5 
0.5 0 0.5 -13 0.5 0 0.5 26.5 0.5 0 0.5 -145.5 0.5 -13 0.5 52.5 
0.5 0 0.5 -26 0.5 105.5 0.5 0 0.5 -119 0.5 0 0.5 -13 0.5 0 
0.5 -13.5 0.5 119 0.5 -13 0.5 39.5 0.5 0 0.5 0 0.5 -66 0.5 0 
0.5 -13.5 0.5 0 0.5 -52.5 0.5 0 0.5 171.5 0.5 0 0.5 -105.5 0.5 92.5 
0.5 0 0.5 -92.5 0.5 13 0.5 105.5 0.5 0 0.5 -26 0.5 39.5 0.5 -13.5 
0.5 -13 0.5 -119 0.5 -52.5 0.5 79 0.5 13.5 0.5 -53 0.5 26.5 0.5 0 
0.5 -39.5 0.5 66 0.5 0 0.5 -13.5 0.5 -26.5 0.5 185 0.5 0 0.5 0 
0.5 -158.5 0.5 0 0.5 0 0.5 119 0.5 0 0.5 -145.5 0.5 -13 0.5 13 
0.5 132 0.5 -92 0.5 0 0.5 -40 0.5 0 0.5 79.5 0.5 0 0.5 66 
0.5 -132 S
3244 778.5 0.5 0 0.5 52.5 0.5 -79 0.5 39.5 0.5 0 0.5 -105.5 0.5 39.5 
0.5 0 0.5 -13 0.5 158.5 0.5 13 0.5 -105.5 0.5 0 0.5 -13.5 0.5 0 
0.5 -39.5 0.5 -13 0.5 52.5 0.5 79.5 0.5 0 0.5 -79.5 0.5 0 0.5 -13 
0.5 0 0.5 -53 0.5 277.5 0.5 -132 0.5 -92.5 0.5 13 0.5 0 0.5 13.5 
1 26.5 0.5 -53 0.5 0 0.5 13 0.5 0 0.5 -26 0.5 0 0.5 0 
0.5 158 0.5 -198 0.5 26.5 0.5 66 0.5 0 0.5 0 0.5 -26.5 0.5 0 
0.5 -52.5 0.5 250.5 0.5 0 0.5 -105.5 0.5 39.5 0.5 -13 0.5 0 0.5 -92.5 
0.5 26.5 0.5 0 0.5 -105.5 0.5 39.5 0.5 0 0.5 -66 0.5 145 0.5 0 
0.5 -52.5 0.5 0 0.5 132 0.5 0 0.5 -39.5 0.5 -26.5 0.5 39.5 0.5 0 
0.5 -66 0.5 0 0.5 -79 0.5 158 0.5 0 0.5 -92 0.5 0 0.5 13 
0.5 0 0.5 145 0.5 0 0.5 -92 0.5 0 0.5 39.5 0.5 -158.5 0.5 0 
0.5 13 0.5 0 0.5 -39.5 0.5 26.5 S
5 w
770 620 2520 528 re
S
cleartomark end end pagesave restore
 showpage
%%PageTrailer
%%Trailer
%%Pages: 1
