%!PS-Adobe-3.0 EPSF-3.0
%%BoundingBox: 62 52 191 119
%%HiResBoundingBox: 62.600000 52.900000 190.200000 118.300000
%.....................................
%%Creator: GPL Ghostscript 871 (epswrite)
%%CreationDate: 2012/01/28 17:04:44
%%DocumentData: Clean7Bit
%%LanguageLevel: 2
%%EndComments
%%BeginProlog
% This copyright applies to everything between here and the %%EndProlog:
% Copyright (C) 2010 Artifex Software, Inc.  All rights reserved.
%%BeginResource: procset GS_epswrite_2_0_1001 1.001 0
/GS_epswrite_2_0_1001 80 dict dup begin
/PageSize 2 array def/setpagesize{ PageSize aload pop 3 index eq exch
4 index eq and{ pop pop pop}{ PageSize dup  1
5 -1 roll put 0 4 -1 roll put dup null eq {false} {dup where} ifelse{ exch get exec}
{ pop/setpagedevice where
{ pop 1 dict dup /PageSize PageSize put setpagedevice}
{ /setpage where{ pop PageSize aload pop pageparams 3 {exch pop} repeat
setpage}if}ifelse}ifelse}ifelse} bind def
/!{bind def}bind def/#{load def}!/N/counttomark #
/rG{3{3 -1 roll 255 div}repeat setrgbcolor}!/G{255 div setgray}!/K{0 G}!
/r6{dup 3 -1 roll rG}!/r5{dup 3 1 roll rG}!/r3{dup rG}!
/w/setlinewidth #/J/setlinecap #
/j/setlinejoin #/M/setmiterlimit #/d/setdash #/i/setflat #
/m/moveto #/l/lineto #/c/rcurveto #
/p{N 2 idiv{N -2 roll rlineto}repeat}!
/P{N 0 gt{N -2 roll moveto p}if}!
/h{p closepath}!/H{P closepath}!
/lx{0 rlineto}!/ly{0 exch rlineto}!/v{0 0 6 2 roll c}!/y{2 copy c}!
/re{4 -2 roll m exch dup lx exch ly neg lx h}!
/^{3 index neg 3 index neg}!
/f{P fill}!/f*{P eofill}!/s{H stroke}!/S{P stroke}!
/q/gsave #/Q/grestore #/rf{re fill}!
/Y{P clip newpath}!/Y*{P eoclip newpath}!/rY{re Y}!
/|={pop exch 4 1 roll 1 array astore cvx 3 array astore cvx exch 1 index def exec}!
/|{exch string readstring |=}!
/+{dup type/nametype eq{2 index 7 add -3 bitshift 2 index mul}if}!
/@/currentfile #/${+ @ |}!
/B{{2 copy string{readstring pop}aload pop 4 array astore cvx
3 1 roll}repeat pop pop true}!
/Ix{[1 0 0 1 11 -2 roll exch neg exch neg]exch}!
/,{true exch Ix imagemask}!/If{false exch Ix imagemask}!/I{exch Ix image}!
/Ic{exch Ix false 3 colorimage}!
/F{/Columns counttomark 3 add -2 roll/Rows exch/K -1/BlackIs1 true>>
/CCITTFaxDecode filter}!/FX{<</EndOfBlock false F}!
/X{/ASCII85Decode filter}!/@X{@ X}!/&2{2 index 2 index}!
/@F{@ &2<<F}!/@C{@X &2 FX}!
/$X{+ @X |}!/&4{4 index 4 index}!/$F{+ @ &4<<F |}!/$C{+ @X &4 FX |}!
/IC{3 1 roll 10 dict begin 1{/ImageType/Interpolate/Decode/DataSource
/ImageMatrix/BitsPerComponent/Height/Width}{exch def}forall
currentdict end image}!
/~{@ read {pop} if}!
end def
%%EndResource
/pagesave null def
%%EndProlog
%%Page: 1 1
%%BeginPageSetup
GS_epswrite_2_0_1001 begin
/pagesave save store 197 dict begin
0.1 0.1 scale
%%EndPageSetup
gsave mark
Q q
0 0 250000 250000 re
Y
5 w
K
729.5 590 31.5 0 P
1872.5 590 -31.5 0 P
702.5 590 S
676 574 24 33 /3U
$C
-QF8ne"Tt:oUF>0ot#YQs8W,nXfqbA/ZlCbg4g:qTE~>
,
729.5 686 31.5 0 P
1872.5 686 -31.5 0 P
702.5 686 S
626 671 17 32 /6U
$C
+i"'Ws8W*](WjZ;pV6~>
,
651 670 3U ,
676 670 3U ,
729.5 782 31.5 0 P
1872.5 782 -31.5 0 P
702.5 782 S
626 767 24 32 /3Y
$C
0H36C?Z1,TfQQ5/@D`QoL@9'80`Si<m4/St.b$<a'E~>
,
651 766 3U ,
676 766 3U ,
729.5 878 31.5 0 P
1872.5 878 -31.5 0 P
702.5 878 S
626 862 24 33 /6Y
$C
1_pXAKA@1'5mQkUs2WY>ao^l:F&Bhur58R3CV&/&'mg9):]~>
,
651 862 3U ,
676 862 3U ,
729.5 974 31.5 0 P
1872.5 974 -31.5 0 P
702.5 974 S
626 959 24 32 /4C
$C
2*_-?>T<\ojkG3trqh-BpA9::pA5rFn*bK~>
,
651 958 3U ,
676 958 3U ,
729.5 1070 31.5 0 P
1872.5 1070 -31.5 0 P
702.5 1070 S
626 1054 24 33 /7C
$C
-QE\>l-V,*&9#:sf`189D/d?oonA_5>^tZ2+N(t`~>
,
651 1054 3U ,
676 1054 3U ,
729.5 1166 31.5 0 P
1872.5 1166 -31.5 0 P
702.5 1166 S
626 1150 24 33 /4G
$C
-QF8m3mfL'6+Xe6FMIj`lYD4k'p^oJE5LXRrKFkj>7E)'X&-Z`~>
,
651 1150 3U ,
676 1150 3U ,
729.5 590 0 31.5 P
729.5 1166 0 -31.5 P
729.5 545 S
722 529 3U ,
872.5 590 0 31.5 P
872.5 1166 0 -31.5 P
872.5 545 S
865 529 7C ,
1015 590 0 31.5 P
1015 1166 0 -31.5 P
1015 545 S
995 530 6U ,
1020 529 3U ,
1158 590 0 31.5 P
1158 1166 0 -31.5 P
1158 545 S
1138 530 6U ,
1163 529 7C ,
1301 590 0 31.5 P
1301 1166 0 -31.5 P
1301 545 S
1281 530 3Y ,
1306 529 3U ,
1444 590 0 31.5 P
1444 1166 0 -31.5 P
1444 545 S
1424 530 3Y ,
1449 529 7C ,
1586.5 590 0 31.5 P
1586.5 1166 0 -31.5 P
1586.5 545 S
1567 529 6Y ,
1592 529 3U ,
1729.5 590 0 31.5 P
1729.5 1166 0 -31.5 P
1729.5 545 S
1710 529 6Y ,
1735 529 7C ,
1872.5 590 0 31.5 P
1872.5 1166 0 -31.5 P
1872.5 545 S
1853 530 4C ,
1878 529 3U ,
729.5 590 1143 576 re
S
2.5 w
815 579.25 0 31.5 S
799.25 595 31.5 0 S
844 575.25 0 31.5 S
828.25 591 31.5 0 S
872.5 702.75 0 31.5 S
856.75 718.5 31.5 0 S
901 667.25 0 31.5 S
885.25 683 31.5 0 S
929.5 892.75 0 31.5 S
913.75 908.5 31.5 0 S
958 799.75 0 31.5 S
942.25 815.5 31.5 0 S
986.5 985.25 0 31.5 S
970.75 1001 31.5 0 S
1015 913.25 0 31.5 S
999.25 929 31.5 0 S
1044 1094.75 0 31.5 S
1028.25 1110.5 31.5 0 S
1072.5 956.25 0 31.5 S
1056.75 972 31.5 0 S
1101 890.25 0 31.5 S
1085.25 906 31.5 0 S
1129.5 915.25 0 31.5 S
1113.75 931 31.5 0 S
1158 922.75 0 31.5 S
1142.25 938.5 31.5 0 S
1186.5 896.75 0 31.5 S
1170.75 912.5 31.5 0 S
1215.5 1036.75 0 31.5 S
1199.75 1052.5 31.5 0 S
1244 841.25 0 31.5 S
1228.25 857 31.5 0 S
1272.5 822.75 0 31.5 S
1256.75 838.5 31.5 0 S
1301 746.25 0 31.5 S
1285.25 762 31.5 0 S
1329.5 772.75 0 31.5 S
1313.75 788.5 31.5 0 S
1358 709.75 0 31.5 S
1342.25 725.5 31.5 0 S
1386.5 676.75 0 31.5 S
1370.75 692.5 31.5 0 S
1415.5 692.25 0 31.5 S
1399.75 708 31.5 0 S
1444 653.75 0 31.5 S
1428.25 669.5 31.5 0 S
1472.5 596.25 0 31.5 S
1456.75 612 31.5 0 S
1501 604.75 0 31.5 S
1485.25 620.5 31.5 0 S
1529.5 614.75 0 31.5 S
1513.75 630.5 31.5 0 S
1558 580.75 0 31.5 S
1542.25 596.5 31.5 0 S
1586.5 575.25 0 31.5 S
1570.75 591 31.5 0 S
1615.5 575.25 0 31.5 S
1599.75 591 31.5 0 S
1644 577.25 0 31.5 S
1628.25 593 31.5 0 S
1758 575.25 0 31.5 S
1742.25 591 31.5 0 S
5 w
729.5 590 1143 576 re
S
cleartomark end end pagesave restore
 showpage
%%PageTrailer
%%Trailer
%%Pages: 1
