%!PS-Adobe-3.0 EPSF-3.0
%%BoundingBox: 62 52 191 119
%%HiResBoundingBox: 62.800000 52.900000 190.200000 118.300000
%.....................................
%%Creator: GPL Ghostscript 871 (epswrite)
%%CreationDate: 2012/01/28 17:04:44
%%DocumentData: Clean7Bit
%%LanguageLevel: 2
%%EndComments
%%BeginProlog
% This copyright applies to everything between here and the %%EndProlog:
% Copyright (C) 2010 Artifex Software, Inc.  All rights reserved.
%%BeginResource: procset GS_epswrite_2_0_1001 1.001 0
/GS_epswrite_2_0_1001 80 dict dup begin
/PageSize 2 array def/setpagesize{ PageSize aload pop 3 index eq exch
4 index eq and{ pop pop pop}{ PageSize dup  1
5 -1 roll put 0 4 -1 roll put dup null eq {false} {dup where} ifelse{ exch get exec}
{ pop/setpagedevice where
{ pop 1 dict dup /PageSize PageSize put setpagedevice}
{ /setpage where{ pop PageSize aload pop pageparams 3 {exch pop} repeat
setpage}if}ifelse}ifelse}ifelse} bind def
/!{bind def}bind def/#{load def}!/N/counttomark #
/rG{3{3 -1 roll 255 div}repeat setrgbcolor}!/G{255 div setgray}!/K{0 G}!
/r6{dup 3 -1 roll rG}!/r5{dup 3 1 roll rG}!/r3{dup rG}!
/w/setlinewidth #/J/setlinecap #
/j/setlinejoin #/M/setmiterlimit #/d/setdash #/i/setflat #
/m/moveto #/l/lineto #/c/rcurveto #
/p{N 2 idiv{N -2 roll rlineto}repeat}!
/P{N 0 gt{N -2 roll moveto p}if}!
/h{p closepath}!/H{P closepath}!
/lx{0 rlineto}!/ly{0 exch rlineto}!/v{0 0 6 2 roll c}!/y{2 copy c}!
/re{4 -2 roll m exch dup lx exch ly neg lx h}!
/^{3 index neg 3 index neg}!
/f{P fill}!/f*{P eofill}!/s{H stroke}!/S{P stroke}!
/q/gsave #/Q/grestore #/rf{re fill}!
/Y{P clip newpath}!/Y*{P eoclip newpath}!/rY{re Y}!
/|={pop exch 4 1 roll 1 array astore cvx 3 array astore cvx exch 1 index def exec}!
/|{exch string readstring |=}!
/+{dup type/nametype eq{2 index 7 add -3 bitshift 2 index mul}if}!
/@/currentfile #/${+ @ |}!
/B{{2 copy string{readstring pop}aload pop 4 array astore cvx
3 1 roll}repeat pop pop true}!
/Ix{[1 0 0 1 11 -2 roll exch neg exch neg]exch}!
/,{true exch Ix imagemask}!/If{false exch Ix imagemask}!/I{exch Ix image}!
/Ic{exch Ix false 3 colorimage}!
/F{/Columns counttomark 3 add -2 roll/Rows exch/K -1/BlackIs1 true>>
/CCITTFaxDecode filter}!/FX{<</EndOfBlock false F}!
/X{/ASCII85Decode filter}!/@X{@ X}!/&2{2 index 2 index}!
/@F{@ &2<<F}!/@C{@X &2 FX}!
/$X{+ @X |}!/&4{4 index 4 index}!/$F{+ @ &4<<F |}!/$C{+ @X &4 FX |}!
/IC{3 1 roll 10 dict begin 1{/ImageType/Interpolate/Decode/DataSource
/ImageMatrix/BitsPerComponent/Height/Width}{exch def}forall
currentdict end image}!
/~{@ read {pop} if}!
end def
%%EndResource
/pagesave null def
%%EndProlog
%%Page: 1 1
%%BeginPageSetup
GS_epswrite_2_0_1001 begin
/pagesave save store 197 dict begin
0.1 0.1 scale
%%EndPageSetup
gsave mark
Q q
0 0 250000 250000 re
Y
5 w
K
756.5 590 31.5 0 P
1872.5 590 -31.5 0 P
729.5 590 S
703 574 24 33 /3U
$C
-QF8ne"Tt:oUF>0ot#YQs8W,nXfqbA/ZlCbg4g:qTE~>
,
756.5 647.5 31.5 0 P
1872.5 647.5 -31.5 0 P
729.5 647.5 S
653 632 24 33 /6U
$C
-QE\>l-V,*&9#:sf`189D/d?oonA_5>^tZ2+N(t`~>
,
678 632 3U ,
703 632 3U ,
756.5 705 31.5 0 P
1872.5 705 -31.5 0 P
729.5 705 S
628 690 17 32 /3Y
$C
+i"'Ws8W*](WjZ;pV6~>
,
653 689 3U ,
678 689 3U ,
703 689 3U ,
756.5 763 31.5 0 P
1872.5 763 -31.5 0 P
729.5 763 S
628 748 3Y ,
653 747 6U ,
678 747 3U ,
703 747 3U ,
756.5 820.5 31.5 0 P
1872.5 820.5 -31.5 0 P
729.5 820.5 S
628 806 24 32 /6Y
$C
0H36C?Z1,TfQQ5/@D`QoL@9'80`Si<m4/St.b$<a'E~>
,
653 805 3U ,
678 805 3U ,
703 805 3U ,
756.5 878 31.5 0 P
1872.5 878 -31.5 0 P
729.5 878 S
628 863 6Y ,
653 862 6U ,
678 862 3U ,
703 862 3U ,
756.5 935.5 31.5 0 P
1872.5 935.5 -31.5 0 P
729.5 935.5 S
628 920 24 33 /4C
$C
1_pXAKA@1'5mQkUs2WY>ao^l:F&Bhur58R3CV&/&'mg9):]~>
,
653 920 3U ,
678 920 3U ,
703 920 3U ,
756.5 993 31.5 0 P
1872.5 993 -31.5 0 P
729.5 993 S
628 977 4C ,
653 977 6U ,
678 977 3U ,
703 977 3U ,
756.5 1051 31.5 0 P
1872.5 1051 -31.5 0 P
729.5 1051 S
628 1036 24 32 /7C
$C
2*_-?>T<\ojkG3trqh-BpA9::pA5rFn*bK~>
,
653 1035 3U ,
678 1035 3U ,
703 1035 3U ,
756.5 1108.5 31.5 0 P
1872.5 1108.5 -31.5 0 P
729.5 1108.5 S
628 1094 7C ,
653 1093 6U ,
678 1093 3U ,
703 1093 3U ,
756.5 1166 31.5 0 P
1872.5 1166 -31.5 0 P
729.5 1166 S
628 1150 6U ,
653 1150 3U ,
678 1150 3U ,
703 1150 3U ,
756.5 590 0 31.5 P
756.5 1166 0 -31.5 P
756.5 545 S
749 529 3U ,
896 590 0 31.5 P
896 1166 0 -31.5 P
896 545 S
889 529 6U ,
1035.5 590 0 31.5 P
1035.5 1166 0 -31.5 P
1035.5 545 S
1016 530 3Y ,
1041 529 3U ,
1175 590 0 31.5 P
1175 1166 0 -31.5 P
1175 545 S
1155 530 3Y ,
1180 529 6U ,
1314.5 590 0 31.5 P
1314.5 1166 0 -31.5 P
1314.5 545 S
1295 530 6Y ,
1320 529 3U ,
1454 590 0 31.5 P
1454 1166 0 -31.5 P
1454 545 S
1434 530 6Y ,
1459 529 6U ,
1593.5 590 0 31.5 P
1593.5 1166 0 -31.5 P
1593.5 545 S
1574 529 4C ,
1599 529 3U ,
1733 590 0 31.5 P
1733 1166 0 -31.5 P
1733 545 S
1713 529 4C ,
1738 529 6U ,
1872.5 590 0 31.5 P
1872.5 1166 0 -31.5 P
1872.5 545 S
1853 530 7C ,
1878 529 3U ,
756.5 590 1116 576 re
S
2.5 w
840 1149.75 0 31.5 S
824.25 1165.5 31.5 0 S
868 1149.75 0 31.5 S
852.25 1165.5 31.5 0 S
896 1134.25 0 31.5 S
880.25 1150 31.5 0 S
924 1122.75 0 31.5 S
908.25 1138.5 31.5 0 S
952 1084.75 0 31.5 S
936.25 1100.5 31.5 0 S
979.5 1057.75 0 31.5 S
963.75 1073.5 31.5 0 S
1007.5 1008.25 0 31.5 S
991.75 1024 31.5 0 S
1035.5 967.75 0 31.5 S
1019.75 983.5 31.5 0 S
1063.5 905.25 0 31.5 S
1047.75 921 31.5 0 S
1091.5 859.25 0 31.5 S
1075.75 875 31.5 0 S
1119 821.25 0 31.5 S
1103.25 837 31.5 0 S
1147 780.75 0 31.5 S
1131.25 796.5 31.5 0 S
1175 738.75 0 31.5 S
1159.25 754.5 31.5 0 S
1203 700.25 0 31.5 S
1187.25 716 31.5 0 S
1231 644.75 0 31.5 S
1215.25 660.5 31.5 0 S
1258.5 612.25 0 31.5 S
1242.75 628 31.5 0 S
1286.5 582.75 0 31.5 S
1270.75 598.5 31.5 0 S
1314.5 574.25 0 31.5 S
1298.75 590 31.5 0 S
1342.5 574.25 0 31.5 S
1326.75 590 31.5 0 S
1370.5 574.25 0 31.5 S
1354.75 590 31.5 0 S
1398 574.25 0 31.5 S
1382.25 590 31.5 0 S
1426 574.25 0 31.5 S
1410.25 590 31.5 0 S
1454 574.25 0 31.5 S
1438.25 590 31.5 0 S
1482 574.25 0 31.5 S
1466.25 590 31.5 0 S
1510 574.25 0 31.5 S
1494.25 590 31.5 0 S
1537.5 574.25 0 31.5 S
1521.75 590 31.5 0 S
1565.5 574.25 0 31.5 S
1549.75 590 31.5 0 S
1593.5 574.25 0 31.5 S
1577.75 590 31.5 0 S
1621.5 574.25 0 31.5 S
1605.75 590 31.5 0 S
1649.5 574.25 0 31.5 S
1633.75 590 31.5 0 S
1761 574.25 0 31.5 S
1745.25 590 31.5 0 S
5 w
756.5 590 1116 576 re
S
cleartomark end end pagesave restore
 showpage
%%PageTrailer
%%Trailer
%%Pages: 1
