%!PS-Adobe-3.0 EPSF-3.0
%%BoundingBox: 62 52 192 119
%%HiResBoundingBox: 62.800000 52.900000 191.400000 118.300000
%.....................................
%%Creator: GPL Ghostscript 871 (epswrite)
%%CreationDate: 2012/01/28 17:04:45
%%DocumentData: Clean7Bit
%%LanguageLevel: 2
%%EndComments
%%BeginProlog
% This copyright applies to everything between here and the %%EndProlog:
% Copyright (C) 2010 Artifex Software, Inc.  All rights reserved.
%%BeginResource: procset GS_epswrite_2_0_1001 1.001 0
/GS_epswrite_2_0_1001 80 dict dup begin
/PageSize 2 array def/setpagesize{ PageSize aload pop 3 index eq exch
4 index eq and{ pop pop pop}{ PageSize dup  1
5 -1 roll put 0 4 -1 roll put dup null eq {false} {dup where} ifelse{ exch get exec}
{ pop/setpagedevice where
{ pop 1 dict dup /PageSize PageSize put setpagedevice}
{ /setpage where{ pop PageSize aload pop pageparams 3 {exch pop} repeat
setpage}if}ifelse}ifelse}ifelse} bind def
/!{bind def}bind def/#{load def}!/N/counttomark #
/rG{3{3 -1 roll 255 div}repeat setrgbcolor}!/G{255 div setgray}!/K{0 G}!
/r6{dup 3 -1 roll rG}!/r5{dup 3 1 roll rG}!/r3{dup rG}!
/w/setlinewidth #/J/setlinecap #
/j/setlinejoin #/M/setmiterlimit #/d/setdash #/i/setflat #
/m/moveto #/l/lineto #/c/rcurveto #
/p{N 2 idiv{N -2 roll rlineto}repeat}!
/P{N 0 gt{N -2 roll moveto p}if}!
/h{p closepath}!/H{P closepath}!
/lx{0 rlineto}!/ly{0 exch rlineto}!/v{0 0 6 2 roll c}!/y{2 copy c}!
/re{4 -2 roll m exch dup lx exch ly neg lx h}!
/^{3 index neg 3 index neg}!
/f{P fill}!/f*{P eofill}!/s{H stroke}!/S{P stroke}!
/q/gsave #/Q/grestore #/rf{re fill}!
/Y{P clip newpath}!/Y*{P eoclip newpath}!/rY{re Y}!
/|={pop exch 4 1 roll 1 array astore cvx 3 array astore cvx exch 1 index def exec}!
/|{exch string readstring |=}!
/+{dup type/nametype eq{2 index 7 add -3 bitshift 2 index mul}if}!
/@/currentfile #/${+ @ |}!
/B{{2 copy string{readstring pop}aload pop 4 array astore cvx
3 1 roll}repeat pop pop true}!
/Ix{[1 0 0 1 11 -2 roll exch neg exch neg]exch}!
/,{true exch Ix imagemask}!/If{false exch Ix imagemask}!/I{exch Ix image}!
/Ic{exch Ix false 3 colorimage}!
/F{/Columns counttomark 3 add -2 roll/Rows exch/K -1/BlackIs1 true>>
/CCITTFaxDecode filter}!/FX{<</EndOfBlock false F}!
/X{/ASCII85Decode filter}!/@X{@ X}!/&2{2 index 2 index}!
/@F{@ &2<<F}!/@C{@X &2 FX}!
/$X{+ @X |}!/&4{4 index 4 index}!/$F{+ @ &4<<F |}!/$C{+ @X &4 FX |}!
/IC{3 1 roll 10 dict begin 1{/ImageType/Interpolate/Decode/DataSource
/ImageMatrix/BitsPerComponent/Height/Width}{exch def}forall
currentdict end image}!
/~{@ read {pop} if}!
end def
%%EndResource
/pagesave null def
%%EndProlog
%%Page: 1 1
%%BeginPageSetup
GS_epswrite_2_0_1001 begin
/pagesave save store 197 dict begin
0.1 0.1 scale
%%EndPageSetup
gsave mark
Q q
0 0 250000 250000 re
Y
5 w
K
756.5 590 31.5 0 P
1872.5 590 -31.5 0 P
729.5 590 S
703 574 24 33 /3U
$C
-QF8ne"Tt:oUF>0ot#YQs8W,nXfqbA/ZlCbg4g:qTE~>
,
756.5 647.5 31.5 0 P
1872.5 647.5 -31.5 0 P
729.5 647.5 S
653 632 24 33 /6U
$C
-QE\>l-V,*&9#:sf`189D/d?oonA_5>^tZ2+N(t`~>
,
678 632 3U ,
703 632 3U ,
756.5 705 31.5 0 P
1872.5 705 -31.5 0 P
729.5 705 S
628 690 17 32 /3Y
$C
+i"'Ws8W*](WjZ;pV6~>
,
653 689 3U ,
678 689 3U ,
703 689 3U ,
756.5 763 31.5 0 P
1872.5 763 -31.5 0 P
729.5 763 S
628 748 3Y ,
653 747 6U ,
678 747 3U ,
703 747 3U ,
756.5 820.5 31.5 0 P
1872.5 820.5 -31.5 0 P
729.5 820.5 S
628 806 24 32 /6Y
$C
0H36C?Z1,TfQQ5/@D`QoL@9'80`Si<m4/St.b$<a'E~>
,
653 805 3U ,
678 805 3U ,
703 805 3U ,
756.5 878 31.5 0 P
1872.5 878 -31.5 0 P
729.5 878 S
628 863 6Y ,
653 862 6U ,
678 862 3U ,
703 862 3U ,
756.5 935.5 31.5 0 P
1872.5 935.5 -31.5 0 P
729.5 935.5 S
628 920 24 33 /4C
$C
1_pXAKA@1'5mQkUs2WY>ao^l:F&Bhur58R3CV&/&'mg9):]~>
,
653 920 3U ,
678 920 3U ,
703 920 3U ,
756.5 993 31.5 0 P
1872.5 993 -31.5 0 P
729.5 993 S
628 977 4C ,
653 977 6U ,
678 977 3U ,
703 977 3U ,
756.5 1051 31.5 0 P
1872.5 1051 -31.5 0 P
729.5 1051 S
628 1036 24 32 /7C
$C
2*_-?>T<\ojkG3trqh-BpA9::pA5rFn*bK~>
,
653 1035 3U ,
678 1035 3U ,
703 1035 3U ,
756.5 1108.5 31.5 0 P
1872.5 1108.5 -31.5 0 P
729.5 1108.5 S
628 1094 7C ,
653 1093 6U ,
678 1093 3U ,
703 1093 3U ,
756.5 1166 31.5 0 P
1872.5 1166 -31.5 0 P
729.5 1166 S
628 1150 6U ,
653 1150 3U ,
678 1150 3U ,
703 1150 3U ,
756.5 590 0 31.5 P
756.5 1166 0 -31.5 P
756.5 545 S
749 529 3U ,
868 590 0 31.5 P
868 1166 0 -31.5 P
868 545 S
848 530 6Y ,
873 529 3U ,
979.5 590 0 31.5 P
979.5 1166 0 -31.5 P
979.5 545 S
960 530 7C ,
985 529 3U ,
1091.5 590 0 31.5 P
1091.5 1166 0 -31.5 P
1091.5 545 S
1072 529 24 33 /4G
$C
-QF8m3mfL'6+Xe6FMIj`lYD4k'p^oJE5LXRrKFkj>7E)'X&-Z`~>
,
1097 529 3U ,
1203 590 0 31.5 P
1203 1166 0 -31.5 P
1203 545 S
1183 529 24 33 /7G
$C
-QF8f#>U*Fi<Ri_l2Ue<95@shXAstcFA!YdH;4G>rNrfGfW/&HK`~>
,
1208 529 3U ,
1314.5 590 0 31.5 P
1314.5 1166 0 -31.5 P
1314.5 545 S
1282 530 3Y ,
1307 529 3U ,
1332 529 3U ,
1426 590 0 31.5 P
1426 1166 0 -31.5 P
1426 545 S
1394 530 3Y ,
1419 530 6Y ,
1444 529 3U ,
1537.5 590 0 31.5 P
1537.5 1166 0 -31.5 P
1537.5 545 S
1505 530 3Y ,
1530 530 7C ,
1555 529 3U ,
1649.5 590 0 31.5 P
1649.5 1166 0 -31.5 P
1649.5 545 S
1617 530 3Y ,
1642 529 4G ,
1667 529 3U ,
1761 590 0 31.5 P
1761 1166 0 -31.5 P
1761 545 S
1729 530 3Y ,
1754 529 7G ,
1779 529 3U ,
1872.5 590 0 31.5 P
1872.5 1166 0 -31.5 P
1872.5 545 S
1840 530 6Y ,
1865 529 3U ,
1890 529 3U ,
756.5 590 1116 576 re
S
2.5 w
756.5 1148.75 0 31.5 S
740.75 1164.5 31.5 0 S
779 1148.75 0 31.5 S
763.25 1164.5 31.5 0 S
818 1148.25 0 31.5 S
802.25 1164 31.5 0 S
823.5 1148.25 0 31.5 S
807.75 1164 31.5 0 S
829 1147.75 0 31.5 S
813.25 1163.5 31.5 0 S
834.5 1146.75 0 31.5 S
818.75 1162.5 31.5 0 S
840 1144.25 0 31.5 S
824.25 1160 31.5 0 S
846 1137.25 0 31.5 S
830.25 1153 31.5 0 S
851.5 1123.75 0 31.5 S
835.75 1139.5 31.5 0 S
857 1099.75 0 31.5 S
841.25 1115.5 31.5 0 S
862.5 1068.25 0 31.5 S
846.75 1084 31.5 0 S
868 1034.25 0 31.5 S
852.25 1050 31.5 0 S
873.5 995.25 0 31.5 S
857.75 1011 31.5 0 S
879.5 954.25 0 31.5 S
863.75 970 31.5 0 S
885 918.75 0 31.5 S
869.25 934.5 31.5 0 S
890.5 887.25 0 31.5 S
874.75 903 31.5 0 S
896 853.75 0 31.5 S
880.25 869.5 31.5 0 S
901.5 826.25 0 31.5 S
885.75 842 31.5 0 S
907 801.25 0 31.5 S
891.25 817 31.5 0 S
912.5 781.75 0 31.5 S
896.75 797.5 31.5 0 S
918.5 763.75 0 31.5 S
902.75 779.5 31.5 0 S
924 751.75 0 31.5 S
908.25 767.5 31.5 0 S
929.5 738.75 0 31.5 S
913.75 754.5 31.5 0 S
935 731.25 0 31.5 S
919.25 747 31.5 0 S
940.5 724.75 0 31.5 S
924.75 740.5 31.5 0 S
946 719.25 0 31.5 S
930.25 735 31.5 0 S
952 715.25 0 31.5 S
936.25 731 31.5 0 S
957.5 711.25 0 31.5 S
941.75 727 31.5 0 S
963 707.75 0 31.5 S
947.25 723.5 31.5 0 S
968.5 706.25 0 31.5 S
952.75 722 31.5 0 S
974 704.75 0 31.5 S
958.25 720.5 31.5 0 S
979.5 703.75 0 31.5 S
963.75 719.5 31.5 0 S
985.5 701.75 0 31.5 S
969.75 717.5 31.5 0 S
991 700.25 0 31.5 S
975.25 716 31.5 0 S
996.5 698.25 0 31.5 S
980.75 714 31.5 0 S
1002 696.25 0 31.5 S
986.25 712 31.5 0 S
1007.5 693.75 0 31.5 S
991.75 709.5 31.5 0 S
1013 690.75 0 31.5 S
997.25 706.5 31.5 0 S
1019 687.25 0 31.5 S
1003.25 703 31.5 0 S
1024.5 682.75 0 31.5 S
1008.75 698.5 31.5 0 S
1030 678.75 0 31.5 S
1014.25 694.5 31.5 0 S
1035.5 672.75 0 31.5 S
1019.75 688.5 31.5 0 S
1041 669.25 0 31.5 S
1025.25 685 31.5 0 S
1046.5 664.75 0 31.5 S
1030.75 680.5 31.5 0 S
1052 661.25 0 31.5 S
1036.25 677 31.5 0 S
1058 656.25 0 31.5 S
1042.25 672 31.5 0 S
1063.5 652.25 0 31.5 S
1047.75 668 31.5 0 S
1069 647.25 0 31.5 S
1053.25 663 31.5 0 S
1074.5 642.75 0 31.5 S
1058.75 658.5 31.5 0 S
1080 638.25 0 31.5 S
1064.25 654 31.5 0 S
1085.5 634.25 0 31.5 S
1069.75 650 31.5 0 S
1091.5 631.25 0 31.5 S
1075.75 647 31.5 0 S
1097 627.25 0 31.5 S
1081.25 643 31.5 0 S
1102.5 622.75 0 31.5 S
1086.75 638.5 31.5 0 S
1108 619.75 0 31.5 S
1092.25 635.5 31.5 0 S
1113.5 614.75 0 31.5 S
1097.75 630.5 31.5 0 S
1119 610.75 0 31.5 S
1103.25 626.5 31.5 0 S
1125 607.75 0 31.5 S
1109.25 623.5 31.5 0 S
1130.5 605.25 0 31.5 S
1114.75 621 31.5 0 S
1136 602.75 0 31.5 S
1120.25 618.5 31.5 0 S
1141.5 600.25 0 31.5 S
1125.75 616 31.5 0 S
1147 598.25 0 31.5 S
1131.25 614 31.5 0 S
1152.5 596.75 0 31.5 S
1136.75 612.5 31.5 0 S
1158.5 594.75 0 31.5 S
1142.75 610.5 31.5 0 S
1164 593.75 0 31.5 S
1148.25 609.5 31.5 0 S
1169.5 592.25 0 31.5 S
1153.75 608 31.5 0 S
1175 590.75 0 31.5 S
1159.25 606.5 31.5 0 S
1180.5 588.75 0 31.5 S
1164.75 604.5 31.5 0 S
1186 588.25 0 31.5 S
1170.25 604 31.5 0 S
1191.5 586.75 0 31.5 S
1175.75 602.5 31.5 0 S
1197.5 585.75 0 31.5 S
1181.75 601.5 31.5 0 S
1203 585.25 0 31.5 S
1187.25 601 31.5 0 S
1208.5 584.25 0 31.5 S
1192.75 600 31.5 0 S
1214 582.75 0 31.5 S
1198.25 598.5 31.5 0 S
1219.5 581.75 0 31.5 S
1203.75 597.5 31.5 0 S
1225 580.75 0 31.5 S
1209.25 596.5 31.5 0 S
1231 579.75 0 31.5 S
1215.25 595.5 31.5 0 S
1236.5 578.75 0 31.5 S
1220.75 594.5 31.5 0 S
1242 578.75 0 31.5 S
1226.25 594.5 31.5 0 S
1247.5 578.25 0 31.5 S
1231.75 594 31.5 0 S
1253 577.75 0 31.5 S
1237.25 593.5 31.5 0 S
1264.5 577.75 0 31.5 S
1248.75 593.5 31.5 0 S
1275.5 577.25 0 31.5 S
1259.75 593 31.5 0 S
1281 576.75 0 31.5 S
1265.25 592.5 31.5 0 S
1286.5 576.75 0 31.5 S
1270.75 592.5 31.5 0 S
1292 576.25 0 31.5 S
1276.25 592 31.5 0 S
1298 575.75 0 31.5 S
1282.25 591.5 31.5 0 S
1303.5 575.75 0 31.5 S
1287.75 591.5 31.5 0 S
1309 575.75 0 31.5 S
1293.25 591.5 31.5 0 S
1314.5 575.75 0 31.5 S
1298.75 591.5 31.5 0 S
1337 575.25 0 31.5 S
1321.25 591 31.5 0 S
1348 575.25 0 31.5 S
1332.25 591 31.5 0 S
1353.5 575.25 0 31.5 S
1337.75 591 31.5 0 S
1370.5 574.75 0 31.5 S
1354.75 590.5 31.5 0 S
1716.5 574.75 0 31.5 S
1700.75 590.5 31.5 0 S
1833.5 574.75 0 31.5 S
1817.75 590.5 31.5 0 S
1844.5 574.25 0 31.5 S
1828.75 590 31.5 0 S
1850 574.25 0 31.5 S
1834.25 590 31.5 0 S
5 w
756.5 590 1116 576 re
S
cleartomark end end pagesave restore
 showpage
%%PageTrailer
%%Trailer
%%Pages: 1
