%!PS-Adobe-3.0 EPSF-3.0
%%BoundingBox: 62 52 192 119
%%HiResBoundingBox: 62.600000 52.900000 191.400000 118.300000
%.....................................
%%Creator: GPL Ghostscript 871 (epswrite)
%%CreationDate: 2012/01/28 17:04:45
%%DocumentData: Clean7Bit
%%LanguageLevel: 2
%%EndComments
%%BeginProlog
% This copyright applies to everything between here and the %%EndProlog:
% Copyright (C) 2010 Artifex Software, Inc.  All rights reserved.
%%BeginResource: procset GS_epswrite_2_0_1001 1.001 0
/GS_epswrite_2_0_1001 80 dict dup begin
/PageSize 2 array def/setpagesize{ PageSize aload pop 3 index eq exch
4 index eq and{ pop pop pop}{ PageSize dup  1
5 -1 roll put 0 4 -1 roll put dup null eq {false} {dup where} ifelse{ exch get exec}
{ pop/setpagedevice where
{ pop 1 dict dup /PageSize PageSize put setpagedevice}
{ /setpage where{ pop PageSize aload pop pageparams 3 {exch pop} repeat
setpage}if}ifelse}ifelse}ifelse} bind def
/!{bind def}bind def/#{load def}!/N/counttomark #
/rG{3{3 -1 roll 255 div}repeat setrgbcolor}!/G{255 div setgray}!/K{0 G}!
/r6{dup 3 -1 roll rG}!/r5{dup 3 1 roll rG}!/r3{dup rG}!
/w/setlinewidth #/J/setlinecap #
/j/setlinejoin #/M/setmiterlimit #/d/setdash #/i/setflat #
/m/moveto #/l/lineto #/c/rcurveto #
/p{N 2 idiv{N -2 roll rlineto}repeat}!
/P{N 0 gt{N -2 roll moveto p}if}!
/h{p closepath}!/H{P closepath}!
/lx{0 rlineto}!/ly{0 exch rlineto}!/v{0 0 6 2 roll c}!/y{2 copy c}!
/re{4 -2 roll m exch dup lx exch ly neg lx h}!
/^{3 index neg 3 index neg}!
/f{P fill}!/f*{P eofill}!/s{H stroke}!/S{P stroke}!
/q/gsave #/Q/grestore #/rf{re fill}!
/Y{P clip newpath}!/Y*{P eoclip newpath}!/rY{re Y}!
/|={pop exch 4 1 roll 1 array astore cvx 3 array astore cvx exch 1 index def exec}!
/|{exch string readstring |=}!
/+{dup type/nametype eq{2 index 7 add -3 bitshift 2 index mul}if}!
/@/currentfile #/${+ @ |}!
/B{{2 copy string{readstring pop}aload pop 4 array astore cvx
3 1 roll}repeat pop pop true}!
/Ix{[1 0 0 1 11 -2 roll exch neg exch neg]exch}!
/,{true exch Ix imagemask}!/If{false exch Ix imagemask}!/I{exch Ix image}!
/Ic{exch Ix false 3 colorimage}!
/F{/Columns counttomark 3 add -2 roll/Rows exch/K -1/BlackIs1 true>>
/CCITTFaxDecode filter}!/FX{<</EndOfBlock false F}!
/X{/ASCII85Decode filter}!/@X{@ X}!/&2{2 index 2 index}!
/@F{@ &2<<F}!/@C{@X &2 FX}!
/$X{+ @X |}!/&4{4 index 4 index}!/$F{+ @ &4<<F |}!/$C{+ @X &4 FX |}!
/IC{3 1 roll 10 dict begin 1{/ImageType/Interpolate/Decode/DataSource
/ImageMatrix/BitsPerComponent/Height/Width}{exch def}forall
currentdict end image}!
/~{@ read {pop} if}!
end def
%%EndResource
/pagesave null def
%%EndProlog
%%Page: 1 1
%%BeginPageSetup
GS_epswrite_2_0_1001 begin
/pagesave save store 197 dict begin
0.1 0.1 scale
%%EndPageSetup
gsave mark
Q q
0 0 250000 250000 re
Y
5 w
K
729.5 590 31.5 0 P
1872.5 590 -31.5 0 P
702.5 590 S
676 574 24 33 /3U
$C
-QF8ne"Tt:oUF>0ot#YQs8W,nXfqbA/ZlCbg4g:qTE~>
,
729.5 662 31.5 0 P
1872.5 662 -31.5 0 P
702.5 662 S
651 646 24 33 /6U
$C
-QE\>l-V,*&9#:sf`189D/d?oonA_5>^tZ2+N(t`~>
,
676 646 3U ,
729.5 734 31.5 0 P
1872.5 734 -31.5 0 P
702.5 734 S
626 719 17 32 /3Y
$C
+i"'Ws8W*](WjZ;pV6~>
,
651 718 3U ,
676 718 3U ,
729.5 806 31.5 0 P
1872.5 806 -31.5 0 P
702.5 806 S
626 791 3Y ,
651 790 6U ,
676 790 3U ,
729.5 878 31.5 0 P
1872.5 878 -31.5 0 P
702.5 878 S
626 863 24 32 /6Y
$C
0H36C?Z1,TfQQ5/@D`QoL@9'80`Si<m4/St.b$<a'E~>
,
651 862 3U ,
676 862 3U ,
729.5 950 31.5 0 P
1872.5 950 -31.5 0 P
702.5 950 S
626 935 6Y ,
651 934 6U ,
676 934 3U ,
729.5 1022 31.5 0 P
1872.5 1022 -31.5 0 P
702.5 1022 S
626 1006 24 33 /4C
$C
1_pXAKA@1'5mQkUs2WY>ao^l:F&Bhur58R3CV&/&'mg9):]~>
,
651 1006 3U ,
676 1006 3U ,
729.5 1094 31.5 0 P
1872.5 1094 -31.5 0 P
702.5 1094 S
626 1078 4C ,
651 1078 6U ,
676 1078 3U ,
729.5 1166 31.5 0 P
1872.5 1166 -31.5 0 P
702.5 1166 S
626 1151 24 32 /7C
$C
2*_-?>T<\ojkG3trqh-BpA9::pA5rFn*bK~>
,
651 1150 3U ,
676 1150 3U ,
729.5 590 0 31.5 P
729.5 1166 0 -31.5 P
729.5 545 S
722 529 3U ,
844 590 0 31.5 P
844 1166 0 -31.5 P
844 545 S
824 530 6Y ,
849 529 3U ,
958 590 0 31.5 P
958 1166 0 -31.5 P
958 545 S
938 530 7C ,
963 529 3U ,
1072.5 590 0 31.5 P
1072.5 1166 0 -31.5 P
1072.5 545 S
1053 529 24 33 /4G
$C
-QF8m3mfL'6+Xe6FMIj`lYD4k'p^oJE5LXRrKFkj>7E)'X&-Z`~>
,
1078 529 3U ,
1186.5 590 0 31.5 P
1186.5 1166 0 -31.5 P
1186.5 545 S
1167 529 24 33 /7G
$C
-QF8f#>U*Fi<Ri_l2Ue<95@shXAstcFA!YdH;4G>rNrfGfW/&HK`~>
,
1192 529 3U ,
1301 590 0 31.5 P
1301 1166 0 -31.5 P
1301 545 S
1269 530 3Y ,
1294 529 3U ,
1319 529 3U ,
1415.5 590 0 31.5 P
1415.5 1166 0 -31.5 P
1415.5 545 S
1383 530 3Y ,
1408 530 6Y ,
1433 529 3U ,
1529.5 590 0 31.5 P
1529.5 1166 0 -31.5 P
1529.5 545 S
1497 530 3Y ,
1522 530 7C ,
1547 529 3U ,
1644 590 0 31.5 P
1644 1166 0 -31.5 P
1644 545 S
1612 530 3Y ,
1637 529 4G ,
1662 529 3U ,
1758 590 0 31.5 P
1758 1166 0 -31.5 P
1758 545 S
1726 530 3Y ,
1751 529 7G ,
1776 529 3U ,
1872.5 590 0 31.5 P
1872.5 1166 0 -31.5 P
1872.5 545 S
1840 530 6Y ,
1865 529 3U ,
1890 529 3U ,
729.5 590 1143 576 re
S
2.5 w
752.5 575.75 0 31.5 S
736.75 591.5 31.5 0 S
792.5 575.75 0 31.5 S
776.75 591.5 31.5 0 S
798 575.75 0 31.5 S
782.25 591.5 31.5 0 S
804 578.75 0 31.5 S
788.25 594.5 31.5 0 S
809.5 590.25 0 31.5 S
793.75 606 31.5 0 S
815 607.25 0 31.5 S
799.25 623 31.5 0 S
821 660.75 0 31.5 S
805.25 676.5 31.5 0 S
826.5 741.25 0 31.5 S
810.75 757 31.5 0 S
832.5 875.25 0 31.5 S
816.75 891 31.5 0 S
838 965.75 0 31.5 S
822.25 981.5 31.5 0 S
844 1003.25 0 31.5 S
828.25 1019 31.5 0 S
849.5 1060.75 0 31.5 S
833.75 1076.5 31.5 0 S
855 1088.25 0 31.5 S
839.25 1104 31.5 0 S
861 1020.75 0 31.5 S
845.25 1036.5 31.5 0 S
866.5 974.75 0 31.5 S
850.75 990.5 31.5 0 S
872.5 990.25 0 31.5 S
856.75 1006 31.5 0 S
878 919.75 0 31.5 S
862.25 935.5 31.5 0 S
884 883.75 0 31.5 S
868.25 899.5 31.5 0 S
889.5 820.25 0 31.5 S
873.75 836 31.5 0 S
895 794.75 0 31.5 S
879.25 810.5 31.5 0 S
901 729.75 0 31.5 S
885.25 745.5 31.5 0 S
906.5 731.25 0 31.5 S
890.75 747 31.5 0 S
912.5 673.75 0 31.5 S
896.75 689.5 31.5 0 S
918 654.75 0 31.5 S
902.25 670.5 31.5 0 S
924 639.25 0 31.5 S
908.25 655 31.5 0 S
929.5 627.75 0 31.5 S
913.75 643.5 31.5 0 S
935 621.75 0 31.5 S
919.25 637.5 31.5 0 S
941 617.25 0 31.5 S
925.25 633 31.5 0 S
946.5 597.25 0 31.5 S
930.75 613 31.5 0 S
952.5 592.75 0 31.5 S
936.75 608.5 31.5 0 S
958 587.25 0 31.5 S
942.25 603 31.5 0 S
964 594.25 0 31.5 S
948.25 610 31.5 0 S
969.5 592.75 0 31.5 S
953.75 608.5 31.5 0 S
975 601.75 0 31.5 S
959.25 617.5 31.5 0 S
981 601.75 0 31.5 S
965.25 617.5 31.5 0 S
986.5 601.75 0 31.5 S
970.75 617.5 31.5 0 S
992.5 610.25 0 31.5 S
976.75 626 31.5 0 S
998 623.25 0 31.5 S
982.25 639 31.5 0 S
1004 628.75 0 31.5 S
988.25 644.5 31.5 0 S
1009.5 620.25 0 31.5 S
993.75 636 31.5 0 S
1015 649.25 0 31.5 S
999.25 665 31.5 0 S
1021 621.75 0 31.5 S
1005.25 637.5 31.5 0 S
1026.5 627.75 0 31.5 S
1010.75 643.5 31.5 0 S
1032.5 620.25 0 31.5 S
1016.75 636 31.5 0 S
1038 636.25 0 31.5 S
1022.25 652 31.5 0 S
1044 626.25 0 31.5 S
1028.25 642 31.5 0 S
1049.5 636.25 0 31.5 S
1033.75 652 31.5 0 S
1055.5 630.25 0 31.5 S
1039.75 646 31.5 0 S
1061 627.75 0 31.5 S
1045.25 643.5 31.5 0 S
1066.5 623.25 0 31.5 S
1050.75 639 31.5 0 S
1072.5 613.25 0 31.5 S
1056.75 629 31.5 0 S
1078 623.25 0 31.5 S
1062.25 639 31.5 0 S
1084 631.75 0 31.5 S
1068.25 647.5 31.5 0 S
1089.5 614.75 0 31.5 S
1073.75 630.5 31.5 0 S
1095.5 636.25 0 31.5 S
1079.75 652 31.5 0 S
1101 621.75 0 31.5 S
1085.25 637.5 31.5 0 S
1106.5 613.25 0 31.5 S
1090.75 629 31.5 0 S
1112.5 605.75 0 31.5 S
1096.75 621.5 31.5 0 S
1118 605.75 0 31.5 S
1102.25 621.5 31.5 0 S
1124 604.25 0 31.5 S
1108.25 620 31.5 0 S
1129.5 600.25 0 31.5 S
1113.75 616 31.5 0 S
1135.5 592.75 0 31.5 S
1119.75 608.5 31.5 0 S
1141 595.75 0 31.5 S
1125.25 611.5 31.5 0 S
1146.5 590.25 0 31.5 S
1130.75 606 31.5 0 S
1152.5 592.75 0 31.5 S
1136.75 608.5 31.5 0 S
1158 590.25 0 31.5 S
1142.25 606 31.5 0 S
1164 598.75 0 31.5 S
1148.25 614.5 31.5 0 S
1169.5 584.25 0 31.5 S
1153.75 600 31.5 0 S
1175.5 592.75 0 31.5 S
1159.75 608.5 31.5 0 S
1181 584.25 0 31.5 S
1165.25 600 31.5 0 S
1186.5 582.75 0 31.5 S
1170.75 598.5 31.5 0 S
1192.5 588.75 0 31.5 S
1176.75 604.5 31.5 0 S
1198 592.75 0 31.5 S
1182.25 608.5 31.5 0 S
1204 584.25 0 31.5 S
1188.25 600 31.5 0 S
1209.5 587.25 0 31.5 S
1193.75 603 31.5 0 S
1215.5 585.75 0 31.5 S
1199.75 601.5 31.5 0 S
1221 584.25 0 31.5 S
1205.25 600 31.5 0 S
1226.5 578.75 0 31.5 S
1210.75 594.5 31.5 0 S
1232.5 581.25 0 31.5 S
1216.75 597 31.5 0 S
1238 578.75 0 31.5 S
1222.25 594.5 31.5 0 S
1249.5 575.75 0 31.5 S
1233.75 591.5 31.5 0 S
1261 577.25 0 31.5 S
1245.25 593 31.5 0 S
1266.5 580.25 0 31.5 S
1250.75 596 31.5 0 S
1272.5 578.75 0 31.5 S
1256.75 594.5 31.5 0 S
1278 575.75 0 31.5 S
1262.25 591.5 31.5 0 S
1284 580.25 0 31.5 S
1268.25 596 31.5 0 S
1289.5 577.25 0 31.5 S
1273.75 593 31.5 0 S
1295.5 575.75 0 31.5 S
1279.75 591.5 31.5 0 S
1301 575.75 0 31.5 S
1285.25 591.5 31.5 0 S
1324 575.75 0 31.5 S
1308.25 591.5 31.5 0 S
1335.5 577.25 0 31.5 S
1319.75 593 31.5 0 S
1341 575.75 0 31.5 S
1325.25 591.5 31.5 0 S
1358 575.75 0 31.5 S
1342.25 591.5 31.5 0 S
1712.5 575.75 0 31.5 S
1696.75 591.5 31.5 0 S
1832.5 575.75 0 31.5 S
1816.75 591.5 31.5 0 S
1844 577.25 0 31.5 S
1828.25 593 31.5 0 S
1849.5 577.25 0 31.5 S
1833.75 593 31.5 0 S
5 w
729.5 590 1143 576 re
S
cleartomark end end pagesave restore
 showpage
%%PageTrailer
%%Trailer
%%Pages: 1
