%!PS-Adobe-3.0 EPSF-3.0
%%BoundingBox: 66 53 337 118
%%HiResBoundingBox: 66.600000 53.900000 336.200000 117.100000
%.....................................
%%Creator: GPL Ghostscript 871 (epswrite)
%%CreationDate: 2012/01/28 17:04:45
%%DocumentData: Clean7Bit
%%LanguageLevel: 2
%%EndComments
%%BeginProlog
% This copyright applies to everything between here and the %%EndProlog:
% Copyright (C) 2010 Artifex Software, Inc.  All rights reserved.
%%BeginResource: procset GS_epswrite_2_0_1001 1.001 0
/GS_epswrite_2_0_1001 80 dict dup begin
/PageSize 2 array def/setpagesize{ PageSize aload pop 3 index eq exch
4 index eq and{ pop pop pop}{ PageSize dup  1
5 -1 roll put 0 4 -1 roll put dup null eq {false} {dup where} ifelse{ exch get exec}
{ pop/setpagedevice where
{ pop 1 dict dup /PageSize PageSize put setpagedevice}
{ /setpage where{ pop PageSize aload pop pageparams 3 {exch pop} repeat
setpage}if}ifelse}ifelse}ifelse} bind def
/!{bind def}bind def/#{load def}!/N/counttomark #
/rG{3{3 -1 roll 255 div}repeat setrgbcolor}!/G{255 div setgray}!/K{0 G}!
/r6{dup 3 -1 roll rG}!/r5{dup 3 1 roll rG}!/r3{dup rG}!
/w/setlinewidth #/J/setlinecap #
/j/setlinejoin #/M/setmiterlimit #/d/setdash #/i/setflat #
/m/moveto #/l/lineto #/c/rcurveto #
/p{N 2 idiv{N -2 roll rlineto}repeat}!
/P{N 0 gt{N -2 roll moveto p}if}!
/h{p closepath}!/H{P closepath}!
/lx{0 rlineto}!/ly{0 exch rlineto}!/v{0 0 6 2 roll c}!/y{2 copy c}!
/re{4 -2 roll m exch dup lx exch ly neg lx h}!
/^{3 index neg 3 index neg}!
/f{P fill}!/f*{P eofill}!/s{H stroke}!/S{P stroke}!
/q/gsave #/Q/grestore #/rf{re fill}!
/Y{P clip newpath}!/Y*{P eoclip newpath}!/rY{re Y}!
/|={pop exch 4 1 roll 1 array astore cvx 3 array astore cvx exch 1 index def exec}!
/|{exch string readstring |=}!
/+{dup type/nametype eq{2 index 7 add -3 bitshift 2 index mul}if}!
/@/currentfile #/${+ @ |}!
/B{{2 copy string{readstring pop}aload pop 4 array astore cvx
3 1 roll}repeat pop pop true}!
/Ix{[1 0 0 1 11 -2 roll exch neg exch neg]exch}!
/,{true exch Ix imagemask}!/If{false exch Ix imagemask}!/I{exch Ix image}!
/Ic{exch Ix false 3 colorimage}!
/F{/Columns counttomark 3 add -2 roll/Rows exch/K -1/BlackIs1 true>>
/CCITTFaxDecode filter}!/FX{<</EndOfBlock false F}!
/X{/ASCII85Decode filter}!/@X{@ X}!/&2{2 index 2 index}!
/@F{@ &2<<F}!/@C{@X &2 FX}!
/$X{+ @X |}!/&4{4 index 4 index}!/$F{+ @ &4<<F |}!/$C{+ @X &4 FX |}!
/IC{3 1 roll 10 dict begin 1{/ImageType/Interpolate/Decode/DataSource
/ImageMatrix/BitsPerComponent/Height/Width}{exch def}forall
currentdict end image}!
/~{@ read {pop} if}!
end def
%%EndResource
/pagesave null def
%%EndProlog
%%Page: 1 1
%%BeginPageSetup
GS_epswrite_2_0_1001 begin
/pagesave save store 197 dict begin
0.1 0.1 scale
%%EndPageSetup
gsave mark
Q q
0 0 250000 250000 re
Y
5 w
K
806 620 31.5 0 P
3290 620 -31.5 0 P
770 620 S
733 599 34 44 /3U
$C
23%r'%\5X)j2)<u^Zk'1J,ZoQs8W-!s8VJ_s8Qk\g>99H(eYmM:r7r$~>
,
806 673 31.5 0 P
3290 673 -31.5 0 P
770 673 S
699 653 34 43 /6U
$C
4;jd(Qp5fN^"]dYfPna4iOE=NL>hOS^UAOiqu,+3CMbUV[OTh+@7(A~>
,
733 652 3U ,
806 725.5 31.5 0 P
3290 725.5 -31.5 0 P
770 725.5 S
699 706 35 43 /3Y
$C
.M)RZs3Cmfr0V$lmIpMQmIpMQmJH;FpY5/kn_X9>^V/P~>
,
733 705 3U ,
806 778.5 31.5 0 P
3290 778.5 -31.5 0 P
770 778.5 S
699 758 35 44 /6Y
$C
22__[-UH4U05uPcT2!a`He7T^qXqU=['7F,Z=C&h$n`Au*WOE]DtUNIgIhr,MR@1;L'd~>
,
733 758 3U ,
806 831 31.5 0 P
3290 831 -31.5 0 P
770 831 S
699 810 35 44 /4C
$C
2$jBqS07(D'Aa:H#WJZ`e,TIHX4Gk>$!:Ud'l"Rbl-UTa#WJZ`l2Ue`CO4^e@4ZT(6OF59~>
,
733 810 3U ,
806 884 31.5 0 P
3290 884 -31.5 0 P
770 884 S
674 864 17 43 /7C
$C
,Tm'ds8W-!s-F.@R>;m@If~>
,
699 863 3U ,
733 863 3U ,
806 937 31.5 0 P
3290 937 -31.5 0 P
770 937 S
674 917 7C ,
699 917 6U ,
733 916 3U ,
806 989.5 31.5 0 P
3290 989.5 -31.5 0 P
770 989.5 S
674 970 7C ,
699 970 3Y ,
733 969 3U ,
806 1042.5 31.5 0 P
3290 1042.5 -31.5 0 P
770 1042.5 S
674 1023 7C ,
699 1022 6Y ,
733 1022 3U ,
806 1095 31.5 0 P
3290 1095 -31.5 0 P
770 1095 S
674 1075 7C ,
699 1074 4C ,
733 1074 3U ,
806 1148 31.5 0 P
3290 1148 -31.5 0 P
770 1148 S
666 1128 6U ,
699 1127 3U ,
733 1127 3U ,
805 620 0 31.5 P
805 1148 0 -31.5 P
805 560 S
793 539 3U ,
1053.5 620 0 31.5 P
1053.5 1148 0 -31.5 P
1053.5 560 S
1008 539 35 44 /4G
$C
2%'Ns&9R0a'Aa:<PNfbDGdm_=;rkC=Bjl_7CKWS'fO25hs7ZK6."D-0~>
,
1041 539 3U ,
1075 539 3U ,
1302 620 0 31.5 P
1302 1148 0 -31.5 P
1302 560 S
1248 540 7C ,
1273 539 3U ,
1306 539 3U ,
1340 539 3U ,
1550.5 620 0 31.5 P
1550.5 1148 0 -31.5 P
1550.5 560 S
1496 540 7C ,
1521 539 4G ,
1555 539 3U ,
1588 539 3U ,
1799 620 0 31.5 P
1799 1148 0 -31.5 P
1799 560 S
1737 540 6U ,
1770 539 3U ,
1803 539 3U ,
1837 539 3U ,
2047.5 620 0 31.5 P
2047.5 1148 0 -31.5 P
2047.5 560 S
1985 540 6U ,
2018 539 4G ,
2052 539 3U ,
2085 539 3U ,
2296 620 0 31.5 P
2296 1148 0 -31.5 P
2296 560 S
2234 539 34 44 /7G
$C
3f*tLK;VJ#ZZne#2lEeH?]XK;@:la`Yct@m+Q2(jDLDKapAVZrg>Sl<[;*R2"T~>
,
2267 539 3U ,
2300 539 3U ,
2334 539 3U ,
2544.5 620 0 31.5 P
2544.5 1148 0 -31.5 P
2544.5 560 S
2482 539 7G ,
2515 539 4G ,
2549 539 3U ,
2582 539 3U ,
2793 620 0 31.5 P
2793 1148 0 -31.5 P
2793 560 S
2731 540 3Y ,
2764 539 3U ,
2797 539 3U ,
2831 539 3U ,
3041.5 620 0 31.5 P
3041.5 1148 0 -31.5 P
3041.5 560 S
2979 540 3Y ,
3012 539 4G ,
3046 539 3U ,
3079 539 3U ,
3290 620 0 31.5 P
3290 1148 0 -31.5 P
3290 560 S
3228 539 4G ,
3261 539 3U ,
3294 539 3U ,
3328 539 3U ,
806 620 2484 528 re
S
2.5 w
808 717.5 0.5 8 0.5 37 0.5 0 0.5 -10.5 0.5 39.5 0.5 -29 0.5 21 
0.5 5.5 0.5 2.5 0.5 -2.5 0.5 -18.5 0.5 0 0.5 -10.5 0.5 -8 0.5 -2.5 
0.5 44.5 0.5 8 0.5 -42 0.5 -10.5 0.5 15.5 0.5 18.5 0.5 0 0.5 10.5 
0.5 3 0.5 8 0.5 -3 0.5 -2.5 0.5 -10.5 0.5 -8 0.5 2.5 0.5 -10.5 
0.5 8 0.5 16 0.5 -8 0.5 29 0.5 -34.5 0.5 -15.5 0.5 -16 0.5 8 
0.5 -2.5 0.5 13 0.5 -5.5 0.5 11 0.5 0 0.5 -16 0.5 -10.5 0.5 42 
0.5 -5 0.5 -5.5 0.5 0 0.5 -2.5 0.5 -39.5 0.5 -8 0.5 18.5 0.5 -5.5 
0.5 18.5 0.5 0 0.5 5.5 0.5 2.5 0.5 0 0.5 -10.5 0.5 -8 0.5 0 
0.5 -18.5 0.5 66 0.5 2.5 0.5 8 0.5 5.5 0.5 5 0.5 -52.5 0.5 5 
0.5 -13 0.5 0 0.5 10.5 0.5 0 0.5 0 0.5 21 0.5 16 0.5 0 
0 2.5 0.5 2.5 0.5 -31.5 0.5 -13 0.5 5 0.5 -10.5 0.5 -8 0.5 -2.5 
0.5 13 0.5 -13 0.5 -2.5 0.5 -5.5 0.5 16 0.5 34 0.5 -5 0.5 42 
0.5 3 0.5 0 0.5 -47.5 0.5 5 0.5 -29 0.5 63.5 0.5 -2.5 0.5 -13.5 
0.5 5.5 S
859.5 815.5 0.5 -21.5 0.5 -2.5 0.5 0 0.5 -23.5 0.5 8 0.5 15.5 0.5 2.5 
0.5 -31.5 0.5 -10.5 0.5 10.5 0.5 -18.5 0.5 21 0.5 8 0.5 -10.5 0.5 66 
0.5 8 0.5 2.5 0.5 -18.5 0.5 -52.5 0.5 -16 0.5 -2.5 0.5 5 0.5 -2.5 
0.5 -8 0.5 10.5 0.5 -5 0.5 26.5 0.5 -5.5 0.5 -2.5 0.5 -3 0.5 -13 
0.5 -13 0.5 5 0.5 2.5 0.5 16 0.5 21 0.5 -2.5 0.5 -10.5 0.5 -16 
0.5 26.5 0.5 -18.5 0.5 -13 0.5 -5.5 0.5 16 0.5 42 0.5 -55.5 0.5 -5 
0.5 8 0.5 -3 0.5 0 0.5 -7.5 0.5 2.5 0.5 37 0.5 -2.5 0.5 2.5 
0.5 -5.5 0.5 10.5 0.5 -13 0.5 18.5 0.5 2.5 0.5 -15.5 0.5 -8 0.5 -29 
0.5 10.5 0.5 50 0.5 -10.5 0.5 -5.5 0.5 -5 0.5 -24 0.5 47.5 0.5 0 
0.5 5.5 0.5 23.5 0.5 -5 0.5 -37 0.5 -5.5 0.5 -15.5 0.5 13 0.5 16 
0.5 -16 0.5 18.5 0.5 16 0.5 -13.5 0.5 8 0.5 39.5 0.5 -23.5 0.5 8 
0.5 -32 0.5 24 0.5 -5.5 0.5 -5 0.5 -10.5 0.5 -8 0.5 -8 0.5 23.5 
0.5 3 0.5 -55.5 0.5 47.5 0.5 -16 0.5 16 0.5 -21 0.5 5 0.5 -8 
0.5 21.5 S
911.5 805 0.5 -3 0.5 -5 0.5 10.5 0.5 0 0.5 -24 0.5 29 0.5 8 
0.5 -21 0.5 42.5 0.5 10.5 0.5 7.5 0.5 -18 0.5 -18.5 0.5 -45 0.5 18.5 
0.5 8 0.5 -11 0.5 5.5 0.5 2.5 0.5 -26 0.5 5 0.5 -8 0.5 37 
0.5 -37 0.5 16 0.5 34.5 0.5 -11 0.5 3 0.5 -50.5 0.5 11 0.5 2.5 
0.5 8 0.5 0 0.5 -16 0.5 18.5 0.5 -31.5 0.5 -13.5 0 21 0.5 0 
0.5 18.5 0.5 5.5 0.5 -5.5 0.5 8 0.5 74 0.5 10.5 0.5 -71 0.5 5 
0.5 32 0.5 2.5 0.5 -8 0.5 18.5 0.5 -10.5 0.5 -32 0.5 -7.5 0.5 -21.5 
0.5 -13 0.5 2.5 0.5 -21 0.5 -2.5 0.5 10.5 0.5 -16 0.5 8 0.5 18.5 
0.5 31.5 0.5 -10.5 0.5 2.5 0.5 3 0.5 -21 0.5 -3 0.5 -2.5 0.5 -21 
0.5 10.5 0.5 10.5 0.5 -5.5 0.5 26.5 0.5 -15.5 0.5 13 0.5 -37 0.5 0 
0.5 -8 0.5 21 0.5 71.5 0.5 37 0.5 -5.5 0.5 3 0.5 -53 0.5 -13 
0.5 0 0.5 -16 0.5 -5.5 0.5 -2.5 0.5 -8 0.5 -10.5 0.5 10.5 0.5 3 
0.5 0 0.5 -16 0.5 16 0.5 15.5 0.5 -13 0.5 18.5 0.5 0 0.5 -13.5 
0.5 -7.5 S
963 776 0.5 -13.5 0.5 -18.5 0.5 34.5 0.5 23.5 0.5 -42 0.5 87 0.5 -10.5 
0.5 -18.5 0.5 5.5 0.5 31.5 0.5 -79 0.5 -18.5 0.5 -5.5 0.5 21 0.5 -29 
0.5 34.5 0.5 -5.5 0.5 16 0.5 5 0.5 -36.5 0.5 50 0.5 -37 0.5 34.5 
0.5 10.5 0.5 -3 0.5 8 0.5 55.5 0.5 0 0.5 2.5 0.5 16 0.5 -10.5 
0.5 -47.5 0.5 -18.5 0.5 -8 0.5 -21 0.5 -18.5 0.5 -13 0.5 13 0.5 18.5 
0.5 87 0.5 24 0.5 10.5 0.5 -8 0.5 -2.5 0.5 -63.5 0.5 -37 0.5 -13 
0.5 -16 0.5 42 0.5 -26 0.5 7.5 0.5 -26 0.5 10.5 0.5 -29 0.5 2.5 
0.5 42 0.5 50.5 0.5 5 0.5 -2.5 0.5 -10.5 0.5 0 0.5 -34.5 0.5 -2.5 
0.5 -18.5 0.5 0 0.5 -5 0.5 10.5 0.5 5 0.5 45 0.5 -29 0.5 -2.5 
0.5 -50.5 0.5 29 0.5 -23.5 0.5 -10.5 0.5 15.5 0.5 5.5 0.5 -2.5 0.5 -8 
0.5 -5.5 0.5 -37 0.5 18.5 0.5 10.5 0.5 16 0.5 -13 0.5 -10.5 0.5 10.5 
0.5 -5.5 0.5 10.5 0.5 16 0.5 18.5 0.5 -8 0.5 13 0.5 0 0.5 -29 
0.5 0 0.5 40 0.5 -13.5 0.5 37 0.5 0 0 -10.5 0.5 -42 0.5 13 
0.5 5 S
1014.5 794 0.5 -7.5 0.5 0 0.5 5 0.5 37 0.5 -2.5 0.5 -45 0.5 -16 
0.5 -18.5 0.5 16 0.5 -21 0.5 0 0.5 -10.5 0.5 8 0.5 7.5 0.5 18.5 
0.5 11 0.5 0 0.5 -11 0.5 -5 0.5 -10.5 0.5 -5.5 0.5 8 0.5 34.5 
0.5 2.5 0.5 -10.5 0.5 50 0.5 -29 0.5 2.5 0.5 -2.5 0.5 21 0.5 -55.5 
0.5 -2.5 0.5 -8 0.5 13.5 0.5 23.5 0.5 -31.5 0.5 -8 0.5 13 0.5 8 
0.5 0 0.5 -10.5 0.5 -5 0.5 31.5 0.5 2.5 0.5 10.5 0.5 -13 0.5 -13 
0.5 -21.5 0.5 18.5 0.5 0 0.5 -18.5 0.5 8 0.5 -16 0.5 -2.5 0.5 8 
0.5 -13 0.5 39.5 0.5 60.5 0.5 3 0.5 2.5 0.5 8 0.5 -69 0.5 3 
0.5 10.5 0.5 5 0.5 -5 0.5 -42.5 0.5 39.5 0.5 -13 0.5 -2.5 0.5 10.5 
0.5 -8 0.5 -5 0.5 13 0.5 -8 0.5 -8 0.5 -13 0.5 29 0.5 0 
0.5 34.5 0.5 2.5 0.5 -8 0.5 -8 0.5 13.5 0.5 -29.5 0.5 26.5 0.5 -21 
0.5 -16 0.5 -5 0.5 15.5 0.5 11 0.5 -16 0.5 8 0.5 -8 0.5 -37 
0.5 -8 0.5 53 0.5 -39.5 0.5 0 0.5 -8 0.5 15.5 0.5 -7.5 0.5 7.5 
0.5 5.5 S
1066.5 770.5 0.5 -2.5 0.5 15.5 0.5 -10.5 0.5 13.5 0.5 44.5 0.5 5.5 0.5 -5.5 
0.5 13.5 0.5 -2.5 0.5 -58.5 0.5 5.5 0.5 13 0.5 3 0.5 -5.5 0.5 2.5 
0.5 0 0.5 -10.5 0.5 -8 0.5 13.5 0.5 -13.5 0.5 16 0.5 -29 0.5 -18.5 
0.5 0 0.5 -2.5 0.5 -24 0.5 16 0.5 2.5 0.5 5.5 0.5 2.5 0.5 37 
0.5 2.5 0.5 26.5 0.5 -10.5 0.5 5 0.5 -55 0.5 -3 0.5 10.5 0.5 0 
0.5 -2.5 0.5 -16 0.5 -7.5 0.5 34 0.5 8 0.5 5.5 0.5 5 0.5 90 
0.5 -3 0.5 -31.5 0.5 -5 0.5 -21.5 0.5 -63 0.5 5 0.5 26.5 0.5 -5.5 
0.5 3 0.5 0 0.5 2.5 0.5 -10.5 0 2.5 0.5 13 0.5 -36.5 0.5 -3 
0.5 5.5 0.5 45 0.5 -40 0.5 5.5 0.5 13 0.5 -15.5 0.5 0 0.5 5 
0.5 -10.5 0.5 -16 0.5 16 0.5 18.5 0.5 -29 0.5 -10.5 0.5 31.5 0.5 -2.5 
0.5 13 0.5 3 0.5 34 0.5 -2.5 0.5 16 0.5 -26.5 0.5 8 0.5 -58 
0.5 60.5 0.5 -34.5 0.5 -2.5 0.5 -5 0.5 18 0.5 -31.5 0.5 -16 0.5 34.5 
0.5 2.5 0.5 -21 0.5 8 0.5 -13 0.5 0 0.5 -3 0.5 -5 0.5 15.5 
0.5 -10.5 S
1118 754.5 0.5 55.5 0.5 2.5 0.5 -7.5 0.5 29 0.5 -13.5 0.5 -44.5 0.5 -3 
0.5 -15.5 0.5 -5.5 0.5 8 0.5 -2.5 0.5 -5.5 0.5 16 0.5 13 0.5 -26.5 
0.5 37 0.5 0 0.5 8 0.5 -2.5 0.5 47.5 0.5 -2.5 0.5 -5.5 0.5 -26.5 
0.5 -13 0.5 23.5 0.5 26.5 0.5 -2.5 0.5 -39.5 0.5 5 0.5 -55.5 0.5 16 
0.5 -2.5 0.5 -8 0.5 -8 0.5 -16 0.5 -10.5 0.5 8 0.5 -13 0.5 13 
0.5 2.5 0.5 21.5 0.5 10.5 0.5 -10.5 0.5 -5.5 0.5 42 0.5 -18 0.5 0 
0.5 50 0.5 26.5 0.5 -13.5 0.5 16 0.5 13 0.5 -29 0.5 -47.5 0.5 -8 
0.5 5.5 0.5 -8 0.5 -10.5 0.5 2.5 0.5 13.5 0.5 -10.5 0.5 23.5 0.5 -5.5 
0.5 -52.5 0.5 0 0.5 10.5 0.5 16 0.5 -3 0.5 53 0.5 2.5 0.5 16 
0.5 8 0.5 -58 0.5 -3 0.5 13.5 0.5 -24 0.5 16 0.5 -10.5 0.5 -8 
0.5 16 0.5 -24 0.5 -18.5 0.5 2.5 0.5 -2.5 0.5 8 0.5 -8 0.5 24 
0.5 -13.5 0.5 -8 0.5 5.5 0.5 10.5 0.5 -10.5 0.5 0 0.5 31.5 0.5 0 
0.5 3 0.5 7.5 0.5 -5 0.5 -10.5 0.5 8 0.5 2.5 0.5 -37 0.5 0 
0.5 -5.5 S
1170 746.5 0.5 -5 0.5 21 0.5 47.5 0.5 -23.5 0.5 29 0.5 10.5 0.5 0 
0.5 -66 0.5 2.5 0.5 2.5 0.5 40 0.5 -8 0.5 -18.5 0.5 2.5 0.5 8 
0.5 21 0.5 -39.5 0 53 0.5 -3 0.5 5.5 0.5 0 0.5 -32 0.5 -5 
0.5 -16 0.5 -10.5 0.5 5.5 0.5 -5.5 0.5 5.5 0.5 2.5 0.5 2.5 0.5 8 
0.5 -2.5 0.5 5 0.5 -37 0.5 -13 0.5 -5.5 0.5 37 0.5 -31.5 0.5 34.5 
0.5 -10.5 0.5 0 0.5 7.5 0.5 0 0.5 3 0.5 10.5 0.5 60.5 0.5 3 
0.5 -3 0.5 3 0.5 10.5 0.5 -18.5 0.5 -16 0.5 10.5 0.5 -52.5 0.5 7.5 
0.5 -21 0.5 -13 0.5 -3 0.5 -7.5 0.5 23.5 0.5 8 0.5 10.5 0.5 2.5 
0.5 -2.5 0.5 -13 0.5 5 0.5 47.5 0.5 -21 0.5 16 0.5 -3 0.5 8 
0.5 -37 0.5 -7.5 0.5 39.5 0.5 -3 0.5 8 0.5 -37 0.5 5.5 0.5 -24 
0.5 -13 0.5 45 0.5 -29 0.5 0 0.5 -8 0.5 2.5 0.5 -16 0.5 5.5 
0.5 5.5 0.5 -8 0.5 42 0.5 2.5 0.5 3 0.5 -8 0.5 5 0.5 0 
0.5 8 0.5 -10.5 0.5 -21 0.5 -2.5 0.5 21 0.5 -2.5 0.5 5 0.5 -34 
0.5 15.5 S
1221.5 773 0.5 -15.5 0.5 -18.5 0.5 2.5 0.5 50 0.5 5.5 0.5 18.5 0.5 -8 
0.5 -8 0.5 -55.5 0.5 0 0.5 -2.5 0.5 10.5 0.5 -5.5 0.5 8 0.5 21.5 
0.5 58 0.5 -5.5 0.5 -18.5 0.5 -18.5 0.5 -10.5 0.5 -29 0.5 5.5 0.5 -16 
0.5 -13.5 0.5 16 0.5 2.5 0.5 13.5 0.5 21 0.5 -13 0.5 0 0.5 -3 
0.5 -2.5 0.5 -8 0.5 -2.5 0.5 18.5 0.5 -13 0.5 10.5 0.5 0 0.5 26 
0.5 37 0.5 3 0.5 -34.5 0.5 0 0.5 -10.5 0.5 -42.5 0.5 -10.5 0.5 10.5 
0.5 5.5 0.5 13 0.5 -23.5 0.5 26.5 0.5 -3 0.5 -10.5 0.5 0 0.5 3 
0.5 -24 0.5 13 0.5 0 0.5 -13 0.5 21 0.5 3 0.5 -8 0.5 -3 
0.5 21.5 0.5 -5.5 0.5 5.5 0.5 -5.5 0.5 5.5 0.5 5 0.5 5.5 0.5 -5.5 
0.5 -2.5 0.5 2.5 0.5 10.5 0.5 -7.5 0.5 -29.5 0.5 5.5 0.5 -5.5 0.5 11 
0.5 -5.5 0 -2.5 0.5 10.5 0.5 13 0.5 47.5 0.5 32 0.5 -84.5 0.5 8 
0.5 2.5 0.5 21 0.5 16 0.5 -8 0.5 -24 0.5 -13 0.5 2.5 0.5 3 
0.5 2.5 0.5 18.5 0.5 29 0.5 -32 0.5 11 0.5 -13.5 0.5 8 0.5 -31.5 
0.5 10.5 S
1273 778.5 0.5 -24 0.5 26.5 0.5 -8 0.5 -5 0.5 -5.5 0.5 -21 0.5 2.5 
0.5 0 0.5 10.5 0.5 -18.5 0.5 10.5 0.5 29.5 0.5 -8 0.5 42 0.5 21 
0.5 3 0.5 0 0.5 15.5 0.5 -68.5 0.5 -8 0.5 -5 0.5 10.5 0.5 8 
0.5 60.5 0.5 0 0.5 0 0.5 -10.5 0.5 2.5 0.5 -13 0.5 -58 0.5 -3 
0.5 -10.5 0.5 3 0.5 2.5 0.5 -13.5 0.5 13.5 0.5 -13.5 0.5 0 0.5 -10.5 
0.5 -8 0.5 -2.5 0.5 29 0.5 5.5 0.5 2.5 0.5 0 0.5 -16 0.5 -7.5 
0.5 -3 0.5 0 0.5 0 0.5 34.5 0.5 13 0.5 3 0.5 15.5 0.5 -2.5 
0.5 -39.5 0.5 -13.5 0.5 -5 0.5 0 0.5 2.5 0.5 10.5 0.5 -2.5 0.5 5.5 
0.5 0 0.5 -8 0.5 5 0.5 13.5 0.5 10.5 0.5 -24 0.5 0 0.5 3 
0.5 -8 0.5 15.5 0.5 -21 0.5 0 0.5 0 0.5 -2.5 0.5 2.5 0.5 -2.5 
0.5 5 0.5 11 0.5 -5.5 0.5 5.5 0.5 -5.5 0.5 39.5 0.5 -2.5 0.5 -2.5 
0.5 0 0.5 -13.5 0.5 -31.5 0.5 2.5 0.5 8 0.5 -5.5 0.5 0 0.5 5.5 
0.5 8 0.5 -10.5 0.5 -5.5 0.5 -8 0.5 3 0.5 0 0.5 -3 0.5 0 
0.5 13.5 S
1325 749.5 0.5 29 0.5 -29 0.5 -3 0.5 5.5 0.5 -5.5 0.5 -13 0.5 0 
0.5 2.5 0.5 -5 0.5 13 0.5 32 0.5 5 0.5 -16 0.5 -7.5 0.5 5 
0.5 -23.5 0.5 15.5 0.5 -23.5 0.5 21 0.5 -2.5 0.5 -8 0.5 0 0.5 -2.5 
0.5 -42.5 0.5 -21 0.5 5 0.5 -2.5 0.5 -8 0.5 3 0.5 2.5 0.5 -2.5 
0.5 2.5 0.5 2.5 0.5 -5 0.5 37 0.5 26 0.5 -2.5 0.5 -2.5 0 -5.5 
0.5 -39.5 0.5 -2.5 0.5 2.5 0.5 -5.5 0.5 24 0.5 -5.5 0.5 -2.5 0.5 0 
0.5 -5 0.5 -11 0.5 0 0.5 -5 0.5 13 0.5 -10.5 0.5 18.5 0.5 8 
0.5 -8 0.5 -8 0.5 0 0.5 0 0.5 -8 0.5 13.5 0.5 8 0.5 31.5 
0.5 -16 0.5 0 0.5 -5 0.5 2.5 0.5 -13 0.5 -8 0.5 -16 0.5 8 
0.5 0 0.5 -5.5 0.5 0 0.5 -10.5 0.5 8 0.5 0 0.5 16 0.5 10.5 
0.5 -13 0.5 -13.5 0.5 -2.5 0.5 2.5 0.5 -2.5 0.5 37 0.5 -16 0.5 2.5 
0.5 -2.5 0.5 -5 0.5 -11 0.5 -2.5 0.5 -2.5 0.5 5 0.5 -10.5 0.5 -5 
0.5 10.5 0.5 2.5 0.5 5.5 0.5 0 0.5 50 0.5 -13 0.5 -8 0.5 0 
0.5 8 S
1376.5 720.5 0.5 -34.5 0.5 2.5 0.5 0 0.5 -5 0.5 -10.5 0.5 18.5 0.5 2.5 
0.5 0 0.5 -8 0.5 -5.5 0.5 -2.5 0.5 -2.5 0.5 0 0.5 2.5 0.5 10.5 
0.5 0 0.5 8 0.5 -16 0.5 26.5 0.5 13.5 0.5 15.5 0.5 -8 0.5 -21 
0.5 -31.5 0.5 0 0.5 5 0.5 0 0.5 5.5 0.5 13 0.5 -13 0.5 10.5 
0.5 -5 0.5 2.5 0.5 21 0.5 2.5 0.5 5.5 0.5 8 0.5 -16 0.5 2.5 
0.5 -2.5 0.5 0 0.5 -13 0.5 -3 0.5 -5 0.5 0 0.5 -8 0.5 0 
0.5 -2.5 0.5 2.5 0.5 -5.5 0.5 -2.5 0.5 2.5 0.5 11 0.5 -5.5 0.5 0 
0.5 -8 0.5 -2.5 0.5 5 0.5 -13 0.5 5.5 0.5 0 0.5 0 0.5 0 
0.5 29 0.5 -10.5 0.5 -5.5 0.5 -5.5 0.5 13.5 0.5 -21 0.5 0 0.5 0 
0.5 7.5 0.5 8 0.5 0 0.5 -5 0.5 2.5 0.5 0 0.5 -2.5 0.5 -3 
0.5 13.5 0.5 -10.5 0.5 -3 0.5 -2.5 0.5 0 0.5 -2.5 0.5 13 0.5 -2.5 
0.5 0 0.5 0 0.5 -2.5 0.5 -3 0.5 3 0.5 -5.5 0.5 0 0.5 5.5 
0.5 8 0.5 -5.5 0.5 26.5 0.5 0 0.5 -10.5 0.5 -3 0.5 -10.5 0.5 10.5 
0.5 -2.5 S
1428.5 696.5 0.5 18.5 0.5 -21 0.5 -2.5 0.5 23.5 0.5 -2.5 0.5 0 0.5 -8 
0.5 10.5 0.5 -42 0.5 10.5 0.5 -5.5 0.5 -5 0.5 10.5 0.5 2.5 0.5 -10.5 
0.5 0 0.5 0 0.5 0 0.5 0 0.5 2.5 0.5 -8 0.5 18.5 0.5 -23.5 
0.5 8 0.5 -5.5 0.5 2.5 0.5 -2.5 0.5 13 0.5 18.5 0.5 29 0.5 0 
0.5 -15.5 0.5 -2.5 0.5 -32 0.5 8 0.5 -16 0.5 16 0.5 8 0.5 -2.5 
0.5 5 0.5 13.5 0.5 0 0.5 -3 0.5 -13 0.5 -10.5 0.5 8 0.5 -3 
0.5 -5 0.5 -5.5 0.5 -2.5 0.5 -2.5 0.5 -5.5 0.5 0 0.5 0 0.5 10.5 
0.5 16 0.5 18.5 0.5 -5.5 0.5 -2.5 0.5 -13 0.5 -16 0.5 2.5 0.5 8 
0.5 -2.5 0.5 -3 0.5 11 0.5 10.5 0.5 -21.5 0.5 0 0.5 5.5 0.5 -10.5 
0.5 -2.5 0.5 21 0.5 0 0.5 5 0.5 0 0.5 -7.5 0.5 -3 0.5 3 
0.5 -5.5 0.5 -10.5 0.5 8 0.5 -3 0.5 0 0.5 -5 0.5 29 0.5 8 
0.5 8 0.5 -3 0.5 5.5 0.5 -29 0.5 13 0.5 -10.5 0.5 -2.5 0.5 -5.5 
0.5 10.5 0.5 3 0.5 37 0.5 -16 0.5 8 0.5 -8 0.5 -8 0.5 -34.5 
0.5 -5 S
1480.5 675.5 0.5 -8 0.5 8 0.5 2.5 0.5 -8 0.5 0 0.5 8 0.5 5.5 
0.5 21 0.5 -5.5 0.5 0 0.5 -2.5 0.5 -13 0.5 -5.5 0.5 8 0.5 16 
0.5 -3 0.5 16 0.5 16 0.5 -10.5 0.5 -29 0.5 7.5 0.5 -7.5 0.5 5 
0.5 -23.5 0.5 -5.5 0.5 2.5 0.5 0 0.5 10.5 0.5 8 0.5 8 0.5 -18.5 
0.5 2.5 0.5 3 0.5 0 0.5 0 0.5 -3 0.5 -7.5 0.5 -8 0.5 13 
0.5 0 0.5 -2.5 0.5 -2.5 0.5 -11 0.5 -5 0.5 8 0.5 -3 0.5 16 
0.5 8 0.5 5.5 0.5 10.5 0.5 -21.5 0.5 40 0.5 -13.5 0.5 3 0.5 -8 
0.5 -10.5 0.5 -21.5 0.5 -5 0.5 10.5 0 -2.5 0.5 10.5 0.5 10.5 0.5 -18.5 
0.5 26.5 0.5 0 0.5 15.5 0.5 -5 0.5 -26.5 0.5 -16 0.5 0 0.5 3 
0.5 10.5 0.5 0 0.5 8 0.5 5 0.5 0 0.5 -5 0.5 5 0.5 -8 
0.5 -2.5 0.5 -5.5 0.5 13.5 0.5 -18.5 0.5 18.5 0.5 0 0.5 -18.5 0.5 26.5 
0.5 -3 0.5 3 0.5 0 0.5 21 0.5 -5.5 0.5 24 0.5 -8 0.5 -31.5 
0.5 -5.5 0.5 -8 0.5 0 0.5 10.5 0.5 -7.5 0.5 5 0.5 -2.5 0.5 -5.5 
0.5 -8 S
1532 680.5 0.5 -10.5 0.5 16 0.5 -8 0.5 -5 0.5 2.5 0.5 0 0.5 -8 
0.5 -2.5 0.5 0 0.5 18.5 0.5 0 0.5 8 0.5 0 0.5 -5.5 0.5 16 
0.5 -3 0.5 -2.5 0.5 10.5 0.5 5.5 0.5 -24 0.5 0 0.5 5.5 0.5 -2.5 
0.5 -5.5 0.5 -5.5 0.5 0 0.5 -2.5 0.5 2.5 0.5 18.5 0.5 -5 0.5 -13.5 
0.5 -2.5 0.5 -2.5 0.5 13 0.5 -15.5 0.5 2.5 0.5 10.5 0.5 -2.5 0.5 -3 
0.5 8 0.5 -5 0.5 -8 0.5 5 0.5 3 0.5 -5.5 0.5 -5 0.5 -5.5 
0.5 0 0.5 -2.5 0.5 2.5 0.5 5.5 0.5 -5.5 0.5 5.5 0.5 13 0.5 2.5 
0.5 34.5 0.5 0 0.5 8 0.5 10.5 0.5 -2.5 0.5 -32 0.5 -18.5 0.5 -5 
0.5 -10.5 0.5 -5.5 0.5 -2.5 0.5 5 0.5 -5 0.5 -3 0.5 5.5 0.5 0 
0.5 -5.5 0.5 8 0.5 0 0.5 3 0.5 -11 0.5 5.5 0.5 -2.5 0.5 0 
0.5 10.5 0.5 -2.5 0.5 -8 0.5 0 0.5 -5.5 0.5 0 0.5 8 0.5 0 
0.5 8 0.5 -5.5 0.5 8 0.5 10.5 0.5 3 0.5 0 0.5 7.5 0.5 -29 
0.5 0 0.5 0 0.5 0 0.5 5.5 0.5 2.5 0.5 -8 0.5 -2.5 0.5 0 
0.5 8 S
1584 675.5 0.5 -2.5 0.5 0 0.5 29 0.5 0 0.5 -13.5 0.5 -2.5 0.5 24 
0.5 -37 0.5 7.5 0.5 5.5 0.5 -18.5 0.5 2.5 0.5 -2.5 0.5 0 0.5 2.5 
0.5 -5 0.5 5 0 10.5 0.5 -2.5 0.5 24 0.5 0 0.5 10.5 0.5 -13.5 
0.5 -10.5 0.5 -21 0.5 2.5 0.5 -2.5 0.5 -5.5 0.5 3 0.5 8 0.5 -11 
0.5 3 0.5 5 0.5 -2.5 0.5 0 0.5 -5.5 0.5 -5 0.5 5 0.5 8 
0.5 5.5 0.5 0 0.5 5 0.5 -2.5 0.5 2.5 0.5 0 0.5 0 0.5 -7.5 
0.5 2.5 0.5 -10.5 0.5 0 0.5 2.5 0.5 16 0.5 -3 0.5 11 0.5 13 
0.5 5.5 0.5 26 0.5 34.5 0.5 -58 0.5 -37 0.5 0 0.5 -2.5 0.5 -8 
0.5 10.5 0.5 5 0.5 11 0.5 -5.5 0.5 13 0.5 -13 0.5 0 0.5 -8 
0.5 -5 0.5 7.5 0.5 -2.5 0.5 -8 0.5 -5 0.5 8 0.5 5 0.5 -10.5 
0.5 0 0.5 26.5 0.5 -16 0.5 2.5 0.5 0 0.5 3 0.5 8 0.5 -3 
0.5 -13 0.5 -8 0.5 21 0.5 0 0.5 0 0.5 0 0.5 -5 0.5 -13.5 
0.5 0 0.5 29 0.5 11 0.5 31.5 0.5 10.5 0.5 5.5 0.5 -18.5 0.5 -21.5 
0.5 -5 S
1635.5 712.5 0.5 -10.5 0.5 -5.5 0.5 -16 0.5 13.5 0.5 2.5 0.5 -10.5 0.5 0 
0.5 0 0.5 -16 0.5 8 0.5 24 0.5 -5.5 0.5 8 0.5 26.5 0.5 15.5 
0.5 -2.5 0.5 -10.5 0.5 -5.5 0.5 -5 0.5 -31.5 0.5 5 0.5 5.5 0.5 0 
0.5 -8 0.5 5 0.5 -7.5 0.5 -26.5 0.5 0 0.5 5 0.5 5.5 0.5 2.5 
0.5 -2.5 0.5 -2.5 0.5 5 0.5 10.5 0.5 -2.5 0.5 -8 0.5 8 0.5 2.5 
0.5 0 0.5 -13 0.5 -2.5 0.5 0 0.5 2.5 0.5 5 0.5 13.5 0.5 -8 
0.5 2.5 0.5 -15.5 0.5 -8 0.5 0 0.5 2.5 0.5 0 0.5 5.5 0.5 -8 
0.5 0 0.5 15.5 0.5 0 0.5 13.5 0.5 10.5 0.5 10.5 0.5 -31.5 0.5 2.5 
0.5 10.5 0.5 37 0.5 2.5 0.5 3 0.5 23.5 0.5 0 0.5 -26.5 0.5 -8 
0.5 -10.5 0.5 -7.5 0.5 -11 0.5 16 0.5 -2.5 0.5 -5.5 0.5 -2.5 0.5 8 
0.5 -5.5 0 -10.5 0.5 -5 0.5 7.5 0.5 0 0.5 3 0.5 39.5 0.5 18.5 
0.5 -26.5 0.5 -16 0.5 0 0.5 -37 0.5 11 0.5 -13.5 0.5 -2.5 0.5 0 
0.5 5 0.5 -15.5 0.5 15.5 0.5 -2.5 0.5 2.5 0.5 -5 0.5 -2.5 0.5 -5.5 
0.5 5.5 S
1687 673 0.5 2.5 0.5 2.5 0.5 -2.5 0.5 21 0.5 5.5 0.5 -3 0.5 11 
0.5 10.5 0.5 -3 0.5 -42 0.5 -2.5 0.5 13 0.5 2.5 0.5 3 0.5 5 
0.5 -2.5 0.5 2.5 0.5 -8 0.5 -18.5 0.5 3 0.5 5 0.5 5.5 0.5 -8 
0.5 -5.5 0.5 0 0.5 5.5 0.5 5 0.5 -10.5 0.5 3 0.5 0 0.5 2.5 
0.5 2.5 0.5 -5 0.5 -3 0.5 5.5 0.5 -5.5 0.5 0 0.5 8 0.5 2.5 
0.5 5.5 0.5 -8 0.5 18.5 0.5 -2.5 0.5 -8 0.5 -5.5 0.5 -2.5 0.5 16 
0.5 -5.5 0.5 -5 0.5 5 0.5 -10.5 0.5 -10.5 0.5 34.5 0.5 0 0.5 -5.5 
0.5 -2.5 0.5 10.5 0.5 -29 0.5 0 0.5 -2.5 0.5 13 0.5 -8 0.5 -5 
0.5 2.5 0.5 -5.5 0.5 -2.5 0.5 8 0.5 -2.5 0.5 5 0.5 2.5 0.5 -2.5 
0.5 5.5 0.5 2.5 0.5 0 0.5 -2.5 0.5 5 0.5 0 0.5 -8 0.5 -2.5 
0.5 2.5 0.5 0 0.5 -2.5 0.5 26.5 0.5 5.5 0.5 2.5 0.5 -24 0.5 -2.5 
0.5 5.5 0.5 0 0.5 13 0.5 -18.5 0.5 -5.5 0.5 -2.5 0.5 0 0.5 -10.5 
0.5 0 0.5 0 0.5 0 0.5 2.5 0.5 8 0.5 13.5 0.5 -13.5 0.5 13.5 
0.5 -3 S
1739 688.5 0.5 18.5 0.5 0 0.5 -2.5 0.5 -29 0.5 -2.5 0.5 5 0.5 5.5 
0.5 5 0.5 -5 0.5 2.5 0.5 -2.5 0.5 0 0.5 -3 0.5 8 0.5 -5 
0.5 -5.5 0.5 -5 0.5 2.5 0.5 34.5 0.5 15.5 0.5 -39.5 0.5 18.5 0.5 5.5 
0.5 0 0.5 0 0.5 -8 0.5 -10.5 0.5 2.5 0.5 -2.5 0.5 7.5 0.5 8 
0.5 -26.5 0.5 -2.5 0.5 5.5 0.5 -8 0.5 0 0.5 0 0.5 0 0 -5.5 
0.5 8 0.5 8 0.5 -5.5 0.5 -2.5 0.5 -5 0.5 2.5 0.5 -8 0.5 8 
0.5 13 0.5 10.5 0.5 -13 0.5 21 0.5 13.5 0.5 -8 0.5 8 0.5 -13.5 
0.5 -18.5 0.5 -5 0.5 26.5 0.5 -26.5 0.5 5 0.5 16 0.5 -24 0.5 -2.5 
0.5 0 0.5 0 0.5 0 0.5 0 0.5 -2.5 0.5 2.5 0.5 2.5 0.5 3 
0.5 23.5 0.5 -8 0.5 -2.5 0.5 0 0.5 -5 0.5 0 0.5 0 0.5 -18.5 
0.5 15.5 0.5 5.5 0.5 0 0.5 -13.5 0.5 11 0.5 2.5 0.5 -2.5 0.5 -8 
0.5 0 0.5 0 0.5 -3 0.5 3 0.5 26.5 0.5 18 0.5 -7.5 0.5 7.5 
0.5 -5 0.5 5 0.5 -2.5 0.5 5.5 0.5 -32 0.5 3 0.5 -18.5 0.5 8 
0.5 2.5 S
1790.5 694 0.5 5 0.5 -10.5 0.5 13.5 0.5 -3 0.5 -18.5 0.5 3 0.5 8 
0.5 -8 0.5 5 0.5 10.5 0.5 -23.5 0.5 0 0.5 -8 0.5 -2.5 0.5 8 
0.5 -3 0.5 3 0.5 7.5 0.5 -10.5 0.5 8 0.5 5.5 0.5 -3 0.5 5.5 
0.5 -5.5 0.5 -2.5 0.5 396 0.5 61 0.5 2.5 0.5 -8 0.5 8 0.5 -2.5 
0.5 -459.5 0.5 -2.5 0.5 0 0.5 0 0.5 0 0.5 2.5 0.5 -5.5 0.5 -2.5 
0.5 2.5 0.5 5.5 0.5 0 0.5 -2.5 0.5 -3 0.5 3 0.5 18.5 0.5 -3 
0.5 -2.5 0.5 -5.5 0.5 -2.5 0.5 -10.5 0.5 2.5 0.5 8 0.5 0 0.5 0 
0.5 -5 0.5 13 0.5 -5.5 0.5 5.5 0.5 -2.5 0.5 0 0.5 -13.5 0.5 0 
0.5 0 0.5 8 0.5 -2.5 0.5 0 0.5 5 0.5 -13 0.5 10.5 0.5 24 
0.5 0 0.5 -5.5 0.5 -18.5 0.5 5.5 0.5 -8 0.5 8 0.5 5 0.5 3 
0.5 -11 0.5 -7.5 0.5 34 0.5 -15.5 0.5 13 0.5 -26.5 0.5 10.5 0.5 18.5 
0.5 -2.5 0.5 -10.5 0.5 8 0.5 -8 0.5 -5.5 0.5 0 0.5 3 0.5 -13.5 
0.5 2.5 0.5 0 0.5 -7.5 0.5 2.5 0.5 2.5 0.5 2.5 0 -2.5 0.5 8 
0.5 18.5 S
1842 704.5 0.5 -18.5 0.5 0 0.5 -8 0.5 0 0.5 -8 0.5 10.5 0.5 -2.5 
0.5 10.5 0.5 -10.5 0.5 13.5 0.5 -5.5 0.5 2.5 0.5 0 0.5 -8 0.5 -2.5 
0.5 2.5 0.5 0 0.5 -15.5 0.5 -5.5 0.5 10.5 0.5 18.5 0.5 -10.5 0.5 8 
0.5 5.5 0.5 -3 0.5 -10.5 0.5 0 0.5 2.5 0.5 3 0.5 2.5 0.5 16 
0.5 2.5 0.5 -10.5 0.5 8 0.5 0 0.5 42 0.5 5.5 0.5 -29 0.5 -50.5 
0.5 3 0.5 2.5 0.5 -5.5 0.5 3 0.5 -3 0.5 -5 0.5 2.5 0.5 0 
0.5 10.5 0.5 -2.5 0.5 -8 0.5 0 0.5 -2.5 0.5 0 0.5 10.5 0.5 2.5 
0.5 2.5 0.5 -5 0.5 -5.5 0.5 -5 0.5 -3 0.5 5.5 0.5 16 0.5 15.5 
0.5 8 0.5 0 0.5 -13 0.5 -10.5 0.5 -18.5 0.5 2.5 0.5 0 0.5 0 
0.5 5.5 0.5 0 0.5 5 0.5 5.5 0.5 -5.5 0.5 -8 0.5 -5 0.5 2.5 
0.5 0 0.5 -2.5 0.5 8 0.5 -8 0.5 5 0.5 -2.5 0.5 -2.5 0.5 10.5 
0.5 -2.5 0.5 7.5 0.5 0 0.5 -2.5 0.5 -2.5 0.5 2.5 0.5 -8 0.5 5.5 
0.5 2.5 0.5 0 0.5 2.5 0.5 5.5 0.5 -8 0.5 -8 0.5 3 0.5 10.5 
0.5 -8 S
1894 675.5 0.5 2.5 0.5 2.5 0.5 0 0.5 3 0.5 -13.5 0.5 -13 0.5 0 
0.5 2.5 0.5 2.5 0.5 8 0.5 3 0.5 0 0.5 0 0.5 0 0.5 2.5 
0.5 -8 0.5 10.5 0.5 -8 0.5 0 0.5 0 0.5 -2.5 0.5 -2.5 0.5 -3 
0.5 3 0.5 -3 0.5 18.5 0.5 -10.5 0.5 8 0.5 -2.5 0.5 -8 0.5 5.5 
0.5 -8 0.5 2.5 0.5 0 0.5 0 0.5 16 0.5 2.5 0.5 -8 0.5 5.5 
0.5 8 0.5 -16 0.5 2.5 0.5 5.5 0.5 0 0.5 -8 0.5 0 0.5 -8 
0.5 -8 0.5 10.5 0.5 3 0.5 7.5 0.5 -5 0.5 5 0.5 -5 0.5 -5.5 
0.5 -2.5 0.5 5.5 0.5 7.5 0.5 5.5 0.5 0 0 -5.5 0.5 0 0.5 -2.5 
0.5 0 0.5 5.5 0.5 0 0.5 0 0.5 15.5 0.5 -2.5 0.5 -16 0.5 -5 
0.5 0 0.5 0 0.5 13 0.5 5.5 0.5 0 0.5 2.5 0.5 0 0.5 -26.5 
0.5 5.5 0.5 0 0.5 -2.5 0.5 5 0.5 2.5 0.5 11 0.5 2.5 0.5 0 
0.5 -10.5 0.5 -13.5 0.5 3 0.5 -3 0.5 3 0.5 5 0.5 -5 0.5 -11 
0.5 8 0.5 0 0.5 -2.5 0.5 2.5 0.5 40 0.5 0 0.5 -13.5 0.5 -2.5 
0.5 -5.5 S
1945.5 688.5 0.5 -18.5 0.5 8 0.5 5.5 0.5 5 0.5 -10.5 0.5 -10.5 0.5 8 
0.5 2.5 0.5 5.5 0.5 -13.5 0.5 0 0.5 -2.5 0.5 5.5 0.5 2.5 0.5 0 
0.5 18.5 0.5 -24 0.5 5.5 0.5 2.5 0.5 5.5 0.5 0 0.5 -8 0.5 2.5 
0.5 -8 0.5 -2.5 0.5 8 0.5 0 0.5 -5.5 0.5 5.5 0.5 0 0.5 0 
0.5 -2.5 0.5 -5.5 0.5 0 0.5 0 0.5 18.5 0.5 -8 0.5 -5 0.5 -5.5 
0.5 8 0.5 -5.5 0.5 -5 0.5 2.5 0.5 0 0.5 -5.5 0.5 5.5 0.5 0 
0.5 10.5 0.5 5.5 0.5 10.5 0.5 -2.5 0.5 -8 0.5 -8 0.5 -2.5 0.5 5 
0.5 -5 0.5 -5.5 0.5 2.5 0.5 -2.5 0.5 0 0.5 2.5 0.5 -5 0.5 -5.5 
0.5 2.5 0.5 8 0.5 0 0.5 0 0.5 3 0.5 5 0.5 -8 0.5 3 
0.5 2.5 0.5 -8 0.5 10.5 0.5 2.5 0.5 0 0.5 -2.5 0.5 -2.5 0.5 -2.5 
0.5 -3 0.5 5.5 0.5 -5.5 0.5 3 0.5 5 0.5 -5 0.5 0 0.5 2.5 
0.5 -2.5 0.5 -3 0.5 -10.5 0.5 5.5 0.5 5 0.5 -2.5 0.5 -2.5 0.5 5 
0.5 -8 0.5 3 0.5 5 0.5 -2.5 0.5 2.5 0.5 8 0.5 -5 0.5 2.5 
0.5 -8 S
1997.5 667.5 0.5 0 0.5 0 0.5 -2.5 0.5 -3 0.5 3 0.5 8 0.5 2.5 
0.5 5 0.5 -21 0.5 10.5 0.5 8 0.5 -2.5 0.5 10.5 0.5 -13 0.5 0 
0.5 -3 0.5 0 0.5 10.5 0 26.5 0.5 -13 0.5 0 0.5 5 0.5 -5 
0.5 -8 0.5 0 0.5 31.5 0.5 0 0.5 0 0.5 -10.5 0.5 -29 0.5 0 
0.5 2.5 0.5 21.5 0.5 -21.5 0.5 -7.5 0.5 10.5 0.5 -5.5 0.5 -2.5 0.5 -2.5 
0.5 -8 0.5 8 0.5 -8 0.5 2.5 0.5 0 0.5 0 0.5 -5.5 0.5 3 
0.5 -3 0.5 0 0.5 11 0.5 -3 0.5 -5 0.5 5 0.5 0 0.5 3 
0.5 -8 0.5 5 0.5 0 0.5 -8 0.5 0 0.5 5.5 0.5 2.5 0.5 3 
0.5 2.5 0.5 -2.5 0.5 0 0.5 5 0.5 -16 0.5 -2.5 0.5 5.5 0.5 13 
0.5 -5 0.5 2.5 0.5 5 0.5 -5 0.5 -2.5 0.5 -5.5 0.5 2.5 0.5 -2.5 
0.5 0 0.5 10.5 0.5 2.5 0.5 -2.5 0.5 -8 0.5 5.5 0.5 2.5 0.5 -2.5 
0.5 -8 0.5 13 0.5 8 0.5 -5 0.5 -18.5 0.5 5 0.5 -2.5 0.5 -8 
0.5 13.5 0.5 2.5 0.5 -8 0.5 -2.5 0.5 0 0.5 39.5 0.5 5.5 0.5 -13.5 
0.5 8 S
2049 704.5 0.5 -13 0.5 -11 0.5 3 0.5 -8 0.5 -8 0.5 2.5 0.5 3 
0.5 0 0.5 -3 0.5 8 0.5 -2.5 0.5 -5.5 0.5 10.5 0.5 3 0.5 -5.5 
0.5 5.5 0.5 -5.5 0.5 2.5 0.5 -2.5 0.5 -2.5 0.5 -2.5 0.5 0 0.5 5 
0.5 -2.5 0.5 0 0.5 -5.5 0.5 0 0.5 -2.5 0.5 5.5 0.5 0 0.5 -5.5 
0.5 8 0.5 8 0.5 -5.5 0.5 -8 0.5 -8 0.5 8 0.5 5.5 0.5 -2.5 
0.5 -5.5 0.5 -8 0.5 -2.5 0.5 0 0.5 2.5 0.5 8 0.5 0 0.5 2.5 
0.5 -2.5 0.5 18.5 0.5 -16 0.5 3 0.5 23.5 0.5 -13 0.5 0 0.5 -5.5 
0.5 26.5 0.5 5.5 0.5 2.5 0.5 -21 0.5 7.5 0.5 -26 0.5 13 0.5 2.5 
0.5 13.5 0.5 10.5 0.5 0 0.5 -26.5 0.5 0 0.5 0 0.5 -2.5 0.5 -3 
0.5 5.5 0.5 -13 0.5 10.5 0.5 10.5 0.5 -13.5 0.5 8 0.5 3 0.5 -3 
0.5 0 0.5 -10.5 0 5.5 0.5 0 0.5 10.5 0.5 0 0.5 0 0.5 -2.5 
0.5 0 0.5 -5.5 0.5 -8 0.5 5.5 0.5 -3 0.5 -2.5 0.5 -5 0.5 7.5 
0.5 -2.5 0.5 2.5 0.5 13.5 0.5 8 0.5 -13.5 0.5 3 0.5 -3 0.5 0 
0.5 -5 S
2100.5 683.5 0.5 5 0.5 -2.5 0.5 5.5 0.5 5 0.5 -5 0.5 -8 0.5 2.5 
0.5 -13 0.5 2.5 0.5 0 0.5 -5.5 0.5 8 0.5 -5 0.5 5 0.5 -5 
0.5 10.5 0.5 -8 0.5 2.5 0.5 -13 0.5 21 0.5 0 0.5 8 0.5 5 
0.5 -21 1.5 -47.5 0.5 39.5 0.5 5.5 0.5 -13.5 0.5 8 0.5 0 0.5 0 
0.5 -8 0.5 3 0.5 -3 0.5 0 0.5 0 0.5 16 0.5 0 0.5 -5 
0.5 0 0.5 -3 0.5 -2.5 0.5 0 0.5 2.5 0.5 3 0.5 37 0.5 -8 
0.5 -8 0.5 5 0.5 -13 0.5 -5.5 0.5 -5 0.5 -2.5 0.5 0 0.5 -5.5 
0.5 5.5 0.5 -3 0.5 -8 0.5 8 0.5 -5 0.5 0 0.5 8 0.5 7.5 
0.5 -10.5 0.5 -2.5 0.5 8 0.5 -2.5 0.5 -8 0.5 2.5 0.5 2.5 0.5 -2.5 
0.5 -8 0.5 -2.5 0.5 5 0.5 0 0.5 16 0.5 -8 0.5 3 0.5 2.5 
0.5 -5.5 0.5 -2.5 0.5 2.5 0.5 0 0.5 -2.5 0.5 -5.5 0.5 -2.5 0.5 5.5 
0.5 10.5 0.5 -5.5 0.5 -5 0.5 29 0.5 0 0.5 13 0.5 3 0.5 -13.5 
0.5 -29 0.5 2.5 0.5 -5 0.5 5 0.5 3 0.5 -5.5 0.5 16 0.5 -3 
0.5 -13 S
2153.5 667.5 0.5 -5.5 0.5 3 0.5 -3 0.5 8 0.5 0 0.5 3 0.5 0 
0.5 -3 0.5 -5 0.5 5 0.5 3 0.5 -5.5 0.5 5.5 0.5 -8 0.5 8 
0.5 2.5 0.5 23.5 0.5 -2.5 0.5 0 0.5 -10.5 0.5 -2.5 0.5 -16 0.5 8 
0.5 8 0.5 5 0.5 -8 0.5 -5 0.5 0 0.5 -2.5 0.5 0 0.5 -8 
0.5 0 0.5 5 0.5 0 0.5 -5 0.5 13 0.5 -13 0 5 0.5 5.5 
0.5 -2.5 0.5 -5.5 0.5 10.5 0.5 0 0.5 -5 0.5 2.5 0.5 5 0.5 -5 
0.5 2.5 0.5 24 0.5 8 0.5 -5.5 0.5 -10.5 0.5 16 0.5 7.5 0.5 -2.5 
0.5 -31.5 0.5 -5.5 0.5 -8 0.5 3 0.5 -3 0.5 3 0.5 2.5 0.5 -10.5 
0.5 23.5 0.5 8 0.5 5.5 0.5 -10.5 0.5 -3 0.5 -13 0.5 -2.5 0.5 10.5 
0.5 -10.5 0.5 13 0.5 5.5 0.5 23.5 0.5 -5 0.5 -5.5 0.5 -13 0.5 -5.5 
0.5 18.5 0.5 -5.5 0.5 0 0.5 -18.5 0.5 0 0.5 -10.5 0.5 10.5 0.5 3 
0.5 -10.5 0.5 2.5 0.5 -10.5 0.5 2.5 0.5 5.5 0.5 0 0.5 7.5 0.5 16 
0.5 -16 0.5 -2.5 0.5 0 0.5 5.5 0.5 23.5 0.5 -5 0.5 -13.5 0.5 -8 
0.5 5.5 S
2205 686 0.5 -18.5 0.5 2.5 0.5 -5 0.5 13 0.5 0 0.5 5.5 0.5 0 
0.5 15.5 0.5 -13 0.5 0 0.5 -2.5 0.5 2.5 0.5 0 0.5 10.5 0.5 -10.5 
0.5 -2.5 0.5 -18.5 0.5 -5.5 0.5 2.5 0.5 -2.5 0.5 2.5 0.5 0 0.5 0 
0.5 0 0.5 5.5 0.5 2.5 0.5 21.5 0.5 -3 0.5 0 0.5 16 0.5 5.5 
0.5 -24 0.5 0 0.5 -5.5 0.5 11 0.5 5 0.5 2.5 0.5 -5 0.5 -13.5 
0.5 3 0.5 -5.5 0.5 5.5 0.5 -8 0.5 2.5 0.5 2.5 0.5 -15.5 0.5 2.5 
0.5 0 0.5 -2.5 0.5 5 0.5 -5 0.5 5 0.5 -5 0.5 8 0.5 0 
0.5 0 0.5 -5.5 0.5 2.5 0.5 3 0.5 -3 0.5 0 0.5 5.5 0.5 -5.5 
0.5 8 0.5 8 0.5 -10.5 0.5 26.5 0.5 26 0.5 -2.5 0.5 -10.5 0.5 -10.5 
0.5 -10.5 0.5 -26.5 0.5 5.5 0.5 2.5 0.5 10.5 0.5 -8 0.5 -2.5 0.5 8 
0.5 2.5 0.5 -5.5 0.5 -10.5 0.5 -5 0.5 -3 0.5 -2.5 0.5 18.5 0.5 0 
0.5 18.5 0.5 2.5 0.5 8 0.5 0 0.5 -10.5 0.5 -26.5 0.5 -8 0.5 8 
0.5 -2.5 0.5 -2.5 0.5 5 0.5 0 0.5 3 0 -3 0.5 5.5 0.5 0 
0.5 10.5 S
2256.5 686 0.5 -2.5 0.5 -8 0.5 -8 0.5 5.5 0.5 5 0.5 -10.5 0.5 -2.5 
0.5 5 0.5 -2.5 0.5 -5.5 0.5 5.5 0.5 0 0.5 -2.5 0.5 2.5 0.5 18.5 
0.5 0 0.5 -2.5 0.5 39.5 0.5 10.5 0.5 -10.5 0.5 -8 0.5 2.5 0.5 -29 
0.5 -15.5 0.5 0 0.5 -5.5 0.5 2.5 0.5 8 0.5 -8 0.5 18.5 0.5 -2.5 
0.5 0 0.5 -5.5 0.5 3 0.5 -10.5 0.5 -5.5 0.5 8 0.5 -5.5 0.5 3 
0.5 2.5 0.5 -5.5 0.5 -5 0.5 2.5 0.5 -5.5 0.5 26.5 0.5 -21 0.5 8 
0.5 -8 0.5 -2.5 0.5 10.5 0.5 8 0.5 -13.5 0.5 -5 0.5 2.5 0.5 -2.5 
0.5 0 0.5 2.5 0.5 2.5 0.5 3 0.5 5 0.5 -2.5 0.5 13 0.5 -2.5 
0.5 -16 0.5 3 0.5 2.5 0.5 -2.5 0.5 7.5 0.5 3 0.5 0 0.5 2.5 
0.5 29 0.5 2.5 0.5 -13 0.5 8 0.5 2.5 0.5 -8 0.5 -18.5 0.5 -8 
0.5 -7.5 0.5 5 0.5 13.5 0.5 -16 0.5 2.5 0.5 10.5 0.5 0 0.5 -5 
0.5 -10.5 0.5 2.5 0.5 0 0.5 -5.5 0.5 3 0.5 -5.5 0.5 5.5 0.5 -13.5 
0.5 2.5 0.5 5.5 0.5 -5.5 0.5 8 0.5 0 0.5 -2.5 0.5 -10.5 0.5 -2.5 
0.5 -5.5 S
2308.5 649 0.5 5.5 0.5 -3 0.5 8 0.5 -5 0.5 2.5 0.5 8 0.5 -5.5 
0.5 21 0.5 5.5 0.5 2.5 0.5 -13 0.5 2.5 0.5 8 0.5 -16 0.5 16 
0.5 5.5 0.5 2.5 0.5 -2.5 0.5 -5.5 0.5 -2.5 0.5 -5.5 0.5 13.5 0.5 5 
0.5 -2.5 0.5 -8 0.5 2.5 0.5 -5 0.5 -3 0.5 5.5 0.5 5.5 0.5 0 
0.5 -5.5 0.5 -13 0.5 7.5 0.5 8 0.5 3 0.5 0 0.5 10.5 0.5 -5.5 
0.5 8 0.5 10.5 0.5 8 0.5 -13 0.5 7.5 0.5 0 0.5 -23.5 0.5 -8 
0.5 -2.5 0.5 8 0.5 7.5 0.5 -15.5 0.5 5 0.5 -5 0.5 -5.5 0.5 0 
0.5 2.5 0.5 0 0.5 -7.5 0.5 15.5 0 -2.5 0.5 24 0.5 -8 0.5 -5.5 
0.5 -5 0.5 13 0.5 -5.5 0.5 -18.5 0.5 -5 0.5 2.5 0.5 13.5 0.5 -13.5 
0.5 2.5 0.5 5.5 0.5 5.5 0.5 -3 0.5 18.5 0.5 -13 0.5 16 0.5 0 
0.5 23.5 0.5 2.5 0.5 -5 0.5 -39.5 0.5 0 0.5 -3 0.5 10.5 0.5 -10.5 
0.5 -8 0.5 -2.5 0.5 -5 0.5 5 0.5 -5 0.5 -3 0.5 5.5 0.5 -8 
0.5 5.5 0.5 -3 0.5 24 0.5 -13.5 0.5 -5 0.5 -5.5 0.5 8 0.5 0 
0.5 0 S
2360 678 0.5 2.5 0.5 -5 0.5 8 0.5 -5.5 0.5 8 0.5 -5.5 0.5 3 
0.5 10.5 0.5 -8 0.5 2.5 0.5 3 0.5 0 0.5 -5.5 0.5 0 0.5 0 
0.5 -10.5 0.5 10.5 0.5 -5.5 0.5 -5 0.5 10.5 0.5 2.5 0.5 -5 0.5 10.5 
0.5 5 0.5 -2.5 0.5 10.5 0.5 0 0.5 -29 0.5 2.5 0.5 13.5 0.5 -5.5 
0.5 -10.5 0.5 -2.5 0.5 13 0.5 10.5 0.5 -7.5 0.5 0 0.5 -3 0.5 0 
0.5 -10.5 0.5 16 0.5 2.5 0.5 -16 0.5 3 0.5 -5.5 0.5 0 0.5 -8 
0.5 3 0.5 5 0.5 -5 0.5 -11 0.5 21.5 0.5 -16 0.5 10.5 0.5 13.5 
0.5 -11 0.5 5.5 0.5 -2.5 0.5 31.5 0.5 -10.5 0.5 -18.5 0.5 2.5 0.5 0 
0.5 -2.5 0.5 5.5 0.5 -8 0.5 -3 0.5 -2.5 0.5 2.5 0.5 -5 0.5 -5.5 
0.5 0 0.5 0 0.5 10.5 0.5 5.5 0.5 -16 0.5 8 0.5 5.5 0.5 -5.5 
0.5 -8 0.5 3 0.5 5 0.5 -5 0.5 5 0.5 -2.5 0.5 2.5 0.5 0 
0.5 -2.5 0.5 2.5 0.5 -5 0.5 -3 0.5 3 0.5 0 0.5 10.5 0.5 -13.5 
0.5 5.5 0.5 10.5 0.5 13 0.5 -5 0.5 -2.5 0.5 10.5 0.5 -13.5 0.5 13.5 
0.5 -5.5 S
2412 696.5 0.5 -18.5 0.5 2.5 0.5 -13 0.5 13 0.5 8 0.5 10.5 0.5 -2.5 
0.5 -5 0.5 -3 0.5 -5 0.5 29 0.5 0 0.5 -5.5 0.5 5.5 0.5 -8 
0.5 -13 0.5 -8 0 2.5 0.5 -5.5 0.5 -7.5 0.5 -5.5 0.5 13 0.5 11 
0.5 -11 0.5 5.5 0.5 0 0.5 13 0.5 -2.5 0.5 2.5 0.5 -5 0.5 8 
0.5 -10.5 0.5 -18.5 0.5 2.5 0.5 8 0.5 0 0.5 2.5 0.5 2.5 0.5 10.5 
0.5 -7.5 0.5 -5.5 0.5 -2.5 0.5 5 0.5 -13 0.5 -5.5 0.5 13.5 0.5 2.5 
0.5 10.5 0.5 13.5 0.5 23.5 0.5 -55.5 0.5 0 0.5 2.5 0.5 -2.5 0.5 -8 
0.5 16 0.5 18.5 0.5 0 0.5 -2.5 0.5 -5.5 0.5 29 0.5 -23.5 0.5 0 
0.5 -26.5 0.5 8 0.5 -8 0.5 -5.5 0.5 26.5 0.5 5.5 0.5 -29 0.5 -5.5 
0.5 8 0.5 -2.5 0.5 15.5 0.5 -2.5 0.5 8 0.5 -18.5 0.5 0 0.5 -2.5 
0.5 0 0.5 2.5 0.5 23.5 0.5 0 0.5 -18.5 0.5 0 0.5 -5 0.5 -5.5 
0.5 3 0.5 5 0.5 8 0.5 -2.5 0.5 -3 0.5 11 0.5 -13.5 0.5 0 
0.5 8 0.5 -16 0.5 0 0.5 10.5 0.5 3 0.5 2.5 0.5 10.5 0.5 21 
0.5 5.5 S
2463.5 723 0.5 -8 0.5 -8 0.5 5.5 0.5 -24 0.5 3 0.5 0 0.5 2.5 
0.5 0 0.5 -10.5 0.5 -10.5 0.5 10.5 0.5 -8 0.5 2.5 0.5 -8 0.5 16 
0.5 0 0.5 8 0.5 -8 0.5 -2.5 0.5 2.5 0.5 -8 0.5 2.5 0.5 -5 
0.5 16 0.5 15.5 0.5 3 0.5 -8 0.5 -10.5 0.5 -13.5 0.5 0 0.5 5.5 
0.5 -3 0.5 24 0.5 13 0.5 0 0.5 -2.5 0.5 2.5 0.5 -21 0.5 -2.5 
0.5 -18.5 0.5 2.5 0.5 2.5 0.5 5.5 0.5 0 0.5 5.5 0.5 -5.5 0.5 -8 
0.5 -5 0.5 10.5 0.5 -5.5 0.5 0 0.5 13.5 0.5 7.5 0.5 3 0.5 0 
0.5 -5.5 0.5 31.5 0.5 -13 0.5 5.5 0.5 -5.5 0.5 2.5 0.5 -29 0.5 0 
0.5 -5 0.5 2.5 0.5 0 0.5 -5.5 0.5 -10.5 0.5 0 0.5 -5 0.5 -3 
0.5 11 0.5 -3 0.5 5.5 0.5 -10.5 0.5 -3 0.5 0 0.5 3 0.5 2.5 
0.5 10.5 0 13.5 0.5 5 0.5 -8 0.5 3 0.5 -8 0.5 -8 0.5 2.5 
0.5 8 0.5 -13 0.5 0 0.5 -3 0.5 8 0.5 2.5 0.5 13.5 0.5 8 
0.5 -29 0.5 13 0.5 2.5 0.5 3 0.5 7.5 0.5 -5 0.5 5 0.5 0 
0.5 -2.5 S
2515 696.5 0.5 -2.5 0.5 2.5 0.5 -5 0.5 -3 0.5 -5 0.5 2.5 0.5 5.5 
0.5 -8 0.5 0 0.5 -8 0.5 -5.5 0.5 8 0.5 -10.5 0.5 5.5 0.5 -8 
0.5 2.5 0.5 -2.5 0.5 5 0.5 5.5 0.5 -8 0.5 -2.5 0.5 -3 0.5 3 
0.5 18.5 0.5 -10.5 0.5 2.5 0.5 8 0.5 2.5 0.5 -2.5 0.5 2.5 0.5 -8 
0.5 0 0.5 -2.5 0.5 8 0.5 18.5 0.5 -16 0.5 -2.5 0.5 -8 0.5 0 
0.5 0 0.5 8 0.5 8 0.5 -3 0.5 -2.5 0.5 0 0.5 0 0.5 10.5 
0.5 0 0.5 0 0.5 5.5 0.5 -10.5 0.5 0 0.5 -21.5 0.5 5.5 0.5 -5.5 
0.5 0 0.5 3 0.5 0 0.5 10.5 0.5 -8 0.5 2.5 0.5 5.5 0.5 -5.5 
0.5 -10.5 0.5 8 0.5 -2.5 0.5 -3 0.5 10.5 0.5 0 0.5 -13 0.5 8 
0.5 -2.5 0.5 5 0.5 2.5 0.5 11 0.5 2.5 0.5 -2.5 0.5 -3 0.5 13.5 
0.5 -3 0.5 5.5 0.5 -5.5 0.5 0 0.5 -2.5 0.5 10.5 0.5 0 0.5 -18.5 
0.5 -13 0.5 -5.5 0.5 5.5 0.5 5 0.5 5.5 0.5 -5.5 0.5 -2.5 0.5 -2.5 
0.5 -8 0.5 8 0.5 5 0.5 -10.5 0.5 5.5 0.5 2.5 0.5 -2.5 0.5 0 
0.5 0 S
2567 675.5 0.5 -2.5 0.5 2.5 0.5 2.5 0.5 8 0.5 0 0.5 0 0.5 2.5 
0.5 3 0.5 0 0.5 -5.5 0.5 -5.5 0.5 24 0.5 -10.5 0.5 -16 0.5 5.5 
0.5 2.5 0.5 2.5 0.5 3 0.5 2.5 0.5 0 0.5 -2.5 0.5 -5.5 0.5 -2.5 
0.5 2.5 0.5 2.5 0.5 -2.5 0.5 -13 0.5 -5.5 0.5 2.5 0.5 3 0.5 0 
0.5 7.5 0.5 3 0.5 5 0.5 21.5 0.5 10.5 0.5 -5.5 0.5 2.5 0 -2.5 
0.5 -8 0.5 -34 0.5 0 0.5 7.5 0.5 -5 0.5 2.5 0.5 8 0.5 5.5 
0.5 -8 0.5 21 0.5 2.5 0.5 -18.5 0.5 10.5 0.5 5.5 0.5 0 0.5 -13 
0.5 2.5 0.5 0 0.5 -2.5 0.5 -16 0.5 2.5 0.5 -8 0.5 5.5 0.5 5 
0.5 16 0.5 10.5 0.5 -5 0.5 -5.5 0.5 -13 0.5 2.5 0.5 -10.5 0.5 0 
0.5 2.5 0.5 -2.5 0.5 0 0.5 5 0.5 3 0.5 -3 0.5 -5 0.5 -8 
0.5 2.5 0.5 0 0.5 -2.5 0.5 0 0.5 5.5 0.5 2.5 0.5 -5.5 0.5 10.5 
0.5 -2.5 0.5 -2.5 0.5 -5.5 0.5 5.5 0.5 -2.5 0.5 -5.5 0.5 -5.5 0.5 -5 
0.5 8 0.5 8 0.5 5 0.5 -5 0.5 10.5 0.5 -8 0.5 2.5 0.5 -2.5 
0.5 10.5 S
2618.5 686 0.5 -2.5 0.5 -13.5 0.5 3 0.5 10.5 0.5 -3 0.5 16 0.5 5.5 
0.5 -13.5 0.5 8 0.5 -2.5 0.5 8 0.5 2.5 0.5 -21 0.5 -3 0.5 -5 
0.5 8 0.5 5 0.5 0 0.5 -8 0.5 -10.5 0.5 -8 0.5 16 0.5 0 
0.5 0 0.5 0 0.5 -5 0.5 2.5 0.5 21 0.5 5.5 0.5 2.5 0.5 -2.5 
0.5 -13.5 0.5 -8 0.5 0 0.5 -13 0.5 2.5 0.5 3 0.5 -3 0.5 5.5 
0.5 2.5 0.5 13.5 0.5 -3 0.5 0 0.5 5.5 0.5 -5.5 0.5 -2.5 0.5 -5.5 
0.5 5.5 0.5 -2.5 0.5 5 0.5 3 0.5 5 0.5 0 0.5 -5 0.5 -5.5 
0.5 -13 0.5 21 0.5 -8 0.5 -8 0.5 -5 0.5 2.5 0.5 -13.5 0.5 5.5 
0.5 0 0.5 -8 0.5 8 0.5 -5.5 0.5 5.5 0.5 -2.5 0.5 8 0.5 0 
0.5 -5.5 0.5 5.5 0.5 0 0.5 5 0.5 -10.5 0.5 2.5 0.5 -5 0.5 2.5 
0.5 0 0.5 24 0.5 2.5 0.5 0 0.5 -8 0.5 8 0.5 -8 0.5 -8 
0.5 5.5 0.5 10.5 0.5 0 0.5 18.5 0.5 -10.5 0.5 0 0.5 -5.5 0.5 -13 
0.5 2.5 0.5 -10.5 0.5 -2.5 0.5 5 0.5 18.5 0.5 -5 0 7.5 0.5 0 
0.5 3 S
2670 702 0.5 5 0.5 -13 0.5 -18.5 0.5 29 0.5 -5.5 0.5 -15.5 0.5 2.5 
0.5 -10.5 0.5 5 0.5 5.5 0.5 10.5 0.5 -2.5 0.5 -2.5 0.5 7.5 0.5 0 
0.5 -13 0.5 -13 0.5 5 0.5 -10.5 0.5 16 0.5 0 0.5 -3 0.5 13.5 
0.5 8 0.5 -3 0.5 5.5 0.5 10.5 0.5 -13 0.5 5 0.5 -2.5 0.5 -10.5 
0.5 8 0.5 -8 0.5 -2.5 0.5 2.5 0.5 -10.5 0.5 13 0.5 0 0.5 0 
0.5 8 0.5 -8 0.5 0 0.5 -16 0.5 0 0.5 0 0.5 5.5 0.5 -2.5 
0.5 -5.5 0.5 -2.5 0.5 8 0.5 -8 0.5 -16 0.5 0 0.5 10.5 0.5 5.5 
0.5 -8 0.5 0 0.5 5.5 0.5 -5.5 0.5 13 0.5 11 0.5 -8 0.5 -8 
0.5 5 0.5 5.5 0.5 -5.5 0.5 0 0.5 -7.5 0.5 -5.5 0.5 10.5 0.5 -2.5 
0.5 -8 0.5 5.5 0.5 5 0.5 2.5 0.5 8 0.5 0 0.5 -15.5 0.5 2.5 
0.5 18.5 0.5 8 0.5 -5.5 0.5 -10.5 0.5 -5.5 0.5 -2.5 0.5 2.5 0.5 -5 
0.5 -2.5 0.5 5 0.5 18.5 0.5 -21 0.5 -2.5 0.5 0 0.5 0 0.5 -5.5 
0.5 10.5 0.5 -2.5 0.5 -10.5 0.5 0 0.5 10.5 0.5 0 0.5 2.5 0.5 -5 
0.5 2.5 S
2722 675.5 0.5 2.5 0.5 -8 0.5 -5 0.5 10.5 0.5 5 0.5 0 0.5 11 
0.5 15.5 0.5 -2.5 0.5 -13 0.5 -8 0.5 2.5 0.5 -10.5 0.5 5 0.5 -7.5 
0.5 10.5 0.5 -3 0.5 8 0.5 0 0.5 8 0.5 -2.5 0.5 0 0.5 -5.5 
0.5 -5 0.5 0 0.5 0 0.5 -3 0.5 -2.5 0.5 -2.5 0.5 13 0.5 -10.5 
0.5 0 0.5 5.5 0.5 -8 0.5 0 0.5 -5.5 0.5 10.5 0.5 -5 0.5 13 
0.5 0 0.5 0 0.5 -2.5 0.5 13 0.5 -5 0.5 -26.5 0.5 0 0.5 2.5 
0.5 5.5 0.5 18.5 0.5 -10.5 0.5 5 0.5 8 0.5 0 0.5 -2.5 0.5 13 
0.5 -21 0.5 8 0.5 -8 0.5 -2.5 0.5 2.5 0 -2.5 0.5 -3 0.5 -2.5 
0.5 2.5 0.5 -5 0.5 5 0.5 18.5 0.5 -5 0.5 -2.5 0.5 -3 0.5 10.5 
0.5 5.5 0.5 -13 0.5 5 0.5 -5 0.5 2.5 0.5 -8 0.5 16 0.5 -5.5 
0.5 5.5 0.5 -8 0.5 -18.5 0.5 10.5 0.5 -21 0.5 23.5 0.5 3 0.5 0 
0.5 -3 0.5 0 0.5 -10.5 0.5 2.5 0.5 -2.5 0.5 -2.5 0.5 0 0.5 5 
0.5 -5 0.5 -8 0.5 2.5 0.5 8 0.5 -5 0.5 2.5 0.5 0 0.5 -2.5 
0.5 10.5 S
2773.5 683.5 0.5 2.5 0.5 -8 0.5 2.5 0.5 0 0.5 0 0.5 -2.5 0.5 -8 
0.5 0 0.5 -5 0.5 2.5 0.5 0 0.5 8 0.5 2.5 0.5 5.5 0.5 -5.5 
0.5 -2.5 0.5 8 0.5 -5.5 0.5 0 0.5 0 0.5 29 0.5 -5 0.5 0 
0.5 2.5 0.5 -2.5 0.5 -34.5 0.5 10.5 0.5 13.5 0.5 0 0.5 -3 0.5 3 
0.5 7.5 0.5 -21 0.5 13.5 0.5 5 0.5 -2.5 0.5 2.5 0.5 -8 0.5 -10.5 
0.5 -5 0.5 13 0.5 -2.5 0.5 -10.5 0.5 10.5 0.5 5 0.5 3 0.5 7.5 
0.5 0 0.5 5.5 0.5 -5.5 0.5 -13 0.5 0 0.5 -5.5 0.5 -7.5 0.5 2.5 
0.5 -2.5 0.5 5 0.5 18.5 0.5 -10.5 0.5 2.5 0.5 5.5 0.5 0 0.5 -10.5 
0.5 2.5 0.5 -8 0.5 -5 0.5 0 0.5 0 0.5 -5.5 0.5 0 0.5 2.5 
0.5 -2.5 0.5 5.5 0.5 13 0.5 -21 0.5 5 0.5 21.5 0.5 0 0.5 7.5 
0.5 3 0.5 -3 0.5 3 0.5 -3 0.5 3 0.5 8 0.5 0 0.5 10.5 
0.5 -5.5 0.5 -8 0.5 -8 0.5 -13 0.5 -8 0.5 -8 0.5 3 0.5 7.5 
0.5 8 0.5 -8 0.5 13.5 0.5 -13.5 0.5 8 0.5 -10.5 0.5 -2.5 0.5 -8 
0.5 0 S
2825.5 667.5 0.5 -2.5 0.5 13 0.5 8 0.5 0 0.5 -8 0.5 -2.5 0.5 -2.5 
0.5 13 0.5 -5.5 0.5 -2.5 0.5 -16 0.5 18.5 0.5 -10.5 0.5 13.5 0.5 -13.5 
0.5 -5 0.5 -3 0.5 5.5 0.5 8 0.5 5 0.5 11 0.5 -16 0.5 -2.5 
0.5 2.5 0.5 8 0.5 -10.5 0.5 -3 0.5 3 0.5 -5.5 0.5 0 0.5 2.5 
0.5 13.5 0.5 5 0.5 -5 0.5 5 0.5 0 0.5 3 0.5 -13.5 0.5 0 
0.5 2.5 0.5 -2.5 0.5 -2.5 0.5 5 0.5 3 0.5 -8 0.5 0 0.5 2.5 
0.5 0 0.5 -5 0.5 2.5 0.5 -2.5 0.5 2.5 0.5 13 0.5 -2.5 0.5 0 
0.5 -5.5 0.5 8 0.5 -8 0.5 3 0.5 -5.5 0.5 -2.5 0.5 -2.5 0.5 0 
0.5 5 0.5 5.5 0.5 -5.5 0.5 0 0.5 16 0.5 -8 0.5 -2.5 0.5 5 
0.5 -18.5 0.5 3 0.5 10.5 0.5 -18.5 0.5 5 0.5 -5 0.5 2.5 0.5 2.5 
0.5 0 0.5 3 0.5 2.5 0.5 2.5 0.5 0 0.5 10.5 0.5 -10.5 0.5 0 
0.5 -5 0.5 -3 0.5 5.5 0.5 0 0.5 -8 0.5 21 0.5 -5 0.5 0 
0.5 2.5 0.5 -2.5 0.5 -3 0.5 -2.5 0.5 2.5 0.5 -2.5 0.5 2.5 0.5 -2.5 
0.5 10.5 S
2877.5 688.5 0.5 -10.5 0.5 -2.5 0.5 -2.5 0.5 2.5 0.5 8 0.5 -3 0.5 3 
0.5 -3 0.5 5.5 0.5 0 0.5 5.5 0.5 2.5 0.5 2.5 0.5 -16 0.5 -7.5 
0.5 2.5 0.5 5 0.5 0 0.5 5.5 0.5 -5.5 0.5 3 0.5 -8 0.5 0 
0.5 -8 0.5 8 0.5 -5.5 0.5 0 0.5 13.5 0.5 13 0.5 -2.5 0.5 -5.5 
0.5 0 0.5 0 0.5 -2.5 0.5 -5.5 0.5 3 0.5 -10.5 0.5 5 0.5 5.5 
0.5 5 0.5 -2.5 0.5 8 0.5 2.5 0.5 -16 0.5 -2.5 0.5 -5 0.5 0 
0.5 -3 0.5 -5 0.5 8 0.5 -5.5 0.5 18.5 0.5 -5.5 0.5 16 0.5 0 
0.5 -18.5 0.5 -8 0.5 10.5 0.5 -5 0.5 8 0.5 -8 0.5 -5.5 0.5 0 
0.5 0 0.5 8 0.5 -2.5 0.5 2.5 0.5 0 0.5 -5 0.5 -3 0.5 5.5 
0.5 5 0.5 -7.5 0.5 2.5 0.5 -2.5 0.5 2.5 0.5 2.5 0.5 -8 0.5 0 
0.5 0 0 5.5 0.5 2.5 0.5 10.5 0.5 8 0.5 0 0.5 -8 0.5 -18.5 
0.5 13.5 0.5 -10.5 0.5 7.5 0.5 -10.5 0.5 5.5 0.5 -2.5 0.5 0 0.5 -3 
0.5 0 0.5 0 0.5 5.5 0.5 8 0.5 0 0.5 -3 0.5 16 0.5 -13 
0.5 -3 S
2929 680.5 0.5 8 0.5 5.5 0.5 2.5 0.5 2.5 0.5 13.5 0.5 -18.5 0.5 -2.5 
0.5 0 0.5 -3 0.5 -2.5 0.5 -5.5 0.5 3 0.5 2.5 0.5 -5.5 0.5 0 
0.5 3 0.5 5 0.5 3 0.5 5 0.5 -5 0.5 -8 0.5 -5.5 0.5 -10.5 
0.5 2.5 0.5 8 0.5 2.5 0.5 -2.5 0.5 8 0.5 -2.5 0.5 -5.5 0.5 21 
0.5 -10.5 0.5 8 0.5 -5 0.5 -5.5 0.5 2.5 0.5 0 0.5 3 0.5 5 
0.5 0 0.5 5.5 0.5 -5.5 0.5 -8 0.5 3 0.5 -5.5 0.5 -8 0.5 -2.5 
0.5 5 0.5 21.5 0.5 -10.5 0.5 10.5 0.5 -10.5 0.5 -3 0.5 -5 0.5 10.5 
0.5 -8 0.5 0 0.5 0 0.5 -5.5 0.5 8 0.5 0 0.5 -2.5 0.5 0 
0.5 -2.5 0.5 -3 0.5 5.5 0.5 5.5 0.5 0 0.5 0 0.5 2.5 0.5 -5.5 
0.5 -2.5 0.5 8 0.5 -5.5 0.5 5.5 0.5 0 0.5 2.5 0.5 -18.5 0.5 -2.5 
0.5 -2.5 0.5 -5.5 0.5 10.5 0.5 2.5 0.5 -7.5 0.5 7.5 0.5 3 0.5 2.5 
0.5 2.5 0.5 -13 0.5 -5.5 0.5 5.5 0.5 5 0.5 11 0.5 10.5 0.5 -5.5 
0.5 8 0.5 -8 0.5 -2.5 0.5 0 0.5 -8 0.5 -5.5 0.5 0 0.5 0 
0.5 8 S
2981 688.5 0.5 -2.5 0.5 2.5 0.5 3 0.5 -3 0.5 -5 0.5 18.5 0.5 -8 
0.5 8 0.5 0 0.5 29 0.5 -3 0.5 -29 0.5 -5 0.5 0 0.5 -2.5 
0.5 -24 0.5 -2.5 0.5 13 0.5 10.5 0.5 0 0.5 -2.5 0.5 -5.5 0.5 11 
0.5 5 0.5 -5 0.5 -3 0.5 0 0.5 -8 0.5 -7.5 0.5 18.5 0.5 2.5 
0.5 -8 0.5 -2.5 0.5 0 0.5 10.5 0.5 5 0.5 8 0.5 5.5 0 -8 
0.5 2.5 0.5 -5 0.5 -13.5 0.5 -2.5 0.5 5.5 0.5 -11 0.5 -7.5 0.5 10.5 
0.5 0 0.5 -5.5 0.5 -2.5 0.5 10.5 0.5 2.5 0.5 8 0.5 5.5 0.5 -3 
0.5 3 0.5 -3 0.5 -7.5 0.5 -3 0.5 -18.5 0.5 -2.5 0.5 2.5 0.5 0 
0.5 -2.5 0.5 8 0.5 2.5 0.5 2.5 0.5 3 0.5 13 0.5 -8 0.5 3 
0.5 -8 0.5 2.5 0.5 -2.5 0.5 2.5 0.5 8 0.5 0 0.5 -10.5 0.5 2.5 
0.5 5.5 0.5 -5.5 0.5 2.5 0.5 13.5 0.5 -5.5 0.5 0 0.5 -16 0.5 0 
0.5 5.5 0.5 -2.5 0.5 13 0.5 -21 0.5 0 0.5 13 0.5 8 0.5 -16 
0.5 0 0.5 0 0.5 -7.5 0.5 2.5 0.5 -13.5 0.5 8 0.5 10.5 0.5 8 
0.5 3 S
3032.5 691.5 0.5 -8 0.5 8 0.5 -5.5 0.5 -5.5 0.5 0 0.5 -10.5 0.5 0 
0.5 8 0.5 0 0.5 2.5 0.5 13.5 0.5 5 0.5 3 0.5 -3 0.5 -5 
0.5 -5.5 0.5 0 0.5 -10.5 0.5 2.5 0.5 8 0.5 -8 0.5 11 0.5 2.5 
0.5 -13.5 0.5 -2.5 0.5 13.5 0.5 -3 0.5 0 0.5 0 0.5 10.5 0.5 -13 
0.5 8 0.5 -5.5 0.5 -5 0.5 0 0.5 -3 0.5 0 0.5 3 0.5 10.5 
0.5 -10.5 0.5 -3 0.5 -2.5 0.5 -2.5 0.5 -5.5 0.5 13.5 0.5 -8 0.5 5 
0.5 3 0.5 -5.5 0.5 8 0.5 8 0.5 -8 0.5 13 0.5 3 0.5 -16 
0.5 5.5 0.5 5 0.5 13.5 0.5 -3 0.5 0 0.5 -5 0.5 -5.5 0.5 -18.5 
0.5 10.5 0.5 -5 0.5 2.5 0.5 0 0.5 -13 0.5 7.5 0.5 0 0.5 0 
0.5 11 0.5 2.5 0.5 2.5 0.5 -10.5 0.5 -2.5 0.5 2.5 0.5 -2.5 0.5 13 
0.5 2.5 0.5 3 0.5 -10.5 0.5 5 0.5 -2.5 0.5 0 0.5 13 0.5 -2.5 
0.5 -5.5 0.5 5.5 0.5 -13 0.5 10.5 0.5 5 0.5 3 0.5 5 0.5 2.5 
0.5 -21 0.5 10.5 0.5 -15.5 0.5 -13.5 0.5 8 0.5 8 0.5 0 0.5 2.5 
0.5 -8 S
3084.5 688.5 0.5 8 0.5 -2.5 0.5 -5.5 0.5 5.5 0.5 8 0.5 -5.5 0.5 -5 
0.5 -5.5 0.5 2.5 0.5 0 0.5 3 0.5 0 0.5 2.5 0.5 5 0.5 -2.5 
0.5 -2.5 0.5 -2.5 0.5 -11 0.5 0 0.5 -2.5 0.5 5.5 0.5 2.5 0.5 -2.5 
0.5 -3 0.5 8 0.5 5.5 0.5 -2.5 0.5 2.5 0.5 -2.5 0.5 -5.5 0.5 5.5 
0.5 -5.5 0.5 16 0.5 -5.5 0.5 8 0.5 -2.5 0.5 0 0.5 -10.5 0.5 -11 
0.5 -2.5 0.5 -5 0.5 18.5 0.5 -3 0.5 -5 0.5 5 0.5 -8 0.5 18.5 
0.5 3 0.5 -8 0.5 -5.5 0.5 5.5 0.5 0 0.5 2.5 0.5 -13 0.5 -5.5 
0.5 -8 0.5 8 0.5 -8 0.5 -2.5 0.5 2.5 0.5 13.5 0.5 0 0.5 8 
0.5 0 0.5 0 0.5 -8 0.5 0 0.5 -10.5 0.5 0 0.5 -3 0.5 13.5 
0.5 -3 0.5 5.5 0.5 2.5 0.5 -5 0.5 2.5 0.5 5.5 0.5 -16 0.5 2.5 
0.5 -8 0.5 16 0.5 2.5 0.5 -5 0.5 -3 0.5 -7.5 0.5 -5.5 0.5 5.5 
0.5 5 0.5 2.5 0.5 -2.5 0.5 2.5 0.5 -13 0.5 0 0.5 2.5 0.5 -2.5 
0.5 8 0.5 0 0.5 -5.5 0.5 26.5 0.5 -10.5 0.5 21 0.5 -2.5 0.5 -10.5 
0.5 -5.5 S
3136.5 688.5 0.5 -2.5 0.5 -8 0.5 -5 0.5 13 0.5 -2.5 0.5 5 0.5 3 
0.5 -5.5 0.5 -2.5 0.5 13 0.5 -10.5 0.5 -5.5 0.5 8 0.5 -5 0.5 5 
0.5 -8 0.5 -7.5 0.5 -5.5 0.5 8 0.5 0 0.5 2.5 0.5 -2.5 0.5 2.5 
0.5 8 0.5 -10.5 0.5 16 0.5 -11 0.5 8 0.5 3 0.5 0 0.5 -11 
0.5 -2.5 0.5 -2.5 0.5 -13.5 0.5 5.5 0.5 8 0.5 8 0.5 -3 0.5 8 
0.5 -2.5 0.5 13 0.5 -2.5 0.5 -21 0.5 2.5 0.5 -2.5 0.5 5 0.5 5.5 
0.5 -8 0.5 0 0.5 18.5 0.5 -8 0.5 5.5 0.5 -2.5 0.5 0 0.5 5 
0.5 8 0.5 2.5 0.5 -10.5 0.5 0 0 5.5 0.5 -5.5 0.5 0 0.5 -16 
0.5 -2.5 0.5 0 0.5 -5 0.5 18.5 0.5 -8 0.5 5 0.5 0 0.5 3 
0.5 0 0.5 13 0.5 10.5 0.5 -2.5 0.5 2.5 0.5 -2.5 0.5 -8 0.5 -47.5 
0.5 10.5 0.5 -2.5 0.5 2.5 0.5 0 0.5 13 0.5 -2.5 0.5 8 0.5 5.5 
0.5 5 0.5 -8 0.5 -2.5 0.5 0 0.5 5.5 0.5 -3 0.5 5.5 0.5 5 
0.5 18.5 0.5 3 0.5 -5.5 0.5 -2.5 0.5 -13.5 0.5 5.5 0.5 -13 0.5 -11 
0.5 29.5 S
3188 710 0.5 2.5 0.5 -2.5 0.5 2.5 0.5 -5.5 0.5 -18.5 0.5 3 0.5 -21.5 
0.5 10.5 0.5 -2.5 0.5 -2.5 0.5 0 0.5 0 0.5 5 0.5 16 0.5 -10.5 
0.5 0 0.5 5.5 0.5 -3 0.5 0 0.5 5.5 0.5 16 0.5 -8 0.5 10.5 
0.5 -2.5 0.5 -16 0.5 -10.5 0.5 5 0.5 -13 0.5 2.5 0.5 -2.5 0.5 0 
0.5 -2.5 0.5 5 0.5 18.5 0.5 -10.5 0.5 2.5 0.5 8 0.5 -10.5 0.5 -13 
0.5 13 0.5 -2.5 0.5 2.5 0.5 24 0.5 -5.5 0.5 0 0.5 -16 0.5 -8 
0.5 8 0.5 -2.5 0.5 -10.5 0.5 -5.5 0.5 8 0.5 -5 0.5 7.5 0.5 -2.5 
0.5 10.5 0.5 3 0.5 -5.5 0.5 -8 0.5 -2.5 0.5 -5.5 0.5 -5 0.5 13 
0.5 -2.5 0.5 8 0.5 5 0.5 16 0.5 -18.5 0.5 2.5 0.5 -15.5 0.5 -3 
0.5 5.5 0.5 18.5 0.5 -2.5 0.5 -8 0.5 187.5 0.5 -5.5 0.5 2.5 0.5 0 
0.5 3 0.5 -185 0.5 -2.5 0.5 -5.5 0.5 -2.5 0.5 8 0.5 -10.5 0.5 2.5 
0.5 8 0.5 2.5 0.5 -5.5 0.5 -7.5 0.5 -3 0.5 3 0.5 0 0.5 10.5 
0.5 -5.5 0.5 -2.5 0.5 2.5 0.5 21 0.5 0 0.5 8 0.5 -5 0.5 0 
0.5 -5.5 S
3240 696.5 0.5 -2.5 0.5 -13.5 0.5 8 0.5 10.5 0.5 0 0.5 -15.5 0.5 0 
0.5 -8 0.5 -2.5 0.5 0 0.5 10.5 0.5 10.5 0.5 16 0.5 5 0.5 -10.5 
0.5 -2.5 0.5 -29 0.5 5 0.5 0 0.5 -5 0.5 0 0.5 -5.5 0.5 -2.5 
0.5 5 0.5 0 0.5 3 0.5 7.5 0.5 13.5 0.5 -5.5 0.5 -2.5 0.5 2.5 
0.5 -10.5 0.5 2.5 0.5 -5 0.5 0 0.5 16 0.5 2.5 0.5 8 0.5 8 
0.5 -5.5 0.5 0 0.5 -13 0.5 5 0.5 -10.5 0.5 0 0.5 0 0.5 8 
0.5 -8 0.5 0 0.5 0 0.5 -10.5 0.5 -2.5 0.5 10.5 0.5 8 0.5 -5.5 
0.5 -8 0.5 5.5 0.5 2.5 0.5 -2.5 0.5 -5.5 0.5 -8 0.5 5.5 0.5 10.5 
0.5 5.5 0.5 -13.5 0.5 21 0.5 -13 0.5 2.5 0.5 3 0.5 7.5 0.5 -2.5 
0.5 10.5 0.5 -8 0.5 -2.5 0.5 -2.5 0.5 -2.5 0.5 0 0.5 -16 0.5 -2.5 
0.5 5 0.5 2.5 0.5 3 0.5 13 0.5 0 0.5 0 0.5 -5 0.5 13 
0.5 -13 0.5 0 0.5 -3 0.5 -10.5 0.5 8 0.5 -2.5 S
5 w
806 620 2484 528 re
S
cleartomark end end pagesave restore
 showpage
%%PageTrailer
%%Trailer
%%Pages: 1
