%!PS-Adobe-3.0 EPSF-3.0
%%Title: odular-decomp-stream.fig
%%Creator: fig2dev Version 3.2 Patchlevel 5e
%%CreationDate: Tue Jun 14 15:14:12 2016
%%BoundingBox: 0 0 427 96
%Magnification: 1.0000
%%EndComments
%%BeginProlog
/$F2psDict 200 dict def
$F2psDict begin
$F2psDict /mtrx matrix put
/col-1 {0 setgray} bind def
/col0 {0.000 0.000 0.000 srgb} bind def
/col1 {0.000 0.000 1.000 srgb} bind def
/col2 {0.000 1.000 0.000 srgb} bind def
/col3 {0.000 1.000 1.000 srgb} bind def
/col4 {1.000 0.000 0.000 srgb} bind def
/col5 {1.000 0.000 1.000 srgb} bind def
/col6 {1.000 1.000 0.000 srgb} bind def
/col7 {1.000 1.000 1.000 srgb} bind def
/col8 {0.000 0.000 0.560 srgb} bind def
/col9 {0.000 0.000 0.690 srgb} bind def
/col10 {0.000 0.000 0.820 srgb} bind def
/col11 {0.530 0.810 1.000 srgb} bind def
/col12 {0.000 0.560 0.000 srgb} bind def
/col13 {0.000 0.690 0.000 srgb} bind def
/col14 {0.000 0.820 0.000 srgb} bind def
/col15 {0.000 0.560 0.560 srgb} bind def
/col16 {0.000 0.690 0.690 srgb} bind def
/col17 {0.000 0.820 0.820 srgb} bind def
/col18 {0.560 0.000 0.000 srgb} bind def
/col19 {0.690 0.000 0.000 srgb} bind def
/col20 {0.820 0.000 0.000 srgb} bind def
/col21 {0.560 0.000 0.560 srgb} bind def
/col22 {0.690 0.000 0.690 srgb} bind def
/col23 {0.820 0.000 0.820 srgb} bind def
/col24 {0.500 0.190 0.000 srgb} bind def
/col25 {0.630 0.250 0.000 srgb} bind def
/col26 {0.750 0.380 0.000 srgb} bind def
/col27 {1.000 0.500 0.500 srgb} bind def
/col28 {1.000 0.630 0.630 srgb} bind def
/col29 {1.000 0.750 0.750 srgb} bind def
/col30 {1.000 0.880 0.880 srgb} bind def
/col31 {1.000 0.840 0.000 srgb} bind def
/col32 {0.533 0.533 0.533 srgb} bind def

end

/cp {closepath} bind def
/ef {eofill} bind def
/gr {grestore} bind def
/gs {gsave} bind def
/sa {save} bind def
/rs {restore} bind def
/l {lineto} bind def
/m {moveto} bind def
/rm {rmoveto} bind def
/n {newpath} bind def
/s {stroke} bind def
/sh {show} bind def
/slc {setlinecap} bind def
/slj {setlinejoin} bind def
/slw {setlinewidth} bind def
/srgb {setrgbcolor} bind def
/rot {rotate} bind def
/sc {scale} bind def
/sd {setdash} bind def
/ff {findfont} bind def
/sf {setfont} bind def
/scf {scalefont} bind def
/sw {stringwidth} bind def
/tr {translate} bind def
/tnt {dup dup currentrgbcolor
  4 -2 roll dup 1 exch sub 3 -1 roll mul add
  4 -2 roll dup 1 exch sub 3 -1 roll mul add
  4 -2 roll dup 1 exch sub 3 -1 roll mul add srgb}
  bind def
/shd {dup dup currentrgbcolor 4 -2 roll mul 4 -2 roll mul
  4 -2 roll mul srgb} bind def
 /DrawEllipse {
	/endangle exch def
	/startangle exch def
	/yrad exch def
	/xrad exch def
	/y exch def
	/x exch def
	/savematrix mtrx currentmatrix def
	x y tr xrad yrad sc 0 0 1 startangle endangle arc
	closepath
	savematrix setmatrix
	} def

/$F2psBegin {$F2psDict begin /$F2psEnteredState save def} def
/$F2psEnd {$F2psEnteredState restore end} def

/pageheader {
save
newpath 0 96 moveto 0 0 lineto 427 0 lineto 427 96 lineto closepath clip newpath
2070.2 454.3 translate
1 -1 scale
$F2psBegin
10 setmiterlimit
0 slj 0 slc
 0.06299 0.06299 sc
} bind def
/pagefooter {
$F2psEnd
restore
} bind def
%%EndProlog
pageheader
%
% Fig objects follow
%
% 
% here starts figure with depth 51
% Polyline
0 slj
0 slc
7.500 slw
 [15 45] 45 sd
n -32400 5850 m
 -32400 7200 l gs col32 s gr  [] 0 sd
% Polyline
 [15 45] 45 sd
n -32175 5850 m
 -32175 7200 l gs col32 s gr  [] 0 sd
% Polyline
 [15 45] 45 sd
n -31950 5850 m
 -31950 7200 l gs col32 s gr  [] 0 sd
% Polyline
 [15 45] 45 sd
n -31725 5850 m
 -31725 7200 l gs col32 s gr  [] 0 sd
% Polyline
 [15 45] 45 sd
n -31500 5850 m
 -31500 7200 l gs col32 s gr  [] 0 sd
% Polyline
 [15 45] 45 sd
n -31275 5850 m
 -31275 7200 l gs col32 s gr  [] 0 sd
% Polyline
 [15 45] 45 sd
n -31050 5850 m
 -31050 7200 l gs col32 s gr  [] 0 sd
% Polyline
 [15 45] 45 sd
n -30825 5850 m
 -30825 7200 l gs col32 s gr  [] 0 sd
% Polyline
 [15 45] 45 sd
n -30600 5850 m
 -30600 7200 l gs col32 s gr  [] 0 sd
% Polyline
 [15 45] 45 sd
n -30375 5850 m
 -30375 7200 l gs col32 s gr  [] 0 sd
% Polyline
 [15 45] 45 sd
n -30150 5850 m
 -30150 7200 l gs col32 s gr  [] 0 sd
% Polyline
 [15 45] 45 sd
n -29925 5850 m
 -29925 7200 l gs col32 s gr  [] 0 sd
% Polyline
45.000 slw
n -28575 5940 m -26775 5940 l -26775 6210 l -28575 6210 l
 cp gs col12 s gr 
% Polyline
7.500 slw
 [15 45] 45 sd
n -28800 5850 m
 -28800 7200 l gs col32 s gr  [] 0 sd
% Polyline
 [15 45] 45 sd
n -26325 5850 m
 -26325 7200 l gs col32 s gr  [] 0 sd
% Polyline
 [15 45] 45 sd
n -26550 5850 m
 -26550 7200 l gs col32 s gr  [] 0 sd
% Polyline
 [15 45] 45 sd
n -26775 5850 m
 -26775 7200 l gs col32 s gr  [] 0 sd
% Polyline
 [15 45] 45 sd
n -27000 5850 m
 -27000 7200 l gs col32 s gr  [] 0 sd
% Polyline
 [15 45] 45 sd
n -27225 5850 m
 -27225 7200 l gs col32 s gr  [] 0 sd
% Polyline
 [15 45] 45 sd
n -27450 5850 m
 -27450 7200 l gs col32 s gr  [] 0 sd
% Polyline
 [15 45] 45 sd
n -27675 5850 m
 -27675 7200 l gs col32 s gr  [] 0 sd
% Polyline
 [15 45] 45 sd
n -27900 5850 m
 -27900 7200 l gs col32 s gr  [] 0 sd
% Polyline
 [15 45] 45 sd
n -28125 5850 m
 -28125 7200 l gs col32 s gr  [] 0 sd
% Polyline
 [15 45] 45 sd
n -28350 5850 m
 -28350 7200 l gs col32 s gr  [] 0 sd
% Polyline
 [15 45] 45 sd
n -28575 5850 m
 -28575 7200 l gs col32 s gr  [] 0 sd
% Polyline
45.000 slw
n -28575 6390 m -26775 6390 l -26775 7065 l -28575 7065 l
 cp gs col12 s gr 
% Polyline
n -32175 6435 m -31725 6435 l -31725 7110 l -32175 7110 l
 cp gs col12 s gr 
% Polyline
n -32175 5985 m -31725 5985 l -31725 6210 l -32175 6210 l
 cp gs col12 s gr 
% Polyline
n -30825 5985 m -30375 5985 l -30375 6210 l -30825 6210 l
 cp gs col12 s gr 
% Polyline
n -30825 6435 m -30375 6435 l -30375 7110 l -30825 7110 l
 cp gs col12 s gr 
/Times-Roman ff 127.00 scf sf
-32445 5805 m
gs 1 -1 sc (1) col32 sh gr
/Times-Roman ff 127.00 scf sf
-31995 5805 m
gs 1 -1 sc (3) col32 sh gr
/Times-Roman ff 127.00 scf sf
-31545 5805 m
gs 1 -1 sc (5) col32 sh gr
/Times-Roman ff 127.00 scf sf
-31095 5805 m
gs 1 -1 sc (7) col32 sh gr
/Times-Roman ff 127.00 scf sf
-30645 5805 m
gs 1 -1 sc (9) col32 sh gr
/Times-Roman ff 127.00 scf sf
-30240 5805 m
gs 1 -1 sc (11) col32 sh gr
/Times-Roman ff 127.00 scf sf
-28845 5805 m
gs 1 -1 sc (1) col32 sh gr
/Times-Roman ff 127.00 scf sf
-26640 5805 m
gs 1 -1 sc (11) col32 sh gr
/Times-Roman ff 127.00 scf sf
-28395 5805 m
gs 1 -1 sc (3) col32 sh gr
/Times-Roman ff 127.00 scf sf
-27945 5805 m
gs 1 -1 sc (5) col32 sh gr
/Times-Roman ff 127.00 scf sf
-27495 5805 m
gs 1 -1 sc (7) col32 sh gr
/Times-Roman ff 127.00 scf sf
-27045 5805 m
gs 1 -1 sc (9) col32 sh gr
% Arc
7.500 slw
n -31095.0 6525.0 1170.0 -157.3801 157.3801 arcn
gs col0 s gr

% Arc
n -29745.0 6525.0 1170.0 -157.3801 157.3801 arcn
gs col0 s gr

% Ellipse
n -32175 6075 45 45 0 360 DrawEllipse gs col7 0.00 shd ef gr gs col0 s gr

% Ellipse
n -32175 6525 45 45 0 360 DrawEllipse gs col7 0.00 shd ef gr gs col0 s gr

% Ellipse
n -32175 6975 45 45 0 360 DrawEllipse gs col7 0.00 shd ef gr gs col0 s gr

% Ellipse
n -30825 6075 45 45 0 360 DrawEllipse gs col7 0.00 shd ef gr gs col0 s gr

% Ellipse
n -30825 6525 45 45 0 360 DrawEllipse gs col7 0.00 shd ef gr gs col0 s gr

% Ellipse
n -30825 6975 45 45 0 360 DrawEllipse gs col7 0.00 shd ef gr gs col0 s gr

% Polyline
 [60] 0 sd
n -32625 6075 m
 -29700 6075 l gs col0 s gr  [] 0 sd
% Polyline
 [60] 0 sd
n -32625 6525 m
 -29700 6525 l gs col0 s gr  [] 0 sd
% Polyline
 [60] 0 sd
n -32625 6975 m
 -29700 6975 l gs col0 s gr  [] 0 sd
% Polyline
n -30825 6075 m
 -30825 6525 l gs col0 s gr 
% Polyline
n -32175 6075 m
 -32175 6525 l gs col0 s gr 
% Polyline
n -32175 6300 m
 -31725 6300 l gs col0 s gr 
% Polyline
n -32244 6753 m
 -31721 6753 l gs col0 s gr 
% Polyline
n -30894 6750 m
 -30371 6750 l gs col0 s gr 
% Polyline
n -30825 6300 m
 -30375 6300 l gs col0 s gr 
% Ellipse
n -28575 6075 45 45 0 360 DrawEllipse gs col7 0.00 shd ef gr gs col0 s gr

% Ellipse
n -28575 6525 45 45 0 360 DrawEllipse gs col7 0.00 shd ef gr gs col0 s gr

% Ellipse
n -27225 6075 45 45 0 360 DrawEllipse gs col7 0.00 shd ef gr gs col0 s gr

% Ellipse
n -27225 6525 45 45 0 360 DrawEllipse gs col7 0.00 shd ef gr gs col0 s gr

% Ellipse
n -28350 6075 45 45 0 360 DrawEllipse gs col7 0.00 shd ef gr gs col0 s gr

% Ellipse
n -28350 6975 45 45 0 360 DrawEllipse gs col7 0.00 shd ef gr gs col0 s gr

% Ellipse
n -27450 6075 45 45 0 360 DrawEllipse gs col7 0.00 shd ef gr gs col0 s gr

% Ellipse
n -27450 6975 45 45 0 360 DrawEllipse gs col7 0.00 shd ef gr gs col0 s gr

% Polyline
 [60] 0 sd
n -29025 6075 m
 -26100 6075 l gs col0 s gr  [] 0 sd
% Polyline
 [60] 0 sd
n -29025 6525 m
 -26100 6525 l gs col0 s gr  [] 0 sd
% Polyline
 [60] 0 sd
n -29025 6975 m
 -26100 6975 l gs col0 s gr  [] 0 sd
% Polyline
n -27225 6075 m
 -27225 6525 l gs col0 s gr 
% Polyline
n -28575 6075 m
 -28575 6525 l gs col0 s gr 
% Polyline
n -28575 6300 m
 -28125 6300 l gs col0 s gr 
% Polyline
n -27225 6300 m
 -26775 6300 l gs col0 s gr 
% Polyline
n -28350 6075 m
 -28350 6975 l gs col0 s gr 
% Polyline
n -27450 6075 m
 -27450 6975 l gs col0 s gr 
% Polyline
n -27450 6750 m
 -27000 6750 l gs col0 s gr 
% Polyline
n -28350 6750 m
 -27900 6750 l gs col0 s gr 
/Times-Roman ff 285.75 scf sf
-32850 6570 m
gs 1 -1 sc (b) col0 sh gr
/Times-Roman ff 285.75 scf sf
-32850 7020 m
gs 1 -1 sc (c) col0 sh gr
/Times-Roman ff 285.75 scf sf
-32850 6120 m
gs 1 -1 sc (a) col0 sh gr
/Times-Roman ff 285.75 scf sf
-29250 6570 m
gs 1 -1 sc (b) col0 sh gr
/Times-Roman ff 285.75 scf sf
-29250 7020 m
gs 1 -1 sc (c) col0 sh gr
/Times-Roman ff 285.75 scf sf
-29250 6120 m
gs 1 -1 sc (a) col0 sh gr
% here ends figure;
pagefooter
showpage
%%Trailer
%EOF
