#FIG 3.2  Produced by xfig version 3.2.5c
Landscape
Center
Metric
A4      
100.00
Single
-2
1200 2
0 32 #666666
1 3 0 1 0 0 53 -1 20 4.000 1 0.0000 1575 4050 45 45 1575 4050 1620 4050
1 3 0 1 0 0 53 -1 20 4.000 1 0.0000 1575 4500 45 45 1575 4500 1620 4500
1 3 0 1 0 0 53 -1 20 4.000 1 0.0000 2250 4500 45 45 2250 4500 2295 4500
1 3 0 1 0 0 53 -1 20 4.000 1 0.0000 2250 4950 45 45 2250 4950 2295 4950
1 3 0 1 0 0 53 -1 20 4.000 1 0.0000 3150 4050 45 45 3150 4050 3195 4050
1 3 0 1 0 0 53 -1 20 4.000 1 0.0000 3150 4500 45 45 3150 4500 3195 4500
1 3 0 1 0 0 53 -1 20 4.000 1 0.0000 1350 4500 45 45 1350 4500 1395 4500
1 3 0 1 0 0 53 -1 20 4.000 1 0.0000 1350 4950 45 45 1350 4950 1395 4950
2 1 1 1 0 11 53 -1 20 4.000 0 0 7 0 0 2
	 1350 4050 3600 4050
2 1 1 1 0 11 53 -1 20 4.000 0 0 7 0 0 2
	 1350 4500 3600 4500
2 1 1 1 0 11 53 -1 20 4.000 0 0 7 0 0 2
	 1350 4950 3600 4950
2 1 0 1 0 11 53 -1 20 4.000 0 0 7 1 0 2
	1 1 1.00 60.00 120.00
	 1350 5175 3600 5175
2 1 0 1 0 11 53 -1 20 4.000 0 0 7 0 0 2
	 1800 5175 1800 5130
2 1 0 1 0 11 53 -1 20 4.000 0 0 7 0 0 2
	 2250 5175 2250 5130
2 1 0 1 0 11 53 -1 20 4.000 0 0 7 0 0 2
	 2700 5175 2700 5130
2 1 0 1 0 11 53 -1 20 4.000 0 0 7 0 0 2
	 3150 5175 3150 5130
2 1 0 1 0 0 53 -1 20 4.000 0 0 7 0 0 11
	 1575 4050 1575 4095 1575 4140 1575 4185 1575 4230 1575 4275
	 1575 4320 1575 4365 1575 4410 1575 4455 1575 4500
2 1 0 1 0 0 53 -1 20 4.000 0 0 7 0 0 2
	 2250 4500 2250 4950
2 1 0 1 0 0 53 -1 20 4.000 0 0 7 0 0 2
	 1575 4275 2700 4275
2 1 0 1 0 0 53 -1 20 4.000 0 0 7 0 0 2
	 2250 4725 3375 4725
2 2 0 1 11 11 54 -1 20 4.000 0 0 7 0 0 5
	 1350 4005 2925 4005 2925 4095 1350 4095 1350 4005
2 2 0 1 11 11 54 -1 20 4.000 0 0 -1 0 0 5
	 1800 4455 2475 4455 2475 4545 1800 4545 1800 4455
2 2 0 1 11 11 54 -1 20 4.000 0 0 -1 0 0 5
	 2250 4905 3375 4905 3375 4995 2250 4995 2250 4905
2 1 0 1 0 11 53 -1 20 4.000 0 0 -1 0 0 2
	 1350 4500 1350 4950
2 1 0 1 0 11 53 -1 20 4.000 0 0 -1 0 0 2
	 1350 4725 2025 4725
2 1 0 1 0 11 53 -1 20 4.000 0 0 -1 0 0 2
	 3150 4050 3150 4500
2 1 0 1 0 11 53 -1 20 4.000 0 0 -1 0 0 2
	 3150 4275 3465 4275
2 2 0 1 13 13 54 -1 20 4.000 0 0 -1 0 0 5
	 2925 4005 3600 4005 3600 4095 2925 4095 2925 4005
2 2 0 1 13 13 54 -1 20 4.000 0 0 -1 0 0 5
	 2700 4455 3600 4455 3600 4545 2700 4545 2700 4455
2 2 0 1 13 13 54 -1 20 4.000 0 0 -1 0 0 5
	 3375 4905 3600 4905 3600 4995 3375 4995 3375 4905
2 2 0 1 27 27 54 -1 20 4.000 0 0 -1 0 0 5
	 1350 4905 2250 4905 2250 4995 1350 4995 1350 4905
2 2 0 1 27 27 54 -1 20 4.000 0 0 -1 0 0 5
	 1350 4455 1800 4455 1800 4545 1350 4545 1350 4455
2 2 0 1 27 27 54 -1 20 4.000 0 0 -1 0 0 5
	 2475 4455 2700 4455 2700 4545 2475 4545 2475 4455
4 0 0 53 -1 0 13 0.0000 4 90 90 1125 4095 a\001
4 0 0 53 -1 0 13 0.0000 4 135 105 1125 4545 b\001
4 0 0 53 -1 0 13 0.0000 4 90 90 1125 4995 c\001
4 0 0 53 -1 0 10 0.0000 4 105 90 1755 5400 2\001
4 0 0 53 -1 0 10 0.0000 4 105 90 3105 5400 8\001
4 0 0 54 -1 0 10 0.0000 4 105 300 3555 5400 time\001
