%!PS-Adobe-3.0 EPSF-3.0
%%Title: nodecluster-graph.fig
%%Creator: fig2dev Version 3.2 Patchlevel 5e
%%CreationDate: Thu Jul 14 19:35:01 2016
%%BoundingBox: 0 0 212 123
%Magnification: 1.0000
%%EndComments
%%BeginProlog
/$F2psDict 200 dict def
$F2psDict begin
$F2psDict /mtrx matrix put
/col-1 {0 setgray} bind def
/col0 {0.000 0.000 0.000 srgb} bind def
/col1 {0.000 0.000 1.000 srgb} bind def
/col2 {0.000 1.000 0.000 srgb} bind def
/col3 {0.000 1.000 1.000 srgb} bind def
/col4 {1.000 0.000 0.000 srgb} bind def
/col5 {1.000 0.000 1.000 srgb} bind def
/col6 {1.000 1.000 0.000 srgb} bind def
/col7 {1.000 1.000 1.000 srgb} bind def
/col8 {0.000 0.000 0.560 srgb} bind def
/col9 {0.000 0.000 0.690 srgb} bind def
/col10 {0.000 0.000 0.820 srgb} bind def
/col11 {0.530 0.810 1.000 srgb} bind def
/col12 {0.000 0.560 0.000 srgb} bind def
/col13 {0.000 0.690 0.000 srgb} bind def
/col14 {0.000 0.820 0.000 srgb} bind def
/col15 {0.000 0.560 0.560 srgb} bind def
/col16 {0.000 0.690 0.690 srgb} bind def
/col17 {0.000 0.820 0.820 srgb} bind def
/col18 {0.560 0.000 0.000 srgb} bind def
/col19 {0.690 0.000 0.000 srgb} bind def
/col20 {0.820 0.000 0.000 srgb} bind def
/col21 {0.560 0.000 0.560 srgb} bind def
/col22 {0.690 0.000 0.690 srgb} bind def
/col23 {0.820 0.000 0.820 srgb} bind def
/col24 {0.500 0.190 0.000 srgb} bind def
/col25 {0.630 0.250 0.000 srgb} bind def
/col26 {0.750 0.380 0.000 srgb} bind def
/col27 {1.000 0.500 0.500 srgb} bind def
/col28 {1.000 0.630 0.630 srgb} bind def
/col29 {1.000 0.750 0.750 srgb} bind def
/col30 {1.000 0.880 0.880 srgb} bind def
/col31 {1.000 0.840 0.000 srgb} bind def
/col32 {0.400 0.400 0.400 srgb} bind def

end

/cp {closepath} bind def
/ef {eofill} bind def
/gr {grestore} bind def
/gs {gsave} bind def
/sa {save} bind def
/rs {restore} bind def
/l {lineto} bind def
/m {moveto} bind def
/rm {rmoveto} bind def
/n {newpath} bind def
/s {stroke} bind def
/sh {show} bind def
/slc {setlinecap} bind def
/slj {setlinejoin} bind def
/slw {setlinewidth} bind def
/srgb {setrgbcolor} bind def
/rot {rotate} bind def
/sc {scale} bind def
/sd {setdash} bind def
/ff {findfont} bind def
/sf {setfont} bind def
/scf {scalefont} bind def
/sw {stringwidth} bind def
/tr {translate} bind def
/tnt {dup dup currentrgbcolor
  4 -2 roll dup 1 exch sub 3 -1 roll mul add
  4 -2 roll dup 1 exch sub 3 -1 roll mul add
  4 -2 roll dup 1 exch sub 3 -1 roll mul add srgb}
  bind def
/shd {dup dup currentrgbcolor 4 -2 roll mul 4 -2 roll mul
  4 -2 roll mul srgb} bind def
 /DrawEllipse {
	/endangle exch def
	/startangle exch def
	/yrad exch def
	/xrad exch def
	/y exch def
	/x exch def
	/savematrix mtrx currentmatrix def
	x y tr xrad yrad sc 0 0 1 startangle endangle arc
	closepath
	savematrix setmatrix
	} def

/$F2psBegin {$F2psDict begin /$F2psEnteredState save def} def
/$F2psEnd {$F2psEnteredState restore end} def

/pageheader {
save
newpath 0 123 moveto 0 0 lineto 212 0 lineto 212 123 lineto closepath clip newpath
-101.1 182.4 translate
1 -1 scale
$F2psBegin
10 setmiterlimit
0 slj 0 slc
 0.06299 0.06299 sc
} bind def
/pagefooter {
$F2psEnd
restore
} bind def
%%EndProlog
pageheader
%
% Fig objects follow
%
% 
% here starts figure with depth 52
% Polyline
0 slj
0 slc
7.500 slw
n 4365 1575 m
 4365 2250 l gs 0.00 setgray ef gr gs col0 s gr 
% Polyline
n 4365 2250 m
 4815 1350 l gs 0.00 setgray ef gr gs col0 s gr 
% Polyline
n 4815 1350 m
 4815 2025 l gs 0.00 setgray ef gr gs col0 s gr 
% Polyline
n 4815 2025 m
 4365 2250 l gs 0.00 setgray ef gr gs col0 s gr 
% Polyline
n 1800 2250 m
 2700 2250 l gs 0.00 setgray ef gr gs col0 s gr 
% Polyline
n 2250 2700 m
 2700 2250 l gs 0.00 setgray ef gr gs col0 s gr 
% Polyline
n 2745 1575 m
 1800 2250 l gs 0.00 setgray ef gr gs col0 s gr 
% Polyline
n 1800 1575 m
 2745 1575 l gs 0.00 setgray ef gr gs col0 s gr 
% Polyline
n 2250 1125 m
 1800 1575 l gs 0.00 setgray ef gr gs col0 s gr 
% Polyline
n 2250 1125 m
 2700 1575 l gs col10 1.00 shd ef gr gs col0 s gr 
% Polyline
n 1800 1575 m
 1800 2250 l gs col10 1.00 shd ef gr gs col0 s gr 
% Polyline
n 1800 1575 m
 2700 2250 l gs col10 1.00 shd ef gr gs col0 s gr 
% Polyline
n 2250 1125 m
 2700 2295 l gs col10 1.00 shd ef gr gs col0 s gr 
% Polyline
n 1800 1575 m
 2250 2700 l gs col10 1.00 shd ef gr gs col0 s gr 
% Polyline
n 2700 1575 m
 4365 1575 l gs col10 1.00 shd ef gr gs col0 s gr 
% Polyline
n 2250 1125 m
 4815 1350 l gs col10 1.00 shd ef gr gs col0 s gr 
% Polyline
n 2700 2250 m
 4365 1575 l gs col10 1.00 shd ef gr gs col0 s gr 
% Polyline
n 2250 2700 m
 4365 2250 l gs col10 1.00 shd ef gr gs col0 s gr 
% Polyline
n 4815 2025 m
 2700 2250 l gs col10 1.00 shd ef gr gs col0 s gr 
/Times-Roman ff 158.75 scf sf
2160 1035 m
gs 1 -1 sc (a) col0 sh gr
/Times-Roman ff 158.75 scf sf
1620 1530 m
gs 1 -1 sc (b) col0 sh gr
/Times-Roman ff 158.75 scf sf
1620 2295 m
gs 1 -1 sc (c) col0 sh gr
/Times-Roman ff 158.75 scf sf
2070 2880 m
gs 1 -1 sc (d) col0 sh gr
/Times-Roman ff 158.75 scf sf
2745 2160 m
gs 1 -1 sc (e) col0 sh gr
/Times-Roman ff 158.75 scf sf
2745 1485 m
gs 1 -1 sc (f) col0 sh gr
/Times-Roman ff 158.75 scf sf
4230 1485 m
gs 1 -1 sc (g) col0 sh gr
/Times-Roman ff 158.75 scf sf
4860 1260 m
gs 1 -1 sc (h) col0 sh gr
/Times-Roman ff 158.75 scf sf
4905 2205 m
gs 1 -1 sc (i) col0 sh gr
/Times-Roman ff 158.75 scf sf
4455 2475 m
gs 1 -1 sc (j) col0 sh gr
% Ellipse
n 2250 1125 64 64 0 360 DrawEllipse gs col20 1.00 shd ef gr gs col0 s gr

% Ellipse
n 1800 1575 64 64 0 360 DrawEllipse gs col20 1.00 shd ef gr gs col0 s gr

% Ellipse
n 2700 2250 64 64 0 360 DrawEllipse gs col20 1.00 shd ef gr gs col0 s gr

% Ellipse
n 2250 2700 64 64 0 360 DrawEllipse gs col20 1.00 shd ef gr gs col0 s gr

% Ellipse
n 1800 2250 64 64 0 360 DrawEllipse gs col20 1.00 shd ef gr gs col0 s gr

% Ellipse
n 4815 1350 64 64 0 360 DrawEllipse gs col10 1.00 shd ef gr gs col0 s gr

% Ellipse
n 4815 2025 64 64 0 360 DrawEllipse gs col10 1.00 shd ef gr gs col0 s gr

% Ellipse
n 4365 2250 64 64 0 360 DrawEllipse gs col10 1.00 shd ef gr gs col0 s gr

% Ellipse
n 4365 1575 64 64 0 360 DrawEllipse gs col10 1.00 shd ef gr gs col0 s gr

% Ellipse
n 2700 1575 64 64 0 360 DrawEllipse gs col20 1.00 shd ef gr gs col0 s gr

% here ends figure;
pagefooter
showpage
%%Trailer
%EOF
