#FIG 3.2  Produced by xfig version 3.2.5c
Landscape
Center
Metric
A4      
100.00
Single
-2
1200 2
0 32 #666666
6 1125 4005 3870 5400
1 3 0 1 0 0 53 -1 20 4.000 1 0.0000 1575 4050 45 45 1575 4050 1620 4050
1 3 0 1 0 0 53 -1 20 4.000 1 0.0000 1575 4500 45 45 1575 4500 1620 4500
1 3 0 1 0 0 53 -1 20 4.000 1 0.0000 2250 4500 45 45 2250 4500 2295 4500
1 3 0 1 0 0 53 -1 20 4.000 1 0.0000 2250 4950 45 45 2250 4950 2295 4950
1 3 0 1 0 0 53 -1 20 4.000 1 0.0000 1350 4500 45 45 1350 4500 1395 4500
1 3 0 1 0 0 53 -1 20 4.000 1 0.0000 1350 4950 45 45 1350 4950 1395 4950
1 3 0 1 0 0 53 -1 20 4.000 1 0.0000 3150 4050 45 45 3150 4050 3195 4050
1 3 0 1 0 0 53 -1 20 4.000 1 0.0000 3150 4500 45 45 3150 4500 3195 4500
2 1 1 1 0 11 53 -1 20 4.000 0 0 7 0 0 2
	 1350 4050 3600 4050
2 1 1 1 0 11 53 -1 20 4.000 0 0 7 0 0 2
	 1350 4500 3600 4500
2 1 0 1 0 11 53 -1 20 4.000 0 0 7 1 0 2
	1 1 1.00 60.00 120.00
	 1350 5175 3600 5175
2 1 0 1 0 11 53 -1 20 4.000 0 0 7 0 0 2
	 1800 5175 1800 5130
2 1 0 1 0 11 53 -1 20 4.000 0 0 7 0 0 2
	 2250 5175 2250 5130
2 1 0 1 0 11 53 -1 20 4.000 0 0 7 0 0 2
	 2700 5175 2700 5130
2 1 0 1 0 11 53 -1 20 4.000 0 0 7 0 0 2
	 3150 5175 3150 5130
2 1 0 1 0 0 53 -1 20 4.000 0 0 7 0 0 11
	 1575 4050 1575 4095 1575 4140 1575 4185 1575 4230 1575 4275
	 1575 4320 1575 4365 1575 4410 1575 4455 1575 4500
2 1 0 1 0 0 53 -1 20 4.000 0 0 7 0 0 2
	 2250 4500 2250 4950
2 1 0 1 0 0 53 -1 20 4.000 0 0 7 0 0 2
	 1575 4275 2700 4275
2 1 0 1 0 0 53 -1 20 4.000 0 0 7 0 0 2
	 2250 4725 3375 4725
2 2 0 1 11 11 54 -1 20 4.000 0 0 7 0 0 5
	 1350 4005 2925 4005 2925 4095 1350 4095 1350 4005
2 2 0 1 11 11 54 -1 20 4.000 0 0 -1 0 0 5
	 1800 4455 2475 4455 2475 4545 1800 4545 1800 4455
2 2 0 1 11 11 54 -1 20 4.000 0 0 -1 0 0 5
	 2250 4905 3375 4905 3375 4995 2250 4995 2250 4905
2 1 0 1 0 11 53 -1 20 4.000 0 0 -1 0 0 2
	 1350 4500 1350 4950
2 1 0 1 0 11 53 -1 20 4.000 0 0 -1 0 0 2
	 1350 4725 2025 4725
2 1 1 1 0 11 53 -1 20 4.000 0 0 7 0 0 2
	 1350 4950 3600 4950
2 1 0 1 0 27 54 -1 20 4.000 0 0 -1 0 0 2
	 3150 4050 3150 4500
2 1 0 1 0 27 54 -1 20 4.000 0 0 -1 0 0 2
	 3150 4275 3465 4275
4 0 0 53 -1 0 13 0.0000 4 90 90 1125 4095 a\001
4 0 0 53 -1 0 13 0.0000 4 135 105 1125 4545 b\001
4 0 0 53 -1 0 13 0.0000 4 90 90 1125 4995 c\001
4 0 0 53 -1 0 10 0.0000 4 105 90 1755 5400 2\001
4 0 0 53 -1 0 10 0.0000 4 105 90 3105 5400 8\001
4 0 0 54 -1 0 10 0.0000 4 105 300 3555 5400 time\001
-6
1 3 0 1 0 0 53 -1 20 4.000 1 0.0000 8325 4050 45 45 8325 4050 8370 4050
1 3 0 1 0 0 53 -1 20 4.000 1 0.0000 8325 4500 45 45 8325 4500 8370 4500
1 3 0 1 0 0 53 -1 20 4.000 1 0.0000 9000 4500 45 45 9000 4500 9045 4500
1 3 0 1 0 0 53 -1 20 4.000 1 0.0000 9000 4950 45 45 9000 4950 9045 4950
1 3 0 1 0 0 53 -1 20 4.000 1 0.0000 8100 4500 45 45 8100 4500 8145 4500
1 3 0 1 0 0 53 -1 20 4.000 1 0.0000 8100 4950 45 45 8100 4950 8145 4950
1 3 0 1 0 0 53 -1 20 4.000 1 0.0000 9900 4050 45 45 9900 4050 9945 4050
1 3 0 1 0 0 53 -1 20 4.000 1 0.0000 9900 4500 45 45 9900 4500 9945 4500
1 3 0 1 0 0 53 -1 20 4.000 1 0.0000 4950 4050 45 45 4950 4050 4995 4050
1 3 0 1 0 0 53 -1 20 4.000 1 0.0000 4950 4500 45 45 4950 4500 4995 4500
1 3 0 1 0 0 53 -1 20 4.000 1 0.0000 5625 4500 45 45 5625 4500 5670 4500
1 3 0 1 0 0 53 -1 20 4.000 1 0.0000 5625 4950 45 45 5625 4950 5670 4950
1 3 0 1 0 0 53 -1 20 4.000 1 0.0000 4725 4500 45 45 4725 4500 4770 4500
1 3 0 1 0 0 53 -1 20 4.000 1 0.0000 4725 4950 45 45 4725 4950 4770 4950
1 3 0 1 0 0 53 -1 20 4.000 1 0.0000 6525 4050 45 45 6525 4050 6570 4050
1 3 0 1 0 0 53 -1 20 4.000 1 0.0000 6525 4500 45 45 6525 4500 6570 4500
2 1 1 1 0 11 53 -1 20 4.000 0 0 7 0 0 2
	 8100 4050 10350 4050
2 1 1 1 0 11 53 -1 20 4.000 0 0 7 0 0 2
	 8100 4500 10350 4500
2 1 0 1 0 11 53 -1 20 4.000 0 0 7 1 0 2
	1 1 1.00 60.00 120.00
	 8100 5175 10350 5175
2 1 0 1 0 11 53 -1 20 4.000 0 0 7 0 0 2
	 8550 5175 8550 5130
2 1 0 1 0 11 53 -1 20 4.000 0 0 7 0 0 2
	 9000 5175 9000 5130
2 1 0 1 0 11 53 -1 20 4.000 0 0 7 0 0 2
	 9450 5175 9450 5130
2 1 0 1 0 11 53 -1 20 4.000 0 0 7 0 0 2
	 9900 5175 9900 5130
2 1 0 1 0 0 53 -1 20 4.000 0 0 7 0 0 11
	 8325 4050 8325 4095 8325 4140 8325 4185 8325 4230 8325 4275
	 8325 4320 8325 4365 8325 4410 8325 4455 8325 4500
2 1 0 1 0 0 53 -1 20 4.000 0 0 7 0 0 2
	 9000 4500 9000 4950
2 1 0 1 0 0 53 -1 20 4.000 0 0 7 0 0 2
	 8325 4275 9450 4275
2 1 0 1 0 0 53 -1 20 4.000 0 0 7 0 0 2
	 9000 4725 10125 4725
2 1 0 1 0 11 53 -1 20 4.000 0 0 -1 0 0 2
	 8100 4500 8100 4950
2 1 0 1 0 11 53 -1 20 4.000 0 0 -1 0 0 2
	 8100 4725 8775 4725
2 1 1 1 0 11 53 -1 20 4.000 0 0 7 0 0 2
	 8100 4950 10350 4950
2 1 0 1 0 27 54 -1 20 4.000 0 0 -1 0 0 2
	 9900 4050 9900 4500
2 1 0 1 0 27 54 -1 20 4.000 0 0 -1 0 0 2
	 9900 4275 10215 4275
2 1 1 1 0 11 53 -1 20 4.000 0 0 7 0 0 2
	 4725 4050 6975 4050
2 1 1 1 0 11 53 -1 20 4.000 0 0 7 0 0 2
	 4725 4500 6975 4500
2 1 0 1 0 11 53 -1 20 4.000 0 0 7 1 0 2
	1 1 1.00 60.00 120.00
	 4725 5175 6975 5175
2 1 0 1 0 11 53 -1 20 4.000 0 0 7 0 0 2
	 5175 5175 5175 5130
2 1 0 1 0 11 53 -1 20 4.000 0 0 7 0 0 2
	 5625 5175 5625 5130
2 1 0 1 0 11 53 -1 20 4.000 0 0 7 0 0 2
	 6075 5175 6075 5130
2 1 0 1 0 11 53 -1 20 4.000 0 0 7 0 0 2
	 6525 5175 6525 5130
2 1 0 1 0 0 53 -1 20 4.000 0 0 7 0 0 11
	 4950 4050 4950 4095 4950 4140 4950 4185 4950 4230 4950 4275
	 4950 4320 4950 4365 4950 4410 4950 4455 4950 4500
2 1 0 1 0 0 53 -1 20 4.000 0 0 7 0 0 2
	 5625 4500 5625 4950
2 1 0 1 0 0 53 -1 20 4.000 0 0 7 0 0 2
	 4950 4275 6075 4275
2 1 0 1 0 0 53 -1 20 4.000 0 0 7 0 0 2
	 5625 4725 6750 4725
2 1 0 1 0 11 53 -1 20 4.000 0 0 -1 0 0 2
	 4725 4500 4725 4950
2 1 0 1 0 11 53 -1 20 4.000 0 0 -1 0 0 2
	 4725 4725 5400 4725
2 1 1 1 0 11 53 -1 20 4.000 0 0 7 0 0 2
	 4725 4950 6975 4950
2 1 0 1 0 27 54 -1 20 4.000 0 0 -1 0 0 2
	 6525 4050 6525 4500
2 1 0 1 0 27 54 -1 20 4.000 0 0 -1 0 0 2
	 6525 4275 6840 4275
2 2 0 1 11 11 54 -1 20 4.000 0 0 -1 0 0 5
	 4950 4005 5400 4005 5400 4095 4950 4095 4950 4005
2 2 0 1 11 11 54 -1 20 4.000 0 0 -1 0 0 5
	 5625 4005 6300 4005 6300 4095 5625 4095 5625 4005
2 2 0 1 11 11 54 -1 20 4.000 0 0 -1 0 0 5
	 6525 4005 6750 4005 6750 4095 6525 4095 6525 4005
2 2 0 1 11 11 54 -1 20 4.000 0 0 -1 0 0 5
	 4950 4455 5400 4455 5400 4545 4950 4545 4950 4455
2 2 0 1 11 11 54 -1 20 4.000 0 0 -1 0 0 5
	 4950 4905 5400 4905 5400 4995 4950 4995 4950 4905
2 2 0 1 11 11 54 -1 20 4.000 0 0 -1 0 0 5
	 5625 4455 6300 4455 6300 4545 5625 4545 5625 4455
2 2 0 1 11 11 54 -1 20 4.000 0 0 -1 0 0 5
	 5625 4905 6300 4905 6300 4995 5625 4995 5625 4905
2 2 0 1 11 11 54 -1 20 4.000 0 0 -1 0 0 5
	 6525 4455 6750 4455 6750 4545 6525 4545 6525 4455
2 2 0 1 11 11 54 -1 20 4.000 0 0 -1 0 0 5
	 6525 4905 6750 4905 6750 4995 6525 4995 6525 4905
2 2 0 1 11 11 54 -1 20 4.000 0 0 -1 0 0 5
	 8550 4005 9675 4005 9675 4095 8550 4095 8550 4005
2 2 0 1 11 11 54 -1 20 4.000 0 0 -1 0 0 5
	 8550 4455 9675 4455 9675 4545 8550 4545 8550 4455
2 2 0 1 11 11 54 -1 20 4.000 0 0 -1 0 0 5
	 8550 4905 9675 4905 9675 4995 8550 4995 8550 4905
4 0 0 53 -1 0 13 0.0000 4 90 90 7875 4095 a\001
4 0 0 53 -1 0 13 0.0000 4 135 105 7875 4545 b\001
4 0 0 53 -1 0 13 0.0000 4 90 90 7875 4995 c\001
4 0 0 53 -1 0 10 0.0000 4 105 90 8505 5400 2\001
4 0 0 53 -1 0 10 0.0000 4 105 90 9855 5400 8\001
4 0 0 54 -1 0 10 0.0000 4 105 300 10305 5400 time\001
4 0 0 53 -1 0 13 0.0000 4 90 90 4500 4095 a\001
4 0 0 53 -1 0 13 0.0000 4 135 105 4500 4545 b\001
4 0 0 53 -1 0 13 0.0000 4 90 90 4500 4995 c\001
4 0 0 53 -1 0 10 0.0000 4 105 90 5130 5400 2\001
4 0 0 53 -1 0 10 0.0000 4 105 90 6480 5400 8\001
4 0 0 54 -1 0 10 0.0000 4 105 300 6930 5400 time\001
4 0 0 54 -1 0 13 0.0000 4 180 750 8820 5850 Compact\001
4 0 0 54 -1 0 13 0.0000 4 135 735 5400 5850 Uniform\001
4 0 0 54 -1 0 13 0.0000 4 150 660 2025 5850 General\001
