#FIG 3.2  Produced by xfig version 3.2.5c
Landscape
Center
Metric
A4      
100.00
Single
-2
1200 2
0 32 #666666
1 3 0 1 0 20 51 -1 20 4.000 1 0.0000 2250 1125 64 64 2250 1125 2295 1080
1 3 0 1 0 20 51 -1 20 4.000 1 0.0000 1800 1575 64 64 1800 1575 1845 1530
1 3 0 1 0 20 51 -1 20 4.000 1 0.0000 2700 2250 64 64 2700 2250 2745 2205
1 3 0 1 0 20 51 -1 20 4.000 1 0.0000 2250 2700 64 64 2250 2700 2295 2655
1 3 0 1 0 20 51 -1 20 4.000 1 0.0000 1800 2250 64 64 1800 2250 1845 2205
1 3 0 1 0 10 51 -1 20 4.000 1 0.0000 4815 1350 64 64 4815 1350 4860 1305
1 3 0 1 0 10 51 -1 20 4.000 1 0.0000 4815 2025 64 64 4815 2025 4860 1980
1 3 0 1 0 10 51 -1 20 4.000 1 0.0000 4365 2250 64 64 4365 2250 4410 2205
1 3 0 1 0 10 51 -1 20 4.000 1 0.0000 4365 1575 64 64 4365 1575 4410 1530
1 3 0 1 0 20 51 -1 20 4.000 1 0.0000 2700 1575 64 64 2700 1575 2745 1530
2 1 0 1 0 0 52 -1 20 4.000 0 0 7 0 0 2
	 4365 1575 4365 2250
2 1 0 1 0 0 52 -1 20 4.000 0 0 7 0 0 2
	 4365 2250 4815 1350
2 1 0 1 0 0 52 -1 20 4.000 0 0 7 0 0 2
	 4815 1350 4815 2025
2 1 0 1 0 0 52 -1 20 4.000 0 0 7 0 0 2
	 4815 2025 4365 2250
2 1 0 1 0 0 52 -1 20 4.000 0 0 7 0 0 2
	 1800 2250 2700 2250
2 1 0 1 0 0 52 -1 20 4.000 0 0 7 0 0 2
	 2250 2700 2700 2250
2 1 0 1 0 0 52 -1 20 4.000 0 0 7 0 0 2
	 2745 1575 1800 2250
2 1 0 1 0 0 52 -1 20 4.000 0 0 7 0 0 2
	 1800 1575 2745 1575
2 1 0 1 0 0 52 -1 20 4.000 0 0 7 0 0 2
	 2250 1125 1800 1575
2 1 0 1 0 10 52 -1 20 4.000 0 0 -1 0 0 2
	 2250 1125 2700 1575
2 1 0 1 0 10 52 -1 20 4.000 0 0 -1 0 0 2
	 1800 1575 1800 2250
2 1 0 1 0 10 52 -1 20 4.000 0 0 -1 0 0 2
	 1800 1575 2700 2250
2 1 0 1 0 10 52 -1 20 4.000 0 0 -1 0 0 2
	 2250 1125 2700 2295
2 1 0 1 0 10 52 -1 20 4.000 0 0 -1 0 0 2
	 1800 1575 2250 2700
2 1 0 1 0 10 52 -1 20 4.000 0 0 -1 0 0 2
	 2700 1575 4365 1575
2 1 0 1 0 10 52 -1 20 4.000 0 0 -1 0 0 2
	 2250 1125 4815 1350
2 1 0 1 0 10 52 -1 20 4.000 0 0 -1 0 0 2
	 2700 2250 4365 1575
2 1 0 1 0 10 52 -1 20 4.000 0 0 -1 0 0 2
	 2250 2700 4365 2250
2 1 0 1 0 10 52 -1 20 4.000 0 0 -1 0 0 2
	 4815 2025 2700 2250
4 0 0 52 -1 0 10 0.0000 4 75 75 2160 1035 a\001
4 0 0 52 -1 0 10 0.0000 4 105 90 1620 1530 b\001
4 0 0 52 -1 0 10 0.0000 4 75 75 1620 2295 c\001
4 0 0 52 -1 0 10 0.0000 4 105 90 2070 2880 d\001
4 0 0 52 -1 0 10 0.0000 4 75 75 2745 2160 e\001
4 0 0 52 -1 0 10 0.0000 4 105 60 2745 1485 f\001
4 0 0 52 -1 0 10 0.0000 4 120 90 4230 1485 g\001
4 0 0 52 -1 0 10 0.0000 4 105 90 4860 1260 h\001
4 0 0 52 -1 0 10 0.0000 4 105 45 4905 2205 i\001
4 0 0 52 -1 0 10 0.0000 4 135 45 4455 2475 j\001
