%!PS-Adobe-3.0 EPSF-3.0
%%BoundingBox: 69 53 265 190
%%HiResBoundingBox: 69.400000 53.900000 264.900000 189.100000
%.....................................
%%Creator: GPL Ghostscript 871 (epswrite)
%%CreationDate: 2012/01/28 17:04:46
%%DocumentData: Clean7Bit
%%LanguageLevel: 2
%%EndComments
%%BeginProlog
% This copyright applies to everything between here and the %%EndProlog:
% Copyright (C) 2010 Artifex Software, Inc.  All rights reserved.
%%BeginResource: procset GS_epswrite_2_0_1001 1.001 0
/GS_epswrite_2_0_1001 80 dict dup begin
/PageSize 2 array def/setpagesize{ PageSize aload pop 3 index eq exch
4 index eq and{ pop pop pop}{ PageSize dup  1
5 -1 roll put 0 4 -1 roll put dup null eq {false} {dup where} ifelse{ exch get exec}
{ pop/setpagedevice where
{ pop 1 dict dup /PageSize PageSize put setpagedevice}
{ /setpage where{ pop PageSize aload pop pageparams 3 {exch pop} repeat
setpage}if}ifelse}ifelse}ifelse} bind def
/!{bind def}bind def/#{load def}!/N/counttomark #
/rG{3{3 -1 roll 255 div}repeat setrgbcolor}!/G{255 div setgray}!/K{0 G}!
/r6{dup 3 -1 roll rG}!/r5{dup 3 1 roll rG}!/r3{dup rG}!
/w/setlinewidth #/J/setlinecap #
/j/setlinejoin #/M/setmiterlimit #/d/setdash #/i/setflat #
/m/moveto #/l/lineto #/c/rcurveto #
/p{N 2 idiv{N -2 roll rlineto}repeat}!
/P{N 0 gt{N -2 roll moveto p}if}!
/h{p closepath}!/H{P closepath}!
/lx{0 rlineto}!/ly{0 exch rlineto}!/v{0 0 6 2 roll c}!/y{2 copy c}!
/re{4 -2 roll m exch dup lx exch ly neg lx h}!
/^{3 index neg 3 index neg}!
/f{P fill}!/f*{P eofill}!/s{H stroke}!/S{P stroke}!
/q/gsave #/Q/grestore #/rf{re fill}!
/Y{P clip newpath}!/Y*{P eoclip newpath}!/rY{re Y}!
/|={pop exch 4 1 roll 1 array astore cvx 3 array astore cvx exch 1 index def exec}!
/|{exch string readstring |=}!
/+{dup type/nametype eq{2 index 7 add -3 bitshift 2 index mul}if}!
/@/currentfile #/${+ @ |}!
/B{{2 copy string{readstring pop}aload pop 4 array astore cvx
3 1 roll}repeat pop pop true}!
/Ix{[1 0 0 1 11 -2 roll exch neg exch neg]exch}!
/,{true exch Ix imagemask}!/If{false exch Ix imagemask}!/I{exch Ix image}!
/Ic{exch Ix false 3 colorimage}!
/F{/Columns counttomark 3 add -2 roll/Rows exch/K -1/BlackIs1 true>>
/CCITTFaxDecode filter}!/FX{<</EndOfBlock false F}!
/X{/ASCII85Decode filter}!/@X{@ X}!/&2{2 index 2 index}!
/@F{@ &2<<F}!/@C{@X &2 FX}!
/$X{+ @X |}!/&4{4 index 4 index}!/$F{+ @ &4<<F |}!/$C{+ @X &4 FX |}!
/IC{3 1 roll 10 dict begin 1{/ImageType/Interpolate/Decode/DataSource
/ImageMatrix/BitsPerComponent/Height/Width}{exch def}forall
currentdict end image}!
/~{@ read {pop} if}!
end def
%%EndResource
/pagesave null def
%%EndProlog
%%Page: 1 1
%%BeginPageSetup
GS_epswrite_2_0_1001 begin
/pagesave save store 197 dict begin
0.1 0.1 scale
%%EndPageSetup
gsave mark
Q q
0 0 250000 250000 re
Y
5 w
K
926 620 31.5 0 P
2594 620 -31.5 0 S
853 599 34 44 /3U
$C
23%r'%\5X)j2)<u^Zk'1J,ZoQs8W-!s8VJ_s8Qk\g>99H(eYmM:r7r$~>
,
926 745 31.5 0 P
2594 745 -31.5 0 S
727 725 17 43 /6U
$C
,Tm'ds8W-!s-F.@R>;m@If~>
,
753 724 3U ,
786 724 3U ,
819 724 3U ,
853 724 3U ,
926 869.5 31.5 0 P
2594 869.5 -31.5 0 S
719 850 34 43 /3Y
$C
4;jd(Qp5fN^"]dYfPna4iOE=NL>hOS^UAOiqu,+3CMbUV[OTh+@7(A~>
,
753 849 3U ,
786 849 3U ,
819 849 3U ,
853 849 3U ,
926 994.5 31.5 0 P
2594 994.5 -31.5 0 S
719 974 34 44 /6Y
$C
3f*tLK;VJ#ZZne#2lEeH?]XK;@:la`Yct@m+Q2(jDLDKapAVZrg>Sl<[;*R2"T~>
,
753 974 3U ,
786 974 3U ,
819 974 3U ,
853 974 3U ,
926 1119 31.5 0 P
2594 1119 -31.5 0 S
719 1099 35 43 /4C
$C
.M)RZs3Cmfr0V$lmIpMQmIpMQmJH;FpY5/kn_X9>^V/P~>
,
753 1098 3U ,
786 1098 3U ,
819 1098 3U ,
853 1098 3U ,
926 1244 31.5 0 P
2594 1244 -31.5 0 S
719 1223 35 44 /7C
$C
2%'Ns&9R0a'Aa:<PNfbDGdm_=;rkC=Bjl_7CKWS'fO25hs7ZK6."D-0~>
,
753 1223 3U ,
786 1223 3U ,
819 1223 3U ,
853 1223 3U ,
926 1369 31.5 0 P
2594 1369 -31.5 0 S
719 1348 35 44 /4G
$C
22__[-UH4U05uPcT2!a`He7T^qXqU=['7F,Z=C&h$n`Au*WOE]DtUNIgIhr,MR@1;L'd~>
,
753 1348 3U ,
786 1348 3U ,
819 1348 3U ,
853 1348 3U ,
926 1493.5 31.5 0 P
2594 1493.5 -31.5 0 S
719 1474 35 43 /7G
$C
,Sg=Wrr)ibmJYqspAMaEgV3(PG5]%%Ho""&~>
,
753 1473 3U ,
786 1473 3U ,
819 1473 3U ,
853 1473 3U ,
926 1618.5 31.5 0 P
2594 1618.5 -31.5 0 S
719 1598 35 44 /4K
$C
2$jBqS07(D'Aa:H#WJZ`e,TIHX4Gk>$!:Ud'l"Rbl-UTa#WJZ`l2Ue`CO4^e@4ZT(6OF59~>
,
753 1598 3U ,
786 1598 3U ,
819 1598 3U ,
853 1598 3U ,
926 1743 31.5 0 P
2594 1743 -31.5 0 S
719 1722 34 44 /7K
$C
3f=8'6.=X%ER7#DhOCS3MgtWLU=_cj#H+8i0B!.-l1\MVs0)+QHJ7+ZV.#(s>)'+,0VA~>
,
753 1722 3U ,
786 1722 3U ,
819 1722 3U ,
853 1722 3U ,
926 1868 31.5 0 P
2594 1868 -31.5 0 S
694 1848 6U ,
719 1847 3U ,
753 1847 3U ,
786 1847 3U ,
819 1847 3U ,
853 1847 3U ,
926 620 0 31.5 P
926 1868 0 -31.5 S
862 555 21 4 /4O
$C
4qID~>
,
882 539 6Y ,
915 539 3U ,
949 539 3U ,
1134.5 620 0 31.5 P
1134.5 1868 0 -31.5 S
1070 555 4O ,
1090 540 3Y ,
1124 539 3U ,
1157 539 3U ,
1343 620 0 31.5 P
1343 1868 0 -31.5 S
1279 555 4O ,
1307 540 6U ,
1332 539 3U ,
1366 539 3U ,
1551.5 620 0 31.5 P
1551.5 1868 0 -31.5 S
1539 539 3U ,
1760 620 0 31.5 P
1760 1868 0 -31.5 S
1722 540 6U ,
1748 539 3U ,
1781 539 3U ,
1968.5 620 0 31.5 P
1968.5 1868 0 -31.5 S
1923 540 3Y ,
1956 539 3U ,
1990 539 3U ,
2177 620 0 31.5 P
2177 1868 0 -31.5 S
2131 539 6Y ,
2165 539 3U ,
2198 539 3U ,
2385.5 620 0 31.5 P
2385.5 1868 0 -31.5 S
2340 540 4C ,
2373 539 3U ,
2407 539 3U ,
2594 620 0 31.5 P
2594 1868 0 -31.5 S
2548 539 7C ,
2582 539 3U ,
2615 539 3U ,
926 620 1668 1248 re
S
2.5 w
1082.5 1844.75 0 31.5 S
1066.75 1860.5 31.5 0 S
1088.5 1844.75 0 31.5 S
1072.75 1860.5 31.5 0 S
1095 1844.75 0 31.5 S
1079.25 1860.5 31.5 0 S
1101 1844.25 0 31.5 S
1085.25 1860 31.5 0 S
1122 1844.25 0 31.5 S
1106.25 1860 31.5 0 S
1124 1844.25 0 31.5 S
1108.25 1860 31.5 0 S
1126 1844.25 0 31.5 S
1110.25 1860 31.5 0 S
1128 1844.25 0 31.5 S
1112.25 1860 31.5 0 S
1130.5 1844.25 0 31.5 S
1114.75 1860 31.5 0 S
1134.5 1844.25 0 31.5 S
1118.75 1860 31.5 0 S
1136.5 1844.25 0 31.5 S
1120.75 1860 31.5 0 S
1138.5 1844.25 0 31.5 S
1122.75 1860 31.5 0 S
1143 1844.25 0 31.5 S
1127.25 1860 31.5 0 S
1145 1844.25 0 31.5 S
1129.25 1860 31.5 0 S
1147 1844.25 0 31.5 S
1131.25 1860 31.5 0 S
1149 1844.25 0 31.5 S
1133.25 1860 31.5 0 S
1151 1844.25 0 31.5 S
1135.25 1860 31.5 0 S
1153.5 1844.25 0 31.5 S
1137.75 1860 31.5 0 S
1155.5 1844.25 0 31.5 S
1139.75 1860 31.5 0 S
1157.5 1844.25 0 31.5 S
1141.75 1860 31.5 0 S
1159.5 1844.25 0 31.5 S
1143.75 1860 31.5 0 S
1161.5 1844.25 0 31.5 S
1145.75 1860 31.5 0 S
1163.5 1844.25 0 31.5 S
1147.75 1860 31.5 0 S
1166 1844.25 0 31.5 S
1150.25 1860 31.5 0 S
1170 1844.25 0 31.5 S
1154.25 1860 31.5 0 S
1172 1844.25 0 31.5 S
1156.25 1860 31.5 0 S
1174 1844.25 0 31.5 S
1158.25 1860 31.5 0 S
1176 1843.75 0 31.5 S
1160.25 1859.5 31.5 0 S
1178.5 1843.75 0 31.5 S
1162.75 1859.5 31.5 0 S
1180.5 1843.75 0 31.5 S
1164.75 1859.5 31.5 0 S
1182.5 1843.75 0 31.5 S
1166.75 1859.5 31.5 0 S
1184.5 1843.75 0 31.5 S
1168.75 1859.5 31.5 0 S
1186.5 1843.75 0 31.5 S
1170.75 1859.5 31.5 0 S
1188.5 1843.75 0 31.5 S
1172.75 1859.5 31.5 0 S
1191 1843.75 0 31.5 S
1175.25 1859.5 31.5 0 S
1193 1843.75 0 31.5 S
1177.25 1859.5 31.5 0 S
1195 1843.75 0 31.5 S
1179.25 1859.5 31.5 0 S
1197 1843.75 0 31.5 S
1181.25 1859.5 31.5 0 S
1199 1843.25 0 31.5 S
1183.25 1859 31.5 0 S
1201 1843.25 0 31.5 S
1185.25 1859 31.5 0 S
1203.5 1843.25 0 31.5 S
1187.75 1859 31.5 0 S
1205.5 1843.25 0 31.5 S
1189.75 1859 31.5 0 S
1207.5 1843.25 0 31.5 S
1191.75 1859 31.5 0 S
1209.5 1843.25 0 31.5 S
1193.75 1859 31.5 0 S
1211.5 1843.25 0 31.5 S
1195.75 1859 31.5 0 S
1213.5 1843.25 0 31.5 S
1197.75 1859 31.5 0 S
1216 1843.25 0 31.5 S
1200.25 1859 31.5 0 S
1218 1843.25 0 31.5 S
1202.25 1859 31.5 0 S
1220 1842.75 0 31.5 S
1204.25 1858.5 31.5 0 S
1222 1842.75 0 31.5 S
1206.25 1858.5 31.5 0 S
1224 1842.75 0 31.5 S
1208.25 1858.5 31.5 0 S
1226 1842.75 0 31.5 S
1210.25 1858.5 31.5 0 S
1228.5 1842.75 0 31.5 S
1212.75 1858.5 31.5 0 S
1230.5 1842.75 0 31.5 S
1214.75 1858.5 31.5 0 S
1232.5 1842.25 0 31.5 S
1216.75 1858 31.5 0 S
1234.5 1842.25 0 31.5 S
1218.75 1858 31.5 0 S
1236.5 1842.25 0 31.5 S
1220.75 1858 31.5 0 S
1238.5 1842.25 0 31.5 S
1222.75 1858 31.5 0 S
1241 1842.25 0 31.5 S
1225.25 1858 31.5 0 S
1243 1842.25 0 31.5 S
1227.25 1858 31.5 0 S
1245 1841.75 0 31.5 S
1229.25 1857.5 31.5 0 S
1247 1841.75 0 31.5 S
1231.25 1857.5 31.5 0 S
1249 1841.75 0 31.5 S
1233.25 1857.5 31.5 0 S
1251.5 1841.75 0 31.5 S
1235.75 1857.5 31.5 0 S
1253.5 1841.25 0 31.5 S
1237.75 1857 31.5 0 S
1255.5 1841.25 0 31.5 S
1239.75 1857 31.5 0 S
1257.5 1841.25 0 31.5 S
1241.75 1857 31.5 0 S
1259.5 1840.75 0 31.5 S
1243.75 1856.5 31.5 0 S
1261.5 1840.75 0 31.5 S
1245.75 1856.5 31.5 0 S
1264 1840.75 0 31.5 S
1248.25 1856.5 31.5 0 S
1266 1840.25 0 31.5 S
1250.25 1856 31.5 0 S
1268 1840.25 0 31.5 S
1252.25 1856 31.5 0 S
1270 1839.75 0 31.5 S
1254.25 1855.5 31.5 0 S
1272 1839.75 0 31.5 S
1256.25 1855.5 31.5 0 S
1274 1839.75 0 31.5 S
1258.25 1855.5 31.5 0 S
1276.5 1839.75 0 31.5 S
1260.75 1855.5 31.5 0 S
1278.5 1839.25 0 31.5 S
1262.75 1855 31.5 0 S
1280.5 1839.25 0 31.5 S
1264.75 1855 31.5 0 S
1282.5 1838.75 0 31.5 S
1266.75 1854.5 31.5 0 S
1284.5 1838.75 0 31.5 S
1268.75 1854.5 31.5 0 S
1286.5 1838.25 0 31.5 S
1270.75 1854 31.5 0 S
1289 1838.25 0 31.5 S
1273.25 1854 31.5 0 S
1291 1837.75 0 31.5 S
1275.25 1853.5 31.5 0 S
1293 1837.75 0 31.5 S
1277.25 1853.5 31.5 0 S
1295 1837.25 0 31.5 S
1279.25 1853 31.5 0 S
1297 1837.25 0 31.5 S
1281.25 1853 31.5 0 S
1299 1836.75 0 31.5 S
1283.25 1852.5 31.5 0 S
1301.5 1836.25 0 31.5 S
1285.75 1852 31.5 0 S
1303.5 1836.25 0 31.5 S
1287.75 1852 31.5 0 S
1305.5 1836.25 0 31.5 S
1289.75 1852 31.5 0 S
1307.5 1835.75 0 31.5 S
1291.75 1851.5 31.5 0 S
1309.5 1835.75 0 31.5 S
1293.75 1851.5 31.5 0 S
1311.5 1835.25 0 31.5 S
1295.75 1851 31.5 0 S
1314 1834.75 0 31.5 S
1298.25 1850.5 31.5 0 S
1316 1834.75 0 31.5 S
1300.25 1850.5 31.5 0 S
1318 1834.25 0 31.5 S
1302.25 1850 31.5 0 S
1320 1834.25 0 31.5 S
1304.25 1850 31.5 0 S
1322 1833.75 0 31.5 S
1306.25 1849.5 31.5 0 S
1324 1833.25 0 31.5 S
1308.25 1849 31.5 0 S
1326.5 1833.25 0 31.5 S
1310.75 1849 31.5 0 S
1328.5 1832.75 0 31.5 S
1312.75 1848.5 31.5 0 S
1330.5 1832.25 0 31.5 S
1314.75 1848 31.5 0 S
1332.5 1831.75 0 31.5 S
1316.75 1847.5 31.5 0 S
1334.5 1831.75 0 31.5 S
1318.75 1847.5 31.5 0 S
1336.5 1831.25 0 31.5 S
1320.75 1847 31.5 0 S
1339 1830.75 0 31.5 S
1323.25 1846.5 31.5 0 S
1341 1830.25 0 31.5 S
1325.25 1846 31.5 0 S
1343 1830.25 0 31.5 S
1327.25 1846 31.5 0 S
1345 1829.75 0 31.5 S
1329.25 1845.5 31.5 0 S
1347 1829.25 0 31.5 S
1331.25 1845 31.5 0 S
1349.5 1828.75 0 31.5 S
1333.75 1844.5 31.5 0 S
1351.5 1827.75 0 31.5 S
1335.75 1843.5 31.5 0 S
1353.5 1827.25 0 31.5 S
1337.75 1843 31.5 0 S
1355.5 1826.75 0 31.5 S
1339.75 1842.5 31.5 0 S
1357.5 1826.25 0 31.5 S
1341.75 1842 31.5 0 S
1359.5 1825.25 0 31.5 S
1343.75 1841 31.5 0 S
1362 1824.75 0 31.5 S
1346.25 1840.5 31.5 0 S
1364 1824.25 0 31.5 S
1348.25 1840 31.5 0 S
1366 1823.25 0 31.5 S
1350.25 1839 31.5 0 S
1368 1822.25 0 31.5 S
1352.25 1838 31.5 0 S
1370 1821.75 0 31.5 S
1354.25 1837.5 31.5 0 S
1372 1821.25 0 31.5 S
1356.25 1837 31.5 0 S
1374.5 1820.75 0 31.5 S
1358.75 1836.5 31.5 0 S
1376.5 1819.75 0 31.5 S
1360.75 1835.5 31.5 0 S
1378.5 1819.25 0 31.5 S
1362.75 1835 31.5 0 S
1380.5 1818.25 0 31.5 S
1364.75 1834 31.5 0 S
1382.5 1817.25 0 31.5 S
1366.75 1833 31.5 0 S
1384.5 1816.75 0 31.5 S
1368.75 1832.5 31.5 0 S
1387 1816.25 0 31.5 S
1371.25 1832 31.5 0 S
1389 1815.25 0 31.5 S
1373.25 1831 31.5 0 S
1391 1814.25 0 31.5 S
1375.25 1830 31.5 0 S
1393 1813.25 0 31.5 S
1377.25 1829 31.5 0 S
1395 1812.75 0 31.5 S
1379.25 1828.5 31.5 0 S
1397 1811.75 0 31.5 S
1381.25 1827.5 31.5 0 S
1399.5 1810.75 0 31.5 S
1383.75 1826.5 31.5 0 S
1401.5 1809.75 0 31.5 S
1385.75 1825.5 31.5 0 S
1403.5 1808.75 0 31.5 S
1387.75 1824.5 31.5 0 S
1405.5 1807.75 0 31.5 S
1389.75 1823.5 31.5 0 S
1407.5 1806.75 0 31.5 S
1391.75 1822.5 31.5 0 S
1409.5 1805.25 0 31.5 S
1393.75 1821 31.5 0 S
1412 1804.25 0 31.5 S
1396.25 1820 31.5 0 S
1414 1803.25 0 31.5 S
1398.25 1819 31.5 0 S
1416 1801.75 0 31.5 S
1400.25 1817.5 31.5 0 S
1418 1800.75 0 31.5 S
1402.25 1816.5 31.5 0 S
1420 1799.75 0 31.5 S
1404.25 1815.5 31.5 0 S
1422 1798.25 0 31.5 S
1406.25 1814 31.5 0 S
1424.5 1796.75 0 31.5 S
1408.75 1812.5 31.5 0 S
1426.5 1795.75 0 31.5 S
1410.75 1811.5 31.5 0 S
1428.5 1793.75 0 31.5 S
1412.75 1809.5 31.5 0 S
1430.5 1792.25 0 31.5 S
1414.75 1808 31.5 0 S
1432.5 1790.75 0 31.5 S
1416.75 1806.5 31.5 0 S
1434.5 1789.25 0 31.5 S
1418.75 1805 31.5 0 S
1437 1787.75 0 31.5 S
1421.25 1803.5 31.5 0 S
1439 1785.75 0 31.5 S
1423.25 1801.5 31.5 0 S
1441 1784.25 0 31.5 S
1425.25 1800 31.5 0 S
1443 1782.75 0 31.5 S
1427.25 1798.5 31.5 0 S
1445 1781.25 0 31.5 S
1429.25 1797 31.5 0 S
1447 1779.75 0 31.5 S
1431.25 1795.5 31.5 0 S
1449.5 1777.75 0 31.5 S
1433.75 1793.5 31.5 0 S
1451.5 1776.25 0 31.5 S
1435.75 1792 31.5 0 S
1453.5 1774.25 0 31.5 S
1437.75 1790 31.5 0 S
1455.5 1772.25 0 31.5 S
1439.75 1788 31.5 0 S
1457.5 1770.75 0 31.5 S
1441.75 1786.5 31.5 0 S
1460 1768.75 0 31.5 S
1444.25 1784.5 31.5 0 S
1462 1766.75 0 31.5 S
1446.25 1782.5 31.5 0 S
1464 1764.75 0 31.5 S
1448.25 1780.5 31.5 0 S
1466 1762.75 0 31.5 S
1450.25 1778.5 31.5 0 S
1468 1760.75 0 31.5 S
1452.25 1776.5 31.5 0 S
1470 1758.75 0 31.5 S
1454.25 1774.5 31.5 0 S
1472.5 1756.25 0 31.5 S
1456.75 1772 31.5 0 S
1474.5 1754.25 0 31.5 S
1458.75 1770 31.5 0 S
1476.5 1752.25 0 31.5 S
1460.75 1768 31.5 0 S
1478.5 1750.25 0 31.5 S
1462.75 1766 31.5 0 S
1480.5 1748.25 0 31.5 S
1464.75 1764 31.5 0 S
1482.5 1745.75 0 31.5 S
1466.75 1761.5 31.5 0 S
1485 1743.25 0 31.5 S
1469.25 1759 31.5 0 S
1487 1740.75 0 31.5 S
1471.25 1756.5 31.5 0 S
1489 1738.25 0 31.5 S
1473.25 1754 31.5 0 S
1491 1735.75 0 31.5 S
1475.25 1751.5 31.5 0 S
1493 1733.25 0 31.5 S
1477.25 1749 31.5 0 S
1495 1730.75 0 31.5 S
1479.25 1746.5 31.5 0 S
1497.5 1728.25 0 31.5 S
1481.75 1744 31.5 0 S
1499.5 1725.75 0 31.5 S
1483.75 1741.5 31.5 0 S
1501.5 1723.25 0 31.5 S
1485.75 1739 31.5 0 S
1503.5 1720.25 0 31.5 S
1487.75 1736 31.5 0 S
1505.5 1717.25 0 31.5 S
1489.75 1733 31.5 0 S
1507.5 1714.75 0 31.5 S
1491.75 1730.5 31.5 0 S
1510 1711.75 0 31.5 S
1494.25 1727.5 31.5 0 S
1512 1709.25 0 31.5 S
1496.25 1725 31.5 0 S
1514 1706.25 0 31.5 S
1498.25 1722 31.5 0 S
1516 1703.25 0 31.5 S
1500.25 1719 31.5 0 S
1518 1700.25 0 31.5 S
1502.25 1716 31.5 0 S
1520 1697.25 0 31.5 S
1504.25 1713 31.5 0 S
1522.5 1693.75 0 31.5 S
1506.75 1709.5 31.5 0 S
1524.5 1690.75 0 31.5 S
1508.75 1706.5 31.5 0 S
1526.5 1687.75 0 31.5 S
1510.75 1703.5 31.5 0 S
1528.5 1684.25 0 31.5 S
1512.75 1700 31.5 0 S
1530.5 1681.25 0 31.5 S
1514.75 1697 31.5 0 S
1532.5 1678.25 0 31.5 S
1516.75 1694 31.5 0 S
1535 1674.75 0 31.5 S
1519.25 1690.5 31.5 0 S
1537 1671.75 0 31.5 S
1521.25 1687.5 31.5 0 S
1539 1667.75 0 31.5 S
1523.25 1683.5 31.5 0 S
1541 1664.25 0 31.5 S
1525.25 1680 31.5 0 S
1543 1660.75 0 31.5 S
1527.25 1676.5 31.5 0 S
1545 1656.75 0 31.5 S
1529.25 1672.5 31.5 0 S
1547.5 1653.25 0 31.5 S
1531.75 1669 31.5 0 S
1549.5 1649.75 0 31.5 S
1533.75 1665.5 31.5 0 S
1553.5 1645.75 0 31.5 S
1537.75 1661.5 31.5 0 S
1555.5 1642.25 0 31.5 S
1539.75 1658 31.5 0 S
1558 1638.25 0 31.5 S
1542.25 1654 31.5 0 S
1560 1634.25 0 31.5 S
1544.25 1650 31.5 0 S
1562 1630.25 0 31.5 S
1546.25 1646 31.5 0 S
1564 1626.75 0 31.5 S
1548.25 1642.5 31.5 0 S
1566 1622.75 0 31.5 S
1550.25 1638.5 31.5 0 S
1568 1618.75 0 31.5 S
1552.25 1634.5 31.5 0 S
1570.5 1614.25 0 31.5 S
1554.75 1630 31.5 0 S
1572.5 1610.25 0 31.5 S
1556.75 1626 31.5 0 S
1574.5 1605.25 0 31.5 S
1558.75 1621 31.5 0 S
1576.5 1601.25 0 31.5 S
1560.75 1617 31.5 0 S
1578.5 1596.75 0 31.5 S
1562.75 1612.5 31.5 0 S
1580.5 1592.75 0 31.5 S
1564.75 1608.5 31.5 0 S
1583 1588.25 0 31.5 S
1567.25 1604 31.5 0 S
1585 1583.75 0 31.5 S
1569.25 1599.5 31.5 0 S
1587 1578.75 0 31.5 S
1571.25 1594.5 31.5 0 S
1589 1574.25 0 31.5 S
1573.25 1590 31.5 0 S
1591 1569.25 0 31.5 S
1575.25 1585 31.5 0 S
1593 1564.25 0 31.5 S
1577.25 1580 31.5 0 S
1595.5 1559.75 0 31.5 S
1579.75 1575.5 31.5 0 S
1597.5 1554.75 0 31.5 S
1581.75 1570.5 31.5 0 S
1599.5 1550.25 0 31.5 S
1583.75 1566 31.5 0 S
1601.5 1545.75 0 31.5 S
1585.75 1561.5 31.5 0 S
1603.5 1540.75 0 31.5 S
1587.75 1556.5 31.5 0 S
1605.5 1535.25 0 31.5 S
1589.75 1551 31.5 0 S
1608 1530.25 0 31.5 S
1592.25 1546 31.5 0 S
1610 1525.75 0 31.5 S
1594.25 1541.5 31.5 0 S
1612 1520.75 0 31.5 S
1596.25 1536.5 31.5 0 S
1614 1515.75 0 31.5 S
1598.25 1531.5 31.5 0 S
1616 1511.25 0 31.5 S
1600.25 1527 31.5 0 S
1618 1505.75 0 31.5 S
1602.25 1521.5 31.5 0 S
1620.5 1500.25 0 31.5 S
1604.75 1516 31.5 0 S
1622.5 1494.75 0 31.5 S
1606.75 1510.5 31.5 0 S
1624.5 1489.25 0 31.5 S
1608.75 1505 31.5 0 S
1626.5 1484.25 0 31.5 S
1610.75 1500 31.5 0 S
1628.5 1478.75 0 31.5 S
1612.75 1494.5 31.5 0 S
1630.5 1473.25 0 31.5 S
1614.75 1489 31.5 0 S
1633 1467.75 0 31.5 S
1617.25 1483.5 31.5 0 S
1635 1461.75 0 31.5 S
1619.25 1477.5 31.5 0 S
1637 1456.25 0 31.5 S
1621.25 1472 31.5 0 S
1639 1450.75 0 31.5 S
1623.25 1466.5 31.5 0 S
1641 1445.75 0 31.5 S
1625.25 1461.5 31.5 0 S
1643 1439.75 0 31.5 S
1627.25 1455.5 31.5 0 S
1645.5 1433.75 0 31.5 S
1629.75 1449.5 31.5 0 S
1647.5 1428.25 0 31.5 S
1631.75 1444 31.5 0 S
1649.5 1422.25 0 31.5 S
1633.75 1438 31.5 0 S
1651.5 1416.25 0 31.5 S
1635.75 1432 31.5 0 S
1653.5 1410.25 0 31.5 S
1637.75 1426 31.5 0 S
1655.5 1404.25 0 31.5 S
1639.75 1420 31.5 0 S
1658 1398.25 0 31.5 S
1642.25 1414 31.5 0 S
1660 1393.25 0 31.5 S
1644.25 1409 31.5 0 S
1662 1387.25 0 31.5 S
1646.25 1403 31.5 0 S
1664 1381.75 0 31.5 S
1648.25 1397.5 31.5 0 S
1666 1375.75 0 31.5 S
1650.25 1391.5 31.5 0 S
1668.5 1369.75 0 31.5 S
1652.75 1385.5 31.5 0 S
1670.5 1363.75 0 31.5 S
1654.75 1379.5 31.5 0 S
1672.5 1358.25 0 31.5 S
1656.75 1374 31.5 0 S
1674.5 1351.75 0 31.5 S
1658.75 1367.5 31.5 0 S
1676.5 1346.25 0 31.5 S
1660.75 1362 31.5 0 S
1678.5 1340.25 0 31.5 S
1662.75 1356 31.5 0 S
1681 1334.25 0 31.5 S
1665.25 1350 31.5 0 S
1683 1328.25 0 31.5 S
1667.25 1344 31.5 0 S
1685 1322.25 0 31.5 S
1669.25 1338 31.5 0 S
1687 1316.25 0 31.5 S
1671.25 1332 31.5 0 S
1689 1310.25 0 31.5 S
1673.25 1326 31.5 0 S
1691 1303.75 0 31.5 S
1675.25 1319.5 31.5 0 S
1693.5 1298.25 0 31.5 S
1677.75 1314 31.5 0 S
1695.5 1292.25 0 31.5 S
1679.75 1308 31.5 0 S
1697.5 1285.75 0 31.5 S
1681.75 1301.5 31.5 0 S
1699.5 1279.75 0 31.5 S
1683.75 1295.5 31.5 0 S
1701.5 1273.25 0 31.5 S
1685.75 1289 31.5 0 S
1703.5 1266.75 0 31.5 S
1687.75 1282.5 31.5 0 S
1706 1260.25 0 31.5 S
1690.25 1276 31.5 0 S
1708 1254.75 0 31.5 S
1692.25 1270.5 31.5 0 S
1710 1248.75 0 31.5 S
1694.25 1264.5 31.5 0 S
1712 1242.75 0 31.5 S
1696.25 1258.5 31.5 0 S
1714 1236.25 0 31.5 S
1698.25 1252 31.5 0 S
1716 1230.25 0 31.5 S
1700.25 1246 31.5 0 S
1718.5 1224.25 0 31.5 S
1702.75 1240 31.5 0 S
1720.5 1217.75 0 31.5 S
1704.75 1233.5 31.5 0 S
1722.5 1211.75 0 31.5 S
1706.75 1227.5 31.5 0 S
1724.5 1205.75 0 31.5 S
1708.75 1221.5 31.5 0 S
1726.5 1199.75 0 31.5 S
1710.75 1215.5 31.5 0 S
1728.5 1193.75 0 31.5 S
1712.75 1209.5 31.5 0 S
1731 1187.75 0 31.5 S
1715.25 1203.5 31.5 0 S
1733 1181.25 0 31.5 S
1717.25 1197 31.5 0 S
1735 1174.75 0 31.5 S
1719.25 1190.5 31.5 0 S
1737 1168.75 0 31.5 S
1721.25 1184.5 31.5 0 S
1739 1162.75 0 31.5 S
1723.25 1178.5 31.5 0 S
1741 1156.75 0 31.5 S
1725.25 1172.5 31.5 0 S
1743.5 1150.25 0 31.5 S
1727.75 1166 31.5 0 S
1745.5 1143.75 0 31.5 S
1729.75 1159.5 31.5 0 S
1747.5 1138.25 0 31.5 S
1731.75 1154 31.5 0 S
1749.5 1131.75 0 31.5 S
1733.75 1147.5 31.5 0 S
1751.5 1125.75 0 31.5 S
1735.75 1141.5 31.5 0 S
1753.5 1119.75 0 31.5 S
1737.75 1135.5 31.5 0 S
1756 1113.75 0 31.5 S
1740.25 1129.5 31.5 0 S
1758 1107.75 0 31.5 S
1742.25 1123.5 31.5 0 S
1760 1101.25 0 31.5 S
1744.25 1117 31.5 0 S
1762 1094.75 0 31.5 S
1746.25 1110.5 31.5 0 S
1764 1088.25 0 31.5 S
1748.25 1104 31.5 0 S
1766.5 1082.25 0 31.5 S
1750.75 1098 31.5 0 S
1768.5 1076.75 0 31.5 S
1752.75 1092.5 31.5 0 S
1770.5 1070.75 0 31.5 S
1754.75 1086.5 31.5 0 S
1772.5 1064.75 0 31.5 S
1756.75 1080.5 31.5 0 S
1774.5 1059.25 0 31.5 S
1758.75 1075 31.5 0 S
1776.5 1052.75 0 31.5 S
1760.75 1068.5 31.5 0 S
1779 1047.25 0 31.5 S
1763.25 1063 31.5 0 S
1781 1041.25 0 31.5 S
1765.25 1057 31.5 0 S
1783 1035.75 0 31.5 S
1767.25 1051.5 31.5 0 S
1785 1030.25 0 31.5 S
1769.25 1046 31.5 0 S
1787 1024.25 0 31.5 S
1771.25 1040 31.5 0 S
1789 1018.75 0 31.5 S
1773.25 1034.5 31.5 0 S
1791.5 1012.75 0 31.5 S
1775.75 1028.5 31.5 0 S
1793.5 1007.25 0 31.5 S
1777.75 1023 31.5 0 S
1795.5 1001.25 0 31.5 S
1779.75 1017 31.5 0 S
1797.5 995.25 0 31.5 S
1781.75 1011 31.5 0 S
1799.5 990.25 0 31.5 S
1783.75 1006 31.5 0 S
1801.5 984.25 0 31.5 S
1785.75 1000 31.5 0 S
1804 978.25 0 31.5 S
1788.25 994 31.5 0 S
1806 972.75 0 31.5 S
1790.25 988.5 31.5 0 S
1808 967.75 0 31.5 S
1792.25 983.5 31.5 0 S
1810 962.25 0 31.5 S
1794.25 978 31.5 0 S
1812 957.25 0 31.5 S
1796.25 973 31.5 0 S
1814 951.75 0 31.5 S
1798.25 967.5 31.5 0 S
1816.5 946.75 0 31.5 S
1800.75 962.5 31.5 0 S
1818.5 941.75 0 31.5 S
1802.75 957.5 31.5 0 S
1820.5 936.25 0 31.5 S
1804.75 952 31.5 0 S
1822.5 930.75 0 31.5 S
1806.75 946.5 31.5 0 S
1824.5 925.75 0 31.5 S
1808.75 941.5 31.5 0 S
1826.5 920.25 0 31.5 S
1810.75 936 31.5 0 S
1829 915.25 0 31.5 S
1813.25 931 31.5 0 S
1831 910.25 0 31.5 S
1815.25 926 31.5 0 S
1833 905.25 0 31.5 S
1817.25 921 31.5 0 S
1835 900.75 0 31.5 S
1819.25 916.5 31.5 0 S
1837 895.75 0 31.5 S
1821.25 911.5 31.5 0 S
1839 890.75 0 31.5 S
1823.25 906.5 31.5 0 S
1841.5 886.25 0 31.5 S
1825.75 902 31.5 0 S
1843.5 882.25 0 31.5 S
1827.75 898 31.5 0 S
1845.5 877.25 0 31.5 S
1829.75 893 31.5 0 S
1847.5 872.25 0 31.5 S
1831.75 888 31.5 0 S
1849.5 867.75 0 31.5 S
1833.75 883.5 31.5 0 S
1851.5 863.25 0 31.5 S
1835.75 879 31.5 0 S
1854 859.25 0 31.5 S
1838.25 875 31.5 0 S
1856 854.75 0 31.5 S
1840.25 870.5 31.5 0 S
1858 850.25 0 31.5 S
1842.25 866 31.5 0 S
1860 845.25 0 31.5 S
1844.25 861 31.5 0 S
1862 841.25 0 31.5 S
1846.25 857 31.5 0 S
1864 836.75 0 31.5 S
1848.25 852.5 31.5 0 S
1866.5 833.25 0 31.5 S
1850.75 849 31.5 0 S
1868.5 828.75 0 31.5 S
1852.75 844.5 31.5 0 S
1870.5 824.75 0 31.5 S
1854.75 840.5 31.5 0 S
1872.5 820.75 0 31.5 S
1856.75 836.5 31.5 0 S
1874.5 817.25 0 31.5 S
1858.75 833 31.5 0 S
1877 813.25 0 31.5 S
1861.25 829 31.5 0 S
1879 809.25 0 31.5 S
1863.25 825 31.5 0 S
1881 805.75 0 31.5 S
1865.25 821.5 31.5 0 S
1883 801.75 0 31.5 S
1867.25 817.5 31.5 0 S
1885 797.75 0 31.5 S
1869.25 813.5 31.5 0 S
1887 794.25 0 31.5 S
1871.25 810 31.5 0 S
1889.5 790.75 0 31.5 S
1873.75 806.5 31.5 0 S
1891.5 787.25 0 31.5 S
1875.75 803 31.5 0 S
1893.5 783.75 0 31.5 S
1877.75 799.5 31.5 0 S
1895.5 780.25 0 31.5 S
1879.75 796 31.5 0 S
1897.5 776.75 0 31.5 S
1881.75 792.5 31.5 0 S
1899.5 773.25 0 31.5 S
1883.75 789 31.5 0 S
1902 770.25 0 31.5 S
1886.25 786 31.5 0 S
1904 766.75 0 31.5 S
1888.25 782.5 31.5 0 S
1906 763.25 0 31.5 S
1890.25 779 31.5 0 S
1908 759.75 0 31.5 S
1892.25 775.5 31.5 0 S
1910 756.75 0 31.5 S
1894.25 772.5 31.5 0 S
1912 753.75 0 31.5 S
1896.25 769.5 31.5 0 S
1914.5 750.25 0 31.5 S
1898.75 766 31.5 0 S
1916.5 747.25 0 31.5 S
1900.75 763 31.5 0 S
1918.5 744.75 0 31.5 S
1902.75 760.5 31.5 0 S
1920.5 741.75 0 31.5 S
1904.75 757.5 31.5 0 S
1922.5 738.75 0 31.5 S
1906.75 754.5 31.5 0 S
1924.5 735.75 0 31.5 S
1908.75 751.5 31.5 0 S
1927 733.25 0 31.5 S
1911.25 749 31.5 0 S
1929 730.25 0 31.5 S
1913.25 746 31.5 0 S
1931 727.25 0 31.5 S
1915.25 743 31.5 0 S
1933 724.75 0 31.5 S
1917.25 740.5 31.5 0 S
1935 722.25 0 31.5 S
1919.25 738 31.5 0 S
1937 719.25 0 31.5 S
1921.25 735 31.5 0 S
1939.5 716.75 0 31.5 S
1923.75 732.5 31.5 0 S
1941.5 714.25 0 31.5 S
1925.75 730 31.5 0 S
1943.5 711.75 0 31.5 S
1927.75 727.5 31.5 0 S
1945.5 709.25 0 31.5 S
1929.75 725 31.5 0 S
1947.5 706.25 0 31.5 S
1931.75 722 31.5 0 S
1949.5 704.25 0 31.5 S
1933.75 720 31.5 0 S
1952 701.25 0 31.5 S
1936.25 717 31.5 0 S
1954 698.75 0 31.5 S
1938.25 714.5 31.5 0 S
1956 696.25 0 31.5 S
1940.25 712 31.5 0 S
1958 694.25 0 31.5 S
1942.25 710 31.5 0 S
1960 692.25 0 31.5 S
1944.25 708 31.5 0 S
1962 690.25 0 31.5 S
1946.25 706 31.5 0 S
1964.5 687.75 0 31.5 S
1948.75 703.5 31.5 0 S
1966.5 685.75 0 31.5 S
1950.75 701.5 31.5 0 S
1968.5 683.75 0 31.5 S
1952.75 699.5 31.5 0 S
1970.5 681.75 0 31.5 S
1954.75 697.5 31.5 0 S
1972.5 680.25 0 31.5 S
1956.75 696 31.5 0 S
1975 678.25 0 31.5 S
1959.25 694 31.5 0 S
1977 676.25 0 31.5 S
1961.25 692 31.5 0 S
1979 674.75 0 31.5 S
1963.25 690.5 31.5 0 S
1981 672.75 0 31.5 S
1965.25 688.5 31.5 0 S
1983 671.25 0 31.5 S
1967.25 687 31.5 0 S
1985 669.75 0 31.5 S
1969.25 685.5 31.5 0 S
1987.5 667.75 0 31.5 S
1971.75 683.5 31.5 0 S
1989.5 666.25 0 31.5 S
1973.75 682 31.5 0 S
1991.5 664.75 0 31.5 S
1975.75 680.5 31.5 0 S
1993.5 663.25 0 31.5 S
1977.75 679 31.5 0 S
1995.5 661.75 0 31.5 S
1979.75 677.5 31.5 0 S
1997.5 660.25 0 31.5 S
1981.75 676 31.5 0 S
2000 658.75 0 31.5 S
1984.25 674.5 31.5 0 S
2002 657.25 0 31.5 S
1986.25 673 31.5 0 S
2004 655.75 0 31.5 S
1988.25 671.5 31.5 0 S
2006 654.25 0 31.5 S
1990.25 670 31.5 0 S
2008 652.75 0 31.5 S
1992.25 668.5 31.5 0 S
2010 651.75 0 31.5 S
1994.25 667.5 31.5 0 S
2012.5 650.25 0 31.5 S
1996.75 666 31.5 0 S
2014.5 649.25 0 31.5 S
1998.75 665 31.5 0 S
2016.5 648.25 0 31.5 S
2000.75 664 31.5 0 S
2018.5 646.75 0 31.5 S
2002.75 662.5 31.5 0 S
2020.5 645.75 0 31.5 S
2004.75 661.5 31.5 0 S
2022.5 644.75 0 31.5 S
2006.75 660.5 31.5 0 S
2025 643.75 0 31.5 S
2009.25 659.5 31.5 0 S
2027 642.75 0 31.5 S
2011.25 658.5 31.5 0 S
2029 641.25 0 31.5 S
2013.25 657 31.5 0 S
2031 640.25 0 31.5 S
2015.25 656 31.5 0 S
2033 639.25 0 31.5 S
2017.25 655 31.5 0 S
2035 638.25 0 31.5 S
2019.25 654 31.5 0 S
2037.5 637.25 0 31.5 S
2021.75 653 31.5 0 S
2039.5 636.25 0 31.5 S
2023.75 652 31.5 0 S
2041.5 635.75 0 31.5 S
2025.75 651.5 31.5 0 S
2043.5 634.75 0 31.5 S
2027.75 650.5 31.5 0 S
2045.5 633.75 0 31.5 S
2029.75 649.5 31.5 0 S
2047.5 632.75 0 31.5 S
2031.75 648.5 31.5 0 S
2050 631.75 0 31.5 S
2034.25 647.5 31.5 0 S
2052 631.25 0 31.5 S
2036.25 647 31.5 0 S
2054 630.75 0 31.5 S
2038.25 646.5 31.5 0 S
2056 629.75 0 31.5 S
2040.25 645.5 31.5 0 S
2058 628.75 0 31.5 S
2042.25 644.5 31.5 0 S
2060 628.25 0 31.5 S
2044.25 644 31.5 0 S
2062.5 627.25 0 31.5 S
2046.75 643 31.5 0 S
2064.5 626.75 0 31.5 S
2048.75 642.5 31.5 0 S
2066.5 626.25 0 31.5 S
2050.75 642 31.5 0 S
2068.5 625.75 0 31.5 S
2052.75 641.5 31.5 0 S
2070.5 624.75 0 31.5 S
2054.75 640.5 31.5 0 S
2072.5 624.25 0 31.5 S
2056.75 640 31.5 0 S
2075 623.75 0 31.5 S
2059.25 639.5 31.5 0 S
2077 622.75 0 31.5 S
2061.25 638.5 31.5 0 S
2079 622.25 0 31.5 S
2063.25 638 31.5 0 S
2081 621.75 0 31.5 S
2065.25 637.5 31.5 0 S
2083 621.25 0 31.5 S
2067.25 637 31.5 0 S
2085.5 620.75 0 31.5 S
2069.75 636.5 31.5 0 S
2087.5 620.25 0 31.5 S
2071.75 636 31.5 0 S
2089.5 619.75 0 31.5 S
2073.75 635.5 31.5 0 S
2091.5 619.25 0 31.5 S
2075.75 635 31.5 0 S
2093.5 618.75 0 31.5 S
2077.75 634.5 31.5 0 S
2095.5 618.25 0 31.5 S
2079.75 634 31.5 0 S
2098 617.75 0 31.5 S
2082.25 633.5 31.5 0 S
2100 617.25 0 31.5 S
2084.25 633 31.5 0 S
2102 616.75 0 31.5 S
2086.25 632.5 31.5 0 S
2104 616.75 0 31.5 S
2088.25 632.5 31.5 0 S
2106 616.25 0 31.5 S
2090.25 632 31.5 0 S
2108 615.75 0 31.5 S
2092.25 631.5 31.5 0 S
2110.5 615.75 0 31.5 S
2094.75 631.5 31.5 0 S
2112.5 615.25 0 31.5 S
2096.75 631 31.5 0 S
2114.5 615.25 0 31.5 S
2098.75 631 31.5 0 S
2116.5 614.75 0 31.5 S
2100.75 630.5 31.5 0 S
2118.5 614.25 0 31.5 S
2102.75 630 31.5 0 S
2120.5 613.75 0 31.5 S
2104.75 629.5 31.5 0 S
2123 613.75 0 31.5 S
2107.25 629.5 31.5 0 S
2125 613.25 0 31.5 S
2109.25 629 31.5 0 S
2127 612.75 0 31.5 S
2111.25 628.5 31.5 0 S
2129 612.75 0 31.5 S
2113.25 628.5 31.5 0 S
2131 612.25 0 31.5 S
2115.25 628 31.5 0 S
2133 612.25 0 31.5 S
2117.25 628 31.5 0 S
2135.5 611.75 0 31.5 S
2119.75 627.5 31.5 0 S
2137.5 611.75 0 31.5 S
2121.75 627.5 31.5 0 S
2139.5 611.25 0 31.5 S
2123.75 627 31.5 0 S
2141.5 610.75 0 31.5 S
2125.75 626.5 31.5 0 S
2143.5 610.75 0 31.5 S
2127.75 626.5 31.5 0 S
2145.5 610.75 0 31.5 S
2129.75 626.5 31.5 0 S
2148 610.25 0 31.5 S
2132.25 626 31.5 0 S
2150 610.25 0 31.5 S
2134.25 626 31.5 0 S
2152 609.75 0 31.5 S
2136.25 625.5 31.5 0 S
2154 609.75 0 31.5 S
2138.25 625.5 31.5 0 S
2156 609.25 0 31.5 S
2140.25 625 31.5 0 S
2158 609.25 0 31.5 S
2142.25 625 31.5 0 S
2160.5 609.25 0 31.5 S
2144.75 625 31.5 0 S
2162.5 608.75 0 31.5 S
2146.75 624.5 31.5 0 S
2164.5 608.75 0 31.5 S
2148.75 624.5 31.5 0 S
2166.5 608.75 0 31.5 S
2150.75 624.5 31.5 0 S
2168.5 608.25 0 31.5 S
2152.75 624 31.5 0 S
2170.5 608.25 0 31.5 S
2154.75 624 31.5 0 S
2173 608.25 0 31.5 S
2157.25 624 31.5 0 S
2175 607.75 0 31.5 S
2159.25 623.5 31.5 0 S
2177 607.75 0 31.5 S
2161.25 623.5 31.5 0 S
2179 607.75 0 31.5 S
2163.25 623.5 31.5 0 S
2181 607.75 0 31.5 S
2165.25 623.5 31.5 0 S
2183.5 607.25 0 31.5 S
2167.75 623 31.5 0 S
2185.5 607.25 0 31.5 S
2169.75 623 31.5 0 S
2187.5 607.25 0 31.5 S
2171.75 623 31.5 0 S
2189.5 607.25 0 31.5 S
2173.75 623 31.5 0 S
2191.5 607.25 0 31.5 S
2175.75 623 31.5 0 S
2193.5 606.75 0 31.5 S
2177.75 622.5 31.5 0 S
2196 606.75 0 31.5 S
2180.25 622.5 31.5 0 S
2198 606.75 0 31.5 S
2182.25 622.5 31.5 0 S
2200 606.75 0 31.5 S
2184.25 622.5 31.5 0 S
2202 606.75 0 31.5 S
2186.25 622.5 31.5 0 S
2204 606.25 0 31.5 S
2188.25 622 31.5 0 S
2206 606.25 0 31.5 S
2190.25 622 31.5 0 S
2208.5 606.25 0 31.5 S
2192.75 622 31.5 0 S
2210.5 606.25 0 31.5 S
2194.75 622 31.5 0 S
2212.5 606.25 0 31.5 S
2196.75 622 31.5 0 S
2214.5 605.75 0 31.5 S
2198.75 621.5 31.5 0 S
2216.5 605.75 0 31.5 S
2200.75 621.5 31.5 0 S
2218.5 605.75 0 31.5 S
2202.75 621.5 31.5 0 S
2221 605.75 0 31.5 S
2205.25 621.5 31.5 0 S
2223 605.75 0 31.5 S
2207.25 621.5 31.5 0 S
2225 605.75 0 31.5 S
2209.25 621.5 31.5 0 S
2227 605.75 0 31.5 S
2211.25 621.5 31.5 0 S
2229 605.25 0 31.5 S
2213.25 621 31.5 0 S
2231 605.25 0 31.5 S
2215.25 621 31.5 0 S
2233.5 605.25 0 31.5 S
2217.75 621 31.5 0 S
2235.5 605.25 0 31.5 S
2219.75 621 31.5 0 S
2237.5 605.25 0 31.5 S
2221.75 621 31.5 0 S
2239.5 605.25 0 31.5 S
2223.75 621 31.5 0 S
2241.5 605.25 0 31.5 S
2225.75 621 31.5 0 S
2243.5 605.25 0 31.5 S
2227.75 621 31.5 0 S
2246 605.25 0 31.5 S
2230.25 621 31.5 0 S
2248 605.25 0 31.5 S
2232.25 621 31.5 0 S
2250 605.25 0 31.5 S
2234.25 621 31.5 0 S
2252 605.25 0 31.5 S
2236.25 621 31.5 0 S
2254 605.25 0 31.5 S
2238.25 621 31.5 0 S
2256 605.25 0 31.5 S
2240.25 621 31.5 0 S
2258.5 604.75 0 31.5 S
2242.75 620.5 31.5 0 S
2264.5 604.75 0 31.5 S
2248.75 620.5 31.5 0 S
2266.5 604.75 0 31.5 S
2250.75 620.5 31.5 0 S
2268.5 604.75 0 31.5 S
2252.75 620.5 31.5 0 S
2271 604.75 0 31.5 S
2255.25 620.5 31.5 0 S
2273 604.75 0 31.5 S
2257.25 620.5 31.5 0 S
2275 604.75 0 31.5 S
2259.25 620.5 31.5 0 S
2277 604.75 0 31.5 S
2261.25 620.5 31.5 0 S
2279 604.75 0 31.5 S
2263.25 620.5 31.5 0 S
2281 604.75 0 31.5 S
2265.25 620.5 31.5 0 S
2283.5 604.75 0 31.5 S
2267.75 620.5 31.5 0 S
2285.5 604.75 0 31.5 S
2269.75 620.5 31.5 0 S
2287.5 604.75 0 31.5 S
2271.75 620.5 31.5 0 S
2291.5 604.75 0 31.5 S
2275.75 620.5 31.5 0 S
2294 604.75 0 31.5 S
2278.25 620.5 31.5 0 S
2298 604.75 0 31.5 S
2282.25 620.5 31.5 0 S
2302 604.75 0 31.5 S
2286.25 620.5 31.5 0 S
2312.5 604.25 0 31.5 S
2296.75 620 31.5 0 S
2319 604.25 0 31.5 S
2303.25 620 31.5 0 S
2321 604.25 0 31.5 S
2305.25 620 31.5 0 S
2325 604.25 0 31.5 S
2309.25 620 31.5 0 S
2329 604.25 0 31.5 S
2313.25 620 31.5 0 S
2333.5 604.25 0 31.5 S
2317.75 620 31.5 0 S
2335.5 604.25 0 31.5 S
2319.75 620 31.5 0 S
2337.5 604.25 0 31.5 S
2321.75 620 31.5 0 S
2344 604.25 0 31.5 S
2328.25 620 31.5 0 S
2346 604.25 0 31.5 S
2330.25 620 31.5 0 S
2350 604.25 0 31.5 S
2334.25 620 31.5 0 S
2354 604.25 0 31.5 S
2338.25 620 31.5 0 S
2360.5 604.25 0 31.5 S
2344.75 620 31.5 0 S
2375 604.25 0 31.5 S
2359.25 620 31.5 0 S
2381.5 604.25 0 31.5 S
2365.75 620 31.5 0 S
2392 604.25 0 31.5 S
2376.25 620 31.5 0 S
2404.5 604.25 0 31.5 S
2388.75 620 31.5 0 S
2444 604.25 0 31.5 S
2428.25 620 31.5 0 S
5 w
926 620 1668 1248 re
S
cleartomark end end pagesave restore
 showpage
%%PageTrailer
%%Trailer
%%Pages: 1
