%!PS-Adobe-3.0 EPSF-3.0
%%BoundingBox: 66 53 265 190
%%HiResBoundingBox: 66.400000 53.600000 265.000000 189.500000
%.....................................
%%Creator: GPL Ghostscript 871 (epswrite)
%%CreationDate: 2012/01/28 17:04:46
%%DocumentData: Clean7Bit
%%LanguageLevel: 2
%%EndComments
%%BeginProlog
% This copyright applies to everything between here and the %%EndProlog:
% Copyright (C) 2010 Artifex Software, Inc.  All rights reserved.
%%BeginResource: procset GS_epswrite_2_0_1001 1.001 0
/GS_epswrite_2_0_1001 80 dict dup begin
/PageSize 2 array def/setpagesize{ PageSize aload pop 3 index eq exch
4 index eq and{ pop pop pop}{ PageSize dup  1
5 -1 roll put 0 4 -1 roll put dup null eq {false} {dup where} ifelse{ exch get exec}
{ pop/setpagedevice where
{ pop 1 dict dup /PageSize PageSize put setpagedevice}
{ /setpage where{ pop PageSize aload pop pageparams 3 {exch pop} repeat
setpage}if}ifelse}ifelse}ifelse} bind def
/!{bind def}bind def/#{load def}!/N/counttomark #
/rG{3{3 -1 roll 255 div}repeat setrgbcolor}!/G{255 div setgray}!/K{0 G}!
/r6{dup 3 -1 roll rG}!/r5{dup 3 1 roll rG}!/r3{dup rG}!
/w/setlinewidth #/J/setlinecap #
/j/setlinejoin #/M/setmiterlimit #/d/setdash #/i/setflat #
/m/moveto #/l/lineto #/c/rcurveto #
/p{N 2 idiv{N -2 roll rlineto}repeat}!
/P{N 0 gt{N -2 roll moveto p}if}!
/h{p closepath}!/H{P closepath}!
/lx{0 rlineto}!/ly{0 exch rlineto}!/v{0 0 6 2 roll c}!/y{2 copy c}!
/re{4 -2 roll m exch dup lx exch ly neg lx h}!
/^{3 index neg 3 index neg}!
/f{P fill}!/f*{P eofill}!/s{H stroke}!/S{P stroke}!
/q/gsave #/Q/grestore #/rf{re fill}!
/Y{P clip newpath}!/Y*{P eoclip newpath}!/rY{re Y}!
/|={pop exch 4 1 roll 1 array astore cvx 3 array astore cvx exch 1 index def exec}!
/|{exch string readstring |=}!
/+{dup type/nametype eq{2 index 7 add -3 bitshift 2 index mul}if}!
/@/currentfile #/${+ @ |}!
/B{{2 copy string{readstring pop}aload pop 4 array astore cvx
3 1 roll}repeat pop pop true}!
/Ix{[1 0 0 1 11 -2 roll exch neg exch neg]exch}!
/,{true exch Ix imagemask}!/If{false exch Ix imagemask}!/I{exch Ix image}!
/Ic{exch Ix false 3 colorimage}!
/F{/Columns counttomark 3 add -2 roll/Rows exch/K -1/BlackIs1 true>>
/CCITTFaxDecode filter}!/FX{<</EndOfBlock false F}!
/X{/ASCII85Decode filter}!/@X{@ X}!/&2{2 index 2 index}!
/@F{@ &2<<F}!/@C{@X &2 FX}!
/$X{+ @X |}!/&4{4 index 4 index}!/$F{+ @ &4<<F |}!/$C{+ @X &4 FX |}!
/IC{3 1 roll 10 dict begin 1{/ImageType/Interpolate/Decode/DataSource
/ImageMatrix/BitsPerComponent/Height/Width}{exch def}forall
currentdict end image}!
/~{@ read {pop} if}!
end def
%%EndResource
/pagesave null def
%%EndProlog
%%Page: 1 1
%%BeginPageSetup
GS_epswrite_2_0_1001 begin
/pagesave save store 197 dict begin
0.1 0.1 scale
%%EndPageSetup
gsave mark
Q q
0 0 250000 250000 re
Y
5 w
K
791.5 610 31.5 0 P
2599.5 610 -31.5 0 S
725 591 31 40 /3U
$C
3XZ3SFQf&P:$Ln$qG%"iUu24Ps8W-![[7$kBn'o8.qrM$$n,OL~>
,
791.5 820.5 31.5 0 P
2599.5 820.5 -31.5 0 S
672 802 14 39 /6U
$X
!.4co!.4co!.4co!.4co!.4co!.4co!.4co!.4co!.4co!.4co!.4co!.4co!.4co!.4coJ,Ffo
J,CDd!W2rq!.4c/!'C6D!#t~>
,
694 801 3U ,
725 801 3U ,
791.5 1031.5 31.5 0 P
2599.5 1031.5 -31.5 0 S
664 1013 31 39 /3Y
$C
3#Q)FQZ)<hYjLDe%c)mK3,[M1%Goq7Gi/Q$<pOO</24L^e1dSM~>
,
694 1012 3U ,
725 1012 3U ,
791.5 1242 31.5 0 P
2599.5 1242 -31.5 0 S
664 1223 31 40 /6Y
$C
+c-IE-UH-%]HHj9mn3?S+4dJ!:8!tX_ij&7mr!CMs8TO>X)"r)Nl&1.$3~>
,
694 1223 3U ,
725 1223 3U ,
791.5 1452.5 31.5 0 P
2599.5 1452.5 -31.5 0 S
664 1434 32 39 /4C
$C
--uVks3:gUo#N31g])3$g])3$hqr@]hqqqWrU55\~>
,
694 1433 3U ,
725 1433 3U ,
791.5 1663.5 31.5 0 P
2599.5 1663.5 -31.5 0 S
664 1644 31 40 /7C
$C
3XZ'1+R.8q]a!^bS#-.n5Q8&QCVJM)@4YG]lXXu40O0&+qu4ZMJ+s~>
,
694 1644 3U ,
725 1644 3U ,
791.5 1874 31.5 0 P
2599.5 1874 -31.5 0 S
664 1855 31 40 /4G
$C
3XZ3Q6.<pFcp>6=VX*K]p&G%rXfg*i$]<&d\7'?nj*grDL4A*&Xf`L5a(cGf@6a~>
,
694 1855 3U ,
725 1855 3U ,
791.5 610 0 31.5 P
791.5 1874 0 -31.5 S
733 550 19 4 /7G
$C
4:1c~>
,
752 536 6Y ,
782 536 3U ,
813 536 3U ,
1017.5 610 0 31.5 P
1017.5 1874 0 -31.5 S
959 550 7G ,
978 537 3Y ,
1008 536 3U ,
1039 536 3U ,
1243.5 610 0 31.5 P
1243.5 1874 0 -31.5 S
1185 550 7G ,
1212 537 6U ,
1234 536 3U ,
1265 536 3U ,
1469.5 610 0 31.5 P
1469.5 1874 0 -31.5 S
1459 536 3U ,
1695.5 610 0 31.5 P
1695.5 1874 0 -31.5 S
1662 537 6U ,
1685 536 3U ,
1715 536 3U ,
1921.5 610 0 31.5 P
1921.5 1874 0 -31.5 S
1880 537 3Y ,
1911 536 3U ,
1941 536 3U ,
2147.5 610 0 31.5 P
2147.5 1874 0 -31.5 S
2106 536 6Y ,
2137 536 3U ,
2167 536 3U ,
2373.5 610 0 31.5 P
2373.5 1874 0 -31.5 S
2332 537 4C ,
2363 536 3U ,
2393 536 3U ,
2599.5 610 0 31.5 P
2599.5 1874 0 -31.5 S
2558 536 7C ,
2589 536 3U ,
2619 536 3U ,
791.5 610 1808 1264 re
S
2.5 w
961 598.25 0 31.5 S
945.25 614 31.5 0 S
968 596.25 0 31.5 S
952.25 612 31.5 0 S
974.5 596.25 0 31.5 S
958.75 612 31.5 0 S
981.5 596.25 0 31.5 S
965.75 612 31.5 0 S
1004 596.25 0 31.5 S
988.25 612 31.5 0 S
1006 600.75 0 31.5 S
990.25 616.5 31.5 0 S
1008.5 596.25 0 31.5 S
992.75 612 31.5 0 S
1010.5 596.25 0 31.5 S
994.75 612 31.5 0 S
1013 596.25 0 31.5 S
997.25 612 31.5 0 S
1017.5 596.25 0 31.5 S
1001.75 612 31.5 0 S
1020 596.25 0 31.5 S
1004.25 612 31.5 0 S
1022 598.25 0 31.5 S
1006.25 614 31.5 0 S
1026.5 600.75 0 31.5 S
1010.75 616.5 31.5 0 S
1029 596.25 0 31.5 S
1013.25 612 31.5 0 S
1031 598.25 0 31.5 S
1015.25 614 31.5 0 S
1033.5 598.25 0 31.5 S
1017.75 614 31.5 0 S
1035.5 602.75 0 31.5 S
1019.75 618.5 31.5 0 S
1038 598.25 0 31.5 S
1022.25 614 31.5 0 S
1040 596.25 0 31.5 S
1024.25 612 31.5 0 S
1042.5 600.75 0 31.5 S
1026.75 616.5 31.5 0 S
1044.5 596.25 0 31.5 S
1028.75 612 31.5 0 S
1047 596.25 0 31.5 S
1031.25 612 31.5 0 S
1049 598.25 0 31.5 S
1033.25 614 31.5 0 S
1051.5 598.25 0 31.5 S
1035.75 614 31.5 0 S
1056 596.25 0 31.5 S
1040.25 612 31.5 0 S
1058 596.25 0 31.5 S
1042.25 612 31.5 0 S
1060.5 596.25 0 31.5 S
1044.75 612 31.5 0 S
1062.5 600.75 0 31.5 S
1046.75 616.5 31.5 0 S
1065 604.75 0 31.5 S
1049.25 620.5 31.5 0 S
1067 602.75 0 31.5 S
1051.25 618.5 31.5 0 S
1069.5 596.25 0 31.5 S
1053.75 612 31.5 0 S
1071.5 604.75 0 31.5 S
1055.75 620.5 31.5 0 S
1074 602.75 0 31.5 S
1058.25 618.5 31.5 0 S
1076.5 602.75 0 31.5 S
1060.75 618.5 31.5 0 S
1078.5 600.75 0 31.5 S
1062.75 616.5 31.5 0 S
1081 596.25 0 31.5 S
1065.25 612 31.5 0 S
1083 606.75 0 31.5 S
1067.25 622.5 31.5 0 S
1085.5 600.75 0 31.5 S
1069.75 616.5 31.5 0 S
1087.5 611.25 0 31.5 S
1071.75 627 31.5 0 S
1090 608.75 0 31.5 S
1074.25 624.5 31.5 0 S
1092 604.75 0 31.5 S
1076.25 620.5 31.5 0 S
1094.5 596.25 0 31.5 S
1078.75 612 31.5 0 S
1096.5 596.25 0 31.5 S
1080.75 612 31.5 0 S
1099 598.25 0 31.5 S
1083.25 614 31.5 0 S
1101 604.75 0 31.5 S
1085.25 620.5 31.5 0 S
1103.5 604.75 0 31.5 S
1087.75 620.5 31.5 0 S
1105.5 600.75 0 31.5 S
1089.75 616.5 31.5 0 S
1108 604.75 0 31.5 S
1092.25 620.5 31.5 0 S
1110 600.75 0 31.5 S
1094.25 616.5 31.5 0 S
1112.5 606.75 0 31.5 S
1096.75 622.5 31.5 0 S
1114.5 604.75 0 31.5 S
1098.75 620.5 31.5 0 S
1117 606.75 0 31.5 S
1101.25 622.5 31.5 0 S
1119 617.25 0 31.5 S
1103.25 633 31.5 0 S
1121.5 608.75 0 31.5 S
1105.75 624.5 31.5 0 S
1123.5 608.75 0 31.5 S
1107.75 624.5 31.5 0 S
1126 613.25 0 31.5 S
1110.25 629 31.5 0 S
1128 600.75 0 31.5 S
1112.25 616.5 31.5 0 S
1130.5 600.75 0 31.5 S
1114.75 616.5 31.5 0 S
1133 608.75 0 31.5 S
1117.25 624.5 31.5 0 S
1135 619.75 0 31.5 S
1119.25 635.5 31.5 0 S
1137.5 606.75 0 31.5 S
1121.75 622.5 31.5 0 S
1139.5 623.75 0 31.5 S
1123.75 639.5 31.5 0 S
1142 623.75 0 31.5 S
1126.25 639.5 31.5 0 S
1144 611.25 0 31.5 S
1128.25 627 31.5 0 S
1146.5 611.25 0 31.5 S
1130.75 627 31.5 0 S
1148.5 619.75 0 31.5 S
1132.75 635.5 31.5 0 S
1151 630.25 0 31.5 S
1135.25 646 31.5 0 S
1153 625.75 0 31.5 S
1137.25 641.5 31.5 0 S
1155.5 621.75 0 31.5 S
1139.75 637.5 31.5 0 S
1157.5 611.25 0 31.5 S
1141.75 627 31.5 0 S
1160 627.75 0 31.5 S
1144.25 643.5 31.5 0 S
1162 627.75 0 31.5 S
1146.25 643.5 31.5 0 S
1164.5 632.25 0 31.5 S
1148.75 648 31.5 0 S
1166.5 625.75 0 31.5 S
1150.75 641.5 31.5 0 S
1169 604.75 0 31.5 S
1153.25 620.5 31.5 0 S
1171 630.25 0 31.5 S
1155.25 646 31.5 0 S
1173.5 636.25 0 31.5 S
1157.75 652 31.5 0 S
1175.5 632.25 0 31.5 S
1159.75 648 31.5 0 S
1178 615.25 0 31.5 S
1162.25 631 31.5 0 S
1180 638.25 0 31.5 S
1164.25 654 31.5 0 S
1182.5 632.25 0 31.5 S
1166.75 648 31.5 0 S
1184.5 642.75 0 31.5 S
1168.75 658.5 31.5 0 S
1187 636.25 0 31.5 S
1171.25 652 31.5 0 S
1189.5 630.25 0 31.5 S
1173.75 646 31.5 0 S
1191.5 651.25 0 31.5 S
1175.75 667 31.5 0 S
1194 636.25 0 31.5 S
1178.25 652 31.5 0 S
1196 653.25 0 31.5 S
1180.25 669 31.5 0 S
1198.5 651.25 0 31.5 S
1182.75 667 31.5 0 S
1200.5 630.25 0 31.5 S
1184.75 646 31.5 0 S
1203 617.25 0 31.5 S
1187.25 633 31.5 0 S
1205 646.75 0 31.5 S
1189.25 662.5 31.5 0 S
1207.5 632.25 0 31.5 S
1191.75 648 31.5 0 S
1209.5 642.75 0 31.5 S
1193.75 658.5 31.5 0 S
1212 644.75 0 31.5 S
1196.25 660.5 31.5 0 S
1214 653.25 0 31.5 S
1198.25 669 31.5 0 S
1216.5 646.75 0 31.5 S
1200.75 662.5 31.5 0 S
1218.5 627.75 0 31.5 S
1202.75 643.5 31.5 0 S
1221 651.25 0 31.5 S
1205.25 667 31.5 0 S
1223 661.75 0 31.5 S
1207.25 677.5 31.5 0 S
1225.5 640.75 0 31.5 S
1209.75 656.5 31.5 0 S
1227.5 663.75 0 31.5 S
1211.75 679.5 31.5 0 S
1230 659.75 0 31.5 S
1214.25 675.5 31.5 0 S
1232 655.25 0 31.5 S
1216.25 671 31.5 0 S
1234.5 651.25 0 31.5 S
1218.75 667 31.5 0 S
1236.5 655.25 0 31.5 S
1220.75 671 31.5 0 S
1239 653.25 0 31.5 S
1223.25 669 31.5 0 S
1241 674.25 0 31.5 S
1225.25 690 31.5 0 S
1243.5 655.25 0 31.5 S
1227.75 671 31.5 0 S
1246 672.25 0 31.5 S
1230.25 688 31.5 0 S
1248 672.25 0 31.5 S
1232.25 688 31.5 0 S
1250.5 693.25 0 31.5 S
1234.75 709 31.5 0 S
1252.5 686.75 0 31.5 S
1236.75 702.5 31.5 0 S
1255 691.25 0 31.5 S
1239.25 707 31.5 0 S
1257 682.75 0 31.5 S
1241.25 698.5 31.5 0 S
1259.5 722.75 0 31.5 S
1243.75 738.5 31.5 0 S
1261.5 712.25 0 31.5 S
1245.75 728 31.5 0 S
1264 699.75 0 31.5 S
1248.25 715.5 31.5 0 S
1266 710.25 0 31.5 S
1250.25 726 31.5 0 S
1268.5 729.25 0 31.5 S
1252.75 745 31.5 0 S
1270.5 741.75 0 31.5 S
1254.75 757.5 31.5 0 S
1273 695.25 0 31.5 S
1257.25 711 31.5 0 S
1275 710.25 0 31.5 S
1259.25 726 31.5 0 S
1277.5 693.25 0 31.5 S
1261.75 709 31.5 0 S
1279.5 718.75 0 31.5 S
1263.75 734.5 31.5 0 S
1282 718.75 0 31.5 S
1266.25 734.5 31.5 0 S
1284 714.25 0 31.5 S
1268.25 730 31.5 0 S
1286.5 743.75 0 31.5 S
1270.75 759.5 31.5 0 S
1288.5 710.25 0 31.5 S
1272.75 726 31.5 0 S
1291 689.25 0 31.5 S
1275.25 705 31.5 0 S
1293 756.25 0 31.5 S
1277.25 772 31.5 0 S
1295.5 745.75 0 31.5 S
1279.75 761.5 31.5 0 S
1297.5 752.25 0 31.5 S
1281.75 768 31.5 0 S
1300 748.25 0 31.5 S
1284.25 764 31.5 0 S
1302.5 752.25 0 31.5 S
1286.75 768 31.5 0 S
1304.5 775.25 0 31.5 S
1288.75 791 31.5 0 S
1307 720.75 0 31.5 S
1291.25 736.5 31.5 0 S
1309 769.25 0 31.5 S
1293.25 785 31.5 0 S
1311.5 766.75 0 31.5 S
1295.75 782.5 31.5 0 S
1313.5 785.75 0 31.5 S
1297.75 801.5 31.5 0 S
1316 781.75 0 31.5 S
1300.25 797.5 31.5 0 S
1318 766.75 0 31.5 S
1302.25 782.5 31.5 0 S
1320.5 815.25 0 31.5 S
1304.75 831 31.5 0 S
1322.5 794.25 0 31.5 S
1306.75 810 31.5 0 S
1325 794.25 0 31.5 S
1309.25 810 31.5 0 S
1327 788.25 0 31.5 S
1311.25 804 31.5 0 S
1329.5 815.25 0 31.5 S
1313.75 831 31.5 0 S
1331.5 819.75 0 31.5 S
1315.75 835.5 31.5 0 S
1334 817.75 0 31.5 S
1318.25 833.5 31.5 0 S
1336 872.25 0 31.5 S
1320.25 888 31.5 0 S
1338.5 855.25 0 31.5 S
1322.75 871 31.5 0 S
1340.5 872.25 0 31.5 S
1324.75 888 31.5 0 S
1343 876.75 0 31.5 S
1327.25 892.5 31.5 0 S
1345 834.25 0 31.5 S
1329.25 850 31.5 0 S
1347.5 893.25 0 31.5 S
1331.75 909 31.5 0 S
1349.5 855.25 0 31.5 S
1333.75 871 31.5 0 S
1352 872.25 0 31.5 S
1336.25 888 31.5 0 S
1354 830.25 0 31.5 S
1338.25 846 31.5 0 S
1356.5 884.75 0 31.5 S
1340.75 900.5 31.5 0 S
1359 910.25 0 31.5 S
1343.25 926 31.5 0 S
1361 880.75 0 31.5 S
1345.25 896.5 31.5 0 S
1363.5 897.75 0 31.5 S
1347.75 913.5 31.5 0 S
1365.5 922.75 0 31.5 S
1349.75 938.5 31.5 0 S
1368 893.25 0 31.5 S
1352.25 909 31.5 0 S
1370 874.25 0 31.5 S
1354.25 890 31.5 0 S
1372.5 979.75 0 31.5 S
1356.75 995.5 31.5 0 S
1374.5 889.25 0 31.5 S
1358.75 905 31.5 0 S
1377 962.75 0 31.5 S
1361.25 978.5 31.5 0 S
1379 922.75 0 31.5 S
1363.25 938.5 31.5 0 S
1381.5 948.25 0 31.5 S
1365.75 964 31.5 0 S
1383.5 958.75 0 31.5 S
1367.75 974.5 31.5 0 S
1386 946.25 0 31.5 S
1370.25 962 31.5 0 S
1388 943.75 0 31.5 S
1372.25 959.5 31.5 0 S
1390.5 937.75 0 31.5 S
1374.75 953.5 31.5 0 S
1392.5 927.25 0 31.5 S
1376.75 943 31.5 0 S
1395 998.75 0 31.5 S
1379.25 1014.5 31.5 0 S
1397 1038.75 0 31.5 S
1381.25 1054.5 31.5 0 S
1399.5 1024.25 0 31.5 S
1383.75 1040 31.5 0 S
1401.5 1028.25 0 31.5 S
1385.75 1044 31.5 0 S
1404 1019.75 0 31.5 S
1388.25 1035.5 31.5 0 S
1406 975.75 0 31.5 S
1390.25 991.5 31.5 0 S
1408.5 1011.25 0 31.5 S
1392.75 1027 31.5 0 S
1410.5 1036.75 0 31.5 S
1394.75 1052.5 31.5 0 S
1413 1034.75 0 31.5 S
1397.25 1050.5 31.5 0 S
1415.5 1026.25 0 31.5 S
1399.75 1042 31.5 0 S
1417.5 1070.25 0 31.5 S
1401.75 1086 31.5 0 S
1420 1066.25 0 31.5 S
1404.25 1082 31.5 0 S
1422 1061.75 0 31.5 S
1406.25 1077.5 31.5 0 S
1424.5 1076.75 0 31.5 S
1408.75 1092.5 31.5 0 S
1426.5 1047.25 0 31.5 S
1410.75 1063 31.5 0 S
1429 1059.75 0 31.5 S
1413.25 1075.5 31.5 0 S
1431 1154.75 0 31.5 S
1415.25 1170.5 31.5 0 S
1433.5 1093.75 0 31.5 S
1417.75 1109.5 31.5 0 S
1435.5 1108.25 0 31.5 S
1419.75 1124 31.5 0 S
1438 1144.25 0 31.5 S
1422.25 1160 31.5 0 S
1440 1101.75 0 31.5 S
1424.25 1117.5 31.5 0 S
1442.5 1137.75 0 31.5 S
1426.75 1153.5 31.5 0 S
1444.5 1175.75 0 31.5 S
1428.75 1191.5 31.5 0 S
1447 1099.75 0 31.5 S
1431.25 1115.5 31.5 0 S
1449 1123.25 0 31.5 S
1433.25 1139 31.5 0 S
1451.5 1148.25 0 31.5 S
1435.75 1164 31.5 0 S
1453.5 1131.25 0 31.5 S
1437.75 1147 31.5 0 S
1456 1203.25 0 31.5 S
1440.25 1219 31.5 0 S
1458 1207.25 0 31.5 S
1442.25 1223 31.5 0 S
1460.5 1217.75 0 31.5 S
1444.75 1233.5 31.5 0 S
1462.5 1236.75 0 31.5 S
1446.75 1252.5 31.5 0 S
1465 1160.75 0 31.5 S
1449.25 1176.5 31.5 0 S
1467 1234.75 0 31.5 S
1451.25 1250.5 31.5 0 S
1472 1247.25 0 31.5 S
1456.25 1263 31.5 0 S
1474 1215.75 0 31.5 S
1458.25 1231.5 31.5 0 S
1476.5 1253.75 0 31.5 S
1460.75 1269.5 31.5 0 S
1478.5 1228.25 0 31.5 S
1462.75 1244 31.5 0 S
1481 1268.25 0 31.5 S
1465.25 1284 31.5 0 S
1483 1240.75 0 31.5 S
1467.25 1256.5 31.5 0 S
1485.5 1222.25 0 31.5 S
1469.75 1238 31.5 0 S
1487.5 1304.25 0 31.5 S
1471.75 1320 31.5 0 S
1490 1306.25 0 31.5 S
1474.25 1322 31.5 0 S
1492 1325.25 0 31.5 S
1476.25 1341 31.5 0 S
1494.5 1386.25 0 31.5 S
1478.75 1402 31.5 0 S
1496.5 1331.75 0 31.5 S
1480.75 1347.5 31.5 0 S
1499 1302.25 0 31.5 S
1483.25 1318 31.5 0 S
1501 1295.75 0 31.5 S
1485.25 1311.5 31.5 0 S
1503.5 1371.75 0 31.5 S
1487.75 1387.5 31.5 0 S
1505.5 1361.25 0 31.5 S
1489.75 1377 31.5 0 S
1508 1386.25 0 31.5 S
1492.25 1402 31.5 0 S
1510 1367.25 0 31.5 S
1494.25 1383 31.5 0 S
1512.5 1422.25 0 31.5 S
1496.75 1438 31.5 0 S
1514.5 1434.75 0 31.5 S
1498.75 1450.5 31.5 0 S
1517 1415.75 0 31.5 S
1501.25 1431.5 31.5 0 S
1519 1384.25 0 31.5 S
1503.25 1400 31.5 0 S
1521.5 1371.75 0 31.5 S
1505.75 1387.5 31.5 0 S
1523.5 1386.25 0 31.5 S
1507.75 1402 31.5 0 S
1526 1428.25 0 31.5 S
1510.25 1444 31.5 0 S
1528.5 1491.75 0 31.5 S
1512.75 1507.5 31.5 0 S
1530.5 1426.25 0 31.5 S
1514.75 1442 31.5 0 S
1533 1352.75 0 31.5 S
1517.25 1368.5 31.5 0 S
1535 1441.25 0 31.5 S
1519.25 1457 31.5 0 S
1537.5 1443.25 0 31.5 S
1521.75 1459 31.5 0 S
1539.5 1394.75 0 31.5 S
1523.75 1410.5 31.5 0 S
1542 1489.75 0 31.5 S
1526.25 1505.5 31.5 0 S
1544 1571.75 0 31.5 S
1528.25 1587.5 31.5 0 S
1546.5 1447.25 0 31.5 S
1530.75 1463 31.5 0 S
1548.5 1548.75 0 31.5 S
1532.75 1564.5 31.5 0 S
1551 1474.75 0 31.5 S
1535.25 1490.5 31.5 0 S
1553 1491.75 0 31.5 S
1537.25 1507.5 31.5 0 S
1555.5 1523.25 0 31.5 S
1539.75 1539 31.5 0 S
1557.5 1552.75 0 31.5 S
1541.75 1568.5 31.5 0 S
1560 1582.25 0 31.5 S
1544.25 1598 31.5 0 S
1562 1519.25 0 31.5 S
1546.25 1535 31.5 0 S
1564.5 1533.75 0 31.5 S
1548.75 1549.5 31.5 0 S
1566.5 1466.25 0 31.5 S
1550.75 1482 31.5 0 S
1569 1552.75 0 31.5 S
1553.25 1568.5 31.5 0 S
1571 1590.75 0 31.5 S
1555.25 1606.5 31.5 0 S
1573.5 1550.75 0 31.5 S
1557.75 1566.5 31.5 0 S
1575.5 1645.25 0 31.5 S
1559.75 1661 31.5 0 S
1578 1571.75 0 31.5 S
1562.25 1587.5 31.5 0 S
1580 1649.75 0 31.5 S
1564.25 1665.5 31.5 0 S
1582.5 1565.25 0 31.5 S
1566.75 1581 31.5 0 S
1585 1597.25 0 31.5 S
1569.25 1613 31.5 0 S
1587 1489.75 0 31.5 S
1571.25 1505.5 31.5 0 S
1589.5 1550.75 0 31.5 S
1573.75 1566.5 31.5 0 S
1591.5 1544.25 0 31.5 S
1575.75 1560 31.5 0 S
1594 1622.25 0 31.5 S
1578.25 1638 31.5 0 S
1596 1552.75 0 31.5 S
1580.25 1568.5 31.5 0 S
1598.5 1656.25 0 31.5 S
1582.75 1672 31.5 0 S
1600.5 1510.75 0 31.5 S
1584.75 1526.5 31.5 0 S
1603 1662.25 0 31.5 S
1587.25 1678 31.5 0 S
1605 1582.25 0 31.5 S
1589.25 1598 31.5 0 S
1607.5 1592.75 0 31.5 S
1591.75 1608.5 31.5 0 S
1609.5 1580.25 0 31.5 S
1593.75 1596 31.5 0 S
1612 1594.75 0 31.5 S
1596.25 1610.5 31.5 0 S
1614 1605.25 0 31.5 S
1598.25 1621 31.5 0 S
1616.5 1599.25 0 31.5 S
1600.75 1615 31.5 0 S
1618.5 1674.75 0 31.5 S
1602.75 1690.5 31.5 0 S
1621 1622.25 0 31.5 S
1605.25 1638 31.5 0 S
1623 1542.25 0 31.5 S
1607.25 1558 31.5 0 S
1625.5 1594.75 0 31.5 S
1609.75 1610.5 31.5 0 S
1627.5 1704.25 0 31.5 S
1611.75 1720 31.5 0 S
1630 1601.25 0 31.5 S
1614.25 1617 31.5 0 S
1632 1710.75 0 31.5 S
1616.25 1726.5 31.5 0 S
1634.5 1674.75 0 31.5 S
1618.75 1690.5 31.5 0 S
1636.5 1674.75 0 31.5 S
1620.75 1690.5 31.5 0 S
1639 1575.75 0 31.5 S
1623.25 1591.5 31.5 0 S
1641.5 1597.25 0 31.5 S
1625.75 1613 31.5 0 S
1643.5 1588.75 0 31.5 S
1627.75 1604.5 31.5 0 S
1646 1731.75 0 31.5 S
1630.25 1747.5 31.5 0 S
1648 1597.25 0 31.5 S
1632.25 1613 31.5 0 S
1650.5 1622.25 0 31.5 S
1634.75 1638 31.5 0 S
1652.5 1643.25 0 31.5 S
1636.75 1659 31.5 0 S
1655 1639.25 0 31.5 S
1639.25 1655 31.5 0 S
1657 1609.75 0 31.5 S
1641.25 1625.5 31.5 0 S
1659.5 1601.25 0 31.5 S
1643.75 1617 31.5 0 S
1661.5 1563.25 0 31.5 S
1645.75 1579 31.5 0 S
1664 1653.75 0 31.5 S
1648.25 1669.5 31.5 0 S
1666 1687.75 0 31.5 S
1650.25 1703.5 31.5 0 S
1668.5 1683.25 0 31.5 S
1652.75 1699 31.5 0 S
1670.5 1620.25 0 31.5 S
1654.75 1636 31.5 0 S
1673 1603.25 0 31.5 S
1657.25 1619 31.5 0 S
1675 1601.25 0 31.5 S
1659.25 1617 31.5 0 S
1677.5 1662.25 0 31.5 S
1661.75 1678 31.5 0 S
1679.5 1677.25 0 31.5 S
1663.75 1693 31.5 0 S
1682 1590.75 0 31.5 S
1666.25 1606.5 31.5 0 S
1684 1653.75 0 31.5 S
1668.25 1669.5 31.5 0 S
1686.5 1643.25 0 31.5 S
1670.75 1659 31.5 0 S
1688.5 1597.25 0 31.5 S
1672.75 1613 31.5 0 S
1691 1582.25 0 31.5 S
1675.25 1598 31.5 0 S
1693 1630.75 0 31.5 S
1677.25 1646.5 31.5 0 S
1695.5 1698.25 0 31.5 S
1679.75 1714 31.5 0 S
1698 1685.75 0 31.5 S
1682.25 1701.5 31.5 0 S
1700 1662.25 0 31.5 S
1684.25 1678 31.5 0 S
1702.5 1605.25 0 31.5 S
1686.75 1621 31.5 0 S
1704.5 1556.75 0 31.5 S
1688.75 1572.5 31.5 0 S
1707 1569.75 0 31.5 S
1691.25 1585.5 31.5 0 S
1709 1618.25 0 31.5 S
1693.25 1634 31.5 0 S
1711.5 1548.75 0 31.5 S
1695.75 1564.5 31.5 0 S
1713.5 1643.25 0 31.5 S
1697.75 1659 31.5 0 S
1716 1531.75 0 31.5 S
1700.25 1547.5 31.5 0 S
1718 1632.75 0 31.5 S
1702.25 1648.5 31.5 0 S
1720.5 1519.25 0 31.5 S
1704.75 1535 31.5 0 S
1722.5 1508.75 0 31.5 S
1706.75 1524.5 31.5 0 S
1725 1571.75 0 31.5 S
1709.25 1587.5 31.5 0 S
1727 1552.75 0 31.5 S
1711.25 1568.5 31.5 0 S
1729.5 1592.75 0 31.5 S
1713.75 1608.5 31.5 0 S
1731.5 1573.75 0 31.5 S
1715.75 1589.5 31.5 0 S
1734 1580.25 0 31.5 S
1718.25 1596 31.5 0 S
1736 1575.75 0 31.5 S
1720.25 1591.5 31.5 0 S
1738.5 1500.25 0 31.5 S
1722.75 1516 31.5 0 S
1740.5 1609.75 0 31.5 S
1724.75 1625.5 31.5 0 S
1743 1552.75 0 31.5 S
1727.25 1568.5 31.5 0 S
1745 1546.25 0 31.5 S
1729.25 1562 31.5 0 S
1747.5 1457.75 0 31.5 S
1731.75 1473.5 31.5 0 S
1749.5 1466.25 0 31.5 S
1733.75 1482 31.5 0 S
1752 1466.25 0 31.5 S
1736.25 1482 31.5 0 S
1754.5 1516.75 0 31.5 S
1738.75 1532.5 31.5 0 S
1756.5 1460.25 0 31.5 S
1740.75 1476 31.5 0 S
1759 1447.25 0 31.5 S
1743.25 1463 31.5 0 S
1761 1474.75 0 31.5 S
1745.25 1490.5 31.5 0 S
1763.5 1540.25 0 31.5 S
1747.75 1556 31.5 0 S
1765.5 1474.75 0 31.5 S
1749.75 1490.5 31.5 0 S
1768 1493.75 0 31.5 S
1752.25 1509.5 31.5 0 S
1770 1464.25 0 31.5 S
1754.25 1480 31.5 0 S
1772.5 1430.75 0 31.5 S
1756.75 1446.5 31.5 0 S
1774.5 1424.25 0 31.5 S
1758.75 1440 31.5 0 S
1777 1390.75 0 31.5 S
1761.25 1406.5 31.5 0 S
1779 1386.25 0 31.5 S
1763.25 1402 31.5 0 S
1781.5 1445.25 0 31.5 S
1765.75 1461 31.5 0 S
1783.5 1365.25 0 31.5 S
1767.75 1381 31.5 0 S
1786 1302.25 0 31.5 S
1770.25 1318 31.5 0 S
1788 1367.25 0 31.5 S
1772.25 1383 31.5 0 S
1790.5 1432.75 0 31.5 S
1774.75 1448.5 31.5 0 S
1792.5 1380.25 0 31.5 S
1776.75 1396 31.5 0 S
1795 1323.25 0 31.5 S
1779.25 1339 31.5 0 S
1797 1321.25 0 31.5 S
1781.25 1337 31.5 0 S
1799.5 1365.25 0 31.5 S
1783.75 1381 31.5 0 S
1801.5 1325.25 0 31.5 S
1785.75 1341 31.5 0 S
1804 1424.25 0 31.5 S
1788.25 1440 31.5 0 S
1806 1312.75 0 31.5 S
1790.25 1328.5 31.5 0 S
1808.5 1299.75 0 31.5 S
1792.75 1315.5 31.5 0 S
1811 1247.25 0 31.5 S
1795.25 1263 31.5 0 S
1813 1318.75 0 31.5 S
1797.25 1334.5 31.5 0 S
1815.5 1253.75 0 31.5 S
1799.75 1269.5 31.5 0 S
1817.5 1253.75 0 31.5 S
1801.75 1269.5 31.5 0 S
1820 1236.75 0 31.5 S
1804.25 1252.5 31.5 0 S
1822 1289.25 0 31.5 S
1806.25 1305 31.5 0 S
1824.5 1194.75 0 31.5 S
1808.75 1210.5 31.5 0 S
1826.5 1238.75 0 31.5 S
1810.75 1254.5 31.5 0 S
1829 1264.25 0 31.5 S
1813.25 1280 31.5 0 S
1831 1249.25 0 31.5 S
1815.25 1265 31.5 0 S
1833.5 1184.25 0 31.5 S
1817.75 1200 31.5 0 S
1835.5 1219.75 0 31.5 S
1819.75 1235.5 31.5 0 S
1838 1179.75 0 31.5 S
1822.25 1195.5 31.5 0 S
1840 1141.75 0 31.5 S
1824.25 1157.5 31.5 0 S
1842.5 1209.25 0 31.5 S
1826.75 1225 31.5 0 S
1844.5 1158.75 0 31.5 S
1828.75 1174.5 31.5 0 S
1847 1224.25 0 31.5 S
1831.25 1240 31.5 0 S
1849 1106.25 0 31.5 S
1833.25 1122 31.5 0 S
1851.5 1160.75 0 31.5 S
1835.75 1176.5 31.5 0 S
1853.5 1163.25 0 31.5 S
1837.75 1179 31.5 0 S
1856 1188.25 0 31.5 S
1840.25 1204 31.5 0 S
1858 1127.25 0 31.5 S
1842.25 1143 31.5 0 S
1860.5 1135.75 0 31.5 S
1844.75 1151.5 31.5 0 S
1862.5 1110.25 0 31.5 S
1846.75 1126 31.5 0 S
1865 1104.25 0 31.5 S
1849.25 1120 31.5 0 S
1867.5 1091.25 0 31.5 S
1851.75 1107 31.5 0 S
1869.5 1051.25 0 31.5 S
1853.75 1067 31.5 0 S
1872 1127.25 0 31.5 S
1856.25 1143 31.5 0 S
1874 1061.75 0 31.5 S
1858.25 1077.5 31.5 0 S
1876.5 1055.75 0 31.5 S
1860.75 1071.5 31.5 0 S
1878.5 1061.75 0 31.5 S
1862.75 1077.5 31.5 0 S
1881 1089.25 0 31.5 S
1865.25 1105 31.5 0 S
1883 1045.25 0 31.5 S
1867.25 1061 31.5 0 S
1885.5 1057.75 0 31.5 S
1869.75 1073.5 31.5 0 S
1887.5 1028.25 0 31.5 S
1871.75 1044 31.5 0 S
1890 1049.25 0 31.5 S
1874.25 1065 31.5 0 S
1892 1045.25 0 31.5 S
1876.25 1061 31.5 0 S
1894.5 1026.25 0 31.5 S
1878.75 1042 31.5 0 S
1896.5 1000.75 0 31.5 S
1880.75 1016.5 31.5 0 S
1899 1036.75 0 31.5 S
1883.25 1052.5 31.5 0 S
1901 998.75 0 31.5 S
1885.25 1014.5 31.5 0 S
1903.5 1057.75 0 31.5 S
1887.75 1073.5 31.5 0 S
1905.5 1019.75 0 31.5 S
1889.75 1035.5 31.5 0 S
1908 1026.25 0 31.5 S
1892.25 1042 31.5 0 S
1910 935.75 0 31.5 S
1894.25 951.5 31.5 0 S
1912.5 965.25 0 31.5 S
1896.75 981 31.5 0 S
1914.5 933.25 0 31.5 S
1898.75 949 31.5 0 S
1917 950.25 0 31.5 S
1901.25 966 31.5 0 S
1919 954.25 0 31.5 S
1903.25 970 31.5 0 S
1921.5 920.75 0 31.5 S
1905.75 936.5 31.5 0 S
1924 922.75 0 31.5 S
1908.25 938.5 31.5 0 S
1926 918.75 0 31.5 S
1910.25 934.5 31.5 0 S
1928.5 891.25 0 31.5 S
1912.75 907 31.5 0 S
1930.5 924.75 0 31.5 S
1914.75 940.5 31.5 0 S
1933 830.25 0 31.5 S
1917.25 846 31.5 0 S
1935 918.75 0 31.5 S
1919.25 934.5 31.5 0 S
1937.5 868.25 0 31.5 S
1921.75 884 31.5 0 S
1939.5 870.25 0 31.5 S
1923.75 886 31.5 0 S
1942 941.75 0 31.5 S
1926.25 957.5 31.5 0 S
1944 823.75 0 31.5 S
1928.25 839.5 31.5 0 S
1946.5 861.75 0 31.5 S
1930.75 877.5 31.5 0 S
1948.5 880.75 0 31.5 S
1932.75 896.5 31.5 0 S
1951 813.25 0 31.5 S
1935.25 829 31.5 0 S
1953 828.25 0 31.5 S
1937.25 844 31.5 0 S
1955.5 851.25 0 31.5 S
1939.75 867 31.5 0 S
1957.5 870.25 0 31.5 S
1941.75 886 31.5 0 S
1960 874.25 0 31.5 S
1944.25 890 31.5 0 S
1962 804.75 0 31.5 S
1946.25 820.5 31.5 0 S
1964.5 821.75 0 31.5 S
1948.75 837.5 31.5 0 S
1966.5 821.75 0 31.5 S
1950.75 837.5 31.5 0 S
1969 815.25 0 31.5 S
1953.25 831 31.5 0 S
1971 766.75 0 31.5 S
1955.25 782.5 31.5 0 S
1973.5 796.25 0 31.5 S
1957.75 812 31.5 0 S
1975.5 798.75 0 31.5 S
1959.75 814.5 31.5 0 S
1978 800.75 0 31.5 S
1962.25 816.5 31.5 0 S
1980.5 769.25 0 31.5 S
1964.75 785 31.5 0 S
1982.5 743.75 0 31.5 S
1966.75 759.5 31.5 0 S
1985 777.75 0 31.5 S
1969.25 793.5 31.5 0 S
1987 798.75 0 31.5 S
1971.25 814.5 31.5 0 S
1989.5 798.75 0 31.5 S
1973.75 814.5 31.5 0 S
1991.5 748.25 0 31.5 S
1975.75 764 31.5 0 S
1994 739.75 0 31.5 S
1978.25 755.5 31.5 0 S
1996 756.25 0 31.5 S
1980.25 772 31.5 0 S
1998.5 754.25 0 31.5 S
1982.75 770 31.5 0 S
2000.5 745.75 0 31.5 S
1984.75 761.5 31.5 0 S
2003 764.75 0 31.5 S
1987.25 780.5 31.5 0 S
2005 750.25 0 31.5 S
1989.25 766 31.5 0 S
2007.5 748.25 0 31.5 S
1991.75 764 31.5 0 S
2009.5 731.25 0 31.5 S
1993.75 747 31.5 0 S
2012 722.75 0 31.5 S
1996.25 738.5 31.5 0 S
2014 701.75 0 31.5 S
1998.25 717.5 31.5 0 S
2016.5 735.25 0 31.5 S
2000.75 751 31.5 0 S
2018.5 745.75 0 31.5 S
2002.75 761.5 31.5 0 S
2021 722.75 0 31.5 S
2005.25 738.5 31.5 0 S
2023 716.25 0 31.5 S
2007.25 732 31.5 0 S
2025.5 693.25 0 31.5 S
2009.75 709 31.5 0 S
2027.5 686.75 0 31.5 S
2011.75 702.5 31.5 0 S
2030 697.25 0 31.5 S
2014.25 713 31.5 0 S
2032 712.25 0 31.5 S
2016.25 728 31.5 0 S
2034.5 705.75 0 31.5 S
2018.75 721.5 31.5 0 S
2037 689.25 0 31.5 S
2021.25 705 31.5 0 S
2039 705.75 0 31.5 S
2023.25 721.5 31.5 0 S
2041.5 697.25 0 31.5 S
2025.75 713 31.5 0 S
2043.5 689.25 0 31.5 S
2027.75 705 31.5 0 S
2046 691.25 0 31.5 S
2030.25 707 31.5 0 S
2048 676.25 0 31.5 S
2032.25 692 31.5 0 S
2050.5 674.25 0 31.5 S
2034.75 690 31.5 0 S
2052.5 674.25 0 31.5 S
2036.75 690 31.5 0 S
2055 693.25 0 31.5 S
2039.25 709 31.5 0 S
2057 680.75 0 31.5 S
2041.25 696.5 31.5 0 S
2059.5 657.25 0 31.5 S
2043.75 673 31.5 0 S
2061.5 678.75 0 31.5 S
2045.75 694.5 31.5 0 S
2064 680.75 0 31.5 S
2048.25 696.5 31.5 0 S
2066 661.75 0 31.5 S
2050.25 677.5 31.5 0 S
2068.5 653.25 0 31.5 S
2052.75 669 31.5 0 S
2070.5 651.25 0 31.5 S
2054.75 667 31.5 0 S
2073 634.25 0 31.5 S
2057.25 650 31.5 0 S
2075 663.75 0 31.5 S
2059.25 679.5 31.5 0 S
2077.5 642.75 0 31.5 S
2061.75 658.5 31.5 0 S
2079.5 638.25 0 31.5 S
2063.75 654 31.5 0 S
2082 661.75 0 31.5 S
2066.25 677.5 31.5 0 S
2084 655.25 0 31.5 S
2068.25 671 31.5 0 S
2086.5 651.25 0 31.5 S
2070.75 667 31.5 0 S
2088.5 649.25 0 31.5 S
2072.75 665 31.5 0 S
2091 653.25 0 31.5 S
2075.25 669 31.5 0 S
2093.5 642.75 0 31.5 S
2077.75 658.5 31.5 0 S
2095.5 630.25 0 31.5 S
2079.75 646 31.5 0 S
2098 638.25 0 31.5 S
2082.25 654 31.5 0 S
2100 649.25 0 31.5 S
2084.25 665 31.5 0 S
2102.5 642.75 0 31.5 S
2086.75 658.5 31.5 0 S
2104.5 644.75 0 31.5 S
2088.75 660.5 31.5 0 S
2107 640.75 0 31.5 S
2091.25 656.5 31.5 0 S
2109 655.25 0 31.5 S
2093.25 671 31.5 0 S
2111.5 632.25 0 31.5 S
2095.75 648 31.5 0 S
2113.5 619.75 0 31.5 S
2097.75 635.5 31.5 0 S
2116 632.25 0 31.5 S
2100.25 648 31.5 0 S
2118 621.75 0 31.5 S
2102.25 637.5 31.5 0 S
2120.5 646.75 0 31.5 S
2104.75 662.5 31.5 0 S
2122.5 627.75 0 31.5 S
2106.75 643.5 31.5 0 S
2125 634.25 0 31.5 S
2109.25 650 31.5 0 S
2127 634.25 0 31.5 S
2111.25 650 31.5 0 S
2129.5 619.75 0 31.5 S
2113.75 635.5 31.5 0 S
2131.5 630.25 0 31.5 S
2115.75 646 31.5 0 S
2134 617.25 0 31.5 S
2118.25 633 31.5 0 S
2136 625.75 0 31.5 S
2120.25 641.5 31.5 0 S
2138.5 623.75 0 31.5 S
2122.75 639.5 31.5 0 S
2140.5 611.25 0 31.5 S
2124.75 627 31.5 0 S
2143 630.25 0 31.5 S
2127.25 646 31.5 0 S
2145 613.25 0 31.5 S
2129.25 629 31.5 0 S
2147.5 619.75 0 31.5 S
2131.75 635.5 31.5 0 S
2150 627.75 0 31.5 S
2134.25 643.5 31.5 0 S
2152 598.25 0 31.5 S
2136.25 614 31.5 0 S
2154.5 606.75 0 31.5 S
2138.75 622.5 31.5 0 S
2156.5 615.25 0 31.5 S
2140.75 631 31.5 0 S
2159 619.75 0 31.5 S
2143.25 635.5 31.5 0 S
2161 608.75 0 31.5 S
2145.25 624.5 31.5 0 S
2163.5 608.75 0 31.5 S
2147.75 624.5 31.5 0 S
2165.5 613.25 0 31.5 S
2149.75 629 31.5 0 S
2168 611.25 0 31.5 S
2152.25 627 31.5 0 S
2170 619.75 0 31.5 S
2154.25 635.5 31.5 0 S
2172.5 602.75 0 31.5 S
2156.75 618.5 31.5 0 S
2174.5 604.75 0 31.5 S
2158.75 620.5 31.5 0 S
2177 623.75 0 31.5 S
2161.25 639.5 31.5 0 S
2179 600.75 0 31.5 S
2163.25 616.5 31.5 0 S
2181.5 613.25 0 31.5 S
2165.75 629 31.5 0 S
2183.5 613.25 0 31.5 S
2167.75 629 31.5 0 S
2186 611.25 0 31.5 S
2170.25 627 31.5 0 S
2188 611.25 0 31.5 S
2172.25 627 31.5 0 S
2190.5 602.75 0 31.5 S
2174.75 618.5 31.5 0 S
2192.5 602.75 0 31.5 S
2176.75 618.5 31.5 0 S
2195 604.75 0 31.5 S
2179.25 620.5 31.5 0 S
2197 602.75 0 31.5 S
2181.25 618.5 31.5 0 S
2199.5 606.75 0 31.5 S
2183.75 622.5 31.5 0 S
2201.5 600.75 0 31.5 S
2185.75 616.5 31.5 0 S
2204 611.25 0 31.5 S
2188.25 627 31.5 0 S
2206.5 600.75 0 31.5 S
2190.75 616.5 31.5 0 S
2208.5 598.25 0 31.5 S
2192.75 614 31.5 0 S
2211 602.75 0 31.5 S
2195.25 618.5 31.5 0 S
2213 598.25 0 31.5 S
2197.25 614 31.5 0 S
2215.5 598.25 0 31.5 S
2199.75 614 31.5 0 S
2217.5 600.75 0 31.5 S
2201.75 616.5 31.5 0 S
2220 602.75 0 31.5 S
2204.25 618.5 31.5 0 S
2222 606.75 0 31.5 S
2206.25 622.5 31.5 0 S
2224.5 598.25 0 31.5 S
2208.75 614 31.5 0 S
2226.5 602.75 0 31.5 S
2210.75 618.5 31.5 0 S
2229 596.25 0 31.5 S
2213.25 612 31.5 0 S
2231 598.25 0 31.5 S
2215.25 614 31.5 0 S
2233.5 600.75 0 31.5 S
2217.75 616.5 31.5 0 S
2235.5 606.75 0 31.5 S
2219.75 622.5 31.5 0 S
2242.5 598.25 0 31.5 S
2226.75 614 31.5 0 S
2244.5 596.25 0 31.5 S
2228.75 612 31.5 0 S
2247 600.75 0 31.5 S
2231.25 616.5 31.5 0 S
2249 598.25 0 31.5 S
2233.25 614 31.5 0 S
2251.5 598.25 0 31.5 S
2235.75 614 31.5 0 S
2253.5 598.25 0 31.5 S
2237.75 614 31.5 0 S
2256 596.25 0 31.5 S
2240.25 612 31.5 0 S
2258 602.75 0 31.5 S
2242.25 618.5 31.5 0 S
2260.5 598.25 0 31.5 S
2244.75 614 31.5 0 S
2263 596.25 0 31.5 S
2247.25 612 31.5 0 S
2265 596.25 0 31.5 S
2249.25 612 31.5 0 S
2267.5 604.75 0 31.5 S
2251.75 620.5 31.5 0 S
2272 596.25 0 31.5 S
2256.25 612 31.5 0 S
2274 596.25 0 31.5 S
2258.25 612 31.5 0 S
2278.5 596.25 0 31.5 S
2262.75 612 31.5 0 S
2283 600.75 0 31.5 S
2267.25 616.5 31.5 0 S
2294.5 600.75 0 31.5 S
2278.75 616.5 31.5 0 S
2301 596.25 0 31.5 S
2285.25 612 31.5 0 S
2303.5 596.25 0 31.5 S
2287.75 612 31.5 0 S
2308 596.25 0 31.5 S
2292.25 612 31.5 0 S
2312.5 596.25 0 31.5 S
2296.75 612 31.5 0 S
2317 596.25 0 31.5 S
2301.25 612 31.5 0 S
2319.5 598.25 0 31.5 S
2303.75 614 31.5 0 S
2321.5 596.25 0 31.5 S
2305.75 612 31.5 0 S
2328.5 596.25 0 31.5 S
2312.75 612 31.5 0 S
2330.5 596.25 0 31.5 S
2314.75 612 31.5 0 S
2335 598.25 0 31.5 S
2319.25 614 31.5 0 S
2339.5 598.25 0 31.5 S
2323.75 614 31.5 0 S
2346.5 596.25 0 31.5 S
2330.75 612 31.5 0 S
2362 596.25 0 31.5 S
2346.25 612 31.5 0 S
2369 596.25 0 31.5 S
2353.25 612 31.5 0 S
2380.5 596.25 0 31.5 S
2364.75 612 31.5 0 S
2394 596.25 0 31.5 S
2378.25 612 31.5 0 S
2437 596.25 0 31.5 S
2421.25 612 31.5 0 S
5 w
791.5 610 1808 1264 re
S
cleartomark end end pagesave restore
 showpage
%%PageTrailer
%%Trailer
%%Pages: 1
