%!PS-Adobe-3.0 EPSF-3.0
%%BoundingBox: 67 53 265 190
%%HiResBoundingBox: 67.400000 53.600000 265.000000 189.500000
%.....................................
%%Creator: GPL Ghostscript 871 (epswrite)
%%CreationDate: 2012/01/28 17:04:46
%%DocumentData: Clean7Bit
%%LanguageLevel: 2
%%EndComments
%%BeginProlog
% This copyright applies to everything between here and the %%EndProlog:
% Copyright (C) 2010 Artifex Software, Inc.  All rights reserved.
%%BeginResource: procset GS_epswrite_2_0_1001 1.001 0
/GS_epswrite_2_0_1001 80 dict dup begin
/PageSize 2 array def/setpagesize{ PageSize aload pop 3 index eq exch
4 index eq and{ pop pop pop}{ PageSize dup  1
5 -1 roll put 0 4 -1 roll put dup null eq {false} {dup where} ifelse{ exch get exec}
{ pop/setpagedevice where
{ pop 1 dict dup /PageSize PageSize put setpagedevice}
{ /setpage where{ pop PageSize aload pop pageparams 3 {exch pop} repeat
setpage}if}ifelse}ifelse}ifelse} bind def
/!{bind def}bind def/#{load def}!/N/counttomark #
/rG{3{3 -1 roll 255 div}repeat setrgbcolor}!/G{255 div setgray}!/K{0 G}!
/r6{dup 3 -1 roll rG}!/r5{dup 3 1 roll rG}!/r3{dup rG}!
/w/setlinewidth #/J/setlinecap #
/j/setlinejoin #/M/setmiterlimit #/d/setdash #/i/setflat #
/m/moveto #/l/lineto #/c/rcurveto #
/p{N 2 idiv{N -2 roll rlineto}repeat}!
/P{N 0 gt{N -2 roll moveto p}if}!
/h{p closepath}!/H{P closepath}!
/lx{0 rlineto}!/ly{0 exch rlineto}!/v{0 0 6 2 roll c}!/y{2 copy c}!
/re{4 -2 roll m exch dup lx exch ly neg lx h}!
/^{3 index neg 3 index neg}!
/f{P fill}!/f*{P eofill}!/s{H stroke}!/S{P stroke}!
/q/gsave #/Q/grestore #/rf{re fill}!
/Y{P clip newpath}!/Y*{P eoclip newpath}!/rY{re Y}!
/|={pop exch 4 1 roll 1 array astore cvx 3 array astore cvx exch 1 index def exec}!
/|{exch string readstring |=}!
/+{dup type/nametype eq{2 index 7 add -3 bitshift 2 index mul}if}!
/@/currentfile #/${+ @ |}!
/B{{2 copy string{readstring pop}aload pop 4 array astore cvx
3 1 roll}repeat pop pop true}!
/Ix{[1 0 0 1 11 -2 roll exch neg exch neg]exch}!
/,{true exch Ix imagemask}!/If{false exch Ix imagemask}!/I{exch Ix image}!
/Ic{exch Ix false 3 colorimage}!
/F{/Columns counttomark 3 add -2 roll/Rows exch/K -1/BlackIs1 true>>
/CCITTFaxDecode filter}!/FX{<</EndOfBlock false F}!
/X{/ASCII85Decode filter}!/@X{@ X}!/&2{2 index 2 index}!
/@F{@ &2<<F}!/@C{@X &2 FX}!
/$X{+ @X |}!/&4{4 index 4 index}!/$F{+ @ &4<<F |}!/$C{+ @X &4 FX |}!
/IC{3 1 roll 10 dict begin 1{/ImageType/Interpolate/Decode/DataSource
/ImageMatrix/BitsPerComponent/Height/Width}{exch def}forall
currentdict end image}!
/~{@ read {pop} if}!
end def
%%EndResource
/pagesave null def
%%EndProlog
%%Page: 1 1
%%BeginPageSetup
GS_epswrite_2_0_1001 begin
/pagesave save store 197 dict begin
0.1 0.1 scale
%%EndPageSetup
gsave mark
Q q
0 0 250000 250000 re
Y
5 w
K
824.5 610 31.5 0 P
2599.5 610 -31.5 0 S
766 592 14 39 /3U
$X
!.4co!.4co!.4co!.4co!.4co!.4co!.4co!.4co!.4co!.4co!.4co!.4co!.4co!.4coJ,Ffo
J,CDd!W2rq!.4c/!'C6D!#t~>
,
824.5 737 15.5 0 P
2599.5 737 -15.5 0 P
824.5 811 15.5 0 P
2599.5 811 -15.5 0 P
824.5 863.5 15.5 0 P
2599.5 863.5 -15.5 0 P
824.5 904.5 15.5 0 P
2599.5 904.5 -15.5 0 P
824.5 938 15.5 0 P
2599.5 938 -15.5 0 P
824.5 966 15.5 0 P
2599.5 966 -15.5 0 P
824.5 990.5 15.5 0 P
2599.5 990.5 -15.5 0 P
824.5 1012 15.5 0 P
2599.5 1012 -15.5 0 P
824.5 1031.5 31.5 0 P
2599.5 1031.5 -31.5 0 S
735 1013 3U ,
758 1012 31 40 /6U
$C
3XZ3SFQf&P:$Ln$qG%"iUu24Ps8W-![[7$kBn'o8.qrM$$n,OL~>
,
824.5 1158 15.5 0 P
2599.5 1158 -15.5 0 P
824.5 1232.5 15.5 0 P
2599.5 1232.5 -15.5 0 P
824.5 1285 15.5 0 P
2599.5 1285 -15.5 0 P
824.5 1326 15.5 0 P
2599.5 1326 -15.5 0 P
824.5 1359 15.5 0 P
2599.5 1359 -15.5 0 P
824.5 1387.5 15.5 0 P
2599.5 1387.5 -15.5 0 P
824.5 1412 15.5 0 P
2599.5 1412 -15.5 0 P
824.5 1433.5 15.5 0 P
2599.5 1433.5 -15.5 0 P
824.5 1452.5 31.5 0 P
2599.5 1452.5 -31.5 0 S
705 1434 3U ,
727 1433 6U ,
758 1433 6U ,
824.5 1579.5 15.5 0 P
2599.5 1579.5 -15.5 0 P
824.5 1653.5 15.5 0 P
2599.5 1653.5 -15.5 0 P
824.5 1706.5 15.5 0 P
2599.5 1706.5 -15.5 0 P
824.5 1747 15.5 0 P
2599.5 1747 -15.5 0 P
824.5 1780.5 15.5 0 P
2599.5 1780.5 -15.5 0 P
824.5 1808.5 15.5 0 P
2599.5 1808.5 -15.5 0 P
824.5 1833 15.5 0 P
2599.5 1833 -15.5 0 P
824.5 1854.5 15.5 0 P
2599.5 1854.5 -15.5 0 P
824.5 1874 31.5 0 P
2599.5 1874 -31.5 0 S
674 1856 3U ,
697 1855 6U ,
727 1855 6U ,
758 1855 6U ,
824.5 610 0 31.5 P
824.5 1874 0 -31.5 S
766 550 19 4 /3Y
$C
4:1c~>
,
785 536 31 40 /6Y
$C
+c-IE-UH-%]HHj9mn3?S+4dJ!:8!tX_ij&7mr!CMs8TO>X)"r)Nl&1.$3~>
,
815 536 6U ,
846 536 6U ,
1046.5 610 0 31.5 P
1046.5 1874 0 -31.5 S
988 550 3Y ,
1007 537 31 39 /4C
$C
3#Q)FQZ)<hYjLDe%c)mK3,[M1%Goq7Gi/Q$<pOO</24L^e1dSM~>
,
1037 536 6U ,
1068 536 6U ,
1268.5 610 0 31.5 P
1268.5 1874 0 -31.5 S
1210 550 3Y ,
1237 537 3U ,
1259 536 6U ,
1290 536 6U ,
1490 610 0 31.5 P
1490 1874 0 -31.5 S
1479 536 6U ,
1712 610 0 31.5 P
1712 1874 0 -31.5 S
1679 537 3U ,
1701 536 6U ,
1732 536 6U ,
1934 610 0 31.5 P
1934 1874 0 -31.5 S
1893 537 4C ,
1923 536 6U ,
1954 536 6U ,
2156 610 0 31.5 P
2156 1874 0 -31.5 S
2115 536 6Y ,
2145 536 6U ,
2176 536 6U ,
2377.5 610 0 31.5 P
2377.5 1874 0 -31.5 S
2336 537 32 39 /7C
$C
--uVks3:gUo#N31g])3$g])3$hqr@]hqqqWrU55\~>
,
2367 536 6U ,
2397 536 6U ,
2599.5 610 0 31.5 P
2599.5 1874 0 -31.5 S
2558 536 31 40 /4G
$C
3XZ'1+R.8q]a!^bS#-.n5Q8&QCVJM)@4YG]lXXu40O0&+qu4ZMJ+s~>
,
2589 536 6U ,
2619 536 6U ,
824.5 610 1775 1264 re
S
2.5 w
991 721.25 0 31.5 S
975.25 737 31.5 0 S
997.5 594.25 0 31.5 S
981.75 610 31.5 0 S
1004 594.25 0 31.5 S
988.25 610 31.5 0 S
1011 594.25 0 31.5 S
995.25 610 31.5 0 S
1033 594.25 0 31.5 S
1017.25 610 31.5 0 S
1035.5 795.25 0 31.5 S
1019.75 811 31.5 0 S
1037.5 594.25 0 31.5 S
1021.75 610 31.5 0 S
1039.5 594.25 0 31.5 S
1023.75 610 31.5 0 S
1042 594.25 0 31.5 S
1026.25 610 31.5 0 S
1046.5 594.25 0 31.5 S
1030.75 610 31.5 0 S
1048.5 594.25 0 31.5 S
1032.75 610 31.5 0 S
1051 721.25 0 31.5 S
1035.25 737 31.5 0 S
1055.5 795.25 0 31.5 S
1039.75 811 31.5 0 S
1057.5 594.25 0 31.5 S
1041.75 610 31.5 0 S
1059.5 721.25 0 31.5 S
1043.75 737 31.5 0 S
1062 721.25 0 31.5 S
1046.25 737 31.5 0 S
1064 847.75 0 31.5 S
1048.25 863.5 31.5 0 S
1066.5 721.25 0 31.5 S
1050.75 737 31.5 0 S
1068.5 594.25 0 31.5 S
1052.75 610 31.5 0 S
1071 795.25 0 31.5 S
1055.25 811 31.5 0 S
1073 594.25 0 31.5 S
1057.25 610 31.5 0 S
1075 594.25 0 31.5 S
1059.25 610 31.5 0 S
1077.5 721.25 0 31.5 S
1061.75 737 31.5 0 S
1079.5 721.25 0 31.5 S
1063.75 737 31.5 0 S
1084 594.25 0 31.5 S
1068.25 610 31.5 0 S
1086.5 594.25 0 31.5 S
1070.75 610 31.5 0 S
1088.5 594.25 0 31.5 S
1072.75 610 31.5 0 S
1091 795.25 0 31.5 S
1075.25 811 31.5 0 S
1093 888.75 0 31.5 S
1077.25 904.5 31.5 0 S
1095 847.75 0 31.5 S
1079.25 863.5 31.5 0 S
1097.5 594.25 0 31.5 S
1081.75 610 31.5 0 S
1099.5 888.75 0 31.5 S
1083.75 904.5 31.5 0 S
1102 847.75 0 31.5 S
1086.25 863.5 31.5 0 S
1104 847.75 0 31.5 S
1088.25 863.5 31.5 0 S
1106.5 795.25 0 31.5 S
1090.75 811 31.5 0 S
1108.5 594.25 0 31.5 S
1092.75 610 31.5 0 S
1110.5 922.25 0 31.5 S
1094.75 938 31.5 0 S
1113 795.25 0 31.5 S
1097.25 811 31.5 0 S
1115 974.75 0 31.5 S
1099.25 990.5 31.5 0 S
1117.5 950.25 0 31.5 S
1101.75 966 31.5 0 S
1119.5 888.75 0 31.5 S
1103.75 904.5 31.5 0 S
1122 594.25 0 31.5 S
1106.25 610 31.5 0 S
1124 594.25 0 31.5 S
1108.25 610 31.5 0 S
1126.5 721.25 0 31.5 S
1110.75 737 31.5 0 S
1128.5 888.75 0 31.5 S
1112.75 904.5 31.5 0 S
1130.5 888.75 0 31.5 S
1114.75 904.5 31.5 0 S
1133 795.25 0 31.5 S
1117.25 811 31.5 0 S
1135 888.75 0 31.5 S
1119.25 904.5 31.5 0 S
1137.5 795.25 0 31.5 S
1121.75 811 31.5 0 S
1139.5 922.25 0 31.5 S
1123.75 938 31.5 0 S
1142 888.75 0 31.5 S
1126.25 904.5 31.5 0 S
1144 922.25 0 31.5 S
1128.25 938 31.5 0 S
1146 1033.25 0 31.5 S
1130.25 1049 31.5 0 S
1148.5 950.25 0 31.5 S
1132.75 966 31.5 0 S
1150.5 950.25 0 31.5 S
1134.75 966 31.5 0 S
1153 996.25 0 31.5 S
1137.25 1012 31.5 0 S
1155 795.25 0 31.5 S
1139.25 811 31.5 0 S
1157.5 795.25 0 31.5 S
1141.75 811 31.5 0 S
1159.5 950.25 0 31.5 S
1143.75 966 31.5 0 S
1162 1048.75 0 31.5 S
1146.25 1064.5 31.5 0 S
1164 922.25 0 31.5 S
1148.25 938 31.5 0 S
1166 1077.25 0 31.5 S
1150.25 1093 31.5 0 S
1168.5 1077.25 0 31.5 S
1152.75 1093 31.5 0 S
1170.5 974.75 0 31.5 S
1154.75 990.5 31.5 0 S
1173 974.75 0 31.5 S
1157.25 990.5 31.5 0 S
1175 1048.75 0 31.5 S
1159.25 1064.5 31.5 0 S
1177.5 1112.75 0 31.5 S
1161.75 1128.5 31.5 0 S
1179.5 1089.75 0 31.5 S
1163.75 1105.5 31.5 0 S
1181.5 1063.75 0 31.5 S
1165.75 1079.5 31.5 0 S
1184 974.75 0 31.5 S
1168.25 990.5 31.5 0 S
1186 1101.75 0 31.5 S
1170.25 1117.5 31.5 0 S
1188.5 1101.75 0 31.5 S
1172.75 1117.5 31.5 0 S
1190.5 1123.25 0 31.5 S
1174.75 1139 31.5 0 S
1193 1089.75 0 31.5 S
1177.25 1105.5 31.5 0 S
1195 888.75 0 31.5 S
1179.25 904.5 31.5 0 S
1197.5 1112.75 0 31.5 S
1181.75 1128.5 31.5 0 S
1199.5 1142.25 0 31.5 S
1183.75 1158 31.5 0 S
1201.5 1123.25 0 31.5 S
1185.75 1139 31.5 0 S
1204 1015.75 0 31.5 S
1188.25 1031.5 31.5 0 S
1206 1151.25 0 31.5 S
1190.25 1167 31.5 0 S
1208.5 1123.25 0 31.5 S
1192.75 1139 31.5 0 S
1210.5 1167.75 0 31.5 S
1194.75 1183.5 31.5 0 S
1213 1142.25 0 31.5 S
1197.25 1158 31.5 0 S
1215 1112.75 0 31.5 S
1199.25 1128.5 31.5 0 S
1217 1197.25 0 31.5 S
1201.25 1213 31.5 0 S
1219.5 1142.25 0 31.5 S
1203.75 1158 31.5 0 S
1221.5 1203.75 0 31.5 S
1205.75 1219.5 31.5 0 S
1224 1197.25 0 31.5 S
1208.25 1213 31.5 0 S
1226 1112.75 0 31.5 S
1210.25 1128.5 31.5 0 S
1228.5 1033.25 0 31.5 S
1212.75 1049 31.5 0 S
1230.5 1183.25 0 31.5 S
1214.75 1199 31.5 0 S
1233 1123.25 0 31.5 S
1217.25 1139 31.5 0 S
1235 1167.75 0 31.5 S
1219.25 1183.5 31.5 0 S
1237 1175.75 0 31.5 S
1221.25 1191.5 31.5 0 S
1239.5 1203.75 0 31.5 S
1223.75 1219.5 31.5 0 S
1241.5 1183.25 0 31.5 S
1225.75 1199 31.5 0 S
1244 1101.75 0 31.5 S
1228.25 1117.5 31.5 0 S
1246 1197.25 0 31.5 S
1230.25 1213 31.5 0 S
1248.5 1228.25 0 31.5 S
1232.75 1244 31.5 0 S
1250.5 1159.75 0 31.5 S
1234.75 1175.5 31.5 0 S
1252.5 1234.25 0 31.5 S
1236.75 1250 31.5 0 S
1255 1222.75 0 31.5 S
1239.25 1238.5 31.5 0 S
1257 1210.25 0 31.5 S
1241.25 1226 31.5 0 S
1259.5 1197.25 0 31.5 S
1243.75 1213 31.5 0 S
1261.5 1210.25 0 31.5 S
1245.75 1226 31.5 0 S
1264 1203.75 0 31.5 S
1248.25 1219.5 31.5 0 S
1266 1259.75 0 31.5 S
1250.25 1275.5 31.5 0 S
1268.5 1210.25 0 31.5 S
1252.75 1226 31.5 0 S
1270.5 1254.75 0 31.5 S
1254.75 1270.5 31.5 0 S
1272.5 1254.75 0 31.5 S
1256.75 1270.5 31.5 0 S
1275 1298.75 0 31.5 S
1259.25 1314.5 31.5 0 S
1277 1286.75 0 31.5 S
1261.25 1302.5 31.5 0 S
1279.5 1294.75 0 31.5 S
1263.75 1310.5 31.5 0 S
1281.5 1278.25 0 31.5 S
1265.75 1294 31.5 0 S
1284 1346.25 0 31.5 S
1268.25 1362 31.5 0 S
1286 1330.75 0 31.5 S
1270.25 1346.5 31.5 0 S
1288 1310.25 0 31.5 S
1272.25 1326 31.5 0 S
1290.5 1327.75 0 31.5 S
1274.75 1343.5 31.5 0 S
1292.5 1355.25 0 31.5 S
1276.75 1371 31.5 0 S
1295 1371.75 0 31.5 S
1279.25 1387.5 31.5 0 S
1297 1302.75 0 31.5 S
1281.25 1318.5 31.5 0 S
1299.5 1327.75 0 31.5 S
1283.75 1343.5 31.5 0 S
1301.5 1298.75 0 31.5 S
1285.75 1314.5 31.5 0 S
1304 1340.25 0 31.5 S
1288.25 1356 31.5 0 S
1306 1340.25 0 31.5 S
1290.25 1356 31.5 0 S
1308 1334.25 0 31.5 S
1292.25 1350 31.5 0 S
1310.5 1374.25 0 31.5 S
1294.75 1390 31.5 0 S
1312.5 1327.75 0 31.5 S
1296.75 1343.5 31.5 0 S
1315 1290.75 0 31.5 S
1299.25 1306.5 31.5 0 S
1317 1389.25 0 31.5 S
1301.25 1405 31.5 0 S
1319.5 1376.75 0 31.5 S
1303.75 1392.5 31.5 0 S
1321.5 1384.25 0 31.5 S
1305.75 1400 31.5 0 S
1323.5 1379.25 0 31.5 S
1307.75 1395 31.5 0 S
1326 1384.25 0 31.5 S
1310.25 1400 31.5 0 S
1328 1409.25 0 31.5 S
1312.25 1425 31.5 0 S
1330.5 1343.25 0 31.5 S
1314.75 1359 31.5 0 S
1332.5 1402.75 0 31.5 S
1316.75 1418.5 31.5 0 S
1335 1400.75 0 31.5 S
1319.25 1416.5 31.5 0 S
1337 1419.75 0 31.5 S
1321.25 1435.5 31.5 0 S
1339.5 1415.75 0 31.5 S
1323.75 1431.5 31.5 0 S
1341.5 1400.75 0 31.5 S
1325.75 1416.5 31.5 0 S
1343.5 1445.75 0 31.5 S
1327.75 1461.5 31.5 0 S
1346 1427.75 0 31.5 S
1330.25 1443.5 31.5 0 S
1348 1427.75 0 31.5 S
1332.25 1443.5 31.5 0 S
1350.5 1421.75 0 31.5 S
1334.75 1437.5 31.5 0 S
1352.5 1445.75 0 31.5 S
1336.75 1461.5 31.5 0 S
1355 1449.25 0 31.5 S
1339.25 1465 31.5 0 S
1357 1447.75 0 31.5 S
1341.25 1463.5 31.5 0 S
1359 1487.75 0 31.5 S
1343.25 1503.5 31.5 0 S
1361.5 1476.25 0 31.5 S
1345.75 1492 31.5 0 S
1363.5 1487.75 0 31.5 S
1347.75 1503.5 31.5 0 S
1366 1490.25 0 31.5 S
1350.25 1506 31.5 0 S
1368 1460.75 0 31.5 S
1352.25 1476.5 31.5 0 S
1370.5 1501.25 0 31.5 S
1354.75 1517 31.5 0 S
1372.5 1476.25 0 31.5 S
1356.75 1492 31.5 0 S
1375 1487.75 0 31.5 S
1359.25 1503.5 31.5 0 S
1377 1457.75 0 31.5 S
1361.25 1473.5 31.5 0 S
1379 1495.75 0 31.5 S
1363.25 1511.5 31.5 0 S
1381.5 1511.25 0 31.5 S
1365.75 1527 31.5 0 S
1383.5 1493.25 0 31.5 S
1367.75 1509 31.5 0 S
1386 1503.75 0 31.5 S
1370.25 1519.5 31.5 0 S
1388 1518.25 0 31.5 S
1372.25 1534 31.5 0 S
1390.5 1501.25 0 31.5 S
1374.75 1517 31.5 0 S
1392.5 1489.25 0 31.5 S
1376.75 1505 31.5 0 S
1394.5 1547.25 0 31.5 S
1378.75 1563 31.5 0 S
1397 1498.25 0 31.5 S
1381.25 1514 31.5 0 S
1399 1539.25 0 31.5 S
1383.25 1555 31.5 0 S
1401.5 1518.25 0 31.5 S
1385.75 1534 31.5 0 S
1403.5 1531.75 0 31.5 S
1387.75 1547.5 31.5 0 S
1406 1537.25 0 31.5 S
1390.25 1553 31.5 0 S
1408 1530.75 0 31.5 S
1392.25 1546.5 31.5 0 S
1410.5 1529.75 0 31.5 S
1394.75 1545.5 31.5 0 S
1412.5 1526.25 0 31.5 S
1396.75 1542 31.5 0 S
1414.5 1520.75 0 31.5 S
1398.75 1536.5 31.5 0 S
1417 1556.25 0 31.5 S
1401.25 1572 31.5 0 S
1419 1573.75 0 31.5 S
1403.25 1589.5 31.5 0 S
1421.5 1567.25 0 31.5 S
1405.75 1583 31.5 0 S
1423.5 1569.25 0 31.5 S
1407.75 1585 31.5 0 S
1426 1565.75 0 31.5 S
1410.25 1581.5 31.5 0 S
1428 1545.25 0 31.5 S
1412.25 1561 31.5 0 S
1430 1561.75 0 31.5 S
1414.25 1577.5 31.5 0 S
1432.5 1572.75 0 31.5 S
1416.75 1588.5 31.5 0 S
1434.5 1571.75 0 31.5 S
1418.75 1587.5 31.5 0 S
1437 1568.25 0 31.5 S
1421.25 1584 31.5 0 S
1439 1586.25 0 31.5 S
1423.25 1602 31.5 0 S
1441.5 1584.25 0 31.5 S
1425.75 1600 31.5 0 S
1443.5 1582.75 0 31.5 S
1427.75 1598.5 31.5 0 S
1446 1588.75 0 31.5 S
1430.25 1604.5 31.5 0 S
1448 1576.75 0 31.5 S
1432.25 1592.5 31.5 0 S
1450 1582.25 0 31.5 S
1434.25 1598 31.5 0 S
1452.5 1615.75 0 31.5 S
1436.75 1631.5 31.5 0 S
1454.5 1594.75 0 31.5 S
1438.75 1610.5 31.5 0 S
1457 1600.25 0 31.5 S
1441.25 1616 31.5 0 S
1459 1612.25 0 31.5 S
1443.25 1628 31.5 0 S
1461.5 1597.75 0 31.5 S
1445.75 1613.5 31.5 0 S
1463.5 1610.25 0 31.5 S
1447.75 1626 31.5 0 S
1465.5 1622.75 0 31.5 S
1449.75 1638.5 31.5 0 S
1468 1597.25 0 31.5 S
1452.25 1613 31.5 0 S
1470 1605.25 0 31.5 S
1454.25 1621 31.5 0 S
1472.5 1613.75 0 31.5 S
1456.75 1629.5 31.5 0 S
1474.5 1608.25 0 31.5 S
1458.75 1624 31.5 0 S
1477 1631.25 0 31.5 S
1461.25 1647 31.5 0 S
1479 1632.25 0 31.5 S
1463.25 1648 31.5 0 S
1481.5 1635.25 0 31.5 S
1465.75 1651 31.5 0 S
1483.5 1640.75 0 31.5 S
1467.75 1656.5 31.5 0 S
1485.5 1617.75 0 31.5 S
1469.75 1633.5 31.5 0 S
1488 1640.25 0 31.5 S
1472.25 1656 31.5 0 S
1492.5 1643.75 0 31.5 S
1476.75 1659.5 31.5 0 S
1494.5 1634.75 0 31.5 S
1478.75 1650.5 31.5 0 S
1497 1645.75 0 31.5 S
1481.25 1661.5 31.5 0 S
1499 1638.75 0 31.5 S
1483.25 1654.5 31.5 0 S
1501 1649.75 0 31.5 S
1485.25 1665.5 31.5 0 S
1503.5 1642.25 0 31.5 S
1487.75 1658 31.5 0 S
1505.5 1636.75 0 31.5 S
1489.75 1652.5 31.5 0 S
1508 1659.25 0 31.5 S
1492.25 1675 31.5 0 S
1510 1659.75 0 31.5 S
1494.25 1675.5 31.5 0 S
1512.5 1664.75 0 31.5 S
1496.75 1680.5 31.5 0 S
1514.5 1679.25 0 31.5 S
1498.75 1695 31.5 0 S
1517 1666.25 0 31.5 S
1501.25 1682 31.5 0 S
1519 1658.75 0 31.5 S
1503.25 1674.5 31.5 0 S
1521 1657.25 0 31.5 S
1505.25 1673 31.5 0 S
1523.5 1675.75 0 31.5 S
1507.75 1691.5 31.5 0 S
1525.5 1673.25 0 31.5 S
1509.75 1689 31.5 0 S
1528 1679.25 0 31.5 S
1512.25 1695 31.5 0 S
1530 1674.75 0 31.5 S
1514.25 1690.5 31.5 0 S
1532.5 1687.25 0 31.5 S
1516.75 1703 31.5 0 S
1534.5 1690.25 0 31.5 S
1518.75 1706 31.5 0 S
1536.5 1685.75 0 31.5 S
1520.75 1701.5 31.5 0 S
1539 1678.75 0 31.5 S
1523.25 1694.5 31.5 0 S
1541 1675.75 0 31.5 S
1525.25 1691.5 31.5 0 S
1543.5 1679.25 0 31.5 S
1527.75 1695 31.5 0 S
1545.5 1688.75 0 31.5 S
1529.75 1704.5 31.5 0 S
1548 1702.25 0 31.5 S
1532.25 1718 31.5 0 S
1550 1688.25 0 31.5 S
1534.25 1704 31.5 0 S
1552.5 1671.25 0 31.5 S
1536.75 1687 31.5 0 S
1554.5 1691.25 0 31.5 S
1538.75 1707 31.5 0 S
1556.5 1691.75 0 31.5 S
1540.75 1707.5 31.5 0 S
1559 1681.25 0 31.5 S
1543.25 1697 31.5 0 S
1561 1701.75 0 31.5 S
1545.25 1717.5 31.5 0 S
1563.5 1717.75 0 31.5 S
1547.75 1733.5 31.5 0 S
1565.5 1692.75 0 31.5 S
1549.75 1708.5 31.5 0 S
1568 1713.25 0 31.5 S
1552.25 1729 31.5 0 S
1570 1698.75 0 31.5 S
1554.25 1714.5 31.5 0 S
1572 1702.25 0 31.5 S
1556.25 1718 31.5 0 S
1574.5 1708.25 0 31.5 S
1558.75 1724 31.5 0 S
1576.5 1714.25 0 31.5 S
1560.75 1730 31.5 0 S
1579 1719.75 0 31.5 S
1563.25 1735.5 31.5 0 S
1581 1707.75 0 31.5 S
1565.25 1723.5 31.5 0 S
1583.5 1710.75 0 31.5 S
1567.75 1726.5 31.5 0 S
1585.5 1696.75 0 31.5 S
1569.75 1712.5 31.5 0 S
1588 1714.25 0 31.5 S
1572.25 1730 31.5 0 S
1590 1721.25 0 31.5 S
1574.25 1737 31.5 0 S
1592 1713.75 0 31.5 S
1576.25 1729.5 31.5 0 S
1594.5 1731.25 0 31.5 S
1578.75 1747 31.5 0 S
1596.5 1717.75 0 31.5 S
1580.75 1733.5 31.5 0 S
1599 1731.75 0 31.5 S
1583.25 1747.5 31.5 0 S
1601 1716.75 0 31.5 S
1585.25 1732.5 31.5 0 S
1603.5 1722.25 0 31.5 S
1587.75 1738 31.5 0 S
1605.5 1701.75 0 31.5 S
1589.75 1717.5 31.5 0 S
1607.5 1713.75 0 31.5 S
1591.75 1729.5 31.5 0 S
1610 1712.75 0 31.5 S
1594.25 1728.5 31.5 0 S
1612 1726.75 0 31.5 S
1596.25 1742.5 31.5 0 S
1614.5 1714.25 0 31.5 S
1598.75 1730 31.5 0 S
1616.5 1732.75 0 31.5 S
1600.75 1748.5 31.5 0 S
1619 1705.75 0 31.5 S
1603.25 1721.5 31.5 0 S
1621 1733.75 0 31.5 S
1605.25 1749.5 31.5 0 S
1623.5 1719.75 0 31.5 S
1607.75 1735.5 31.5 0 S
1625.5 1721.75 0 31.5 S
1609.75 1737.5 31.5 0 S
1627.5 1719.25 0 31.5 S
1611.75 1735 31.5 0 S
1630 1722.25 0 31.5 S
1614.25 1738 31.5 0 S
1632 1723.75 0 31.5 S
1616.25 1739.5 31.5 0 S
1634.5 1722.75 0 31.5 S
1618.75 1738.5 31.5 0 S
1636.5 1736.25 0 31.5 S
1620.75 1752 31.5 0 S
1639 1726.75 0 31.5 S
1623.25 1742.5 31.5 0 S
1641 1712.25 0 31.5 S
1625.25 1728 31.5 0 S
1643 1722.25 0 31.5 S
1627.25 1738 31.5 0 S
1645.5 1741.25 0 31.5 S
1629.75 1757 31.5 0 S
1647.5 1723.25 0 31.5 S
1631.75 1739 31.5 0 S
1650 1742.25 0 31.5 S
1634.25 1758 31.5 0 S
1652 1736.25 0 31.5 S
1636.25 1752 31.5 0 S
1654.5 1736.25 0 31.5 S
1638.75 1752 31.5 0 S
1656.5 1718.75 0 31.5 S
1640.75 1734.5 31.5 0 S
1659 1722.25 0 31.5 S
1643.25 1738 31.5 0 S
1661 1720.75 0 31.5 S
1645.25 1736.5 31.5 0 S
1663 1745.25 0 31.5 S
1647.25 1761 31.5 0 S
1665.5 1722.25 0 31.5 S
1649.75 1738 31.5 0 S
1667.5 1726.75 0 31.5 S
1651.75 1742.5 31.5 0 S
1670 1730.75 0 31.5 S
1654.25 1746.5 31.5 0 S
1672 1729.75 0 31.5 S
1656.25 1745.5 31.5 0 S
1674.5 1724.75 0 31.5 S
1658.75 1740.5 31.5 0 S
1676.5 1723.25 0 31.5 S
1660.75 1739 31.5 0 S
1678.5 1716.25 0 31.5 S
1662.75 1732 31.5 0 S
1681 1732.75 0 31.5 S
1665.25 1748.5 31.5 0 S
1683 1738.25 0 31.5 S
1667.25 1754 31.5 0 S
1685.5 1737.75 0 31.5 S
1669.75 1753.5 31.5 0 S
1687.5 1726.75 0 31.5 S
1671.75 1742.5 31.5 0 S
1690 1723.75 0 31.5 S
1674.25 1739.5 31.5 0 S
1692 1723.25 0 31.5 S
1676.25 1739 31.5 0 S
1694.5 1733.75 0 31.5 S
1678.75 1749.5 31.5 0 S
1696.5 1736.25 0 31.5 S
1680.75 1752 31.5 0 S
1698.5 1721.25 0 31.5 S
1682.75 1737 31.5 0 S
1701 1732.75 0 31.5 S
1685.25 1748.5 31.5 0 S
1703 1730.75 0 31.5 S
1687.25 1746.5 31.5 0 S
1705.5 1722.25 0 31.5 S
1689.75 1738 31.5 0 S
1707.5 1719.75 0 31.5 S
1691.75 1735.5 31.5 0 S
1710 1728.25 0 31.5 S
1694.25 1744 31.5 0 S
1712 1739.75 0 31.5 S
1696.25 1755.5 31.5 0 S
1714 1737.75 0 31.5 S
1698.25 1753.5 31.5 0 S
1716.5 1733.75 0 31.5 S
1700.75 1749.5 31.5 0 S
1718.5 1723.75 0 31.5 S
1702.75 1739.5 31.5 0 S
1721 1714.75 0 31.5 S
1705.25 1730.5 31.5 0 S
1723 1717.25 0 31.5 S
1707.25 1733 31.5 0 S
1725.5 1726.25 0 31.5 S
1709.75 1742 31.5 0 S
1727.5 1713.25 0 31.5 S
1711.75 1729 31.5 0 S
1730 1730.75 0 31.5 S
1714.25 1746.5 31.5 0 S
1732 1710.25 0 31.5 S
1716.25 1726 31.5 0 S
1734 1728.75 0 31.5 S
1718.25 1744.5 31.5 0 S
1736.5 1707.75 0 31.5 S
1720.75 1723.5 31.5 0 S
1738.5 1705.75 0 31.5 S
1722.75 1721.5 31.5 0 S
1741 1717.75 0 31.5 S
1725.25 1733.5 31.5 0 S
1743 1714.25 0 31.5 S
1727.25 1730 31.5 0 S
1745.5 1721.75 0 31.5 S
1729.75 1737.5 31.5 0 S
1747.5 1718.25 0 31.5 S
1731.75 1734 31.5 0 S
1749.5 1719.25 0 31.5 S
1733.75 1735 31.5 0 S
1752 1718.75 0 31.5 S
1736.25 1734.5 31.5 0 S
1754 1703.75 0 31.5 S
1738.25 1719.5 31.5 0 S
1756.5 1724.75 0 31.5 S
1740.75 1740.5 31.5 0 S
1758.5 1714.25 0 31.5 S
1742.75 1730 31.5 0 S
1761 1712.75 0 31.5 S
1745.25 1728.5 31.5 0 S
1763 1695.25 0 31.5 S
1747.25 1711 31.5 0 S
1765.5 1696.75 0 31.5 S
1749.75 1712.5 31.5 0 S
1767.5 1696.75 0 31.5 S
1751.75 1712.5 31.5 0 S
1769.5 1707.25 0 31.5 S
1753.75 1723 31.5 0 S
1772 1695.75 0 31.5 S
1756.25 1711.5 31.5 0 S
1774 1692.75 0 31.5 S
1758.25 1708.5 31.5 0 S
1776.5 1698.75 0 31.5 S
1760.75 1714.5 31.5 0 S
1778.5 1711.75 0 31.5 S
1762.75 1727.5 31.5 0 S
1781 1698.75 0 31.5 S
1765.25 1714.5 31.5 0 S
1783 1702.75 0 31.5 S
1767.25 1718.5 31.5 0 S
1785 1696.25 0 31.5 S
1769.25 1712 31.5 0 S
1787.5 1689.25 0 31.5 S
1771.75 1705 31.5 0 S
1789.5 1687.75 0 31.5 S
1773.75 1703.5 31.5 0 S
1792 1680.25 0 31.5 S
1776.25 1696 31.5 0 S
1794 1679.25 0 31.5 S
1778.25 1695 31.5 0 S
1796.5 1692.25 0 31.5 S
1780.75 1708 31.5 0 S
1798.5 1674.25 0 31.5 S
1782.75 1690 31.5 0 S
1801 1658.75 0 31.5 S
1785.25 1674.5 31.5 0 S
1803 1674.75 0 31.5 S
1787.25 1690.5 31.5 0 S
1805 1689.75 0 31.5 S
1789.25 1705.5 31.5 0 S
1807.5 1677.75 0 31.5 S
1791.75 1693.5 31.5 0 S
1809.5 1664.25 0 31.5 S
1793.75 1680 31.5 0 S
1812 1663.75 0 31.5 S
1796.25 1679.5 31.5 0 S
1814 1674.25 0 31.5 S
1798.25 1690 31.5 0 S
1816.5 1664.75 0 31.5 S
1800.75 1680.5 31.5 0 S
1818.5 1687.75 0 31.5 S
1802.75 1703.5 31.5 0 S
1820.5 1661.25 0 31.5 S
1804.75 1677 31.5 0 S
1823 1658.25 0 31.5 S
1807.25 1674 31.5 0 S
1825 1643.75 0 31.5 S
1809.25 1659.5 31.5 0 S
1827.5 1662.75 0 31.5 S
1811.75 1678.5 31.5 0 S
1829.5 1645.75 0 31.5 S
1813.75 1661.5 31.5 0 S
1832 1645.75 0 31.5 S
1816.25 1661.5 31.5 0 S
1834 1640.75 0 31.5 S
1818.25 1656.5 31.5 0 S
1836.5 1655.25 0 31.5 S
1820.75 1671 31.5 0 S
1838.5 1628.75 0 31.5 S
1822.75 1644.5 31.5 0 S
1840.5 1641.75 0 31.5 S
1824.75 1657.5 31.5 0 S
1843 1648.75 0 31.5 S
1827.25 1664.5 31.5 0 S
1845 1644.75 0 31.5 S
1829.25 1660.5 31.5 0 S
1847.5 1625.25 0 31.5 S
1831.75 1641 31.5 0 S
1849.5 1636.25 0 31.5 S
1833.75 1652 31.5 0 S
1852 1624.25 0 31.5 S
1836.25 1640 31.5 0 S
1854 1611.75 0 31.5 S
1838.25 1627.5 31.5 0 S
1856 1632.75 0 31.5 S
1840.25 1648.5 31.5 0 S
1858.5 1617.25 0 31.5 S
1842.75 1633 31.5 0 S
1860.5 1637.25 0 31.5 S
1844.75 1653 31.5 0 S
1863 1599.25 0 31.5 S
1847.25 1615 31.5 0 S
1865 1617.75 0 31.5 S
1849.25 1633.5 31.5 0 S
1867.5 1618.75 0 31.5 S
1851.75 1634.5 31.5 0 S
1869.5 1626.75 0 31.5 S
1853.75 1642.5 31.5 0 S
1872 1606.75 0 31.5 S
1856.25 1622.5 31.5 0 S
1874 1609.75 0 31.5 S
1858.25 1625.5 31.5 0 S
1876 1600.75 0 31.5 S
1860.25 1616.5 31.5 0 S
1878.5 1598.75 0 31.5 S
1862.75 1614.5 31.5 0 S
1880.5 1594.25 0 31.5 S
1864.75 1610 31.5 0 S
1883 1578.75 0 31.5 S
1867.25 1594.5 31.5 0 S
1885 1606.75 0 31.5 S
1869.25 1622.5 31.5 0 S
1887.5 1582.75 0 31.5 S
1871.75 1598.5 31.5 0 S
1889.5 1580.25 0 31.5 S
1873.75 1596 31.5 0 S
1891.5 1582.75 0 31.5 S
1875.75 1598.5 31.5 0 S
1894 1593.25 0 31.5 S
1878.25 1609 31.5 0 S
1896 1576.25 0 31.5 S
1880.25 1592 31.5 0 S
1898.5 1581.25 0 31.5 S
1882.75 1597 31.5 0 S
1900.5 1569.25 0 31.5 S
1884.75 1585 31.5 0 S
1903 1577.75 0 31.5 S
1887.25 1593.5 31.5 0 S
1905 1576.25 0 31.5 S
1889.25 1592 31.5 0 S
1907.5 1568.25 0 31.5 S
1891.75 1584 31.5 0 S
1909.5 1557.25 0 31.5 S
1893.75 1573 31.5 0 S
1911.5 1572.75 0 31.5 S
1895.75 1588.5 31.5 0 S
1914 1556.25 0 31.5 S
1898.25 1572 31.5 0 S
1916 1581.25 0 31.5 S
1900.25 1597 31.5 0 S
1918.5 1565.75 0 31.5 S
1902.75 1581.5 31.5 0 S
1920.5 1568.25 0 31.5 S
1904.75 1584 31.5 0 S
1923 1525.25 0 31.5 S
1907.25 1541 31.5 0 S
1925 1540.25 0 31.5 S
1909.25 1556 31.5 0 S
1927 1524.25 0 31.5 S
1911.25 1540 31.5 0 S
1929.5 1532.75 0 31.5 S
1913.75 1548.5 31.5 0 S
1931.5 1535.25 0 31.5 S
1915.75 1551 31.5 0 S
1934 1517.25 0 31.5 S
1918.25 1533 31.5 0 S
1936 1518.25 0 31.5 S
1920.25 1534 31.5 0 S
1938.5 1515.75 0 31.5 S
1922.75 1531.5 31.5 0 S
1940.5 1499.75 0 31.5 S
1924.75 1515.5 31.5 0 S
1943 1519.25 0 31.5 S
1927.25 1535 31.5 0 S
1945 1457.75 0 31.5 S
1929.25 1473.5 31.5 0 S
1947 1515.75 0 31.5 S
1931.25 1531.5 31.5 0 S
1949.5 1484.75 0 31.5 S
1933.75 1500.5 31.5 0 S
1951.5 1486.25 0 31.5 S
1935.75 1502 31.5 0 S
1954 1528.75 0 31.5 S
1938.25 1544.5 31.5 0 S
1956 1452.75 0 31.5 S
1940.25 1468.5 31.5 0 S
1958.5 1480.75 0 31.5 S
1942.75 1496.5 31.5 0 S
1960.5 1493.25 0 31.5 S
1944.75 1509 31.5 0 S
1962.5 1444.25 0 31.5 S
1946.75 1460 31.5 0 S
1965 1456.25 0 31.5 S
1949.25 1472 31.5 0 S
1967 1473.25 0 31.5 S
1951.25 1489 31.5 0 S
1969.5 1486.25 0 31.5 S
1953.75 1502 31.5 0 S
1971.5 1489.25 0 31.5 S
1955.75 1505 31.5 0 S
1974 1436.75 0 31.5 S
1958.25 1452.5 31.5 0 S
1976 1450.75 0 31.5 S
1960.25 1466.5 31.5 0 S
1978.5 1450.75 0 31.5 S
1962.75 1466.5 31.5 0 S
1980.5 1445.75 0 31.5 S
1964.75 1461.5 31.5 0 S
1982.5 1400.75 0 31.5 S
1966.75 1416.5 31.5 0 S
1985 1429.25 0 31.5 S
1969.25 1445 31.5 0 S
1987 1431.25 0 31.5 S
1971.25 1447 31.5 0 S
1989.5 1433.25 0 31.5 S
1973.75 1449 31.5 0 S
1991.5 1402.75 0 31.5 S
1975.75 1418.5 31.5 0 S
1994 1374.25 0 31.5 S
1978.25 1390 31.5 0 S
1996 1411.25 0 31.5 S
1980.25 1427 31.5 0 S
1998 1431.25 0 31.5 S
1982.25 1447 31.5 0 S
2000.5 1431.25 0 31.5 S
1984.75 1447 31.5 0 S
2002.5 1379.25 0 31.5 S
1986.75 1395 31.5 0 S
2005 1369.25 0 31.5 S
1989.25 1385 31.5 0 S
2007 1389.25 0 31.5 S
1991.25 1405 31.5 0 S
2009.5 1386.75 0 31.5 S
1993.75 1402.5 31.5 0 S
2011.5 1376.75 0 31.5 S
1995.75 1392.5 31.5 0 S
2014 1398.25 0 31.5 S
1998.25 1414 31.5 0 S
2016 1381.75 0 31.5 S
2000.25 1397.5 31.5 0 S
2018 1379.25 0 31.5 S
2002.25 1395 31.5 0 S
2020.5 1358.25 0 31.5 S
2004.75 1374 31.5 0 S
2022.5 1346.25 0 31.5 S
2006.75 1362 31.5 0 S
2025 1313.75 0 31.5 S
2009.25 1329.5 31.5 0 S
2027 1363.75 0 31.5 S
2011.25 1379.5 31.5 0 S
2029.5 1376.75 0 31.5 S
2013.75 1392.5 31.5 0 S
2031.5 1346.25 0 31.5 S
2015.75 1362 31.5 0 S
2033.5 1337.25 0 31.5 S
2017.75 1353 31.5 0 S
2036 1298.75 0 31.5 S
2020.25 1314.5 31.5 0 S
2038 1286.75 0 31.5 S
2022.25 1302.5 31.5 0 S
2040.5 1306.25 0 31.5 S
2024.75 1322 31.5 0 S
2042.5 1330.75 0 31.5 S
2026.75 1346.5 31.5 0 S
2045 1320.75 0 31.5 S
2029.25 1336.5 31.5 0 S
2047 1290.75 0 31.5 S
2031.25 1306.5 31.5 0 S
2049.5 1320.75 0 31.5 S
2033.75 1336.5 31.5 0 S
2051.5 1306.25 0 31.5 S
2035.75 1322 31.5 0 S
2053.5 1290.75 0 31.5 S
2037.75 1306.5 31.5 0 S
2056 1294.75 0 31.5 S
2040.25 1310.5 31.5 0 S
2058 1264.75 0 31.5 S
2042.25 1280.5 31.5 0 S
2060.5 1259.75 0 31.5 S
2044.75 1275.5 31.5 0 S
2062.5 1259.75 0 31.5 S
2046.75 1275.5 31.5 0 S
2065 1298.75 0 31.5 S
2049.25 1314.5 31.5 0 S
2067 1273.75 0 31.5 S
2051.25 1289.5 31.5 0 S
2069 1216.75 0 31.5 S
2053.25 1232.5 31.5 0 S
2071.5 1269.25 0 31.5 S
2055.75 1285 31.5 0 S
2073.5 1273.75 0 31.5 S
2057.75 1289.5 31.5 0 S
2076 1228.25 0 31.5 S
2060.25 1244 31.5 0 S
2078 1203.75 0 31.5 S
2062.25 1219.5 31.5 0 S
2080.5 1197.25 0 31.5 S
2064.75 1213 31.5 0 S
2082.5 1133.25 0 31.5 S
2066.75 1149 31.5 0 S
2085 1234.25 0 31.5 S
2069.25 1250 31.5 0 S
2087 1167.75 0 31.5 S
2071.25 1183.5 31.5 0 S
2089 1151.25 0 31.5 S
2073.25 1167 31.5 0 S
2091.5 1228.25 0 31.5 S
2075.75 1244 31.5 0 S
2093.5 1210.25 0 31.5 S
2077.75 1226 31.5 0 S
2096 1197.25 0 31.5 S
2080.25 1213 31.5 0 S
2098 1190.25 0 31.5 S
2082.25 1206 31.5 0 S
2100.5 1203.75 0 31.5 S
2084.75 1219.5 31.5 0 S
2102.5 1167.75 0 31.5 S
2086.75 1183.5 31.5 0 S
2104.5 1112.75 0 31.5 S
2088.75 1128.5 31.5 0 S
2107 1151.25 0 31.5 S
2091.25 1167 31.5 0 S
2109 1190.25 0 31.5 S
2093.25 1206 31.5 0 S
2111.5 1167.75 0 31.5 S
2095.75 1183.5 31.5 0 S
2113.5 1175.75 0 31.5 S
2097.75 1191.5 31.5 0 S
2116 1159.75 0 31.5 S
2100.25 1175.5 31.5 0 S
2118 1210.25 0 31.5 S
2102.25 1226 31.5 0 S
2120.5 1123.25 0 31.5 S
2104.75 1139 31.5 0 S
2122.5 1048.75 0 31.5 S
2106.75 1064.5 31.5 0 S
2124.5 1123.25 0 31.5 S
2108.75 1139 31.5 0 S
2127 1063.75 0 31.5 S
2111.25 1079.5 31.5 0 S
2129 1183.25 0 31.5 S
2113.25 1199 31.5 0 S
2131.5 1101.75 0 31.5 S
2115.75 1117.5 31.5 0 S
2133.5 1133.25 0 31.5 S
2117.75 1149 31.5 0 S
2136 1133.25 0 31.5 S
2120.25 1149 31.5 0 S
2138 1048.75 0 31.5 S
2122.25 1064.5 31.5 0 S
2140 1112.75 0 31.5 S
2124.25 1128.5 31.5 0 S
2142.5 1033.25 0 31.5 S
2126.75 1049 31.5 0 S
2144.5 1089.75 0 31.5 S
2128.75 1105.5 31.5 0 S
2147 1077.25 0 31.5 S
2131.25 1093 31.5 0 S
2149 974.75 0 31.5 S
2133.25 990.5 31.5 0 S
2151.5 1112.75 0 31.5 S
2135.75 1128.5 31.5 0 S
2153.5 996.25 0 31.5 S
2137.75 1012 31.5 0 S
2156 1048.75 0 31.5 S
2140.25 1064.5 31.5 0 S
2158 1101.75 0 31.5 S
2142.25 1117.5 31.5 0 S
2160 721.25 0 31.5 S
2144.25 737 31.5 0 S
2162.5 922.25 0 31.5 S
2146.75 938 31.5 0 S
2164.5 1015.75 0 31.5 S
2148.75 1031.5 31.5 0 S
2167 1048.75 0 31.5 S
2151.25 1064.5 31.5 0 S
2169 950.25 0 31.5 S
2153.25 966 31.5 0 S
2171.5 950.25 0 31.5 S
2155.75 966 31.5 0 S
2173.5 996.25 0 31.5 S
2157.75 1012 31.5 0 S
2175.5 974.75 0 31.5 S
2159.75 990.5 31.5 0 S
2178 1048.75 0 31.5 S
2162.25 1064.5 31.5 0 S
2180 847.75 0 31.5 S
2164.25 863.5 31.5 0 S
2182.5 888.75 0 31.5 S
2166.75 904.5 31.5 0 S
2184.5 1077.25 0 31.5 S
2168.75 1093 31.5 0 S
2187 795.25 0 31.5 S
2171.25 811 31.5 0 S
2189 996.25 0 31.5 S
2173.25 1012 31.5 0 S
2191.5 996.25 0 31.5 S
2175.75 1012 31.5 0 S
2193.5 974.75 0 31.5 S
2177.75 990.5 31.5 0 S
2195.5 974.75 0 31.5 S
2179.75 990.5 31.5 0 S
2198 847.75 0 31.5 S
2182.25 863.5 31.5 0 S
2200 847.75 0 31.5 S
2184.25 863.5 31.5 0 S
2202.5 888.75 0 31.5 S
2186.75 904.5 31.5 0 S
2204.5 847.75 0 31.5 S
2188.75 863.5 31.5 0 S
2207 922.25 0 31.5 S
2191.25 938 31.5 0 S
2209 795.25 0 31.5 S
2193.25 811 31.5 0 S
2211 974.75 0 31.5 S
2195.25 990.5 31.5 0 S
2213.5 795.25 0 31.5 S
2197.75 811 31.5 0 S
2215.5 721.25 0 31.5 S
2199.75 737 31.5 0 S
2218 847.75 0 31.5 S
2202.25 863.5 31.5 0 S
2220 721.25 0 31.5 S
2204.25 737 31.5 0 S
2222.5 721.25 0 31.5 S
2206.75 737 31.5 0 S
2224.5 795.25 0 31.5 S
2208.75 811 31.5 0 S
2227 847.75 0 31.5 S
2211.25 863.5 31.5 0 S
2229 922.25 0 31.5 S
2213.25 938 31.5 0 S
2231 721.25 0 31.5 S
2215.25 737 31.5 0 S
2233.5 847.75 0 31.5 S
2217.75 863.5 31.5 0 S
2235.5 594.25 0 31.5 S
2219.75 610 31.5 0 S
2238 721.25 0 31.5 S
2222.25 737 31.5 0 S
2240 795.25 0 31.5 S
2224.25 811 31.5 0 S
2242.5 922.25 0 31.5 S
2226.75 938 31.5 0 S
2249 721.25 0 31.5 S
2233.25 737 31.5 0 S
2251 594.25 0 31.5 S
2235.25 610 31.5 0 S
2253.5 795.25 0 31.5 S
2237.75 811 31.5 0 S
2255.5 721.25 0 31.5 S
2239.75 737 31.5 0 S
2258 721.25 0 31.5 S
2242.25 737 31.5 0 S
2260 721.25 0 31.5 S
2244.25 737 31.5 0 S
2262.5 594.25 0 31.5 S
2246.75 610 31.5 0 S
2264.5 847.75 0 31.5 S
2248.75 863.5 31.5 0 S
2266.5 721.25 0 31.5 S
2250.75 737 31.5 0 S
2269 594.25 0 31.5 S
2253.25 610 31.5 0 S
2271 594.25 0 31.5 S
2255.25 610 31.5 0 S
2273.5 888.75 0 31.5 S
2257.75 904.5 31.5 0 S
2278 594.25 0 31.5 S
2262.25 610 31.5 0 S
2280 594.25 0 31.5 S
2264.25 610 31.5 0 S
2284.5 594.25 0 31.5 S
2268.75 610 31.5 0 S
2289 795.25 0 31.5 S
2273.25 811 31.5 0 S
2300 795.25 0 31.5 S
2284.25 811 31.5 0 S
2306.5 594.25 0 31.5 S
2290.75 610 31.5 0 S
2309 594.25 0 31.5 S
2293.25 610 31.5 0 S
2313.5 594.25 0 31.5 S
2297.75 610 31.5 0 S
2317.5 594.25 0 31.5 S
2301.75 610 31.5 0 S
2322 594.25 0 31.5 S
2306.25 610 31.5 0 S
2324.5 721.25 0 31.5 S
2308.75 737 31.5 0 S
2326.5 594.25 0 31.5 S
2310.75 610 31.5 0 S
2333.5 594.25 0 31.5 S
2317.75 610 31.5 0 S
2335.5 594.25 0 31.5 S
2319.75 610 31.5 0 S
2340 721.25 0 31.5 S
2324.25 737 31.5 0 S
2344.5 721.25 0 31.5 S
2328.75 737 31.5 0 S
2351 594.25 0 31.5 S
2335.25 610 31.5 0 S
2366.5 594.25 0 31.5 S
2350.75 610 31.5 0 S
2373 594.25 0 31.5 S
2357.25 610 31.5 0 S
2384.5 594.25 0 31.5 S
2368.75 610 31.5 0 S
2397.5 594.25 0 31.5 S
2381.75 610 31.5 0 S
2440 594.25 0 31.5 S
2424.25 610 31.5 0 S
5 w
824.5 610 1775 1264 re
S
cleartomark end end pagesave restore
 showpage
%%PageTrailer
%%Trailer
%%Pages: 1
