%!PS-Adobe-3.0 EPSF-3.0
%%BoundingBox: 69 53 265 190
%%HiResBoundingBox: 69.400000 53.900000 264.900000 189.100000
%.....................................
%%Creator: GPL Ghostscript 871 (epswrite)
%%CreationDate: 2012/01/28 17:04:47
%%DocumentData: Clean7Bit
%%LanguageLevel: 2
%%EndComments
%%BeginProlog
% This copyright applies to everything between here and the %%EndProlog:
% Copyright (C) 2010 Artifex Software, Inc.  All rights reserved.
%%BeginResource: procset GS_epswrite_2_0_1001 1.001 0
/GS_epswrite_2_0_1001 80 dict dup begin
/PageSize 2 array def/setpagesize{ PageSize aload pop 3 index eq exch
4 index eq and{ pop pop pop}{ PageSize dup  1
5 -1 roll put 0 4 -1 roll put dup null eq {false} {dup where} ifelse{ exch get exec}
{ pop/setpagedevice where
{ pop 1 dict dup /PageSize PageSize put setpagedevice}
{ /setpage where{ pop PageSize aload pop pageparams 3 {exch pop} repeat
setpage}if}ifelse}ifelse}ifelse} bind def
/!{bind def}bind def/#{load def}!/N/counttomark #
/rG{3{3 -1 roll 255 div}repeat setrgbcolor}!/G{255 div setgray}!/K{0 G}!
/r6{dup 3 -1 roll rG}!/r5{dup 3 1 roll rG}!/r3{dup rG}!
/w/setlinewidth #/J/setlinecap #
/j/setlinejoin #/M/setmiterlimit #/d/setdash #/i/setflat #
/m/moveto #/l/lineto #/c/rcurveto #
/p{N 2 idiv{N -2 roll rlineto}repeat}!
/P{N 0 gt{N -2 roll moveto p}if}!
/h{p closepath}!/H{P closepath}!
/lx{0 rlineto}!/ly{0 exch rlineto}!/v{0 0 6 2 roll c}!/y{2 copy c}!
/re{4 -2 roll m exch dup lx exch ly neg lx h}!
/^{3 index neg 3 index neg}!
/f{P fill}!/f*{P eofill}!/s{H stroke}!/S{P stroke}!
/q/gsave #/Q/grestore #/rf{re fill}!
/Y{P clip newpath}!/Y*{P eoclip newpath}!/rY{re Y}!
/|={pop exch 4 1 roll 1 array astore cvx 3 array astore cvx exch 1 index def exec}!
/|{exch string readstring |=}!
/+{dup type/nametype eq{2 index 7 add -3 bitshift 2 index mul}if}!
/@/currentfile #/${+ @ |}!
/B{{2 copy string{readstring pop}aload pop 4 array astore cvx
3 1 roll}repeat pop pop true}!
/Ix{[1 0 0 1 11 -2 roll exch neg exch neg]exch}!
/,{true exch Ix imagemask}!/If{false exch Ix imagemask}!/I{exch Ix image}!
/Ic{exch Ix false 3 colorimage}!
/F{/Columns counttomark 3 add -2 roll/Rows exch/K -1/BlackIs1 true>>
/CCITTFaxDecode filter}!/FX{<</EndOfBlock false F}!
/X{/ASCII85Decode filter}!/@X{@ X}!/&2{2 index 2 index}!
/@F{@ &2<<F}!/@C{@X &2 FX}!
/$X{+ @X |}!/&4{4 index 4 index}!/$F{+ @ &4<<F |}!/$C{+ @X &4 FX |}!
/IC{3 1 roll 10 dict begin 1{/ImageType/Interpolate/Decode/DataSource
/ImageMatrix/BitsPerComponent/Height/Width}{exch def}forall
currentdict end image}!
/~{@ read {pop} if}!
end def
%%EndResource
/pagesave null def
%%EndProlog
%%Page: 1 1
%%BeginPageSetup
GS_epswrite_2_0_1001 begin
/pagesave save store 197 dict begin
0.1 0.1 scale
%%EndPageSetup
gsave mark
Q q
0 0 250000 250000 re
Y
5 w
K
926 620 31.5 0 P
2594 620 -31.5 0 S
861 600 17 43 /3U
$C
,Tm'ds8W-!s-F.@R>;m@If~>
,
926 695 15.5 0 P
2594 695 -15.5 0 P
926 794.5 15.5 0 P
2594 794.5 -15.5 0 P
926 845.5 15.5 0 P
2594 845.5 -15.5 0 P
926 869.5 31.5 0 P
2594 869.5 -31.5 0 S
827 850 3U ,
853 849 34 44 /6U
$C
23%r'%\5X)j2)<u^Zk'1J,ZoQs8W-!s8VJ_s8Qk\g>99H(eYmM:r7r$~>
,
926 944.5 15.5 0 P
2594 944.5 -15.5 0 P
926 1044 15.5 0 P
2594 1044 -15.5 0 P
926 1095 15.5 0 P
2594 1095 -15.5 0 P
926 1119 31.5 0 P
2594 1119 -31.5 0 S
794 1099 3U ,
819 1098 6U ,
853 1098 6U ,
926 1194.5 15.5 0 P
2594 1194.5 -15.5 0 P
926 1293.5 15.5 0 P
2594 1293.5 -15.5 0 P
926 1344.5 15.5 0 P
2594 1344.5 -15.5 0 P
926 1369 31.5 0 P
2594 1369 -31.5 0 S
761 1349 3U ,
786 1348 6U ,
819 1348 6U ,
853 1348 6U ,
926 1444 15.5 0 P
2594 1444 -15.5 0 P
926 1543.5 15.5 0 P
2594 1543.5 -15.5 0 P
926 1594 15.5 0 P
2594 1594 -15.5 0 P
926 1618.5 31.5 0 P
2594 1618.5 -31.5 0 S
727 1599 3U ,
753 1598 6U ,
786 1598 6U ,
819 1598 6U ,
853 1598 6U ,
926 1693.5 15.5 0 P
2594 1693.5 -15.5 0 P
926 1793 15.5 0 P
2594 1793 -15.5 0 P
926 1844 15.5 0 P
2594 1844 -15.5 0 P
926 1868 31.5 0 P
2594 1868 -31.5 0 S
694 1848 3U ,
719 1847 6U ,
753 1847 6U ,
786 1847 6U ,
819 1847 6U ,
853 1847 6U ,
926 620 0 31.5 P
926 1868 0 -31.5 S
862 555 21 4 /3Y
$C
4qID~>
,
882 539 34 44 /6Y
$C
3f*tLK;VJ#ZZne#2lEeH?]XK;@:la`Yct@m+Q2(jDLDKapAVZrg>Sl<[;*R2"T~>
,
915 539 6U ,
949 539 6U ,
1134.5 620 0 31.5 P
1134.5 1868 0 -31.5 S
1070 555 3Y ,
1090 540 34 43 /4C
$C
4;jd(Qp5fN^"]dYfPna4iOE=NL>hOS^UAOiqu,+3CMbUV[OTh+@7(A~>
,
1124 539 6U ,
1157 539 6U ,
1343 620 0 31.5 P
1343 1868 0 -31.5 S
1279 555 3Y ,
1307 540 3U ,
1332 539 6U ,
1366 539 6U ,
1551.5 620 0 31.5 P
1551.5 1868 0 -31.5 S
1539 539 6U ,
1760 620 0 31.5 P
1760 1868 0 -31.5 S
1722 540 3U ,
1748 539 6U ,
1781 539 6U ,
1968.5 620 0 31.5 P
1968.5 1868 0 -31.5 S
1923 540 4C ,
1956 539 6U ,
1990 539 6U ,
2177 620 0 31.5 P
2177 1868 0 -31.5 S
2131 539 6Y ,
2165 539 6U ,
2198 539 6U ,
2385.5 620 0 31.5 P
2385.5 1868 0 -31.5 S
2340 540 35 43 /7C
$C
.M)RZs3Cmfr0V$lmIpMQmIpMQmJH;FpY5/kn_X9>^V/P~>
,
2373 539 6U ,
2407 539 6U ,
2594 620 0 31.5 P
2594 1868 0 -31.5 S
2548 539 35 44 /4G
$C
2%'Ns&9R0a'Aa:<PNfbDGdm_=;rkC=Bjl_7CKWS'fO25hs7ZK6."D-0~>
,
2582 539 6U ,
2615 539 6U ,
926 620 1668 1248 re
S
2.5 w
1082.5 1851.75 0 31.5 S
1066.75 1867.5 31.5 0 S
1088.5 1851.75 0 31.5 S
1072.75 1867.5 31.5 0 S
1095 1851.75 0 31.5 S
1079.25 1867.5 31.5 0 S
1101 1851.75 0 31.5 S
1085.25 1867.5 31.5 0 S
1122 1851.75 0 31.5 S
1106.25 1867.5 31.5 0 S
1124 1851.75 0 31.5 S
1108.25 1867.5 31.5 0 S
1126 1851.75 0 31.5 S
1110.25 1867.5 31.5 0 S
1128 1851.75 0 31.5 S
1112.25 1867.5 31.5 0 S
1130.5 1851.75 0 31.5 S
1114.75 1867.5 31.5 0 S
1134.5 1851.75 0 31.5 S
1118.75 1867.5 31.5 0 S
1136.5 1851.75 0 31.5 S
1120.75 1867.5 31.5 0 S
1138.5 1851.75 0 31.5 S
1122.75 1867.5 31.5 0 S
1143 1851.75 0 31.5 S
1127.25 1867.5 31.5 0 S
1145 1851.75 0 31.5 S
1129.25 1867.5 31.5 0 S
1147 1851.75 0 31.5 S
1131.25 1867.5 31.5 0 S
1149 1851.75 0 31.5 S
1133.25 1867.5 31.5 0 S
1151 1851.75 0 31.5 S
1135.25 1867.5 31.5 0 S
1153.5 1851.75 0 31.5 S
1137.75 1867.5 31.5 0 S
1155.5 1851.75 0 31.5 S
1139.75 1867.5 31.5 0 S
1157.5 1851.75 0 31.5 S
1141.75 1867.5 31.5 0 S
1159.5 1851.75 0 31.5 S
1143.75 1867.5 31.5 0 S
1161.5 1851.75 0 31.5 S
1145.75 1867.5 31.5 0 S
1163.5 1851.75 0 31.5 S
1147.75 1867.5 31.5 0 S
1166 1851.75 0 31.5 S
1150.25 1867.5 31.5 0 S
1170 1851.75 0 31.5 S
1154.25 1867.5 31.5 0 S
1172 1851.75 0 31.5 S
1156.25 1867.5 31.5 0 S
1174 1851.75 0 31.5 S
1158.25 1867.5 31.5 0 S
1176 1851.75 0 31.5 S
1160.25 1867.5 31.5 0 S
1178.5 1851.75 0 31.5 S
1162.75 1867.5 31.5 0 S
1180.5 1851.75 0 31.5 S
1164.75 1867.5 31.5 0 S
1182.5 1851.75 0 31.5 S
1166.75 1867.5 31.5 0 S
1184.5 1851.75 0 31.5 S
1168.75 1867.5 31.5 0 S
1186.5 1851.75 0 31.5 S
1170.75 1867.5 31.5 0 S
1188.5 1851.75 0 31.5 S
1172.75 1867.5 31.5 0 S
1191 1851.75 0 31.5 S
1175.25 1867.5 31.5 0 S
1193 1851.75 0 31.5 S
1177.25 1867.5 31.5 0 S
1195 1851.25 0 31.5 S
1179.25 1867 31.5 0 S
1197 1851.25 0 31.5 S
1181.25 1867 31.5 0 S
1199 1851.25 0 31.5 S
1183.25 1867 31.5 0 S
1201 1851.25 0 31.5 S
1185.25 1867 31.5 0 S
1203.5 1851.25 0 31.5 S
1187.75 1867 31.5 0 S
1205.5 1851.25 0 31.5 S
1189.75 1867 31.5 0 S
1207.5 1851.25 0 31.5 S
1191.75 1867 31.5 0 S
1209.5 1851.25 0 31.5 S
1193.75 1867 31.5 0 S
1211.5 1851.25 0 31.5 S
1195.75 1867 31.5 0 S
1213.5 1851.25 0 31.5 S
1197.75 1867 31.5 0 S
1216 1851.25 0 31.5 S
1200.25 1867 31.5 0 S
1218 1851.25 0 31.5 S
1202.25 1867 31.5 0 S
1220 1851.25 0 31.5 S
1204.25 1867 31.5 0 S
1222 1851.25 0 31.5 S
1206.25 1867 31.5 0 S
1224 1851.25 0 31.5 S
1208.25 1867 31.5 0 S
1226 1851.25 0 31.5 S
1210.25 1867 31.5 0 S
1228.5 1851.25 0 31.5 S
1212.75 1867 31.5 0 S
1230.5 1851.25 0 31.5 S
1214.75 1867 31.5 0 S
1232.5 1851.25 0 31.5 S
1216.75 1867 31.5 0 S
1234.5 1851.25 0 31.5 S
1218.75 1867 31.5 0 S
1236.5 1851.25 0 31.5 S
1220.75 1867 31.5 0 S
1238.5 1851.25 0 31.5 S
1222.75 1867 31.5 0 S
1241 1851.25 0 31.5 S
1225.25 1867 31.5 0 S
1243 1851.25 0 31.5 S
1227.25 1867 31.5 0 S
1245 1851.25 0 31.5 S
1229.25 1867 31.5 0 S
1247 1851.25 0 31.5 S
1231.25 1867 31.5 0 S
1249 1851.25 0 31.5 S
1233.25 1867 31.5 0 S
1251.5 1851.25 0 31.5 S
1235.75 1867 31.5 0 S
1253.5 1851.25 0 31.5 S
1237.75 1867 31.5 0 S
1255.5 1851.25 0 31.5 S
1239.75 1867 31.5 0 S
1257.5 1851.25 0 31.5 S
1241.75 1867 31.5 0 S
1259.5 1851.25 0 31.5 S
1243.75 1867 31.5 0 S
1261.5 1851.25 0 31.5 S
1245.75 1867 31.5 0 S
1264 1851.25 0 31.5 S
1248.25 1867 31.5 0 S
1266 1851.25 0 31.5 S
1250.25 1867 31.5 0 S
1268 1851.25 0 31.5 S
1252.25 1867 31.5 0 S
1270 1851.25 0 31.5 S
1254.25 1867 31.5 0 S
1272 1851.25 0 31.5 S
1256.25 1867 31.5 0 S
1274 1851.25 0 31.5 S
1258.25 1867 31.5 0 S
1276.5 1851.25 0 31.5 S
1260.75 1867 31.5 0 S
1278.5 1851.25 0 31.5 S
1262.75 1867 31.5 0 S
1280.5 1851.25 0 31.5 S
1264.75 1867 31.5 0 S
1282.5 1851.25 0 31.5 S
1266.75 1867 31.5 0 S
1284.5 1851.25 0 31.5 S
1268.75 1867 31.5 0 S
1286.5 1851.25 0 31.5 S
1270.75 1867 31.5 0 S
1289 1851.25 0 31.5 S
1273.25 1867 31.5 0 S
1291 1850.75 0 31.5 S
1275.25 1866.5 31.5 0 S
1293 1850.75 0 31.5 S
1277.25 1866.5 31.5 0 S
1295 1850.75 0 31.5 S
1279.25 1866.5 31.5 0 S
1297 1850.75 0 31.5 S
1281.25 1866.5 31.5 0 S
1299 1850.75 0 31.5 S
1283.25 1866.5 31.5 0 S
1301.5 1850.75 0 31.5 S
1285.75 1866.5 31.5 0 S
1303.5 1850.75 0 31.5 S
1287.75 1866.5 31.5 0 S
1305.5 1850.75 0 31.5 S
1289.75 1866.5 31.5 0 S
1307.5 1850.75 0 31.5 S
1291.75 1866.5 31.5 0 S
1309.5 1850.75 0 31.5 S
1293.75 1866.5 31.5 0 S
1311.5 1850.75 0 31.5 S
1295.75 1866.5 31.5 0 S
1314 1850.75 0 31.5 S
1298.25 1866.5 31.5 0 S
1316 1850.75 0 31.5 S
1300.25 1866.5 31.5 0 S
1318 1850.75 0 31.5 S
1302.25 1866.5 31.5 0 S
1320 1850.75 0 31.5 S
1304.25 1866.5 31.5 0 S
1322 1850.75 0 31.5 S
1306.25 1866.5 31.5 0 S
1324 1850.75 0 31.5 S
1308.25 1866.5 31.5 0 S
1326.5 1850.75 0 31.5 S
1310.75 1866.5 31.5 0 S
1328.5 1850.75 0 31.5 S
1312.75 1866.5 31.5 0 S
1330.5 1850.25 0 31.5 S
1314.75 1866 31.5 0 S
1332.5 1850.25 0 31.5 S
1316.75 1866 31.5 0 S
1334.5 1850.25 0 31.5 S
1318.75 1866 31.5 0 S
1336.5 1850.25 0 31.5 S
1320.75 1866 31.5 0 S
1339 1850.25 0 31.5 S
1323.25 1866 31.5 0 S
1341 1850.25 0 31.5 S
1325.25 1866 31.5 0 S
1343 1850.25 0 31.5 S
1327.25 1866 31.5 0 S
1345 1850.25 0 31.5 S
1329.25 1866 31.5 0 S
1347 1850.25 0 31.5 S
1331.25 1866 31.5 0 S
1349.5 1850.25 0 31.5 S
1333.75 1866 31.5 0 S
1351.5 1850.25 0 31.5 S
1335.75 1866 31.5 0 S
1353.5 1850.25 0 31.5 S
1337.75 1866 31.5 0 S
1355.5 1850.25 0 31.5 S
1339.75 1866 31.5 0 S
1357.5 1849.75 0 31.5 S
1341.75 1865.5 31.5 0 S
1359.5 1849.75 0 31.5 S
1343.75 1865.5 31.5 0 S
1362 1849.75 0 31.5 S
1346.25 1865.5 31.5 0 S
1364 1849.75 0 31.5 S
1348.25 1865.5 31.5 0 S
1366 1849.75 0 31.5 S
1350.25 1865.5 31.5 0 S
1368 1849.75 0 31.5 S
1352.25 1865.5 31.5 0 S
1370 1849.75 0 31.5 S
1354.25 1865.5 31.5 0 S
1372 1849.75 0 31.5 S
1356.25 1865.5 31.5 0 S
1374.5 1849.25 0 31.5 S
1358.75 1865 31.5 0 S
1376.5 1849.25 0 31.5 S
1360.75 1865 31.5 0 S
1378.5 1849.25 0 31.5 S
1362.75 1865 31.5 0 S
1380.5 1849.25 0 31.5 S
1364.75 1865 31.5 0 S
1382.5 1849.25 0 31.5 S
1366.75 1865 31.5 0 S
1384.5 1849.25 0 31.5 S
1368.75 1865 31.5 0 S
1387 1849.25 0 31.5 S
1371.25 1865 31.5 0 S
1389 1848.75 0 31.5 S
1373.25 1864.5 31.5 0 S
1391 1848.75 0 31.5 S
1375.25 1864.5 31.5 0 S
1393 1848.75 0 31.5 S
1377.25 1864.5 31.5 0 S
1395 1848.75 0 31.5 S
1379.25 1864.5 31.5 0 S
1397 1848.75 0 31.5 S
1381.25 1864.5 31.5 0 S
1399.5 1848.75 0 31.5 S
1383.75 1864.5 31.5 0 S
1401.5 1848.25 0 31.5 S
1385.75 1864 31.5 0 S
1403.5 1848.25 0 31.5 S
1387.75 1864 31.5 0 S
1405.5 1848.25 0 31.5 S
1389.75 1864 31.5 0 S
1407.5 1848.25 0 31.5 S
1391.75 1864 31.5 0 S
1409.5 1848.25 0 31.5 S
1393.75 1864 31.5 0 S
1412 1848.25 0 31.5 S
1396.25 1864 31.5 0 S
1414 1847.75 0 31.5 S
1398.25 1863.5 31.5 0 S
1416 1847.75 0 31.5 S
1400.25 1863.5 31.5 0 S
1418 1847.75 0 31.5 S
1402.25 1863.5 31.5 0 S
1420 1847.75 0 31.5 S
1404.25 1863.5 31.5 0 S
1422 1847.25 0 31.5 S
1406.25 1863 31.5 0 S
1424.5 1847.25 0 31.5 S
1408.75 1863 31.5 0 S
1426.5 1847.25 0 31.5 S
1410.75 1863 31.5 0 S
1428.5 1847.25 0 31.5 S
1412.75 1863 31.5 0 S
1430.5 1846.75 0 31.5 S
1414.75 1862.5 31.5 0 S
1432.5 1846.75 0 31.5 S
1416.75 1862.5 31.5 0 S
1434.5 1846.75 0 31.5 S
1418.75 1862.5 31.5 0 S
1437 1846.25 0 31.5 S
1421.25 1862 31.5 0 S
1439 1846.25 0 31.5 S
1423.25 1862 31.5 0 S
1441 1846.25 0 31.5 S
1425.25 1862 31.5 0 S
1443 1846.25 0 31.5 S
1427.25 1862 31.5 0 S
1445 1845.75 0 31.5 S
1429.25 1861.5 31.5 0 S
1447 1845.75 0 31.5 S
1431.25 1861.5 31.5 0 S
1449.5 1845.75 0 31.5 S
1433.75 1861.5 31.5 0 S
1451.5 1845.25 0 31.5 S
1435.75 1861 31.5 0 S
1453.5 1845.25 0 31.5 S
1437.75 1861 31.5 0 S
1455.5 1845.25 0 31.5 S
1439.75 1861 31.5 0 S
1457.5 1844.75 0 31.5 S
1441.75 1860.5 31.5 0 S
1460 1844.75 0 31.5 S
1444.25 1860.5 31.5 0 S
1462 1844.75 0 31.5 S
1446.25 1860.5 31.5 0 S
1464 1844.25 0 31.5 S
1448.25 1860 31.5 0 S
1466 1844.25 0 31.5 S
1450.25 1860 31.5 0 S
1468 1843.75 0 31.5 S
1452.25 1859.5 31.5 0 S
1470 1843.75 0 31.5 S
1454.25 1859.5 31.5 0 S
1472.5 1843.75 0 31.5 S
1456.75 1859.5 31.5 0 S
1474.5 1843.25 0 31.5 S
1458.75 1859 31.5 0 S
1476.5 1843.25 0 31.5 S
1460.75 1859 31.5 0 S
1478.5 1843.25 0 31.5 S
1462.75 1859 31.5 0 S
1480.5 1842.75 0 31.5 S
1464.75 1858.5 31.5 0 S
1482.5 1842.75 0 31.5 S
1466.75 1858.5 31.5 0 S
1485 1842.25 0 31.5 S
1469.25 1858 31.5 0 S
1487 1842.25 0 31.5 S
1471.25 1858 31.5 0 S
1489 1841.75 0 31.5 S
1473.25 1857.5 31.5 0 S
1491 1841.75 0 31.5 S
1475.25 1857.5 31.5 0 S
1493 1841.25 0 31.5 S
1477.25 1857 31.5 0 S
1495 1841.25 0 31.5 S
1479.25 1857 31.5 0 S
1497.5 1840.75 0 31.5 S
1481.75 1856.5 31.5 0 S
1499.5 1840.75 0 31.5 S
1483.75 1856.5 31.5 0 S
1501.5 1840.25 0 31.5 S
1485.75 1856 31.5 0 S
1503.5 1840.25 0 31.5 S
1487.75 1856 31.5 0 S
1505.5 1839.75 0 31.5 S
1489.75 1855.5 31.5 0 S
1507.5 1839.75 0 31.5 S
1491.75 1855.5 31.5 0 S
1510 1839.25 0 31.5 S
1494.25 1855 31.5 0 S
1512 1839.25 0 31.5 S
1496.25 1855 31.5 0 S
1514 1838.75 0 31.5 S
1498.25 1854.5 31.5 0 S
1516 1838.25 0 31.5 S
1500.25 1854 31.5 0 S
1518 1838.25 0 31.5 S
1502.25 1854 31.5 0 S
1520 1837.75 0 31.5 S
1504.25 1853.5 31.5 0 S
1522.5 1837.75 0 31.5 S
1506.75 1853.5 31.5 0 S
1524.5 1837.25 0 31.5 S
1508.75 1853 31.5 0 S
1526.5 1836.75 0 31.5 S
1510.75 1852.5 31.5 0 S
1528.5 1836.75 0 31.5 S
1512.75 1852.5 31.5 0 S
1530.5 1836.25 0 31.5 S
1514.75 1852 31.5 0 S
1532.5 1835.75 0 31.5 S
1516.75 1851.5 31.5 0 S
1535 1835.75 0 31.5 S
1519.25 1851.5 31.5 0 S
1537 1835.25 0 31.5 S
1521.25 1851 31.5 0 S
1539 1834.75 0 31.5 S
1523.25 1850.5 31.5 0 S
1541 1834.75 0 31.5 S
1525.25 1850.5 31.5 0 S
1543 1834.25 0 31.5 S
1527.25 1850 31.5 0 S
1545 1833.75 0 31.5 S
1529.25 1849.5 31.5 0 S
1547.5 1833.25 0 31.5 S
1531.75 1849 31.5 0 S
1549.5 1833.25 0 31.5 S
1533.75 1849 31.5 0 S
1553.5 1832.75 0 31.5 S
1537.75 1848.5 31.5 0 S
1555.5 1832.25 0 31.5 S
1539.75 1848 31.5 0 S
1558 1831.75 0 31.5 S
1542.25 1847.5 31.5 0 S
1560 1831.25 0 31.5 S
1544.25 1847 31.5 0 S
1562 1831.25 0 31.5 S
1546.25 1847 31.5 0 S
1564 1830.75 0 31.5 S
1548.25 1846.5 31.5 0 S
1566 1830.25 0 31.5 S
1550.25 1846 31.5 0 S
1568 1829.75 0 31.5 S
1552.25 1845.5 31.5 0 S
1570.5 1829.25 0 31.5 S
1554.75 1845 31.5 0 S
1572.5 1828.75 0 31.5 S
1556.75 1844.5 31.5 0 S
1574.5 1828.25 0 31.5 S
1558.75 1844 31.5 0 S
1576.5 1827.75 0 31.5 S
1560.75 1843.5 31.5 0 S
1578.5 1827.25 0 31.5 S
1562.75 1843 31.5 0 S
1580.5 1826.75 0 31.5 S
1564.75 1842.5 31.5 0 S
1583 1826.25 0 31.5 S
1567.25 1842 31.5 0 S
1585 1825.75 0 31.5 S
1569.25 1841.5 31.5 0 S
1587 1825.25 0 31.5 S
1571.25 1841 31.5 0 S
1589 1824.75 0 31.5 S
1573.25 1840.5 31.5 0 S
1591 1824.25 0 31.5 S
1575.25 1840 31.5 0 S
1593 1823.75 0 31.5 S
1577.25 1839.5 31.5 0 S
1595.5 1823.25 0 31.5 S
1579.75 1839 31.5 0 S
1597.5 1822.75 0 31.5 S
1581.75 1838.5 31.5 0 S
1599.5 1822.25 0 31.5 S
1583.75 1838 31.5 0 S
1601.5 1821.75 0 31.5 S
1585.75 1837.5 31.5 0 S
1603.5 1821.25 0 31.5 S
1587.75 1837 31.5 0 S
1605.5 1820.25 0 31.5 S
1589.75 1836 31.5 0 S
1608 1819.75 0 31.5 S
1592.25 1835.5 31.5 0 S
1610 1819.25 0 31.5 S
1594.25 1835 31.5 0 S
1612 1818.75 0 31.5 S
1596.25 1834.5 31.5 0 S
1614 1818.25 0 31.5 S
1598.25 1834 31.5 0 S
1616 1817.75 0 31.5 S
1600.25 1833.5 31.5 0 S
1618 1817.25 0 31.5 S
1602.25 1833 31.5 0 S
1620.5 1816.25 0 31.5 S
1604.75 1832 31.5 0 S
1622.5 1815.75 0 31.5 S
1606.75 1831.5 31.5 0 S
1624.5 1815.25 0 31.5 S
1608.75 1831 31.5 0 S
1626.5 1814.25 0 31.5 S
1610.75 1830 31.5 0 S
1628.5 1813.75 0 31.5 S
1612.75 1829.5 31.5 0 S
1630.5 1813.25 0 31.5 S
1614.75 1829 31.5 0 S
1633 1812.25 0 31.5 S
1617.25 1828 31.5 0 S
1635 1811.75 0 31.5 S
1619.25 1827.5 31.5 0 S
1637 1810.75 0 31.5 S
1621.25 1826.5 31.5 0 S
1639 1810.25 0 31.5 S
1623.25 1826 31.5 0 S
1641 1809.75 0 31.5 S
1625.25 1825.5 31.5 0 S
1643 1808.75 0 31.5 S
1627.25 1824.5 31.5 0 S
1645.5 1808.25 0 31.5 S
1629.75 1824 31.5 0 S
1647.5 1807.25 0 31.5 S
1631.75 1823 31.5 0 S
1649.5 1806.25 0 31.5 S
1633.75 1822 31.5 0 S
1651.5 1805.75 0 31.5 S
1635.75 1821.5 31.5 0 S
1653.5 1804.75 0 31.5 S
1637.75 1820.5 31.5 0 S
1655.5 1804.25 0 31.5 S
1639.75 1820 31.5 0 S
1658 1803.25 0 31.5 S
1642.25 1819 31.5 0 S
1660 1802.75 0 31.5 S
1644.25 1818.5 31.5 0 S
1662 1801.75 0 31.5 S
1646.25 1817.5 31.5 0 S
1664 1800.75 0 31.5 S
1648.25 1816.5 31.5 0 S
1666 1800.25 0 31.5 S
1650.25 1816 31.5 0 S
1668.5 1799.25 0 31.5 S
1652.75 1815 31.5 0 S
1670.5 1798.25 0 31.5 S
1654.75 1814 31.5 0 S
1672.5 1797.75 0 31.5 S
1656.75 1813.5 31.5 0 S
1674.5 1796.75 0 31.5 S
1658.75 1812.5 31.5 0 S
1676.5 1795.75 0 31.5 S
1660.75 1811.5 31.5 0 S
1678.5 1794.75 0 31.5 S
1662.75 1810.5 31.5 0 S
1681 1794.25 0 31.5 S
1665.25 1810 31.5 0 S
1683 1793.25 0 31.5 S
1667.25 1809 31.5 0 S
1685 1792.25 0 31.5 S
1669.25 1808 31.5 0 S
1687 1791.25 0 31.5 S
1671.25 1807 31.5 0 S
1689 1790.25 0 31.5 S
1673.25 1806 31.5 0 S
1691 1789.75 0 31.5 S
1675.25 1805.5 31.5 0 S
1693.5 1788.75 0 31.5 S
1677.75 1804.5 31.5 0 S
1695.5 1787.75 0 31.5 S
1679.75 1803.5 31.5 0 S
1697.5 1786.75 0 31.5 S
1681.75 1802.5 31.5 0 S
1699.5 1785.75 0 31.5 S
1683.75 1801.5 31.5 0 S
1701.5 1784.75 0 31.5 S
1685.75 1800.5 31.5 0 S
1703.5 1783.75 0 31.5 S
1687.75 1799.5 31.5 0 S
1706 1782.75 0 31.5 S
1690.25 1798.5 31.5 0 S
1708 1781.75 0 31.5 S
1692.25 1797.5 31.5 0 S
1710 1780.75 0 31.5 S
1694.25 1796.5 31.5 0 S
1712 1779.75 0 31.5 S
1696.25 1795.5 31.5 0 S
1714 1778.25 0 31.5 S
1698.25 1794 31.5 0 S
1716 1777.25 0 31.5 S
1700.25 1793 31.5 0 S
1718.5 1776.25 0 31.5 S
1702.75 1792 31.5 0 S
1720.5 1775.25 0 31.5 S
1704.75 1791 31.5 0 S
1722.5 1774.25 0 31.5 S
1706.75 1790 31.5 0 S
1724.5 1773.25 0 31.5 S
1708.75 1789 31.5 0 S
1726.5 1772.25 0 31.5 S
1710.75 1788 31.5 0 S
1728.5 1770.75 0 31.5 S
1712.75 1786.5 31.5 0 S
1731 1769.75 0 31.5 S
1715.25 1785.5 31.5 0 S
1733 1768.75 0 31.5 S
1717.25 1784.5 31.5 0 S
1735 1767.25 0 31.5 S
1719.25 1783 31.5 0 S
1737 1766.25 0 31.5 S
1721.25 1782 31.5 0 S
1739 1765.25 0 31.5 S
1723.25 1781 31.5 0 S
1741 1763.75 0 31.5 S
1725.25 1779.5 31.5 0 S
1743.5 1762.75 0 31.5 S
1727.75 1778.5 31.5 0 S
1745.5 1761.25 0 31.5 S
1729.75 1777 31.5 0 S
1747.5 1760.25 0 31.5 S
1731.75 1776 31.5 0 S
1749.5 1758.75 0 31.5 S
1733.75 1774.5 31.5 0 S
1751.5 1757.75 0 31.5 S
1735.75 1773.5 31.5 0 S
1753.5 1756.25 0 31.5 S
1737.75 1772 31.5 0 S
1756 1755.25 0 31.5 S
1740.25 1771 31.5 0 S
1758 1753.75 0 31.5 S
1742.25 1769.5 31.5 0 S
1760 1752.25 0 31.5 S
1744.25 1768 31.5 0 S
1762 1750.75 0 31.5 S
1746.25 1766.5 31.5 0 S
1764 1749.75 0 31.5 S
1748.25 1765.5 31.5 0 S
1766.5 1748.25 0 31.5 S
1750.75 1764 31.5 0 S
1768.5 1746.75 0 31.5 S
1752.75 1762.5 31.5 0 S
1770.5 1745.75 0 31.5 S
1754.75 1761.5 31.5 0 S
1772.5 1744.25 0 31.5 S
1756.75 1760 31.5 0 S
1774.5 1742.75 0 31.5 S
1758.75 1758.5 31.5 0 S
1776.5 1741.25 0 31.5 S
1760.75 1757 31.5 0 S
1779 1739.75 0 31.5 S
1763.25 1755.5 31.5 0 S
1781 1738.25 0 31.5 S
1765.25 1754 31.5 0 S
1783 1737.25 0 31.5 S
1767.25 1753 31.5 0 S
1785 1735.75 0 31.5 S
1769.25 1751.5 31.5 0 S
1787 1734.25 0 31.5 S
1771.25 1750 31.5 0 S
1789 1732.75 0 31.5 S
1773.25 1748.5 31.5 0 S
1791.5 1731.25 0 31.5 S
1775.75 1747 31.5 0 S
1793.5 1729.75 0 31.5 S
1777.75 1745.5 31.5 0 S
1795.5 1728.25 0 31.5 S
1779.75 1744 31.5 0 S
1797.5 1726.25 0 31.5 S
1781.75 1742 31.5 0 S
1799.5 1724.75 0 31.5 S
1783.75 1740.5 31.5 0 S
1801.5 1723.25 0 31.5 S
1785.75 1739 31.5 0 S
1804 1721.75 0 31.5 S
1788.25 1737.5 31.5 0 S
1806 1720.25 0 31.5 S
1790.25 1736 31.5 0 S
1808 1718.25 0 31.5 S
1792.25 1734 31.5 0 S
1810 1716.75 0 31.5 S
1794.25 1732.5 31.5 0 S
1812 1715.25 0 31.5 S
1796.25 1731 31.5 0 S
1814 1713.75 0 31.5 S
1798.25 1729.5 31.5 0 S
1816.5 1712.25 0 31.5 S
1800.75 1728 31.5 0 S
1818.5 1710.25 0 31.5 S
1802.75 1726 31.5 0 S
1820.5 1708.75 0 31.5 S
1804.75 1724.5 31.5 0 S
1822.5 1706.75 0 31.5 S
1806.75 1722.5 31.5 0 S
1824.5 1705.25 0 31.5 S
1808.75 1721 31.5 0 S
1826.5 1703.25 0 31.5 S
1810.75 1719 31.5 0 S
1829 1701.75 0 31.5 S
1813.25 1717.5 31.5 0 S
1831 1699.75 0 31.5 S
1815.25 1715.5 31.5 0 S
1833 1698.25 0 31.5 S
1817.25 1714 31.5 0 S
1835 1696.25 0 31.5 S
1819.25 1712 31.5 0 S
1837 1694.75 0 31.5 S
1821.25 1710.5 31.5 0 S
1839 1692.75 0 31.5 S
1823.25 1708.5 31.5 0 S
1841.5 1691.25 0 31.5 S
1825.75 1707 31.5 0 S
1843.5 1689.25 0 31.5 S
1827.75 1705 31.5 0 S
1845.5 1687.75 0 31.5 S
1829.75 1703.5 31.5 0 S
1847.5 1685.75 0 31.5 S
1831.75 1701.5 31.5 0 S
1849.5 1683.75 0 31.5 S
1833.75 1699.5 31.5 0 S
1851.5 1681.75 0 31.5 S
1835.75 1697.5 31.5 0 S
1854 1680.25 0 31.5 S
1838.25 1696 31.5 0 S
1856 1678.25 0 31.5 S
1840.25 1694 31.5 0 S
1858 1676.25 0 31.5 S
1842.25 1692 31.5 0 S
1860 1674.25 0 31.5 S
1844.25 1690 31.5 0 S
1862 1672.25 0 31.5 S
1846.25 1688 31.5 0 S
1864 1670.25 0 31.5 S
1848.25 1686 31.5 0 S
1866.5 1668.25 0 31.5 S
1850.75 1684 31.5 0 S
1868.5 1666.25 0 31.5 S
1852.75 1682 31.5 0 S
1870.5 1664.25 0 31.5 S
1854.75 1680 31.5 0 S
1872.5 1662.25 0 31.5 S
1856.75 1678 31.5 0 S
1874.5 1660.75 0 31.5 S
1858.75 1676.5 31.5 0 S
1877 1658.25 0 31.5 S
1861.25 1674 31.5 0 S
1879 1656.75 0 31.5 S
1863.25 1672.5 31.5 0 S
1881 1654.75 0 31.5 S
1865.25 1670.5 31.5 0 S
1883 1652.25 0 31.5 S
1867.25 1668 31.5 0 S
1885 1650.25 0 31.5 S
1869.25 1666 31.5 0 S
1887 1648.25 0 31.5 S
1871.25 1664 31.5 0 S
1889.5 1646.25 0 31.5 S
1873.75 1662 31.5 0 S
1891.5 1644.25 0 31.5 S
1875.75 1660 31.5 0 S
1893.5 1642.25 0 31.5 S
1877.75 1658 31.5 0 S
1895.5 1639.75 0 31.5 S
1879.75 1655.5 31.5 0 S
1897.5 1637.75 0 31.5 S
1881.75 1653.5 31.5 0 S
1899.5 1635.25 0 31.5 S
1883.75 1651 31.5 0 S
1902 1633.75 0 31.5 S
1886.25 1649.5 31.5 0 S
1904 1631.25 0 31.5 S
1888.25 1647 31.5 0 S
1906 1629.25 0 31.5 S
1890.25 1645 31.5 0 S
1908 1626.75 0 31.5 S
1892.25 1642.5 31.5 0 S
1910 1624.25 0 31.5 S
1894.25 1640 31.5 0 S
1912 1622.25 0 31.5 S
1896.25 1638 31.5 0 S
1914.5 1619.75 0 31.5 S
1898.75 1635.5 31.5 0 S
1916.5 1617.75 0 31.5 S
1900.75 1633.5 31.5 0 S
1918.5 1615.25 0 31.5 S
1902.75 1631 31.5 0 S
1920.5 1613.25 0 31.5 S
1904.75 1629 31.5 0 S
1922.5 1610.75 0 31.5 S
1906.75 1626.5 31.5 0 S
1924.5 1608.25 0 31.5 S
1908.75 1624 31.5 0 S
1927 1606.25 0 31.5 S
1911.25 1622 31.5 0 S
1929 1603.75 0 31.5 S
1913.25 1619.5 31.5 0 S
1931 1601.25 0 31.5 S
1915.25 1617 31.5 0 S
1933 1598.75 0 31.5 S
1917.25 1614.5 31.5 0 S
1935 1596.25 0 31.5 S
1919.25 1612 31.5 0 S
1937 1593.75 0 31.5 S
1921.25 1609.5 31.5 0 S
1939.5 1591.25 0 31.5 S
1923.75 1607 31.5 0 S
1941.5 1588.75 0 31.5 S
1925.75 1604.5 31.5 0 S
1943.5 1586.25 0 31.5 S
1927.75 1602 31.5 0 S
1945.5 1583.75 0 31.5 S
1929.75 1599.5 31.5 0 S
1947.5 1581.25 0 31.5 S
1931.75 1597 31.5 0 S
1949.5 1578.25 0 31.5 S
1933.75 1594 31.5 0 S
1952 1575.25 0 31.5 S
1936.25 1591 31.5 0 S
1954 1572.75 0 31.5 S
1938.25 1588.5 31.5 0 S
1956 1569.75 0 31.5 S
1940.25 1585.5 31.5 0 S
1958 1567.25 0 31.5 S
1942.25 1583 31.5 0 S
1960 1564.75 0 31.5 S
1944.25 1580.5 31.5 0 S
1962 1562.25 0 31.5 S
1946.25 1578 31.5 0 S
1964.5 1559.25 0 31.5 S
1948.75 1575 31.5 0 S
1966.5 1556.75 0 31.5 S
1950.75 1572.5 31.5 0 S
1968.5 1553.75 0 31.5 S
1952.75 1569.5 31.5 0 S
1970.5 1551.25 0 31.5 S
1954.75 1567 31.5 0 S
1972.5 1548.75 0 31.5 S
1956.75 1564.5 31.5 0 S
1975 1545.75 0 31.5 S
1959.25 1561.5 31.5 0 S
1977 1543.25 0 31.5 S
1961.25 1559 31.5 0 S
1979 1540.75 0 31.5 S
1963.25 1556.5 31.5 0 S
1981 1537.75 0 31.5 S
1965.25 1553.5 31.5 0 S
1983 1535.25 0 31.5 S
1967.25 1551 31.5 0 S
1985 1532.75 0 31.5 S
1969.25 1548.5 31.5 0 S
1987.5 1529.25 0 31.5 S
1971.75 1545 31.5 0 S
1989.5 1526.75 0 31.5 S
1973.75 1542.5 31.5 0 S
1991.5 1524.25 0 31.5 S
1975.75 1540 31.5 0 S
1993.5 1520.75 0 31.5 S
1977.75 1536.5 31.5 0 S
1995.5 1518.75 0 31.5 S
1979.75 1534.5 31.5 0 S
1997.5 1515.75 0 31.5 S
1981.75 1531.5 31.5 0 S
2000 1512.75 0 31.5 S
1984.25 1528.5 31.5 0 S
2002 1509.75 0 31.5 S
1986.25 1525.5 31.5 0 S
2004 1506.25 0 31.5 S
1988.25 1522 31.5 0 S
2006 1503.75 0 31.5 S
1990.25 1519.5 31.5 0 S
2008 1500.75 0 31.5 S
1992.25 1516.5 31.5 0 S
2010 1497.75 0 31.5 S
1994.25 1513.5 31.5 0 S
2012.5 1494.25 0 31.5 S
1996.75 1510 31.5 0 S
2014.5 1492.25 0 31.5 S
1998.75 1508 31.5 0 S
2016.5 1489.25 0 31.5 S
2000.75 1505 31.5 0 S
2018.5 1486.25 0 31.5 S
2002.75 1502 31.5 0 S
2020.5 1482.75 0 31.5 S
2004.75 1498.5 31.5 0 S
2022.5 1480.25 0 31.5 S
2006.75 1496 31.5 0 S
2025 1477.75 0 31.5 S
2009.25 1493.5 31.5 0 S
2027 1474.75 0 31.5 S
2011.25 1490.5 31.5 0 S
2029 1471.25 0 31.5 S
2013.25 1487 31.5 0 S
2031 1467.75 0 31.5 S
2015.25 1483.5 31.5 0 S
2033 1464.75 0 31.5 S
2017.25 1480.5 31.5 0 S
2035 1462.25 0 31.5 S
2019.25 1478 31.5 0 S
2037.5 1459.25 0 31.5 S
2021.75 1475 31.5 0 S
2039.5 1455.75 0 31.5 S
2023.75 1471.5 31.5 0 S
2041.5 1452.75 0 31.5 S
2025.75 1468.5 31.5 0 S
2043.5 1449.25 0 31.5 S
2027.75 1465 31.5 0 S
2045.5 1445.75 0 31.5 S
2029.75 1461.5 31.5 0 S
2047.5 1442.75 0 31.5 S
2031.75 1458.5 31.5 0 S
2050 1439.25 0 31.5 S
2034.25 1455 31.5 0 S
2052 1436.25 0 31.5 S
2036.25 1452 31.5 0 S
2054 1433.75 0 31.5 S
2038.25 1449.5 31.5 0 S
2056 1430.25 0 31.5 S
2040.25 1446 31.5 0 S
2058 1426.25 0 31.5 S
2042.25 1442 31.5 0 S
2060 1422.75 0 31.5 S
2044.25 1438.5 31.5 0 S
2062.5 1419.75 0 31.5 S
2046.75 1435.5 31.5 0 S
2064.5 1416.75 0 31.5 S
2048.75 1432.5 31.5 0 S
2066.5 1414.25 0 31.5 S
2050.75 1430 31.5 0 S
2068.5 1411.25 0 31.5 S
2052.75 1427 31.5 0 S
2070.5 1407.25 0 31.5 S
2054.75 1423 31.5 0 S
2072.5 1403.75 0 31.5 S
2056.75 1419.5 31.5 0 S
2075 1400.75 0 31.5 S
2059.25 1416.5 31.5 0 S
2077 1397.25 0 31.5 S
2061.25 1413 31.5 0 S
2079 1393.25 0 31.5 S
2063.25 1409 31.5 0 S
2081 1390.25 0 31.5 S
2065.25 1406 31.5 0 S
2083 1386.25 0 31.5 S
2067.25 1402 31.5 0 S
2085.5 1383.25 0 31.5 S
2069.75 1399 31.5 0 S
2087.5 1380.25 0 31.5 S
2071.75 1396 31.5 0 S
2089.5 1376.75 0 31.5 S
2073.75 1392.5 31.5 0 S
2091.5 1372.75 0 31.5 S
2075.75 1388.5 31.5 0 S
2093.5 1368.75 0 31.5 S
2077.75 1384.5 31.5 0 S
2095.5 1366.25 0 31.5 S
2079.75 1382 31.5 0 S
2098 1362.25 0 31.5 S
2082.25 1378 31.5 0 S
2100 1358.25 0 31.5 S
2084.25 1374 31.5 0 S
2102 1354.75 0 31.5 S
2086.25 1370.5 31.5 0 S
2104 1351.75 0 31.5 S
2088.25 1367.5 31.5 0 S
2106 1348.75 0 31.5 S
2090.25 1364.5 31.5 0 S
2108 1346.25 0 31.5 S
2092.25 1362 31.5 0 S
2110.5 1342.75 0 31.5 S
2094.75 1358.5 31.5 0 S
2112.5 1339.75 0 31.5 S
2096.75 1355.5 31.5 0 S
2114.5 1337.25 0 31.5 S
2098.75 1353 31.5 0 S
2116.5 1333.25 0 31.5 S
2100.75 1349 31.5 0 S
2118.5 1329.25 0 31.5 S
2102.75 1345 31.5 0 S
2120.5 1325.75 0 31.5 S
2104.75 1341.5 31.5 0 S
2123 1321.75 0 31.5 S
2107.25 1337.5 31.5 0 S
2125 1317.75 0 31.5 S
2109.25 1333.5 31.5 0 S
2127 1314.25 0 31.5 S
2111.25 1330 31.5 0 S
2129 1311.75 0 31.5 S
2113.25 1327.5 31.5 0 S
2131 1308.25 0 31.5 S
2115.25 1324 31.5 0 S
2133 1303.75 0 31.5 S
2117.25 1319.5 31.5 0 S
2135.5 1299.75 0 31.5 S
2119.75 1315.5 31.5 0 S
2137.5 1295.25 0 31.5 S
2121.75 1311 31.5 0 S
2139.5 1291.25 0 31.5 S
2123.75 1307 31.5 0 S
2141.5 1285.75 0 31.5 S
2125.75 1301.5 31.5 0 S
2143.5 1281.75 0 31.5 S
2127.75 1297.5 31.5 0 S
2145.5 1279.25 0 31.5 S
2129.75 1295 31.5 0 S
2148 1275.75 0 31.5 S
2132.25 1291.5 31.5 0 S
2150 1272.75 0 31.5 S
2134.25 1288.5 31.5 0 S
2152 1266.75 0 31.5 S
2136.25 1282.5 31.5 0 S
2154 1262.75 0 31.5 S
2138.25 1278.5 31.5 0 S
2156 1257.75 0 31.5 S
2140.25 1273.5 31.5 0 S
2158 1252.75 0 31.5 S
2142.25 1268.5 31.5 0 S
2160.5 1249.75 0 31.5 S
2144.75 1265.5 31.5 0 S
2162.5 1244.75 0 31.5 S
2146.75 1260.5 31.5 0 S
2164.5 1241.25 0 31.5 S
2148.75 1257 31.5 0 S
2166.5 1236.75 0 31.5 S
2150.75 1252.5 31.5 0 S
2168.5 1232.25 0 31.5 S
2152.75 1248 31.5 0 S
2170.5 1229.75 0 31.5 S
2154.75 1245.5 31.5 0 S
2173 1223.75 0 31.5 S
2157.25 1239.5 31.5 0 S
2175 1220.25 0 31.5 S
2159.25 1236 31.5 0 S
2177 1215.75 0 31.5 S
2161.25 1231.5 31.5 0 S
2179 1209.75 0 31.5 S
2163.25 1225.5 31.5 0 S
2181 1208.75 0 31.5 S
2165.25 1224.5 31.5 0 S
2183.5 1206.25 0 31.5 S
2167.75 1222 31.5 0 S
2185.5 1201.75 0 31.5 S
2169.75 1217.5 31.5 0 S
2187.5 1196.75 0 31.5 S
2171.75 1212.5 31.5 0 S
2189.5 1193.25 0 31.5 S
2173.75 1209 31.5 0 S
2191.5 1189.75 0 31.5 S
2175.75 1205.5 31.5 0 S
2193.5 1185.25 0 31.5 S
2177.75 1201 31.5 0 S
2196 1181.25 0 31.5 S
2180.25 1197 31.5 0 S
2198 1174.75 0 31.5 S
2182.25 1190.5 31.5 0 S
2200 1172.25 0 31.5 S
2184.25 1188 31.5 0 S
2202 1169.75 0 31.5 S
2186.25 1185.5 31.5 0 S
2204 1160.75 0 31.5 S
2188.25 1176.5 31.5 0 S
2206 1159.25 0 31.5 S
2190.25 1175 31.5 0 S
2208.5 1153.25 0 31.5 S
2192.75 1169 31.5 0 S
2210.5 1146.75 0 31.5 S
2194.75 1162.5 31.5 0 S
2212.5 1140.75 0 31.5 S
2196.75 1156.5 31.5 0 S
2214.5 1134.25 0 31.5 S
2198.75 1150 31.5 0 S
2216.5 1131.25 0 31.5 S
2200.75 1147 31.5 0 S
2218.5 1127.75 0 31.5 S
2202.75 1143.5 31.5 0 S
2221 1123.25 0 31.5 S
2205.25 1139 31.5 0 S
2223 1119.75 0 31.5 S
2207.25 1135.5 31.5 0 S
2225 1113.75 0 31.5 S
2209.25 1129.5 31.5 0 S
2227 1110.75 0 31.5 S
2211.25 1126.5 31.5 0 S
2229 1102.25 0 31.5 S
2213.25 1118 31.5 0 S
2231 1099.25 0 31.5 S
2215.25 1115 31.5 0 S
2233.5 1096.75 0 31.5 S
2217.75 1112.5 31.5 0 S
2235.5 1092.25 0 31.5 S
2219.75 1108 31.5 0 S
2237.5 1089.75 0 31.5 S
2221.75 1105.5 31.5 0 S
2239.5 1087.25 0 31.5 S
2223.75 1103 31.5 0 S
2241.5 1083.25 0 31.5 S
2225.75 1099 31.5 0 S
2243.5 1077.75 0 31.5 S
2227.75 1093.5 31.5 0 S
2246 1069.25 0 31.5 S
2230.25 1085 31.5 0 S
2248 1066.25 0 31.5 S
2232.25 1082 31.5 0 S
2250 1060.25 0 31.5 S
2234.25 1076 31.5 0 S
2252 1058.25 0 31.5 S
2236.25 1074 31.5 0 S
2254 1055.25 0 31.5 S
2238.25 1071 31.5 0 S
2256 1049.75 0 31.5 S
2240.25 1065.5 31.5 0 S
2258.5 1038.75 0 31.5 S
2242.75 1054.5 31.5 0 S
2264.5 1034.75 0 31.5 S
2248.75 1050.5 31.5 0 S
2266.5 1032.75 0 31.5 S
2250.75 1048.5 31.5 0 S
2268.5 1026.25 0 31.5 S
2252.75 1042 31.5 0 S
2271 1021.75 0 31.5 S
2255.25 1037.5 31.5 0 S
2273 1016.75 0 31.5 S
2257.25 1032.5 31.5 0 S
2275 1011.75 0 31.5 S
2259.25 1027.5 31.5 0 S
2277 1009.25 0 31.5 S
2261.25 1025 31.5 0 S
2279 998.75 0 31.5 S
2263.25 1014.5 31.5 0 S
2281 992.75 0 31.5 S
2265.25 1008.5 31.5 0 S
2283.5 989.75 0 31.5 S
2267.75 1005.5 31.5 0 S
2285.5 986.75 0 31.5 S
2269.75 1002.5 31.5 0 S
2287.5 969.25 0 31.5 S
2271.75 985 31.5 0 S
2291.5 965.25 0 31.5 S
2275.75 981 31.5 0 S
2294 961.75 0 31.5 S
2278.25 977.5 31.5 0 S
2298 957.25 0 31.5 S
2282.25 973 31.5 0 S
2302 944.25 0 31.5 S
2286.25 960 31.5 0 S
2312.5 928.75 0 31.5 S
2296.75 944.5 31.5 0 S
2319 923.25 0 31.5 S
2303.25 939 31.5 0 S
2321 917.75 0 31.5 S
2305.25 933.5 31.5 0 S
2325 911.25 0 31.5 S
2309.25 927 31.5 0 S
2329 904.75 0 31.5 S
2313.25 920.5 31.5 0 S
2333.5 897.75 0 31.5 S
2317.75 913.5 31.5 0 S
2335.5 882.25 0 31.5 S
2319.75 898 31.5 0 S
2337.5 873.75 0 31.5 S
2321.75 889.5 31.5 0 S
2344 864.25 0 31.5 S
2328.25 880 31.5 0 S
2346 853.75 0 31.5 S
2330.25 869.5 31.5 0 S
2350 829.75 0 31.5 S
2334.25 845.5 31.5 0 S
2354 798.25 0 31.5 S
2338.25 814 31.5 0 S
2360.5 778.75 0 31.5 S
2344.75 794.5 31.5 0 S
2375 754.75 0 31.5 S
2359.25 770.5 31.5 0 S
2381.5 723.25 0 31.5 S
2365.75 739 31.5 0 S
2392 679.25 0 31.5 S
2376.25 695 31.5 0 S
2404.5 604.25 0 31.5 S
2388.75 620 31.5 0 S
5 w
926 620 1668 1248 re
S
cleartomark end end pagesave restore
 showpage
%%PageTrailer
%%Trailer
%%Pages: 1
