%!PS-Adobe-3.0 EPSF-3.0
%%BoundingBox: 67 53 267 190
%%HiResBoundingBox: 67.400000 53.600000 266.600000 189.500000
%.....................................
%%Creator: GPL Ghostscript 871 (epswrite)
%%CreationDate: 2012/01/28 17:04:46
%%DocumentData: Clean7Bit
%%LanguageLevel: 2
%%EndComments
%%BeginProlog
% This copyright applies to everything between here and the %%EndProlog:
% Copyright (C) 2010 Artifex Software, Inc.  All rights reserved.
%%BeginResource: procset GS_epswrite_2_0_1001 1.001 0
/GS_epswrite_2_0_1001 80 dict dup begin
/PageSize 2 array def/setpagesize{ PageSize aload pop 3 index eq exch
4 index eq and{ pop pop pop}{ PageSize dup  1
5 -1 roll put 0 4 -1 roll put dup null eq {false} {dup where} ifelse{ exch get exec}
{ pop/setpagedevice where
{ pop 1 dict dup /PageSize PageSize put setpagedevice}
{ /setpage where{ pop PageSize aload pop pageparams 3 {exch pop} repeat
setpage}if}ifelse}ifelse}ifelse} bind def
/!{bind def}bind def/#{load def}!/N/counttomark #
/rG{3{3 -1 roll 255 div}repeat setrgbcolor}!/G{255 div setgray}!/K{0 G}!
/r6{dup 3 -1 roll rG}!/r5{dup 3 1 roll rG}!/r3{dup rG}!
/w/setlinewidth #/J/setlinecap #
/j/setlinejoin #/M/setmiterlimit #/d/setdash #/i/setflat #
/m/moveto #/l/lineto #/c/rcurveto #
/p{N 2 idiv{N -2 roll rlineto}repeat}!
/P{N 0 gt{N -2 roll moveto p}if}!
/h{p closepath}!/H{P closepath}!
/lx{0 rlineto}!/ly{0 exch rlineto}!/v{0 0 6 2 roll c}!/y{2 copy c}!
/re{4 -2 roll m exch dup lx exch ly neg lx h}!
/^{3 index neg 3 index neg}!
/f{P fill}!/f*{P eofill}!/s{H stroke}!/S{P stroke}!
/q/gsave #/Q/grestore #/rf{re fill}!
/Y{P clip newpath}!/Y*{P eoclip newpath}!/rY{re Y}!
/|={pop exch 4 1 roll 1 array astore cvx 3 array astore cvx exch 1 index def exec}!
/|{exch string readstring |=}!
/+{dup type/nametype eq{2 index 7 add -3 bitshift 2 index mul}if}!
/@/currentfile #/${+ @ |}!
/B{{2 copy string{readstring pop}aload pop 4 array astore cvx
3 1 roll}repeat pop pop true}!
/Ix{[1 0 0 1 11 -2 roll exch neg exch neg]exch}!
/,{true exch Ix imagemask}!/If{false exch Ix imagemask}!/I{exch Ix image}!
/Ic{exch Ix false 3 colorimage}!
/F{/Columns counttomark 3 add -2 roll/Rows exch/K -1/BlackIs1 true>>
/CCITTFaxDecode filter}!/FX{<</EndOfBlock false F}!
/X{/ASCII85Decode filter}!/@X{@ X}!/&2{2 index 2 index}!
/@F{@ &2<<F}!/@C{@X &2 FX}!
/$X{+ @X |}!/&4{4 index 4 index}!/$F{+ @ &4<<F |}!/$C{+ @X &4 FX |}!
/IC{3 1 roll 10 dict begin 1{/ImageType/Interpolate/Decode/DataSource
/ImageMatrix/BitsPerComponent/Height/Width}{exch def}forall
currentdict end image}!
/~{@ read {pop} if}!
end def
%%EndResource
/pagesave null def
%%EndProlog
%%Page: 1 1
%%BeginPageSetup
GS_epswrite_2_0_1001 begin
/pagesave save store 197 dict begin
0.1 0.1 scale
%%EndPageSetup
gsave mark
Q q
0 0 250000 250000 re
Y
5 w
K
824.5 610 31.5 0 P
2599.5 610 -31.5 0 S
766 592 14 39 /3U
$X
!.4co!.4co!.4co!.4co!.4co!.4co!.4co!.4co!.4co!.4co!.4co!.4co!.4co!.4coJ,Ffo
J,CDd!W2rq!.4c/!'C6D!#t~>
,
824.5 737 15.5 0 P
2599.5 737 -15.5 0 P
824.5 811 15.5 0 P
2599.5 811 -15.5 0 P
824.5 863.5 15.5 0 P
2599.5 863.5 -15.5 0 P
824.5 904.5 15.5 0 P
2599.5 904.5 -15.5 0 P
824.5 938 15.5 0 P
2599.5 938 -15.5 0 P
824.5 966 15.5 0 P
2599.5 966 -15.5 0 P
824.5 990.5 15.5 0 P
2599.5 990.5 -15.5 0 P
824.5 1012 15.5 0 P
2599.5 1012 -15.5 0 P
824.5 1031.5 31.5 0 P
2599.5 1031.5 -31.5 0 S
735 1013 3U ,
758 1012 31 40 /6U
$C
3XZ3SFQf&P:$Ln$qG%"iUu24Ps8W-![[7$kBn'o8.qrM$$n,OL~>
,
824.5 1158 15.5 0 P
2599.5 1158 -15.5 0 P
824.5 1232.5 15.5 0 P
2599.5 1232.5 -15.5 0 P
824.5 1285 15.5 0 P
2599.5 1285 -15.5 0 P
824.5 1326 15.5 0 P
2599.5 1326 -15.5 0 P
824.5 1359 15.5 0 P
2599.5 1359 -15.5 0 P
824.5 1387.5 15.5 0 P
2599.5 1387.5 -15.5 0 P
824.5 1412 15.5 0 P
2599.5 1412 -15.5 0 P
824.5 1433.5 15.5 0 P
2599.5 1433.5 -15.5 0 P
824.5 1452.5 31.5 0 P
2599.5 1452.5 -31.5 0 S
705 1434 3U ,
727 1433 6U ,
758 1433 6U ,
824.5 1579.5 15.5 0 P
2599.5 1579.5 -15.5 0 P
824.5 1653.5 15.5 0 P
2599.5 1653.5 -15.5 0 P
824.5 1706.5 15.5 0 P
2599.5 1706.5 -15.5 0 P
824.5 1747 15.5 0 P
2599.5 1747 -15.5 0 P
824.5 1780.5 15.5 0 P
2599.5 1780.5 -15.5 0 P
824.5 1808.5 15.5 0 P
2599.5 1808.5 -15.5 0 P
824.5 1833 15.5 0 P
2599.5 1833 -15.5 0 P
824.5 1854.5 15.5 0 P
2599.5 1854.5 -15.5 0 P
824.5 1874 31.5 0 P
2599.5 1874 -31.5 0 S
674 1856 3U ,
697 1855 6U ,
727 1855 6U ,
758 1855 6U ,
824.5 610 0 31.5 P
824.5 1874 0 -31.5 S
822 537 3U ,
1002.5 610 0 15.5 P
1002.5 1874 0 -15.5 P
1107 610 0 15.5 P
1107 1874 0 -15.5 P
1180.5 610 0 15.5 P
1180.5 1874 0 -15.5 P
1238 610 0 15.5 P
1238 1874 0 -15.5 P
1285 610 0 15.5 P
1285 1874 0 -15.5 P
1324.5 610 0 15.5 P
1324.5 1874 0 -15.5 P
1359 610 0 15.5 P
1359 1874 0 -15.5 P
1389 610 0 15.5 P
1389 1874 0 -15.5 P
1416 610 0 31.5 P
1416 1874 0 -31.5 S
1398 537 3U ,
1421 536 6U ,
1594.5 610 0 15.5 P
1594.5 1874 0 -15.5 P
1698.5 610 0 15.5 P
1698.5 1874 0 -15.5 P
1772.5 610 0 15.5 P
1772.5 1874 0 -15.5 P
1829.5 610 0 15.5 P
1829.5 1874 0 -15.5 P
1876.5 610 0 15.5 P
1876.5 1874 0 -15.5 P
1916 610 0 15.5 P
1916 1874 0 -15.5 P
1950.5 610 0 15.5 P
1950.5 1874 0 -15.5 P
1981 610 0 15.5 P
1981 1874 0 -15.5 P
2008 610 0 31.5 P
2008 1874 0 -31.5 S
1975 537 3U ,
1997 536 6U ,
2028 536 6U ,
2186 610 0 15.5 P
2186 1874 0 -15.5 P
2290 610 0 15.5 P
2290 1874 0 -15.5 P
2364 610 0 15.5 P
2364 1874 0 -15.5 P
2421.5 610 0 15.5 P
2421.5 1874 0 -15.5 P
2468 610 0 15.5 P
2468 1874 0 -15.5 P
2508 610 0 15.5 P
2508 1874 0 -15.5 P
2542 610 0 15.5 P
2542 1874 0 -15.5 P
2572.5 610 0 15.5 P
2572.5 1874 0 -15.5 P
2599.5 610 0 31.5 P
2599.5 1874 0 -31.5 S
2551 537 3U ,
2574 536 6U ,
2604 536 6U ,
2635 536 6U ,
824.5 610 1775 1264 re
S
2.5 w
824.5 1643.75 0 31.5 S
808.75 1659.5 31.5 0 S
1002.5 1634.75 0 31.5 S
986.75 1650.5 31.5 0 S
1107 1645.75 0 31.5 S
1091.25 1661.5 31.5 0 S
1180.5 1638.75 0 31.5 S
1164.75 1654.5 31.5 0 S
1238 1649.75 0 31.5 S
1222.25 1665.5 31.5 0 S
1285 1642.25 0 31.5 S
1269.25 1658 31.5 0 S
1324.5 1636.75 0 31.5 S
1308.75 1652.5 31.5 0 S
1359 1659.25 0 31.5 S
1343.25 1675 31.5 0 S
1389 1659.75 0 31.5 S
1373.25 1675.5 31.5 0 S
1416 1664.75 0 31.5 S
1400.25 1680.5 31.5 0 S
1440.5 1679.25 0 31.5 S
1424.75 1695 31.5 0 S
1463 1666.25 0 31.5 S
1447.25 1682 31.5 0 S
1483.5 1658.75 0 31.5 S
1467.75 1674.5 31.5 0 S
1502.5 1657.25 0 31.5 S
1486.75 1673 31.5 0 S
1520.5 1675.75 0 31.5 S
1504.75 1691.5 31.5 0 S
1537 1673.25 0 31.5 S
1521.25 1689 31.5 0 S
1552.5 1679.25 0 31.5 S
1536.75 1695 31.5 0 S
1567 1674.75 0 31.5 S
1551.25 1690.5 31.5 0 S
1581 1687.25 0 31.5 S
1565.25 1703 31.5 0 S
1594.5 1690.25 0 31.5 S
1578.75 1706 31.5 0 S
1607 1685.75 0 31.5 S
1591.25 1701.5 31.5 0 S
1619 1678.75 0 31.5 S
1603.25 1694.5 31.5 0 S
1630 1675.75 0 31.5 S
1614.25 1691.5 31.5 0 S
1641 1679.25 0 31.5 S
1625.25 1695 31.5 0 S
1651.5 1688.75 0 31.5 S
1635.75 1704.5 31.5 0 S
1661.5 1702.25 0 31.5 S
1645.75 1718 31.5 0 S
1671.5 1688.25 0 31.5 S
1655.75 1704 31.5 0 S
1680.5 1671.25 0 31.5 S
1664.75 1687 31.5 0 S
1690 1691.25 0 31.5 S
1674.25 1707 31.5 0 S
1698.5 1691.75 0 31.5 S
1682.75 1707.5 31.5 0 S
1707 1681.25 0 31.5 S
1691.25 1697 31.5 0 S
1715 1701.75 0 31.5 S
1699.25 1717.5 31.5 0 S
1723 1717.75 0 31.5 S
1707.25 1733.5 31.5 0 S
1730.5 1692.75 0 31.5 S
1714.75 1708.5 31.5 0 S
1738 1713.25 0 31.5 S
1722.25 1729 31.5 0 S
1745.5 1698.75 0 31.5 S
1729.75 1714.5 31.5 0 S
1752.5 1702.25 0 31.5 S
1736.75 1718 31.5 0 S
1759 1708.25 0 31.5 S
1743.25 1724 31.5 0 S
1766 1714.25 0 31.5 S
1750.25 1730 31.5 0 S
1772.5 1719.75 0 31.5 S
1756.75 1735.5 31.5 0 S
1778.5 1707.75 0 31.5 S
1762.75 1723.5 31.5 0 S
1785 1710.75 0 31.5 S
1769.25 1726.5 31.5 0 S
1791 1696.75 0 31.5 S
1775.25 1712.5 31.5 0 S
1797 1714.25 0 31.5 S
1781.25 1730 31.5 0 S
1802.5 1721.25 0 31.5 S
1786.75 1737 31.5 0 S
1808.5 1713.75 0 31.5 S
1792.75 1729.5 31.5 0 S
1814 1731.25 0 31.5 S
1798.25 1747 31.5 0 S
1819 1717.75 0 31.5 S
1803.25 1733.5 31.5 0 S
1824.5 1731.75 0 31.5 S
1808.75 1747.5 31.5 0 S
1829.5 1716.75 0 31.5 S
1813.75 1732.5 31.5 0 S
1835 1722.25 0 31.5 S
1819.25 1738 31.5 0 S
1840 1701.75 0 31.5 S
1824.25 1717.5 31.5 0 S
1844.5 1713.75 0 31.5 S
1828.75 1729.5 31.5 0 S
1849.5 1712.75 0 31.5 S
1833.75 1728.5 31.5 0 S
1854 1726.75 0 31.5 S
1838.25 1742.5 31.5 0 S
1859 1714.25 0 31.5 S
1843.25 1730 31.5 0 S
1863.5 1732.75 0 31.5 S
1847.75 1748.5 31.5 0 S
1868 1705.75 0 31.5 S
1852.25 1721.5 31.5 0 S
1872.5 1733.75 0 31.5 S
1856.75 1749.5 31.5 0 S
1876.5 1719.75 0 31.5 S
1860.75 1735.5 31.5 0 S
1881 1721.75 0 31.5 S
1865.25 1737.5 31.5 0 S
1885 1719.25 0 31.5 S
1869.25 1735 31.5 0 S
1889 1722.25 0 31.5 S
1873.25 1738 31.5 0 S
1893 1723.75 0 31.5 S
1877.25 1739.5 31.5 0 S
1897 1722.75 0 31.5 S
1881.25 1738.5 31.5 0 S
1901 1736.25 0 31.5 S
1885.25 1752 31.5 0 S
1905 1726.75 0 31.5 S
1889.25 1742.5 31.5 0 S
1908.5 1712.25 0 31.5 S
1892.75 1728 31.5 0 S
1912.5 1722.25 0 31.5 S
1896.75 1738 31.5 0 S
1916 1741.25 0 31.5 S
1900.25 1757 31.5 0 S
1920 1723.25 0 31.5 S
1904.25 1739 31.5 0 S
1923.5 1742.25 0 31.5 S
1907.75 1758 31.5 0 S
1927 1736.25 0 31.5 S
1911.25 1752 31.5 0 S
1930.5 1736.25 0 31.5 S
1914.75 1752 31.5 0 S
1934 1718.75 0 31.5 S
1918.25 1734.5 31.5 0 S
1937.5 1722.25 0 31.5 S
1921.75 1738 31.5 0 S
1940.5 1720.75 0 31.5 S
1924.75 1736.5 31.5 0 S
1944 1745.25 0 31.5 S
1928.25 1761 31.5 0 S
1947.5 1722.25 0 31.5 S
1931.75 1738 31.5 0 S
1950.5 1726.75 0 31.5 S
1934.75 1742.5 31.5 0 S
1953.5 1730.75 0 31.5 S
1937.75 1746.5 31.5 0 S
1957 1729.75 0 31.5 S
1941.25 1745.5 31.5 0 S
1960 1724.75 0 31.5 S
1944.25 1740.5 31.5 0 S
1963 1723.25 0 31.5 S
1947.25 1739 31.5 0 S
1966 1716.25 0 31.5 S
1950.25 1732 31.5 0 S
1969 1732.75 0 31.5 S
1953.25 1748.5 31.5 0 S
1972 1738.25 0 31.5 S
1956.25 1754 31.5 0 S
1975 1737.75 0 31.5 S
1959.25 1753.5 31.5 0 S
1978 1726.75 0 31.5 S
1962.25 1742.5 31.5 0 S
1981 1723.75 0 31.5 S
1965.25 1739.5 31.5 0 S
1983.5 1723.25 0 31.5 S
1967.75 1739 31.5 0 S
1986.5 1733.75 0 31.5 S
1970.75 1749.5 31.5 0 S
1989 1736.25 0 31.5 S
1973.25 1752 31.5 0 S
1992 1721.25 0 31.5 S
1976.25 1737 31.5 0 S
1994.5 1732.75 0 31.5 S
1978.75 1748.5 31.5 0 S
1997.5 1730.75 0 31.5 S
1981.75 1746.5 31.5 0 S
2000 1722.25 0 31.5 S
1984.25 1738 31.5 0 S
2002.5 1719.75 0 31.5 S
1986.75 1735.5 31.5 0 S
2005.5 1728.25 0 31.5 S
1989.75 1744 31.5 0 S
2008 1739.75 0 31.5 S
1992.25 1755.5 31.5 0 S
2010.5 1737.75 0 31.5 S
1994.75 1753.5 31.5 0 S
2013 1733.75 0 31.5 S
1997.25 1749.5 31.5 0 S
2015.5 1723.75 0 31.5 S
1999.75 1739.5 31.5 0 S
2018 1714.75 0 31.5 S
2002.25 1730.5 31.5 0 S
2020.5 1717.25 0 31.5 S
2004.75 1733 31.5 0 S
2023 1726.25 0 31.5 S
2007.25 1742 31.5 0 S
2025 1713.25 0 31.5 S
2009.25 1729 31.5 0 S
2027.5 1730.75 0 31.5 S
2011.75 1746.5 31.5 0 S
2030 1710.25 0 31.5 S
2014.25 1726 31.5 0 S
2032.5 1728.75 0 31.5 S
2016.75 1744.5 31.5 0 S
2034.5 1707.75 0 31.5 S
2018.75 1723.5 31.5 0 S
2037 1705.75 0 31.5 S
2021.25 1721.5 31.5 0 S
2039 1717.75 0 31.5 S
2023.25 1733.5 31.5 0 S
2041.5 1714.25 0 31.5 S
2025.75 1730 31.5 0 S
2043.5 1721.75 0 31.5 S
2027.75 1737.5 31.5 0 S
2046 1718.25 0 31.5 S
2030.25 1734 31.5 0 S
2048 1719.25 0 31.5 S
2032.25 1735 31.5 0 S
2050.5 1718.75 0 31.5 S
2034.75 1734.5 31.5 0 S
2052.5 1703.75 0 31.5 S
2036.75 1719.5 31.5 0 S
2054.5 1724.75 0 31.5 S
2038.75 1740.5 31.5 0 S
2057 1714.25 0 31.5 S
2041.25 1730 31.5 0 S
2059 1712.75 0 31.5 S
2043.25 1728.5 31.5 0 S
2061 1695.25 0 31.5 S
2045.25 1711 31.5 0 S
2063 1696.75 0 31.5 S
2047.25 1712.5 31.5 0 S
2065 1696.75 0 31.5 S
2049.25 1712.5 31.5 0 S
2067 1707.25 0 31.5 S
2051.25 1723 31.5 0 S
2069.5 1695.75 0 31.5 S
2053.75 1711.5 31.5 0 S
2071.5 1692.75 0 31.5 S
2055.75 1708.5 31.5 0 S
2073.5 1698.75 0 31.5 S
2057.75 1714.5 31.5 0 S
2075 1711.75 0 31.5 S
2059.25 1727.5 31.5 0 S
2077 1698.75 0 31.5 S
2061.25 1714.5 31.5 0 S
2079 1702.75 0 31.5 S
2063.25 1718.5 31.5 0 S
2081 1696.25 0 31.5 S
2065.25 1712 31.5 0 S
2083 1689.25 0 31.5 S
2067.25 1705 31.5 0 S
2085 1687.75 0 31.5 S
2069.25 1703.5 31.5 0 S
2087 1680.25 0 31.5 S
2071.25 1696 31.5 0 S
2088.5 1679.25 0 31.5 S
2072.75 1695 31.5 0 S
2090.5 1692.25 0 31.5 S
2074.75 1708 31.5 0 S
2092.5 1674.25 0 31.5 S
2076.75 1690 31.5 0 S
2094.5 1658.75 0 31.5 S
2078.75 1674.5 31.5 0 S
2096 1674.75 0 31.5 S
2080.25 1690.5 31.5 0 S
2098 1689.75 0 31.5 S
2082.25 1705.5 31.5 0 S
2099.5 1677.75 0 31.5 S
2083.75 1693.5 31.5 0 S
2101.5 1664.25 0 31.5 S
2085.75 1680 31.5 0 S
2103.5 1663.75 0 31.5 S
2087.75 1679.5 31.5 0 S
2105 1674.25 0 31.5 S
2089.25 1690 31.5 0 S
2107 1664.75 0 31.5 S
2091.25 1680.5 31.5 0 S
2108.5 1687.75 0 31.5 S
2092.75 1703.5 31.5 0 S
2110.5 1661.25 0 31.5 S
2094.75 1677 31.5 0 S
2112 1658.25 0 31.5 S
2096.25 1674 31.5 0 S
2113.5 1643.75 0 31.5 S
2097.75 1659.5 31.5 0 S
2115.5 1662.75 0 31.5 S
2099.75 1678.5 31.5 0 S
2117 1645.75 0 31.5 S
2101.25 1661.5 31.5 0 S
2119 1645.75 0 31.5 S
2103.25 1661.5 31.5 0 S
2120.5 1640.75 0 31.5 S
2104.75 1656.5 31.5 0 S
2122 1655.25 0 31.5 S
2106.25 1671 31.5 0 S
2123.5 1628.75 0 31.5 S
2107.75 1644.5 31.5 0 S
2125.5 1641.75 0 31.5 S
2109.75 1657.5 31.5 0 S
2127 1648.75 0 31.5 S
2111.25 1664.5 31.5 0 S
2128.5 1644.75 0 31.5 S
2112.75 1660.5 31.5 0 S
2130 1625.25 0 31.5 S
2114.25 1641 31.5 0 S
2132 1636.25 0 31.5 S
2116.25 1652 31.5 0 S
2133.5 1624.25 0 31.5 S
2117.75 1640 31.5 0 S
2135 1611.75 0 31.5 S
2119.25 1627.5 31.5 0 S
2136.5 1632.75 0 31.5 S
2120.75 1648.5 31.5 0 S
2138 1617.25 0 31.5 S
2122.25 1633 31.5 0 S
2139.5 1637.25 0 31.5 S
2123.75 1653 31.5 0 S
2141 1599.25 0 31.5 S
2125.25 1615 31.5 0 S
2142.5 1617.75 0 31.5 S
2126.75 1633.5 31.5 0 S
2144 1618.75 0 31.5 S
2128.25 1634.5 31.5 0 S
2145.5 1626.75 0 31.5 S
2129.75 1642.5 31.5 0 S
2147 1606.75 0 31.5 S
2131.25 1622.5 31.5 0 S
2148.5 1609.75 0 31.5 S
2132.75 1625.5 31.5 0 S
2150 1600.75 0 31.5 S
2134.25 1616.5 31.5 0 S
2151.5 1598.75 0 31.5 S
2135.75 1614.5 31.5 0 S
2153 1594.25 0 31.5 S
2137.25 1610 31.5 0 S
2154.5 1578.75 0 31.5 S
2138.75 1594.5 31.5 0 S
2156 1606.75 0 31.5 S
2140.25 1622.5 31.5 0 S
2157.5 1582.75 0 31.5 S
2141.75 1598.5 31.5 0 S
2159 1580.25 0 31.5 S
2143.25 1596 31.5 0 S
2160.5 1582.75 0 31.5 S
2144.75 1598.5 31.5 0 S
2161.5 1593.25 0 31.5 S
2145.75 1609 31.5 0 S
2163 1576.25 0 31.5 S
2147.25 1592 31.5 0 S
2164.5 1581.25 0 31.5 S
2148.75 1597 31.5 0 S
2166 1569.25 0 31.5 S
2150.25 1585 31.5 0 S
2167.5 1577.75 0 31.5 S
2151.75 1593.5 31.5 0 S
2168.5 1576.25 0 31.5 S
2152.75 1592 31.5 0 S
2170 1568.25 0 31.5 S
2154.25 1584 31.5 0 S
2171.5 1557.25 0 31.5 S
2155.75 1573 31.5 0 S
2173 1572.75 0 31.5 S
2157.25 1588.5 31.5 0 S
2174 1556.25 0 31.5 S
2158.25 1572 31.5 0 S
2175.5 1581.25 0 31.5 S
2159.75 1597 31.5 0 S
2177 1565.75 0 31.5 S
2161.25 1581.5 31.5 0 S
2178 1568.25 0 31.5 S
2162.25 1584 31.5 0 S
2179.5 1525.25 0 31.5 S
2163.75 1541 31.5 0 S
2181 1540.25 0 31.5 S
2165.25 1556 31.5 0 S
2182 1524.25 0 31.5 S
2166.25 1540 31.5 0 S
2183.5 1532.75 0 31.5 S
2167.75 1548.5 31.5 0 S
2184.5 1535.25 0 31.5 S
2168.75 1551 31.5 0 S
2186 1517.25 0 31.5 S
2170.25 1533 31.5 0 S
2187 1518.25 0 31.5 S
2171.25 1534 31.5 0 S
2188.5 1515.75 0 31.5 S
2172.75 1531.5 31.5 0 S
2190 1499.75 0 31.5 S
2174.25 1515.5 31.5 0 S
2191 1519.25 0 31.5 S
2175.25 1535 31.5 0 S
2192.5 1457.75 0 31.5 S
2176.75 1473.5 31.5 0 S
2193.5 1515.75 0 31.5 S
2177.75 1531.5 31.5 0 S
2195 1484.75 0 31.5 S
2179.25 1500.5 31.5 0 S
2196 1486.25 0 31.5 S
2180.25 1502 31.5 0 S
2197.5 1528.75 0 31.5 S
2181.75 1544.5 31.5 0 S
2198.5 1452.75 0 31.5 S
2182.75 1468.5 31.5 0 S
2199.5 1480.75 0 31.5 S
2183.75 1496.5 31.5 0 S
2201 1493.25 0 31.5 S
2185.25 1509 31.5 0 S
2202 1444.25 0 31.5 S
2186.25 1460 31.5 0 S
2203.5 1456.25 0 31.5 S
2187.75 1472 31.5 0 S
2204.5 1473.25 0 31.5 S
2188.75 1489 31.5 0 S
2205.5 1486.25 0 31.5 S
2189.75 1502 31.5 0 S
2207 1489.25 0 31.5 S
2191.25 1505 31.5 0 S
2208 1436.75 0 31.5 S
2192.25 1452.5 31.5 0 S
2209.5 1450.75 0 31.5 S
2193.75 1466.5 31.5 0 S
2210.5 1450.75 0 31.5 S
2194.75 1466.5 31.5 0 S
2211.5 1445.75 0 31.5 S
2195.75 1461.5 31.5 0 S
2213 1400.75 0 31.5 S
2197.25 1416.5 31.5 0 S
2214 1429.25 0 31.5 S
2198.25 1445 31.5 0 S
2215 1431.25 0 31.5 S
2199.25 1447 31.5 0 S
2216 1433.25 0 31.5 S
2200.25 1449 31.5 0 S
2217.5 1402.75 0 31.5 S
2201.75 1418.5 31.5 0 S
2218.5 1374.25 0 31.5 S
2202.75 1390 31.5 0 S
2219.5 1411.25 0 31.5 S
2203.75 1427 31.5 0 S
2220.5 1431.25 0 31.5 S
2204.75 1447 31.5 0 S
2222 1431.25 0 31.5 S
2206.25 1447 31.5 0 S
2223 1379.25 0 31.5 S
2207.25 1395 31.5 0 S
2224 1369.25 0 31.5 S
2208.25 1385 31.5 0 S
2225 1389.25 0 31.5 S
2209.25 1405 31.5 0 S
2226.5 1386.75 0 31.5 S
2210.75 1402.5 31.5 0 S
2227.5 1376.75 0 31.5 S
2211.75 1392.5 31.5 0 S
2228.5 1398.25 0 31.5 S
2212.75 1414 31.5 0 S
2229.5 1381.75 0 31.5 S
2213.75 1397.5 31.5 0 S
2230.5 1379.25 0 31.5 S
2214.75 1395 31.5 0 S
2231.5 1358.25 0 31.5 S
2215.75 1374 31.5 0 S
2233 1346.25 0 31.5 S
2217.25 1362 31.5 0 S
2234 1313.75 0 31.5 S
2218.25 1329.5 31.5 0 S
2235 1363.75 0 31.5 S
2219.25 1379.5 31.5 0 S
2236 1376.75 0 31.5 S
2220.25 1392.5 31.5 0 S
2237 1346.25 0 31.5 S
2221.25 1362 31.5 0 S
2238 1337.25 0 31.5 S
2222.25 1353 31.5 0 S
2239 1298.75 0 31.5 S
2223.25 1314.5 31.5 0 S
2240 1286.75 0 31.5 S
2224.25 1302.5 31.5 0 S
2241 1306.25 0 31.5 S
2225.25 1322 31.5 0 S
2242.5 1330.75 0 31.5 S
2226.75 1346.5 31.5 0 S
2243.5 1320.75 0 31.5 S
2227.75 1336.5 31.5 0 S
2244.5 1290.75 0 31.5 S
2228.75 1306.5 31.5 0 S
2245.5 1320.75 0 31.5 S
2229.75 1336.5 31.5 0 S
2246.5 1306.25 0 31.5 S
2230.75 1322 31.5 0 S
2247.5 1290.75 0 31.5 S
2231.75 1306.5 31.5 0 S
2248.5 1294.75 0 31.5 S
2232.75 1310.5 31.5 0 S
2249.5 1264.75 0 31.5 S
2233.75 1280.5 31.5 0 S
2250.5 1259.75 0 31.5 S
2234.75 1275.5 31.5 0 S
2251.5 1259.75 0 31.5 S
2235.75 1275.5 31.5 0 S
2252.5 1298.75 0 31.5 S
2236.75 1314.5 31.5 0 S
2253.5 1273.75 0 31.5 S
2237.75 1289.5 31.5 0 S
2254.5 1216.75 0 31.5 S
2238.75 1232.5 31.5 0 S
2255.5 1269.25 0 31.5 S
2239.75 1285 31.5 0 S
2256.5 1273.75 0 31.5 S
2240.75 1289.5 31.5 0 S
2257.5 1228.25 0 31.5 S
2241.75 1244 31.5 0 S
2258.5 1203.75 0 31.5 S
2242.75 1219.5 31.5 0 S
2259 1197.25 0 31.5 S
2243.25 1213 31.5 0 S
2260 1133.25 0 31.5 S
2244.25 1149 31.5 0 S
2261 1234.25 0 31.5 S
2245.25 1250 31.5 0 S
2262 1167.75 0 31.5 S
2246.25 1183.5 31.5 0 S
2263 1151.25 0 31.5 S
2247.25 1167 31.5 0 S
2264 1228.25 0 31.5 S
2248.25 1244 31.5 0 S
2265 1210.25 0 31.5 S
2249.25 1226 31.5 0 S
2266 1197.25 0 31.5 S
2250.25 1213 31.5 0 S
2267 1190.25 0 31.5 S
2251.25 1206 31.5 0 S
2268 1203.75 0 31.5 S
2252.25 1219.5 31.5 0 S
2268.5 1167.75 0 31.5 S
2252.75 1183.5 31.5 0 S
2269.5 1112.75 0 31.5 S
2253.75 1128.5 31.5 0 S
2270.5 1151.25 0 31.5 S
2254.75 1167 31.5 0 S
2271.5 1190.25 0 31.5 S
2255.75 1206 31.5 0 S
2272.5 1167.75 0 31.5 S
2256.75 1183.5 31.5 0 S
2273.5 1175.75 0 31.5 S
2257.75 1191.5 31.5 0 S
2274 1159.75 0 31.5 S
2258.25 1175.5 31.5 0 S
2275 1210.25 0 31.5 S
2259.25 1226 31.5 0 S
2276 1123.25 0 31.5 S
2260.25 1139 31.5 0 S
2277 1048.75 0 31.5 S
2261.25 1064.5 31.5 0 S
2278 1123.25 0 31.5 S
2262.25 1139 31.5 0 S
2278.5 1063.75 0 31.5 S
2262.75 1079.5 31.5 0 S
2279.5 1183.25 0 31.5 S
2263.75 1199 31.5 0 S
2280.5 1101.75 0 31.5 S
2264.75 1117.5 31.5 0 S
2281.5 1133.25 0 31.5 S
2265.75 1149 31.5 0 S
2282.5 1133.25 0 31.5 S
2266.75 1149 31.5 0 S
2283 1048.75 0 31.5 S
2267.25 1064.5 31.5 0 S
2284 1112.75 0 31.5 S
2268.25 1128.5 31.5 0 S
2285 1033.25 0 31.5 S
2269.25 1049 31.5 0 S
2286 1089.75 0 31.5 S
2270.25 1105.5 31.5 0 S
2286.5 1077.25 0 31.5 S
2270.75 1093 31.5 0 S
2287.5 974.75 0 31.5 S
2271.75 990.5 31.5 0 S
2288.5 1112.75 0 31.5 S
2272.75 1128.5 31.5 0 S
2289.5 996.25 0 31.5 S
2273.75 1012 31.5 0 S
2290 1048.75 0 31.5 S
2274.25 1064.5 31.5 0 S
2291 1101.75 0 31.5 S
2275.25 1117.5 31.5 0 S
2292 721.25 0 31.5 S
2276.25 737 31.5 0 S
2292.5 922.25 0 31.5 S
2276.75 938 31.5 0 S
2293.5 1015.75 0 31.5 S
2277.75 1031.5 31.5 0 S
2294.5 1048.75 0 31.5 S
2278.75 1064.5 31.5 0 S
2295 950.25 0 31.5 S
2279.25 966 31.5 0 S
2296 950.25 0 31.5 S
2280.25 966 31.5 0 S
2297 996.25 0 31.5 S
2281.25 1012 31.5 0 S
2297.5 974.75 0 31.5 S
2281.75 990.5 31.5 0 S
2298.5 1048.75 0 31.5 S
2282.75 1064.5 31.5 0 S
2299.5 847.75 0 31.5 S
2283.75 863.5 31.5 0 S
2300 888.75 0 31.5 S
2284.25 904.5 31.5 0 S
2301 1077.25 0 31.5 S
2285.25 1093 31.5 0 S
2302 795.25 0 31.5 S
2286.25 811 31.5 0 S
2302.5 996.25 0 31.5 S
2286.75 1012 31.5 0 S
2303.5 996.25 0 31.5 S
2287.75 1012 31.5 0 S
2304.5 974.75 0 31.5 S
2288.75 990.5 31.5 0 S
2305 974.75 0 31.5 S
2289.25 990.5 31.5 0 S
2306 847.75 0 31.5 S
2290.25 863.5 31.5 0 S
2306.5 847.75 0 31.5 S
2290.75 863.5 31.5 0 S
2307.5 888.75 0 31.5 S
2291.75 904.5 31.5 0 S
2308.5 847.75 0 31.5 S
2292.75 863.5 31.5 0 S
2309 922.25 0 31.5 S
2293.25 938 31.5 0 S
2310 795.25 0 31.5 S
2294.25 811 31.5 0 S
2310.5 974.75 0 31.5 S
2294.75 990.5 31.5 0 S
2311.5 795.25 0 31.5 S
2295.75 811 31.5 0 S
2312.5 721.25 0 31.5 S
2296.75 737 31.5 0 S
2313 847.75 0 31.5 S
2297.25 863.5 31.5 0 S
2314 721.25 0 31.5 S
2298.25 737 31.5 0 S
2314.5 721.25 0 31.5 S
2298.75 737 31.5 0 S
2315.5 795.25 0 31.5 S
2299.75 811 31.5 0 S
2316 847.75 0 31.5 S
2300.25 863.5 31.5 0 S
2317 922.25 0 31.5 S
2301.25 938 31.5 0 S
2317.5 721.25 0 31.5 S
2301.75 737 31.5 0 S
2318.5 847.75 0 31.5 S
2302.75 863.5 31.5 0 S
2319.5 594.25 0 31.5 S
2303.75 610 31.5 0 S
2320 721.25 0 31.5 S
2304.25 737 31.5 0 S
2321 795.25 0 31.5 S
2305.25 811 31.5 0 S
2321.5 922.25 0 31.5 S
2305.75 938 31.5 0 S
2324 721.25 0 31.5 S
2308.25 737 31.5 0 S
2324.5 594.25 0 31.5 S
2308.75 610 31.5 0 S
2325.5 795.25 0 31.5 S
2309.75 811 31.5 0 S
2326 721.25 0 31.5 S
2310.25 737 31.5 0 S
2327 721.25 0 31.5 S
2311.25 737 31.5 0 S
2327.5 721.25 0 31.5 S
2311.75 737 31.5 0 S
2328.5 594.25 0 31.5 S
2312.75 610 31.5 0 S
2329 847.75 0 31.5 S
2313.25 863.5 31.5 0 S
2329.5 721.25 0 31.5 S
2313.75 737 31.5 0 S
2330.5 594.25 0 31.5 S
2314.75 610 31.5 0 S
2331 594.25 0 31.5 S
2315.25 610 31.5 0 S
2332 888.75 0 31.5 S
2316.25 904.5 31.5 0 S
2333.5 594.25 0 31.5 S
2317.75 610 31.5 0 S
2334 594.25 0 31.5 S
2318.25 610 31.5 0 S
2335.5 594.25 0 31.5 S
2319.75 610 31.5 0 S
2337 795.25 0 31.5 S
2321.25 811 31.5 0 S
2340.5 795.25 0 31.5 S
2324.75 811 31.5 0 S
2342.5 594.25 0 31.5 S
2326.75 610 31.5 0 S
2343.5 594.25 0 31.5 S
2327.75 610 31.5 0 S
2344.5 594.25 0 31.5 S
2328.75 610 31.5 0 S
2346 594.25 0 31.5 S
2330.25 610 31.5 0 S
2347.5 594.25 0 31.5 S
2331.75 610 31.5 0 S
2348 721.25 0 31.5 S
2332.25 737 31.5 0 S
2349 594.25 0 31.5 S
2333.25 610 31.5 0 S
2351 594.25 0 31.5 S
2335.25 610 31.5 0 S
2351.5 594.25 0 31.5 S
2335.75 610 31.5 0 S
2353 721.25 0 31.5 S
2337.25 737 31.5 0 S
2354 721.25 0 31.5 S
2338.25 737 31.5 0 S
2356 594.25 0 31.5 S
2340.25 610 31.5 0 S
2361 594.25 0 31.5 S
2345.25 610 31.5 0 S
2363 594.25 0 31.5 S
2347.25 610 31.5 0 S
2366 594.25 0 31.5 S
2350.25 610 31.5 0 S
2370 594.25 0 31.5 S
2354.25 610 31.5 0 S
2381.5 594.25 0 31.5 S
2365.75 610 31.5 0 S
5 w
824.5 610 1775 1264 re
S
cleartomark end end pagesave restore
 showpage
%%PageTrailer
%%Trailer
%%Pages: 1
