%!PS-Adobe-3.0 EPSF-3.0
%%BoundingBox: 67 53 265 190
%%HiResBoundingBox: 67.800000 53.900000 264.900000 189.100000
%.....................................
%%Creator: GPL Ghostscript 871 (epswrite)
%%CreationDate: 2012/01/28 17:04:47
%%DocumentData: Clean7Bit
%%LanguageLevel: 2
%%EndComments
%%BeginProlog
% This copyright applies to everything between here and the %%EndProlog:
% Copyright (C) 2010 Artifex Software, Inc.  All rights reserved.
%%BeginResource: procset GS_epswrite_2_0_1001 1.001 0
/GS_epswrite_2_0_1001 80 dict dup begin
/PageSize 2 array def/setpagesize{ PageSize aload pop 3 index eq exch
4 index eq and{ pop pop pop}{ PageSize dup  1
5 -1 roll put 0 4 -1 roll put dup null eq {false} {dup where} ifelse{ exch get exec}
{ pop/setpagedevice where
{ pop 1 dict dup /PageSize PageSize put setpagedevice}
{ /setpage where{ pop PageSize aload pop pageparams 3 {exch pop} repeat
setpage}if}ifelse}ifelse}ifelse} bind def
/!{bind def}bind def/#{load def}!/N/counttomark #
/rG{3{3 -1 roll 255 div}repeat setrgbcolor}!/G{255 div setgray}!/K{0 G}!
/r6{dup 3 -1 roll rG}!/r5{dup 3 1 roll rG}!/r3{dup rG}!
/w/setlinewidth #/J/setlinecap #
/j/setlinejoin #/M/setmiterlimit #/d/setdash #/i/setflat #
/m/moveto #/l/lineto #/c/rcurveto #
/p{N 2 idiv{N -2 roll rlineto}repeat}!
/P{N 0 gt{N -2 roll moveto p}if}!
/h{p closepath}!/H{P closepath}!
/lx{0 rlineto}!/ly{0 exch rlineto}!/v{0 0 6 2 roll c}!/y{2 copy c}!
/re{4 -2 roll m exch dup lx exch ly neg lx h}!
/^{3 index neg 3 index neg}!
/f{P fill}!/f*{P eofill}!/s{H stroke}!/S{P stroke}!
/q/gsave #/Q/grestore #/rf{re fill}!
/Y{P clip newpath}!/Y*{P eoclip newpath}!/rY{re Y}!
/|={pop exch 4 1 roll 1 array astore cvx 3 array astore cvx exch 1 index def exec}!
/|{exch string readstring |=}!
/+{dup type/nametype eq{2 index 7 add -3 bitshift 2 index mul}if}!
/@/currentfile #/${+ @ |}!
/B{{2 copy string{readstring pop}aload pop 4 array astore cvx
3 1 roll}repeat pop pop true}!
/Ix{[1 0 0 1 11 -2 roll exch neg exch neg]exch}!
/,{true exch Ix imagemask}!/If{false exch Ix imagemask}!/I{exch Ix image}!
/Ic{exch Ix false 3 colorimage}!
/F{/Columns counttomark 3 add -2 roll/Rows exch/K -1/BlackIs1 true>>
/CCITTFaxDecode filter}!/FX{<</EndOfBlock false F}!
/X{/ASCII85Decode filter}!/@X{@ X}!/&2{2 index 2 index}!
/@F{@ &2<<F}!/@C{@X &2 FX}!
/$X{+ @X |}!/&4{4 index 4 index}!/$F{+ @ &4<<F |}!/$C{+ @X &4 FX |}!
/IC{3 1 roll 10 dict begin 1{/ImageType/Interpolate/Decode/DataSource
/ImageMatrix/BitsPerComponent/Height/Width}{exch def}forall
currentdict end image}!
/~{@ read {pop} if}!
end def
%%EndResource
/pagesave null def
%%EndProlog
%%Page: 1 1
%%BeginPageSetup
GS_epswrite_2_0_1001 begin
/pagesave save store 197 dict begin
0.1 0.1 scale
%%EndPageSetup
gsave mark
Q q
0 0 250000 250000 re
Y
5 w
K
818 620 31.5 0 P
2594 620 -31.5 0 S
745 599 34 44 /3U
$C
23%r'%\5X)j2)<u^Zk'1J,ZoQs8W-!s8VJ_s8Qk\g>99H(eYmM:r7r$~>
,
818 828 31.5 0 P
2594 828 -31.5 0 S
686 808 17 43 /6U
$C
,Tm'ds8W-!s-F.@R>;m@If~>
,
711 807 3U ,
745 807 3U ,
818 1036 31.5 0 P
2594 1036 -31.5 0 S
678 1016 34 43 /3Y
$C
4;jd(Qp5fN^"]dYfPna4iOE=NL>hOS^UAOiqu,+3CMbUV[OTh+@7(A~>
,
711 1015 3U ,
745 1015 3U ,
818 1244 31.5 0 P
2594 1244 -31.5 0 S
678 1223 34 44 /6Y
$C
3f*tLK;VJ#ZZne#2lEeH?]XK;@:la`Yct@m+Q2(jDLDKapAVZrg>Sl<[;*R2"T~>
,
711 1223 3U ,
745 1223 3U ,
818 1452 31.5 0 P
2594 1452 -31.5 0 S
678 1432 35 43 /4C
$C
.M)RZs3Cmfr0V$lmIpMQmIpMQmJH;FpY5/kn_X9>^V/P~>
,
711 1431 3U ,
745 1431 3U ,
818 1660 31.5 0 P
2594 1660 -31.5 0 S
678 1639 35 44 /7C
$C
2%'Ns&9R0a'Aa:<PNfbDGdm_=;rkC=Bjl_7CKWS'fO25hs7ZK6."D-0~>
,
711 1639 3U ,
745 1639 3U ,
818 1868 31.5 0 P
2594 1868 -31.5 0 S
678 1847 35 44 /4G
$C
22__[-UH4U05uPcT2!a`He7T^qXqU=['7F,Z=C&h$n`Au*WOE]DtUNIgIhr,MR@1;L'd~>
,
711 1847 3U ,
745 1847 3U ,
818 620 0 31.5 P
818 1868 0 -31.5 S
754 555 21 4 /7G
$C
4qID~>
,
774 539 4G ,
807 539 3U ,
841 539 3U ,
1071.5 620 0 31.5 P
1071.5 1868 0 -31.5 S
1007 555 7G ,
1027 540 4C ,
1061 539 3U ,
1094 539 3U ,
1325.5 620 0 31.5 P
1325.5 1868 0 -31.5 S
1261 555 7G ,
1281 540 3Y ,
1315 539 3U ,
1348 539 3U ,
1579 620 0 31.5 P
1579 1868 0 -31.5 S
1567 539 3U ,
1833 620 0 31.5 P
1833 1868 0 -31.5 S
1787 540 3Y ,
1821 539 3U ,
1854 539 3U ,
2086.5 620 0 31.5 P
2086.5 1868 0 -31.5 S
2041 540 4C ,
2074 539 3U ,
2108 539 3U ,
2340.5 620 0 31.5 P
2340.5 1868 0 -31.5 S
2295 539 4G ,
2328 539 3U ,
2362 539 3U ,
2594 620 0 31.5 P
2594 1868 0 -31.5 S
2548 539 35 44 /4K
$C
2$jBqS07(D'Aa:H#WJZ`e,TIHX4Gk>$!:Ud'l"Rbl-UTa#WJZ`l2Ue`CO4^e@4ZT(6OF59~>
,
2582 539 3U ,
2615 539 3U ,
818 620 1776 1248 re
S
2.5 w
1031 608.25 0 31.5 S
1015.25 624 31.5 0 S
1032.5 608.25 0 31.5 S
1016.75 624 31.5 0 S
1035 608.25 0 31.5 S
1019.25 624 31.5 0 S
1037.5 606.25 0 31.5 S
1021.75 622 31.5 0 S
1040 606.25 0 31.5 S
1024.25 622 31.5 0 S
1042.5 606.25 0 31.5 S
1026.75 622 31.5 0 S
1045 606.25 0 31.5 S
1029.25 622 31.5 0 S
1047.5 608.25 0 31.5 S
1031.75 624 31.5 0 S
1050 608.25 0 31.5 S
1034.25 624 31.5 0 S
1052.5 608.25 0 31.5 S
1036.75 624 31.5 0 S
1055 608.25 0 31.5 S
1039.25 624 31.5 0 S
1058 610.25 0 31.5 S
1042.25 626 31.5 0 S
1063 608.25 0 31.5 S
1047.25 624 31.5 0 S
1064 608.25 0 31.5 S
1048.25 624 31.5 0 S
1068 606.25 0 31.5 S
1052.25 622 31.5 0 S
1070.5 606.25 0 31.5 S
1054.75 622 31.5 0 S
1071.5 606.25 0 31.5 S
1055.75 622 31.5 0 S
1073 606.25 0 31.5 S
1057.25 622 31.5 0 S
1077 606.25 0 31.5 S
1061.25 622 31.5 0 S
1082 606.25 0 31.5 S
1066.25 622 31.5 0 S
1090.5 606.25 0 31.5 S
1074.75 622 31.5 0 S
1096 608.25 0 31.5 S
1080.25 624 31.5 0 S
1101 608.25 0 31.5 S
1085.25 624 31.5 0 S
1107 608.25 0 31.5 S
1091.25 624 31.5 0 S
1110 606.25 0 31.5 S
1094.25 622 31.5 0 S
1111 606.25 0 31.5 S
1095.25 622 31.5 0 S
1116 606.25 0 31.5 S
1100.25 622 31.5 0 S
1129 608.25 0 31.5 S
1113.25 624 31.5 0 S
1135 608.25 0 31.5 S
1119.25 624 31.5 0 S
1137.5 608.25 0 31.5 S
1121.75 624 31.5 0 S
1021 608.25 0 31.5 S
1005.25 624 31.5 0 S
1025 606.25 0 31.5 S
1009.25 622 31.5 0 S
1032.5 610.25 0 31.5 S
1016.75 626 31.5 0 S
1035 608.25 0 31.5 S
1019.25 624 31.5 0 S
1044 608.25 0 31.5 S
1028.25 624 31.5 0 S
1050 606.25 0 31.5 S
1034.25 622 31.5 0 S
1056.5 606.25 0 31.5 S
1040.75 622 31.5 0 S
1061.5 606.25 0 31.5 S
1045.75 622 31.5 0 S
1070.5 606.25 0 31.5 S
1054.75 622 31.5 0 S
1084.5 606.25 0 31.5 S
1068.75 622 31.5 0 S
1094.5 608.25 0 31.5 S
1078.75 624 31.5 0 S
1102 610.25 0 31.5 S
1086.25 626 31.5 0 S
1117.5 608.25 0 31.5 S
1101.75 624 31.5 0 S
1129 606.25 0 31.5 S
1113.25 622 31.5 0 S
1130 606.25 0 31.5 S
1114.25 622 31.5 0 S
1156.5 606.25 0 31.5 S
1140.75 622 31.5 0 S
1165.5 606.25 0 31.5 S
1149.75 622 31.5 0 S
1186 606.25 0 31.5 S
1170.25 622 31.5 0 S
1203.5 608.25 0 31.5 S
1187.75 624 31.5 0 S
1293.5 608.25 0 31.5 S
1277.75 624 31.5 0 S
1297.5 606.25 0 31.5 S
1281.75 622 31.5 0 S
1301.5 606.25 0 31.5 S
1285.75 622 31.5 0 S
1305 606.25 0 31.5 S
1289.25 622 31.5 0 S
1318 606.25 0 31.5 S
1302.25 622 31.5 0 S
1319 610.25 0 31.5 S
1303.25 626 31.5 0 S
1320.5 606.25 0 31.5 S
1304.75 622 31.5 0 S
1321.5 606.25 0 31.5 S
1305.75 622 31.5 0 S
1323 606.25 0 31.5 S
1307.25 622 31.5 0 S
1325.5 606.25 0 31.5 S
1309.75 622 31.5 0 S
1326.5 606.25 0 31.5 S
1310.75 622 31.5 0 S
1328 608.25 0 31.5 S
1312.25 624 31.5 0 S
1330.5 610.25 0 31.5 S
1314.75 626 31.5 0 S
1332 606.25 0 31.5 S
1316.25 622 31.5 0 S
1333 608.25 0 31.5 S
1317.25 624 31.5 0 S
1334.5 608.25 0 31.5 S
1318.75 624 31.5 0 S
1335.5 612.75 0 31.5 S
1319.75 628.5 31.5 0 S
1337 608.25 0 31.5 S
1321.25 624 31.5 0 S
1338 606.25 0 31.5 S
1322.25 622 31.5 0 S
1339.5 610.25 0 31.5 S
1323.75 626 31.5 0 S
1340.5 606.25 0 31.5 S
1324.75 622 31.5 0 S
1342 606.25 0 31.5 S
1326.25 622 31.5 0 S
1343 608.25 0 31.5 S
1327.25 624 31.5 0 S
1344.5 608.25 0 31.5 S
1328.75 624 31.5 0 S
1347 606.25 0 31.5 S
1331.25 622 31.5 0 S
1348.5 606.25 0 31.5 S
1332.75 622 31.5 0 S
1349.5 606.25 0 31.5 S
1333.75 622 31.5 0 S
1351 610.25 0 31.5 S
1335.25 626 31.5 0 S
1352 614.75 0 31.5 S
1336.25 630.5 31.5 0 S
1353.5 612.75 0 31.5 S
1337.75 628.5 31.5 0 S
1354.5 606.25 0 31.5 S
1338.75 622 31.5 0 S
1356 614.75 0 31.5 S
1340.25 630.5 31.5 0 S
1357 612.75 0 31.5 S
1341.25 628.5 31.5 0 S
1358.5 612.75 0 31.5 S
1342.75 628.5 31.5 0 S
1359.5 610.25 0 31.5 S
1343.75 626 31.5 0 S
1361 606.25 0 31.5 S
1345.25 622 31.5 0 S
1362 616.75 0 31.5 S
1346.25 632.5 31.5 0 S
1363.5 610.25 0 31.5 S
1347.75 626 31.5 0 S
1365 620.75 0 31.5 S
1349.25 636.5 31.5 0 S
1366 618.75 0 31.5 S
1350.25 634.5 31.5 0 S
1367.5 614.75 0 31.5 S
1351.75 630.5 31.5 0 S
1368.5 606.25 0 31.5 S
1352.75 622 31.5 0 S
1370 606.25 0 31.5 S
1354.25 622 31.5 0 S
1371 608.25 0 31.5 S
1355.25 624 31.5 0 S
1372.5 614.75 0 31.5 S
1356.75 630.5 31.5 0 S
1373.5 614.75 0 31.5 S
1357.75 630.5 31.5 0 S
1375 610.25 0 31.5 S
1359.25 626 31.5 0 S
1376 614.75 0 31.5 S
1360.25 630.5 31.5 0 S
1377.5 610.25 0 31.5 S
1361.75 626 31.5 0 S
1378.5 616.75 0 31.5 S
1362.75 632.5 31.5 0 S
1380 614.75 0 31.5 S
1364.25 630.5 31.5 0 S
1381 616.75 0 31.5 S
1365.25 632.5 31.5 0 S
1382.5 627.25 0 31.5 S
1366.75 643 31.5 0 S
1384 618.75 0 31.5 S
1368.25 634.5 31.5 0 S
1385 618.75 0 31.5 S
1369.25 634.5 31.5 0 S
1386.5 622.75 0 31.5 S
1370.75 638.5 31.5 0 S
1387.5 610.25 0 31.5 S
1371.75 626 31.5 0 S
1389 610.25 0 31.5 S
1373.25 626 31.5 0 S
1390 618.75 0 31.5 S
1374.25 634.5 31.5 0 S
1391.5 629.25 0 31.5 S
1375.75 645 31.5 0 S
1392.5 616.75 0 31.5 S
1376.75 632.5 31.5 0 S
1394 633.25 0 31.5 S
1378.25 649 31.5 0 S
1395 633.25 0 31.5 S
1379.25 649 31.5 0 S
1396.5 620.75 0 31.5 S
1380.75 636.5 31.5 0 S
1397.5 620.75 0 31.5 S
1381.75 636.5 31.5 0 S
1399 629.25 0 31.5 S
1383.25 645 31.5 0 S
1400.5 639.75 0 31.5 S
1384.75 655.5 31.5 0 S
1401.5 635.25 0 31.5 S
1385.75 651 31.5 0 S
1403 631.25 0 31.5 S
1387.25 647 31.5 0 S
1404 620.75 0 31.5 S
1388.25 636.5 31.5 0 S
1405.5 637.75 0 31.5 S
1389.75 653.5 31.5 0 S
1406.5 637.75 0 31.5 S
1390.75 653.5 31.5 0 S
1408 641.75 0 31.5 S
1392.25 657.5 31.5 0 S
1409 635.25 0 31.5 S
1393.25 651 31.5 0 S
1410.5 614.75 0 31.5 S
1394.75 630.5 31.5 0 S
1411.5 639.75 0 31.5 S
1395.75 655.5 31.5 0 S
1413 645.75 0 31.5 S
1397.25 661.5 31.5 0 S
1414 641.75 0 31.5 S
1398.25 657.5 31.5 0 S
1415.5 625.25 0 31.5 S
1399.75 641 31.5 0 S
1417 647.75 0 31.5 S
1401.25 663.5 31.5 0 S
1418 641.75 0 31.5 S
1402.25 657.5 31.5 0 S
1419.5 652.25 0 31.5 S
1403.75 668 31.5 0 S
1420.5 645.75 0 31.5 S
1404.75 661.5 31.5 0 S
1422 639.75 0 31.5 S
1406.25 655.5 31.5 0 S
1423 660.25 0 31.5 S
1407.25 676 31.5 0 S
1424.5 645.75 0 31.5 S
1408.75 661.5 31.5 0 S
1425.5 662.25 0 31.5 S
1409.75 678 31.5 0 S
1427 660.25 0 31.5 S
1411.25 676 31.5 0 S
1428 639.75 0 31.5 S
1412.25 655.5 31.5 0 S
1429.5 627.25 0 31.5 S
1413.75 643 31.5 0 S
1430.5 656.25 0 31.5 S
1414.75 672 31.5 0 S
1432 641.75 0 31.5 S
1416.25 657.5 31.5 0 S
1433.5 652.25 0 31.5 S
1417.75 668 31.5 0 S
1434.5 654.25 0 31.5 S
1418.75 670 31.5 0 S
1436 662.25 0 31.5 S
1420.25 678 31.5 0 S
1437 656.25 0 31.5 S
1421.25 672 31.5 0 S
1438.5 637.75 0 31.5 S
1422.75 653.5 31.5 0 S
1439.5 660.25 0 31.5 S
1423.75 676 31.5 0 S
1441 670.75 0 31.5 S
1425.25 686.5 31.5 0 S
1442 650.25 0 31.5 S
1426.25 666 31.5 0 S
1443.5 672.75 0 31.5 S
1427.75 688.5 31.5 0 S
1444.5 668.75 0 31.5 S
1428.75 684.5 31.5 0 S
1446 664.75 0 31.5 S
1430.25 680.5 31.5 0 S
1447 660.25 0 31.5 S
1431.25 676 31.5 0 S
1448.5 664.75 0 31.5 S
1432.75 680.5 31.5 0 S
1449.5 662.25 0 31.5 S
1433.75 678 31.5 0 S
1451 683.25 0 31.5 S
1435.25 699 31.5 0 S
1452.5 664.75 0 31.5 S
1436.75 680.5 31.5 0 S
1453.5 681.25 0 31.5 S
1437.75 697 31.5 0 S
1455 681.25 0 31.5 S
1439.25 697 31.5 0 S
1456 702.25 0 31.5 S
1440.25 718 31.5 0 S
1457.5 695.75 0 31.5 S
1441.75 711.5 31.5 0 S
1458.5 699.75 0 31.5 S
1442.75 715.5 31.5 0 S
1460 691.75 0 31.5 S
1444.25 707.5 31.5 0 S
1461 731.25 0 31.5 S
1445.25 747 31.5 0 S
1462.5 720.75 0 31.5 S
1446.75 736.5 31.5 0 S
1463.5 708.25 0 31.5 S
1447.75 724 31.5 0 S
1465 718.75 0 31.5 S
1449.25 734.5 31.5 0 S
1466 737.25 0 31.5 S
1450.25 753 31.5 0 S
1467.5 749.75 0 31.5 S
1451.75 765.5 31.5 0 S
1469 704.25 0 31.5 S
1453.25 720 31.5 0 S
1470 718.75 0 31.5 S
1454.25 734.5 31.5 0 S
1471.5 702.25 0 31.5 S
1455.75 718 31.5 0 S
1472.5 726.75 0 31.5 S
1456.75 742.5 31.5 0 S
1474 726.75 0 31.5 S
1458.25 742.5 31.5 0 S
1475 722.75 0 31.5 S
1459.25 738.5 31.5 0 S
1476.5 751.75 0 31.5 S
1460.75 767.5 31.5 0 S
1477.5 718.75 0 31.5 S
1461.75 734.5 31.5 0 S
1479 697.75 0 31.5 S
1463.25 713.5 31.5 0 S
1480 764.25 0 31.5 S
1464.25 780 31.5 0 S
1481.5 754.25 0 31.5 S
1465.75 770 31.5 0 S
1482.5 760.25 0 31.5 S
1466.75 776 31.5 0 S
1484 756.25 0 31.5 S
1468.25 772 31.5 0 S
1485.5 760.25 0 31.5 S
1469.75 776 31.5 0 S
1486.5 783.25 0 31.5 S
1470.75 799 31.5 0 S
1488 729.25 0 31.5 S
1472.25 745 31.5 0 S
1489 776.75 0 31.5 S
1473.25 792.5 31.5 0 S
1490.5 774.75 0 31.5 S
1474.75 790.5 31.5 0 S
1491.5 793.75 0 31.5 S
1475.75 809.5 31.5 0 S
1493 789.25 0 31.5 S
1477.25 805 31.5 0 S
1494 774.75 0 31.5 S
1478.25 790.5 31.5 0 S
1495.5 822.75 0 31.5 S
1479.75 838.5 31.5 0 S
1496.5 801.75 0 31.5 S
1480.75 817.5 31.5 0 S
1498 801.75 0 31.5 S
1482.25 817.5 31.5 0 S
1499 795.75 0 31.5 S
1483.25 811.5 31.5 0 S
1500.5 822.75 0 31.5 S
1484.75 838.5 31.5 0 S
1502 826.75 0 31.5 S
1486.25 842.5 31.5 0 S
1503 824.75 0 31.5 S
1487.25 840.5 31.5 0 S
1504.5 878.75 0 31.5 S
1488.75 894.5 31.5 0 S
1505.5 862.25 0 31.5 S
1489.75 878 31.5 0 S
1507 878.75 0 31.5 S
1491.25 894.5 31.5 0 S
1508 882.75 0 31.5 S
1492.25 898.5 31.5 0 S
1509.5 841.25 0 31.5 S
1493.75 857 31.5 0 S
1510.5 899.75 0 31.5 S
1494.75 915.5 31.5 0 S
1512 862.25 0 31.5 S
1496.25 878 31.5 0 S
1513 878.75 0 31.5 S
1497.25 894.5 31.5 0 S
1514.5 837.25 0 31.5 S
1498.75 853 31.5 0 S
1515.5 891.25 0 31.5 S
1499.75 907 31.5 0 S
1517 916.25 0 31.5 S
1501.25 932 31.5 0 S
1518.5 887.25 0 31.5 S
1502.75 903 31.5 0 S
1519.5 903.75 0 31.5 S
1503.75 919.5 31.5 0 S
1521 928.75 0 31.5 S
1505.25 944.5 31.5 0 S
1522 899.75 0 31.5 S
1506.25 915.5 31.5 0 S
1523.5 880.75 0 31.5 S
1507.75 896.5 31.5 0 S
1524.5 984.75 0 31.5 S
1508.75 1000.5 31.5 0 S
1526 895.25 0 31.5 S
1510.25 911 31.5 0 S
1527 968.25 0 31.5 S
1511.25 984 31.5 0 S
1528.5 928.75 0 31.5 S
1512.75 944.5 31.5 0 S
1529.5 953.75 0 31.5 S
1513.75 969.5 31.5 0 S
1531 964.25 0 31.5 S
1515.25 980 31.5 0 S
1532 951.75 0 31.5 S
1516.25 967.5 31.5 0 S
1533.5 949.75 0 31.5 S
1517.75 965.5 31.5 0 S
1534.5 943.25 0 31.5 S
1518.75 959 31.5 0 S
1536 932.75 0 31.5 S
1520.25 948.5 31.5 0 S
1537.5 1003.75 0 31.5 S
1521.75 1019.5 31.5 0 S
1538.5 1043.25 0 31.5 S
1522.75 1059 31.5 0 S
1540 1028.75 0 31.5 S
1524.25 1044.5 31.5 0 S
1541 1032.75 0 31.5 S
1525.25 1048.5 31.5 0 S
1542.5 1024.25 0 31.5 S
1526.75 1040 31.5 0 S
1543.5 980.75 0 31.5 S
1527.75 996.5 31.5 0 S
1545 1016.25 0 31.5 S
1529.25 1032 31.5 0 S
1546 1041.25 0 31.5 S
1530.25 1057 31.5 0 S
1547.5 1038.75 0 31.5 S
1531.75 1054.5 31.5 0 S
1548.5 1030.75 0 31.5 S
1532.75 1046.5 31.5 0 S
1550 1074.25 0 31.5 S
1534.25 1090 31.5 0 S
1551 1070.25 0 31.5 S
1535.25 1086 31.5 0 S
1552.5 1066.25 0 31.5 S
1536.75 1082 31.5 0 S
1554 1080.75 0 31.5 S
1538.25 1096.5 31.5 0 S
1555 1051.25 0 31.5 S
1539.25 1067 31.5 0 S
1556.5 1063.75 0 31.5 S
1540.75 1079.5 31.5 0 S
1557.5 1157.75 0 31.5 S
1541.75 1173.5 31.5 0 S
1559 1097.25 0 31.5 S
1543.25 1113 31.5 0 S
1560 1111.75 0 31.5 S
1544.25 1127.5 31.5 0 S
1561.5 1147.25 0 31.5 S
1545.75 1163 31.5 0 S
1562.5 1105.75 0 31.5 S
1546.75 1121.5 31.5 0 S
1564 1140.75 0 31.5 S
1548.25 1156.5 31.5 0 S
1565 1178.25 0 31.5 S
1549.25 1194 31.5 0 S
1566.5 1103.25 0 31.5 S
1550.75 1119 31.5 0 S
1567.5 1126.25 0 31.5 S
1551.75 1142 31.5 0 S
1569 1151.25 0 31.5 S
1553.25 1167 31.5 0 S
1570.5 1134.75 0 31.5 S
1554.75 1150.5 31.5 0 S
1571.5 1205.25 0 31.5 S
1555.75 1221 31.5 0 S
1573 1209.75 0 31.5 S
1557.25 1225.5 31.5 0 S
1574 1219.75 0 31.5 S
1558.25 1235.5 31.5 0 S
1575.5 1238.75 0 31.5 S
1559.75 1254.5 31.5 0 S
1576.5 1163.75 0 31.5 S
1560.75 1179.5 31.5 0 S
1578 1236.75 0 31.5 S
1562.25 1252.5 31.5 0 S
1580.5 1249.25 0 31.5 S
1564.75 1265 31.5 0 S
1581.5 1217.75 0 31.5 S
1565.75 1233.5 31.5 0 S
1583 1255.25 0 31.5 S
1567.25 1271 31.5 0 S
1584 1230.25 0 31.5 S
1568.25 1246 31.5 0 S
1585.5 1269.75 0 31.5 S
1569.75 1285.5 31.5 0 S
1587 1242.75 0 31.5 S
1571.25 1258.5 31.5 0 S
1588 1224.25 0 31.5 S
1572.25 1240 31.5 0 S
1589.5 1305.25 0 31.5 S
1573.75 1321 31.5 0 S
1590.5 1307.25 0 31.5 S
1574.75 1323 31.5 0 S
1592 1326.25 0 31.5 S
1576.25 1342 31.5 0 S
1593 1386.25 0 31.5 S
1577.25 1402 31.5 0 S
1594.5 1332.25 0 31.5 S
1578.75 1348 31.5 0 S
1595.5 1303.25 0 31.5 S
1579.75 1319 31.5 0 S
1597 1296.75 0 31.5 S
1581.25 1312.5 31.5 0 S
1598 1371.75 0 31.5 S
1582.25 1387.5 31.5 0 S
1599.5 1361.25 0 31.5 S
1583.75 1377 31.5 0 S
1600.5 1386.25 0 31.5 S
1584.75 1402 31.5 0 S
1602 1367.75 0 31.5 S
1586.25 1383.5 31.5 0 S
1603 1421.75 0 31.5 S
1587.25 1437.5 31.5 0 S
1604.5 1434.25 0 31.5 S
1588.75 1450 31.5 0 S
1606 1415.25 0 31.5 S
1590.25 1431 31.5 0 S
1607 1384.25 0 31.5 S
1591.25 1400 31.5 0 S
1608.5 1371.75 0 31.5 S
1592.75 1387.5 31.5 0 S
1609.5 1386.25 0 31.5 S
1593.75 1402 31.5 0 S
1611 1427.75 0 31.5 S
1595.25 1443.5 31.5 0 S
1612 1490.25 0 31.5 S
1596.25 1506 31.5 0 S
1613.5 1425.75 0 31.5 S
1597.75 1441.5 31.5 0 S
1614.5 1353.25 0 31.5 S
1598.75 1369 31.5 0 S
1616 1440.25 0 31.5 S
1600.25 1456 31.5 0 S
1617 1442.25 0 31.5 S
1601.25 1458 31.5 0 S
1618.5 1394.75 0 31.5 S
1602.75 1410.5 31.5 0 S
1619.5 1488.25 0 31.5 S
1603.75 1504 31.5 0 S
1621 1569.25 0 31.5 S
1605.25 1585 31.5 0 S
1622.5 1446.75 0 31.5 S
1606.75 1462.5 31.5 0 S
1623.5 1546.25 0 31.5 S
1607.75 1562 31.5 0 S
1625 1473.75 0 31.5 S
1609.25 1489.5 31.5 0 S
1626 1490.25 0 31.5 S
1610.25 1506 31.5 0 S
1627.5 1521.75 0 31.5 S
1611.75 1537.5 31.5 0 S
1628.5 1550.75 0 31.5 S
1612.75 1566.5 31.5 0 S
1630 1579.75 0 31.5 S
1614.25 1595.5 31.5 0 S
1631 1517.25 0 31.5 S
1615.25 1533 31.5 0 S
1632.5 1531.75 0 31.5 S
1616.75 1547.5 31.5 0 S
1633.5 1465.25 0 31.5 S
1617.75 1481 31.5 0 S
1635 1550.75 0 31.5 S
1619.25 1566.5 31.5 0 S
1636 1588.25 0 31.5 S
1620.25 1604 31.5 0 S
1637.5 1548.75 0 31.5 S
1621.75 1564.5 31.5 0 S
1639 1642.25 0 31.5 S
1623.25 1658 31.5 0 S
1640 1569.25 0 31.5 S
1624.25 1585 31.5 0 S
1641.5 1646.25 0 31.5 S
1625.75 1662 31.5 0 S
1642.5 1563.25 0 31.5 S
1626.75 1579 31.5 0 S
1644 1594.25 0 31.5 S
1628.25 1610 31.5 0 S
1645 1488.25 0 31.5 S
1629.25 1504 31.5 0 S
1646.5 1548.75 0 31.5 S
1630.75 1564.5 31.5 0 S
1647.5 1542.25 0 31.5 S
1631.75 1558 31.5 0 S
1649 1619.25 0 31.5 S
1633.25 1635 31.5 0 S
1650 1550.75 0 31.5 S
1634.25 1566.5 31.5 0 S
1651.5 1652.75 0 31.5 S
1635.75 1668.5 31.5 0 S
1652.5 1509.25 0 31.5 S
1636.75 1525 31.5 0 S
1654 1658.75 0 31.5 S
1638.25 1674.5 31.5 0 S
1655.5 1579.75 0 31.5 S
1639.75 1595.5 31.5 0 S
1656.5 1590.25 0 31.5 S
1640.75 1606 31.5 0 S
1658 1577.75 0 31.5 S
1642.25 1593.5 31.5 0 S
1659 1592.25 0 31.5 S
1643.25 1608 31.5 0 S
1660.5 1602.75 0 31.5 S
1644.75 1618.5 31.5 0 S
1661.5 1596.25 0 31.5 S
1645.75 1612 31.5 0 S
1663 1671.25 0 31.5 S
1647.25 1687 31.5 0 S
1664 1619.25 0 31.5 S
1648.25 1635 31.5 0 S
1665.5 1540.25 0 31.5 S
1649.75 1556 31.5 0 S
1666.5 1592.25 0 31.5 S
1650.75 1608 31.5 0 S
1668 1700.25 0 31.5 S
1652.25 1716 31.5 0 S
1669 1598.25 0 31.5 S
1653.25 1614 31.5 0 S
1670.5 1706.75 0 31.5 S
1654.75 1722.5 31.5 0 S
1671.5 1671.25 0 31.5 S
1655.75 1687 31.5 0 S
1673 1671.25 0 31.5 S
1657.25 1687 31.5 0 S
1674.5 1573.75 0 31.5 S
1658.75 1589.5 31.5 0 S
1675.5 1594.25 0 31.5 S
1659.75 1610 31.5 0 S
1677 1586.25 0 31.5 S
1661.25 1602 31.5 0 S
1678 1727.25 0 31.5 S
1662.25 1743 31.5 0 S
1679.5 1594.25 0 31.5 S
1663.75 1610 31.5 0 S
1680.5 1619.25 0 31.5 S
1664.75 1635 31.5 0 S
1682 1640.25 0 31.5 S
1666.25 1656 31.5 0 S
1683 1635.75 0 31.5 S
1667.25 1651.5 31.5 0 S
1684.5 1606.75 0 31.5 S
1668.75 1622.5 31.5 0 S
1685.5 1598.25 0 31.5 S
1669.75 1614 31.5 0 S
1687 1561.25 0 31.5 S
1671.25 1577 31.5 0 S
1688 1650.25 0 31.5 S
1672.25 1666 31.5 0 S
1689.5 1683.75 0 31.5 S
1673.75 1699.5 31.5 0 S
1691 1679.75 0 31.5 S
1675.25 1695.5 31.5 0 S
1692 1617.25 0 31.5 S
1676.25 1633 31.5 0 S
1693.5 1600.75 0 31.5 S
1677.75 1616.5 31.5 0 S
1694.5 1598.25 0 31.5 S
1678.75 1614 31.5 0 S
1696 1658.75 0 31.5 S
1680.25 1674.5 31.5 0 S
1697 1673.25 0 31.5 S
1681.25 1689 31.5 0 S
1698.5 1588.25 0 31.5 S
1682.75 1604 31.5 0 S
1699.5 1650.25 0 31.5 S
1683.75 1666 31.5 0 S
1701 1640.25 0 31.5 S
1685.25 1656 31.5 0 S
1702 1594.25 0 31.5 S
1686.25 1610 31.5 0 S
1703.5 1579.75 0 31.5 S
1687.75 1595.5 31.5 0 S
1704.5 1627.75 0 31.5 S
1688.75 1643.5 31.5 0 S
1706 1694.25 0 31.5 S
1690.25 1710 31.5 0 S
1707.5 1681.75 0 31.5 S
1691.75 1697.5 31.5 0 S
1708.5 1658.75 0 31.5 S
1692.75 1674.5 31.5 0 S
1710 1602.75 0 31.5 S
1694.25 1618.5 31.5 0 S
1711 1554.75 0 31.5 S
1695.25 1570.5 31.5 0 S
1712.5 1567.25 0 31.5 S
1696.75 1583 31.5 0 S
1713.5 1615.25 0 31.5 S
1697.75 1631 31.5 0 S
1715 1546.25 0 31.5 S
1699.25 1562 31.5 0 S
1716 1640.25 0 31.5 S
1700.25 1656 31.5 0 S
1717.5 1529.75 0 31.5 S
1701.75 1545.5 31.5 0 S
1718.5 1629.75 0 31.5 S
1702.75 1645.5 31.5 0 S
1720 1517.25 0 31.5 S
1704.25 1533 31.5 0 S
1721 1506.75 0 31.5 S
1705.25 1522.5 31.5 0 S
1722.5 1569.25 0 31.5 S
1706.75 1585 31.5 0 S
1724 1550.75 0 31.5 S
1708.25 1566.5 31.5 0 S
1725 1590.25 0 31.5 S
1709.25 1606 31.5 0 S
1726.5 1571.25 0 31.5 S
1710.75 1587 31.5 0 S
1727.5 1577.75 0 31.5 S
1711.75 1593.5 31.5 0 S
1729 1573.75 0 31.5 S
1713.25 1589.5 31.5 0 S
1730 1498.75 0 31.5 S
1714.25 1514.5 31.5 0 S
1731.5 1606.75 0 31.5 S
1715.75 1622.5 31.5 0 S
1732.5 1550.75 0 31.5 S
1716.75 1566.5 31.5 0 S
1734 1544.25 0 31.5 S
1718.25 1560 31.5 0 S
1735 1457.25 0 31.5 S
1719.25 1473 31.5 0 S
1736.5 1465.25 0 31.5 S
1720.75 1481 31.5 0 S
1737.5 1465.25 0 31.5 S
1721.75 1481 31.5 0 S
1739 1515.25 0 31.5 S
1723.25 1531 31.5 0 S
1740.5 1459.25 0 31.5 S
1724.75 1475 31.5 0 S
1741.5 1446.75 0 31.5 S
1725.75 1462.5 31.5 0 S
1743 1473.75 0 31.5 S
1727.25 1489.5 31.5 0 S
1744 1538.25 0 31.5 S
1728.25 1554 31.5 0 S
1745.5 1473.75 0 31.5 S
1729.75 1489.5 31.5 0 S
1746.5 1492.25 0 31.5 S
1730.75 1508 31.5 0 S
1748 1463.25 0 31.5 S
1732.25 1479 31.5 0 S
1749 1430.25 0 31.5 S
1733.25 1446 31.5 0 S
1750.5 1423.75 0 31.5 S
1734.75 1439.5 31.5 0 S
1751.5 1390.25 0 31.5 S
1735.75 1406 31.5 0 S
1753 1386.25 0 31.5 S
1737.25 1402 31.5 0 S
1754 1444.75 0 31.5 S
1738.25 1460.5 31.5 0 S
1755.5 1365.75 0 31.5 S
1739.75 1381.5 31.5 0 S
1756.5 1303.25 0 31.5 S
1740.75 1319 31.5 0 S
1758 1367.75 0 31.5 S
1742.25 1383.5 31.5 0 S
1759.5 1432.25 0 31.5 S
1743.75 1448 31.5 0 S
1760.5 1380.25 0 31.5 S
1744.75 1396 31.5 0 S
1762 1323.75 0 31.5 S
1746.25 1339.5 31.5 0 S
1763 1321.75 0 31.5 S
1747.25 1337.5 31.5 0 S
1764.5 1365.75 0 31.5 S
1748.75 1381.5 31.5 0 S
1765.5 1326.25 0 31.5 S
1749.75 1342 31.5 0 S
1767 1423.75 0 31.5 S
1751.25 1439.5 31.5 0 S
1768 1313.75 0 31.5 S
1752.25 1329.5 31.5 0 S
1769.5 1301.25 0 31.5 S
1753.75 1317 31.5 0 S
1770.5 1249.25 0 31.5 S
1754.75 1265 31.5 0 S
1772 1319.75 0 31.5 S
1756.25 1335.5 31.5 0 S
1773 1255.25 0 31.5 S
1757.25 1271 31.5 0 S
1774.5 1255.25 0 31.5 S
1758.75 1271 31.5 0 S
1776 1238.75 0 31.5 S
1760.25 1254.5 31.5 0 S
1777 1290.75 0 31.5 S
1761.25 1306.5 31.5 0 S
1778.5 1197.25 0 31.5 S
1762.75 1213 31.5 0 S
1779.5 1240.75 0 31.5 S
1763.75 1256.5 31.5 0 S
1781 1265.75 0 31.5 S
1765.25 1281.5 31.5 0 S
1782 1251.25 0 31.5 S
1766.25 1267 31.5 0 S
1783.5 1186.75 0 31.5 S
1767.75 1202.5 31.5 0 S
1784.5 1222.25 0 31.5 S
1768.75 1238 31.5 0 S
1786 1182.25 0 31.5 S
1770.25 1198 31.5 0 S
1787 1145.25 0 31.5 S
1771.25 1161 31.5 0 S
1788.5 1211.75 0 31.5 S
1772.75 1227.5 31.5 0 S
1789.5 1161.75 0 31.5 S
1773.75 1177.5 31.5 0 S
1791 1226.25 0 31.5 S
1775.25 1242 31.5 0 S
1792.5 1109.75 0 31.5 S
1776.75 1125.5 31.5 0 S
1793.5 1163.75 0 31.5 S
1777.75 1179.5 31.5 0 S
1795 1165.75 0 31.5 S
1779.25 1181.5 31.5 0 S
1796 1190.75 0 31.5 S
1780.25 1206.5 31.5 0 S
1797.5 1130.25 0 31.5 S
1781.75 1146 31.5 0 S
1798.5 1138.75 0 31.5 S
1782.75 1154.5 31.5 0 S
1800 1113.75 0 31.5 S
1784.25 1129.5 31.5 0 S
1801 1107.75 0 31.5 S
1785.25 1123.5 31.5 0 S
1802.5 1095.25 0 31.5 S
1786.75 1111 31.5 0 S
1803.5 1055.75 0 31.5 S
1787.75 1071.5 31.5 0 S
1805 1130.25 0 31.5 S
1789.25 1146 31.5 0 S
1806 1066.25 0 31.5 S
1790.25 1082 31.5 0 S
1807.5 1059.75 0 31.5 S
1791.75 1075.5 31.5 0 S
1809 1066.25 0 31.5 S
1793.25 1082 31.5 0 S
1810 1093.25 0 31.5 S
1794.25 1109 31.5 0 S
1811.5 1049.25 0 31.5 S
1795.75 1065 31.5 0 S
1812.5 1061.75 0 31.5 S
1796.75 1077.5 31.5 0 S
1814 1032.75 0 31.5 S
1798.25 1048.5 31.5 0 S
1815 1053.75 0 31.5 S
1799.25 1069.5 31.5 0 S
1816.5 1049.25 0 31.5 S
1800.75 1065 31.5 0 S
1817.5 1030.75 0 31.5 S
1801.75 1046.5 31.5 0 S
1819 1005.75 0 31.5 S
1803.25 1021.5 31.5 0 S
1820 1041.25 0 31.5 S
1804.25 1057 31.5 0 S
1821.5 1003.75 0 31.5 S
1805.75 1019.5 31.5 0 S
1822.5 1061.75 0 31.5 S
1806.75 1077.5 31.5 0 S
1824 1024.25 0 31.5 S
1808.25 1040 31.5 0 S
1825 1030.75 0 31.5 S
1809.25 1046.5 31.5 0 S
1826.5 941.25 0 31.5 S
1810.75 957 31.5 0 S
1828 970.25 0 31.5 S
1812.25 986 31.5 0 S
1829 939.25 0 31.5 S
1813.25 955 31.5 0 S
1830.5 955.75 0 31.5 S
1814.75 971.5 31.5 0 S
1831.5 959.75 0 31.5 S
1815.75 975.5 31.5 0 S
1833 926.75 0 31.5 S
1817.25 942.5 31.5 0 S
1834 928.75 0 31.5 S
1818.25 944.5 31.5 0 S
1835.5 924.75 0 31.5 S
1819.75 940.5 31.5 0 S
1836.5 897.75 0 31.5 S
1820.75 913.5 31.5 0 S
1838 930.75 0 31.5 S
1822.25 946.5 31.5 0 S
1839 837.25 0 31.5 S
1823.25 853 31.5 0 S
1840.5 924.75 0 31.5 S
1824.75 940.5 31.5 0 S
1841.5 874.75 0 31.5 S
1825.75 890.5 31.5 0 S
1843 876.75 0 31.5 S
1827.25 892.5 31.5 0 S
1844.5 947.25 0 31.5 S
1828.75 963 31.5 0 S
1845.5 830.75 0 31.5 S
1829.75 846.5 31.5 0 S
1847 868.25 0 31.5 S
1831.25 884 31.5 0 S
1848 887.25 0 31.5 S
1832.25 903 31.5 0 S
1849.5 820.75 0 31.5 S
1833.75 836.5 31.5 0 S
1850.5 835.25 0 31.5 S
1834.75 851 31.5 0 S
1852 858.25 0 31.5 S
1836.25 874 31.5 0 S
1853 876.75 0 31.5 S
1837.25 892.5 31.5 0 S
1854.5 880.75 0 31.5 S
1838.75 896.5 31.5 0 S
1855.5 812.25 0 31.5 S
1839.75 828 31.5 0 S
1857 828.75 0 31.5 S
1841.25 844.5 31.5 0 S
1858 828.75 0 31.5 S
1842.25 844.5 31.5 0 S
1859.5 822.75 0 31.5 S
1843.75 838.5 31.5 0 S
1861 774.75 0 31.5 S
1845.25 790.5 31.5 0 S
1862 803.75 0 31.5 S
1846.25 819.5 31.5 0 S
1863.5 806.25 0 31.5 S
1847.75 822 31.5 0 S
1864.5 808.25 0 31.5 S
1848.75 824 31.5 0 S
1866 776.75 0 31.5 S
1850.25 792.5 31.5 0 S
1867 751.75 0 31.5 S
1851.25 767.5 31.5 0 S
1868.5 785.25 0 31.5 S
1852.75 801 31.5 0 S
1869.5 806.25 0 31.5 S
1853.75 822 31.5 0 S
1871 806.25 0 31.5 S
1855.25 822 31.5 0 S
1872 756.25 0 31.5 S
1856.25 772 31.5 0 S
1873.5 747.75 0 31.5 S
1857.75 763.5 31.5 0 S
1874.5 764.25 0 31.5 S
1858.75 780 31.5 0 S
1876 762.25 0 31.5 S
1860.25 778 31.5 0 S
1877.5 754.25 0 31.5 S
1861.75 770 31.5 0 S
1878.5 772.75 0 31.5 S
1862.75 788.5 31.5 0 S
1880 758.25 0 31.5 S
1864.25 774 31.5 0 S
1881 756.25 0 31.5 S
1865.25 772 31.5 0 S
1882.5 739.25 0 31.5 S
1866.75 755 31.5 0 S
1883.5 731.25 0 31.5 S
1867.75 747 31.5 0 S
1885 710.25 0 31.5 S
1869.25 726 31.5 0 S
1886 743.75 0 31.5 S
1870.25 759.5 31.5 0 S
1887.5 754.25 0 31.5 S
1871.75 770 31.5 0 S
1888.5 731.25 0 31.5 S
1872.75 747 31.5 0 S
1890 724.75 0 31.5 S
1874.25 740.5 31.5 0 S
1891 702.25 0 31.5 S
1875.25 718 31.5 0 S
1892.5 695.75 0 31.5 S
1876.75 711.5 31.5 0 S
1893.5 706.25 0 31.5 S
1877.75 722 31.5 0 S
1895 720.75 0 31.5 S
1879.25 736.5 31.5 0 S
1896.5 714.25 0 31.5 S
1880.75 730 31.5 0 S
1897.5 697.75 0 31.5 S
1881.75 713.5 31.5 0 S
1899 714.25 0 31.5 S
1883.25 730 31.5 0 S
1900 706.25 0 31.5 S
1884.25 722 31.5 0 S
1901.5 697.75 0 31.5 S
1885.75 713.5 31.5 0 S
1902.5 699.75 0 31.5 S
1886.75 715.5 31.5 0 S
1904 685.25 0 31.5 S
1888.25 701 31.5 0 S
1905 683.25 0 31.5 S
1889.25 699 31.5 0 S
1906.5 683.25 0 31.5 S
1890.75 699 31.5 0 S
1907.5 702.25 0 31.5 S
1891.75 718 31.5 0 S
1909 689.75 0 31.5 S
1893.25 705.5 31.5 0 S
1910 666.75 0 31.5 S
1894.25 682.5 31.5 0 S
1911.5 687.25 0 31.5 S
1895.75 703 31.5 0 S
1913 689.75 0 31.5 S
1897.25 705.5 31.5 0 S
1914 670.75 0 31.5 S
1898.25 686.5 31.5 0 S
1915.5 662.25 0 31.5 S
1899.75 678 31.5 0 S
1916.5 660.25 0 31.5 S
1900.75 676 31.5 0 S
1918 643.75 0 31.5 S
1902.25 659.5 31.5 0 S
1919 672.75 0 31.5 S
1903.25 688.5 31.5 0 S
1920.5 652.25 0 31.5 S
1904.75 668 31.5 0 S
1921.5 647.75 0 31.5 S
1905.75 663.5 31.5 0 S
1923 670.75 0 31.5 S
1907.25 686.5 31.5 0 S
1924 664.75 0 31.5 S
1908.25 680.5 31.5 0 S
1925.5 660.25 0 31.5 S
1909.75 676 31.5 0 S
1926.5 658.25 0 31.5 S
1910.75 674 31.5 0 S
1928 662.25 0 31.5 S
1912.25 678 31.5 0 S
1929.5 652.25 0 31.5 S
1913.75 668 31.5 0 S
1930.5 639.75 0 31.5 S
1914.75 655.5 31.5 0 S
1932 647.75 0 31.5 S
1916.25 663.5 31.5 0 S
1933 658.25 0 31.5 S
1917.25 674 31.5 0 S
1934.5 652.25 0 31.5 S
1918.75 668 31.5 0 S
1935.5 654.25 0 31.5 S
1919.75 670 31.5 0 S
1937 650.25 0 31.5 S
1921.25 666 31.5 0 S
1938 664.75 0 31.5 S
1922.25 680.5 31.5 0 S
1939.5 641.75 0 31.5 S
1923.75 657.5 31.5 0 S
1940.5 629.25 0 31.5 S
1924.75 645 31.5 0 S
1942 641.75 0 31.5 S
1926.25 657.5 31.5 0 S
1943 631.25 0 31.5 S
1927.25 647 31.5 0 S
1944.5 656.25 0 31.5 S
1928.75 672 31.5 0 S
1946 637.75 0 31.5 S
1930.25 653.5 31.5 0 S
1947 643.75 0 31.5 S
1931.25 659.5 31.5 0 S
1948.5 643.75 0 31.5 S
1932.75 659.5 31.5 0 S
1949.5 629.25 0 31.5 S
1933.75 645 31.5 0 S
1951 639.75 0 31.5 S
1935.25 655.5 31.5 0 S
1952 627.25 0 31.5 S
1936.25 643 31.5 0 S
1953.5 635.25 0 31.5 S
1937.75 651 31.5 0 S
1954.5 633.25 0 31.5 S
1938.75 649 31.5 0 S
1956 620.75 0 31.5 S
1940.25 636.5 31.5 0 S
1957 639.75 0 31.5 S
1941.25 655.5 31.5 0 S
1958.5 622.75 0 31.5 S
1942.75 638.5 31.5 0 S
1959.5 629.25 0 31.5 S
1943.75 645 31.5 0 S
1961 637.75 0 31.5 S
1945.25 653.5 31.5 0 S
1962.5 608.25 0 31.5 S
1946.75 624 31.5 0 S
1963.5 616.75 0 31.5 S
1947.75 632.5 31.5 0 S
1965 625.25 0 31.5 S
1949.25 641 31.5 0 S
1966 629.25 0 31.5 S
1950.25 645 31.5 0 S
1967.5 618.75 0 31.5 S
1951.75 634.5 31.5 0 S
1968.5 618.75 0 31.5 S
1952.75 634.5 31.5 0 S
1970 622.75 0 31.5 S
1954.25 638.5 31.5 0 S
1971 620.75 0 31.5 S
1955.25 636.5 31.5 0 S
1972.5 629.25 0 31.5 S
1956.75 645 31.5 0 S
1973.5 612.75 0 31.5 S
1957.75 628.5 31.5 0 S
1975 614.75 0 31.5 S
1959.25 630.5 31.5 0 S
1976 633.25 0 31.5 S
1960.25 649 31.5 0 S
1977.5 610.25 0 31.5 S
1961.75 626 31.5 0 S
1978.5 622.75 0 31.5 S
1962.75 638.5 31.5 0 S
1980 622.75 0 31.5 S
1964.25 638.5 31.5 0 S
1981.5 620.75 0 31.5 S
1965.75 636.5 31.5 0 S
1982.5 620.75 0 31.5 S
1966.75 636.5 31.5 0 S
1984 612.75 0 31.5 S
1968.25 628.5 31.5 0 S
1985 612.75 0 31.5 S
1969.25 628.5 31.5 0 S
1986.5 614.75 0 31.5 S
1970.75 630.5 31.5 0 S
1987.5 612.75 0 31.5 S
1971.75 628.5 31.5 0 S
1989 616.75 0 31.5 S
1973.25 632.5 31.5 0 S
1990 610.25 0 31.5 S
1974.25 626 31.5 0 S
1991.5 620.75 0 31.5 S
1975.75 636.5 31.5 0 S
1992.5 610.25 0 31.5 S
1976.75 626 31.5 0 S
1994 608.25 0 31.5 S
1978.25 624 31.5 0 S
1995 612.75 0 31.5 S
1979.25 628.5 31.5 0 S
1996.5 608.25 0 31.5 S
1980.75 624 31.5 0 S
1998 608.25 0 31.5 S
1982.25 624 31.5 0 S
1999 610.25 0 31.5 S
1983.25 626 31.5 0 S
2000.5 612.75 0 31.5 S
1984.75 628.5 31.5 0 S
2001.5 616.75 0 31.5 S
1985.75 632.5 31.5 0 S
2003 608.25 0 31.5 S
1987.25 624 31.5 0 S
2004 612.75 0 31.5 S
1988.25 628.5 31.5 0 S
2005.5 606.25 0 31.5 S
1989.75 622 31.5 0 S
2006.5 608.25 0 31.5 S
1990.75 624 31.5 0 S
2008 610.25 0 31.5 S
1992.25 626 31.5 0 S
2009 616.75 0 31.5 S
1993.25 632.5 31.5 0 S
2013 608.25 0 31.5 S
1997.25 624 31.5 0 S
2014.5 606.25 0 31.5 S
1998.75 622 31.5 0 S
2015.5 610.25 0 31.5 S
1999.75 626 31.5 0 S
2017 608.25 0 31.5 S
2001.25 624 31.5 0 S
2018 608.25 0 31.5 S
2002.25 624 31.5 0 S
2019.5 608.25 0 31.5 S
2003.75 624 31.5 0 S
2020.5 606.25 0 31.5 S
2004.75 622 31.5 0 S
2022 612.75 0 31.5 S
2006.25 628.5 31.5 0 S
2023 608.25 0 31.5 S
2007.25 624 31.5 0 S
2024.5 606.25 0 31.5 S
2008.75 622 31.5 0 S
2025.5 606.25 0 31.5 S
2009.75 622 31.5 0 S
2027 614.75 0 31.5 S
2011.25 630.5 31.5 0 S
2029.5 606.25 0 31.5 S
2013.75 622 31.5 0 S
2031 606.25 0 31.5 S
2015.25 622 31.5 0 S
2033.5 606.25 0 31.5 S
2017.75 622 31.5 0 S
2036 610.25 0 31.5 S
2020.25 626 31.5 0 S
2042 610.25 0 31.5 S
2026.25 626 31.5 0 S
2046 606.25 0 31.5 S
2030.25 622 31.5 0 S
2047 606.25 0 31.5 S
2031.25 622 31.5 0 S
2050 606.25 0 31.5 S
2034.25 622 31.5 0 S
2052.5 606.25 0 31.5 S
2036.75 622 31.5 0 S
2055 606.25 0 31.5 S
2039.25 622 31.5 0 S
2056 608.25 0 31.5 S
2040.25 624 31.5 0 S
2057.5 606.25 0 31.5 S
2041.75 622 31.5 0 S
2061 606.25 0 31.5 S
2045.25 622 31.5 0 S
2062.5 606.25 0 31.5 S
2046.75 622 31.5 0 S
2065 608.25 0 31.5 S
2049.25 624 31.5 0 S
2067.5 608.25 0 31.5 S
2051.75 624 31.5 0 S
2071.5 606.25 0 31.5 S
2055.75 622 31.5 0 S
2080 606.25 0 31.5 S
2064.25 622 31.5 0 S
2084 606.25 0 31.5 S
2068.25 622 31.5 0 S
2090.5 606.25 0 31.5 S
2074.75 622 31.5 0 S
2098 606.25 0 31.5 S
2082.25 622 31.5 0 S
2122 606.25 0 31.5 S
2106.25 622 31.5 0 S
2075 606.25 0 31.5 S
2059.25 622 31.5 0 S
2070 606.25 0 31.5 S
2054.25 622 31.5 0 S
2057.5 606.25 0 31.5 S
2041.75 622 31.5 0 S
2170.5 606.25 0 31.5 S
2154.75 622 31.5 0 S
2175.5 606.25 0 31.5 S
2159.75 622 31.5 0 S
2166.5 606.25 0 31.5 S
2150.75 622 31.5 0 S
2154 608.25 0 31.5 S
2138.25 624 31.5 0 S
2268 608.25 0 31.5 S
2252.25 624 31.5 0 S
2302 608.25 0 31.5 S
2286.25 624 31.5 0 S
2353 608.25 0 31.5 S
2337.25 624 31.5 0 S
2392.5 606.25 0 31.5 S
2376.75 622 31.5 0 S
2449.5 608.25 0 31.5 S
2433.75 624 31.5 0 S
2452 608.25 0 31.5 S
2436.25 624 31.5 0 S
2458.5 608.25 0 31.5 S
2442.75 624 31.5 0 S
2464.5 606.25 0 31.5 S
2448.75 622 31.5 0 S
2466 606.25 0 31.5 S
2450.25 622 31.5 0 S
2478.5 606.25 0 31.5 S
2462.75 622 31.5 0 S
2485 606.25 0 31.5 S
2469.25 622 31.5 0 S
2496.5 610.25 0 31.5 S
2480.75 626 31.5 0 S
2499 608.25 0 31.5 S
2483.25 624 31.5 0 S
2504 606.25 0 31.5 S
2488.25 622 31.5 0 S
2506.5 606.25 0 31.5 S
2490.75 622 31.5 0 S
2511.5 608.25 0 31.5 S
2495.75 624 31.5 0 S
2514 608.25 0 31.5 S
2498.25 624 31.5 0 S
2516.5 606.25 0 31.5 S
2500.75 622 31.5 0 S
2519 606.25 0 31.5 S
2503.25 622 31.5 0 S
2527 606.25 0 31.5 S
2511.25 622 31.5 0 S
2528 606.25 0 31.5 S
2512.25 622 31.5 0 S
2529.5 608.25 0 31.5 S
2513.75 624 31.5 0 S
2530.5 608.25 0 31.5 S
2514.75 624 31.5 0 S
2533 606.25 0 31.5 S
2517.25 622 31.5 0 S
2535.5 606.25 0 31.5 S
2519.75 622 31.5 0 S
2537 606.25 0 31.5 S
2521.25 622 31.5 0 S
2539.5 608.25 0 31.5 S
2523.75 624 31.5 0 S
2542 608.25 0 31.5 S
2526.25 624 31.5 0 S
2543.5 608.25 0 31.5 S
2527.75 624 31.5 0 S
5 w
818 620 1776 1248 re
S
cleartomark end end pagesave restore
 showpage
%%PageTrailer
%%Trailer
%%Pages: 1
