%!PS-Adobe-3.0 EPSF-3.0
%%BoundingBox: 68 53 265 190
%%HiResBoundingBox: 68.900000 53.900000 264.900000 189.100000
%.....................................
%%Creator: GPL Ghostscript 871 (epswrite)
%%CreationDate: 2012/01/28 17:04:48
%%DocumentData: Clean7Bit
%%LanguageLevel: 2
%%EndComments
%%BeginProlog
% This copyright applies to everything between here and the %%EndProlog:
% Copyright (C) 2010 Artifex Software, Inc.  All rights reserved.
%%BeginResource: procset GS_epswrite_2_0_1001 1.001 0
/GS_epswrite_2_0_1001 80 dict dup begin
/PageSize 2 array def/setpagesize{ PageSize aload pop 3 index eq exch
4 index eq and{ pop pop pop}{ PageSize dup  1
5 -1 roll put 0 4 -1 roll put dup null eq {false} {dup where} ifelse{ exch get exec}
{ pop/setpagedevice where
{ pop 1 dict dup /PageSize PageSize put setpagedevice}
{ /setpage where{ pop PageSize aload pop pageparams 3 {exch pop} repeat
setpage}if}ifelse}ifelse}ifelse} bind def
/!{bind def}bind def/#{load def}!/N/counttomark #
/rG{3{3 -1 roll 255 div}repeat setrgbcolor}!/G{255 div setgray}!/K{0 G}!
/r6{dup 3 -1 roll rG}!/r5{dup 3 1 roll rG}!/r3{dup rG}!
/w/setlinewidth #/J/setlinecap #
/j/setlinejoin #/M/setmiterlimit #/d/setdash #/i/setflat #
/m/moveto #/l/lineto #/c/rcurveto #
/p{N 2 idiv{N -2 roll rlineto}repeat}!
/P{N 0 gt{N -2 roll moveto p}if}!
/h{p closepath}!/H{P closepath}!
/lx{0 rlineto}!/ly{0 exch rlineto}!/v{0 0 6 2 roll c}!/y{2 copy c}!
/re{4 -2 roll m exch dup lx exch ly neg lx h}!
/^{3 index neg 3 index neg}!
/f{P fill}!/f*{P eofill}!/s{H stroke}!/S{P stroke}!
/q/gsave #/Q/grestore #/rf{re fill}!
/Y{P clip newpath}!/Y*{P eoclip newpath}!/rY{re Y}!
/|={pop exch 4 1 roll 1 array astore cvx 3 array astore cvx exch 1 index def exec}!
/|{exch string readstring |=}!
/+{dup type/nametype eq{2 index 7 add -3 bitshift 2 index mul}if}!
/@/currentfile #/${+ @ |}!
/B{{2 copy string{readstring pop}aload pop 4 array astore cvx
3 1 roll}repeat pop pop true}!
/Ix{[1 0 0 1 11 -2 roll exch neg exch neg]exch}!
/,{true exch Ix imagemask}!/If{false exch Ix imagemask}!/I{exch Ix image}!
/Ic{exch Ix false 3 colorimage}!
/F{/Columns counttomark 3 add -2 roll/Rows exch/K -1/BlackIs1 true>>
/CCITTFaxDecode filter}!/FX{<</EndOfBlock false F}!
/X{/ASCII85Decode filter}!/@X{@ X}!/&2{2 index 2 index}!
/@F{@ &2<<F}!/@C{@X &2 FX}!
/$X{+ @X |}!/&4{4 index 4 index}!/$F{+ @ &4<<F |}!/$C{+ @X &4 FX |}!
/IC{3 1 roll 10 dict begin 1{/ImageType/Interpolate/Decode/DataSource
/ImageMatrix/BitsPerComponent/Height/Width}{exch def}forall
currentdict end image}!
/~{@ read {pop} if}!
end def
%%EndResource
/pagesave null def
%%EndProlog
%%Page: 1 1
%%BeginPageSetup
GS_epswrite_2_0_1001 begin
/pagesave save store 197 dict begin
0.1 0.1 scale
%%EndPageSetup
gsave mark
Q q
0 0 250000 250000 re
Y
5 w
K
854 620 31.5 0 P
2594 620 -31.5 0 S
789 600 17 43 /3U
$C
,Tm'ds8W-!s-F.@R>;m@If~>
,
854 745 15.5 0 P
2594 745 -15.5 0 P
854 818.5 15.5 0 P
2594 818.5 -15.5 0 P
854 870.5 15.5 0 P
2594 870.5 -15.5 0 P
854 911 15.5 0 P
2594 911 -15.5 0 P
854 943.5 15.5 0 P
2594 943.5 -15.5 0 P
854 971.5 15.5 0 P
2594 971.5 -15.5 0 P
854 995.5 15.5 0 P
2594 995.5 -15.5 0 P
854 1017 15.5 0 P
2594 1017 -15.5 0 P
854 1036 31.5 0 P
2594 1036 -31.5 0 S
755 1016 3U ,
781 1015 34 44 /6U
$C
23%r'%\5X)j2)<u^Zk'1J,ZoQs8W-!s8VJ_s8Qk\g>99H(eYmM:r7r$~>
,
854 1161 15.5 0 P
2594 1161 -15.5 0 P
854 1234.5 15.5 0 P
2594 1234.5 -15.5 0 P
854 1286.5 15.5 0 P
2594 1286.5 -15.5 0 P
854 1327 15.5 0 P
2594 1327 -15.5 0 P
854 1359.5 15.5 0 P
2594 1359.5 -15.5 0 P
854 1387.5 15.5 0 P
2594 1387.5 -15.5 0 P
854 1411.5 15.5 0 P
2594 1411.5 -15.5 0 P
854 1433 15.5 0 P
2594 1433 -15.5 0 P
854 1452 31.5 0 P
2594 1452 -31.5 0 S
722 1432 3U ,
747 1431 6U ,
781 1431 6U ,
854 1577 15.5 0 P
2594 1577 -15.5 0 P
854 1650.5 15.5 0 P
2594 1650.5 -15.5 0 P
854 1702.5 15.5 0 P
2594 1702.5 -15.5 0 P
854 1743 15.5 0 P
2594 1743 -15.5 0 P
854 1775.5 15.5 0 P
2594 1775.5 -15.5 0 P
854 1803.5 15.5 0 P
2594 1803.5 -15.5 0 P
854 1827.5 15.5 0 P
2594 1827.5 -15.5 0 P
854 1849 15.5 0 P
2594 1849 -15.5 0 P
854 1868 31.5 0 P
2594 1868 -31.5 0 S
689 1848 3U ,
714 1847 6U ,
747 1847 6U ,
781 1847 6U ,
854 620 0 31.5 P
854 1868 0 -31.5 S
790 555 21 4 /3Y
$C
4qID~>
,
810 539 35 44 /6Y
$C
22__[-UH4U05uPcT2!a`He7T^qXqU=['7F,Z=C&h$n`Au*WOE]DtUNIgIhr,MR@1;L'd~>
,
843 539 6U ,
877 539 6U ,
1102.5 620 0 31.5 P
1102.5 1868 0 -31.5 S
1038 555 3Y ,
1058 540 35 43 /4C
$C
.M)RZs3Cmfr0V$lmIpMQmIpMQmJH;FpY5/kn_X9>^V/P~>
,
1092 539 6U ,
1125 539 6U ,
1351 620 0 31.5 P
1351 1868 0 -31.5 S
1287 555 3Y ,
1307 540 34 43 /7C
$C
4;jd(Qp5fN^"]dYfPna4iOE=NL>hOS^UAOiqu,+3CMbUV[OTh+@7(A~>
,
1340 539 6U ,
1374 539 6U ,
1599.5 620 0 31.5 P
1599.5 1868 0 -31.5 S
1587 539 6U ,
1848.5 620 0 31.5 P
1848.5 1868 0 -31.5 S
1803 540 7C ,
1836 539 6U ,
1870 539 6U ,
2097 620 0 31.5 P
2097 1868 0 -31.5 S
2051 540 4C ,
2085 539 6U ,
2118 539 6U ,
2345.5 620 0 31.5 P
2345.5 1868 0 -31.5 S
2300 539 6Y ,
2333 539 6U ,
2367 539 6U ,
2594 620 0 31.5 P
2594 1868 0 -31.5 S
2548 539 35 44 /4G
$C
2$jBqS07(D'Aa:H#WJZ`e,TIHX4Gk>$!:Ud'l"Rbl-UTa#WJZ`l2Ue`CO4^e@4ZT(6OF59~>
,
2582 539 6U ,
2615 539 6U ,
854 620 1740 1248 re
S
2.5 w
1063 729.25 0 31.5 S
1047.25 745 31.5 0 S
1064 729.25 0 31.5 S
1048.25 745 31.5 0 S
1066.5 729.25 0 31.5 S
1050.75 745 31.5 0 S
1069 604.25 0 31.5 S
1053.25 620 31.5 0 S
1071.5 604.25 0 31.5 S
1055.75 620 31.5 0 S
1074 604.25 0 31.5 S
1058.25 620 31.5 0 S
1076.5 604.25 0 31.5 S
1060.75 620 31.5 0 S
1079 729.25 0 31.5 S
1063.25 745 31.5 0 S
1081.5 729.25 0 31.5 S
1065.75 745 31.5 0 S
1084 729.25 0 31.5 S
1068.25 745 31.5 0 S
1086.5 729.25 0 31.5 S
1070.75 745 31.5 0 S
1089 802.75 0 31.5 S
1073.25 818.5 31.5 0 S
1094 729.25 0 31.5 S
1078.25 745 31.5 0 S
1095 729.25 0 31.5 S
1079.25 745 31.5 0 S
1099 604.25 0 31.5 S
1083.25 620 31.5 0 S
1101.5 604.25 0 31.5 S
1085.75 620 31.5 0 S
1102.5 604.25 0 31.5 S
1086.75 620 31.5 0 S
1104 604.25 0 31.5 S
1088.25 620 31.5 0 S
1107.5 604.25 0 31.5 S
1091.75 620 31.5 0 S
1112.5 604.25 0 31.5 S
1096.75 620 31.5 0 S
1121 604.25 0 31.5 S
1105.25 620 31.5 0 S
1126 729.25 0 31.5 S
1110.25 745 31.5 0 S
1131 729.25 0 31.5 S
1115.25 745 31.5 0 S
1137.5 729.25 0 31.5 S
1121.75 745 31.5 0 S
1140 604.25 0 31.5 S
1124.25 620 31.5 0 S
1141 604.25 0 31.5 S
1125.25 620 31.5 0 S
1146 604.25 0 31.5 S
1130.25 620 31.5 0 S
1158.5 729.25 0 31.5 S
1142.75 745 31.5 0 S
1164.5 729.25 0 31.5 S
1148.75 745 31.5 0 S
1167 729.25 0 31.5 S
1151.25 745 31.5 0 S
1053 729.25 0 31.5 S
1037.25 745 31.5 0 S
1056.5 604.25 0 31.5 S
1040.75 620 31.5 0 S
1064 802.75 0 31.5 S
1048.25 818.5 31.5 0 S
1066.5 729.25 0 31.5 S
1050.75 745 31.5 0 S
1075 729.25 0 31.5 S
1059.25 745 31.5 0 S
1081.5 604.25 0 31.5 S
1065.75 620 31.5 0 S
1087.5 604.25 0 31.5 S
1071.75 620 31.5 0 S
1092.5 604.25 0 31.5 S
1076.75 620 31.5 0 S
1101.5 604.25 0 31.5 S
1085.75 620 31.5 0 S
1115 604.25 0 31.5 S
1099.25 620 31.5 0 S
1125 729.25 0 31.5 S
1109.25 745 31.5 0 S
1132.5 802.75 0 31.5 S
1116.75 818.5 31.5 0 S
1147.5 729.25 0 31.5 S
1131.75 745 31.5 0 S
1158.5 604.25 0 31.5 S
1142.75 620 31.5 0 S
1159.5 604.25 0 31.5 S
1143.75 620 31.5 0 S
1186 604.25 0 31.5 S
1170.25 620 31.5 0 S
1194.5 604.25 0 31.5 S
1178.75 620 31.5 0 S
1214.5 604.25 0 31.5 S
1198.75 620 31.5 0 S
1232 729.25 0 31.5 S
1216.25 745 31.5 0 S
1320 729.25 0 31.5 S
1304.25 745 31.5 0 S
1324 604.25 0 31.5 S
1308.25 620 31.5 0 S
1327.5 604.25 0 31.5 S
1311.75 620 31.5 0 S
1331.5 604.25 0 31.5 S
1315.75 620 31.5 0 S
1343.5 604.25 0 31.5 S
1327.75 620 31.5 0 S
1345 802.75 0 31.5 S
1329.25 818.5 31.5 0 S
1346 604.25 0 31.5 S
1330.25 620 31.5 0 S
1347.5 604.25 0 31.5 S
1331.75 620 31.5 0 S
1348.5 604.25 0 31.5 S
1332.75 620 31.5 0 S
1351 604.25 0 31.5 S
1335.25 620 31.5 0 S
1352.5 604.25 0 31.5 S
1336.75 620 31.5 0 S
1353.5 729.25 0 31.5 S
1337.75 745 31.5 0 S
1356 802.75 0 31.5 S
1340.25 818.5 31.5 0 S
1357.5 604.25 0 31.5 S
1341.75 620 31.5 0 S
1358.5 729.25 0 31.5 S
1342.75 745 31.5 0 S
1360 729.25 0 31.5 S
1344.25 745 31.5 0 S
1361 854.75 0 31.5 S
1345.25 870.5 31.5 0 S
1362.5 729.25 0 31.5 S
1346.75 745 31.5 0 S
1363.5 604.25 0 31.5 S
1347.75 620 31.5 0 S
1365 802.75 0 31.5 S
1349.25 818.5 31.5 0 S
1366 604.25 0 31.5 S
1350.25 620 31.5 0 S
1367.5 604.25 0 31.5 S
1351.75 620 31.5 0 S
1368.5 729.25 0 31.5 S
1352.75 745 31.5 0 S
1370 729.25 0 31.5 S
1354.25 745 31.5 0 S
1372.5 604.25 0 31.5 S
1356.75 620 31.5 0 S
1373.5 604.25 0 31.5 S
1357.75 620 31.5 0 S
1375 604.25 0 31.5 S
1359.25 620 31.5 0 S
1376 802.75 0 31.5 S
1360.25 818.5 31.5 0 S
1377 895.25 0 31.5 S
1361.25 911 31.5 0 S
1378.5 854.75 0 31.5 S
1362.75 870.5 31.5 0 S
1379.5 604.25 0 31.5 S
1363.75 620 31.5 0 S
1381 895.25 0 31.5 S
1365.25 911 31.5 0 S
1382 854.75 0 31.5 S
1366.25 870.5 31.5 0 S
1383.5 854.75 0 31.5 S
1367.75 870.5 31.5 0 S
1384.5 802.75 0 31.5 S
1368.75 818.5 31.5 0 S
1386 604.25 0 31.5 S
1370.25 620 31.5 0 S
1387 927.75 0 31.5 S
1371.25 943.5 31.5 0 S
1388.5 802.75 0 31.5 S
1372.75 818.5 31.5 0 S
1389.5 979.75 0 31.5 S
1373.75 995.5 31.5 0 S
1391 955.75 0 31.5 S
1375.25 971.5 31.5 0 S
1392 895.25 0 31.5 S
1376.25 911 31.5 0 S
1393.5 604.25 0 31.5 S
1377.75 620 31.5 0 S
1394.5 604.25 0 31.5 S
1378.75 620 31.5 0 S
1396 729.25 0 31.5 S
1380.25 745 31.5 0 S
1397 895.25 0 31.5 S
1381.25 911 31.5 0 S
1398.5 895.25 0 31.5 S
1382.75 911 31.5 0 S
1399.5 802.75 0 31.5 S
1383.75 818.5 31.5 0 S
1401 895.25 0 31.5 S
1385.25 911 31.5 0 S
1402 802.75 0 31.5 S
1386.25 818.5 31.5 0 S
1403.5 927.75 0 31.5 S
1387.75 943.5 31.5 0 S
1404.5 895.25 0 31.5 S
1388.75 911 31.5 0 S
1406 927.75 0 31.5 S
1390.25 943.5 31.5 0 S
1407 1037.25 0 31.5 S
1391.25 1053 31.5 0 S
1408.5 955.75 0 31.5 S
1392.75 971.5 31.5 0 S
1409.5 955.75 0 31.5 S
1393.75 971.5 31.5 0 S
1411 1001.25 0 31.5 S
1395.25 1017 31.5 0 S
1412 802.75 0 31.5 S
1396.25 818.5 31.5 0 S
1413.5 802.75 0 31.5 S
1397.75 818.5 31.5 0 S
1414.5 955.75 0 31.5 S
1398.75 971.5 31.5 0 S
1416 1053.25 0 31.5 S
1400.25 1069 31.5 0 S
1417 927.75 0 31.5 S
1401.25 943.5 31.5 0 S
1418.5 1081.25 0 31.5 S
1402.75 1097 31.5 0 S
1419.5 1081.25 0 31.5 S
1403.75 1097 31.5 0 S
1420.5 979.75 0 31.5 S
1404.75 995.5 31.5 0 S
1422 979.75 0 31.5 S
1406.25 995.5 31.5 0 S
1423 1053.25 0 31.5 S
1407.25 1069 31.5 0 S
1424.5 1116.25 0 31.5 S
1408.75 1132 31.5 0 S
1425.5 1093.75 0 31.5 S
1409.75 1109.5 31.5 0 S
1427 1067.75 0 31.5 S
1411.25 1083.5 31.5 0 S
1428 979.75 0 31.5 S
1412.25 995.5 31.5 0 S
1429.5 1105.25 0 31.5 S
1413.75 1121 31.5 0 S
1430.5 1105.25 0 31.5 S
1414.75 1121 31.5 0 S
1432 1126.25 0 31.5 S
1416.25 1142 31.5 0 S
1433 1093.75 0 31.5 S
1417.25 1109.5 31.5 0 S
1434.5 895.25 0 31.5 S
1418.75 911 31.5 0 S
1435.5 1116.25 0 31.5 S
1419.75 1132 31.5 0 S
1437 1145.25 0 31.5 S
1421.25 1161 31.5 0 S
1438 1126.25 0 31.5 S
1422.25 1142 31.5 0 S
1439.5 1020.25 0 31.5 S
1423.75 1036 31.5 0 S
1440.5 1154.25 0 31.5 S
1424.75 1170 31.5 0 S
1442 1126.25 0 31.5 S
1426.25 1142 31.5 0 S
1443 1170.75 0 31.5 S
1427.25 1186.5 31.5 0 S
1444.5 1145.25 0 31.5 S
1428.75 1161 31.5 0 S
1445.5 1116.25 0 31.5 S
1429.75 1132 31.5 0 S
1447 1199.75 0 31.5 S
1431.25 1215.5 31.5 0 S
1448 1145.25 0 31.5 S
1432.25 1161 31.5 0 S
1449.5 1206.25 0 31.5 S
1433.75 1222 31.5 0 S
1450.5 1199.75 0 31.5 S
1434.75 1215.5 31.5 0 S
1452 1116.25 0 31.5 S
1436.25 1132 31.5 0 S
1453 1037.25 0 31.5 S
1437.25 1053 31.5 0 S
1454.5 1185.75 0 31.5 S
1438.75 1201.5 31.5 0 S
1455.5 1126.25 0 31.5 S
1439.75 1142 31.5 0 S
1457 1170.75 0 31.5 S
1441.25 1186.5 31.5 0 S
1458 1178.25 0 31.5 S
1442.25 1194 31.5 0 S
1459.5 1206.25 0 31.5 S
1443.75 1222 31.5 0 S
1460.5 1185.75 0 31.5 S
1444.75 1201.5 31.5 0 S
1462 1105.25 0 31.5 S
1446.25 1121 31.5 0 S
1463 1199.75 0 31.5 S
1447.25 1215.5 31.5 0 S
1464 1230.25 0 31.5 S
1448.25 1246 31.5 0 S
1465.5 1162.75 0 31.5 S
1449.75 1178.5 31.5 0 S
1466.5 1235.75 0 31.5 S
1450.75 1251.5 31.5 0 S
1468 1224.75 0 31.5 S
1452.25 1240.5 31.5 0 S
1469 1212.75 0 31.5 S
1453.25 1228.5 31.5 0 S
1470.5 1199.75 0 31.5 S
1454.75 1215.5 31.5 0 S
1471.5 1212.75 0 31.5 S
1455.75 1228.5 31.5 0 S
1473 1206.25 0 31.5 S
1457.25 1222 31.5 0 S
1474 1261.25 0 31.5 S
1458.25 1277 31.5 0 S
1475.5 1212.75 0 31.5 S
1459.75 1228.5 31.5 0 S
1476.5 1256.75 0 31.5 S
1460.75 1272.5 31.5 0 S
1478 1256.75 0 31.5 S
1462.25 1272.5 31.5 0 S
1479 1299.75 0 31.5 S
1463.25 1315.5 31.5 0 S
1480.5 1287.75 0 31.5 S
1464.75 1303.5 31.5 0 S
1481.5 1295.75 0 31.5 S
1465.75 1311.5 31.5 0 S
1483 1279.75 0 31.5 S
1467.25 1295.5 31.5 0 S
1484 1346.75 0 31.5 S
1468.25 1362.5 31.5 0 S
1485.5 1331.25 0 31.5 S
1469.75 1347 31.5 0 S
1486.5 1311.25 0 31.5 S
1470.75 1327 31.5 0 S
1488 1328.25 0 31.5 S
1472.25 1344 31.5 0 S
1489 1355.75 0 31.5 S
1473.25 1371.5 31.5 0 S
1490.5 1371.75 0 31.5 S
1474.75 1387.5 31.5 0 S
1491.5 1303.75 0 31.5 S
1475.75 1319.5 31.5 0 S
1493 1328.25 0 31.5 S
1477.25 1344 31.5 0 S
1494 1299.75 0 31.5 S
1478.25 1315.5 31.5 0 S
1495.5 1340.75 0 31.5 S
1479.75 1356.5 31.5 0 S
1496.5 1340.75 0 31.5 S
1480.75 1356.5 31.5 0 S
1498 1334.75 0 31.5 S
1482.25 1350.5 31.5 0 S
1499 1374.25 0 31.5 S
1483.25 1390 31.5 0 S
1500.5 1328.25 0 31.5 S
1484.75 1344 31.5 0 S
1501.5 1291.75 0 31.5 S
1485.75 1307.5 31.5 0 S
1503 1389.25 0 31.5 S
1487.25 1405 31.5 0 S
1504 1376.75 0 31.5 S
1488.25 1392.5 31.5 0 S
1505.5 1384.25 0 31.5 S
1489.75 1400 31.5 0 S
1506.5 1379.25 0 31.5 S
1490.75 1395 31.5 0 S
1507.5 1384.25 0 31.5 S
1491.75 1400 31.5 0 S
1509 1409.25 0 31.5 S
1493.25 1425 31.5 0 S
1510 1343.75 0 31.5 S
1494.25 1359.5 31.5 0 S
1511.5 1402.75 0 31.5 S
1495.75 1418.5 31.5 0 S
1512.5 1400.25 0 31.5 S
1496.75 1416 31.5 0 S
1514 1419.25 0 31.5 S
1498.25 1435 31.5 0 S
1515 1415.25 0 31.5 S
1499.25 1431 31.5 0 S
1516.5 1400.25 0 31.5 S
1500.75 1416 31.5 0 S
1517.5 1445.25 0 31.5 S
1501.75 1461 31.5 0 S
1519 1426.75 0 31.5 S
1503.25 1442.5 31.5 0 S
1520 1426.75 0 31.5 S
1504.25 1442.5 31.5 0 S
1521.5 1421.25 0 31.5 S
1505.75 1437 31.5 0 S
1522.5 1445.25 0 31.5 S
1506.75 1461 31.5 0 S
1524 1448.25 0 31.5 S
1508.25 1464 31.5 0 S
1525 1446.75 0 31.5 S
1509.25 1462.5 31.5 0 S
1526.5 1486.25 0 31.5 S
1510.75 1502 31.5 0 S
1527.5 1475.25 0 31.5 S
1511.75 1491 31.5 0 S
1529 1486.25 0 31.5 S
1513.25 1502 31.5 0 S
1530 1489.25 0 31.5 S
1514.25 1505 31.5 0 S
1531.5 1459.75 0 31.5 S
1515.75 1475.5 31.5 0 S
1532.5 1499.75 0 31.5 S
1516.75 1515.5 31.5 0 S
1534 1475.25 0 31.5 S
1518.25 1491 31.5 0 S
1535 1486.25 0 31.5 S
1519.25 1502 31.5 0 S
1536.5 1456.75 0 31.5 S
1520.75 1472.5 31.5 0 S
1537.5 1494.25 0 31.5 S
1521.75 1510 31.5 0 S
1539 1509.75 0 31.5 S
1523.25 1525.5 31.5 0 S
1540 1491.75 0 31.5 S
1524.25 1507.5 31.5 0 S
1541.5 1502.25 0 31.5 S
1525.75 1518 31.5 0 S
1542.5 1516.75 0 31.5 S
1526.75 1532.5 31.5 0 S
1544 1499.75 0 31.5 S
1528.25 1515.5 31.5 0 S
1545 1487.75 0 31.5 S
1529.25 1503.5 31.5 0 S
1546.5 1545.25 0 31.5 S
1530.75 1561 31.5 0 S
1547.5 1497.25 0 31.5 S
1531.75 1513 31.5 0 S
1549 1537.25 0 31.5 S
1533.25 1553 31.5 0 S
1550 1516.75 0 31.5 S
1534.25 1532.5 31.5 0 S
1551 1529.75 0 31.5 S
1535.25 1545.5 31.5 0 S
1552.5 1535.25 0 31.5 S
1536.75 1551 31.5 0 S
1553.5 1528.75 0 31.5 S
1537.75 1544.5 31.5 0 S
1555 1527.75 0 31.5 S
1539.25 1543.5 31.5 0 S
1556 1524.75 0 31.5 S
1540.25 1540.5 31.5 0 S
1557.5 1518.75 0 31.5 S
1541.75 1534.5 31.5 0 S
1558.5 1554.25 0 31.5 S
1542.75 1570 31.5 0 S
1560 1571.25 0 31.5 S
1544.25 1587 31.5 0 S
1561 1565.25 0 31.5 S
1545.25 1581 31.5 0 S
1562.5 1566.75 0 31.5 S
1546.75 1582.5 31.5 0 S
1563.5 1563.25 0 31.5 S
1547.75 1579 31.5 0 S
1565 1543.25 0 31.5 S
1549.25 1559 31.5 0 S
1566 1559.75 0 31.5 S
1550.25 1575.5 31.5 0 S
1567.5 1570.25 0 31.5 S
1551.75 1586 31.5 0 S
1568.5 1569.25 0 31.5 S
1552.75 1585 31.5 0 S
1570 1565.75 0 31.5 S
1554.25 1581.5 31.5 0 S
1571 1583.75 0 31.5 S
1555.25 1599.5 31.5 0 S
1572.5 1581.75 0 31.5 S
1556.75 1597.5 31.5 0 S
1573.5 1580.25 0 31.5 S
1557.75 1596 31.5 0 S
1575 1585.75 0 31.5 S
1559.25 1601.5 31.5 0 S
1576 1574.75 0 31.5 S
1560.25 1590.5 31.5 0 S
1577.5 1579.75 0 31.5 S
1561.75 1595.5 31.5 0 S
1578.5 1613.25 0 31.5 S
1562.75 1629 31.5 0 S
1580 1592.25 0 31.5 S
1564.25 1608 31.5 0 S
1581 1597.25 0 31.5 S
1565.25 1613 31.5 0 S
1582.5 1609.75 0 31.5 S
1566.75 1625.5 31.5 0 S
1583.5 1595.25 0 31.5 S
1567.75 1611 31.5 0 S
1585 1607.25 0 31.5 S
1569.25 1623 31.5 0 S
1586 1619.75 0 31.5 S
1570.25 1635.5 31.5 0 S
1587.5 1594.25 0 31.5 S
1571.75 1610 31.5 0 S
1588.5 1602.75 0 31.5 S
1572.75 1618.5 31.5 0 S
1590 1610.75 0 31.5 S
1574.25 1626.5 31.5 0 S
1591 1605.25 0 31.5 S
1575.25 1621 31.5 0 S
1592.5 1627.75 0 31.5 S
1576.75 1643.5 31.5 0 S
1593.5 1629.25 0 31.5 S
1577.75 1645 31.5 0 S
1594.5 1632.25 0 31.5 S
1578.75 1648 31.5 0 S
1596 1637.75 0 31.5 S
1580.25 1653.5 31.5 0 S
1597 1615.25 0 31.5 S
1581.25 1631 31.5 0 S
1598.5 1637.25 0 31.5 S
1582.75 1653 31.5 0 S
1601 1640.75 0 31.5 S
1585.25 1656.5 31.5 0 S
1602 1631.75 0 31.5 S
1586.25 1647.5 31.5 0 S
1603.5 1642.25 0 31.5 S
1587.75 1658 31.5 0 S
1604.5 1635.25 0 31.5 S
1588.75 1651 31.5 0 S
1606 1646.25 0 31.5 S
1590.25 1662 31.5 0 S
1607 1638.75 0 31.5 S
1591.25 1654.5 31.5 0 S
1608.5 1633.75 0 31.5 S
1592.75 1649.5 31.5 0 S
1609.5 1655.75 0 31.5 S
1593.75 1671.5 31.5 0 S
1611 1656.25 0 31.5 S
1595.25 1672 31.5 0 S
1612 1661.25 0 31.5 S
1596.25 1677 31.5 0 S
1613.5 1675.75 0 31.5 S
1597.75 1691.5 31.5 0 S
1614.5 1662.75 0 31.5 S
1598.75 1678.5 31.5 0 S
1616 1655.25 0 31.5 S
1600.25 1671 31.5 0 S
1617 1653.75 0 31.5 S
1601.25 1669.5 31.5 0 S
1618.5 1672.25 0 31.5 S
1602.75 1688 31.5 0 S
1619.5 1669.75 0 31.5 S
1603.75 1685.5 31.5 0 S
1621 1675.75 0 31.5 S
1605.25 1691.5 31.5 0 S
1622 1671.25 0 31.5 S
1606.25 1687 31.5 0 S
1623.5 1683.75 0 31.5 S
1607.75 1699.5 31.5 0 S
1624.5 1686.25 0 31.5 S
1608.75 1702 31.5 0 S
1626 1682.25 0 31.5 S
1610.25 1698 31.5 0 S
1627 1675.25 0 31.5 S
1611.25 1691 31.5 0 S
1628.5 1672.25 0 31.5 S
1612.75 1688 31.5 0 S
1629.5 1675.75 0 31.5 S
1613.75 1691.5 31.5 0 S
1631 1684.75 0 31.5 S
1615.25 1700.5 31.5 0 S
1632 1698.25 0 31.5 S
1616.25 1714 31.5 0 S
1633.5 1684.25 0 31.5 S
1617.75 1700 31.5 0 S
1634.5 1667.75 0 31.5 S
1618.75 1683.5 31.5 0 S
1636 1687.75 0 31.5 S
1620.25 1703.5 31.5 0 S
1637 1688.25 0 31.5 S
1621.25 1704 31.5 0 S
1638 1677.25 0 31.5 S
1622.25 1693 31.5 0 S
1639.5 1697.75 0 31.5 S
1623.75 1713.5 31.5 0 S
1640.5 1713.75 0 31.5 S
1624.75 1729.5 31.5 0 S
1642 1688.75 0 31.5 S
1626.25 1704.5 31.5 0 S
1643 1709.25 0 31.5 S
1627.25 1725 31.5 0 S
1644.5 1694.75 0 31.5 S
1628.75 1710.5 31.5 0 S
1645.5 1698.25 0 31.5 S
1629.75 1714 31.5 0 S
1647 1704.25 0 31.5 S
1631.25 1720 31.5 0 S
1648 1709.75 0 31.5 S
1632.25 1725.5 31.5 0 S
1649.5 1715.25 0 31.5 S
1633.75 1731 31.5 0 S
1650.5 1703.75 0 31.5 S
1634.75 1719.5 31.5 0 S
1652 1706.25 0 31.5 S
1636.25 1722 31.5 0 S
1653 1692.75 0 31.5 S
1637.25 1708.5 31.5 0 S
1654.5 1709.75 0 31.5 S
1638.75 1725.5 31.5 0 S
1655.5 1716.75 0 31.5 S
1639.75 1732.5 31.5 0 S
1657 1709.75 0 31.5 S
1641.25 1725.5 31.5 0 S
1658 1726.75 0 31.5 S
1642.25 1742.5 31.5 0 S
1659.5 1713.75 0 31.5 S
1643.75 1729.5 31.5 0 S
1660.5 1727.25 0 31.5 S
1644.75 1743 31.5 0 S
1662 1712.25 0 31.5 S
1646.25 1728 31.5 0 S
1663 1718.25 0 31.5 S
1647.25 1734 31.5 0 S
1664.5 1697.75 0 31.5 S
1648.75 1713.5 31.5 0 S
1665.5 1709.75 0 31.5 S
1649.75 1725.5 31.5 0 S
1667 1708.25 0 31.5 S
1651.25 1724 31.5 0 S
1668 1722.75 0 31.5 S
1652.25 1738.5 31.5 0 S
1669.5 1709.75 0 31.5 S
1653.75 1725.5 31.5 0 S
1670.5 1728.25 0 31.5 S
1654.75 1744 31.5 0 S
1672 1701.75 0 31.5 S
1656.25 1717.5 31.5 0 S
1673 1729.75 0 31.5 S
1657.25 1745.5 31.5 0 S
1674.5 1715.25 0 31.5 S
1658.75 1731 31.5 0 S
1675.5 1717.25 0 31.5 S
1659.75 1733 31.5 0 S
1677 1715.25 0 31.5 S
1661.25 1731 31.5 0 S
1678 1717.75 0 31.5 S
1662.25 1733.5 31.5 0 S
1679.5 1719.75 0 31.5 S
1663.75 1735.5 31.5 0 S
1680.5 1718.75 0 31.5 S
1664.75 1734.5 31.5 0 S
1681.5 1731.75 0 31.5 S
1665.75 1747.5 31.5 0 S
1683 1722.75 0 31.5 S
1667.25 1738.5 31.5 0 S
1684 1707.75 0 31.5 S
1668.25 1723.5 31.5 0 S
1685.5 1717.75 0 31.5 S
1669.75 1733.5 31.5 0 S
1686.5 1736.75 0 31.5 S
1670.75 1752.5 31.5 0 S
1688 1718.75 0 31.5 S
1672.25 1734.5 31.5 0 S
1689 1737.75 0 31.5 S
1673.25 1753.5 31.5 0 S
1690.5 1731.75 0 31.5 S
1674.75 1747.5 31.5 0 S
1691.5 1731.75 0 31.5 S
1675.75 1747.5 31.5 0 S
1693 1714.25 0 31.5 S
1677.25 1730 31.5 0 S
1694 1718.25 0 31.5 S
1678.25 1734 31.5 0 S
1695.5 1716.75 0 31.5 S
1679.75 1732.5 31.5 0 S
1696.5 1740.75 0 31.5 S
1680.75 1756.5 31.5 0 S
1698 1718.25 0 31.5 S
1682.25 1734 31.5 0 S
1699 1722.75 0 31.5 S
1683.25 1738.5 31.5 0 S
1700.5 1726.25 0 31.5 S
1684.75 1742 31.5 0 S
1701.5 1725.75 0 31.5 S
1685.75 1741.5 31.5 0 S
1703 1720.25 0 31.5 S
1687.25 1736 31.5 0 S
1704 1718.75 0 31.5 S
1688.25 1734.5 31.5 0 S
1705.5 1711.75 0 31.5 S
1689.75 1727.5 31.5 0 S
1706.5 1728.25 0 31.5 S
1690.75 1744 31.5 0 S
1708 1733.75 0 31.5 S
1692.25 1749.5 31.5 0 S
1709 1733.25 0 31.5 S
1693.25 1749 31.5 0 S
1710.5 1722.25 0 31.5 S
1694.75 1738 31.5 0 S
1711.5 1719.25 0 31.5 S
1695.75 1735 31.5 0 S
1713 1718.75 0 31.5 S
1697.25 1734.5 31.5 0 S
1714 1729.75 0 31.5 S
1698.25 1745.5 31.5 0 S
1715.5 1732.25 0 31.5 S
1699.75 1748 31.5 0 S
1716.5 1716.75 0 31.5 S
1700.75 1732.5 31.5 0 S
1718 1728.25 0 31.5 S
1702.25 1744 31.5 0 S
1719 1726.25 0 31.5 S
1703.25 1742 31.5 0 S
1720.5 1718.25 0 31.5 S
1704.75 1734 31.5 0 S
1721.5 1715.25 0 31.5 S
1705.75 1731 31.5 0 S
1723 1724.25 0 31.5 S
1707.25 1740 31.5 0 S
1724 1735.25 0 31.5 S
1708.25 1751 31.5 0 S
1725 1733.25 0 31.5 S
1709.25 1749 31.5 0 S
1726.5 1729.75 0 31.5 S
1710.75 1745.5 31.5 0 S
1727.5 1719.75 0 31.5 S
1711.75 1735.5 31.5 0 S
1729 1710.75 0 31.5 S
1713.25 1726.5 31.5 0 S
1730 1713.25 0 31.5 S
1714.25 1729 31.5 0 S
1731.5 1721.75 0 31.5 S
1715.75 1737.5 31.5 0 S
1732.5 1709.25 0 31.5 S
1716.75 1725 31.5 0 S
1734 1726.25 0 31.5 S
1718.25 1742 31.5 0 S
1735 1705.75 0 31.5 S
1719.25 1721.5 31.5 0 S
1736.5 1724.25 0 31.5 S
1720.75 1740 31.5 0 S
1737.5 1703.75 0 31.5 S
1721.75 1719.5 31.5 0 S
1739 1701.25 0 31.5 S
1723.25 1717 31.5 0 S
1740 1713.75 0 31.5 S
1724.25 1729.5 31.5 0 S
1741.5 1709.75 0 31.5 S
1725.75 1725.5 31.5 0 S
1742.5 1717.25 0 31.5 S
1726.75 1733 31.5 0 S
1744 1713.75 0 31.5 S
1728.25 1729.5 31.5 0 S
1745 1715.25 0 31.5 S
1729.25 1731 31.5 0 S
1746.5 1714.25 0 31.5 S
1730.75 1730 31.5 0 S
1747.5 1699.75 0 31.5 S
1731.75 1715.5 31.5 0 S
1749 1720.25 0 31.5 S
1733.25 1736 31.5 0 S
1750 1709.75 0 31.5 S
1734.25 1725.5 31.5 0 S
1751.5 1708.75 0 31.5 S
1735.75 1724.5 31.5 0 S
1752.5 1691.25 0 31.5 S
1736.75 1707 31.5 0 S
1754 1692.75 0 31.5 S
1738.25 1708.5 31.5 0 S
1755 1692.75 0 31.5 S
1739.25 1708.5 31.5 0 S
1756.5 1703.25 0 31.5 S
1740.75 1719 31.5 0 S
1757.5 1691.75 0 31.5 S
1741.75 1707.5 31.5 0 S
1759 1688.75 0 31.5 S
1743.25 1704.5 31.5 0 S
1760 1694.75 0 31.5 S
1744.25 1710.5 31.5 0 S
1761.5 1707.75 0 31.5 S
1745.75 1723.5 31.5 0 S
1762.5 1694.75 0 31.5 S
1746.75 1710.5 31.5 0 S
1764 1698.75 0 31.5 S
1748.25 1714.5 31.5 0 S
1765 1692.25 0 31.5 S
1749.25 1708 31.5 0 S
1766.5 1685.25 0 31.5 S
1750.75 1701 31.5 0 S
1767.5 1683.75 0 31.5 S
1751.75 1699.5 31.5 0 S
1768.5 1676.25 0 31.5 S
1752.75 1692 31.5 0 S
1770 1675.75 0 31.5 S
1754.25 1691.5 31.5 0 S
1771 1688.75 0 31.5 S
1755.25 1704.5 31.5 0 S
1772.5 1670.75 0 31.5 S
1756.75 1686.5 31.5 0 S
1773.5 1655.25 0 31.5 S
1757.75 1671 31.5 0 S
1775 1671.25 0 31.5 S
1759.25 1687 31.5 0 S
1776 1685.75 0 31.5 S
1760.25 1701.5 31.5 0 S
1777.5 1674.25 0 31.5 S
1761.75 1690 31.5 0 S
1778.5 1660.75 0 31.5 S
1762.75 1676.5 31.5 0 S
1780 1659.75 0 31.5 S
1764.25 1675.5 31.5 0 S
1781 1670.75 0 31.5 S
1765.25 1686.5 31.5 0 S
1782.5 1661.25 0 31.5 S
1766.75 1677 31.5 0 S
1783.5 1683.75 0 31.5 S
1767.75 1699.5 31.5 0 S
1785 1657.75 0 31.5 S
1769.25 1673.5 31.5 0 S
1786 1654.75 0 31.5 S
1770.25 1670.5 31.5 0 S
1787.5 1640.75 0 31.5 S
1771.75 1656.5 31.5 0 S
1788.5 1659.25 0 31.5 S
1772.75 1675 31.5 0 S
1790 1642.25 0 31.5 S
1774.25 1658 31.5 0 S
1791 1642.25 0 31.5 S
1775.25 1658 31.5 0 S
1792.5 1637.75 0 31.5 S
1776.75 1653.5 31.5 0 S
1793.5 1651.75 0 31.5 S
1777.75 1667.5 31.5 0 S
1795 1625.25 0 31.5 S
1779.25 1641 31.5 0 S
1796 1638.25 0 31.5 S
1780.25 1654 31.5 0 S
1797.5 1645.25 0 31.5 S
1781.75 1661 31.5 0 S
1798.5 1641.25 0 31.5 S
1782.75 1657 31.5 0 S
1800 1622.25 0 31.5 S
1784.25 1638 31.5 0 S
1801 1632.75 0 31.5 S
1785.25 1648.5 31.5 0 S
1802.5 1620.75 0 31.5 S
1786.75 1636.5 31.5 0 S
1803.5 1608.75 0 31.5 S
1787.75 1624.5 31.5 0 S
1805 1629.75 0 31.5 S
1789.25 1645.5 31.5 0 S
1806 1614.25 0 31.5 S
1790.25 1630 31.5 0 S
1807.5 1634.25 0 31.5 S
1791.75 1650 31.5 0 S
1808.5 1596.75 0 31.5 S
1792.75 1612.5 31.5 0 S
1810 1615.25 0 31.5 S
1794.25 1631 31.5 0 S
1811 1615.75 0 31.5 S
1795.25 1631.5 31.5 0 S
1812 1623.75 0 31.5 S
1796.25 1639.5 31.5 0 S
1813.5 1603.75 0 31.5 S
1797.75 1619.5 31.5 0 S
1814.5 1606.75 0 31.5 S
1798.75 1622.5 31.5 0 S
1816 1598.25 0 31.5 S
1800.25 1614 31.5 0 S
1817 1595.75 0 31.5 S
1801.25 1611.5 31.5 0 S
1818.5 1591.25 0 31.5 S
1802.75 1607 31.5 0 S
1819.5 1576.25 0 31.5 S
1803.75 1592 31.5 0 S
1821 1603.75 0 31.5 S
1805.25 1619.5 31.5 0 S
1822 1580.25 0 31.5 S
1806.25 1596 31.5 0 S
1823.5 1577.75 0 31.5 S
1807.75 1593.5 31.5 0 S
1824.5 1580.25 0 31.5 S
1808.75 1596 31.5 0 S
1826 1590.75 0 31.5 S
1810.25 1606.5 31.5 0 S
1827 1573.75 0 31.5 S
1811.25 1589.5 31.5 0 S
1828.5 1578.75 0 31.5 S
1812.75 1594.5 31.5 0 S
1829.5 1566.75 0 31.5 S
1813.75 1582.5 31.5 0 S
1831 1575.25 0 31.5 S
1815.25 1591 31.5 0 S
1832 1573.75 0 31.5 S
1816.25 1589.5 31.5 0 S
1833.5 1565.75 0 31.5 S
1817.75 1581.5 31.5 0 S
1834.5 1555.25 0 31.5 S
1818.75 1571 31.5 0 S
1836 1570.25 0 31.5 S
1820.25 1586 31.5 0 S
1837 1554.25 0 31.5 S
1821.25 1570 31.5 0 S
1838.5 1578.75 0 31.5 S
1822.75 1594.5 31.5 0 S
1839.5 1563.25 0 31.5 S
1823.75 1579 31.5 0 S
1841 1565.75 0 31.5 S
1825.25 1581.5 31.5 0 S
1842 1523.25 0 31.5 S
1826.25 1539 31.5 0 S
1843.5 1538.25 0 31.5 S
1827.75 1554 31.5 0 S
1844.5 1522.25 0 31.5 S
1828.75 1538 31.5 0 S
1846 1531.25 0 31.5 S
1830.25 1547 31.5 0 S
1847 1533.25 0 31.5 S
1831.25 1549 31.5 0 S
1848.5 1515.25 0 31.5 S
1832.75 1531 31.5 0 S
1849.5 1516.75 0 31.5 S
1833.75 1532.5 31.5 0 S
1851 1514.25 0 31.5 S
1835.25 1530 31.5 0 S
1852 1498.25 0 31.5 S
1836.25 1514 31.5 0 S
1853.5 1517.75 0 31.5 S
1837.75 1533.5 31.5 0 S
1854.5 1456.75 0 31.5 S
1838.75 1472.5 31.5 0 S
1855.5 1514.25 0 31.5 S
1839.75 1530 31.5 0 S
1857 1483.75 0 31.5 S
1841.25 1499.5 31.5 0 S
1858 1485.25 0 31.5 S
1842.25 1501 31.5 0 S
1859.5 1526.75 0 31.5 S
1843.75 1542.5 31.5 0 S
1860.5 1451.75 0 31.5 S
1844.75 1467.5 31.5 0 S
1862 1479.25 0 31.5 S
1846.25 1495 31.5 0 S
1863 1491.75 0 31.5 S
1847.25 1507.5 31.5 0 S
1864.5 1443.25 0 31.5 S
1848.75 1459 31.5 0 S
1865.5 1455.25 0 31.5 S
1849.75 1471 31.5 0 S
1867 1472.25 0 31.5 S
1851.25 1488 31.5 0 S
1868 1485.25 0 31.5 S
1852.25 1501 31.5 0 S
1869.5 1487.75 0 31.5 S
1853.75 1503.5 31.5 0 S
1870.5 1436.25 0 31.5 S
1854.75 1452 31.5 0 S
1872 1450.25 0 31.5 S
1856.25 1466 31.5 0 S
1873 1450.25 0 31.5 S
1857.25 1466 31.5 0 S
1874.5 1445.25 0 31.5 S
1858.75 1461 31.5 0 S
1875.5 1400.25 0 31.5 S
1859.75 1416 31.5 0 S
1877 1428.75 0 31.5 S
1861.25 1444.5 31.5 0 S
1878 1430.75 0 31.5 S
1862.25 1446.5 31.5 0 S
1879.5 1432.75 0 31.5 S
1863.75 1448.5 31.5 0 S
1880.5 1402.75 0 31.5 S
1864.75 1418.5 31.5 0 S
1882 1374.25 0 31.5 S
1866.25 1390 31.5 0 S
1883 1411.25 0 31.5 S
1867.25 1427 31.5 0 S
1884.5 1430.75 0 31.5 S
1868.75 1446.5 31.5 0 S
1885.5 1430.75 0 31.5 S
1869.75 1446.5 31.5 0 S
1887 1379.25 0 31.5 S
1871.25 1395 31.5 0 S
1888 1369.25 0 31.5 S
1872.25 1385 31.5 0 S
1889.5 1389.25 0 31.5 S
1873.75 1405 31.5 0 S
1890.5 1386.75 0 31.5 S
1874.75 1402.5 31.5 0 S
1892 1376.75 0 31.5 S
1876.25 1392.5 31.5 0 S
1893 1398.25 0 31.5 S
1877.25 1414 31.5 0 S
1894.5 1381.75 0 31.5 S
1878.75 1397.5 31.5 0 S
1895.5 1379.25 0 31.5 S
1879.75 1395 31.5 0 S
1897 1358.25 0 31.5 S
1881.25 1374 31.5 0 S
1898 1346.75 0 31.5 S
1882.25 1362.5 31.5 0 S
1899 1314.75 0 31.5 S
1883.25 1330.5 31.5 0 S
1900.5 1363.75 0 31.5 S
1884.75 1379.5 31.5 0 S
1901.5 1376.75 0 31.5 S
1885.75 1392.5 31.5 0 S
1903 1346.75 0 31.5 S
1887.25 1362.5 31.5 0 S
1904 1337.75 0 31.5 S
1888.25 1353.5 31.5 0 S
1905.5 1299.75 0 31.5 S
1889.75 1315.5 31.5 0 S
1906.5 1287.75 0 31.5 S
1890.75 1303.5 31.5 0 S
1908 1307.25 0 31.5 S
1892.25 1323 31.5 0 S
1909 1331.25 0 31.5 S
1893.25 1347 31.5 0 S
1910.5 1321.75 0 31.5 S
1894.75 1337.5 31.5 0 S
1911.5 1291.75 0 31.5 S
1895.75 1307.5 31.5 0 S
1913 1321.75 0 31.5 S
1897.25 1337.5 31.5 0 S
1914 1307.25 0 31.5 S
1898.25 1323 31.5 0 S
1915.5 1291.75 0 31.5 S
1899.75 1307.5 31.5 0 S
1916.5 1295.75 0 31.5 S
1900.75 1311.5 31.5 0 S
1918 1266.25 0 31.5 S
1902.25 1282 31.5 0 S
1919 1261.25 0 31.5 S
1903.25 1277 31.5 0 S
1920.5 1261.25 0 31.5 S
1904.75 1277 31.5 0 S
1921.5 1299.75 0 31.5 S
1905.75 1315.5 31.5 0 S
1923 1275.25 0 31.5 S
1907.25 1291 31.5 0 S
1924 1218.75 0 31.5 S
1908.25 1234.5 31.5 0 S
1925.5 1270.75 0 31.5 S
1909.75 1286.5 31.5 0 S
1926.5 1275.25 0 31.5 S
1910.75 1291 31.5 0 S
1928 1230.25 0 31.5 S
1912.25 1246 31.5 0 S
1929 1206.25 0 31.5 S
1913.25 1222 31.5 0 S
1930.5 1199.75 0 31.5 S
1914.75 1215.5 31.5 0 S
1931.5 1136.25 0 31.5 S
1915.75 1152 31.5 0 S
1933 1235.75 0 31.5 S
1917.25 1251.5 31.5 0 S
1934 1170.75 0 31.5 S
1918.25 1186.5 31.5 0 S
1935.5 1154.25 0 31.5 S
1919.75 1170 31.5 0 S
1936.5 1230.25 0 31.5 S
1920.75 1246 31.5 0 S
1938 1212.75 0 31.5 S
1922.25 1228.5 31.5 0 S
1939 1199.75 0 31.5 S
1923.25 1215.5 31.5 0 S
1940.5 1192.75 0 31.5 S
1924.75 1208.5 31.5 0 S
1941.5 1206.25 0 31.5 S
1925.75 1222 31.5 0 S
1942.5 1170.75 0 31.5 S
1926.75 1186.5 31.5 0 S
1944 1116.25 0 31.5 S
1928.25 1132 31.5 0 S
1945 1154.25 0 31.5 S
1929.25 1170 31.5 0 S
1946.5 1192.75 0 31.5 S
1930.75 1208.5 31.5 0 S
1947.5 1170.75 0 31.5 S
1931.75 1186.5 31.5 0 S
1949 1178.25 0 31.5 S
1933.25 1194 31.5 0 S
1950 1162.75 0 31.5 S
1934.25 1178.5 31.5 0 S
1951.5 1212.75 0 31.5 S
1935.75 1228.5 31.5 0 S
1952.5 1126.25 0 31.5 S
1936.75 1142 31.5 0 S
1954 1053.25 0 31.5 S
1938.25 1069 31.5 0 S
1955 1126.25 0 31.5 S
1939.25 1142 31.5 0 S
1956.5 1067.75 0 31.5 S
1940.75 1083.5 31.5 0 S
1957.5 1185.75 0 31.5 S
1941.75 1201.5 31.5 0 S
1959 1105.25 0 31.5 S
1943.25 1121 31.5 0 S
1960 1136.25 0 31.5 S
1944.25 1152 31.5 0 S
1961.5 1136.25 0 31.5 S
1945.75 1152 31.5 0 S
1962.5 1053.25 0 31.5 S
1946.75 1069 31.5 0 S
1964 1116.25 0 31.5 S
1948.25 1132 31.5 0 S
1965 1037.25 0 31.5 S
1949.25 1053 31.5 0 S
1966.5 1093.75 0 31.5 S
1950.75 1109.5 31.5 0 S
1967.5 1081.25 0 31.5 S
1951.75 1097 31.5 0 S
1969 979.75 0 31.5 S
1953.25 995.5 31.5 0 S
1970 1116.25 0 31.5 S
1954.25 1132 31.5 0 S
1971.5 1001.25 0 31.5 S
1955.75 1017 31.5 0 S
1972.5 1053.25 0 31.5 S
1956.75 1069 31.5 0 S
1974 1105.25 0 31.5 S
1958.25 1121 31.5 0 S
1975 729.25 0 31.5 S
1959.25 745 31.5 0 S
1976.5 927.75 0 31.5 S
1960.75 943.5 31.5 0 S
1977.5 1020.25 0 31.5 S
1961.75 1036 31.5 0 S
1979 1053.25 0 31.5 S
1963.25 1069 31.5 0 S
1980 955.75 0 31.5 S
1964.25 971.5 31.5 0 S
1981.5 955.75 0 31.5 S
1965.75 971.5 31.5 0 S
1982.5 1001.25 0 31.5 S
1966.75 1017 31.5 0 S
1984 979.75 0 31.5 S
1968.25 995.5 31.5 0 S
1985 1053.25 0 31.5 S
1969.25 1069 31.5 0 S
1986 854.75 0 31.5 S
1970.25 870.5 31.5 0 S
1987.5 895.25 0 31.5 S
1971.75 911 31.5 0 S
1988.5 1081.25 0 31.5 S
1972.75 1097 31.5 0 S
1990 802.75 0 31.5 S
1974.25 818.5 31.5 0 S
1991 1001.25 0 31.5 S
1975.25 1017 31.5 0 S
1992.5 1001.25 0 31.5 S
1976.75 1017 31.5 0 S
1993.5 979.75 0 31.5 S
1977.75 995.5 31.5 0 S
1995 979.75 0 31.5 S
1979.25 995.5 31.5 0 S
1996 854.75 0 31.5 S
1980.25 870.5 31.5 0 S
1997.5 854.75 0 31.5 S
1981.75 870.5 31.5 0 S
1998.5 895.25 0 31.5 S
1982.75 911 31.5 0 S
2000 854.75 0 31.5 S
1984.25 870.5 31.5 0 S
2001 927.75 0 31.5 S
1985.25 943.5 31.5 0 S
2002.5 802.75 0 31.5 S
1986.75 818.5 31.5 0 S
2003.5 979.75 0 31.5 S
1987.75 995.5 31.5 0 S
2005 802.75 0 31.5 S
1989.25 818.5 31.5 0 S
2006 729.25 0 31.5 S
1990.25 745 31.5 0 S
2007.5 854.75 0 31.5 S
1991.75 870.5 31.5 0 S
2008.5 729.25 0 31.5 S
1992.75 745 31.5 0 S
2010 729.25 0 31.5 S
1994.25 745 31.5 0 S
2011 802.75 0 31.5 S
1995.25 818.5 31.5 0 S
2012.5 854.75 0 31.5 S
1996.75 870.5 31.5 0 S
2013.5 927.75 0 31.5 S
1997.75 943.5 31.5 0 S
2015 729.25 0 31.5 S
1999.25 745 31.5 0 S
2016 854.75 0 31.5 S
2000.25 870.5 31.5 0 S
2017.5 604.25 0 31.5 S
2001.75 620 31.5 0 S
2018.5 729.25 0 31.5 S
2002.75 745 31.5 0 S
2020 802.75 0 31.5 S
2004.25 818.5 31.5 0 S
2021 927.75 0 31.5 S
2005.25 943.5 31.5 0 S
2025 729.25 0 31.5 S
2009.25 745 31.5 0 S
2026 604.25 0 31.5 S
2010.25 620 31.5 0 S
2027.5 802.75 0 31.5 S
2011.75 818.5 31.5 0 S
2028.5 729.25 0 31.5 S
2012.75 745 31.5 0 S
2029.5 729.25 0 31.5 S
2013.75 745 31.5 0 S
2031 729.25 0 31.5 S
2015.25 745 31.5 0 S
2032 604.25 0 31.5 S
2016.25 620 31.5 0 S
2033.5 854.75 0 31.5 S
2017.75 870.5 31.5 0 S
2034.5 729.25 0 31.5 S
2018.75 745 31.5 0 S
2036 604.25 0 31.5 S
2020.25 620 31.5 0 S
2037 604.25 0 31.5 S
2021.25 620 31.5 0 S
2038.5 895.25 0 31.5 S
2022.75 911 31.5 0 S
2041 604.25 0 31.5 S
2025.25 620 31.5 0 S
2042 604.25 0 31.5 S
2026.25 620 31.5 0 S
2044.5 604.25 0 31.5 S
2028.75 620 31.5 0 S
2047 802.75 0 31.5 S
2031.25 818.5 31.5 0 S
2053.5 802.75 0 31.5 S
2037.75 818.5 31.5 0 S
2057 604.25 0 31.5 S
2041.25 620 31.5 0 S
2058.5 604.25 0 31.5 S
2042.75 620 31.5 0 S
2061 604.25 0 31.5 S
2045.25 620 31.5 0 S
2063.5 604.25 0 31.5 S
2047.75 620 31.5 0 S
2066 604.25 0 31.5 S
2050.25 620 31.5 0 S
2067 729.25 0 31.5 S
2051.25 745 31.5 0 S
2068.5 604.25 0 31.5 S
2052.75 620 31.5 0 S
2072 604.25 0 31.5 S
2056.25 620 31.5 0 S
2073 604.25 0 31.5 S
2057.25 620 31.5 0 S
2075.5 729.25 0 31.5 S
2059.75 745 31.5 0 S
2078 729.25 0 31.5 S
2062.25 745 31.5 0 S
2082 604.25 0 31.5 S
2066.25 620 31.5 0 S
2090.5 604.25 0 31.5 S
2074.75 620 31.5 0 S
2094.5 604.25 0 31.5 S
2078.75 620 31.5 0 S
2100.5 604.25 0 31.5 S
2084.75 620 31.5 0 S
2108 604.25 0 31.5 S
2092.25 620 31.5 0 S
2131.5 604.25 0 31.5 S
2115.75 620 31.5 0 S
2085.5 604.25 0 31.5 S
2069.75 620 31.5 0 S
2080.5 604.25 0 31.5 S
2064.75 620 31.5 0 S
2068.5 604.25 0 31.5 S
2052.75 620 31.5 0 S
2179 604.25 0 31.5 S
2163.25 620 31.5 0 S
2184 604.25 0 31.5 S
2168.25 620 31.5 0 S
2175 604.25 0 31.5 S
2159.25 620 31.5 0 S
2162.5 729.25 0 31.5 S
2146.75 745 31.5 0 S
2274.5 729.25 0 31.5 S
2258.75 745 31.5 0 S
2308 729.25 0 31.5 S
2292.25 745 31.5 0 S
2358 729.25 0 31.5 S
2342.25 745 31.5 0 S
2396.5 604.25 0 31.5 S
2380.75 620 31.5 0 S
2452.5 729.25 0 31.5 S
2436.75 745 31.5 0 S
2455 729.25 0 31.5 S
2439.25 745 31.5 0 S
2461 729.25 0 31.5 S
2445.25 745 31.5 0 S
2467 604.25 0 31.5 S
2451.25 620 31.5 0 S
2468.5 604.25 0 31.5 S
2452.75 620 31.5 0 S
2481 604.25 0 31.5 S
2465.25 620 31.5 0 S
2487 604.25 0 31.5 S
2471.25 620 31.5 0 S
2498.5 802.75 0 31.5 S
2482.75 818.5 31.5 0 S
2501 729.25 0 31.5 S
2485.25 745 31.5 0 S
2506 604.25 0 31.5 S
2490.25 620 31.5 0 S
2508 604.25 0 31.5 S
2492.25 620 31.5 0 S
2513 729.25 0 31.5 S
2497.25 745 31.5 0 S
2515.5 729.25 0 31.5 S
2499.75 745 31.5 0 S
2518 604.25 0 31.5 S
2502.25 620 31.5 0 S
2520.5 604.25 0 31.5 S
2504.75 620 31.5 0 S
2528 604.25 0 31.5 S
2512.25 620 31.5 0 S
2529.5 604.25 0 31.5 S
2513.75 620 31.5 0 S
2530.5 729.25 0 31.5 S
2514.75 745 31.5 0 S
2532 729.25 0 31.5 S
2516.25 745 31.5 0 S
2534.5 604.25 0 31.5 S
2518.75 620 31.5 0 S
2537 604.25 0 31.5 S
2521.25 620 31.5 0 S
2538 604.25 0 31.5 S
2522.25 620 31.5 0 S
2540.5 729.25 0 31.5 S
2524.75 745 31.5 0 S
2543 729.25 0 31.5 S
2527.25 745 31.5 0 S
2544.5 729.25 0 31.5 S
2528.75 745 31.5 0 S
5 w
854 620 1740 1248 re
S
cleartomark end end pagesave restore
 showpage
%%PageTrailer
%%Trailer
%%Pages: 1
