%!PS-Adobe-3.0 EPSF-3.0
%%BoundingBox: 68 53 267 190
%%HiResBoundingBox: 68.900000 53.900000 266.600000 189.100000
%.....................................
%%Creator: GPL Ghostscript 871 (epswrite)
%%CreationDate: 2012/01/28 17:04:48
%%DocumentData: Clean7Bit
%%LanguageLevel: 2
%%EndComments
%%BeginProlog
% This copyright applies to everything between here and the %%EndProlog:
% Copyright (C) 2010 Artifex Software, Inc.  All rights reserved.
%%BeginResource: procset GS_epswrite_2_0_1001 1.001 0
/GS_epswrite_2_0_1001 80 dict dup begin
/PageSize 2 array def/setpagesize{ PageSize aload pop 3 index eq exch
4 index eq and{ pop pop pop}{ PageSize dup  1
5 -1 roll put 0 4 -1 roll put dup null eq {false} {dup where} ifelse{ exch get exec}
{ pop/setpagedevice where
{ pop 1 dict dup /PageSize PageSize put setpagedevice}
{ /setpage where{ pop PageSize aload pop pageparams 3 {exch pop} repeat
setpage}if}ifelse}ifelse}ifelse} bind def
/!{bind def}bind def/#{load def}!/N/counttomark #
/rG{3{3 -1 roll 255 div}repeat setrgbcolor}!/G{255 div setgray}!/K{0 G}!
/r6{dup 3 -1 roll rG}!/r5{dup 3 1 roll rG}!/r3{dup rG}!
/w/setlinewidth #/J/setlinecap #
/j/setlinejoin #/M/setmiterlimit #/d/setdash #/i/setflat #
/m/moveto #/l/lineto #/c/rcurveto #
/p{N 2 idiv{N -2 roll rlineto}repeat}!
/P{N 0 gt{N -2 roll moveto p}if}!
/h{p closepath}!/H{P closepath}!
/lx{0 rlineto}!/ly{0 exch rlineto}!/v{0 0 6 2 roll c}!/y{2 copy c}!
/re{4 -2 roll m exch dup lx exch ly neg lx h}!
/^{3 index neg 3 index neg}!
/f{P fill}!/f*{P eofill}!/s{H stroke}!/S{P stroke}!
/q/gsave #/Q/grestore #/rf{re fill}!
/Y{P clip newpath}!/Y*{P eoclip newpath}!/rY{re Y}!
/|={pop exch 4 1 roll 1 array astore cvx 3 array astore cvx exch 1 index def exec}!
/|{exch string readstring |=}!
/+{dup type/nametype eq{2 index 7 add -3 bitshift 2 index mul}if}!
/@/currentfile #/${+ @ |}!
/B{{2 copy string{readstring pop}aload pop 4 array astore cvx
3 1 roll}repeat pop pop true}!
/Ix{[1 0 0 1 11 -2 roll exch neg exch neg]exch}!
/,{true exch Ix imagemask}!/If{false exch Ix imagemask}!/I{exch Ix image}!
/Ic{exch Ix false 3 colorimage}!
/F{/Columns counttomark 3 add -2 roll/Rows exch/K -1/BlackIs1 true>>
/CCITTFaxDecode filter}!/FX{<</EndOfBlock false F}!
/X{/ASCII85Decode filter}!/@X{@ X}!/&2{2 index 2 index}!
/@F{@ &2<<F}!/@C{@X &2 FX}!
/$X{+ @X |}!/&4{4 index 4 index}!/$F{+ @ &4<<F |}!/$C{+ @X &4 FX |}!
/IC{3 1 roll 10 dict begin 1{/ImageType/Interpolate/Decode/DataSource
/ImageMatrix/BitsPerComponent/Height/Width}{exch def}forall
currentdict end image}!
/~{@ read {pop} if}!
end def
%%EndResource
/pagesave null def
%%EndProlog
%%Page: 1 1
%%BeginPageSetup
GS_epswrite_2_0_1001 begin
/pagesave save store 197 dict begin
0.1 0.1 scale
%%EndPageSetup
gsave mark
Q q
0 0 250000 250000 re
Y
5 w
K
854 620 31.5 0 P
2594 620 -31.5 0 S
789 600 17 43 /3U
$C
,Tm'ds8W-!s-F.@R>;m@If~>
,
854 745 15.5 0 P
2594 745 -15.5 0 P
854 818.5 15.5 0 P
2594 818.5 -15.5 0 P
854 870.5 15.5 0 P
2594 870.5 -15.5 0 P
854 911 15.5 0 P
2594 911 -15.5 0 P
854 943.5 15.5 0 P
2594 943.5 -15.5 0 P
854 971.5 15.5 0 P
2594 971.5 -15.5 0 P
854 995.5 15.5 0 P
2594 995.5 -15.5 0 P
854 1017 15.5 0 P
2594 1017 -15.5 0 P
854 1036 31.5 0 P
2594 1036 -31.5 0 S
755 1016 3U ,
781 1015 34 44 /6U
$C
23%r'%\5X)j2)<u^Zk'1J,ZoQs8W-!s8VJ_s8Qk\g>99H(eYmM:r7r$~>
,
854 1161 15.5 0 P
2594 1161 -15.5 0 P
854 1234.5 15.5 0 P
2594 1234.5 -15.5 0 P
854 1286.5 15.5 0 P
2594 1286.5 -15.5 0 P
854 1327 15.5 0 P
2594 1327 -15.5 0 P
854 1359.5 15.5 0 P
2594 1359.5 -15.5 0 P
854 1387.5 15.5 0 P
2594 1387.5 -15.5 0 P
854 1411.5 15.5 0 P
2594 1411.5 -15.5 0 P
854 1433 15.5 0 P
2594 1433 -15.5 0 P
854 1452 31.5 0 P
2594 1452 -31.5 0 S
722 1432 3U ,
747 1431 6U ,
781 1431 6U ,
854 1577 15.5 0 P
2594 1577 -15.5 0 P
854 1650.5 15.5 0 P
2594 1650.5 -15.5 0 P
854 1702.5 15.5 0 P
2594 1702.5 -15.5 0 P
854 1743 15.5 0 P
2594 1743 -15.5 0 P
854 1775.5 15.5 0 P
2594 1775.5 -15.5 0 P
854 1803.5 15.5 0 P
2594 1803.5 -15.5 0 P
854 1827.5 15.5 0 P
2594 1827.5 -15.5 0 P
854 1849 15.5 0 P
2594 1849 -15.5 0 P
854 1868 31.5 0 P
2594 1868 -31.5 0 S
689 1848 3U ,
714 1847 6U ,
747 1847 6U ,
781 1847 6U ,
854 620 0 31.5 P
854 1868 0 -31.5 S
850 540 3U ,
1028.5 620 0 15.5 P
1028.5 1868 0 -15.5 P
1130.5 620 0 15.5 P
1130.5 1868 0 -15.5 P
1203 620 0 15.5 P
1203 1868 0 -15.5 P
1259.5 620 0 15.5 P
1259.5 1868 0 -15.5 P
1305.5 620 0 15.5 P
1305.5 1868 0 -15.5 P
1344 620 0 15.5 P
1344 1868 0 -15.5 P
1378 620 0 15.5 P
1378 1868 0 -15.5 P
1407.5 620 0 15.5 P
1407.5 1868 0 -15.5 P
1434 620 0 31.5 P
1434 1868 0 -31.5 S
1413 540 3U ,
1438 539 6U ,
1608.5 620 0 15.5 P
1608.5 1868 0 -15.5 P
1710.5 620 0 15.5 P
1710.5 1868 0 -15.5 P
1783 620 0 15.5 P
1783 1868 0 -15.5 P
1839.5 620 0 15.5 P
1839.5 1868 0 -15.5 P
1885.5 620 0 15.5 P
1885.5 1868 0 -15.5 P
1924 620 0 15.5 P
1924 1868 0 -15.5 P
1958 620 0 15.5 P
1958 1868 0 -15.5 P
1987.5 620 0 15.5 P
1987.5 1868 0 -15.5 P
2014 620 0 31.5 P
2014 1868 0 -31.5 S
1976 540 3U ,
2002 539 6U ,
2035 539 6U ,
2188.5 620 0 15.5 P
2188.5 1868 0 -15.5 P
2290.5 620 0 15.5 P
2290.5 1868 0 -15.5 P
2363 620 0 15.5 P
2363 1868 0 -15.5 P
2419.5 620 0 15.5 P
2419.5 1868 0 -15.5 P
2465.5 620 0 15.5 P
2465.5 1868 0 -15.5 P
2504 620 0 15.5 P
2504 1868 0 -15.5 P
2538 620 0 15.5 P
2538 1868 0 -15.5 P
2567.5 620 0 15.5 P
2567.5 1868 0 -15.5 P
2594 620 0 31.5 P
2594 1868 0 -31.5 S
2540 540 3U ,
2565 539 6U ,
2598 539 6U ,
2632 539 6U ,
854 620 1740 1248 re
S
2.5 w
854 1640.75 0 31.5 S
838.25 1656.5 31.5 0 S
1028.5 1631.75 0 31.5 S
1012.75 1647.5 31.5 0 S
1130.5 1642.25 0 31.5 S
1114.75 1658 31.5 0 S
1203 1635.25 0 31.5 S
1187.25 1651 31.5 0 S
1259.5 1646.25 0 31.5 S
1243.75 1662 31.5 0 S
1305.5 1638.75 0 31.5 S
1289.75 1654.5 31.5 0 S
1344 1633.75 0 31.5 S
1328.25 1649.5 31.5 0 S
1378 1655.75 0 31.5 S
1362.25 1671.5 31.5 0 S
1407.5 1656.25 0 31.5 S
1391.75 1672 31.5 0 S
1434 1661.25 0 31.5 S
1418.25 1677 31.5 0 S
1458 1675.75 0 31.5 S
1442.25 1691.5 31.5 0 S
1480 1662.75 0 31.5 S
1464.25 1678.5 31.5 0 S
1500 1655.25 0 31.5 S
1484.25 1671 31.5 0 S
1519 1653.75 0 31.5 S
1503.25 1669.5 31.5 0 S
1536 1672.25 0 31.5 S
1520.25 1688 31.5 0 S
1552.5 1669.75 0 31.5 S
1536.75 1685.5 31.5 0 S
1567.5 1675.75 0 31.5 S
1551.75 1691.5 31.5 0 S
1582 1671.25 0 31.5 S
1566.25 1687 31.5 0 S
1595.5 1683.75 0 31.5 S
1579.75 1699.5 31.5 0 S
1608.5 1686.25 0 31.5 S
1592.75 1702 31.5 0 S
1621 1682.25 0 31.5 S
1605.25 1698 31.5 0 S
1632.5 1675.25 0 31.5 S
1616.75 1691 31.5 0 S
1644 1672.25 0 31.5 S
1628.25 1688 31.5 0 S
1654.5 1675.75 0 31.5 S
1638.75 1691.5 31.5 0 S
1665 1684.75 0 31.5 S
1649.25 1700.5 31.5 0 S
1674.5 1698.25 0 31.5 S
1658.75 1714 31.5 0 S
1684 1684.25 0 31.5 S
1668.25 1700 31.5 0 S
1693.5 1667.75 0 31.5 S
1677.75 1683.5 31.5 0 S
1702 1687.75 0 31.5 S
1686.25 1703.5 31.5 0 S
1710.5 1688.25 0 31.5 S
1694.75 1704 31.5 0 S
1719 1677.25 0 31.5 S
1703.25 1693 31.5 0 S
1727 1697.75 0 31.5 S
1711.25 1713.5 31.5 0 S
1734.5 1713.75 0 31.5 S
1718.75 1729.5 31.5 0 S
1742.5 1688.75 0 31.5 S
1726.75 1704.5 31.5 0 S
1749.5 1709.25 0 31.5 S
1733.75 1725 31.5 0 S
1756.5 1694.75 0 31.5 S
1740.75 1710.5 31.5 0 S
1763.5 1698.25 0 31.5 S
1747.75 1714 31.5 0 S
1770.5 1704.25 0 31.5 S
1754.75 1720 31.5 0 S
1777 1709.75 0 31.5 S
1761.25 1725.5 31.5 0 S
1783 1715.25 0 31.5 S
1767.25 1731 31.5 0 S
1789.5 1703.75 0 31.5 S
1773.75 1719.5 31.5 0 S
1795.5 1706.25 0 31.5 S
1779.75 1722 31.5 0 S
1801.5 1692.75 0 31.5 S
1785.75 1708.5 31.5 0 S
1807 1709.75 0 31.5 S
1791.25 1725.5 31.5 0 S
1813 1716.75 0 31.5 S
1797.25 1732.5 31.5 0 S
1818.5 1709.75 0 31.5 S
1802.75 1725.5 31.5 0 S
1824 1726.75 0 31.5 S
1808.25 1742.5 31.5 0 S
1829 1713.75 0 31.5 S
1813.25 1729.5 31.5 0 S
1834.5 1727.25 0 31.5 S
1818.75 1743 31.5 0 S
1839.5 1712.25 0 31.5 S
1823.75 1728 31.5 0 S
1844.5 1718.25 0 31.5 S
1828.75 1734 31.5 0 S
1849.5 1697.75 0 31.5 S
1833.75 1713.5 31.5 0 S
1854 1709.75 0 31.5 S
1838.25 1725.5 31.5 0 S
1859 1708.25 0 31.5 S
1843.25 1724 31.5 0 S
1863.5 1722.75 0 31.5 S
1847.75 1738.5 31.5 0 S
1868 1709.75 0 31.5 S
1852.25 1725.5 31.5 0 S
1872.5 1728.25 0 31.5 S
1856.75 1744 31.5 0 S
1877 1701.75 0 31.5 S
1861.25 1717.5 31.5 0 S
1881 1729.75 0 31.5 S
1865.25 1745.5 31.5 0 S
1885.5 1715.25 0 31.5 S
1869.75 1731 31.5 0 S
1889.5 1717.25 0 31.5 S
1873.75 1733 31.5 0 S
1893.5 1715.25 0 31.5 S
1877.75 1731 31.5 0 S
1897.5 1717.75 0 31.5 S
1881.75 1733.5 31.5 0 S
1901.5 1719.75 0 31.5 S
1885.75 1735.5 31.5 0 S
1905.5 1718.75 0 31.5 S
1889.75 1734.5 31.5 0 S
1909.5 1731.75 0 31.5 S
1893.75 1747.5 31.5 0 S
1913 1722.75 0 31.5 S
1897.25 1738.5 31.5 0 S
1917 1707.75 0 31.5 S
1901.25 1723.5 31.5 0 S
1920.5 1717.75 0 31.5 S
1904.75 1733.5 31.5 0 S
1924 1736.75 0 31.5 S
1908.25 1752.5 31.5 0 S
1927.5 1718.75 0 31.5 S
1911.75 1734.5 31.5 0 S
1931.5 1737.75 0 31.5 S
1915.75 1753.5 31.5 0 S
1934.5 1731.75 0 31.5 S
1918.75 1747.5 31.5 0 S
1938 1731.75 0 31.5 S
1922.25 1747.5 31.5 0 S
1941.5 1714.25 0 31.5 S
1925.75 1730 31.5 0 S
1945 1718.25 0 31.5 S
1929.25 1734 31.5 0 S
1948 1716.75 0 31.5 S
1932.25 1732.5 31.5 0 S
1951.5 1740.75 0 31.5 S
1935.75 1756.5 31.5 0 S
1954.5 1718.25 0 31.5 S
1938.75 1734 31.5 0 S
1958 1722.75 0 31.5 S
1942.25 1738.5 31.5 0 S
1961 1726.25 0 31.5 S
1945.25 1742 31.5 0 S
1964 1725.75 0 31.5 S
1948.25 1741.5 31.5 0 S
1967 1720.25 0 31.5 S
1951.25 1736 31.5 0 S
1970 1718.75 0 31.5 S
1954.25 1734.5 31.5 0 S
1973 1711.75 0 31.5 S
1957.25 1727.5 31.5 0 S
1976 1728.25 0 31.5 S
1960.25 1744 31.5 0 S
1979 1733.75 0 31.5 S
1963.25 1749.5 31.5 0 S
1982 1733.25 0 31.5 S
1966.25 1749 31.5 0 S
1984.5 1722.25 0 31.5 S
1968.75 1738 31.5 0 S
1987.5 1719.25 0 31.5 S
1971.75 1735 31.5 0 S
1990 1718.75 0 31.5 S
1974.25 1734.5 31.5 0 S
1993 1729.75 0 31.5 S
1977.25 1745.5 31.5 0 S
1995.5 1732.25 0 31.5 S
1979.75 1748 31.5 0 S
1998.5 1716.75 0 31.5 S
1982.75 1732.5 31.5 0 S
2001 1728.25 0 31.5 S
1985.25 1744 31.5 0 S
2003.5 1726.25 0 31.5 S
1987.75 1742 31.5 0 S
2006.5 1718.25 0 31.5 S
1990.75 1734 31.5 0 S
2009 1715.25 0 31.5 S
1993.25 1731 31.5 0 S
2011.5 1724.25 0 31.5 S
1995.75 1740 31.5 0 S
2014 1735.25 0 31.5 S
1998.25 1751 31.5 0 S
2016.5 1733.25 0 31.5 S
2000.75 1749 31.5 0 S
2019 1729.75 0 31.5 S
2003.25 1745.5 31.5 0 S
2021.5 1719.75 0 31.5 S
2005.75 1735.5 31.5 0 S
2024 1710.75 0 31.5 S
2008.25 1726.5 31.5 0 S
2026.5 1713.25 0 31.5 S
2010.75 1729 31.5 0 S
2028.5 1721.75 0 31.5 S
2012.75 1737.5 31.5 0 S
2031 1709.25 0 31.5 S
2015.25 1725 31.5 0 S
2033.5 1726.25 0 31.5 S
2017.75 1742 31.5 0 S
2035.5 1705.75 0 31.5 S
2019.75 1721.5 31.5 0 S
2038 1724.25 0 31.5 S
2022.25 1740 31.5 0 S
2040.5 1703.75 0 31.5 S
2024.75 1719.5 31.5 0 S
2042.5 1701.25 0 31.5 S
2026.75 1717 31.5 0 S
2045 1713.75 0 31.5 S
2029.25 1729.5 31.5 0 S
2047 1709.75 0 31.5 S
2031.25 1725.5 31.5 0 S
2049 1717.25 0 31.5 S
2033.25 1733 31.5 0 S
2051.5 1713.75 0 31.5 S
2035.75 1729.5 31.5 0 S
2053.5 1715.25 0 31.5 S
2037.75 1731 31.5 0 S
2055.5 1714.25 0 31.5 S
2039.75 1730 31.5 0 S
2058 1699.75 0 31.5 S
2042.25 1715.5 31.5 0 S
2060 1720.25 0 31.5 S
2044.25 1736 31.5 0 S
2062 1709.75 0 31.5 S
2046.25 1725.5 31.5 0 S
2064 1708.75 0 31.5 S
2048.25 1724.5 31.5 0 S
2066 1691.25 0 31.5 S
2050.25 1707 31.5 0 S
2068 1692.75 0 31.5 S
2052.25 1708.5 31.5 0 S
2070 1692.75 0 31.5 S
2054.25 1708.5 31.5 0 S
2072 1703.25 0 31.5 S
2056.25 1719 31.5 0 S
2074 1691.75 0 31.5 S
2058.25 1707.5 31.5 0 S
2076 1688.75 0 31.5 S
2060.25 1704.5 31.5 0 S
2078 1694.75 0 31.5 S
2062.25 1710.5 31.5 0 S
2080 1707.75 0 31.5 S
2064.25 1723.5 31.5 0 S
2082 1694.75 0 31.5 S
2066.25 1710.5 31.5 0 S
2084 1698.75 0 31.5 S
2068.25 1714.5 31.5 0 S
2086 1692.25 0 31.5 S
2070.25 1708 31.5 0 S
2087.5 1685.25 0 31.5 S
2071.75 1701 31.5 0 S
2089.5 1683.75 0 31.5 S
2073.75 1699.5 31.5 0 S
2091.5 1676.25 0 31.5 S
2075.75 1692 31.5 0 S
2093.5 1675.75 0 31.5 S
2077.75 1691.5 31.5 0 S
2095 1688.75 0 31.5 S
2079.25 1704.5 31.5 0 S
2097 1670.75 0 31.5 S
2081.25 1686.5 31.5 0 S
2099 1655.25 0 31.5 S
2083.25 1671 31.5 0 S
2100.5 1671.25 0 31.5 S
2084.75 1687 31.5 0 S
2102.5 1685.75 0 31.5 S
2086.75 1701.5 31.5 0 S
2104 1674.25 0 31.5 S
2088.25 1690 31.5 0 S
2106 1660.75 0 31.5 S
2090.25 1676.5 31.5 0 S
2107.5 1659.75 0 31.5 S
2091.75 1675.5 31.5 0 S
2109.5 1670.75 0 31.5 S
2093.75 1686.5 31.5 0 S
2111 1661.25 0 31.5 S
2095.25 1677 31.5 0 S
2113 1683.75 0 31.5 S
2097.25 1699.5 31.5 0 S
2114.5 1657.75 0 31.5 S
2098.75 1673.5 31.5 0 S
2116 1654.75 0 31.5 S
2100.25 1670.5 31.5 0 S
2118 1640.75 0 31.5 S
2102.25 1656.5 31.5 0 S
2119.5 1659.25 0 31.5 S
2103.75 1675 31.5 0 S
2121 1642.25 0 31.5 S
2105.25 1658 31.5 0 S
2123 1642.25 0 31.5 S
2107.25 1658 31.5 0 S
2124.5 1637.75 0 31.5 S
2108.75 1653.5 31.5 0 S
2126 1651.75 0 31.5 S
2110.25 1667.5 31.5 0 S
2127.5 1625.25 0 31.5 S
2111.75 1641 31.5 0 S
2129 1638.25 0 31.5 S
2113.25 1654 31.5 0 S
2131 1645.25 0 31.5 S
2115.25 1661 31.5 0 S
2132.5 1641.25 0 31.5 S
2116.75 1657 31.5 0 S
2134 1622.25 0 31.5 S
2118.25 1638 31.5 0 S
2135.5 1632.75 0 31.5 S
2119.75 1648.5 31.5 0 S
2137 1620.75 0 31.5 S
2121.25 1636.5 31.5 0 S
2138.5 1608.75 0 31.5 S
2122.75 1624.5 31.5 0 S
2140 1629.75 0 31.5 S
2124.25 1645.5 31.5 0 S
2141.5 1614.25 0 31.5 S
2125.75 1630 31.5 0 S
2143 1634.25 0 31.5 S
2127.25 1650 31.5 0 S
2144.5 1596.75 0 31.5 S
2128.75 1612.5 31.5 0 S
2146 1615.25 0 31.5 S
2130.25 1631 31.5 0 S
2147.5 1615.75 0 31.5 S
2131.75 1631.5 31.5 0 S
2149 1623.75 0 31.5 S
2133.25 1639.5 31.5 0 S
2150.5 1603.75 0 31.5 S
2134.75 1619.5 31.5 0 S
2152 1606.75 0 31.5 S
2136.25 1622.5 31.5 0 S
2153.5 1598.25 0 31.5 S
2137.75 1614 31.5 0 S
2155 1595.75 0 31.5 S
2139.25 1611.5 31.5 0 S
2156.5 1591.25 0 31.5 S
2140.75 1607 31.5 0 S
2158 1576.25 0 31.5 S
2142.25 1592 31.5 0 S
2159 1603.75 0 31.5 S
2143.25 1619.5 31.5 0 S
2160.5 1580.25 0 31.5 S
2144.75 1596 31.5 0 S
2162 1577.75 0 31.5 S
2146.25 1593.5 31.5 0 S
2163.5 1580.25 0 31.5 S
2147.75 1596 31.5 0 S
2165 1590.75 0 31.5 S
2149.25 1606.5 31.5 0 S
2166 1573.75 0 31.5 S
2150.25 1589.5 31.5 0 S
2167.5 1578.75 0 31.5 S
2151.75 1594.5 31.5 0 S
2169 1566.75 0 31.5 S
2153.25 1582.5 31.5 0 S
2170.5 1575.25 0 31.5 S
2154.75 1591 31.5 0 S
2171.5 1573.75 0 31.5 S
2155.75 1589.5 31.5 0 S
2173 1565.75 0 31.5 S
2157.25 1581.5 31.5 0 S
2174.5 1555.25 0 31.5 S
2158.75 1571 31.5 0 S
2175.5 1570.25 0 31.5 S
2159.75 1586 31.5 0 S
2177 1554.25 0 31.5 S
2161.25 1570 31.5 0 S
2178.5 1578.75 0 31.5 S
2162.75 1594.5 31.5 0 S
2179.5 1563.25 0 31.5 S
2163.75 1579 31.5 0 S
2181 1565.75 0 31.5 S
2165.25 1581.5 31.5 0 S
2182 1523.25 0 31.5 S
2166.25 1539 31.5 0 S
2183.5 1538.25 0 31.5 S
2167.75 1554 31.5 0 S
2185 1522.25 0 31.5 S
2169.25 1538 31.5 0 S
2186 1531.25 0 31.5 S
2170.25 1547 31.5 0 S
2187.5 1533.25 0 31.5 S
2171.75 1549 31.5 0 S
2188.5 1515.25 0 31.5 S
2172.75 1531 31.5 0 S
2190 1516.75 0 31.5 S
2174.25 1532.5 31.5 0 S
2191 1514.25 0 31.5 S
2175.25 1530 31.5 0 S
2192.5 1498.25 0 31.5 S
2176.75 1514 31.5 0 S
2193.5 1517.75 0 31.5 S
2177.75 1533.5 31.5 0 S
2195 1456.75 0 31.5 S
2179.25 1472.5 31.5 0 S
2196 1514.25 0 31.5 S
2180.25 1530 31.5 0 S
2197.5 1483.75 0 31.5 S
2181.75 1499.5 31.5 0 S
2198.5 1485.25 0 31.5 S
2182.75 1501 31.5 0 S
2199.5 1526.75 0 31.5 S
2183.75 1542.5 31.5 0 S
2201 1451.75 0 31.5 S
2185.25 1467.5 31.5 0 S
2202 1479.25 0 31.5 S
2186.25 1495 31.5 0 S
2203.5 1491.75 0 31.5 S
2187.75 1507.5 31.5 0 S
2204.5 1443.25 0 31.5 S
2188.75 1459 31.5 0 S
2205.5 1455.25 0 31.5 S
2189.75 1471 31.5 0 S
2207 1472.25 0 31.5 S
2191.25 1488 31.5 0 S
2208 1485.25 0 31.5 S
2192.25 1501 31.5 0 S
2209 1487.75 0 31.5 S
2193.25 1503.5 31.5 0 S
2210.5 1436.25 0 31.5 S
2194.75 1452 31.5 0 S
2211.5 1450.25 0 31.5 S
2195.75 1466 31.5 0 S
2212.5 1450.25 0 31.5 S
2196.75 1466 31.5 0 S
2213.5 1445.25 0 31.5 S
2197.75 1461 31.5 0 S
2215 1400.25 0 31.5 S
2199.25 1416 31.5 0 S
2216 1428.75 0 31.5 S
2200.25 1444.5 31.5 0 S
2217 1430.75 0 31.5 S
2201.25 1446.5 31.5 0 S
2218.5 1432.75 0 31.5 S
2202.75 1448.5 31.5 0 S
2219.5 1402.75 0 31.5 S
2203.75 1418.5 31.5 0 S
2220.5 1374.25 0 31.5 S
2204.75 1390 31.5 0 S
2221.5 1411.25 0 31.5 S
2205.75 1427 31.5 0 S
2222.5 1430.75 0 31.5 S
2206.75 1446.5 31.5 0 S
2224 1430.75 0 31.5 S
2208.25 1446.5 31.5 0 S
2225 1379.25 0 31.5 S
2209.25 1395 31.5 0 S
2226 1369.25 0 31.5 S
2210.25 1385 31.5 0 S
2227 1389.25 0 31.5 S
2211.25 1405 31.5 0 S
2228 1386.75 0 31.5 S
2212.25 1402.5 31.5 0 S
2229 1376.75 0 31.5 S
2213.25 1392.5 31.5 0 S
2230.5 1398.25 0 31.5 S
2214.75 1414 31.5 0 S
2231.5 1381.75 0 31.5 S
2215.75 1397.5 31.5 0 S
2232.5 1379.25 0 31.5 S
2216.75 1395 31.5 0 S
2233.5 1358.25 0 31.5 S
2217.75 1374 31.5 0 S
2234.5 1346.75 0 31.5 S
2218.75 1362.5 31.5 0 S
2235.5 1314.75 0 31.5 S
2219.75 1330.5 31.5 0 S
2236.5 1363.75 0 31.5 S
2220.75 1379.5 31.5 0 S
2237.5 1376.75 0 31.5 S
2221.75 1392.5 31.5 0 S
2238.5 1346.75 0 31.5 S
2222.75 1362.5 31.5 0 S
2239.5 1337.75 0 31.5 S
2223.75 1353.5 31.5 0 S
2240.5 1299.75 0 31.5 S
2224.75 1315.5 31.5 0 S
2242 1287.75 0 31.5 S
2226.25 1303.5 31.5 0 S
2243 1307.25 0 31.5 S
2227.25 1323 31.5 0 S
2244 1331.25 0 31.5 S
2228.25 1347 31.5 0 S
2245 1321.75 0 31.5 S
2229.25 1337.5 31.5 0 S
2246 1291.75 0 31.5 S
2230.25 1307.5 31.5 0 S
2247 1321.75 0 31.5 S
2231.25 1337.5 31.5 0 S
2248 1307.25 0 31.5 S
2232.25 1323 31.5 0 S
2249 1291.75 0 31.5 S
2233.25 1307.5 31.5 0 S
2250 1295.75 0 31.5 S
2234.25 1311.5 31.5 0 S
2251 1266.25 0 31.5 S
2235.25 1282 31.5 0 S
2252 1261.25 0 31.5 S
2236.25 1277 31.5 0 S
2252.5 1261.25 0 31.5 S
2236.75 1277 31.5 0 S
2253.5 1299.75 0 31.5 S
2237.75 1315.5 31.5 0 S
2254.5 1275.25 0 31.5 S
2238.75 1291 31.5 0 S
2255.5 1218.75 0 31.5 S
2239.75 1234.5 31.5 0 S
2256.5 1270.75 0 31.5 S
2240.75 1286.5 31.5 0 S
2257.5 1275.25 0 31.5 S
2241.75 1291 31.5 0 S
2258.5 1230.25 0 31.5 S
2242.75 1246 31.5 0 S
2259.5 1206.25 0 31.5 S
2243.75 1222 31.5 0 S
2260.5 1199.75 0 31.5 S
2244.75 1215.5 31.5 0 S
2261.5 1136.25 0 31.5 S
2245.75 1152 31.5 0 S
2262.5 1235.75 0 31.5 S
2246.75 1251.5 31.5 0 S
2263.5 1170.75 0 31.5 S
2247.75 1186.5 31.5 0 S
2264 1154.25 0 31.5 S
2248.25 1170 31.5 0 S
2265 1230.25 0 31.5 S
2249.25 1246 31.5 0 S
2266 1212.75 0 31.5 S
2250.25 1228.5 31.5 0 S
2267 1199.75 0 31.5 S
2251.25 1215.5 31.5 0 S
2268 1192.75 0 31.5 S
2252.25 1208.5 31.5 0 S
2269 1206.25 0 31.5 S
2253.25 1222 31.5 0 S
2269.5 1170.75 0 31.5 S
2253.75 1186.5 31.5 0 S
2270.5 1116.25 0 31.5 S
2254.75 1132 31.5 0 S
2271.5 1154.25 0 31.5 S
2255.75 1170 31.5 0 S
2272.5 1192.75 0 31.5 S
2256.75 1208.5 31.5 0 S
2273.5 1170.75 0 31.5 S
2257.75 1186.5 31.5 0 S
2274 1178.25 0 31.5 S
2258.25 1194 31.5 0 S
2275 1162.75 0 31.5 S
2259.25 1178.5 31.5 0 S
2276 1212.75 0 31.5 S
2260.25 1228.5 31.5 0 S
2277 1126.25 0 31.5 S
2261.25 1142 31.5 0 S
2278 1053.25 0 31.5 S
2262.25 1069 31.5 0 S
2278.5 1126.25 0 31.5 S
2262.75 1142 31.5 0 S
2279.5 1067.75 0 31.5 S
2263.75 1083.5 31.5 0 S
2280.5 1185.75 0 31.5 S
2264.75 1201.5 31.5 0 S
2281.5 1105.25 0 31.5 S
2265.75 1121 31.5 0 S
2282 1136.25 0 31.5 S
2266.25 1152 31.5 0 S
2283 1136.25 0 31.5 S
2267.25 1152 31.5 0 S
2284 1053.25 0 31.5 S
2268.25 1069 31.5 0 S
2285 1116.25 0 31.5 S
2269.25 1132 31.5 0 S
2285.5 1037.25 0 31.5 S
2269.75 1053 31.5 0 S
2286.5 1093.75 0 31.5 S
2270.75 1109.5 31.5 0 S
2287.5 1081.25 0 31.5 S
2271.75 1097 31.5 0 S
2288 979.75 0 31.5 S
2272.25 995.5 31.5 0 S
2289 1116.25 0 31.5 S
2273.25 1132 31.5 0 S
2290 1001.25 0 31.5 S
2274.25 1017 31.5 0 S
2290.5 1053.25 0 31.5 S
2274.75 1069 31.5 0 S
2291.5 1105.25 0 31.5 S
2275.75 1121 31.5 0 S
2292.5 729.25 0 31.5 S
2276.75 745 31.5 0 S
2293 927.75 0 31.5 S
2277.25 943.5 31.5 0 S
2294 1020.25 0 31.5 S
2278.25 1036 31.5 0 S
2295 1053.25 0 31.5 S
2279.25 1069 31.5 0 S
2295.5 955.75 0 31.5 S
2279.75 971.5 31.5 0 S
2296.5 955.75 0 31.5 S
2280.75 971.5 31.5 0 S
2297.5 1001.25 0 31.5 S
2281.75 1017 31.5 0 S
2298 979.75 0 31.5 S
2282.25 995.5 31.5 0 S
2299 1053.25 0 31.5 S
2283.25 1069 31.5 0 S
2300 854.75 0 31.5 S
2284.25 870.5 31.5 0 S
2300.5 895.25 0 31.5 S
2284.75 911 31.5 0 S
2301.5 1081.25 0 31.5 S
2285.75 1097 31.5 0 S
2302 802.75 0 31.5 S
2286.25 818.5 31.5 0 S
2303 1001.25 0 31.5 S
2287.25 1017 31.5 0 S
2304 1001.25 0 31.5 S
2288.25 1017 31.5 0 S
2304.5 979.75 0 31.5 S
2288.75 995.5 31.5 0 S
2305.5 979.75 0 31.5 S
2289.75 995.5 31.5 0 S
2306 854.75 0 31.5 S
2290.25 870.5 31.5 0 S
2307 854.75 0 31.5 S
2291.25 870.5 31.5 0 S
2308 895.25 0 31.5 S
2292.25 911 31.5 0 S
2308.5 854.75 0 31.5 S
2292.75 870.5 31.5 0 S
2309.5 927.75 0 31.5 S
2293.75 943.5 31.5 0 S
2310 802.75 0 31.5 S
2294.25 818.5 31.5 0 S
2311 979.75 0 31.5 S
2295.25 995.5 31.5 0 S
2311.5 802.75 0 31.5 S
2295.75 818.5 31.5 0 S
2312.5 729.25 0 31.5 S
2296.75 745 31.5 0 S
2313 854.75 0 31.5 S
2297.25 870.5 31.5 0 S
2314 729.25 0 31.5 S
2298.25 745 31.5 0 S
2314.5 729.25 0 31.5 S
2298.75 745 31.5 0 S
2315.5 802.75 0 31.5 S
2299.75 818.5 31.5 0 S
2316.5 854.75 0 31.5 S
2300.75 870.5 31.5 0 S
2317 927.75 0 31.5 S
2301.25 943.5 31.5 0 S
2318 729.25 0 31.5 S
2302.25 745 31.5 0 S
2318.5 854.75 0 31.5 S
2302.75 870.5 31.5 0 S
2319.5 604.25 0 31.5 S
2303.75 620 31.5 0 S
2320 729.25 0 31.5 S
2304.25 745 31.5 0 S
2321 802.75 0 31.5 S
2305.25 818.5 31.5 0 S
2321.5 927.75 0 31.5 S
2305.75 943.5 31.5 0 S
2323.5 729.25 0 31.5 S
2307.75 745 31.5 0 S
2324.5 604.25 0 31.5 S
2308.75 620 31.5 0 S
2325 802.75 0 31.5 S
2309.25 818.5 31.5 0 S
2326 729.25 0 31.5 S
2310.25 745 31.5 0 S
2326.5 729.25 0 31.5 S
2310.75 745 31.5 0 S
2327.5 729.25 0 31.5 S
2311.75 745 31.5 0 S
2328 604.25 0 31.5 S
2312.25 620 31.5 0 S
2329 854.75 0 31.5 S
2313.25 870.5 31.5 0 S
2329.5 729.25 0 31.5 S
2313.75 745 31.5 0 S
2330.5 604.25 0 31.5 S
2314.75 620 31.5 0 S
2331 604.25 0 31.5 S
2315.25 620 31.5 0 S
2331.5 895.25 0 31.5 S
2315.75 911 31.5 0 S
2333 604.25 0 31.5 S
2317.25 620 31.5 0 S
2334 604.25 0 31.5 S
2318.25 620 31.5 0 S
2335.5 604.25 0 31.5 S
2319.75 620 31.5 0 S
2336.5 802.75 0 31.5 S
2320.75 818.5 31.5 0 S
2340 802.75 0 31.5 S
2324.25 818.5 31.5 0 S
2342 604.25 0 31.5 S
2326.25 620 31.5 0 S
2343 604.25 0 31.5 S
2327.25 620 31.5 0 S
2344 604.25 0 31.5 S
2328.25 620 31.5 0 S
2345.5 604.25 0 31.5 S
2329.75 620 31.5 0 S
2347 604.25 0 31.5 S
2331.25 620 31.5 0 S
2347.5 729.25 0 31.5 S
2331.75 745 31.5 0 S
2348.5 604.25 0 31.5 S
2332.75 620 31.5 0 S
2350.5 604.25 0 31.5 S
2334.75 620 31.5 0 S
2351 604.25 0 31.5 S
2335.25 620 31.5 0 S
2352.5 729.25 0 31.5 S
2336.75 745 31.5 0 S
2353.5 729.25 0 31.5 S
2337.75 745 31.5 0 S
2355.5 604.25 0 31.5 S
2339.75 620 31.5 0 S
2360 604.25 0 31.5 S
2344.25 620 31.5 0 S
2362 604.25 0 31.5 S
2346.25 620 31.5 0 S
2365 604.25 0 31.5 S
2349.25 620 31.5 0 S
2369 604.25 0 31.5 S
2353.25 620 31.5 0 S
2380 604.25 0 31.5 S
2364.25 620 31.5 0 S
2357.5 604.25 0 31.5 S
2341.75 620 31.5 0 S
2355 604.25 0 31.5 S
2339.25 620 31.5 0 S
2348.5 604.25 0 31.5 S
2332.75 620 31.5 0 S
2401.5 604.25 0 31.5 S
2385.75 620 31.5 0 S
2404 604.25 0 31.5 S
2388.25 620 31.5 0 S
2400 604.25 0 31.5 S
2384.25 620 31.5 0 S
2394.5 729.25 0 31.5 S
2378.75 745 31.5 0 S
2440 729.25 0 31.5 S
2424.25 745 31.5 0 S
2452.5 729.25 0 31.5 S
2436.75 745 31.5 0 S
2469.5 729.25 0 31.5 S
2453.75 745 31.5 0 S
2482 604.25 0 31.5 S
2466.25 620 31.5 0 S
2499 729.25 0 31.5 S
2483.25 745 31.5 0 S
2500 729.25 0 31.5 S
2484.25 745 31.5 0 S
2501.5 729.25 0 31.5 S
2485.75 745 31.5 0 S
2503.5 604.25 0 31.5 S
2487.75 620 31.5 0 S
2504 604.25 0 31.5 S
2488.25 620 31.5 0 S
2507.5 604.25 0 31.5 S
2491.75 620 31.5 0 S
2509 604.25 0 31.5 S
2493.25 620 31.5 0 S
2512.5 802.75 0 31.5 S
2496.75 818.5 31.5 0 S
2513 729.25 0 31.5 S
2497.25 745 31.5 0 S
2514.5 604.25 0 31.5 S
2498.75 620 31.5 0 S
2515 604.25 0 31.5 S
2499.25 620 31.5 0 S
2516.5 729.25 0 31.5 S
2500.75 745 31.5 0 S
2517 729.25 0 31.5 S
2501.25 745 31.5 0 S
2518 604.25 0 31.5 S
2502.25 620 31.5 0 S
2518.5 604.25 0 31.5 S
2502.75 620 31.5 0 S
2520.5 604.25 0 31.5 S
2504.75 620 31.5 0 S
2521 604.25 0 31.5 S
2505.25 620 31.5 0 S
2521 729.25 0 31.5 S
2505.25 745 31.5 0 S
2521.5 729.25 0 31.5 S
2505.75 745 31.5 0 S
2522 604.25 0 31.5 S
2506.25 620 31.5 0 S
2523 604.25 0 31.5 S
2507.25 620 31.5 0 S
2523 604.25 0 31.5 S
2507.25 620 31.5 0 S
2524 729.25 0 31.5 S
2508.25 745 31.5 0 S
2524.5 729.25 0 31.5 S
2508.75 745 31.5 0 S
2525 729.25 0 31.5 S
2509.25 745 31.5 0 S
5 w
854 620 1740 1248 re
S
cleartomark end end pagesave restore
 showpage
%%PageTrailer
%%Trailer
%%Pages: 1
