%!PS-Adobe-3.0 EPSF-3.0
%%BoundingBox: 69 53 265 190
%%HiResBoundingBox: 69.400000 53.900000 264.900000 189.100000
%.....................................
%%Creator: GPL Ghostscript 871 (epswrite)
%%CreationDate: 2012/01/28 17:04:49
%%DocumentData: Clean7Bit
%%LanguageLevel: 2
%%EndComments
%%BeginProlog
% This copyright applies to everything between here and the %%EndProlog:
% Copyright (C) 2010 Artifex Software, Inc.  All rights reserved.
%%BeginResource: procset GS_epswrite_2_0_1001 1.001 0
/GS_epswrite_2_0_1001 80 dict dup begin
/PageSize 2 array def/setpagesize{ PageSize aload pop 3 index eq exch
4 index eq and{ pop pop pop}{ PageSize dup  1
5 -1 roll put 0 4 -1 roll put dup null eq {false} {dup where} ifelse{ exch get exec}
{ pop/setpagedevice where
{ pop 1 dict dup /PageSize PageSize put setpagedevice}
{ /setpage where{ pop PageSize aload pop pageparams 3 {exch pop} repeat
setpage}if}ifelse}ifelse}ifelse} bind def
/!{bind def}bind def/#{load def}!/N/counttomark #
/rG{3{3 -1 roll 255 div}repeat setrgbcolor}!/G{255 div setgray}!/K{0 G}!
/r6{dup 3 -1 roll rG}!/r5{dup 3 1 roll rG}!/r3{dup rG}!
/w/setlinewidth #/J/setlinecap #
/j/setlinejoin #/M/setmiterlimit #/d/setdash #/i/setflat #
/m/moveto #/l/lineto #/c/rcurveto #
/p{N 2 idiv{N -2 roll rlineto}repeat}!
/P{N 0 gt{N -2 roll moveto p}if}!
/h{p closepath}!/H{P closepath}!
/lx{0 rlineto}!/ly{0 exch rlineto}!/v{0 0 6 2 roll c}!/y{2 copy c}!
/re{4 -2 roll m exch dup lx exch ly neg lx h}!
/^{3 index neg 3 index neg}!
/f{P fill}!/f*{P eofill}!/s{H stroke}!/S{P stroke}!
/q/gsave #/Q/grestore #/rf{re fill}!
/Y{P clip newpath}!/Y*{P eoclip newpath}!/rY{re Y}!
/|={pop exch 4 1 roll 1 array astore cvx 3 array astore cvx exch 1 index def exec}!
/|{exch string readstring |=}!
/+{dup type/nametype eq{2 index 7 add -3 bitshift 2 index mul}if}!
/@/currentfile #/${+ @ |}!
/B{{2 copy string{readstring pop}aload pop 4 array astore cvx
3 1 roll}repeat pop pop true}!
/Ix{[1 0 0 1 11 -2 roll exch neg exch neg]exch}!
/,{true exch Ix imagemask}!/If{false exch Ix imagemask}!/I{exch Ix image}!
/Ic{exch Ix false 3 colorimage}!
/F{/Columns counttomark 3 add -2 roll/Rows exch/K -1/BlackIs1 true>>
/CCITTFaxDecode filter}!/FX{<</EndOfBlock false F}!
/X{/ASCII85Decode filter}!/@X{@ X}!/&2{2 index 2 index}!
/@F{@ &2<<F}!/@C{@X &2 FX}!
/$X{+ @X |}!/&4{4 index 4 index}!/$F{+ @ &4<<F |}!/$C{+ @X &4 FX |}!
/IC{3 1 roll 10 dict begin 1{/ImageType/Interpolate/Decode/DataSource
/ImageMatrix/BitsPerComponent/Height/Width}{exch def}forall
currentdict end image}!
/~{@ read {pop} if}!
end def
%%EndResource
/pagesave null def
%%EndProlog
%%Page: 1 1
%%BeginPageSetup
GS_epswrite_2_0_1001 begin
/pagesave save store 197 dict begin
0.1 0.1 scale
%%EndPageSetup
gsave mark
Q q
0 0 250000 250000 re
Y
5 w
K
926 620 31.5 0 P
2594 620 -31.5 0 S
861 600 17 43 /3U
$C
,Tm'ds8W-!s-F.@R>;m@If~>
,
926 695 15.5 0 P
2594 695 -15.5 0 P
926 794.5 15.5 0 P
2594 794.5 -15.5 0 P
926 845.5 15.5 0 P
2594 845.5 -15.5 0 P
926 869.5 31.5 0 P
2594 869.5 -31.5 0 S
827 850 3U ,
853 849 34 44 /6U
$C
23%r'%\5X)j2)<u^Zk'1J,ZoQs8W-!s8VJ_s8Qk\g>99H(eYmM:r7r$~>
,
926 944.5 15.5 0 P
2594 944.5 -15.5 0 P
926 1044 15.5 0 P
2594 1044 -15.5 0 P
926 1095 15.5 0 P
2594 1095 -15.5 0 P
926 1119 31.5 0 P
2594 1119 -31.5 0 S
794 1099 3U ,
819 1098 6U ,
853 1098 6U ,
926 1194.5 15.5 0 P
2594 1194.5 -15.5 0 P
926 1293.5 15.5 0 P
2594 1293.5 -15.5 0 P
926 1344.5 15.5 0 P
2594 1344.5 -15.5 0 P
926 1369 31.5 0 P
2594 1369 -31.5 0 S
761 1349 3U ,
786 1348 6U ,
819 1348 6U ,
853 1348 6U ,
926 1444 15.5 0 P
2594 1444 -15.5 0 P
926 1543.5 15.5 0 P
2594 1543.5 -15.5 0 P
926 1594 15.5 0 P
2594 1594 -15.5 0 P
926 1618.5 31.5 0 P
2594 1618.5 -31.5 0 S
727 1599 3U ,
753 1598 6U ,
786 1598 6U ,
819 1598 6U ,
853 1598 6U ,
926 1693.5 15.5 0 P
2594 1693.5 -15.5 0 P
926 1793 15.5 0 P
2594 1793 -15.5 0 P
926 1844 15.5 0 P
2594 1844 -15.5 0 P
926 1868 31.5 0 P
2594 1868 -31.5 0 S
694 1848 3U ,
719 1847 6U ,
753 1847 6U ,
786 1847 6U ,
819 1847 6U ,
853 1847 6U ,
926 620 0 31.5 P
926 1868 0 -31.5 S
862 555 21 4 /3Y
$C
4qID~>
,
882 539 35 44 /6Y
$C
22__[-UH4U05uPcT2!a`He7T^qXqU=['7F,Z=C&h$n`Au*WOE]DtUNIgIhr,MR@1;L'd~>
,
915 539 6U ,
949 539 6U ,
1164.5 620 0 31.5 P
1164.5 1868 0 -31.5 S
1100 555 3Y ,
1120 540 35 43 /4C
$C
.M)RZs3Cmfr0V$lmIpMQmIpMQmJH;FpY5/kn_X9>^V/P~>
,
1154 539 6U ,
1187 539 6U ,
1402.5 620 0 31.5 P
1402.5 1868 0 -31.5 S
1338 555 3Y ,
1358 540 34 43 /7C
$C
4;jd(Qp5fN^"]dYfPna4iOE=NL>hOS^UAOiqu,+3CMbUV[OTh+@7(A~>
,
1392 539 6U ,
1425 539 6U ,
1641 620 0 31.5 P
1641 1868 0 -31.5 S
1629 539 6U ,
1879 620 0 31.5 P
1879 1868 0 -31.5 S
1833 540 7C ,
1867 539 6U ,
1900 539 6U ,
2117.5 620 0 31.5 P
2117.5 1868 0 -31.5 S
2072 540 4C ,
2105 539 6U ,
2139 539 6U ,
2355.5 620 0 31.5 P
2355.5 1868 0 -31.5 S
2310 539 6Y ,
2343 539 6U ,
2377 539 6U ,
2594 620 0 31.5 P
2594 1868 0 -31.5 S
2548 539 35 44 /4G
$C
2$jBqS07(D'Aa:H#WJZ`e,TIHX4Gk>$!:Ud'l"Rbl-UTa#WJZ`l2Ue`CO4^e@4ZT(6OF59~>
,
2582 539 6U ,
2615 539 6U ,
926 620 1668 1248 re
S
2.5 w
1126 1851.75 0 31.5 S
1110.25 1867.5 31.5 0 S
1127.5 1851.75 0 31.5 S
1111.75 1867.5 31.5 0 S
1129.5 1851.75 0 31.5 S
1113.75 1867.5 31.5 0 S
1132 1851.75 0 31.5 S
1116.25 1867.5 31.5 0 S
1134.5 1851.75 0 31.5 S
1118.75 1867.5 31.5 0 S
1137 1851.75 0 31.5 S
1121.25 1867.5 31.5 0 S
1139.5 1851.75 0 31.5 S
1123.75 1867.5 31.5 0 S
1141.5 1851.75 0 31.5 S
1125.75 1867.5 31.5 0 S
1144 1851.75 0 31.5 S
1128.25 1867.5 31.5 0 S
1146.5 1851.75 0 31.5 S
1130.75 1867.5 31.5 0 S
1149 1851.75 0 31.5 S
1133.25 1867.5 31.5 0 S
1151 1851.75 0 31.5 S
1135.25 1867.5 31.5 0 S
1156 1851.75 0 31.5 S
1140.25 1867.5 31.5 0 S
1157 1851.75 0 31.5 S
1141.25 1867.5 31.5 0 S
1160.5 1851.75 0 31.5 S
1144.75 1867.5 31.5 0 S
1163 1851.75 0 31.5 S
1147.25 1867.5 31.5 0 S
1164.5 1851.75 0 31.5 S
1148.75 1867.5 31.5 0 S
1165.5 1851.75 0 31.5 S
1149.75 1867.5 31.5 0 S
1169 1851.75 0 31.5 S
1153.25 1867.5 31.5 0 S
1174 1851.75 0 31.5 S
1158.25 1867.5 31.5 0 S
1182 1851.75 0 31.5 S
1166.25 1867.5 31.5 0 S
1187 1851.75 0 31.5 S
1171.25 1867.5 31.5 0 S
1191.5 1851.75 0 31.5 S
1175.75 1867.5 31.5 0 S
1197.5 1851.75 0 31.5 S
1181.75 1867.5 31.5 0 S
1200 1851.75 0 31.5 S
1184.25 1867.5 31.5 0 S
1201 1851.75 0 31.5 S
1185.25 1867.5 31.5 0 S
1206 1851.75 0 31.5 S
1190.25 1867.5 31.5 0 S
1218 1851.75 0 31.5 S
1202.25 1867.5 31.5 0 S
1224 1851.75 0 31.5 S
1208.25 1867.5 31.5 0 S
1226 1851.75 0 31.5 S
1210.25 1867.5 31.5 0 S
1116.5 1851.75 0 31.5 S
1100.75 1867.5 31.5 0 S
1120 1851.75 0 31.5 S
1104.25 1867.5 31.5 0 S
1127.5 1851.75 0 31.5 S
1111.75 1867.5 31.5 0 S
1129.5 1851.75 0 31.5 S
1113.75 1867.5 31.5 0 S
1138 1851.75 0 31.5 S
1122.25 1867.5 31.5 0 S
1144 1851.75 0 31.5 S
1128.25 1867.5 31.5 0 S
1150 1851.75 0 31.5 S
1134.25 1867.5 31.5 0 S
1155 1851.75 0 31.5 S
1139.25 1867.5 31.5 0 S
1163 1851.75 0 31.5 S
1147.25 1867.5 31.5 0 S
1176 1851.75 0 31.5 S
1160.25 1867.5 31.5 0 S
1185.5 1851.75 0 31.5 S
1169.75 1867.5 31.5 0 S
1193 1851.75 0 31.5 S
1177.25 1867.5 31.5 0 S
1207 1851.75 0 31.5 S
1191.25 1867.5 31.5 0 S
1218 1851.75 0 31.5 S
1202.25 1867.5 31.5 0 S
1219 1851.75 0 31.5 S
1203.25 1867.5 31.5 0 S
1244 1851.75 0 31.5 S
1228.25 1867.5 31.5 0 S
1252.5 1851.75 0 31.5 S
1236.75 1867.5 31.5 0 S
1271.5 1851.75 0 31.5 S
1255.75 1867.5 31.5 0 S
1288 1851.75 0 31.5 S
1272.25 1867.5 31.5 0 S
1373 1851.75 0 31.5 S
1357.25 1867.5 31.5 0 S
1376.5 1851.75 0 31.5 S
1360.75 1867.5 31.5 0 S
1380 1851.75 0 31.5 S
1364.25 1867.5 31.5 0 S
1383.5 1851.75 0 31.5 S
1367.75 1867.5 31.5 0 S
1395.5 1851.75 0 31.5 S
1379.75 1867.5 31.5 0 S
1396.5 1851.75 0 31.5 S
1380.75 1867.5 31.5 0 S
1398 1851.75 0 31.5 S
1382.25 1867.5 31.5 0 S
1399 1851.75 0 31.5 S
1383.25 1867.5 31.5 0 S
1400 1851.75 0 31.5 S
1384.25 1867.5 31.5 0 S
1402.5 1851.75 0 31.5 S
1386.75 1867.5 31.5 0 S
1404 1851.75 0 31.5 S
1388.25 1867.5 31.5 0 S
1405 1851.75 0 31.5 S
1389.25 1867.5 31.5 0 S
1407.5 1851.75 0 31.5 S
1391.75 1867.5 31.5 0 S
1408.5 1851.75 0 31.5 S
1392.75 1867.5 31.5 0 S
1409.5 1851.75 0 31.5 S
1393.75 1867.5 31.5 0 S
1411 1851.75 0 31.5 S
1395.25 1867.5 31.5 0 S
1412 1851.75 0 31.5 S
1396.25 1867.5 31.5 0 S
1413.5 1851.75 0 31.5 S
1397.75 1867.5 31.5 0 S
1414.5 1851.75 0 31.5 S
1398.75 1867.5 31.5 0 S
1415.5 1851.75 0 31.5 S
1399.75 1867.5 31.5 0 S
1417 1851.75 0 31.5 S
1401.25 1867.5 31.5 0 S
1418 1851.75 0 31.5 S
1402.25 1867.5 31.5 0 S
1419.5 1851.75 0 31.5 S
1403.75 1867.5 31.5 0 S
1420.5 1851.75 0 31.5 S
1404.75 1867.5 31.5 0 S
1423 1851.75 0 31.5 S
1407.25 1867.5 31.5 0 S
1424 1851.75 0 31.5 S
1408.25 1867.5 31.5 0 S
1425 1851.75 0 31.5 S
1409.25 1867.5 31.5 0 S
1426.5 1851.75 0 31.5 S
1410.75 1867.5 31.5 0 S
1427.5 1851.75 0 31.5 S
1411.75 1867.5 31.5 0 S
1429 1851.75 0 31.5 S
1413.25 1867.5 31.5 0 S
1430 1851.75 0 31.5 S
1414.25 1867.5 31.5 0 S
1431 1851.75 0 31.5 S
1415.25 1867.5 31.5 0 S
1432.5 1851.75 0 31.5 S
1416.75 1867.5 31.5 0 S
1433.5 1851.75 0 31.5 S
1417.75 1867.5 31.5 0 S
1434.5 1851.75 0 31.5 S
1418.75 1867.5 31.5 0 S
1436 1851.75 0 31.5 S
1420.25 1867.5 31.5 0 S
1437 1851.75 0 31.5 S
1421.25 1867.5 31.5 0 S
1438.5 1851.75 0 31.5 S
1422.75 1867.5 31.5 0 S
1439.5 1851.75 0 31.5 S
1423.75 1867.5 31.5 0 S
1440.5 1851.75 0 31.5 S
1424.75 1867.5 31.5 0 S
1442 1851.75 0 31.5 S
1426.25 1867.5 31.5 0 S
1443 1851.75 0 31.5 S
1427.25 1867.5 31.5 0 S
1444.5 1851.75 0 31.5 S
1428.75 1867.5 31.5 0 S
1445.5 1851.75 0 31.5 S
1429.75 1867.5 31.5 0 S
1446.5 1851.75 0 31.5 S
1430.75 1867.5 31.5 0 S
1448 1851.75 0 31.5 S
1432.25 1867.5 31.5 0 S
1449 1851.75 0 31.5 S
1433.25 1867.5 31.5 0 S
1450 1851.75 0 31.5 S
1434.25 1867.5 31.5 0 S
1451.5 1851.25 0 31.5 S
1435.75 1867 31.5 0 S
1452.5 1851.25 0 31.5 S
1436.75 1867 31.5 0 S
1454 1851.25 0 31.5 S
1438.25 1867 31.5 0 S
1455 1851.25 0 31.5 S
1439.25 1867 31.5 0 S
1456 1851.25 0 31.5 S
1440.25 1867 31.5 0 S
1457.5 1851.25 0 31.5 S
1441.75 1867 31.5 0 S
1458.5 1851.25 0 31.5 S
1442.75 1867 31.5 0 S
1460 1851.25 0 31.5 S
1444.25 1867 31.5 0 S
1461 1851.25 0 31.5 S
1445.25 1867 31.5 0 S
1462 1851.25 0 31.5 S
1446.25 1867 31.5 0 S
1463.5 1851.25 0 31.5 S
1447.75 1867 31.5 0 S
1464.5 1851.25 0 31.5 S
1448.75 1867 31.5 0 S
1465.5 1851.25 0 31.5 S
1449.75 1867 31.5 0 S
1467 1851.25 0 31.5 S
1451.25 1867 31.5 0 S
1468 1851.25 0 31.5 S
1452.25 1867 31.5 0 S
1469.5 1851.25 0 31.5 S
1453.75 1867 31.5 0 S
1470.5 1851.25 0 31.5 S
1454.75 1867 31.5 0 S
1471.5 1851.25 0 31.5 S
1455.75 1867 31.5 0 S
1473 1851.25 0 31.5 S
1457.25 1867 31.5 0 S
1474 1851.25 0 31.5 S
1458.25 1867 31.5 0 S
1475 1851.25 0 31.5 S
1459.25 1867 31.5 0 S
1476.5 1851.25 0 31.5 S
1460.75 1867 31.5 0 S
1477.5 1851.25 0 31.5 S
1461.75 1867 31.5 0 S
1479 1851.25 0 31.5 S
1463.25 1867 31.5 0 S
1480 1851.25 0 31.5 S
1464.25 1867 31.5 0 S
1481 1851.25 0 31.5 S
1465.25 1867 31.5 0 S
1482.5 1851.25 0 31.5 S
1466.75 1867 31.5 0 S
1483.5 1851.25 0 31.5 S
1467.75 1867 31.5 0 S
1485 1851.25 0 31.5 S
1469.25 1867 31.5 0 S
1486 1851.25 0 31.5 S
1470.25 1867 31.5 0 S
1487 1851.25 0 31.5 S
1471.25 1867 31.5 0 S
1488.5 1851.25 0 31.5 S
1472.75 1867 31.5 0 S
1489.5 1851.25 0 31.5 S
1473.75 1867 31.5 0 S
1490.5 1851.25 0 31.5 S
1474.75 1867 31.5 0 S
1492 1851.25 0 31.5 S
1476.25 1867 31.5 0 S
1493 1851.25 0 31.5 S
1477.25 1867 31.5 0 S
1494.5 1851.25 0 31.5 S
1478.75 1867 31.5 0 S
1495.5 1850.75 0 31.5 S
1479.75 1866.5 31.5 0 S
1496.5 1850.75 0 31.5 S
1480.75 1866.5 31.5 0 S
1498 1850.75 0 31.5 S
1482.25 1866.5 31.5 0 S
1499 1850.75 0 31.5 S
1483.25 1866.5 31.5 0 S
1500.5 1850.75 0 31.5 S
1484.75 1866.5 31.5 0 S
1501.5 1850.75 0 31.5 S
1485.75 1866.5 31.5 0 S
1502.5 1850.75 0 31.5 S
1486.75 1866.5 31.5 0 S
1504 1850.75 0 31.5 S
1488.25 1866.5 31.5 0 S
1505 1850.75 0 31.5 S
1489.25 1866.5 31.5 0 S
1506 1850.75 0 31.5 S
1490.25 1866.5 31.5 0 S
1507.5 1850.75 0 31.5 S
1491.75 1866.5 31.5 0 S
1508.5 1850.75 0 31.5 S
1492.75 1866.5 31.5 0 S
1510 1850.75 0 31.5 S
1494.25 1866.5 31.5 0 S
1511 1850.75 0 31.5 S
1495.25 1866.5 31.5 0 S
1512 1850.75 0 31.5 S
1496.25 1866.5 31.5 0 S
1513.5 1850.75 0 31.5 S
1497.75 1866.5 31.5 0 S
1514.5 1850.75 0 31.5 S
1498.75 1866.5 31.5 0 S
1516 1850.75 0 31.5 S
1500.25 1866.5 31.5 0 S
1517 1850.25 0 31.5 S
1501.25 1866 31.5 0 S
1518 1850.25 0 31.5 S
1502.25 1866 31.5 0 S
1519.5 1850.25 0 31.5 S
1503.75 1866 31.5 0 S
1520.5 1850.25 0 31.5 S
1504.75 1866 31.5 0 S
1521.5 1850.25 0 31.5 S
1505.75 1866 31.5 0 S
1523 1850.25 0 31.5 S
1507.25 1866 31.5 0 S
1524 1850.25 0 31.5 S
1508.25 1866 31.5 0 S
1525.5 1850.25 0 31.5 S
1509.75 1866 31.5 0 S
1526.5 1850.25 0 31.5 S
1510.75 1866 31.5 0 S
1527.5 1850.25 0 31.5 S
1511.75 1866 31.5 0 S
1529 1850.25 0 31.5 S
1513.25 1866 31.5 0 S
1530 1850.25 0 31.5 S
1514.25 1866 31.5 0 S
1531 1849.75 0 31.5 S
1515.25 1865.5 31.5 0 S
1532.5 1849.75 0 31.5 S
1516.75 1865.5 31.5 0 S
1533.5 1849.75 0 31.5 S
1517.75 1865.5 31.5 0 S
1535 1849.75 0 31.5 S
1519.25 1865.5 31.5 0 S
1536 1849.75 0 31.5 S
1520.25 1865.5 31.5 0 S
1537 1849.75 0 31.5 S
1521.25 1865.5 31.5 0 S
1538.5 1849.75 0 31.5 S
1522.75 1865.5 31.5 0 S
1539.5 1849.75 0 31.5 S
1523.75 1865.5 31.5 0 S
1541 1849.25 0 31.5 S
1525.25 1865 31.5 0 S
1542 1849.25 0 31.5 S
1526.25 1865 31.5 0 S
1543 1849.25 0 31.5 S
1527.25 1865 31.5 0 S
1544.5 1849.25 0 31.5 S
1528.75 1865 31.5 0 S
1545.5 1849.25 0 31.5 S
1529.75 1865 31.5 0 S
1546.5 1849.25 0 31.5 S
1530.75 1865 31.5 0 S
1548 1849.25 0 31.5 S
1532.25 1865 31.5 0 S
1549 1848.75 0 31.5 S
1533.25 1864.5 31.5 0 S
1550.5 1848.75 0 31.5 S
1534.75 1864.5 31.5 0 S
1551.5 1848.75 0 31.5 S
1535.75 1864.5 31.5 0 S
1552.5 1848.75 0 31.5 S
1536.75 1864.5 31.5 0 S
1554 1848.75 0 31.5 S
1538.25 1864.5 31.5 0 S
1555 1848.75 0 31.5 S
1539.25 1864.5 31.5 0 S
1556.5 1848.25 0 31.5 S
1540.75 1864 31.5 0 S
1557.5 1848.25 0 31.5 S
1541.75 1864 31.5 0 S
1558.5 1848.25 0 31.5 S
1542.75 1864 31.5 0 S
1560 1848.25 0 31.5 S
1544.25 1864 31.5 0 S
1561 1848.25 0 31.5 S
1545.25 1864 31.5 0 S
1562 1847.75 0 31.5 S
1546.25 1863.5 31.5 0 S
1563.5 1847.75 0 31.5 S
1547.75 1863.5 31.5 0 S
1564.5 1847.75 0 31.5 S
1548.75 1863.5 31.5 0 S
1566 1847.75 0 31.5 S
1550.25 1863.5 31.5 0 S
1567 1847.75 0 31.5 S
1551.25 1863.5 31.5 0 S
1568 1847.25 0 31.5 S
1552.25 1863 31.5 0 S
1569.5 1847.25 0 31.5 S
1553.75 1863 31.5 0 S
1570.5 1847.25 0 31.5 S
1554.75 1863 31.5 0 S
1572 1846.75 0 31.5 S
1556.25 1862.5 31.5 0 S
1573 1846.75 0 31.5 S
1557.25 1862.5 31.5 0 S
1574 1846.75 0 31.5 S
1558.25 1862.5 31.5 0 S
1575.5 1846.75 0 31.5 S
1559.75 1862.5 31.5 0 S
1576.5 1846.25 0 31.5 S
1560.75 1862 31.5 0 S
1577.5 1846.25 0 31.5 S
1561.75 1862 31.5 0 S
1579 1846.25 0 31.5 S
1563.25 1862 31.5 0 S
1580 1845.75 0 31.5 S
1564.25 1861.5 31.5 0 S
1581.5 1845.75 0 31.5 S
1565.75 1861.5 31.5 0 S
1582.5 1845.75 0 31.5 S
1566.75 1861.5 31.5 0 S
1583.5 1845.25 0 31.5 S
1567.75 1861 31.5 0 S
1585 1845.25 0 31.5 S
1569.25 1861 31.5 0 S
1586 1845.25 0 31.5 S
1570.25 1861 31.5 0 S
1587 1844.75 0 31.5 S
1571.25 1860.5 31.5 0 S
1588.5 1844.75 0 31.5 S
1572.75 1860.5 31.5 0 S
1589.5 1844.75 0 31.5 S
1573.75 1860.5 31.5 0 S
1591 1844.25 0 31.5 S
1575.25 1860 31.5 0 S
1592 1844.25 0 31.5 S
1576.25 1860 31.5 0 S
1593 1844.25 0 31.5 S
1577.25 1860 31.5 0 S
1594.5 1843.75 0 31.5 S
1578.75 1859.5 31.5 0 S
1595.5 1843.75 0 31.5 S
1579.75 1859.5 31.5 0 S
1597 1843.25 0 31.5 S
1581.25 1859 31.5 0 S
1598 1843.25 0 31.5 S
1582.25 1859 31.5 0 S
1599 1843.25 0 31.5 S
1583.25 1859 31.5 0 S
1600.5 1842.75 0 31.5 S
1584.75 1858.5 31.5 0 S
1601.5 1842.75 0 31.5 S
1585.75 1858.5 31.5 0 S
1602.5 1842.25 0 31.5 S
1586.75 1858 31.5 0 S
1604 1842.25 0 31.5 S
1588.25 1858 31.5 0 S
1605 1841.75 0 31.5 S
1589.25 1857.5 31.5 0 S
1606.5 1841.75 0 31.5 S
1590.75 1857.5 31.5 0 S
1607.5 1841.25 0 31.5 S
1591.75 1857 31.5 0 S
1608.5 1841.25 0 31.5 S
1592.75 1857 31.5 0 S
1610 1840.75 0 31.5 S
1594.25 1856.5 31.5 0 S
1611 1840.75 0 31.5 S
1595.25 1856.5 31.5 0 S
1612.5 1840.25 0 31.5 S
1596.75 1856 31.5 0 S
1613.5 1840.25 0 31.5 S
1597.75 1856 31.5 0 S
1614.5 1839.75 0 31.5 S
1598.75 1855.5 31.5 0 S
1616 1839.75 0 31.5 S
1600.25 1855.5 31.5 0 S
1617 1839.25 0 31.5 S
1601.25 1855 31.5 0 S
1618 1839.25 0 31.5 S
1602.25 1855 31.5 0 S
1619.5 1838.75 0 31.5 S
1603.75 1854.5 31.5 0 S
1620.5 1838.75 0 31.5 S
1604.75 1854.5 31.5 0 S
1622 1838.25 0 31.5 S
1606.25 1854 31.5 0 S
1623 1837.75 0 31.5 S
1607.25 1853.5 31.5 0 S
1624 1837.75 0 31.5 S
1608.25 1853.5 31.5 0 S
1625.5 1837.25 0 31.5 S
1609.75 1853 31.5 0 S
1626.5 1836.75 0 31.5 S
1610.75 1852.5 31.5 0 S
1628 1836.75 0 31.5 S
1612.25 1852.5 31.5 0 S
1629 1836.25 0 31.5 S
1613.25 1852 31.5 0 S
1630 1836.25 0 31.5 S
1614.25 1852 31.5 0 S
1631.5 1835.75 0 31.5 S
1615.75 1851.5 31.5 0 S
1632.5 1835.25 0 31.5 S
1616.75 1851 31.5 0 S
1633.5 1834.75 0 31.5 S
1617.75 1850.5 31.5 0 S
1635 1834.75 0 31.5 S
1619.25 1850.5 31.5 0 S
1636 1834.25 0 31.5 S
1620.25 1850 31.5 0 S
1637.5 1833.75 0 31.5 S
1621.75 1849.5 31.5 0 S
1638.5 1833.75 0 31.5 S
1622.75 1849.5 31.5 0 S
1639.5 1833.25 0 31.5 S
1623.75 1849 31.5 0 S
1642 1832.75 0 31.5 S
1626.25 1848.5 31.5 0 S
1643 1832.25 0 31.5 S
1627.25 1848 31.5 0 S
1644.5 1831.75 0 31.5 S
1628.75 1847.5 31.5 0 S
1645.5 1831.75 0 31.5 S
1629.75 1847.5 31.5 0 S
1647 1831.25 0 31.5 S
1631.25 1847 31.5 0 S
1648 1830.75 0 31.5 S
1632.25 1846.5 31.5 0 S
1649 1830.25 0 31.5 S
1633.25 1846 31.5 0 S
1650.5 1829.75 0 31.5 S
1634.75 1845.5 31.5 0 S
1651.5 1829.25 0 31.5 S
1635.75 1845 31.5 0 S
1653 1828.75 0 31.5 S
1637.25 1844.5 31.5 0 S
1654 1828.25 0 31.5 S
1638.25 1844 31.5 0 S
1655 1827.75 0 31.5 S
1639.25 1843.5 31.5 0 S
1656.5 1827.75 0 31.5 S
1640.75 1843.5 31.5 0 S
1657.5 1827.25 0 31.5 S
1641.75 1843 31.5 0 S
1658.5 1826.75 0 31.5 S
1642.75 1842.5 31.5 0 S
1660 1826.25 0 31.5 S
1644.25 1842 31.5 0 S
1661 1825.75 0 31.5 S
1645.25 1841.5 31.5 0 S
1662.5 1825.25 0 31.5 S
1646.75 1841 31.5 0 S
1663.5 1824.25 0 31.5 S
1647.75 1840 31.5 0 S
1664.5 1823.75 0 31.5 S
1648.75 1839.5 31.5 0 S
1666 1823.25 0 31.5 S
1650.25 1839 31.5 0 S
1667 1822.75 0 31.5 S
1651.25 1838.5 31.5 0 S
1668.5 1822.25 0 31.5 S
1652.75 1838 31.5 0 S
1669.5 1821.75 0 31.5 S
1653.75 1837.5 31.5 0 S
1670.5 1821.25 0 31.5 S
1654.75 1837 31.5 0 S
1672 1820.75 0 31.5 S
1656.25 1836.5 31.5 0 S
1673 1819.75 0 31.5 S
1657.25 1835.5 31.5 0 S
1674 1819.25 0 31.5 S
1658.25 1835 31.5 0 S
1675.5 1818.75 0 31.5 S
1659.75 1834.5 31.5 0 S
1676.5 1818.25 0 31.5 S
1660.75 1834 31.5 0 S
1678 1817.75 0 31.5 S
1662.25 1833.5 31.5 0 S
1679 1817.25 0 31.5 S
1663.25 1833 31.5 0 S
1680 1816.25 0 31.5 S
1664.25 1832 31.5 0 S
1681.5 1815.75 0 31.5 S
1665.75 1831.5 31.5 0 S
1682.5 1815.25 0 31.5 S
1666.75 1831 31.5 0 S
1683.5 1814.25 0 31.5 S
1667.75 1830 31.5 0 S
1685 1813.75 0 31.5 S
1669.25 1829.5 31.5 0 S
1686 1813.25 0 31.5 S
1670.25 1829 31.5 0 S
1687.5 1812.25 0 31.5 S
1671.75 1828 31.5 0 S
1688.5 1811.75 0 31.5 S
1672.75 1827.5 31.5 0 S
1689.5 1810.75 0 31.5 S
1673.75 1826.5 31.5 0 S
1691 1810.25 0 31.5 S
1675.25 1826 31.5 0 S
1692 1809.75 0 31.5 S
1676.25 1825.5 31.5 0 S
1693.5 1808.75 0 31.5 S
1677.75 1824.5 31.5 0 S
1694.5 1808.25 0 31.5 S
1678.75 1824 31.5 0 S
1695.5 1807.25 0 31.5 S
1679.75 1823 31.5 0 S
1697 1806.75 0 31.5 S
1681.25 1822.5 31.5 0 S
1698 1805.75 0 31.5 S
1682.25 1821.5 31.5 0 S
1699 1804.75 0 31.5 S
1683.25 1820.5 31.5 0 S
1700.5 1804.25 0 31.5 S
1684.75 1820 31.5 0 S
1701.5 1803.25 0 31.5 S
1685.75 1819 31.5 0 S
1703 1802.75 0 31.5 S
1687.25 1818.5 31.5 0 S
1704 1801.75 0 31.5 S
1688.25 1817.5 31.5 0 S
1705 1801.25 0 31.5 S
1689.25 1817 31.5 0 S
1706.5 1800.25 0 31.5 S
1690.75 1816 31.5 0 S
1707.5 1799.25 0 31.5 S
1691.75 1815 31.5 0 S
1709 1798.25 0 31.5 S
1693.25 1814 31.5 0 S
1710 1797.75 0 31.5 S
1694.25 1813.5 31.5 0 S
1711 1796.75 0 31.5 S
1695.25 1812.5 31.5 0 S
1712.5 1795.75 0 31.5 S
1696.75 1811.5 31.5 0 S
1713.5 1795.25 0 31.5 S
1697.75 1811 31.5 0 S
1714.5 1794.25 0 31.5 S
1698.75 1810 31.5 0 S
1716 1793.25 0 31.5 S
1700.25 1809 31.5 0 S
1717 1792.25 0 31.5 S
1701.25 1808 31.5 0 S
1718.5 1791.75 0 31.5 S
1702.75 1807.5 31.5 0 S
1719.5 1790.75 0 31.5 S
1703.75 1806.5 31.5 0 S
1720.5 1789.75 0 31.5 S
1704.75 1805.5 31.5 0 S
1722 1788.75 0 31.5 S
1706.25 1804.5 31.5 0 S
1723 1787.75 0 31.5 S
1707.25 1803.5 31.5 0 S
1724.5 1786.75 0 31.5 S
1708.75 1802.5 31.5 0 S
1725.5 1785.75 0 31.5 S
1709.75 1801.5 31.5 0 S
1726.5 1784.75 0 31.5 S
1710.75 1800.5 31.5 0 S
1728 1783.75 0 31.5 S
1712.25 1799.5 31.5 0 S
1729 1782.75 0 31.5 S
1713.25 1798.5 31.5 0 S
1730 1781.75 0 31.5 S
1714.25 1797.5 31.5 0 S
1731.5 1780.75 0 31.5 S
1715.75 1796.5 31.5 0 S
1732.5 1779.75 0 31.5 S
1716.75 1795.5 31.5 0 S
1734 1778.75 0 31.5 S
1718.25 1794.5 31.5 0 S
1735 1777.75 0 31.5 S
1719.25 1793.5 31.5 0 S
1736 1776.25 0 31.5 S
1720.25 1792 31.5 0 S
1737.5 1775.25 0 31.5 S
1721.75 1791 31.5 0 S
1738.5 1774.25 0 31.5 S
1722.75 1790 31.5 0 S
1739.5 1773.25 0 31.5 S
1723.75 1789 31.5 0 S
1741 1772.25 0 31.5 S
1725.25 1788 31.5 0 S
1742 1771.25 0 31.5 S
1726.25 1787 31.5 0 S
1743.5 1769.75 0 31.5 S
1727.75 1785.5 31.5 0 S
1744.5 1768.75 0 31.5 S
1728.75 1784.5 31.5 0 S
1745.5 1767.75 0 31.5 S
1729.75 1783.5 31.5 0 S
1747 1766.25 0 31.5 S
1731.25 1782 31.5 0 S
1748 1765.25 0 31.5 S
1732.25 1781 31.5 0 S
1749.5 1764.25 0 31.5 S
1733.75 1780 31.5 0 S
1750.5 1762.75 0 31.5 S
1734.75 1778.5 31.5 0 S
1751.5 1761.75 0 31.5 S
1735.75 1777.5 31.5 0 S
1753 1760.25 0 31.5 S
1737.25 1776 31.5 0 S
1754 1759.25 0 31.5 S
1738.25 1775 31.5 0 S
1755 1757.75 0 31.5 S
1739.25 1773.5 31.5 0 S
1756.5 1756.75 0 31.5 S
1740.75 1772.5 31.5 0 S
1757.5 1755.25 0 31.5 S
1741.75 1771 31.5 0 S
1759 1753.75 0 31.5 S
1743.25 1769.5 31.5 0 S
1760 1752.75 0 31.5 S
1744.25 1768.5 31.5 0 S
1761 1751.25 0 31.5 S
1745.25 1767 31.5 0 S
1762.5 1749.75 0 31.5 S
1746.75 1765.5 31.5 0 S
1763.5 1748.25 0 31.5 S
1747.75 1764 31.5 0 S
1765 1747.25 0 31.5 S
1749.25 1763 31.5 0 S
1766 1745.75 0 31.5 S
1750.25 1761.5 31.5 0 S
1767 1744.25 0 31.5 S
1751.25 1760 31.5 0 S
1768.5 1742.75 0 31.5 S
1752.75 1758.5 31.5 0 S
1769.5 1741.75 0 31.5 S
1753.75 1757.5 31.5 0 S
1770.5 1740.25 0 31.5 S
1754.75 1756 31.5 0 S
1772 1738.75 0 31.5 S
1756.25 1754.5 31.5 0 S
1773 1737.25 0 31.5 S
1757.25 1753 31.5 0 S
1774.5 1735.75 0 31.5 S
1758.75 1751.5 31.5 0 S
1775.5 1734.25 0 31.5 S
1759.75 1750 31.5 0 S
1776.5 1732.75 0 31.5 S
1760.75 1748.5 31.5 0 S
1778 1731.25 0 31.5 S
1762.25 1747 31.5 0 S
1779 1729.75 0 31.5 S
1763.25 1745.5 31.5 0 S
1780.5 1728.25 0 31.5 S
1764.75 1744 31.5 0 S
1781.5 1726.75 0 31.5 S
1765.75 1742.5 31.5 0 S
1782.5 1725.25 0 31.5 S
1766.75 1741 31.5 0 S
1784 1723.25 0 31.5 S
1768.25 1739 31.5 0 S
1785 1721.75 0 31.5 S
1769.25 1737.5 31.5 0 S
1786 1720.25 0 31.5 S
1770.25 1736 31.5 0 S
1787.5 1718.75 0 31.5 S
1771.75 1734.5 31.5 0 S
1788.5 1717.25 0 31.5 S
1772.75 1733 31.5 0 S
1790 1715.75 0 31.5 S
1774.25 1731.5 31.5 0 S
1791 1713.75 0 31.5 S
1775.25 1729.5 31.5 0 S
1792 1712.25 0 31.5 S
1776.25 1728 31.5 0 S
1793.5 1710.75 0 31.5 S
1777.75 1726.5 31.5 0 S
1794.5 1708.75 0 31.5 S
1778.75 1724.5 31.5 0 S
1795.5 1707.25 0 31.5 S
1779.75 1723 31.5 0 S
1797 1705.25 0 31.5 S
1781.25 1721 31.5 0 S
1798 1703.75 0 31.5 S
1782.25 1719.5 31.5 0 S
1799.5 1701.75 0 31.5 S
1783.75 1717.5 31.5 0 S
1800.5 1700.25 0 31.5 S
1784.75 1716 31.5 0 S
1801.5 1698.25 0 31.5 S
1785.75 1714 31.5 0 S
1803 1696.75 0 31.5 S
1787.25 1712.5 31.5 0 S
1804 1694.75 0 31.5 S
1788.25 1710.5 31.5 0 S
1805.5 1692.75 0 31.5 S
1789.75 1708.5 31.5 0 S
1806.5 1691.25 0 31.5 S
1790.75 1707 31.5 0 S
1807.5 1689.75 0 31.5 S
1791.75 1705.5 31.5 0 S
1809 1687.75 0 31.5 S
1793.25 1703.5 31.5 0 S
1810 1685.75 0 31.5 S
1794.25 1701.5 31.5 0 S
1811 1683.75 0 31.5 S
1795.25 1699.5 31.5 0 S
1812.5 1682.25 0 31.5 S
1796.75 1698 31.5 0 S
1813.5 1680.25 0 31.5 S
1797.75 1696 31.5 0 S
1815 1678.25 0 31.5 S
1799.25 1694 31.5 0 S
1816 1676.75 0 31.5 S
1800.25 1692.5 31.5 0 S
1817 1674.25 0 31.5 S
1801.25 1690 31.5 0 S
1818.5 1672.25 0 31.5 S
1802.75 1688 31.5 0 S
1819.5 1670.25 0 31.5 S
1803.75 1686 31.5 0 S
1821 1668.75 0 31.5 S
1805.25 1684.5 31.5 0 S
1822 1666.75 0 31.5 S
1806.25 1682.5 31.5 0 S
1823 1664.75 0 31.5 S
1807.25 1680.5 31.5 0 S
1824.5 1662.75 0 31.5 S
1808.75 1678.5 31.5 0 S
1825.5 1660.75 0 31.5 S
1809.75 1676.5 31.5 0 S
1826.5 1658.75 0 31.5 S
1810.75 1674.5 31.5 0 S
1828 1656.75 0 31.5 S
1812.25 1672.5 31.5 0 S
1829 1654.75 0 31.5 S
1813.25 1670.5 31.5 0 S
1830.5 1652.75 0 31.5 S
1814.75 1668.5 31.5 0 S
1831.5 1650.75 0 31.5 S
1815.75 1666.5 31.5 0 S
1832.5 1648.75 0 31.5 S
1816.75 1664.5 31.5 0 S
1834 1646.75 0 31.5 S
1818.25 1662.5 31.5 0 S
1835 1644.25 0 31.5 S
1819.25 1660 31.5 0 S
1836.5 1642.75 0 31.5 S
1820.75 1658.5 31.5 0 S
1837.5 1640.25 0 31.5 S
1821.75 1656 31.5 0 S
1838.5 1638.25 0 31.5 S
1822.75 1654 31.5 0 S
1840 1635.75 0 31.5 S
1824.25 1651.5 31.5 0 S
1841 1633.75 0 31.5 S
1825.25 1649.5 31.5 0 S
1842 1631.75 0 31.5 S
1826.25 1647.5 31.5 0 S
1843.5 1629.25 0 31.5 S
1827.75 1645 31.5 0 S
1844.5 1627.25 0 31.5 S
1828.75 1643 31.5 0 S
1846 1624.75 0 31.5 S
1830.25 1640.5 31.5 0 S
1847 1622.75 0 31.5 S
1831.25 1638.5 31.5 0 S
1848 1620.25 0 31.5 S
1832.25 1636 31.5 0 S
1849.5 1618.25 0 31.5 S
1833.75 1634 31.5 0 S
1850.5 1615.75 0 31.5 S
1834.75 1631.5 31.5 0 S
1851.5 1613.75 0 31.5 S
1835.75 1629.5 31.5 0 S
1853 1611.25 0 31.5 S
1837.25 1627 31.5 0 S
1854 1608.75 0 31.5 S
1838.25 1624.5 31.5 0 S
1855.5 1606.75 0 31.5 S
1839.75 1622.5 31.5 0 S
1856.5 1604.25 0 31.5 S
1840.75 1620 31.5 0 S
1857.5 1601.75 0 31.5 S
1841.75 1617.5 31.5 0 S
1859 1599.25 0 31.5 S
1843.25 1615 31.5 0 S
1860 1596.75 0 31.5 S
1844.25 1612.5 31.5 0 S
1861.5 1594.75 0 31.5 S
1845.75 1610.5 31.5 0 S
1862.5 1592.25 0 31.5 S
1846.75 1608 31.5 0 S
1863.5 1589.25 0 31.5 S
1847.75 1605 31.5 0 S
1865 1586.75 0 31.5 S
1849.25 1602.5 31.5 0 S
1866 1584.25 0 31.5 S
1850.25 1600 31.5 0 S
1867 1581.75 0 31.5 S
1851.25 1597.5 31.5 0 S
1868.5 1579.25 0 31.5 S
1852.75 1595 31.5 0 S
1869.5 1576.25 0 31.5 S
1853.75 1592 31.5 0 S
1871 1573.25 0 31.5 S
1855.25 1589 31.5 0 S
1872 1570.25 0 31.5 S
1856.25 1586 31.5 0 S
1873 1568.25 0 31.5 S
1857.25 1584 31.5 0 S
1874.5 1565.25 0 31.5 S
1858.75 1581 31.5 0 S
1875.5 1562.75 0 31.5 S
1859.75 1578.5 31.5 0 S
1877 1560.25 0 31.5 S
1861.25 1576 31.5 0 S
1878 1557.25 0 31.5 S
1862.25 1573 31.5 0 S
1879 1554.75 0 31.5 S
1863.25 1570.5 31.5 0 S
1880.5 1552.25 0 31.5 S
1864.75 1568 31.5 0 S
1881.5 1549.25 0 31.5 S
1865.75 1565 31.5 0 S
1882.5 1546.75 0 31.5 S
1866.75 1562.5 31.5 0 S
1884 1544.25 0 31.5 S
1868.25 1560 31.5 0 S
1885 1541.75 0 31.5 S
1869.25 1557.5 31.5 0 S
1886.5 1539.25 0 31.5 S
1870.75 1555 31.5 0 S
1887.5 1536.25 0 31.5 S
1871.75 1552 31.5 0 S
1888.5 1533.75 0 31.5 S
1872.75 1549.5 31.5 0 S
1890 1530.25 0 31.5 S
1874.25 1546 31.5 0 S
1891 1528.25 0 31.5 S
1875.25 1544 31.5 0 S
1892 1525.25 0 31.5 S
1876.25 1541 31.5 0 S
1893.5 1522.25 0 31.5 S
1877.75 1538 31.5 0 S
1894.5 1519.75 0 31.5 S
1878.75 1535.5 31.5 0 S
1896 1517.25 0 31.5 S
1880.25 1533 31.5 0 S
1897 1514.25 0 31.5 S
1881.25 1530 31.5 0 S
1898 1510.75 0 31.5 S
1882.25 1526.5 31.5 0 S
1899.5 1507.75 0 31.5 S
1883.75 1523.5 31.5 0 S
1900.5 1504.75 0 31.5 S
1884.75 1520.5 31.5 0 S
1902 1502.25 0 31.5 S
1886.25 1518 31.5 0 S
1903 1499.25 0 31.5 S
1887.25 1515 31.5 0 S
1904 1496.25 0 31.5 S
1888.25 1512 31.5 0 S
1905.5 1493.75 0 31.5 S
1889.75 1509.5 31.5 0 S
1906.5 1490.75 0 31.5 S
1890.75 1506.5 31.5 0 S
1907.5 1487.75 0 31.5 S
1891.75 1503.5 31.5 0 S
1909 1484.75 0 31.5 S
1893.25 1500.5 31.5 0 S
1910 1481.75 0 31.5 S
1894.25 1497.5 31.5 0 S
1911.5 1479.75 0 31.5 S
1895.75 1495.5 31.5 0 S
1912.5 1476.75 0 31.5 S
1896.75 1492.5 31.5 0 S
1913.5 1473.25 0 31.5 S
1897.75 1489 31.5 0 S
1915 1469.75 0 31.5 S
1899.25 1485.5 31.5 0 S
1916 1466.75 0 31.5 S
1900.25 1482.5 31.5 0 S
1917.5 1464.25 0 31.5 S
1901.75 1480 31.5 0 S
1918.5 1461.25 0 31.5 S
1902.75 1477 31.5 0 S
1919.5 1458.25 0 31.5 S
1903.75 1474 31.5 0 S
1921 1455.25 0 31.5 S
1905.25 1471 31.5 0 S
1922 1451.75 0 31.5 S
1906.25 1467.5 31.5 0 S
1923 1448.25 0 31.5 S
1907.25 1464 31.5 0 S
1924.5 1445.25 0 31.5 S
1908.75 1461 31.5 0 S
1925.5 1441.75 0 31.5 S
1909.75 1457.5 31.5 0 S
1927 1439.25 0 31.5 S
1911.25 1455 31.5 0 S
1928 1436.25 0 31.5 S
1912.25 1452 31.5 0 S
1929 1433.25 0 31.5 S
1913.25 1449 31.5 0 S
1930.5 1429.25 0 31.5 S
1914.75 1445 31.5 0 S
1931.5 1425.75 0 31.5 S
1915.75 1441.5 31.5 0 S
1933 1422.75 0 31.5 S
1917.25 1438.5 31.5 0 S
1934 1419.75 0 31.5 S
1918.25 1435.5 31.5 0 S
1935 1417.25 0 31.5 S
1919.25 1433 31.5 0 S
1936.5 1414.25 0 31.5 S
1920.75 1430 31.5 0 S
1937.5 1410.75 0 31.5 S
1921.75 1426.5 31.5 0 S
1938.5 1407.25 0 31.5 S
1922.75 1423 31.5 0 S
1940 1404.25 0 31.5 S
1924.25 1420 31.5 0 S
1941 1400.75 0 31.5 S
1925.25 1416.5 31.5 0 S
1942.5 1397.25 0 31.5 S
1926.75 1413 31.5 0 S
1943.5 1394.25 0 31.5 S
1927.75 1410 31.5 0 S
1944.5 1390.75 0 31.5 S
1928.75 1406.5 31.5 0 S
1946 1387.75 0 31.5 S
1930.25 1403.5 31.5 0 S
1947 1384.75 0 31.5 S
1931.25 1400.5 31.5 0 S
1948 1381.25 0 31.5 S
1932.25 1397 31.5 0 S
1949.5 1377.25 0 31.5 S
1933.75 1393 31.5 0 S
1950.5 1373.75 0 31.5 S
1934.75 1389.5 31.5 0 S
1952 1371.25 0 31.5 S
1936.25 1387 31.5 0 S
1953 1367.25 0 31.5 S
1937.25 1383 31.5 0 S
1954 1363.25 0 31.5 S
1938.25 1379 31.5 0 S
1955.5 1360.25 0 31.5 S
1939.75 1376 31.5 0 S
1956.5 1357.25 0 31.5 S
1940.75 1373 31.5 0 S
1958 1354.25 0 31.5 S
1942.25 1370 31.5 0 S
1959 1352.25 0 31.5 S
1943.25 1368 31.5 0 S
1960 1348.75 0 31.5 S
1944.25 1364.5 31.5 0 S
1961.5 1346.25 0 31.5 S
1945.75 1362 31.5 0 S
1962.5 1343.75 0 31.5 S
1946.75 1359.5 31.5 0 S
1963.5 1339.75 0 31.5 S
1947.75 1355.5 31.5 0 S
1965 1336.25 0 31.5 S
1949.25 1352 31.5 0 S
1966 1332.75 0 31.5 S
1950.25 1348.5 31.5 0 S
1967.5 1329.25 0 31.5 S
1951.75 1345 31.5 0 S
1968.5 1325.25 0 31.5 S
1952.75 1341 31.5 0 S
1969.5 1322.25 0 31.5 S
1953.75 1338 31.5 0 S
1971 1319.75 0 31.5 S
1955.25 1335.5 31.5 0 S
1972 1316.75 0 31.5 S
1956.25 1332.5 31.5 0 S
1973.5 1312.75 0 31.5 S
1957.75 1328.5 31.5 0 S
1974.5 1308.75 0 31.5 S
1958.75 1324.5 31.5 0 S
1975.5 1304.75 0 31.5 S
1959.75 1320.5 31.5 0 S
1977 1301.25 0 31.5 S
1961.25 1317 31.5 0 S
1978 1295.75 0 31.5 S
1962.25 1311.5 31.5 0 S
1979 1292.25 0 31.5 S
1963.25 1308 31.5 0 S
1980.5 1290.25 0 31.5 S
1964.75 1306 31.5 0 S
1981.5 1286.75 0 31.5 S
1965.75 1302.5 31.5 0 S
1983 1284.25 0 31.5 S
1967.25 1300 31.5 0 S
1984 1278.75 0 31.5 S
1968.25 1294.5 31.5 0 S
1985 1275.25 0 31.5 S
1969.25 1291 31.5 0 S
1986.5 1270.75 0 31.5 S
1970.75 1286.5 31.5 0 S
1987.5 1266.25 0 31.5 S
1971.75 1282 31.5 0 S
1989 1263.75 0 31.5 S
1973.25 1279.5 31.5 0 S
1990 1259.25 0 31.5 S
1974.25 1275 31.5 0 S
1991 1256.25 0 31.5 S
1975.25 1272 31.5 0 S
1992.5 1252.25 0 31.5 S
1976.75 1268 31.5 0 S
1993.5 1248.25 0 31.5 S
1977.75 1264 31.5 0 S
1994.5 1246.25 0 31.5 S
1978.75 1262 31.5 0 S
1996 1241.25 0 31.5 S
1980.25 1257 31.5 0 S
1997 1238.25 0 31.5 S
1981.25 1254 31.5 0 S
1998.5 1234.75 0 31.5 S
1982.75 1250.5 31.5 0 S
1999.5 1229.25 0 31.5 S
1983.75 1245 31.5 0 S
2000.5 1228.75 0 31.5 S
1984.75 1244.5 31.5 0 S
2002 1226.25 0 31.5 S
1986.25 1242 31.5 0 S
2003 1222.75 0 31.5 S
1987.25 1238.5 31.5 0 S
2004 1218.25 0 31.5 S
1988.25 1234 31.5 0 S
2005.5 1215.75 0 31.5 S
1989.75 1231.5 31.5 0 S
2006.5 1213.25 0 31.5 S
1990.75 1229 31.5 0 S
2008 1209.75 0 31.5 S
1992.25 1225.5 31.5 0 S
2009 1206.25 0 31.5 S
1993.25 1222 31.5 0 S
2010 1201.25 0 31.5 S
1994.25 1217 31.5 0 S
2011.5 1199.25 0 31.5 S
1995.75 1215 31.5 0 S
2012.5 1196.75 0 31.5 S
1996.75 1212.5 31.5 0 S
2014 1190.25 0 31.5 S
1998.25 1206 31.5 0 S
2015 1188.75 0 31.5 S
1999.25 1204.5 31.5 0 S
2016 1184.25 0 31.5 S
2000.25 1200 31.5 0 S
2017.5 1179.75 0 31.5 S
2001.75 1195.5 31.5 0 S
2018.5 1175.25 0 31.5 S
2002.75 1191 31.5 0 S
2019.5 1170.75 0 31.5 S
2003.75 1186.5 31.5 0 S
2021 1168.25 0 31.5 S
2005.25 1184 31.5 0 S
2022 1165.75 0 31.5 S
2006.25 1181.5 31.5 0 S
2023.5 1162.75 0 31.5 S
2007.75 1178.5 31.5 0 S
2024.5 1160.25 0 31.5 S
2008.75 1176 31.5 0 S
2025.5 1156.25 0 31.5 S
2009.75 1172 31.5 0 S
2027 1154.25 0 31.5 S
2011.25 1170 31.5 0 S
2028 1148.75 0 31.5 S
2012.25 1164.5 31.5 0 S
2029.5 1146.75 0 31.5 S
2013.75 1162.5 31.5 0 S
2030.5 1145.25 0 31.5 S
2014.75 1161 31.5 0 S
2031.5 1142.25 0 31.5 S
2015.75 1158 31.5 0 S
2033 1140.75 0 31.5 S
2017.25 1156.5 31.5 0 S
2034 1139.25 0 31.5 S
2018.25 1155 31.5 0 S
2035 1136.75 0 31.5 S
2019.25 1152.5 31.5 0 S
2036.5 1133.75 0 31.5 S
2020.75 1149.5 31.5 0 S
2037.5 1128.75 0 31.5 S
2021.75 1144.5 31.5 0 S
2039 1126.75 0 31.5 S
2023.25 1142.5 31.5 0 S
2040 1123.25 0 31.5 S
2024.25 1139 31.5 0 S
2041 1122.25 0 31.5 S
2025.25 1138 31.5 0 S
2042.5 1120.25 0 31.5 S
2026.75 1136 31.5 0 S
2043.5 1117.75 0 31.5 S
2027.75 1133.5 31.5 0 S
2045 1111.75 0 31.5 S
2029.25 1127.5 31.5 0 S
2048.5 1109.75 0 31.5 S
2032.75 1125.5 31.5 0 S
2049.5 1108.75 0 31.5 S
2033.75 1124.5 31.5 0 S
2050.5 1105.75 0 31.5 S
2034.75 1121.5 31.5 0 S
2052 1103.25 0 31.5 S
2036.25 1119 31.5 0 S
2053 1101.25 0 31.5 S
2037.25 1117 31.5 0 S
2054.5 1099.25 0 31.5 S
2038.75 1115 31.5 0 S
2055.5 1097.75 0 31.5 S
2039.75 1113.5 31.5 0 S
2056.5 1093.25 0 31.5 S
2040.75 1109 31.5 0 S
2058 1090.75 0 31.5 S
2042.25 1106.5 31.5 0 S
2059 1089.75 0 31.5 S
2043.25 1105.5 31.5 0 S
2060 1088.25 0 31.5 S
2044.25 1104 31.5 0 S
2061.5 1081.75 0 31.5 S
2045.75 1097.5 31.5 0 S
2064 1080.75 0 31.5 S
2048.25 1096.5 31.5 0 S
2065 1079.25 0 31.5 S
2049.25 1095 31.5 0 S
2067.5 1077.75 0 31.5 S
2051.75 1093.5 31.5 0 S
2070 1073.75 0 31.5 S
2054.25 1089.5 31.5 0 S
2075.5 1069.25 0 31.5 S
2059.75 1085 31.5 0 S
2079.5 1067.75 0 31.5 S
2063.75 1083.5 31.5 0 S
2080.5 1066.25 0 31.5 S
2064.75 1082 31.5 0 S
2083 1064.75 0 31.5 S
2067.25 1080.5 31.5 0 S
2085.5 1063.25 0 31.5 S
2069.75 1079 31.5 0 S
2087.5 1061.75 0 31.5 S
2071.75 1077.5 31.5 0 S
2089 1058.25 0 31.5 S
2073.25 1074 31.5 0 S
2090 1056.75 0 31.5 S
2074.25 1072.5 31.5 0 S
2093.5 1055.25 0 31.5 S
2077.75 1071 31.5 0 S
2095 1053.25 0 31.5 S
2079.25 1069 31.5 0 S
2097 1049.75 0 31.5 S
2081.25 1065.5 31.5 0 S
2099.5 1046.25 0 31.5 S
2083.75 1062 31.5 0 S
2103 1044.25 0 31.5 S
2087.25 1060 31.5 0 S
2111.5 1042.75 0 31.5 S
2095.75 1058.5 31.5 0 S
2115 1040.75 0 31.5 S
2099.25 1056.5 31.5 0 S
2121 1038.75 0 31.5 S
2105.25 1054.5 31.5 0 S
2128 1036.75 0 31.5 S
2112.25 1052.5 31.5 0 S
2151 1034.75 0 31.5 S
2135.25 1050.5 31.5 0 S
2106.5 1032.75 0 31.5 S
2090.75 1048.5 31.5 0 S
2102 1030.25 0 31.5 S
2086.25 1046 31.5 0 S
2090 1028.25 0 31.5 S
2074.25 1044 31.5 0 S
2196 1026.25 0 31.5 S
2180.25 1042 31.5 0 S
2201 1023.75 0 31.5 S
2185.25 1039.5 31.5 0 S
2192.5 1021.75 0 31.5 S
2176.75 1037.5 31.5 0 S
2180.5 1016.75 0 31.5 S
2164.75 1032.5 31.5 0 S
2288 1011.75 0 31.5 S
2272.25 1027.5 31.5 0 S
2320 1006.75 0 31.5 S
2304.25 1022.5 31.5 0 S
2367.5 1001.25 0 31.5 S
2351.75 1017 31.5 0 S
2404.5 998.75 0 31.5 S
2388.75 1014.5 31.5 0 S
2458 992.75 0 31.5 S
2442.25 1008.5 31.5 0 S
2460.5 986.75 0 31.5 S
2444.75 1002.5 31.5 0 S
2466.5 979.75 0 31.5 S
2450.75 995.5 31.5 0 S
2472.5 976.25 0 31.5 S
2456.75 992 31.5 0 S
2473.5 972.75 0 31.5 S
2457.75 988.5 31.5 0 S
2485.5 969.25 0 31.5 S
2469.75 985 31.5 0 S
2491.5 965.25 0 31.5 S
2475.75 981 31.5 0 S
2502.5 953.25 0 31.5 S
2486.75 969 31.5 0 S
2504.5 944.25 0 31.5 S
2488.75 960 31.5 0 S
2509.5 939.25 0 31.5 S
2493.75 955 31.5 0 S
2512 934.25 0 31.5 S
2496.25 950 31.5 0 S
2516.5 923.25 0 31.5 S
2500.75 939 31.5 0 S
2519 911.25 0 31.5 S
2503.25 927 31.5 0 S
2521.5 904.75 0 31.5 S
2505.75 920.5 31.5 0 S
2523.5 897.75 0 31.5 S
2507.75 913.5 31.5 0 S
2531 890.25 0 31.5 S
2515.25 906 31.5 0 S
2532 882.25 0 31.5 S
2516.25 898 31.5 0 S
2533 864.25 0 31.5 S
2517.25 880 31.5 0 S
2534.5 842.25 0 31.5 S
2518.75 858 31.5 0 S
2537 829.75 0 31.5 S
2521.25 845.5 31.5 0 S
2539 815.25 0 31.5 S
2523.25 831 31.5 0 S
2540.5 798.25 0 31.5 S
2524.75 814 31.5 0 S
2543 754.75 0 31.5 S
2527.25 770.5 31.5 0 S
2545 679.25 0 31.5 S
2529.25 695 31.5 0 S
5 w
926 620 1668 1248 re
S
cleartomark end end pagesave restore
 showpage
%%PageTrailer
%%Trailer
%%Pages: 1
