%!PS-Adobe-3.0 EPSF-3.0
%%BoundingBox: 61 52 191 155
%%HiResBoundingBox: 61.300000 52.600000 190.600000 154.700000
%.....................................
%%Creator: GPL Ghostscript 871 (epswrite)
%%CreationDate: 2012/01/28 17:04:49
%%DocumentData: Clean7Bit
%%LanguageLevel: 2
%%EndComments
%%BeginProlog
% This copyright applies to everything between here and the %%EndProlog:
% Copyright (C) 2010 Artifex Software, Inc.  All rights reserved.
%%BeginResource: procset GS_epswrite_2_0_1001 1.001 0
/GS_epswrite_2_0_1001 80 dict dup begin
/PageSize 2 array def/setpagesize{ PageSize aload pop 3 index eq exch
4 index eq and{ pop pop pop}{ PageSize dup  1
5 -1 roll put 0 4 -1 roll put dup null eq {false} {dup where} ifelse{ exch get exec}
{ pop/setpagedevice where
{ pop 1 dict dup /PageSize PageSize put setpagedevice}
{ /setpage where{ pop PageSize aload pop pageparams 3 {exch pop} repeat
setpage}if}ifelse}ifelse}ifelse} bind def
/!{bind def}bind def/#{load def}!/N/counttomark #
/rG{3{3 -1 roll 255 div}repeat setrgbcolor}!/G{255 div setgray}!/K{0 G}!
/r6{dup 3 -1 roll rG}!/r5{dup 3 1 roll rG}!/r3{dup rG}!
/w/setlinewidth #/J/setlinecap #
/j/setlinejoin #/M/setmiterlimit #/d/setdash #/i/setflat #
/m/moveto #/l/lineto #/c/rcurveto #
/p{N 2 idiv{N -2 roll rlineto}repeat}!
/P{N 0 gt{N -2 roll moveto p}if}!
/h{p closepath}!/H{P closepath}!
/lx{0 rlineto}!/ly{0 exch rlineto}!/v{0 0 6 2 roll c}!/y{2 copy c}!
/re{4 -2 roll m exch dup lx exch ly neg lx h}!
/^{3 index neg 3 index neg}!
/f{P fill}!/f*{P eofill}!/s{H stroke}!/S{P stroke}!
/q/gsave #/Q/grestore #/rf{re fill}!
/Y{P clip newpath}!/Y*{P eoclip newpath}!/rY{re Y}!
/|={pop exch 4 1 roll 1 array astore cvx 3 array astore cvx exch 1 index def exec}!
/|{exch string readstring |=}!
/+{dup type/nametype eq{2 index 7 add -3 bitshift 2 index mul}if}!
/@/currentfile #/${+ @ |}!
/B{{2 copy string{readstring pop}aload pop 4 array astore cvx
3 1 roll}repeat pop pop true}!
/Ix{[1 0 0 1 11 -2 roll exch neg exch neg]exch}!
/,{true exch Ix imagemask}!/If{false exch Ix imagemask}!/I{exch Ix image}!
/Ic{exch Ix false 3 colorimage}!
/F{/Columns counttomark 3 add -2 roll/Rows exch/K -1/BlackIs1 true>>
/CCITTFaxDecode filter}!/FX{<</EndOfBlock false F}!
/X{/ASCII85Decode filter}!/@X{@ X}!/&2{2 index 2 index}!
/@F{@ &2<<F}!/@C{@X &2 FX}!
/$X{+ @X |}!/&4{4 index 4 index}!/$F{+ @ &4<<F |}!/$C{+ @X &4 FX |}!
/IC{3 1 roll 10 dict begin 1{/ImageType/Interpolate/Decode/DataSource
/ImageMatrix/BitsPerComponent/Height/Width}{exch def}forall
currentdict end image}!
/~{@ read {pop} if}!
end def
%%EndResource
/pagesave null def
%%EndProlog
%%Page: 1 1
%%BeginPageSetup
GS_epswrite_2_0_1001 begin
/pagesave save store 197 dict begin
0.1 0.1 scale
%%EndPageSetup
gsave mark
Q q
0 0 250000 250000 re
Y
5 w
K
704 580 31.5 0 P
1880 580 -31.5 0 P
680 580 S
658 566 20 29 /3U
$C
1FPQ<U3?$Yf(B"@-NF,Gs8VI:s4Z>6_Utnc_LM~>
,
704 716 31.5 0 P
1880 716 -31.5 0 P
680 716 S
636 702 20 29 /6U
$C
4ubjWU3Po,o_Rk*s6<n@f%<V1R!%%dIdd8'"9&~>
,
658 702 3U ,
704 852 31.5 0 P
1880 852 -31.5 0 P
680 852 S
613 839 14 28 /3Y
$X
!#ttY!#ttY!#ttY!#ttY!#ttY!#ttY!#ttY!#ttY!#ttY!#ttY&,Zt9#Q+RL!'C6$!#ttY~>
,
636 838 3U ,
658 838 3U ,
704 988 31.5 0 P
1880 988 -31.5 0 P
680 988 S
613 975 3Y ,
636 974 6U ,
658 974 3U ,
704 1124 31.5 0 P
1880 1124 -31.5 0 P
680 1124 S
613 1111 20 28 /6Y
$C
,DLX/f)<4*G2\3b_f4BiDYnJCs)k]M28qoi(f1~>
,
636 1110 3U ,
658 1110 3U ,
704 1260 31.5 0 P
1880 1260 -31.5 0 P
680 1260 S
613 1247 6Y ,
636 1246 6U ,
658 1246 3U ,
704 1396 31.5 0 P
1880 1396 -31.5 0 P
680 1396 S
613 1382 20 29 /4C
$C
4ubjTFAK95e*4:<I;0O20"3!o2gKcMpY@AS[OTc\TE~>
,
636 1382 3U ,
658 1382 3U ,
704 1532 31.5 0 P
1880 1532 -31.5 0 P
680 1532 S
613 1518 4C ,
636 1518 6U ,
658 1518 3U ,
704 580 0 31.5 P
704 1532 0 -31.5 P
704 540 S
698 526 3U ,
834.5 580 0 31.5 P
834.5 1532 0 -31.5 P
834.5 540 S
829 526 6U ,
965.5 580 0 31.5 P
965.5 1532 0 -31.5 P
965.5 540 S
949 527 3Y ,
971 526 3U ,
1096 580 0 31.5 P
1096 1532 0 -31.5 P
1096 540 S
1079 527 3Y ,
1102 526 6U ,
1226.5 580 0 31.5 P
1226.5 1532 0 -31.5 P
1226.5 540 S
1210 527 6Y ,
1232 526 3U ,
1357.5 580 0 31.5 P
1357.5 1532 0 -31.5 P
1357.5 540 S
1341 527 6Y ,
1363 526 6U ,
1488 580 0 31.5 P
1488 1532 0 -31.5 P
1488 540 S
1471 526 4C ,
1494 526 3U ,
1618.5 580 0 31.5 P
1618.5 1532 0 -31.5 P
1618.5 540 S
1602 526 4C ,
1624 526 6U ,
1749.5 580 0 31.5 P
1749.5 1532 0 -31.5 P
1749.5 540 S
1733 527 21 28 /7C
$C
+lE=tNZ()dc&_>&hm`'`hqr@eA,!aN~>
,
1755 526 3U ,
1880 580 0 31.5 P
1880 1532 0 -31.5 P
1880 540 S
1863 527 7C ,
1886 526 6U ,
704 580 1176 952 re
S
2.5 w
756.5 566.75 0 31.5 S
740.75 582.5 31.5 0 S
861 569.75 0 31.5 S
845.25 585.5 31.5 0 S
887 583.25 0 31.5 S
871.25 599 31.5 0 S
913 724.75 0 31.5 S
897.25 740.5 31.5 0 S
939 939.75 0 31.5 S
923.25 955.5 31.5 0 S
965.5 1208.75 0 31.5 S
949.75 1224.5 31.5 0 S
991.5 1377.75 0 31.5 S
975.75 1393.5 31.5 0 S
1017.5 1486.25 0 31.5 S
1001.75 1502 31.5 0 S
1043.5 1480.75 0 31.5 S
1027.75 1496.5 31.5 0 S
1070 1396.75 0 31.5 S
1054.25 1412.5 31.5 0 S
1096 1382.75 0 31.5 S
1080.25 1398.5 31.5 0 S
1122 1372.25 0 31.5 S
1106.25 1388 31.5 0 S
1148.5 1274.25 0 31.5 S
1132.75 1290 31.5 0 S
1174.5 1110.75 0 31.5 S
1158.75 1126.5 31.5 0 S
1200.5 1083.75 0 31.5 S
1184.75 1099.5 31.5 0 S
1226.5 1002.25 0 31.5 S
1210.75 1018 31.5 0 S
1253 863.25 0 31.5 S
1237.25 879 31.5 0 S
1279 825.25 0 31.5 S
1263.25 841 31.5 0 S
1305 692.25 0 31.5 S
1289.25 708 31.5 0 S
1331 664.75 0 31.5 S
1315.25 680.5 31.5 0 S
1357.5 607.75 0 31.5 S
1341.75 623.5 31.5 0 S
1383.5 588.75 0 31.5 S
1367.75 604.5 31.5 0 S
1409.5 588.75 0 31.5 S
1393.75 604.5 31.5 0 S
1435.5 577.75 0 31.5 S
1419.75 593.5 31.5 0 S
1462 575.25 0 31.5 S
1446.25 591 31.5 0 S
1566.5 566.75 0 31.5 S
1550.75 582.5 31.5 0 S
1592.5 572.25 0 31.5 S
1576.75 588 31.5 0 S
1618.5 566.75 0 31.5 S
1602.75 582.5 31.5 0 S
1645 566.75 0 31.5 S
1629.25 582.5 31.5 0 S
1671 566.75 0 31.5 S
1655.25 582.5 31.5 0 S
1697 566.75 0 31.5 S
1681.25 582.5 31.5 0 S
1801.5 566.75 0 31.5 S
1785.75 582.5 31.5 0 S
5 w
704 580 1176 952 re
S
cleartomark end end pagesave restore
 showpage
%%PageTrailer
%%Trailer
%%Pages: 1
