%!PS-Adobe-3.0 EPSF-3.0
%%BoundingBox: 61 52 192 155
%%HiResBoundingBox: 61.900000 52.600000 191.700000 154.700000
%.....................................
%%Creator: GPL Ghostscript 871 (epswrite)
%%CreationDate: 2012/01/28 17:04:52
%%DocumentData: Clean7Bit
%%LanguageLevel: 2
%%EndComments
%%BeginProlog
% This copyright applies to everything between here and the %%EndProlog:
% Copyright (C) 2010 Artifex Software, Inc.  All rights reserved.
%%BeginResource: procset GS_epswrite_2_0_1001 1.001 0
/GS_epswrite_2_0_1001 80 dict dup begin
/PageSize 2 array def/setpagesize{ PageSize aload pop 3 index eq exch
4 index eq and{ pop pop pop}{ PageSize dup  1
5 -1 roll put 0 4 -1 roll put dup null eq {false} {dup where} ifelse{ exch get exec}
{ pop/setpagedevice where
{ pop 1 dict dup /PageSize PageSize put setpagedevice}
{ /setpage where{ pop PageSize aload pop pageparams 3 {exch pop} repeat
setpage}if}ifelse}ifelse}ifelse} bind def
/!{bind def}bind def/#{load def}!/N/counttomark #
/rG{3{3 -1 roll 255 div}repeat setrgbcolor}!/G{255 div setgray}!/K{0 G}!
/r6{dup 3 -1 roll rG}!/r5{dup 3 1 roll rG}!/r3{dup rG}!
/w/setlinewidth #/J/setlinecap #
/j/setlinejoin #/M/setmiterlimit #/d/setdash #/i/setflat #
/m/moveto #/l/lineto #/c/rcurveto #
/p{N 2 idiv{N -2 roll rlineto}repeat}!
/P{N 0 gt{N -2 roll moveto p}if}!
/h{p closepath}!/H{P closepath}!
/lx{0 rlineto}!/ly{0 exch rlineto}!/v{0 0 6 2 roll c}!/y{2 copy c}!
/re{4 -2 roll m exch dup lx exch ly neg lx h}!
/^{3 index neg 3 index neg}!
/f{P fill}!/f*{P eofill}!/s{H stroke}!/S{P stroke}!
/q/gsave #/Q/grestore #/rf{re fill}!
/Y{P clip newpath}!/Y*{P eoclip newpath}!/rY{re Y}!
/|={pop exch 4 1 roll 1 array astore cvx 3 array astore cvx exch 1 index def exec}!
/|{exch string readstring |=}!
/+{dup type/nametype eq{2 index 7 add -3 bitshift 2 index mul}if}!
/@/currentfile #/${+ @ |}!
/B{{2 copy string{readstring pop}aload pop 4 array astore cvx
3 1 roll}repeat pop pop true}!
/Ix{[1 0 0 1 11 -2 roll exch neg exch neg]exch}!
/,{true exch Ix imagemask}!/If{false exch Ix imagemask}!/I{exch Ix image}!
/Ic{exch Ix false 3 colorimage}!
/F{/Columns counttomark 3 add -2 roll/Rows exch/K -1/BlackIs1 true>>
/CCITTFaxDecode filter}!/FX{<</EndOfBlock false F}!
/X{/ASCII85Decode filter}!/@X{@ X}!/&2{2 index 2 index}!
/@F{@ &2<<F}!/@C{@X &2 FX}!
/$X{+ @X |}!/&4{4 index 4 index}!/$F{+ @ &4<<F |}!/$C{+ @X &4 FX |}!
/IC{3 1 roll 10 dict begin 1{/ImageType/Interpolate/Decode/DataSource
/ImageMatrix/BitsPerComponent/Height/Width}{exch def}forall
currentdict end image}!
/~{@ read {pop} if}!
end def
%%EndResource
/pagesave null def
%%EndProlog
%%Page: 1 1
%%BeginPageSetup
GS_epswrite_2_0_1001 begin
/pagesave save store 197 dict begin
0.1 0.1 scale
%%EndPageSetup
gsave mark
Q q
0 0 250000 250000 re
Y
5 w
K
776 580 31.5 0 P
1880 580 -31.5 0 P
752 580 S
730 567 14 28 /3U
$X
!#ttY!#ttY!#ttY!#ttY!#ttY!#ttY!#ttY!#ttY!#ttY!#ttY&,Zt9#Q+RL!'C6$!#ttY~>
,
776 621 15.5 0 P
1880 621 -15.5 0 P
776 675 15.5 0 P
1880 675 -15.5 0 P
776 703 15.5 0 P
1880 703 -15.5 0 P
776 716 31.5 0 P
1880 716 -31.5 0 P
752 716 S
708 703 3U ,
730 702 20 29 /6U
$C
1FPQ<U3?$Yf(B"@-NF,Gs8VI:s4Z>6_Utnc_LM~>
,
776 757 15.5 0 P
1880 757 -15.5 0 P
776 811 15.5 0 P
1880 811 -15.5 0 P
776 839 15.5 0 P
1880 839 -15.5 0 P
776 852 31.5 0 P
1880 852 -31.5 0 P
752 852 S
685 839 3U ,
708 838 6U ,
730 838 6U ,
776 893 15.5 0 P
1880 893 -15.5 0 P
776 947 15.5 0 P
1880 947 -15.5 0 P
776 975 15.5 0 P
1880 975 -15.5 0 P
776 988 31.5 0 P
1880 988 -31.5 0 P
752 988 S
663 975 3U ,
685 974 6U ,
708 974 6U ,
730 974 6U ,
776 1029 15.5 0 P
1880 1029 -15.5 0 P
776 1083 15.5 0 P
1880 1083 -15.5 0 P
776 1111 15.5 0 P
1880 1111 -15.5 0 P
776 1124 31.5 0 P
1880 1124 -31.5 0 P
752 1124 S
641 1111 3U ,
663 1110 6U ,
685 1110 6U ,
708 1110 6U ,
730 1110 6U ,
776 1165 15.5 0 P
1880 1165 -15.5 0 P
776 1219 15.5 0 P
1880 1219 -15.5 0 P
776 1247 15.5 0 P
1880 1247 -15.5 0 P
776 1260 31.5 0 P
1880 1260 -31.5 0 P
752 1260 S
619 1247 3U ,
641 1246 6U ,
663 1246 6U ,
685 1246 6U ,
708 1246 6U ,
730 1246 6U ,
776 1301 15.5 0 P
1880 1301 -15.5 0 P
776 1355 15.5 0 P
1880 1355 -15.5 0 P
776 1383 15.5 0 P
1880 1383 -15.5 0 P
776 1396 31.5 0 P
1880 1396 -31.5 0 P
752 1396 S
640 1383 3U ,
662 1382 21 23 /3Y
$C
1E7P%d6)YL8\`[qneo\fjs0j!?2$u#-"F0QK`~>
,
684 1383 21 19 /6Y
$C
-bo]]/fFSYs8Vu~>
,
708 1382 6U ,
730 1382 20 29 /4C
$C
1FPQ<U3Q=d-e7Y"s8AeG%4ldp0#HXsnoio)>?_hW(f1~>
,
776 1437 15.5 0 P
1880 1437 -15.5 0 P
776 1491 15.5 0 P
1880 1491 -15.5 0 P
776 1519 15.5 0 P
1880 1519 -15.5 0 P
776 1532 31.5 0 P
1880 1532 -31.5 0 P
752 1532 S
640 1519 3U ,
662 1518 3Y ,
684 1519 6Y ,
708 1518 6U ,
730 1519 21 28 /7C
$C
4`C5dhsUBUn%8#]pO1f/\7b:~>
,
776 580 0 31.5 P
776 1532 0 -31.5 P
776 540 S
770 527 3U ,
942 580 0 15.5 P
942 1532 0 -15.5 P
1039.5 580 0 15.5 P
1039.5 1532 0 -15.5 P
1108.5 580 0 15.5 P
1108.5 1532 0 -15.5 P
1162 580 0 15.5 P
1162 1532 0 -15.5 P
1205.5 580 0 15.5 P
1205.5 1532 0 -15.5 P
1242.5 580 0 15.5 P
1242.5 1532 0 -15.5 P
1274.5 580 0 15.5 P
1274.5 1532 0 -15.5 P
1302.5 580 0 15.5 P
1302.5 1532 0 -15.5 P
1328 580 0 31.5 P
1328 1532 0 -31.5 P
1328 540 S
1311 527 3U ,
1334 526 6U ,
1494 580 0 15.5 P
1494 1532 0 -15.5 P
1591.5 580 0 15.5 P
1591.5 1532 0 -15.5 P
1660.5 580 0 15.5 P
1660.5 1532 0 -15.5 P
1714 580 0 15.5 P
1714 1532 0 -15.5 P
1757.5 580 0 15.5 P
1757.5 1532 0 -15.5 P
1794.5 580 0 15.5 P
1794.5 1532 0 -15.5 P
1826.5 580 0 15.5 P
1826.5 1532 0 -15.5 P
1854.5 580 0 15.5 P
1854.5 1532 0 -15.5 P
1880 580 0 31.5 P
1880 1532 0 -31.5 P
1880 540 S
1852 527 3U ,
1874 526 6U ,
1897 526 6U ,
776 580 1104 952 re
S
2.5 w
776 1413.25 0 31.5 S
760.25 1429 31.5 0 S
942 1386.25 0 31.5 S
926.25 1402 31.5 0 S
1039.5 1359.25 0 31.5 S
1023.75 1375 31.5 0 S
1108.5 1331.25 0 31.5 S
1092.75 1347 31.5 0 S
1162 1305.75 0 31.5 S
1146.25 1321.5 31.5 0 S
1205.5 1281.75 0 31.5 S
1189.75 1297.5 31.5 0 S
1242.5 1259.75 0 31.5 S
1226.75 1275.5 31.5 0 S
1274.5 1239.75 0 31.5 S
1258.75 1255.5 31.5 0 S
1302.5 1221.75 0 31.5 S
1286.75 1237.5 31.5 0 S
1328 1205.75 0 31.5 S
1312.25 1221.5 31.5 0 S
1351 1191.75 0 31.5 S
1335.25 1207.5 31.5 0 S
1371.5 1179.75 0 31.5 S
1355.75 1195.5 31.5 0 S
1391 1168.75 0 31.5 S
1375.25 1184.5 31.5 0 S
1408.5 1158.25 0 31.5 S
1392.75 1174 31.5 0 S
1425 1148.25 0 31.5 S
1409.25 1164 31.5 0 S
1440.5 1138.75 0 31.5 S
1424.75 1154.5 31.5 0 S
1455 1128.25 0 31.5 S
1439.25 1144 31.5 0 S
1469 1118.75 0 31.5 S
1453.25 1134.5 31.5 0 S
1482 1109.25 0 31.5 S
1466.25 1125 31.5 0 S
1494 1099.75 0 31.5 S
1478.25 1115.5 31.5 0 S
1506 1091.75 0 31.5 S
1490.25 1107.5 31.5 0 S
1517 1083.75 0 31.5 S
1501.25 1099.5 31.5 0 S
1527.5 1076.25 0 31.5 S
1511.75 1092 31.5 0 S
1538 1068.75 0 31.5 S
1522.25 1084.5 31.5 0 S
1547.5 1061.75 0 31.5 S
1531.75 1077.5 31.5 0 S
1557 1054.75 0 31.5 S
1541.25 1070.5 31.5 0 S
1566 1048.25 0 31.5 S
1550.25 1064 31.5 0 S
1575 1041.25 0 31.5 S
1559.25 1057 31.5 0 S
1583 1033.75 0 31.5 S
1567.25 1049.5 31.5 0 S
1591.5 1025.75 0 31.5 S
1575.75 1041.5 31.5 0 S
1599 1017.25 0 31.5 S
1583.25 1033 31.5 0 S
1607 1009.25 0 31.5 S
1591.25 1025 31.5 0 S
1614 999.25 0 31.5 S
1598.25 1015 31.5 0 S
1621.5 989.75 0 31.5 S
1605.75 1005.5 31.5 0 S
1628.5 979.25 0 31.5 S
1612.75 995 31.5 0 S
1635 969.25 0 31.5 S
1619.25 985 31.5 0 S
1641.5 959.75 0 31.5 S
1625.75 975.5 31.5 0 S
1648 950.25 0 31.5 S
1632.25 966 31.5 0 S
1654.5 940.25 0 31.5 S
1638.75 956 31.5 0 S
1660.5 931.25 0 31.5 S
1644.75 947 31.5 0 S
1666.5 923.75 0 31.5 S
1650.75 939.5 31.5 0 S
1672 916.25 0 31.5 S
1656.25 932 31.5 0 S
1677.5 908.25 0 31.5 S
1661.75 924 31.5 0 S
1683 901.25 0 31.5 S
1667.25 917 31.5 0 S
1688.5 897.25 0 31.5 S
1672.75 913 31.5 0 S
1694 890.25 0 31.5 S
1678.25 906 31.5 0 S
1699 883.25 0 31.5 S
1683.25 899 31.5 0 S
1704 877.75 0 31.5 S
1688.25 893.5 31.5 0 S
1709 872.75 0 31.5 S
1693.25 888.5 31.5 0 S
1714 866.75 0 31.5 S
1698.25 882.5 31.5 0 S
1718.5 855.75 0 31.5 S
1702.75 871.5 31.5 0 S
1723 850.25 0 31.5 S
1707.25 866 31.5 0 S
1728 841.25 0 31.5 S
1712.25 857 31.5 0 S
1732.5 832.75 0 31.5 S
1716.75 848.5 31.5 0 S
1736.5 828.25 0 31.5 S
1720.75 844 31.5 0 S
1741 813.25 0 31.5 S
1725.25 829 31.5 0 S
1745 805.25 0 31.5 S
1729.25 821 31.5 0 S
1749.5 797.75 0 31.5 S
1733.75 813.5 31.5 0 S
1753.5 790.25 0 31.5 S
1737.75 806 31.5 0 S
1757.5 783.75 0 31.5 S
1741.75 799.5 31.5 0 S
1761.5 782.25 0 31.5 S
1745.75 798 31.5 0 S
1765.5 774.25 0 31.5 S
1749.75 790 31.5 0 S
1769 772.75 0 31.5 S
1753.25 788.5 31.5 0 S
1773 763.25 0 31.5 S
1757.25 779 31.5 0 S
1776.5 758.75 0 31.5 S
1760.75 774.5 31.5 0 S
1780.5 749.25 0 31.5 S
1764.75 765 31.5 0 S
1784 746.75 0 31.5 S
1768.25 762.5 31.5 0 S
1787.5 731.75 0 31.5 S
1771.75 747.5 31.5 0 S
1791 711.25 0 31.5 S
1775.25 727 31.5 0 S
1794.5 694.25 0 31.5 S
1778.75 710 31.5 0 S
1798 687.25 0 31.5 S
1782.25 703 31.5 0 S
1801 605.25 0 31.5 S
1785.25 621 31.5 0 S
5 w
776 580 1104 952 re
S
cleartomark end end pagesave restore
 showpage
%%PageTrailer
%%Trailer
%%Pages: 1
