%!PS-Adobe-3.0 EPSF-3.0
%%BoundingBox: 61 52 192 155
%%HiResBoundingBox: 61.300000 52.600000 191.700000 154.700000
%.....................................
%%Creator: GPL Ghostscript 871 (epswrite)
%%CreationDate: 2012/01/28 17:04:50
%%DocumentData: Clean7Bit
%%LanguageLevel: 2
%%EndComments
%%BeginProlog
% This copyright applies to everything between here and the %%EndProlog:
% Copyright (C) 2010 Artifex Software, Inc.  All rights reserved.
%%BeginResource: procset GS_epswrite_2_0_1001 1.001 0
/GS_epswrite_2_0_1001 80 dict dup begin
/PageSize 2 array def/setpagesize{ PageSize aload pop 3 index eq exch
4 index eq and{ pop pop pop}{ PageSize dup  1
5 -1 roll put 0 4 -1 roll put dup null eq {false} {dup where} ifelse{ exch get exec}
{ pop/setpagedevice where
{ pop 1 dict dup /PageSize PageSize put setpagedevice}
{ /setpage where{ pop PageSize aload pop pageparams 3 {exch pop} repeat
setpage}if}ifelse}ifelse}ifelse} bind def
/!{bind def}bind def/#{load def}!/N/counttomark #
/rG{3{3 -1 roll 255 div}repeat setrgbcolor}!/G{255 div setgray}!/K{0 G}!
/r6{dup 3 -1 roll rG}!/r5{dup 3 1 roll rG}!/r3{dup rG}!
/w/setlinewidth #/J/setlinecap #
/j/setlinejoin #/M/setmiterlimit #/d/setdash #/i/setflat #
/m/moveto #/l/lineto #/c/rcurveto #
/p{N 2 idiv{N -2 roll rlineto}repeat}!
/P{N 0 gt{N -2 roll moveto p}if}!
/h{p closepath}!/H{P closepath}!
/lx{0 rlineto}!/ly{0 exch rlineto}!/v{0 0 6 2 roll c}!/y{2 copy c}!
/re{4 -2 roll m exch dup lx exch ly neg lx h}!
/^{3 index neg 3 index neg}!
/f{P fill}!/f*{P eofill}!/s{H stroke}!/S{P stroke}!
/q/gsave #/Q/grestore #/rf{re fill}!
/Y{P clip newpath}!/Y*{P eoclip newpath}!/rY{re Y}!
/|={pop exch 4 1 roll 1 array astore cvx 3 array astore cvx exch 1 index def exec}!
/|{exch string readstring |=}!
/+{dup type/nametype eq{2 index 7 add -3 bitshift 2 index mul}if}!
/@/currentfile #/${+ @ |}!
/B{{2 copy string{readstring pop}aload pop 4 array astore cvx
3 1 roll}repeat pop pop true}!
/Ix{[1 0 0 1 11 -2 roll exch neg exch neg]exch}!
/,{true exch Ix imagemask}!/If{false exch Ix imagemask}!/I{exch Ix image}!
/Ic{exch Ix false 3 colorimage}!
/F{/Columns counttomark 3 add -2 roll/Rows exch/K -1/BlackIs1 true>>
/CCITTFaxDecode filter}!/FX{<</EndOfBlock false F}!
/X{/ASCII85Decode filter}!/@X{@ X}!/&2{2 index 2 index}!
/@F{@ &2<<F}!/@C{@X &2 FX}!
/$X{+ @X |}!/&4{4 index 4 index}!/$F{+ @ &4<<F |}!/$C{+ @X &4 FX |}!
/IC{3 1 roll 10 dict begin 1{/ImageType/Interpolate/Decode/DataSource
/ImageMatrix/BitsPerComponent/Height/Width}{exch def}forall
currentdict end image}!
/~{@ read {pop} if}!
end def
%%EndResource
/pagesave null def
%%EndProlog
%%Page: 1 1
%%BeginPageSetup
GS_epswrite_2_0_1001 begin
/pagesave save store 197 dict begin
0.1 0.1 scale
%%EndPageSetup
gsave mark
Q q
0 0 250000 250000 re
Y
5 w
K
704 580 31.5 0 P
1880 580 -31.5 0 P
680 580 S
658 566 20 29 /3U
$C
1FPQ<U3?$Yf(B"@-NF,Gs8VI:s4Z>6_Utnc_LM~>
,
704 699 31.5 0 P
1880 699 -31.5 0 P
680 699 S
636 685 20 29 /6U
$C
4ubjWU3Po,o_Rk*s6<n@f%<V1R!%%dIdd8'"9&~>
,
658 685 3U ,
704 818 31.5 0 P
1880 818 -31.5 0 P
680 818 S
613 805 14 28 /3Y
$X
!#ttY!#ttY!#ttY!#ttY!#ttY!#ttY!#ttY!#ttY!#ttY!#ttY&,Zt9#Q+RL!'C6$!#ttY~>
,
636 804 3U ,
658 804 3U ,
704 937 31.5 0 P
1880 937 -31.5 0 P
680 937 S
613 924 3Y ,
636 923 6U ,
658 923 3U ,
704 1056 31.5 0 P
1880 1056 -31.5 0 P
680 1056 S
613 1043 20 28 /6Y
$C
,DLX/f)<4*G2\3b_f4BiDYnJCs)k]M28qoi(f1~>
,
636 1042 3U ,
658 1042 3U ,
704 1175 31.5 0 P
1880 1175 -31.5 0 P
680 1175 S
613 1162 6Y ,
636 1161 6U ,
658 1161 3U ,
704 1294 31.5 0 P
1880 1294 -31.5 0 P
680 1294 S
613 1280 20 29 /4C
$C
4ubjTFAK95e*4:<I;0O20"3!o2gKcMpY@AS[OTc\TE~>
,
636 1280 3U ,
658 1280 3U ,
704 1413 31.5 0 P
1880 1413 -31.5 0 P
680 1413 S
613 1399 4C ,
636 1399 6U ,
658 1399 3U ,
704 1532 31.5 0 P
1880 1532 -31.5 0 P
680 1532 S
613 1519 21 28 /7C
$C
+lE=tNZ()dc&_>&hm`'`hqr@eA,!aN~>
,
636 1518 3U ,
658 1518 3U ,
704 580 0 31.5 P
704 1532 0 -31.5 P
704 540 S
698 526 3U ,
821.5 580 0 31.5 P
821.5 1532 0 -31.5 P
821.5 540 S
805 527 6Y ,
827 526 3U ,
939 580 0 31.5 P
939 1532 0 -31.5 P
939 540 S
922 527 7C ,
945 526 3U ,
1057 580 0 31.5 P
1057 1532 0 -31.5 P
1057 540 S
1040 526 20 29 /4G
$C
1FPQ<U3Q=d-e7Y"s8AeG%4ldp0#HXsnoio)>?_hW(f1~>
,
1063 526 3U ,
1174.5 580 0 31.5 P
1174.5 1532 0 -31.5 P
1174.5 540 S
1158 526 20 29 /7G
$C
1FPQ+%kk;Ze'`17rmeBXV.-Q*UA='<2uipOdb<?S:r7_~>
,
1180 526 3U ,
1292 580 0 31.5 P
1292 1532 0 -31.5 P
1292 540 S
1264 527 3Y ,
1286 526 3U ,
1309 526 3U ,
1409.5 580 0 31.5 P
1409.5 1532 0 -31.5 P
1409.5 540 S
1382 527 3Y ,
1404 527 6Y ,
1426 526 3U ,
1527 580 0 31.5 P
1527 1532 0 -31.5 P
1527 540 S
1499 527 3Y ,
1521 527 7C ,
1544 526 3U ,
1645 580 0 31.5 P
1645 1532 0 -31.5 P
1645 540 S
1617 527 3Y ,
1639 526 4G ,
1662 526 3U ,
1762.5 580 0 31.5 P
1762.5 1532 0 -31.5 P
1762.5 540 S
1735 527 3Y ,
1757 526 7G ,
1779 526 3U ,
1880 580 0 31.5 P
1880 1532 0 -31.5 P
1880 540 S
1852 527 6Y ,
1874 526 3U ,
1897 526 3U ,
704 580 1176 952 re
S
2.5 w
727.5 566.75 0 31.5 S
711.75 582.5 31.5 0 S
768.5 566.75 0 31.5 S
752.75 582.5 31.5 0 S
774.5 566.75 0 31.5 S
758.75 582.5 31.5 0 S
780.5 571.25 0 31.5 S
764.75 587 31.5 0 S
786.5 590.25 0 31.5 S
770.75 606 31.5 0 S
792 618.75 0 31.5 S
776.25 634.5 31.5 0 S
798 707.25 0 31.5 S
782.25 723 31.5 0 S
804 840.25 0 31.5 S
788.25 856 31.5 0 S
810 1061.75 0 31.5 S
794.25 1077.5 31.5 0 S
815.5 1209.25 0 31.5 S
799.75 1225 31.5 0 S
821.5 1263.75 0 31.5 S
805.75 1279.5 31.5 0 S
827.5 1359.25 0 31.5 S
811.75 1375 31.5 0 S
833.5 1406.75 0 31.5 S
817.75 1422.5 31.5 0 S
839 1294.75 0 31.5 S
823.25 1310.5 31.5 0 S
845 1221.25 0 31.5 S
829.25 1237 31.5 0 S
851 1252.25 0 31.5 S
835.25 1268 31.5 0 S
857 1135.25 0 31.5 S
841.25 1151 31.5 0 S
863 1075.75 0 31.5 S
847.25 1091.5 31.5 0 S
868.5 971.25 0 31.5 S
852.75 987 31.5 0 S
874.5 926.25 0 31.5 S
858.75 942 31.5 0 S
880.5 821.25 0 31.5 S
864.75 837 31.5 0 S
886.5 823.75 0 31.5 S
870.75 839.5 31.5 0 S
892 728.25 0 31.5 S
876.25 744 31.5 0 S
898 697.75 0 31.5 S
882.25 713.5 31.5 0 S
904 668.75 0 31.5 S
888.25 684.5 31.5 0 S
910 652.25 0 31.5 S
894.25 668 31.5 0 S
915.5 642.75 0 31.5 S
899.75 658.5 31.5 0 S
921.5 630.75 0 31.5 S
905.75 646.5 31.5 0 S
927.5 599.75 0 31.5 S
911.75 615.5 31.5 0 S
933.5 595.25 0 31.5 S
917.75 611 31.5 0 S
939 576.25 0 31.5 S
923.25 592 31.5 0 S
945 590.25 0 31.5 S
929.25 606 31.5 0 S
951 583.25 0 31.5 S
935.25 599 31.5 0 S
957 585.75 0 31.5 S
941.25 601.5 31.5 0 S
962.5 576.25 0 31.5 S
946.75 592 31.5 0 S
968.5 573.75 0 31.5 S
952.75 589.5 31.5 0 S
974.5 573.75 0 31.5 S
958.75 589.5 31.5 0 S
980.5 569.25 0 31.5 S
964.75 585 31.5 0 S
986 566.75 0 31.5 S
970.25 582.5 31.5 0 S
992 566.75 0 31.5 S
976.25 582.5 31.5 0 S
998 566.75 0 31.5 S
982.25 582.5 31.5 0 S
1010 566.75 0 31.5 S
994.25 582.5 31.5 0 S
1015.5 566.75 0 31.5 S
999.75 582.5 31.5 0 S
1021.5 569.25 0 31.5 S
1005.75 585 31.5 0 S
1039 566.75 0 31.5 S
1023.25 582.5 31.5 0 S
1251 566.75 0 31.5 S
1235.25 582.5 31.5 0 S
1256.5 569.25 0 31.5 S
1240.75 585 31.5 0 S
1262.5 569.25 0 31.5 S
1246.75 585 31.5 0 S
1715.5 566.75 0 31.5 S
1699.75 582.5 31.5 0 S
1839 566.75 0 31.5 S
1823.25 582.5 31.5 0 S
1850.5 569.25 0 31.5 S
1834.75 585 31.5 0 S
1856.5 569.25 0 31.5 S
1840.75 585 31.5 0 S
1007.5 551 63 63 re
S
1 J
1039 582.5 0 0 S
0 J
1219.5 551 63 63 re
S
1 J
1251 582.5 0 0 S
0 J
1225 553.5 63 63 re
S
1 J
1256.5 585 0 0 S
0 J
1231 553.5 63 63 re
S
1 J
1262.5 585 0 0 S
0 J
1684 551 63 63 re
S
1 J
1715.5 582.5 0 0 S
0 J
1807.5 551 63 63 re
S
1 J
1839 582.5 0 0 S
0 J
1819 553.5 63 63 re
S
1 J
1850.5 585 0 0 S
0 J
1825 553.5 63 63 re
S
1 J
1856.5 585 0 0 S
5 w
0 J
704 580 1176 952 re
S
cleartomark end end pagesave restore
 showpage
%%PageTrailer
%%Trailer
%%Pages: 1
