%!PS-Adobe-3.0 EPSF-3.0
%%BoundingBox: 61 52 193 155
%%HiResBoundingBox: 61.900000 52.600000 192.800000 154.700000
%.....................................
%%Creator: GPL Ghostscript 871 (epswrite)
%%CreationDate: 2012/01/28 17:04:51
%%DocumentData: Clean7Bit
%%LanguageLevel: 2
%%EndComments
%%BeginProlog
% This copyright applies to everything between here and the %%EndProlog:
% Copyright (C) 2010 Artifex Software, Inc.  All rights reserved.
%%BeginResource: procset GS_epswrite_2_0_1001 1.001 0
/GS_epswrite_2_0_1001 80 dict dup begin
/PageSize 2 array def/setpagesize{ PageSize aload pop 3 index eq exch
4 index eq and{ pop pop pop}{ PageSize dup  1
5 -1 roll put 0 4 -1 roll put dup null eq {false} {dup where} ifelse{ exch get exec}
{ pop/setpagedevice where
{ pop 1 dict dup /PageSize PageSize put setpagedevice}
{ /setpage where{ pop PageSize aload pop pageparams 3 {exch pop} repeat
setpage}if}ifelse}ifelse}ifelse} bind def
/!{bind def}bind def/#{load def}!/N/counttomark #
/rG{3{3 -1 roll 255 div}repeat setrgbcolor}!/G{255 div setgray}!/K{0 G}!
/r6{dup 3 -1 roll rG}!/r5{dup 3 1 roll rG}!/r3{dup rG}!
/w/setlinewidth #/J/setlinecap #
/j/setlinejoin #/M/setmiterlimit #/d/setdash #/i/setflat #
/m/moveto #/l/lineto #/c/rcurveto #
/p{N 2 idiv{N -2 roll rlineto}repeat}!
/P{N 0 gt{N -2 roll moveto p}if}!
/h{p closepath}!/H{P closepath}!
/lx{0 rlineto}!/ly{0 exch rlineto}!/v{0 0 6 2 roll c}!/y{2 copy c}!
/re{4 -2 roll m exch dup lx exch ly neg lx h}!
/^{3 index neg 3 index neg}!
/f{P fill}!/f*{P eofill}!/s{H stroke}!/S{P stroke}!
/q/gsave #/Q/grestore #/rf{re fill}!
/Y{P clip newpath}!/Y*{P eoclip newpath}!/rY{re Y}!
/|={pop exch 4 1 roll 1 array astore cvx 3 array astore cvx exch 1 index def exec}!
/|{exch string readstring |=}!
/+{dup type/nametype eq{2 index 7 add -3 bitshift 2 index mul}if}!
/@/currentfile #/${+ @ |}!
/B{{2 copy string{readstring pop}aload pop 4 array astore cvx
3 1 roll}repeat pop pop true}!
/Ix{[1 0 0 1 11 -2 roll exch neg exch neg]exch}!
/,{true exch Ix imagemask}!/If{false exch Ix imagemask}!/I{exch Ix image}!
/Ic{exch Ix false 3 colorimage}!
/F{/Columns counttomark 3 add -2 roll/Rows exch/K -1/BlackIs1 true>>
/CCITTFaxDecode filter}!/FX{<</EndOfBlock false F}!
/X{/ASCII85Decode filter}!/@X{@ X}!/&2{2 index 2 index}!
/@F{@ &2<<F}!/@C{@X &2 FX}!
/$X{+ @X |}!/&4{4 index 4 index}!/$F{+ @ &4<<F |}!/$C{+ @X &4 FX |}!
/IC{3 1 roll 10 dict begin 1{/ImageType/Interpolate/Decode/DataSource
/ImageMatrix/BitsPerComponent/Height/Width}{exch def}forall
currentdict end image}!
/~{@ read {pop} if}!
end def
%%EndResource
/pagesave null def
%%EndProlog
%%Page: 1 1
%%BeginPageSetup
GS_epswrite_2_0_1001 begin
/pagesave save store 197 dict begin
0.1 0.1 scale
%%EndPageSetup
gsave mark
Q q
0 0 250000 250000 re
Y
5 w
K
776 580 31.5 0 P
1880 580 -31.5 0 P
752 580 S
685 567 14 28 /3U
$X
!#ttY!#ttY!#ttY!#ttY!#ttY!#ttY!#ttY!#ttY!#ttY!#ttY&,Zt9#Q+RL!'C6$!#ttY~>
,
708 566 20 29 /6U
$C
1FPQ<U3?$Yf(B"@-NF,Gs8VI:s4Z>6_Utnc_LM~>
,
730 566 6U ,
776 637.5 15.5 0 P
1880 637.5 -15.5 0 P
776 713 15.5 0 P
1880 713 -15.5 0 P
776 752 15.5 0 P
1880 752 -15.5 0 P
776 770.5 31.5 0 P
1880 770.5 -31.5 0 P
752 770.5 S
663 758 3U ,
685 757 6U ,
708 757 6U ,
730 757 6U ,
776 827.5 15.5 0 P
1880 827.5 -15.5 0 P
776 903.5 15.5 0 P
1880 903.5 -15.5 0 P
776 942.5 15.5 0 P
1880 942.5 -15.5 0 P
776 961 31.5 0 P
1880 961 -31.5 0 P
752 961 S
641 948 3U ,
663 947 6U ,
685 947 6U ,
708 947 6U ,
730 947 6U ,
776 1018 15.5 0 P
1880 1018 -15.5 0 P
776 1094 15.5 0 P
1880 1094 -15.5 0 P
776 1132.5 15.5 0 P
1880 1132.5 -15.5 0 P
776 1151 31.5 0 P
1880 1151 -31.5 0 P
752 1151 S
619 1138 3U ,
641 1137 6U ,
663 1137 6U ,
685 1137 6U ,
708 1137 6U ,
730 1137 6U ,
776 1208.5 15.5 0 P
1880 1208.5 -15.5 0 P
776 1284.5 15.5 0 P
1880 1284.5 -15.5 0 P
776 1323 15.5 0 P
1880 1323 -15.5 0 P
776 1341.5 31.5 0 P
1880 1341.5 -31.5 0 P
752 1341.5 S
640 1329 3U ,
662 1328 21 23 /3Y
$C
1E7P%d6)YL8\`[qneo\fjs0j!?2$u#-"F0QK`~>
,
684 1329 21 19 /6Y
$C
-bo]]/fFSYs8Vu~>
,
708 1328 6U ,
730 1328 20 29 /4C
$C
1FPQ<U3Q=d-e7Y"s8AeG%4ldp0#HXsnoio)>?_hW(f1~>
,
776 1399 15.5 0 P
1880 1399 -15.5 0 P
776 1474.5 15.5 0 P
1880 1474.5 -15.5 0 P
776 1513.5 15.5 0 P
1880 1513.5 -15.5 0 P
776 1532 31.5 0 P
1880 1532 -31.5 0 P
752 1532 S
640 1519 3U ,
662 1518 3Y ,
684 1519 6Y ,
708 1518 6U ,
730 1519 21 28 /7C
$C
4`C5dhsUBUn%8#]pO1f/\7b:~>
,
776 580 0 31.5 P
776 1532 0 -31.5 P
776 540 S
770 527 3U ,
887 580 0 15.5 P
887 1532 0 -15.5 P
951.5 580 0 15.5 P
951.5 1532 0 -15.5 P
997.5 580 0 15.5 P
997.5 1532 0 -15.5 P
1033 580 0 15.5 P
1033 1532 0 -15.5 P
1062.5 580 0 15.5 P
1062.5 1532 0 -15.5 P
1087 580 0 15.5 P
1087 1532 0 -15.5 P
1108.5 580 0 15.5 P
1108.5 1532 0 -15.5 P
1127 580 0 15.5 P
1127 1532 0 -15.5 P
1144 580 0 31.5 P
1144 1532 0 -31.5 P
1144 540 S
1127 527 3U ,
1150 526 6U ,
1255 580 0 15.5 P
1255 1532 0 -15.5 P
1319.5 580 0 15.5 P
1319.5 1532 0 -15.5 P
1365.5 580 0 15.5 P
1365.5 1532 0 -15.5 P
1401 580 0 15.5 P
1401 1532 0 -15.5 P
1430.5 580 0 15.5 P
1430.5 1532 0 -15.5 P
1455 580 0 15.5 P
1455 1532 0 -15.5 P
1476.5 580 0 15.5 P
1476.5 1532 0 -15.5 P
1495 580 0 15.5 P
1495 1532 0 -15.5 P
1512 580 0 31.5 P
1512 1532 0 -31.5 P
1512 540 S
1484 527 3U ,
1506 526 6U ,
1529 526 6U ,
1623 580 0 15.5 P
1623 1532 0 -15.5 P
1687.5 580 0 15.5 P
1687.5 1532 0 -15.5 P
1733.5 580 0 15.5 P
1733.5 1532 0 -15.5 P
1769 580 0 15.5 P
1769 1532 0 -15.5 P
1798.5 580 0 15.5 P
1798.5 1532 0 -15.5 P
1823 580 0 15.5 P
1823 1532 0 -15.5 P
1844.5 580 0 15.5 P
1844.5 1532 0 -15.5 P
1863 580 0 15.5 P
1863 1532 0 -15.5 P
1880 580 0 31.5 P
1880 1532 0 -31.5 P
1880 540 S
1841 527 3U ,
1863 526 6U ,
1886 526 6U ,
1908 526 6U ,
776 580 1104 952 re
S
2.5 w
776 1384.75 0 31.5 S
760.25 1400.5 31.5 0 S
887 1361.25 0 31.5 S
871.25 1377 31.5 0 S
951.5 1337.25 0 31.5 S
935.75 1353 31.5 0 S
997.5 1313.25 0 31.5 S
981.75 1329 31.5 0 S
1033 1291.25 0 31.5 S
1017.25 1307 31.5 0 S
1062.5 1271.25 0 31.5 S
1046.75 1287 31.5 0 S
1087 1253.75 0 31.5 S
1071.25 1269.5 31.5 0 S
1108.5 1239.75 0 31.5 S
1092.75 1255.5 31.5 0 S
1127 1227.75 0 31.5 S
1111.25 1243.5 31.5 0 S
1144 1217.25 0 31.5 S
1128.25 1233 31.5 0 S
1159 1207.75 0 31.5 S
1143.25 1223.5 31.5 0 S
1173 1198.75 0 31.5 S
1157.25 1214.5 31.5 0 S
1186 1189.25 0 31.5 S
1170.25 1205 31.5 0 S
1198 1179.75 0 31.5 S
1182.25 1195.5 31.5 0 S
1209 1170.25 0 31.5 S
1193.25 1186 31.5 0 S
1219 1160.25 0 31.5 S
1203.25 1176 31.5 0 S
1229 1150.75 0 31.5 S
1213.25 1166.5 31.5 0 S
1238 1141.75 0 31.5 S
1222.25 1157.5 31.5 0 S
1246.5 1132.75 0 31.5 S
1230.75 1148.5 31.5 0 S
1255 1124.25 0 31.5 S
1239.25 1140 31.5 0 S
1262.5 1116.25 0 31.5 S
1246.75 1132 31.5 0 S
1270 1108.75 0 31.5 S
1254.25 1124.5 31.5 0 S
1277 1101.25 0 31.5 S
1261.25 1117 31.5 0 S
1284 1093.75 0 31.5 S
1268.25 1109.5 31.5 0 S
1290.5 1086.75 0 31.5 S
1274.75 1102.5 31.5 0 S
1296.5 1079.75 0 31.5 S
1280.75 1095.5 31.5 0 S
1302.5 1073.25 0 31.5 S
1286.75 1089 31.5 0 S
1308.5 1067.25 0 31.5 S
1292.75 1083 31.5 0 S
1314 1060.25 0 31.5 S
1298.25 1076 31.5 0 S
1319.5 1052.75 0 31.5 S
1303.75 1068.5 31.5 0 S
1325 1045.75 0 31.5 S
1309.25 1061.5 31.5 0 S
1330 1039.75 0 31.5 S
1314.25 1055.5 31.5 0 S
1335 1032.75 0 31.5 S
1319.25 1048.5 31.5 0 S
1339.5 1025.25 0 31.5 S
1323.75 1041 31.5 0 S
1344 1018.25 0 31.5 S
1328.25 1034 31.5 0 S
1348.5 1011.25 0 31.5 S
1332.75 1027 31.5 0 S
1353 1003.25 0 31.5 S
1337.25 1019 31.5 0 S
1357.5 995.75 0 31.5 S
1341.75 1011.5 31.5 0 S
1361.5 987.75 0 31.5 S
1345.75 1003.5 31.5 0 S
1365.5 978.75 0 31.5 S
1349.75 994.5 31.5 0 S
1369.5 970.75 0 31.5 S
1353.75 986.5 31.5 0 S
1373.5 963.25 0 31.5 S
1357.75 979 31.5 0 S
1377 955.75 0 31.5 S
1361.25 971.5 31.5 0 S
1381 948.25 0 31.5 S
1365.25 964 31.5 0 S
1384.5 941.75 0 31.5 S
1368.75 957.5 31.5 0 S
1388 933.25 0 31.5 S
1372.25 949 31.5 0 S
1391.5 924.75 0 31.5 S
1375.75 940.5 31.5 0 S
1394.5 919.25 0 31.5 S
1378.75 935 31.5 0 S
1398 910.25 0 31.5 S
1382.25 926 31.5 0 S
1401 902.75 0 31.5 S
1385.25 918.5 31.5 0 S
1404.5 892.75 0 31.5 S
1388.75 908.5 31.5 0 S
1407.5 886.25 0 31.5 S
1391.75 902 31.5 0 S
1410.5 878.75 0 31.5 S
1394.75 894.5 31.5 0 S
1413.5 874.75 0 31.5 S
1397.75 890.5 31.5 0 S
1416.5 865.25 0 31.5 S
1400.75 881 31.5 0 S
1419.5 855.25 0 31.5 S
1403.75 871 31.5 0 S
1422 849.25 0 31.5 S
1406.25 865 31.5 0 S
1425 840.75 0 31.5 S
1409.25 856.5 31.5 0 S
1427.5 835.25 0 31.5 S
1411.75 851 31.5 0 S
1430.5 831.25 0 31.5 S
1414.75 847 31.5 0 S
1433 827.75 0 31.5 S
1417.25 843.5 31.5 0 S
1435.5 822.25 0 31.5 S
1419.75 838 31.5 0 S
1438 821.25 0 31.5 S
1422.25 837 31.5 0 S
1440.5 820.25 0 31.5 S
1424.75 836 31.5 0 S
1443 818.25 0 31.5 S
1427.25 834 31.5 0 S
1445.5 815.75 0 31.5 S
1429.75 831.5 31.5 0 S
1448 813.25 0 31.5 S
1432.25 829 31.5 0 S
1450.5 807.75 0 31.5 S
1434.75 823.5 31.5 0 S
1452.5 804.75 0 31.5 S
1436.75 820.5 31.5 0 S
1455 801.75 0 31.5 S
1439.25 817.5 31.5 0 S
1457.5 799.75 0 31.5 S
1441.75 815.5 31.5 0 S
1459.5 798.75 0 31.5 S
1443.75 814.5 31.5 0 S
1461.5 797.75 0 31.5 S
1445.75 813.5 31.5 0 S
1493.5 772.75 0 31.5 S
1477.75 788.5 31.5 0 S
1581 749.25 0 31.5 S
1565.25 765 31.5 0 S
1596 732.75 0 31.5 S
1580.25 748.5 31.5 0 S
1613.5 707.25 0 31.5 S
1597.75 723 31.5 0 S
5 w
776 580 1104 952 re
S
cleartomark end end pagesave restore
 showpage
%%PageTrailer
%%Trailer
%%Pages: 1
