%!PS-Adobe-3.0 EPSF-3.0
%%BoundingBox: 69 53 265 190
%%HiResBoundingBox: 69.400000 53.900000 264.900000 189.100000
%.....................................
%%Creator: GPL Ghostscript 871 (epswrite)
%%CreationDate: 2012/01/28 17:04:48
%%DocumentData: Clean7Bit
%%LanguageLevel: 2
%%EndComments
%%BeginProlog
% This copyright applies to everything between here and the %%EndProlog:
% Copyright (C) 2010 Artifex Software, Inc.  All rights reserved.
%%BeginResource: procset GS_epswrite_2_0_1001 1.001 0
/GS_epswrite_2_0_1001 80 dict dup begin
/PageSize 2 array def/setpagesize{ PageSize aload pop 3 index eq exch
4 index eq and{ pop pop pop}{ PageSize dup  1
5 -1 roll put 0 4 -1 roll put dup null eq {false} {dup where} ifelse{ exch get exec}
{ pop/setpagedevice where
{ pop 1 dict dup /PageSize PageSize put setpagedevice}
{ /setpage where{ pop PageSize aload pop pageparams 3 {exch pop} repeat
setpage}if}ifelse}ifelse}ifelse} bind def
/!{bind def}bind def/#{load def}!/N/counttomark #
/rG{3{3 -1 roll 255 div}repeat setrgbcolor}!/G{255 div setgray}!/K{0 G}!
/r6{dup 3 -1 roll rG}!/r5{dup 3 1 roll rG}!/r3{dup rG}!
/w/setlinewidth #/J/setlinecap #
/j/setlinejoin #/M/setmiterlimit #/d/setdash #/i/setflat #
/m/moveto #/l/lineto #/c/rcurveto #
/p{N 2 idiv{N -2 roll rlineto}repeat}!
/P{N 0 gt{N -2 roll moveto p}if}!
/h{p closepath}!/H{P closepath}!
/lx{0 rlineto}!/ly{0 exch rlineto}!/v{0 0 6 2 roll c}!/y{2 copy c}!
/re{4 -2 roll m exch dup lx exch ly neg lx h}!
/^{3 index neg 3 index neg}!
/f{P fill}!/f*{P eofill}!/s{H stroke}!/S{P stroke}!
/q/gsave #/Q/grestore #/rf{re fill}!
/Y{P clip newpath}!/Y*{P eoclip newpath}!/rY{re Y}!
/|={pop exch 4 1 roll 1 array astore cvx 3 array astore cvx exch 1 index def exec}!
/|{exch string readstring |=}!
/+{dup type/nametype eq{2 index 7 add -3 bitshift 2 index mul}if}!
/@/currentfile #/${+ @ |}!
/B{{2 copy string{readstring pop}aload pop 4 array astore cvx
3 1 roll}repeat pop pop true}!
/Ix{[1 0 0 1 11 -2 roll exch neg exch neg]exch}!
/,{true exch Ix imagemask}!/If{false exch Ix imagemask}!/I{exch Ix image}!
/Ic{exch Ix false 3 colorimage}!
/F{/Columns counttomark 3 add -2 roll/Rows exch/K -1/BlackIs1 true>>
/CCITTFaxDecode filter}!/FX{<</EndOfBlock false F}!
/X{/ASCII85Decode filter}!/@X{@ X}!/&2{2 index 2 index}!
/@F{@ &2<<F}!/@C{@X &2 FX}!
/$X{+ @X |}!/&4{4 index 4 index}!/$F{+ @ &4<<F |}!/$C{+ @X &4 FX |}!
/IC{3 1 roll 10 dict begin 1{/ImageType/Interpolate/Decode/DataSource
/ImageMatrix/BitsPerComponent/Height/Width}{exch def}forall
currentdict end image}!
/~{@ read {pop} if}!
end def
%%EndResource
/pagesave null def
%%EndProlog
%%Page: 1 1
%%BeginPageSetup
GS_epswrite_2_0_1001 begin
/pagesave save store 197 dict begin
0.1 0.1 scale
%%EndPageSetup
gsave mark
Q q
0 0 250000 250000 re
Y
5 w
K
926 620 31.5 0 P
2594 620 -31.5 0 S
853 599 34 44 /3U
$C
23%r'%\5X)j2)<u^Zk'1J,ZoQs8W-!s8VJ_s8Qk\g>99H(eYmM:r7r$~>
,
926 745 31.5 0 P
2594 745 -31.5 0 S
727 725 17 43 /6U
$C
,Tm'ds8W-!s-F.@R>;m@If~>
,
753 724 3U ,
786 724 3U ,
819 724 3U ,
853 724 3U ,
926 869.5 31.5 0 P
2594 869.5 -31.5 0 S
719 850 34 43 /3Y
$C
4;jd(Qp5fN^"]dYfPna4iOE=NL>hOS^UAOiqu,+3CMbUV[OTh+@7(A~>
,
753 849 3U ,
786 849 3U ,
819 849 3U ,
853 849 3U ,
926 994.5 31.5 0 P
2594 994.5 -31.5 0 S
719 974 34 44 /6Y
$C
3f*tLK;VJ#ZZne#2lEeH?]XK;@:la`Yct@m+Q2(jDLDKapAVZrg>Sl<[;*R2"T~>
,
753 974 3U ,
786 974 3U ,
819 974 3U ,
853 974 3U ,
926 1119 31.5 0 P
2594 1119 -31.5 0 S
719 1099 35 43 /4C
$C
.M)RZs3Cmfr0V$lmIpMQmIpMQmJH;FpY5/kn_X9>^V/P~>
,
753 1098 3U ,
786 1098 3U ,
819 1098 3U ,
853 1098 3U ,
926 1244 31.5 0 P
2594 1244 -31.5 0 S
719 1223 35 44 /7C
$C
2%'Ns&9R0a'Aa:<PNfbDGdm_=;rkC=Bjl_7CKWS'fO25hs7ZK6."D-0~>
,
753 1223 3U ,
786 1223 3U ,
819 1223 3U ,
853 1223 3U ,
926 1369 31.5 0 P
2594 1369 -31.5 0 S
719 1348 35 44 /4G
$C
22__[-UH4U05uPcT2!a`He7T^qXqU=['7F,Z=C&h$n`Au*WOE]DtUNIgIhr,MR@1;L'd~>
,
753 1348 3U ,
786 1348 3U ,
819 1348 3U ,
853 1348 3U ,
926 1493.5 31.5 0 P
2594 1493.5 -31.5 0 S
719 1474 35 43 /7G
$C
,Sg=Wrr)ibmJYqspAMaEgV3(PG5]%%Ho""&~>
,
753 1473 3U ,
786 1473 3U ,
819 1473 3U ,
853 1473 3U ,
926 1618.5 31.5 0 P
2594 1618.5 -31.5 0 S
719 1598 35 44 /4K
$C
2$jBqS07(D'Aa:H#WJZ`e,TIHX4Gk>$!:Ud'l"Rbl-UTa#WJZ`l2Ue`CO4^e@4ZT(6OF59~>
,
753 1598 3U ,
786 1598 3U ,
819 1598 3U ,
853 1598 3U ,
926 1743 31.5 0 P
2594 1743 -31.5 0 S
719 1722 34 44 /7K
$C
3f=8'6.=X%ER7#DhOCS3MgtWLU=_cj#H+8i0B!.-l1\MVs0)+QHJ7+ZV.#(s>)'+,0VA~>
,
753 1722 3U ,
786 1722 3U ,
819 1722 3U ,
853 1722 3U ,
926 1868 31.5 0 P
2594 1868 -31.5 0 S
694 1848 6U ,
719 1847 3U ,
753 1847 3U ,
786 1847 3U ,
819 1847 3U ,
853 1847 3U ,
926 620 0 31.5 P
926 1868 0 -31.5 S
862 555 21 4 /4O
$C
4qID~>
,
882 539 4G ,
915 539 3U ,
949 539 3U ,
1164.5 620 0 31.5 P
1164.5 1868 0 -31.5 S
1100 555 4O ,
1120 540 4C ,
1154 539 3U ,
1187 539 3U ,
1402.5 620 0 31.5 P
1402.5 1868 0 -31.5 S
1338 555 4O ,
1358 540 3Y ,
1392 539 3U ,
1425 539 3U ,
1641 620 0 31.5 P
1641 1868 0 -31.5 S
1629 539 3U ,
1879 620 0 31.5 P
1879 1868 0 -31.5 S
1833 540 3Y ,
1867 539 3U ,
1900 539 3U ,
2117.5 620 0 31.5 P
2117.5 1868 0 -31.5 S
2072 540 4C ,
2105 539 3U ,
2139 539 3U ,
2355.5 620 0 31.5 P
2355.5 1868 0 -31.5 S
2310 539 4G ,
2343 539 3U ,
2377 539 3U ,
2594 620 0 31.5 P
2594 1868 0 -31.5 S
2548 539 4K ,
2582 539 3U ,
2615 539 3U ,
926 620 1668 1248 re
S
2.5 w
1126 1846.25 0 31.5 S
1110.25 1862 31.5 0 S
1127.5 1846.25 0 31.5 S
1111.75 1862 31.5 0 S
1129.5 1846.25 0 31.5 S
1113.75 1862 31.5 0 S
1132 1846.25 0 31.5 S
1116.25 1862 31.5 0 S
1134.5 1846.25 0 31.5 S
1118.75 1862 31.5 0 S
1137 1846.25 0 31.5 S
1121.25 1862 31.5 0 S
1139.5 1846.25 0 31.5 S
1123.75 1862 31.5 0 S
1141.5 1846.25 0 31.5 S
1125.75 1862 31.5 0 S
1144 1845.75 0 31.5 S
1128.25 1861.5 31.5 0 S
1146.5 1845.75 0 31.5 S
1130.75 1861.5 31.5 0 S
1149 1845.75 0 31.5 S
1133.25 1861.5 31.5 0 S
1151 1845.75 0 31.5 S
1135.25 1861.5 31.5 0 S
1156 1845.75 0 31.5 S
1140.25 1861.5 31.5 0 S
1157 1845.75 0 31.5 S
1141.25 1861.5 31.5 0 S
1160.5 1845.75 0 31.5 S
1144.75 1861.5 31.5 0 S
1163 1845.75 0 31.5 S
1147.25 1861.5 31.5 0 S
1164.5 1845.75 0 31.5 S
1148.75 1861.5 31.5 0 S
1165.5 1845.75 0 31.5 S
1149.75 1861.5 31.5 0 S
1169 1845.75 0 31.5 S
1153.25 1861.5 31.5 0 S
1174 1845.75 0 31.5 S
1158.25 1861.5 31.5 0 S
1182 1845.75 0 31.5 S
1166.25 1861.5 31.5 0 S
1187 1845.75 0 31.5 S
1171.25 1861.5 31.5 0 S
1191.5 1845.75 0 31.5 S
1175.75 1861.5 31.5 0 S
1197.5 1845.75 0 31.5 S
1181.75 1861.5 31.5 0 S
1200 1845.75 0 31.5 S
1184.25 1861.5 31.5 0 S
1201 1845.75 0 31.5 S
1185.25 1861.5 31.5 0 S
1206 1845.75 0 31.5 S
1190.25 1861.5 31.5 0 S
1218 1845.75 0 31.5 S
1202.25 1861.5 31.5 0 S
1224 1845.75 0 31.5 S
1208.25 1861.5 31.5 0 S
1226 1845.75 0 31.5 S
1210.25 1861.5 31.5 0 S
1116.5 1845.75 0 31.5 S
1100.75 1861.5 31.5 0 S
1120 1845.75 0 31.5 S
1104.25 1861.5 31.5 0 S
1127.5 1845.75 0 31.5 S
1111.75 1861.5 31.5 0 S
1129.5 1845.25 0 31.5 S
1113.75 1861 31.5 0 S
1138 1845.25 0 31.5 S
1122.25 1861 31.5 0 S
1144 1845.25 0 31.5 S
1128.25 1861 31.5 0 S
1150 1845.25 0 31.5 S
1134.25 1861 31.5 0 S
1155 1845.25 0 31.5 S
1139.25 1861 31.5 0 S
1163 1845.25 0 31.5 S
1147.25 1861 31.5 0 S
1176 1845.25 0 31.5 S
1160.25 1861 31.5 0 S
1185.5 1845.25 0 31.5 S
1169.75 1861 31.5 0 S
1193 1845.25 0 31.5 S
1177.25 1861 31.5 0 S
1207 1845.25 0 31.5 S
1191.25 1861 31.5 0 S
1218 1845.25 0 31.5 S
1202.25 1861 31.5 0 S
1219 1845.25 0 31.5 S
1203.25 1861 31.5 0 S
1244 1845.25 0 31.5 S
1228.25 1861 31.5 0 S
1252.5 1845.25 0 31.5 S
1236.75 1861 31.5 0 S
1271.5 1845.25 0 31.5 S
1255.75 1861 31.5 0 S
1288 1845.25 0 31.5 S
1272.25 1861 31.5 0 S
1373 1845.25 0 31.5 S
1357.25 1861 31.5 0 S
1376.5 1845.25 0 31.5 S
1360.75 1861 31.5 0 S
1380 1845.25 0 31.5 S
1364.25 1861 31.5 0 S
1383.5 1845.25 0 31.5 S
1367.75 1861 31.5 0 S
1395.5 1845.25 0 31.5 S
1379.75 1861 31.5 0 S
1396.5 1845.25 0 31.5 S
1380.75 1861 31.5 0 S
1398 1845.25 0 31.5 S
1382.25 1861 31.5 0 S
1399 1845.25 0 31.5 S
1383.25 1861 31.5 0 S
1400 1845.25 0 31.5 S
1384.25 1861 31.5 0 S
1402.5 1845.25 0 31.5 S
1386.75 1861 31.5 0 S
1404 1845.25 0 31.5 S
1388.25 1861 31.5 0 S
1405 1845.25 0 31.5 S
1389.25 1861 31.5 0 S
1407.5 1844.75 0 31.5 S
1391.75 1860.5 31.5 0 S
1408.5 1844.75 0 31.5 S
1392.75 1860.5 31.5 0 S
1409.5 1844.75 0 31.5 S
1393.75 1860.5 31.5 0 S
1411 1844.75 0 31.5 S
1395.25 1860.5 31.5 0 S
1412 1844.75 0 31.5 S
1396.25 1860.5 31.5 0 S
1413.5 1844.75 0 31.5 S
1397.75 1860.5 31.5 0 S
1414.5 1844.75 0 31.5 S
1398.75 1860.5 31.5 0 S
1415.5 1844.75 0 31.5 S
1399.75 1860.5 31.5 0 S
1417 1844.75 0 31.5 S
1401.25 1860.5 31.5 0 S
1418 1844.75 0 31.5 S
1402.25 1860.5 31.5 0 S
1419.5 1844.75 0 31.5 S
1403.75 1860.5 31.5 0 S
1420.5 1844.75 0 31.5 S
1404.75 1860.5 31.5 0 S
1423 1844.75 0 31.5 S
1407.25 1860.5 31.5 0 S
1424 1844.75 0 31.5 S
1408.25 1860.5 31.5 0 S
1425 1844.75 0 31.5 S
1409.25 1860.5 31.5 0 S
1426.5 1844.75 0 31.5 S
1410.75 1860.5 31.5 0 S
1427.5 1844.75 0 31.5 S
1411.75 1860.5 31.5 0 S
1429 1844.75 0 31.5 S
1413.25 1860.5 31.5 0 S
1430 1844.75 0 31.5 S
1414.25 1860.5 31.5 0 S
1431 1844.25 0 31.5 S
1415.25 1860 31.5 0 S
1432.5 1844.25 0 31.5 S
1416.75 1860 31.5 0 S
1433.5 1844.25 0 31.5 S
1417.75 1860 31.5 0 S
1434.5 1844.25 0 31.5 S
1418.75 1860 31.5 0 S
1436 1844.25 0 31.5 S
1420.25 1860 31.5 0 S
1437 1844.25 0 31.5 S
1421.25 1860 31.5 0 S
1438.5 1844.25 0 31.5 S
1422.75 1860 31.5 0 S
1439.5 1844.25 0 31.5 S
1423.75 1860 31.5 0 S
1440.5 1844.25 0 31.5 S
1424.75 1860 31.5 0 S
1442 1843.75 0 31.5 S
1426.25 1859.5 31.5 0 S
1443 1843.75 0 31.5 S
1427.25 1859.5 31.5 0 S
1444.5 1843.75 0 31.5 S
1428.75 1859.5 31.5 0 S
1445.5 1843.75 0 31.5 S
1429.75 1859.5 31.5 0 S
1446.5 1843.75 0 31.5 S
1430.75 1859.5 31.5 0 S
1448 1843.75 0 31.5 S
1432.25 1859.5 31.5 0 S
1449 1843.75 0 31.5 S
1433.25 1859.5 31.5 0 S
1450 1843.75 0 31.5 S
1434.25 1859.5 31.5 0 S
1451.5 1843.75 0 31.5 S
1435.75 1859.5 31.5 0 S
1452.5 1843.75 0 31.5 S
1436.75 1859.5 31.5 0 S
1454 1843.75 0 31.5 S
1438.25 1859.5 31.5 0 S
1455 1843.25 0 31.5 S
1439.25 1859 31.5 0 S
1456 1843.25 0 31.5 S
1440.25 1859 31.5 0 S
1457.5 1843.25 0 31.5 S
1441.75 1859 31.5 0 S
1458.5 1843.25 0 31.5 S
1442.75 1859 31.5 0 S
1460 1843.25 0 31.5 S
1444.25 1859 31.5 0 S
1461 1842.75 0 31.5 S
1445.25 1858.5 31.5 0 S
1462 1842.75 0 31.5 S
1446.25 1858.5 31.5 0 S
1463.5 1842.75 0 31.5 S
1447.75 1858.5 31.5 0 S
1464.5 1842.75 0 31.5 S
1448.75 1858.5 31.5 0 S
1465.5 1842.75 0 31.5 S
1449.75 1858.5 31.5 0 S
1467 1842.25 0 31.5 S
1451.25 1858 31.5 0 S
1468 1842.25 0 31.5 S
1452.25 1858 31.5 0 S
1469.5 1842.25 0 31.5 S
1453.75 1858 31.5 0 S
1470.5 1842.25 0 31.5 S
1454.75 1858 31.5 0 S
1471.5 1841.75 0 31.5 S
1455.75 1857.5 31.5 0 S
1473 1841.75 0 31.5 S
1457.25 1857.5 31.5 0 S
1474 1841.75 0 31.5 S
1458.25 1857.5 31.5 0 S
1475 1841.25 0 31.5 S
1459.25 1857 31.5 0 S
1476.5 1841.25 0 31.5 S
1460.75 1857 31.5 0 S
1477.5 1841.25 0 31.5 S
1461.75 1857 31.5 0 S
1479 1840.75 0 31.5 S
1463.25 1856.5 31.5 0 S
1480 1840.75 0 31.5 S
1464.25 1856.5 31.5 0 S
1481 1840.25 0 31.5 S
1465.25 1856 31.5 0 S
1482.5 1840.25 0 31.5 S
1466.75 1856 31.5 0 S
1483.5 1840.25 0 31.5 S
1467.75 1856 31.5 0 S
1485 1839.75 0 31.5 S
1469.25 1855.5 31.5 0 S
1486 1839.75 0 31.5 S
1470.25 1855.5 31.5 0 S
1487 1839.75 0 31.5 S
1471.25 1855.5 31.5 0 S
1488.5 1839.25 0 31.5 S
1472.75 1855 31.5 0 S
1489.5 1839.25 0 31.5 S
1473.75 1855 31.5 0 S
1490.5 1838.75 0 31.5 S
1474.75 1854.5 31.5 0 S
1492 1838.75 0 31.5 S
1476.25 1854.5 31.5 0 S
1493 1838.25 0 31.5 S
1477.25 1854 31.5 0 S
1494.5 1837.75 0 31.5 S
1478.75 1853.5 31.5 0 S
1495.5 1837.75 0 31.5 S
1479.75 1853.5 31.5 0 S
1496.5 1837.25 0 31.5 S
1480.75 1853 31.5 0 S
1498 1837.25 0 31.5 S
1482.25 1853 31.5 0 S
1499 1836.75 0 31.5 S
1483.25 1852.5 31.5 0 S
1500.5 1836.75 0 31.5 S
1484.75 1852.5 31.5 0 S
1501.5 1836.25 0 31.5 S
1485.75 1852 31.5 0 S
1502.5 1836.25 0 31.5 S
1486.75 1852 31.5 0 S
1504 1835.75 0 31.5 S
1488.25 1851.5 31.5 0 S
1505 1835.75 0 31.5 S
1489.25 1851.5 31.5 0 S
1506 1835.25 0 31.5 S
1490.25 1851 31.5 0 S
1507.5 1834.75 0 31.5 S
1491.75 1850.5 31.5 0 S
1508.5 1834.75 0 31.5 S
1492.75 1850.5 31.5 0 S
1510 1834.25 0 31.5 S
1494.25 1850 31.5 0 S
1511 1833.75 0 31.5 S
1495.25 1849.5 31.5 0 S
1512 1833.75 0 31.5 S
1496.25 1849.5 31.5 0 S
1513.5 1833.25 0 31.5 S
1497.75 1849 31.5 0 S
1514.5 1832.75 0 31.5 S
1498.75 1848.5 31.5 0 S
1516 1832.75 0 31.5 S
1500.25 1848.5 31.5 0 S
1517 1832.25 0 31.5 S
1501.25 1848 31.5 0 S
1518 1831.75 0 31.5 S
1502.25 1847.5 31.5 0 S
1519.5 1831.75 0 31.5 S
1503.75 1847.5 31.5 0 S
1520.5 1831.25 0 31.5 S
1504.75 1847 31.5 0 S
1521.5 1830.75 0 31.5 S
1505.75 1846.5 31.5 0 S
1523 1830.25 0 31.5 S
1507.25 1846 31.5 0 S
1524 1829.75 0 31.5 S
1508.25 1845.5 31.5 0 S
1525.5 1829.25 0 31.5 S
1509.75 1845 31.5 0 S
1526.5 1828.75 0 31.5 S
1510.75 1844.5 31.5 0 S
1527.5 1828.25 0 31.5 S
1511.75 1844 31.5 0 S
1529 1827.75 0 31.5 S
1513.25 1843.5 31.5 0 S
1530 1826.75 0 31.5 S
1514.25 1842.5 31.5 0 S
1531 1826.25 0 31.5 S
1515.25 1842 31.5 0 S
1532.5 1825.25 0 31.5 S
1516.75 1841 31.5 0 S
1533.5 1824.75 0 31.5 S
1517.75 1840.5 31.5 0 S
1535 1823.75 0 31.5 S
1519.25 1839.5 31.5 0 S
1536 1823.25 0 31.5 S
1520.25 1839 31.5 0 S
1537 1822.25 0 31.5 S
1521.25 1838 31.5 0 S
1538.5 1821.75 0 31.5 S
1522.75 1837.5 31.5 0 S
1539.5 1821.25 0 31.5 S
1523.75 1837 31.5 0 S
1541 1820.25 0 31.5 S
1525.25 1836 31.5 0 S
1542 1819.75 0 31.5 S
1526.25 1835.5 31.5 0 S
1543 1819.25 0 31.5 S
1527.25 1835 31.5 0 S
1544.5 1818.25 0 31.5 S
1528.75 1834 31.5 0 S
1545.5 1817.25 0 31.5 S
1529.75 1833 31.5 0 S
1546.5 1816.75 0 31.5 S
1530.75 1832.5 31.5 0 S
1548 1815.75 0 31.5 S
1532.25 1831.5 31.5 0 S
1549 1815.25 0 31.5 S
1533.25 1831 31.5 0 S
1550.5 1814.25 0 31.5 S
1534.75 1830 31.5 0 S
1551.5 1813.25 0 31.5 S
1535.75 1829 31.5 0 S
1552.5 1812.25 0 31.5 S
1536.75 1828 31.5 0 S
1554 1811.25 0 31.5 S
1538.25 1827 31.5 0 S
1555 1810.25 0 31.5 S
1539.25 1826 31.5 0 S
1556.5 1809.25 0 31.5 S
1540.75 1825 31.5 0 S
1557.5 1808.25 0 31.5 S
1541.75 1824 31.5 0 S
1558.5 1807.25 0 31.5 S
1542.75 1823 31.5 0 S
1560 1806.25 0 31.5 S
1544.25 1822 31.5 0 S
1561 1805.25 0 31.5 S
1545.25 1821 31.5 0 S
1562 1803.75 0 31.5 S
1546.25 1819.5 31.5 0 S
1563.5 1802.75 0 31.5 S
1547.75 1818.5 31.5 0 S
1564.5 1801.25 0 31.5 S
1548.75 1817 31.5 0 S
1566 1800.25 0 31.5 S
1550.25 1816 31.5 0 S
1567 1798.75 0 31.5 S
1551.25 1814.5 31.5 0 S
1568 1797.75 0 31.5 S
1552.25 1813.5 31.5 0 S
1569.5 1796.25 0 31.5 S
1553.75 1812 31.5 0 S
1570.5 1794.75 0 31.5 S
1554.75 1810.5 31.5 0 S
1572 1793.25 0 31.5 S
1556.25 1809 31.5 0 S
1573 1791.25 0 31.5 S
1557.25 1807 31.5 0 S
1574 1789.75 0 31.5 S
1558.25 1805.5 31.5 0 S
1575.5 1788.25 0 31.5 S
1559.75 1804 31.5 0 S
1576.5 1786.75 0 31.5 S
1560.75 1802.5 31.5 0 S
1577.5 1785.25 0 31.5 S
1561.75 1801 31.5 0 S
1579 1783.25 0 31.5 S
1563.25 1799 31.5 0 S
1580 1781.75 0 31.5 S
1564.25 1797.5 31.5 0 S
1581.5 1780.25 0 31.5 S
1565.75 1796 31.5 0 S
1582.5 1778.25 0 31.5 S
1566.75 1794 31.5 0 S
1583.5 1776.75 0 31.5 S
1567.75 1792.5 31.5 0 S
1585 1774.75 0 31.5 S
1569.25 1790.5 31.5 0 S
1586 1772.75 0 31.5 S
1570.25 1788.5 31.5 0 S
1587 1771.25 0 31.5 S
1571.25 1787 31.5 0 S
1588.5 1769.75 0 31.5 S
1572.75 1785.5 31.5 0 S
1589.5 1767.25 0 31.5 S
1573.75 1783 31.5 0 S
1591 1765.25 0 31.5 S
1575.25 1781 31.5 0 S
1592 1763.25 0 31.5 S
1576.25 1779 31.5 0 S
1593 1761.25 0 31.5 S
1577.25 1777 31.5 0 S
1594.5 1759.25 0 31.5 S
1578.75 1775 31.5 0 S
1595.5 1757.25 0 31.5 S
1579.75 1773 31.5 0 S
1597 1755.25 0 31.5 S
1581.25 1771 31.5 0 S
1598 1752.75 0 31.5 S
1582.25 1768.5 31.5 0 S
1599 1750.75 0 31.5 S
1583.25 1766.5 31.5 0 S
1600.5 1748.75 0 31.5 S
1584.75 1764.5 31.5 0 S
1601.5 1746.75 0 31.5 S
1585.75 1762.5 31.5 0 S
1602.5 1743.75 0 31.5 S
1586.75 1759.5 31.5 0 S
1604 1741.25 0 31.5 S
1588.25 1757 31.5 0 S
1605 1738.75 0 31.5 S
1589.25 1754.5 31.5 0 S
1606.5 1736.25 0 31.5 S
1590.75 1752 31.5 0 S
1607.5 1734.25 0 31.5 S
1591.75 1750 31.5 0 S
1608.5 1731.75 0 31.5 S
1592.75 1747.5 31.5 0 S
1610 1728.75 0 31.5 S
1594.25 1744.5 31.5 0 S
1611 1726.25 0 31.5 S
1595.25 1742 31.5 0 S
1612.5 1723.75 0 31.5 S
1596.75 1739.5 31.5 0 S
1613.5 1720.75 0 31.5 S
1597.75 1736.5 31.5 0 S
1614.5 1718.25 0 31.5 S
1598.75 1734 31.5 0 S
1616 1715.25 0 31.5 S
1600.25 1731 31.5 0 S
1617 1712.75 0 31.5 S
1601.25 1728.5 31.5 0 S
1618 1709.75 0 31.5 S
1602.25 1725.5 31.5 0 S
1619.5 1707.25 0 31.5 S
1603.75 1723 31.5 0 S
1620.5 1703.75 0 31.5 S
1604.75 1719.5 31.5 0 S
1622 1700.75 0 31.5 S
1606.25 1716.5 31.5 0 S
1623 1697.75 0 31.5 S
1607.25 1713.5 31.5 0 S
1624 1694.25 0 31.5 S
1608.25 1710 31.5 0 S
1625.5 1691.25 0 31.5 S
1609.75 1707 31.5 0 S
1626.5 1688.25 0 31.5 S
1610.75 1704 31.5 0 S
1628 1684.75 0 31.5 S
1612.25 1700.5 31.5 0 S
1629 1681.75 0 31.5 S
1613.25 1697.5 31.5 0 S
1630 1678.75 0 31.5 S
1614.25 1694.5 31.5 0 S
1631.5 1675.25 0 31.5 S
1615.75 1691 31.5 0 S
1632.5 1672.25 0 31.5 S
1616.75 1688 31.5 0 S
1633.5 1668.75 0 31.5 S
1617.75 1684.5 31.5 0 S
1635 1664.75 0 31.5 S
1619.25 1680.5 31.5 0 S
1636 1661.25 0 31.5 S
1620.25 1677 31.5 0 S
1637.5 1657.25 0 31.5 S
1621.75 1673 31.5 0 S
1638.5 1654.25 0 31.5 S
1622.75 1670 31.5 0 S
1639.5 1650.25 0 31.5 S
1623.75 1666 31.5 0 S
1642 1646.25 0 31.5 S
1626.25 1662 31.5 0 S
1643 1642.75 0 31.5 S
1627.25 1658.5 31.5 0 S
1644.5 1638.75 0 31.5 S
1628.75 1654.5 31.5 0 S
1645.5 1635.25 0 31.5 S
1629.75 1651 31.5 0 S
1647 1631.25 0 31.5 S
1631.25 1647 31.5 0 S
1648 1627.25 0 31.5 S
1632.25 1643 31.5 0 S
1649 1623.75 0 31.5 S
1633.25 1639.5 31.5 0 S
1650.5 1619.25 0 31.5 S
1634.75 1635 31.5 0 S
1651.5 1615.25 0 31.5 S
1635.75 1631 31.5 0 S
1653 1610.75 0 31.5 S
1637.25 1626.5 31.5 0 S
1654 1606.25 0 31.5 S
1638.25 1622 31.5 0 S
1655 1601.75 0 31.5 S
1639.25 1617.5 31.5 0 S
1656.5 1597.75 0 31.5 S
1640.75 1613.5 31.5 0 S
1657.5 1593.25 0 31.5 S
1641.75 1609 31.5 0 S
1658.5 1588.75 0 31.5 S
1642.75 1604.5 31.5 0 S
1660 1584.25 0 31.5 S
1644.25 1600 31.5 0 S
1661 1579.75 0 31.5 S
1645.25 1595.5 31.5 0 S
1662.5 1574.75 0 31.5 S
1646.75 1590.5 31.5 0 S
1663.5 1570.25 0 31.5 S
1647.75 1586 31.5 0 S
1664.5 1565.25 0 31.5 S
1648.75 1581 31.5 0 S
1666 1560.25 0 31.5 S
1650.25 1576 31.5 0 S
1667 1555.75 0 31.5 S
1651.25 1571.5 31.5 0 S
1668.5 1550.75 0 31.5 S
1652.75 1566.5 31.5 0 S
1669.5 1546.25 0 31.5 S
1653.75 1562 31.5 0 S
1670.5 1541.25 0 31.5 S
1654.75 1557 31.5 0 S
1672 1536.25 0 31.5 S
1656.25 1552 31.5 0 S
1673 1531.25 0 31.5 S
1657.25 1547 31.5 0 S
1674 1526.75 0 31.5 S
1658.25 1542.5 31.5 0 S
1675.5 1521.75 0 31.5 S
1659.75 1537.5 31.5 0 S
1676.5 1516.75 0 31.5 S
1660.75 1532.5 31.5 0 S
1678 1511.75 0 31.5 S
1662.25 1527.5 31.5 0 S
1679 1506.25 0 31.5 S
1663.25 1522 31.5 0 S
1680 1500.75 0 31.5 S
1664.25 1516.5 31.5 0 S
1681.5 1495.75 0 31.5 S
1665.75 1511.5 31.5 0 S
1682.5 1489.75 0 31.5 S
1666.75 1505.5 31.5 0 S
1683.5 1484.75 0 31.5 S
1667.75 1500.5 31.5 0 S
1685 1479.25 0 31.5 S
1669.25 1495 31.5 0 S
1686 1473.75 0 31.5 S
1670.25 1489.5 31.5 0 S
1687.5 1468.25 0 31.5 S
1671.75 1484 31.5 0 S
1688.5 1462.25 0 31.5 S
1672.75 1478 31.5 0 S
1689.5 1456.75 0 31.5 S
1673.75 1472.5 31.5 0 S
1691 1451.25 0 31.5 S
1675.25 1467 31.5 0 S
1692 1446.25 0 31.5 S
1676.25 1462 31.5 0 S
1693.5 1440.75 0 31.5 S
1677.75 1456.5 31.5 0 S
1694.5 1434.75 0 31.5 S
1678.75 1450.5 31.5 0 S
1695.5 1428.75 0 31.5 S
1679.75 1444.5 31.5 0 S
1697 1422.75 0 31.5 S
1681.25 1438.5 31.5 0 S
1698 1416.75 0 31.5 S
1682.25 1432.5 31.5 0 S
1699 1410.75 0 31.5 S
1683.25 1426.5 31.5 0 S
1700.5 1404.75 0 31.5 S
1684.75 1420.5 31.5 0 S
1701.5 1399.25 0 31.5 S
1685.75 1415 31.5 0 S
1703 1393.75 0 31.5 S
1687.25 1409.5 31.5 0 S
1704 1388.25 0 31.5 S
1688.25 1404 31.5 0 S
1705 1382.25 0 31.5 S
1689.25 1398 31.5 0 S
1706.5 1376.25 0 31.5 S
1690.75 1392 31.5 0 S
1707.5 1370.75 0 31.5 S
1691.75 1386.5 31.5 0 S
1709 1364.25 0 31.5 S
1693.25 1380 31.5 0 S
1710 1358.75 0 31.5 S
1694.25 1374.5 31.5 0 S
1711 1352.75 0 31.5 S
1695.25 1368.5 31.5 0 S
1712.5 1346.75 0 31.5 S
1696.75 1362.5 31.5 0 S
1713.5 1340.75 0 31.5 S
1697.75 1356.5 31.5 0 S
1714.5 1334.75 0 31.5 S
1698.75 1350.5 31.5 0 S
1716 1329.25 0 31.5 S
1700.25 1345 31.5 0 S
1717 1323.25 0 31.5 S
1701.25 1339 31.5 0 S
1718.5 1317.25 0 31.5 S
1702.75 1333 31.5 0 S
1719.5 1310.75 0 31.5 S
1703.75 1326.5 31.5 0 S
1720.5 1304.75 0 31.5 S
1704.75 1320.5 31.5 0 S
1722 1298.75 0 31.5 S
1706.25 1314.5 31.5 0 S
1723 1293.25 0 31.5 S
1707.25 1309 31.5 0 S
1724.5 1286.25 0 31.5 S
1708.75 1302 31.5 0 S
1725.5 1280.75 0 31.5 S
1709.75 1296.5 31.5 0 S
1726.5 1273.75 0 31.5 S
1710.75 1289.5 31.5 0 S
1728 1267.75 0 31.5 S
1712.25 1283.5 31.5 0 S
1729 1261.25 0 31.5 S
1713.25 1277 31.5 0 S
1730 1255.25 0 31.5 S
1714.25 1271 31.5 0 S
1731.5 1249.25 0 31.5 S
1715.75 1265 31.5 0 S
1732.5 1243.25 0 31.5 S
1716.75 1259 31.5 0 S
1734 1236.75 0 31.5 S
1718.25 1252.5 31.5 0 S
1735 1230.75 0 31.5 S
1719.25 1246.5 31.5 0 S
1736 1224.75 0 31.5 S
1720.25 1240.5 31.5 0 S
1737.5 1218.25 0 31.5 S
1721.75 1234 31.5 0 S
1738.5 1212.25 0 31.5 S
1722.75 1228 31.5 0 S
1739.5 1206.25 0 31.5 S
1723.75 1222 31.5 0 S
1741 1200.25 0 31.5 S
1725.25 1216 31.5 0 S
1742 1194.75 0 31.5 S
1726.25 1210.5 31.5 0 S
1743.5 1188.25 0 31.5 S
1727.75 1204 31.5 0 S
1744.5 1181.75 0 31.5 S
1728.75 1197.5 31.5 0 S
1745.5 1175.25 0 31.5 S
1729.75 1191 31.5 0 S
1747 1169.25 0 31.5 S
1731.25 1185 31.5 0 S
1748 1163.25 0 31.5 S
1732.25 1179 31.5 0 S
1749.5 1157.25 0 31.5 S
1733.75 1173 31.5 0 S
1750.5 1151.25 0 31.5 S
1734.75 1167 31.5 0 S
1751.5 1144.75 0 31.5 S
1735.75 1160.5 31.5 0 S
1753 1138.75 0 31.5 S
1737.25 1154.5 31.5 0 S
1754 1132.25 0 31.5 S
1738.25 1148 31.5 0 S
1755 1126.25 0 31.5 S
1739.25 1142 31.5 0 S
1756.5 1120.25 0 31.5 S
1740.75 1136 31.5 0 S
1757.5 1114.25 0 31.5 S
1741.75 1130 31.5 0 S
1759 1108.25 0 31.5 S
1743.25 1124 31.5 0 S
1760 1101.75 0 31.5 S
1744.25 1117.5 31.5 0 S
1761 1095.25 0 31.5 S
1745.25 1111 31.5 0 S
1762.5 1088.75 0 31.5 S
1746.75 1104.5 31.5 0 S
1763.5 1082.75 0 31.5 S
1747.75 1098.5 31.5 0 S
1765 1077.25 0 31.5 S
1749.25 1093 31.5 0 S
1766 1071.25 0 31.5 S
1750.25 1087 31.5 0 S
1767 1065.25 0 31.5 S
1751.25 1081 31.5 0 S
1768.5 1059.75 0 31.5 S
1752.75 1075.5 31.5 0 S
1769.5 1053.75 0 31.5 S
1753.75 1069.5 31.5 0 S
1770.5 1047.75 0 31.5 S
1754.75 1063.5 31.5 0 S
1772 1041.75 0 31.5 S
1756.25 1057.5 31.5 0 S
1773 1036.25 0 31.5 S
1757.25 1052 31.5 0 S
1774.5 1030.75 0 31.5 S
1758.75 1046.5 31.5 0 S
1775.5 1025.25 0 31.5 S
1759.75 1041 31.5 0 S
1776.5 1019.25 0 31.5 S
1760.75 1035 31.5 0 S
1778 1013.75 0 31.5 S
1762.25 1029.5 31.5 0 S
1779 1007.75 0 31.5 S
1763.25 1023.5 31.5 0 S
1780.5 1001.75 0 31.5 S
1764.75 1017.5 31.5 0 S
1781.5 996.25 0 31.5 S
1765.75 1012 31.5 0 S
1782.5 990.75 0 31.5 S
1766.75 1006.5 31.5 0 S
1784 984.75 0 31.5 S
1768.25 1000.5 31.5 0 S
1785 979.25 0 31.5 S
1769.25 995 31.5 0 S
1786 973.25 0 31.5 S
1770.25 989 31.5 0 S
1787.5 968.25 0 31.5 S
1771.75 984 31.5 0 S
1788.5 963.25 0 31.5 S
1772.75 979 31.5 0 S
1790 957.75 0 31.5 S
1774.25 973.5 31.5 0 S
1791 952.25 0 31.5 S
1775.25 968 31.5 0 S
1792 947.25 0 31.5 S
1776.25 963 31.5 0 S
1793.5 942.25 0 31.5 S
1777.75 958 31.5 0 S
1794.5 937.25 0 31.5 S
1778.75 953 31.5 0 S
1795.5 931.25 0 31.5 S
1779.75 947 31.5 0 S
1797 926.25 0 31.5 S
1781.25 942 31.5 0 S
1798 920.75 0 31.5 S
1782.25 936.5 31.5 0 S
1799.5 915.75 0 31.5 S
1783.75 931.5 31.5 0 S
1800.5 910.75 0 31.5 S
1784.75 926.5 31.5 0 S
1801.5 905.75 0 31.5 S
1785.75 921.5 31.5 0 S
1803 901.25 0 31.5 S
1787.25 917 31.5 0 S
1804 896.25 0 31.5 S
1788.25 912 31.5 0 S
1805.5 891.25 0 31.5 S
1789.75 907 31.5 0 S
1806.5 886.75 0 31.5 S
1790.75 902.5 31.5 0 S
1807.5 882.75 0 31.5 S
1791.75 898.5 31.5 0 S
1809 878.25 0 31.5 S
1793.25 894 31.5 0 S
1810 873.25 0 31.5 S
1794.25 889 31.5 0 S
1811 868.25 0 31.5 S
1795.25 884 31.5 0 S
1812.5 864.25 0 31.5 S
1796.75 880 31.5 0 S
1813.5 859.75 0 31.5 S
1797.75 875.5 31.5 0 S
1815 855.25 0 31.5 S
1799.25 871 31.5 0 S
1816 850.75 0 31.5 S
1800.25 866.5 31.5 0 S
1817 846.25 0 31.5 S
1801.25 862 31.5 0 S
1818.5 841.75 0 31.5 S
1802.75 857.5 31.5 0 S
1819.5 837.75 0 31.5 S
1803.75 853.5 31.5 0 S
1821 833.75 0 31.5 S
1805.25 849.5 31.5 0 S
1822 829.25 0 31.5 S
1806.25 845 31.5 0 S
1823 825.75 0 31.5 S
1807.25 841.5 31.5 0 S
1824.5 821.75 0 31.5 S
1808.75 837.5 31.5 0 S
1825.5 817.75 0 31.5 S
1809.75 833.5 31.5 0 S
1826.5 813.75 0 31.5 S
1810.75 829.5 31.5 0 S
1828 810.25 0 31.5 S
1812.25 826 31.5 0 S
1829 806.25 0 31.5 S
1813.25 822 31.5 0 S
1830.5 802.25 0 31.5 S
1814.75 818 31.5 0 S
1831.5 798.25 0 31.5 S
1815.75 814 31.5 0 S
1832.5 794.75 0 31.5 S
1816.75 810.5 31.5 0 S
1834 791.25 0 31.5 S
1818.25 807 31.5 0 S
1835 787.75 0 31.5 S
1819.25 803.5 31.5 0 S
1836.5 784.75 0 31.5 S
1820.75 800.5 31.5 0 S
1837.5 780.75 0 31.5 S
1821.75 796.5 31.5 0 S
1838.5 777.75 0 31.5 S
1822.75 793.5 31.5 0 S
1840 773.75 0 31.5 S
1824.25 789.5 31.5 0 S
1841 770.75 0 31.5 S
1825.25 786.5 31.5 0 S
1842 767.25 0 31.5 S
1826.25 783 31.5 0 S
1843.5 764.25 0 31.5 S
1827.75 780 31.5 0 S
1844.5 760.75 0 31.5 S
1828.75 776.5 31.5 0 S
1846 757.25 0 31.5 S
1830.25 773 31.5 0 S
1847 754.25 0 31.5 S
1831.25 770 31.5 0 S
1848 751.25 0 31.5 S
1832.25 767 31.5 0 S
1849.5 748.25 0 31.5 S
1833.75 764 31.5 0 S
1850.5 745.25 0 31.5 S
1834.75 761 31.5 0 S
1851.5 742.25 0 31.5 S
1835.75 758 31.5 0 S
1853 739.25 0 31.5 S
1837.25 755 31.5 0 S
1854 736.75 0 31.5 S
1838.25 752.5 31.5 0 S
1855.5 733.75 0 31.5 S
1839.75 749.5 31.5 0 S
1856.5 731.25 0 31.5 S
1840.75 747 31.5 0 S
1857.5 728.25 0 31.5 S
1841.75 744 31.5 0 S
1859 725.25 0 31.5 S
1843.25 741 31.5 0 S
1860 722.75 0 31.5 S
1844.25 738.5 31.5 0 S
1861.5 720.25 0 31.5 S
1845.75 736 31.5 0 S
1862.5 717.25 0 31.5 S
1846.75 733 31.5 0 S
1863.5 714.75 0 31.5 S
1847.75 730.5 31.5 0 S
1865 712.25 0 31.5 S
1849.25 728 31.5 0 S
1866 709.75 0 31.5 S
1850.25 725.5 31.5 0 S
1867 707.25 0 31.5 S
1851.25 723 31.5 0 S
1868.5 704.75 0 31.5 S
1852.75 720.5 31.5 0 S
1869.5 702.25 0 31.5 S
1853.75 718 31.5 0 S
1871 699.25 0 31.5 S
1855.25 715 31.5 0 S
1872 696.75 0 31.5 S
1856.25 712.5 31.5 0 S
1873 694.75 0 31.5 S
1857.25 710.5 31.5 0 S
1874.5 692.75 0 31.5 S
1858.75 708.5 31.5 0 S
1875.5 690.75 0 31.5 S
1859.75 706.5 31.5 0 S
1877 688.75 0 31.5 S
1861.25 704.5 31.5 0 S
1878 686.25 0 31.5 S
1862.25 702 31.5 0 S
1879 684.75 0 31.5 S
1863.25 700.5 31.5 0 S
1880.5 682.75 0 31.5 S
1864.75 698.5 31.5 0 S
1881.5 680.75 0 31.5 S
1865.75 696.5 31.5 0 S
1882.5 678.75 0 31.5 S
1866.75 694.5 31.5 0 S
1884 676.75 0 31.5 S
1868.25 692.5 31.5 0 S
1885 675.75 0 31.5 S
1869.25 691.5 31.5 0 S
1886.5 673.75 0 31.5 S
1870.75 689.5 31.5 0 S
1887.5 672.25 0 31.5 S
1871.75 688 31.5 0 S
1888.5 670.25 0 31.5 S
1872.75 686 31.5 0 S
1890 668.25 0 31.5 S
1874.25 684 31.5 0 S
1891 666.75 0 31.5 S
1875.25 682.5 31.5 0 S
1892 665.25 0 31.5 S
1876.25 681 31.5 0 S
1893.5 663.75 0 31.5 S
1877.75 679.5 31.5 0 S
1894.5 662.25 0 31.5 S
1878.75 678 31.5 0 S
1896 660.75 0 31.5 S
1880.25 676.5 31.5 0 S
1897 659.25 0 31.5 S
1881.25 675 31.5 0 S
1898 657.75 0 31.5 S
1882.25 673.5 31.5 0 S
1899.5 656.25 0 31.5 S
1883.75 672 31.5 0 S
1900.5 654.75 0 31.5 S
1884.75 670.5 31.5 0 S
1902 653.75 0 31.5 S
1886.25 669.5 31.5 0 S
1903 652.25 0 31.5 S
1887.25 668 31.5 0 S
1904 650.75 0 31.5 S
1888.25 666.5 31.5 0 S
1905.5 649.75 0 31.5 S
1889.75 665.5 31.5 0 S
1906.5 648.75 0 31.5 S
1890.75 664.5 31.5 0 S
1907.5 647.25 0 31.5 S
1891.75 663 31.5 0 S
1909 646.25 0 31.5 S
1893.25 662 31.5 0 S
1910 645.25 0 31.5 S
1894.25 661 31.5 0 S
1911.5 644.25 0 31.5 S
1895.75 660 31.5 0 S
1912.5 643.25 0 31.5 S
1896.75 659 31.5 0 S
1913.5 642.25 0 31.5 S
1897.75 658 31.5 0 S
1915 640.75 0 31.5 S
1899.25 656.5 31.5 0 S
1916 639.75 0 31.5 S
1900.25 655.5 31.5 0 S
1917.5 639.25 0 31.5 S
1901.75 655 31.5 0 S
1918.5 638.25 0 31.5 S
1902.75 654 31.5 0 S
1919.5 637.25 0 31.5 S
1903.75 653 31.5 0 S
1921 636.25 0 31.5 S
1905.25 652 31.5 0 S
1922 635.25 0 31.5 S
1906.25 651 31.5 0 S
1923 634.25 0 31.5 S
1907.25 650 31.5 0 S
1924.5 633.25 0 31.5 S
1908.75 649 31.5 0 S
1925.5 632.75 0 31.5 S
1909.75 648.5 31.5 0 S
1927 631.75 0 31.5 S
1911.25 647.5 31.5 0 S
1928 631.25 0 31.5 S
1912.25 647 31.5 0 S
1929 630.25 0 31.5 S
1913.25 646 31.5 0 S
1930.5 629.25 0 31.5 S
1914.75 645 31.5 0 S
1931.5 628.75 0 31.5 S
1915.75 644.5 31.5 0 S
1933 627.75 0 31.5 S
1917.25 643.5 31.5 0 S
1934 627.25 0 31.5 S
1918.25 643 31.5 0 S
1935 626.75 0 31.5 S
1919.25 642.5 31.5 0 S
1936.5 626.25 0 31.5 S
1920.75 642 31.5 0 S
1937.5 625.75 0 31.5 S
1921.75 641.5 31.5 0 S
1938.5 624.75 0 31.5 S
1922.75 640.5 31.5 0 S
1940 624.25 0 31.5 S
1924.25 640 31.5 0 S
1941 623.75 0 31.5 S
1925.25 639.5 31.5 0 S
1942.5 623.25 0 31.5 S
1926.75 639 31.5 0 S
1943.5 622.25 0 31.5 S
1927.75 638 31.5 0 S
1944.5 621.75 0 31.5 S
1928.75 637.5 31.5 0 S
1946 621.25 0 31.5 S
1930.25 637 31.5 0 S
1947 620.75 0 31.5 S
1931.25 636.5 31.5 0 S
1948 620.25 0 31.5 S
1932.25 636 31.5 0 S
1949.5 619.75 0 31.5 S
1933.75 635.5 31.5 0 S
1950.5 619.25 0 31.5 S
1934.75 635 31.5 0 S
1952 618.75 0 31.5 S
1936.25 634.5 31.5 0 S
1953 618.25 0 31.5 S
1937.25 634 31.5 0 S
1954 617.75 0 31.5 S
1938.25 633.5 31.5 0 S
1955.5 617.75 0 31.5 S
1939.75 633.5 31.5 0 S
1956.5 617.25 0 31.5 S
1940.75 633 31.5 0 S
1958 616.75 0 31.5 S
1942.25 632.5 31.5 0 S
1959 616.75 0 31.5 S
1943.25 632.5 31.5 0 S
1960 616.25 0 31.5 S
1944.25 632 31.5 0 S
1961.5 615.75 0 31.5 S
1945.75 631.5 31.5 0 S
1962.5 615.75 0 31.5 S
1946.75 631.5 31.5 0 S
1963.5 615.25 0 31.5 S
1947.75 631 31.5 0 S
1965 614.75 0 31.5 S
1949.25 630.5 31.5 0 S
1966 614.75 0 31.5 S
1950.25 630.5 31.5 0 S
1967.5 614.25 0 31.5 S
1951.75 630 31.5 0 S
1968.5 613.75 0 31.5 S
1952.75 629.5 31.5 0 S
1969.5 613.75 0 31.5 S
1953.75 629.5 31.5 0 S
1971 613.25 0 31.5 S
1955.25 629 31.5 0 S
1972 613.25 0 31.5 S
1956.25 629 31.5 0 S
1973.5 612.75 0 31.5 S
1957.75 628.5 31.5 0 S
1974.5 612.75 0 31.5 S
1958.75 628.5 31.5 0 S
1975.5 612.25 0 31.5 S
1959.75 628 31.5 0 S
1977 611.75 0 31.5 S
1961.25 627.5 31.5 0 S
1978 611.75 0 31.5 S
1962.25 627.5 31.5 0 S
1979 611.25 0 31.5 S
1963.25 627 31.5 0 S
1980.5 611.25 0 31.5 S
1964.75 627 31.5 0 S
1981.5 611.25 0 31.5 S
1965.75 627 31.5 0 S
1983 610.75 0 31.5 S
1967.25 626.5 31.5 0 S
1984 610.75 0 31.5 S
1968.25 626.5 31.5 0 S
1985 610.25 0 31.5 S
1969.25 626 31.5 0 S
1986.5 610.25 0 31.5 S
1970.75 626 31.5 0 S
1987.5 609.75 0 31.5 S
1971.75 625.5 31.5 0 S
1989 609.75 0 31.5 S
1973.25 625.5 31.5 0 S
1990 609.75 0 31.5 S
1974.25 625.5 31.5 0 S
1991 609.25 0 31.5 S
1975.25 625 31.5 0 S
1992.5 609.25 0 31.5 S
1976.75 625 31.5 0 S
1993.5 609.25 0 31.5 S
1977.75 625 31.5 0 S
1994.5 608.75 0 31.5 S
1978.75 624.5 31.5 0 S
1996 608.75 0 31.5 S
1980.25 624.5 31.5 0 S
1997 608.75 0 31.5 S
1981.25 624.5 31.5 0 S
1998.5 608.25 0 31.5 S
1982.75 624 31.5 0 S
1999.5 608.25 0 31.5 S
1983.75 624 31.5 0 S
2000.5 608.25 0 31.5 S
1984.75 624 31.5 0 S
2002 608.25 0 31.5 S
1986.25 624 31.5 0 S
2003 608.25 0 31.5 S
1987.25 624 31.5 0 S
2004 607.75 0 31.5 S
1988.25 623.5 31.5 0 S
2005.5 607.75 0 31.5 S
1989.75 623.5 31.5 0 S
2006.5 607.75 0 31.5 S
1990.75 623.5 31.5 0 S
2008 607.75 0 31.5 S
1992.25 623.5 31.5 0 S
2009 607.25 0 31.5 S
1993.25 623 31.5 0 S
2010 607.25 0 31.5 S
1994.25 623 31.5 0 S
2011.5 607.25 0 31.5 S
1995.75 623 31.5 0 S
2012.5 607.25 0 31.5 S
1996.75 623 31.5 0 S
2014 607.25 0 31.5 S
1998.25 623 31.5 0 S
2015 606.75 0 31.5 S
1999.25 622.5 31.5 0 S
2016 606.75 0 31.5 S
2000.25 622.5 31.5 0 S
2017.5 606.75 0 31.5 S
2001.75 622.5 31.5 0 S
2018.5 606.75 0 31.5 S
2002.75 622.5 31.5 0 S
2019.5 606.75 0 31.5 S
2003.75 622.5 31.5 0 S
2021 606.75 0 31.5 S
2005.25 622.5 31.5 0 S
2022 606.25 0 31.5 S
2006.25 622 31.5 0 S
2023.5 606.25 0 31.5 S
2007.75 622 31.5 0 S
2024.5 606.25 0 31.5 S
2008.75 622 31.5 0 S
2025.5 606.25 0 31.5 S
2009.75 622 31.5 0 S
2027 606.25 0 31.5 S
2011.25 622 31.5 0 S
2028 606.25 0 31.5 S
2012.25 622 31.5 0 S
2029.5 606.25 0 31.5 S
2013.75 622 31.5 0 S
2030.5 606.25 0 31.5 S
2014.75 622 31.5 0 S
2031.5 606.25 0 31.5 S
2015.75 622 31.5 0 S
2033 606.25 0 31.5 S
2017.25 622 31.5 0 S
2034 605.75 0 31.5 S
2018.25 621.5 31.5 0 S
2035 605.75 0 31.5 S
2019.25 621.5 31.5 0 S
2036.5 605.75 0 31.5 S
2020.75 621.5 31.5 0 S
2037.5 605.75 0 31.5 S
2021.75 621.5 31.5 0 S
2039 605.75 0 31.5 S
2023.25 621.5 31.5 0 S
2040 605.75 0 31.5 S
2024.25 621.5 31.5 0 S
2041 605.75 0 31.5 S
2025.25 621.5 31.5 0 S
2042.5 605.75 0 31.5 S
2026.75 621.5 31.5 0 S
2043.5 605.75 0 31.5 S
2027.75 621.5 31.5 0 S
2045 605.75 0 31.5 S
2029.25 621.5 31.5 0 S
2048.5 605.75 0 31.5 S
2032.75 621.5 31.5 0 S
2049.5 605.75 0 31.5 S
2033.75 621.5 31.5 0 S
2050.5 605.75 0 31.5 S
2034.75 621.5 31.5 0 S
2052 605.25 0 31.5 S
2036.25 621 31.5 0 S
2053 605.25 0 31.5 S
2037.25 621 31.5 0 S
2054.5 605.25 0 31.5 S
2038.75 621 31.5 0 S
2055.5 605.25 0 31.5 S
2039.75 621 31.5 0 S
2056.5 605.25 0 31.5 S
2040.75 621 31.5 0 S
2058 605.25 0 31.5 S
2042.25 621 31.5 0 S
2059 605.25 0 31.5 S
2043.25 621 31.5 0 S
2060 605.25 0 31.5 S
2044.25 621 31.5 0 S
2061.5 605.25 0 31.5 S
2045.75 621 31.5 0 S
2064 605.25 0 31.5 S
2048.25 621 31.5 0 S
2065 605.25 0 31.5 S
2049.25 621 31.5 0 S
2067.5 605.25 0 31.5 S
2051.75 621 31.5 0 S
2070 605.25 0 31.5 S
2054.25 621 31.5 0 S
2075.5 605.25 0 31.5 S
2059.75 621 31.5 0 S
2079.5 605.25 0 31.5 S
2063.75 621 31.5 0 S
2080.5 605.25 0 31.5 S
2064.75 621 31.5 0 S
2083 605.25 0 31.5 S
2067.25 621 31.5 0 S
2085.5 605.25 0 31.5 S
2069.75 621 31.5 0 S
2087.5 605.25 0 31.5 S
2071.75 621 31.5 0 S
2089 605.25 0 31.5 S
2073.25 621 31.5 0 S
2090 605.25 0 31.5 S
2074.25 621 31.5 0 S
2093.5 605.25 0 31.5 S
2077.75 621 31.5 0 S
2095 605.25 0 31.5 S
2079.25 621 31.5 0 S
2097 605.25 0 31.5 S
2081.25 621 31.5 0 S
2099.5 604.75 0 31.5 S
2083.75 620.5 31.5 0 S
2103 604.75 0 31.5 S
2087.25 620.5 31.5 0 S
2111.5 604.75 0 31.5 S
2095.75 620.5 31.5 0 S
2115 604.75 0 31.5 S
2099.25 620.5 31.5 0 S
2121 604.75 0 31.5 S
2105.25 620.5 31.5 0 S
2128 604.75 0 31.5 S
2112.25 620.5 31.5 0 S
2151 604.75 0 31.5 S
2135.25 620.5 31.5 0 S
2106.5 604.75 0 31.5 S
2090.75 620.5 31.5 0 S
2102 604.75 0 31.5 S
2086.25 620.5 31.5 0 S
2090 604.75 0 31.5 S
2074.25 620.5 31.5 0 S
2196 604.75 0 31.5 S
2180.25 620.5 31.5 0 S
2201 604.75 0 31.5 S
2185.25 620.5 31.5 0 S
2192.5 604.75 0 31.5 S
2176.75 620.5 31.5 0 S
2180.5 604.75 0 31.5 S
2164.75 620.5 31.5 0 S
2288 604.75 0 31.5 S
2272.25 620.5 31.5 0 S
2320 604.75 0 31.5 S
2304.25 620.5 31.5 0 S
2367.5 604.75 0 31.5 S
2351.75 620.5 31.5 0 S
2404.5 604.75 0 31.5 S
2388.75 620.5 31.5 0 S
2458 604.75 0 31.5 S
2442.25 620.5 31.5 0 S
2460.5 604.75 0 31.5 S
2444.75 620.5 31.5 0 S
2466.5 604.75 0 31.5 S
2450.75 620.5 31.5 0 S
2472.5 604.75 0 31.5 S
2456.75 620.5 31.5 0 S
2473.5 604.75 0 31.5 S
2457.75 620.5 31.5 0 S
2485.5 604.75 0 31.5 S
2469.75 620.5 31.5 0 S
2491.5 604.75 0 31.5 S
2475.75 620.5 31.5 0 S
2502.5 604.75 0 31.5 S
2486.75 620.5 31.5 0 S
2504.5 604.75 0 31.5 S
2488.75 620.5 31.5 0 S
2509.5 604.75 0 31.5 S
2493.75 620.5 31.5 0 S
2512 604.75 0 31.5 S
2496.25 620.5 31.5 0 S
2516.5 604.25 0 31.5 S
2500.75 620 31.5 0 S
2519 604.25 0 31.5 S
2503.25 620 31.5 0 S
2521.5 604.25 0 31.5 S
2505.75 620 31.5 0 S
2523.5 604.25 0 31.5 S
2507.75 620 31.5 0 S
2531 604.25 0 31.5 S
2515.25 620 31.5 0 S
2532 604.25 0 31.5 S
2516.25 620 31.5 0 S
2533 604.25 0 31.5 S
2517.25 620 31.5 0 S
2534.5 604.25 0 31.5 S
2518.75 620 31.5 0 S
2537 604.25 0 31.5 S
2521.25 620 31.5 0 S
2539 604.25 0 31.5 S
2523.25 620 31.5 0 S
2540.5 604.25 0 31.5 S
2524.75 620 31.5 0 S
2543 604.25 0 31.5 S
2527.25 620 31.5 0 S
2545 604.25 0 31.5 S
2529.25 620 31.5 0 S
2546.5 604.25 0 31.5 S
2530.75 620 31.5 0 S
5 w
926 620 1668 1248 re
S
cleartomark end end pagesave restore
 showpage
%%PageTrailer
%%Trailer
%%Pages: 1
