%!PS-Adobe-3.0 EPSF-3.0
%%BoundingBox: 61 52 193 155
%%HiResBoundingBox: 61.900000 52.600000 192.800000 154.700000
%.....................................
%%Creator: GPL Ghostscript 871 (epswrite)
%%CreationDate: 2012/01/28 17:04:51
%%DocumentData: Clean7Bit
%%LanguageLevel: 2
%%EndComments
%%BeginProlog
% This copyright applies to everything between here and the %%EndProlog:
% Copyright (C) 2010 Artifex Software, Inc.  All rights reserved.
%%BeginResource: procset GS_epswrite_2_0_1001 1.001 0
/GS_epswrite_2_0_1001 80 dict dup begin
/PageSize 2 array def/setpagesize{ PageSize aload pop 3 index eq exch
4 index eq and{ pop pop pop}{ PageSize dup  1
5 -1 roll put 0 4 -1 roll put dup null eq {false} {dup where} ifelse{ exch get exec}
{ pop/setpagedevice where
{ pop 1 dict dup /PageSize PageSize put setpagedevice}
{ /setpage where{ pop PageSize aload pop pageparams 3 {exch pop} repeat
setpage}if}ifelse}ifelse}ifelse} bind def
/!{bind def}bind def/#{load def}!/N/counttomark #
/rG{3{3 -1 roll 255 div}repeat setrgbcolor}!/G{255 div setgray}!/K{0 G}!
/r6{dup 3 -1 roll rG}!/r5{dup 3 1 roll rG}!/r3{dup rG}!
/w/setlinewidth #/J/setlinecap #
/j/setlinejoin #/M/setmiterlimit #/d/setdash #/i/setflat #
/m/moveto #/l/lineto #/c/rcurveto #
/p{N 2 idiv{N -2 roll rlineto}repeat}!
/P{N 0 gt{N -2 roll moveto p}if}!
/h{p closepath}!/H{P closepath}!
/lx{0 rlineto}!/ly{0 exch rlineto}!/v{0 0 6 2 roll c}!/y{2 copy c}!
/re{4 -2 roll m exch dup lx exch ly neg lx h}!
/^{3 index neg 3 index neg}!
/f{P fill}!/f*{P eofill}!/s{H stroke}!/S{P stroke}!
/q/gsave #/Q/grestore #/rf{re fill}!
/Y{P clip newpath}!/Y*{P eoclip newpath}!/rY{re Y}!
/|={pop exch 4 1 roll 1 array astore cvx 3 array astore cvx exch 1 index def exec}!
/|{exch string readstring |=}!
/+{dup type/nametype eq{2 index 7 add -3 bitshift 2 index mul}if}!
/@/currentfile #/${+ @ |}!
/B{{2 copy string{readstring pop}aload pop 4 array astore cvx
3 1 roll}repeat pop pop true}!
/Ix{[1 0 0 1 11 -2 roll exch neg exch neg]exch}!
/,{true exch Ix imagemask}!/If{false exch Ix imagemask}!/I{exch Ix image}!
/Ic{exch Ix false 3 colorimage}!
/F{/Columns counttomark 3 add -2 roll/Rows exch/K -1/BlackIs1 true>>
/CCITTFaxDecode filter}!/FX{<</EndOfBlock false F}!
/X{/ASCII85Decode filter}!/@X{@ X}!/&2{2 index 2 index}!
/@F{@ &2<<F}!/@C{@X &2 FX}!
/$X{+ @X |}!/&4{4 index 4 index}!/$F{+ @ &4<<F |}!/$C{+ @X &4 FX |}!
/IC{3 1 roll 10 dict begin 1{/ImageType/Interpolate/Decode/DataSource
/ImageMatrix/BitsPerComponent/Height/Width}{exch def}forall
currentdict end image}!
/~{@ read {pop} if}!
end def
%%EndResource
/pagesave null def
%%EndProlog
%%Page: 1 1
%%BeginPageSetup
GS_epswrite_2_0_1001 begin
/pagesave save store 197 dict begin
0.1 0.1 scale
%%EndPageSetup
gsave mark
Q q
0 0 250000 250000 re
Y
5 w
K
776 580 31.5 0 P
1880 580 -31.5 0 P
752 580 S
708 567 14 28 /3U
$X
!#ttY!#ttY!#ttY!#ttY!#ttY!#ttY!#ttY!#ttY!#ttY!#ttY&,Zt9#Q+RL!'C6$!#ttY~>
,
730 566 20 29 /6U
$C
1FPQ<U3?$Yf(B"@-NF,Gs8VI:s4Z>6_Utnc_LM~>
,
776 637.5 15.5 0 P
1880 637.5 -15.5 0 P
776 713 15.5 0 P
1880 713 -15.5 0 P
776 752 15.5 0 P
1880 752 -15.5 0 P
776 770.5 31.5 0 P
1880 770.5 -31.5 0 P
752 770.5 S
685 758 3U ,
708 757 6U ,
730 757 6U ,
776 827.5 15.5 0 P
1880 827.5 -15.5 0 P
776 903.5 15.5 0 P
1880 903.5 -15.5 0 P
776 942.5 15.5 0 P
1880 942.5 -15.5 0 P
776 961 31.5 0 P
1880 961 -31.5 0 P
752 961 S
663 948 3U ,
685 947 6U ,
708 947 6U ,
730 947 6U ,
776 1018 15.5 0 P
1880 1018 -15.5 0 P
776 1094 15.5 0 P
1880 1094 -15.5 0 P
776 1132.5 15.5 0 P
1880 1132.5 -15.5 0 P
776 1151 31.5 0 P
1880 1151 -31.5 0 P
752 1151 S
641 1138 3U ,
663 1137 6U ,
685 1137 6U ,
708 1137 6U ,
730 1137 6U ,
776 1208.5 15.5 0 P
1880 1208.5 -15.5 0 P
776 1284.5 15.5 0 P
1880 1284.5 -15.5 0 P
776 1323 15.5 0 P
1880 1323 -15.5 0 P
776 1341.5 31.5 0 P
1880 1341.5 -31.5 0 P
752 1341.5 S
619 1329 3U ,
641 1328 6U ,
663 1328 6U ,
685 1328 6U ,
708 1328 6U ,
730 1328 6U ,
776 1399 15.5 0 P
1880 1399 -15.5 0 P
776 1474.5 15.5 0 P
1880 1474.5 -15.5 0 P
776 1513.5 15.5 0 P
1880 1513.5 -15.5 0 P
776 1532 31.5 0 P
1880 1532 -31.5 0 P
752 1532 S
640 1519 3U ,
662 1518 21 23 /3Y
$C
1E7P%d6)YL8\`[qneo\fjs0j!?2$u#-"F0QK`~>
,
684 1519 21 19 /6Y
$C
-bo]]/fFSYs8Vu~>
,
708 1518 6U ,
730 1518 20 29 /4C
$C
1FPQ<U3Q=d-e7Y"s8AeG%4ldp0#HXsnoio)>?_hW(f1~>
,
776 580 0 31.5 P
776 1532 0 -31.5 P
776 540 S
770 527 3U ,
887 580 0 15.5 P
887 1532 0 -15.5 P
951.5 580 0 15.5 P
951.5 1532 0 -15.5 P
997.5 580 0 15.5 P
997.5 1532 0 -15.5 P
1033 580 0 15.5 P
1033 1532 0 -15.5 P
1062.5 580 0 15.5 P
1062.5 1532 0 -15.5 P
1087 580 0 15.5 P
1087 1532 0 -15.5 P
1108.5 580 0 15.5 P
1108.5 1532 0 -15.5 P
1127 580 0 15.5 P
1127 1532 0 -15.5 P
1144 580 0 31.5 P
1144 1532 0 -31.5 P
1144 540 S
1127 527 3U ,
1150 526 6U ,
1255 580 0 15.5 P
1255 1532 0 -15.5 P
1319.5 580 0 15.5 P
1319.5 1532 0 -15.5 P
1365.5 580 0 15.5 P
1365.5 1532 0 -15.5 P
1401 580 0 15.5 P
1401 1532 0 -15.5 P
1430.5 580 0 15.5 P
1430.5 1532 0 -15.5 P
1455 580 0 15.5 P
1455 1532 0 -15.5 P
1476.5 580 0 15.5 P
1476.5 1532 0 -15.5 P
1495 580 0 15.5 P
1495 1532 0 -15.5 P
1512 580 0 31.5 P
1512 1532 0 -31.5 P
1512 540 S
1484 527 3U ,
1506 526 6U ,
1529 526 6U ,
1623 580 0 15.5 P
1623 1532 0 -15.5 P
1687.5 580 0 15.5 P
1687.5 1532 0 -15.5 P
1733.5 580 0 15.5 P
1733.5 1532 0 -15.5 P
1769 580 0 15.5 P
1769 1532 0 -15.5 P
1798.5 580 0 15.5 P
1798.5 1532 0 -15.5 P
1823 580 0 15.5 P
1823 1532 0 -15.5 P
1844.5 580 0 15.5 P
1844.5 1532 0 -15.5 P
1863 580 0 15.5 P
1863 1532 0 -15.5 P
1880 580 0 31.5 P
1880 1532 0 -31.5 P
1880 540 S
1841 527 3U ,
1863 526 6U ,
1886 526 6U ,
1908 526 6U ,
776 580 1104 952 re
S
2.5 w
776 1450.25 0 31.5 S
760.25 1466 31.5 0 S
887 1460.75 0 31.5 S
871.25 1476.5 31.5 0 S
951.5 1436.25 0 31.5 S
935.75 1452 31.5 0 S
997.5 1414.25 0 31.5 S
981.75 1430 31.5 0 S
1033 1383.75 0 31.5 S
1017.25 1399.5 31.5 0 S
1062.5 1354.25 0 31.5 S
1046.75 1370 31.5 0 S
1087 1323.25 0 31.5 S
1071.25 1339 31.5 0 S
1108.5 1291.75 0 31.5 S
1092.75 1307.5 31.5 0 S
1127 1264.75 0 31.5 S
1111.25 1280.5 31.5 0 S
1144 1239.75 0 31.5 S
1128.25 1255.5 31.5 0 S
1159 1223.75 0 31.5 S
1143.25 1239.5 31.5 0 S
1173 1213.75 0 31.5 S
1157.25 1229.5 31.5 0 S
1186 1205.25 0 31.5 S
1170.25 1221 31.5 0 S
1198 1195.75 0 31.5 S
1182.25 1211.5 31.5 0 S
1209 1187.25 0 31.5 S
1193.25 1203 31.5 0 S
1219 1178.25 0 31.5 S
1203.25 1194 31.5 0 S
1229 1169.25 0 31.5 S
1213.25 1185 31.5 0 S
1238 1151.75 0 31.5 S
1222.25 1167.5 31.5 0 S
1246.5 1143.25 0 31.5 S
1230.75 1159 31.5 0 S
1255 1130.75 0 31.5 S
1239.25 1146.5 31.5 0 S
1262.5 1121.25 0 31.5 S
1246.75 1137 31.5 0 S
1270 1105.25 0 31.5 S
1254.25 1121 31.5 0 S
1277 1095.75 0 31.5 S
1261.25 1111.5 31.5 0 S
1284 1088.75 0 31.5 S
1268.25 1104.5 31.5 0 S
1290.5 1073.25 0 31.5 S
1274.75 1089 31.5 0 S
1296.5 1073.25 0 31.5 S
1280.75 1089 31.5 0 S
1302.5 1054.25 0 31.5 S
1286.75 1070 31.5 0 S
1308.5 1045.25 0 31.5 S
1292.75 1061 31.5 0 S
1314 1049.25 0 31.5 S
1298.25 1065 31.5 0 S
1319.5 1049.25 0 31.5 S
1303.75 1065 31.5 0 S
1325 1033.25 0 31.5 S
1309.25 1049 31.5 0 S
1330 1020.75 0 31.5 S
1314.25 1036.5 31.5 0 S
1335 1020.25 0 31.5 S
1319.25 1036 31.5 0 S
1339.5 1021.25 0 31.5 S
1323.75 1037 31.5 0 S
1344 1008.75 0 31.5 S
1328.25 1024.5 31.5 0 S
1348.5 1000.25 0 31.5 S
1332.75 1016 31.5 0 S
1353 1003.25 0 31.5 S
1337.25 1019 31.5 0 S
1357.5 995.75 0 31.5 S
1341.75 1011.5 31.5 0 S
1361.5 988.25 0 31.5 S
1345.75 1004 31.5 0 S
1365.5 990.25 0 31.5 S
1349.75 1006 31.5 0 S
1369.5 971.75 0 31.5 S
1353.75 987.5 31.5 0 S
1373.5 959.25 0 31.5 S
1357.75 975 31.5 0 S
1377 948.25 0 31.5 S
1361.25 964 31.5 0 S
1381 946.75 0 31.5 S
1365.25 962.5 31.5 0 S
1384.5 922.75 0 31.5 S
1368.75 938.5 31.5 0 S
1388 939.25 0 31.5 S
1372.25 955 31.5 0 S
1391.5 934.25 0 31.5 S
1375.75 950 31.5 0 S
1394.5 886.25 0 31.5 S
1378.75 902 31.5 0 S
1398 921.75 0 31.5 S
1382.25 937.5 31.5 0 S
1401 899.25 0 31.5 S
1385.25 915 31.5 0 S
1404.5 914.75 0 31.5 S
1388.75 930.5 31.5 0 S
1407.5 865.75 0 31.5 S
1391.75 881.5 31.5 0 S
1410.5 877.25 0 31.5 S
1394.75 893 31.5 0 S
1413.5 813.25 0 31.5 S
1397.75 829 31.5 0 S
1416.5 880.25 0 31.5 S
1400.75 896 31.5 0 S
1419.5 876.75 0 31.5 S
1403.75 892.5 31.5 0 S
1422 824.75 0 31.5 S
1406.25 840.5 31.5 0 S
1425 851.25 0 31.5 S
1409.25 867 31.5 0 S
1427.5 798.25 0 31.5 S
1411.75 814 31.5 0 S
1430.5 781.75 0 31.5 S
1414.75 797.5 31.5 0 S
1433 754.75 0 31.5 S
1417.25 770.5 31.5 0 S
1435.5 788.75 0 31.5 S
1419.75 804.5 31.5 0 S
1438 636.75 0 31.5 S
1422.25 652.5 31.5 0 S
1440.5 662.75 0 31.5 S
1424.75 678.5 31.5 0 S
1443 705.25 0 31.5 S
1427.25 721 31.5 0 S
1445.5 722.75 0 31.5 S
1429.75 738.5 31.5 0 S
1448 712.25 0 31.5 S
1432.25 728 31.5 0 S
1450.5 776.75 0 31.5 S
1434.75 792.5 31.5 0 S
1452.5 715.25 0 31.5 S
1436.75 731 31.5 0 S
1455 723.75 0 31.5 S
1439.25 739.5 31.5 0 S
1457.5 676.75 0 31.5 S
1441.75 692.5 31.5 0 S
1459.5 625.75 0 31.5 S
1443.75 641.5 31.5 0 S
1461.5 608.25 0 31.5 S
1445.75 624 31.5 0 S
1493.5 878.25 0 31.5 S
1477.75 894 31.5 0 S
1581 847.75 0 31.5 S
1565.25 863.5 31.5 0 S
1596 798.25 0 31.5 S
1580.25 814 31.5 0 S
1613.5 813.25 0 31.5 S
1597.75 829 31.5 0 S
1615.5 897.75 0 31.5 S
1599.75 913.5 31.5 0 S
5 w
776 580 1104 952 re
S
cleartomark end end pagesave restore
 showpage
%%PageTrailer
%%Trailer
%%Pages: 1
