%!PS-Adobe-3.0 EPSF-3.0
%%BoundingBox: 61 52 193 155
%%HiResBoundingBox: 61.900000 52.600000 192.800000 154.700000
%.....................................
%%Creator: GPL Ghostscript 871 (epswrite)
%%CreationDate: 2012/01/28 17:04:50
%%DocumentData: Clean7Bit
%%LanguageLevel: 2
%%EndComments
%%BeginProlog
% This copyright applies to everything between here and the %%EndProlog:
% Copyright (C) 2010 Artifex Software, Inc.  All rights reserved.
%%BeginResource: procset GS_epswrite_2_0_1001 1.001 0
/GS_epswrite_2_0_1001 80 dict dup begin
/PageSize 2 array def/setpagesize{ PageSize aload pop 3 index eq exch
4 index eq and{ pop pop pop}{ PageSize dup  1
5 -1 roll put 0 4 -1 roll put dup null eq {false} {dup where} ifelse{ exch get exec}
{ pop/setpagedevice where
{ pop 1 dict dup /PageSize PageSize put setpagedevice}
{ /setpage where{ pop PageSize aload pop pageparams 3 {exch pop} repeat
setpage}if}ifelse}ifelse}ifelse} bind def
/!{bind def}bind def/#{load def}!/N/counttomark #
/rG{3{3 -1 roll 255 div}repeat setrgbcolor}!/G{255 div setgray}!/K{0 G}!
/r6{dup 3 -1 roll rG}!/r5{dup 3 1 roll rG}!/r3{dup rG}!
/w/setlinewidth #/J/setlinecap #
/j/setlinejoin #/M/setmiterlimit #/d/setdash #/i/setflat #
/m/moveto #/l/lineto #/c/rcurveto #
/p{N 2 idiv{N -2 roll rlineto}repeat}!
/P{N 0 gt{N -2 roll moveto p}if}!
/h{p closepath}!/H{P closepath}!
/lx{0 rlineto}!/ly{0 exch rlineto}!/v{0 0 6 2 roll c}!/y{2 copy c}!
/re{4 -2 roll m exch dup lx exch ly neg lx h}!
/^{3 index neg 3 index neg}!
/f{P fill}!/f*{P eofill}!/s{H stroke}!/S{P stroke}!
/q/gsave #/Q/grestore #/rf{re fill}!
/Y{P clip newpath}!/Y*{P eoclip newpath}!/rY{re Y}!
/|={pop exch 4 1 roll 1 array astore cvx 3 array astore cvx exch 1 index def exec}!
/|{exch string readstring |=}!
/+{dup type/nametype eq{2 index 7 add -3 bitshift 2 index mul}if}!
/@/currentfile #/${+ @ |}!
/B{{2 copy string{readstring pop}aload pop 4 array astore cvx
3 1 roll}repeat pop pop true}!
/Ix{[1 0 0 1 11 -2 roll exch neg exch neg]exch}!
/,{true exch Ix imagemask}!/If{false exch Ix imagemask}!/I{exch Ix image}!
/Ic{exch Ix false 3 colorimage}!
/F{/Columns counttomark 3 add -2 roll/Rows exch/K -1/BlackIs1 true>>
/CCITTFaxDecode filter}!/FX{<</EndOfBlock false F}!
/X{/ASCII85Decode filter}!/@X{@ X}!/&2{2 index 2 index}!
/@F{@ &2<<F}!/@C{@X &2 FX}!
/$X{+ @X |}!/&4{4 index 4 index}!/$F{+ @ &4<<F |}!/$C{+ @X &4 FX |}!
/IC{3 1 roll 10 dict begin 1{/ImageType/Interpolate/Decode/DataSource
/ImageMatrix/BitsPerComponent/Height/Width}{exch def}forall
currentdict end image}!
/~{@ read {pop} if}!
end def
%%EndResource
/pagesave null def
%%EndProlog
%%Page: 1 1
%%BeginPageSetup
GS_epswrite_2_0_1001 begin
/pagesave save store 197 dict begin
0.1 0.1 scale
%%EndPageSetup
gsave mark
Q q
0 0 250000 250000 re
Y
5 w
K
776 580 31.5 0 P
1880 580 -31.5 0 P
752 580 S
730 567 14 28 /3U
$X
!#ttY!#ttY!#ttY!#ttY!#ttY!#ttY!#ttY!#ttY!#ttY!#ttY&,Zt9#Q+RL!'C6$!#ttY~>
,
776 628 15.5 0 P
1880 628 -15.5 0 P
776 691 15.5 0 P
1880 691 -15.5 0 P
776 723.5 15.5 0 P
1880 723.5 -15.5 0 P
776 738.5 31.5 0 P
1880 738.5 -31.5 0 P
752 738.5 S
708 726 3U ,
730 725 20 29 /6U
$C
1FPQ<U3?$Yf(B"@-NF,Gs8VI:s4Z>6_Utnc_LM~>
,
776 786.5 15.5 0 P
1880 786.5 -15.5 0 P
776 849.5 15.5 0 P
1880 849.5 -15.5 0 P
776 882 15.5 0 P
1880 882 -15.5 0 P
776 897.5 31.5 0 P
1880 897.5 -31.5 0 P
752 897.5 S
685 885 3U ,
708 884 6U ,
730 884 6U ,
776 945 15.5 0 P
1880 945 -15.5 0 P
776 1008 15.5 0 P
1880 1008 -15.5 0 P
776 1040.5 15.5 0 P
1880 1040.5 -15.5 0 P
776 1056 31.5 0 P
1880 1056 -31.5 0 P
752 1056 S
663 1043 3U ,
685 1042 6U ,
708 1042 6U ,
730 1042 6U ,
776 1104 15.5 0 P
1880 1104 -15.5 0 P
776 1167 15.5 0 P
1880 1167 -15.5 0 P
776 1199.5 15.5 0 P
1880 1199.5 -15.5 0 P
776 1214.5 31.5 0 P
1880 1214.5 -31.5 0 P
752 1214.5 S
641 1202 3U ,
663 1201 6U ,
685 1201 6U ,
708 1201 6U ,
730 1201 6U ,
776 1262.5 15.5 0 P
1880 1262.5 -15.5 0 P
776 1325.5 15.5 0 P
1880 1325.5 -15.5 0 P
776 1358 15.5 0 P
1880 1358 -15.5 0 P
776 1373.5 31.5 0 P
1880 1373.5 -31.5 0 P
752 1373.5 S
619 1361 3U ,
641 1360 6U ,
663 1360 6U ,
685 1360 6U ,
708 1360 6U ,
730 1360 6U ,
776 1421 15.5 0 P
1880 1421 -15.5 0 P
776 1484 15.5 0 P
1880 1484 -15.5 0 P
776 1516.5 15.5 0 P
1880 1516.5 -15.5 0 P
776 1532 31.5 0 P
1880 1532 -31.5 0 P
752 1532 S
640 1519 3U ,
662 1518 21 23 /3Y
$C
1E7P%d6)YL8\`[qneo\fjs0j!?2$u#-"F0QK`~>
,
684 1519 21 19 /6Y
$C
-bo]]/fFSYs8Vu~>
,
708 1518 6U ,
730 1518 20 29 /4C
$C
1FPQ<U3Q=d-e7Y"s8AeG%4ldp0#HXsnoio)>?_hW(f1~>
,
776 580 0 31.5 P
776 1532 0 -31.5 P
776 540 S
770 527 3U ,
887 580 0 15.5 P
887 1532 0 -15.5 P
951.5 580 0 15.5 P
951.5 1532 0 -15.5 P
997.5 580 0 15.5 P
997.5 1532 0 -15.5 P
1033 580 0 15.5 P
1033 1532 0 -15.5 P
1062.5 580 0 15.5 P
1062.5 1532 0 -15.5 P
1087 580 0 15.5 P
1087 1532 0 -15.5 P
1108.5 580 0 15.5 P
1108.5 1532 0 -15.5 P
1127 580 0 15.5 P
1127 1532 0 -15.5 P
1144 580 0 31.5 P
1144 1532 0 -31.5 P
1144 540 S
1127 527 3U ,
1150 526 6U ,
1255 580 0 15.5 P
1255 1532 0 -15.5 P
1319.5 580 0 15.5 P
1319.5 1532 0 -15.5 P
1365.5 580 0 15.5 P
1365.5 1532 0 -15.5 P
1401 580 0 15.5 P
1401 1532 0 -15.5 P
1430.5 580 0 15.5 P
1430.5 1532 0 -15.5 P
1455 580 0 15.5 P
1455 1532 0 -15.5 P
1476.5 580 0 15.5 P
1476.5 1532 0 -15.5 P
1495 580 0 15.5 P
1495 1532 0 -15.5 P
1512 580 0 31.5 P
1512 1532 0 -31.5 P
1512 540 S
1484 527 3U ,
1506 526 6U ,
1529 526 6U ,
1623 580 0 15.5 P
1623 1532 0 -15.5 P
1687.5 580 0 15.5 P
1687.5 1532 0 -15.5 P
1733.5 580 0 15.5 P
1733.5 1532 0 -15.5 P
1769 580 0 15.5 P
1769 1532 0 -15.5 P
1798.5 580 0 15.5 P
1798.5 1532 0 -15.5 P
1823 580 0 15.5 P
1823 1532 0 -15.5 P
1844.5 580 0 15.5 P
1844.5 1532 0 -15.5 P
1863 580 0 15.5 P
1863 1532 0 -15.5 P
1880 580 0 31.5 P
1880 1532 0 -31.5 P
1880 540 S
1841 527 3U ,
1863 526 6U ,
1886 526 6U ,
1908 526 6U ,
776 580 1104 952 re
S
2.5 w
776 1157.25 0 31.5 S
760.25 1173 31.5 0 S
887 1419.25 0 31.5 S
871.25 1435 31.5 0 S
951.5 1436.25 0 31.5 S
935.75 1452 31.5 0 S
997.5 1433.75 0 31.5 S
981.75 1449.5 31.5 0 S
1033 1426.25 0 31.5 S
1017.25 1442 31.5 0 S
1062.5 1415.75 0 31.5 S
1046.75 1431.5 31.5 0 S
1087 1401.75 0 31.5 S
1071.25 1417.5 31.5 0 S
1108.5 1387.25 0 31.5 S
1092.75 1403 31.5 0 S
1127 1372.75 0 31.5 S
1111.25 1388.5 31.5 0 S
1144 1359.25 0 31.5 S
1128.25 1375 31.5 0 S
1159 1345.75 0 31.5 S
1143.25 1361.5 31.5 0 S
1173 1331.25 0 31.5 S
1157.25 1347 31.5 0 S
1186 1317.75 0 31.5 S
1170.25 1333.5 31.5 0 S
1198 1305.25 0 31.5 S
1182.25 1321 31.5 0 S
1209 1291.25 0 31.5 S
1193.25 1307 31.5 0 S
1219 1278.75 0 31.5 S
1203.25 1294.5 31.5 0 S
1229 1267.75 0 31.5 S
1213.25 1283.5 31.5 0 S
1238 1255.75 0 31.5 S
1222.25 1271.5 31.5 0 S
1246.5 1244.75 0 31.5 S
1230.75 1260.5 31.5 0 S
1255 1233.75 0 31.5 S
1239.25 1249.5 31.5 0 S
1262.5 1223.75 0 31.5 S
1246.75 1239.5 31.5 0 S
1270 1215.25 0 31.5 S
1254.25 1231 31.5 0 S
1277 1206.25 0 31.5 S
1261.25 1222 31.5 0 S
1284 1197.25 0 31.5 S
1268.25 1213 31.5 0 S
1290.5 1188.25 0 31.5 S
1274.75 1204 31.5 0 S
1296.5 1179.75 0 31.5 S
1280.75 1195.5 31.5 0 S
1302.5 1175.25 0 31.5 S
1286.75 1191 31.5 0 S
1308.5 1165.75 0 31.5 S
1292.75 1181.5 31.5 0 S
1314 1161.25 0 31.5 S
1298.25 1177 31.5 0 S
1319.5 1152.75 0 31.5 S
1303.75 1168.5 31.5 0 S
1325 1149.75 0 31.5 S
1309.25 1165.5 31.5 0 S
1330 1144.25 0 31.5 S
1314.25 1160 31.5 0 S
1335 1142.75 0 31.5 S
1319.25 1158.5 31.5 0 S
1339.5 1131.25 0 31.5 S
1323.75 1147 31.5 0 S
1344 1131.25 0 31.5 S
1328.25 1147 31.5 0 S
1348.5 1126.25 0 31.5 S
1332.75 1142 31.5 0 S
1353 1120.25 0 31.5 S
1337.25 1136 31.5 0 S
1357.5 1115.75 0 31.5 S
1341.75 1131.5 31.5 0 S
1361.5 1106.75 0 31.5 S
1345.75 1122.5 31.5 0 S
1365.5 1105.75 0 31.5 S
1349.75 1121.5 31.5 0 S
1369.5 1099.75 0 31.5 S
1353.75 1115.5 31.5 0 S
1373.5 1091.75 0 31.5 S
1357.75 1107.5 31.5 0 S
1377 1087.25 0 31.5 S
1361.25 1103 31.5 0 S
1381 1077.25 0 31.5 S
1365.25 1093 31.5 0 S
1384.5 1073.25 0 31.5 S
1368.75 1089 31.5 0 S
1388 1060.25 0 31.5 S
1372.25 1076 31.5 0 S
1391.5 1054.75 0 31.5 S
1375.75 1070.5 31.5 0 S
1394.5 1050.75 0 31.5 S
1378.75 1066.5 31.5 0 S
1398 1042.75 0 31.5 S
1382.25 1058.5 31.5 0 S
1401 1040.25 0 31.5 S
1385.25 1056 31.5 0 S
1404.5 1030.25 0 31.5 S
1388.75 1046 31.5 0 S
1407.5 1021.75 0 31.5 S
1391.75 1037.5 31.5 0 S
1410.5 1013.75 0 31.5 S
1394.75 1029.5 31.5 0 S
1413.5 1008.75 0 31.5 S
1397.75 1024.5 31.5 0 S
1416.5 1006.25 0 31.5 S
1400.75 1022 31.5 0 S
1419.5 1002.25 0 31.5 S
1403.75 1018 31.5 0 S
1422 999.75 0 31.5 S
1406.25 1015.5 31.5 0 S
1425 987.75 0 31.5 S
1409.25 1003.5 31.5 0 S
1427.5 982.75 0 31.5 S
1411.75 998.5 31.5 0 S
1430.5 969.25 0 31.5 S
1414.75 985 31.5 0 S
1433 966.25 0 31.5 S
1417.25 982 31.5 0 S
1435.5 958.25 0 31.5 S
1419.75 974 31.5 0 S
1438 944.25 0 31.5 S
1422.25 960 31.5 0 S
1440.5 931.25 0 31.5 S
1424.75 947 31.5 0 S
1443 926.25 0 31.5 S
1427.25 942 31.5 0 S
1445.5 912.25 0 31.5 S
1429.75 928 31.5 0 S
1448 905.75 0 31.5 S
1432.25 921.5 31.5 0 S
1450.5 887.75 0 31.5 S
1434.75 903.5 31.5 0 S
1452.5 878.75 0 31.5 S
1436.75 894.5 31.5 0 S
1455 875.25 0 31.5 S
1439.25 891 31.5 0 S
1457.5 875.25 0 31.5 S
1441.75 891 31.5 0 S
1459.5 876.75 0 31.5 S
1443.75 892.5 31.5 0 S
1461.5 863.75 0 31.5 S
1445.75 879.5 31.5 0 S
1464 863.75 0 31.5 S
1448.25 879.5 31.5 0 S
1466 847.75 0 31.5 S
1450.25 863.5 31.5 0 S
1468 835.25 0 31.5 S
1452.25 851 31.5 0 S
1470 811.25 0 31.5 S
1454.25 827 31.5 0 S
1472.5 809.25 0 31.5 S
1456.75 825 31.5 0 S
1474.5 783.25 0 31.5 S
1458.75 799 31.5 0 S
1476.5 783.25 0 31.5 S
1460.75 799 31.5 0 S
1478.5 767.25 0 31.5 S
1462.75 783 31.5 0 S
1480.5 767.25 0 31.5 S
1464.75 783 31.5 0 S
1482 715.75 0 31.5 S
1466.25 731.5 31.5 0 S
1484 740.75 0 31.5 S
1468.25 756.5 31.5 0 S
1486 707.75 0 31.5 S
1470.25 723.5 31.5 0 S
1488 715.75 0 31.5 S
1472.25 731.5 31.5 0 S
1489.5 659.75 0 31.5 S
1473.75 675.5 31.5 0 S
1491.5 687.75 0 31.5 S
1475.75 703.5 31.5 0 S
1493.5 659.75 0 31.5 S
1477.75 675.5 31.5 0 S
1495 981.75 0 31.5 S
1479.25 997.5 31.5 0 S
1497 750.75 0 31.5 S
1481.25 766.5 31.5 0 S
1498.5 612.25 0 31.5 S
1482.75 628 31.5 0 S
1500.5 612.25 0 31.5 S
1484.75 628 31.5 0 S
1502 675.25 0 31.5 S
1486.25 691 31.5 0 S
1504 639.75 0 31.5 S
1488.25 655.5 31.5 0 S
1505.5 564.25 0 31.5 S
1489.75 580 31.5 0 S
1507 659.75 0 31.5 S
1491.25 675.5 31.5 0 S
1509 612.25 0 31.5 S
1493.25 628 31.5 0 S
1510.5 564.25 0 31.5 S
1494.75 580 31.5 0 S
1512 564.25 0 31.5 S
1496.25 580 31.5 0 S
1518.5 564.25 0 31.5 S
1502.75 580 31.5 0 S
1521.5 612.25 0 31.5 S
1505.75 628 31.5 0 S
1523 564.25 0 31.5 S
1507.25 580 31.5 0 S
1527 564.25 0 31.5 S
1511.25 580 31.5 0 S
1582 943.75 0 31.5 S
1566.25 959.5 31.5 0 S
1583 803.25 0 31.5 S
1567.25 819 31.5 0 S
1584 750.75 0 31.5 S
1568.25 766.5 31.5 0 S
1585 687.75 0 31.5 S
1569.25 703.5 31.5 0 S
1586 675.25 0 31.5 S
1570.25 691 31.5 0 S
1587 639.75 0 31.5 S
1571.25 655.5 31.5 0 S
1597 909.25 0 31.5 S
1581.25 925 31.5 0 S
1597.5 755.25 0 31.5 S
1581.75 771 31.5 0 S
1598.5 659.75 0 31.5 S
1582.75 675.5 31.5 0 S
1614.5 918.75 0 31.5 S
1598.75 934.5 31.5 0 S
1615.5 774.25 0 31.5 S
1599.75 790 31.5 0 S
1616.5 989.25 0 31.5 S
1600.75 1005 31.5 0 S
1617 862.75 0 31.5 S
1601.25 878.5 31.5 0 S
1618 750.75 0 31.5 S
1602.25 766.5 31.5 0 S
1618.5 659.75 0 31.5 S
1602.75 675.5 31.5 0 S
1619.5 612.25 0 31.5 S
1603.75 628 31.5 0 S
5 w
776 580 1104 952 re
S
cleartomark end end pagesave restore
 showpage
%%PageTrailer
%%Trailer
%%Pages: 1
