%!PS-Adobe-3.0 EPSF-3.0
%%BoundingBox: 61 52 191 155
%%HiResBoundingBox: 61.500000 52.600000 190.600000 154.700000
%.....................................
%%Creator: GPL Ghostscript 871 (epswrite)
%%CreationDate: 2012/01/28 17:04:50
%%DocumentData: Clean7Bit
%%LanguageLevel: 2
%%EndComments
%%BeginProlog
% This copyright applies to everything between here and the %%EndProlog:
% Copyright (C) 2010 Artifex Software, Inc.  All rights reserved.
%%BeginResource: procset GS_epswrite_2_0_1001 1.001 0
/GS_epswrite_2_0_1001 80 dict dup begin
/PageSize 2 array def/setpagesize{ PageSize aload pop 3 index eq exch
4 index eq and{ pop pop pop}{ PageSize dup  1
5 -1 roll put 0 4 -1 roll put dup null eq {false} {dup where} ifelse{ exch get exec}
{ pop/setpagedevice where
{ pop 1 dict dup /PageSize PageSize put setpagedevice}
{ /setpage where{ pop PageSize aload pop pageparams 3 {exch pop} repeat
setpage}if}ifelse}ifelse}ifelse} bind def
/!{bind def}bind def/#{load def}!/N/counttomark #
/rG{3{3 -1 roll 255 div}repeat setrgbcolor}!/G{255 div setgray}!/K{0 G}!
/r6{dup 3 -1 roll rG}!/r5{dup 3 1 roll rG}!/r3{dup rG}!
/w/setlinewidth #/J/setlinecap #
/j/setlinejoin #/M/setmiterlimit #/d/setdash #/i/setflat #
/m/moveto #/l/lineto #/c/rcurveto #
/p{N 2 idiv{N -2 roll rlineto}repeat}!
/P{N 0 gt{N -2 roll moveto p}if}!
/h{p closepath}!/H{P closepath}!
/lx{0 rlineto}!/ly{0 exch rlineto}!/v{0 0 6 2 roll c}!/y{2 copy c}!
/re{4 -2 roll m exch dup lx exch ly neg lx h}!
/^{3 index neg 3 index neg}!
/f{P fill}!/f*{P eofill}!/s{H stroke}!/S{P stroke}!
/q/gsave #/Q/grestore #/rf{re fill}!
/Y{P clip newpath}!/Y*{P eoclip newpath}!/rY{re Y}!
/|={pop exch 4 1 roll 1 array astore cvx 3 array astore cvx exch 1 index def exec}!
/|{exch string readstring |=}!
/+{dup type/nametype eq{2 index 7 add -3 bitshift 2 index mul}if}!
/@/currentfile #/${+ @ |}!
/B{{2 copy string{readstring pop}aload pop 4 array astore cvx
3 1 roll}repeat pop pop true}!
/Ix{[1 0 0 1 11 -2 roll exch neg exch neg]exch}!
/,{true exch Ix imagemask}!/If{false exch Ix imagemask}!/I{exch Ix image}!
/Ic{exch Ix false 3 colorimage}!
/F{/Columns counttomark 3 add -2 roll/Rows exch/K -1/BlackIs1 true>>
/CCITTFaxDecode filter}!/FX{<</EndOfBlock false F}!
/X{/ASCII85Decode filter}!/@X{@ X}!/&2{2 index 2 index}!
/@F{@ &2<<F}!/@C{@X &2 FX}!
/$X{+ @X |}!/&4{4 index 4 index}!/$F{+ @ &4<<F |}!/$C{+ @X &4 FX |}!
/IC{3 1 roll 10 dict begin 1{/ImageType/Interpolate/Decode/DataSource
/ImageMatrix/BitsPerComponent/Height/Width}{exch def}forall
currentdict end image}!
/~{@ read {pop} if}!
end def
%%EndResource
/pagesave null def
%%EndProlog
%%Page: 1 1
%%BeginPageSetup
GS_epswrite_2_0_1001 begin
/pagesave save store 197 dict begin
0.1 0.1 scale
%%EndPageSetup
gsave mark
Q q
0 0 250000 250000 re
Y
5 w
K
728 580 31.5 0 P
1880 580 -31.5 0 P
704 580 S
682 566 20 29 /3U
$C
1FPQ<U3?$Yf(B"@-NF,Gs8VI:s4Z>6_Utnc_LM~>
,
728 716 31.5 0 P
1880 716 -31.5 0 P
704 716 S
637 702 20 29 /6U
$C
4ubjWU3Po,o_Rk*s6<n@f%<V1R!%%dIdd8'"9&~>
,
660 702 3U ,
682 702 3U ,
728 852 31.5 0 P
1880 852 -31.5 0 P
704 852 S
615 839 14 28 /3Y
$X
!#ttY!#ttY!#ttY!#ttY!#ttY!#ttY!#ttY!#ttY!#ttY!#ttY&,Zt9#Q+RL!'C6$!#ttY~>
,
637 838 3U ,
660 838 3U ,
682 838 3U ,
728 988 31.5 0 P
1880 988 -31.5 0 P
704 988 S
615 975 3Y ,
637 974 6U ,
660 974 3U ,
682 974 3U ,
728 1124 31.5 0 P
1880 1124 -31.5 0 P
704 1124 S
615 1111 20 28 /6Y
$C
,DLX/f)<4*G2\3b_f4BiDYnJCs)k]M28qoi(f1~>
,
637 1110 3U ,
660 1110 3U ,
682 1110 3U ,
728 1260 31.5 0 P
1880 1260 -31.5 0 P
704 1260 S
615 1247 6Y ,
637 1246 6U ,
660 1246 3U ,
682 1246 3U ,
728 1396 31.5 0 P
1880 1396 -31.5 0 P
704 1396 S
615 1382 20 29 /4C
$C
4ubjTFAK95e*4:<I;0O20"3!o2gKcMpY@AS[OTc\TE~>
,
637 1382 3U ,
660 1382 3U ,
682 1382 3U ,
728 1532 31.5 0 P
1880 1532 -31.5 0 P
704 1532 S
615 1518 4C ,
637 1518 6U ,
660 1518 3U ,
682 1518 3U ,
728 580 0 31.5 P
728 1532 0 -31.5 P
728 540 S
722 526 3U ,
856 580 0 31.5 P
856 1532 0 -31.5 P
856 540 S
850 526 6U ,
984 580 0 31.5 P
984 1532 0 -31.5 P
984 540 S
967 527 3Y ,
990 526 3U ,
1112 580 0 31.5 P
1112 1532 0 -31.5 P
1112 540 S
1095 527 3Y ,
1118 526 6U ,
1240 580 0 31.5 P
1240 1532 0 -31.5 P
1240 540 S
1223 527 6Y ,
1246 526 3U ,
1368 580 0 31.5 P
1368 1532 0 -31.5 P
1368 540 S
1351 527 6Y ,
1374 526 6U ,
1496 580 0 31.5 P
1496 1532 0 -31.5 P
1496 540 S
1479 526 4C ,
1502 526 3U ,
1624 580 0 31.5 P
1624 1532 0 -31.5 P
1624 540 S
1607 526 4C ,
1630 526 6U ,
1752 580 0 31.5 P
1752 1532 0 -31.5 P
1752 540 S
1735 527 21 28 /7C
$C
+lE=tNZ()dc&_>&hm`'`hqr@eA,!aN~>
,
1758 526 3U ,
1880 580 0 31.5 P
1880 1532 0 -31.5 P
1880 540 S
1863 527 7C ,
1886 526 6U ,
728 580 1152 952 re
S
2.5 w
779 1510.25 0 31.5 S
763.25 1526 31.5 0 S
881.5 1509.75 0 31.5 S
865.75 1525.5 31.5 0 S
907 1507.75 0 31.5 S
891.25 1523.5 31.5 0 S
933 1491.75 0 31.5 S
917.25 1507.5 31.5 0 S
958.5 1454.25 0 31.5 S
942.75 1470 31.5 0 S
984 1389.75 0 31.5 S
968.25 1405.5 31.5 0 S
1009.5 1308.25 0 31.5 S
993.75 1324 31.5 0 S
1035 1216.25 0 31.5 S
1019.25 1232 31.5 0 S
1061 1124.75 0 31.5 S
1045.25 1140.5 31.5 0 S
1086.5 1041.25 0 31.5 S
1070.75 1057 31.5 0 S
1112 959.25 0 31.5 S
1096.25 975 31.5 0 S
1137.5 878.75 0 31.5 S
1121.75 894.5 31.5 0 S
1163 807.75 0 31.5 S
1147.25 823.5 31.5 0 S
1189 753.25 0 31.5 S
1173.25 769 31.5 0 S
1214.5 701.25 0 31.5 S
1198.75 717 31.5 0 S
1240 657.25 0 31.5 S
1224.25 673 31.5 0 S
1265.5 627.25 0 31.5 S
1249.75 643 31.5 0 S
1291 601.25 0 31.5 S
1275.25 617 31.5 0 S
1317 588.25 0 31.5 S
1301.25 604 31.5 0 S
1342.5 578.25 0 31.5 S
1326.75 594 31.5 0 S
1368 574.25 0 31.5 S
1352.25 590 31.5 0 S
1393.5 571.75 0 31.5 S
1377.75 587.5 31.5 0 S
1419 569.25 0 31.5 S
1403.25 585 31.5 0 S
1445 567.75 0 31.5 S
1429.25 583.5 31.5 0 S
1470.5 566.75 0 31.5 S
1454.75 582.5 31.5 0 S
1573 566.25 0 31.5 S
1557.25 582 31.5 0 S
1598.5 565.75 0 31.5 S
1582.75 581.5 31.5 0 S
1624 565.25 0 31.5 S
1608.25 581 31.5 0 S
1649.5 565.25 0 31.5 S
1633.75 581 31.5 0 S
1675 564.75 0 31.5 S
1659.25 580.5 31.5 0 S
1701 564.75 0 31.5 S
1685.25 580.5 31.5 0 S
1803 564.25 0 31.5 S
1787.25 580 31.5 0 S
5 w
728 580 1152 952 re
S
cleartomark end end pagesave restore
 showpage
%%PageTrailer
%%Trailer
%%Pages: 1
