%!PS-Adobe-3.0 EPSF-3.0
%%BoundingBox: 61 52 192 155
%%HiResBoundingBox: 61.900000 52.600000 191.700000 154.700000
%.....................................
%%Creator: GPL Ghostscript 871 (epswrite)
%%CreationDate: 2012/01/28 17:04:51
%%DocumentData: Clean7Bit
%%LanguageLevel: 2
%%EndComments
%%BeginProlog
% This copyright applies to everything between here and the %%EndProlog:
% Copyright (C) 2010 Artifex Software, Inc.  All rights reserved.
%%BeginResource: procset GS_epswrite_2_0_1001 1.001 0
/GS_epswrite_2_0_1001 80 dict dup begin
/PageSize 2 array def/setpagesize{ PageSize aload pop 3 index eq exch
4 index eq and{ pop pop pop}{ PageSize dup  1
5 -1 roll put 0 4 -1 roll put dup null eq {false} {dup where} ifelse{ exch get exec}
{ pop/setpagedevice where
{ pop 1 dict dup /PageSize PageSize put setpagedevice}
{ /setpage where{ pop PageSize aload pop pageparams 3 {exch pop} repeat
setpage}if}ifelse}ifelse}ifelse} bind def
/!{bind def}bind def/#{load def}!/N/counttomark #
/rG{3{3 -1 roll 255 div}repeat setrgbcolor}!/G{255 div setgray}!/K{0 G}!
/r6{dup 3 -1 roll rG}!/r5{dup 3 1 roll rG}!/r3{dup rG}!
/w/setlinewidth #/J/setlinecap #
/j/setlinejoin #/M/setmiterlimit #/d/setdash #/i/setflat #
/m/moveto #/l/lineto #/c/rcurveto #
/p{N 2 idiv{N -2 roll rlineto}repeat}!
/P{N 0 gt{N -2 roll moveto p}if}!
/h{p closepath}!/H{P closepath}!
/lx{0 rlineto}!/ly{0 exch rlineto}!/v{0 0 6 2 roll c}!/y{2 copy c}!
/re{4 -2 roll m exch dup lx exch ly neg lx h}!
/^{3 index neg 3 index neg}!
/f{P fill}!/f*{P eofill}!/s{H stroke}!/S{P stroke}!
/q/gsave #/Q/grestore #/rf{re fill}!
/Y{P clip newpath}!/Y*{P eoclip newpath}!/rY{re Y}!
/|={pop exch 4 1 roll 1 array astore cvx 3 array astore cvx exch 1 index def exec}!
/|{exch string readstring |=}!
/+{dup type/nametype eq{2 index 7 add -3 bitshift 2 index mul}if}!
/@/currentfile #/${+ @ |}!
/B{{2 copy string{readstring pop}aload pop 4 array astore cvx
3 1 roll}repeat pop pop true}!
/Ix{[1 0 0 1 11 -2 roll exch neg exch neg]exch}!
/,{true exch Ix imagemask}!/If{false exch Ix imagemask}!/I{exch Ix image}!
/Ic{exch Ix false 3 colorimage}!
/F{/Columns counttomark 3 add -2 roll/Rows exch/K -1/BlackIs1 true>>
/CCITTFaxDecode filter}!/FX{<</EndOfBlock false F}!
/X{/ASCII85Decode filter}!/@X{@ X}!/&2{2 index 2 index}!
/@F{@ &2<<F}!/@C{@X &2 FX}!
/$X{+ @X |}!/&4{4 index 4 index}!/$F{+ @ &4<<F |}!/$C{+ @X &4 FX |}!
/IC{3 1 roll 10 dict begin 1{/ImageType/Interpolate/Decode/DataSource
/ImageMatrix/BitsPerComponent/Height/Width}{exch def}forall
currentdict end image}!
/~{@ read {pop} if}!
end def
%%EndResource
/pagesave null def
%%EndProlog
%%Page: 1 1
%%BeginPageSetup
GS_epswrite_2_0_1001 begin
/pagesave save store 197 dict begin
0.1 0.1 scale
%%EndPageSetup
gsave mark
Q q
0 0 250000 250000 re
Y
5 w
K
776 580 31.5 0 P
1880 580 -31.5 0 P
752 580 S
730 567 14 28 /3U
$X
!#ttY!#ttY!#ttY!#ttY!#ttY!#ttY!#ttY!#ttY!#ttY!#ttY&,Zt9#Q+RL!'C6$!#ttY~>
,
776 628 15.5 0 P
1880 628 -15.5 0 P
776 691 15.5 0 P
1880 691 -15.5 0 P
776 723.5 15.5 0 P
1880 723.5 -15.5 0 P
776 738.5 31.5 0 P
1880 738.5 -31.5 0 P
752 738.5 S
708 726 3U ,
730 725 20 29 /6U
$C
1FPQ<U3?$Yf(B"@-NF,Gs8VI:s4Z>6_Utnc_LM~>
,
776 786.5 15.5 0 P
1880 786.5 -15.5 0 P
776 849.5 15.5 0 P
1880 849.5 -15.5 0 P
776 882 15.5 0 P
1880 882 -15.5 0 P
776 897.5 31.5 0 P
1880 897.5 -31.5 0 P
752 897.5 S
685 885 3U ,
708 884 6U ,
730 884 6U ,
776 945 15.5 0 P
1880 945 -15.5 0 P
776 1008 15.5 0 P
1880 1008 -15.5 0 P
776 1040.5 15.5 0 P
1880 1040.5 -15.5 0 P
776 1056 31.5 0 P
1880 1056 -31.5 0 P
752 1056 S
663 1043 3U ,
685 1042 6U ,
708 1042 6U ,
730 1042 6U ,
776 1104 15.5 0 P
1880 1104 -15.5 0 P
776 1167 15.5 0 P
1880 1167 -15.5 0 P
776 1199.5 15.5 0 P
1880 1199.5 -15.5 0 P
776 1214.5 31.5 0 P
1880 1214.5 -31.5 0 P
752 1214.5 S
641 1202 3U ,
663 1201 6U ,
685 1201 6U ,
708 1201 6U ,
730 1201 6U ,
776 1262.5 15.5 0 P
1880 1262.5 -15.5 0 P
776 1325.5 15.5 0 P
1880 1325.5 -15.5 0 P
776 1358 15.5 0 P
1880 1358 -15.5 0 P
776 1373.5 31.5 0 P
1880 1373.5 -31.5 0 P
752 1373.5 S
619 1361 3U ,
641 1360 6U ,
663 1360 6U ,
685 1360 6U ,
708 1360 6U ,
730 1360 6U ,
776 1421 15.5 0 P
1880 1421 -15.5 0 P
776 1484 15.5 0 P
1880 1484 -15.5 0 P
776 1516.5 15.5 0 P
1880 1516.5 -15.5 0 P
776 1532 31.5 0 P
1880 1532 -31.5 0 P
752 1532 S
640 1519 3U ,
662 1518 21 23 /3Y
$C
1E7P%d6)YL8\`[qneo\fjs0j!?2$u#-"F0QK`~>
,
684 1519 21 19 /6Y
$C
-bo]]/fFSYs8Vu~>
,
708 1518 6U ,
730 1518 20 29 /4C
$C
1FPQ<U3Q=d-e7Y"s8AeG%4ldp0#HXsnoio)>?_hW(f1~>
,
776 580 0 31.5 P
776 1532 0 -31.5 P
776 540 S
770 527 3U ,
942 580 0 15.5 P
942 1532 0 -15.5 P
1039.5 580 0 15.5 P
1039.5 1532 0 -15.5 P
1108.5 580 0 15.5 P
1108.5 1532 0 -15.5 P
1162 580 0 15.5 P
1162 1532 0 -15.5 P
1205.5 580 0 15.5 P
1205.5 1532 0 -15.5 P
1242.5 580 0 15.5 P
1242.5 1532 0 -15.5 P
1274.5 580 0 15.5 P
1274.5 1532 0 -15.5 P
1302.5 580 0 15.5 P
1302.5 1532 0 -15.5 P
1328 580 0 31.5 P
1328 1532 0 -31.5 P
1328 540 S
1311 527 3U ,
1334 526 6U ,
1494 580 0 15.5 P
1494 1532 0 -15.5 P
1591.5 580 0 15.5 P
1591.5 1532 0 -15.5 P
1660.5 580 0 15.5 P
1660.5 1532 0 -15.5 P
1714 580 0 15.5 P
1714 1532 0 -15.5 P
1757.5 580 0 15.5 P
1757.5 1532 0 -15.5 P
1794.5 580 0 15.5 P
1794.5 1532 0 -15.5 P
1826.5 580 0 15.5 P
1826.5 1532 0 -15.5 P
1854.5 580 0 15.5 P
1854.5 1532 0 -15.5 P
1880 580 0 31.5 P
1880 1532 0 -31.5 P
1880 540 S
1852 527 3U ,
1874 526 6U ,
1897 526 6U ,
776 580 1104 952 re
S
2.5 w
776 1495.75 0 31.5 S
760.25 1511.5 31.5 0 S
942 1486.25 0 31.5 S
926.25 1502 31.5 0 S
1039.5 1453.75 0 31.5 S
1023.75 1469.5 31.5 0 S
1108.5 1425.25 0 31.5 S
1092.75 1441 31.5 0 S
1162 1386.75 0 31.5 S
1146.25 1402.5 31.5 0 S
1205.5 1353.25 0 31.5 S
1189.75 1369 31.5 0 S
1242.5 1320.25 0 31.5 S
1226.75 1336 31.5 0 S
1274.5 1289.75 0 31.5 S
1258.75 1305.5 31.5 0 S
1302.5 1260.25 0 31.5 S
1286.75 1276 31.5 0 S
1328 1231.75 0 31.5 S
1312.25 1247.5 31.5 0 S
1351 1205.25 0 31.5 S
1335.25 1221 31.5 0 S
1371.5 1180.25 0 31.5 S
1355.75 1196 31.5 0 S
1391 1160.75 0 31.5 S
1375.25 1176.5 31.5 0 S
1408.5 1143.25 0 31.5 S
1392.75 1159 31.5 0 S
1425 1129.25 0 31.5 S
1409.25 1145 31.5 0 S
1440.5 1116.75 0 31.5 S
1424.75 1132.5 31.5 0 S
1455 1106.75 0 31.5 S
1439.25 1122.5 31.5 0 S
1469 1092.25 0 31.5 S
1453.25 1108 31.5 0 S
1482 1080.75 0 31.5 S
1466.25 1096.5 31.5 0 S
1494 1066.25 0 31.5 S
1478.25 1082 31.5 0 S
1506 1048.75 0 31.5 S
1490.25 1064.5 31.5 0 S
1517 1035.75 0 31.5 S
1501.25 1051.5 31.5 0 S
1527.5 1025.75 0 31.5 S
1511.75 1041.5 31.5 0 S
1538 1014.75 0 31.5 S
1522.25 1030.5 31.5 0 S
1547.5 999.75 0 31.5 S
1531.75 1015.5 31.5 0 S
1557 993.25 0 31.5 S
1541.25 1009 31.5 0 S
1566 985.25 0 31.5 S
1550.25 1001 31.5 0 S
1575 975.25 0 31.5 S
1559.25 991 31.5 0 S
1583 975.75 0 31.5 S
1567.25 991.5 31.5 0 S
1591.5 967.75 0 31.5 S
1575.75 983.5 31.5 0 S
1599 966.25 0 31.5 S
1583.25 982 31.5 0 S
1607 949.25 0 31.5 S
1591.25 965 31.5 0 S
1614 955.75 0 31.5 S
1598.25 971.5 31.5 0 S
1621.5 938.75 0 31.5 S
1605.75 954.5 31.5 0 S
1628.5 935.25 0 31.5 S
1612.75 951 31.5 0 S
1635 918.75 0 31.5 S
1619.25 934.5 31.5 0 S
1641.5 908.75 0 31.5 S
1625.75 924.5 31.5 0 S
1648 892.25 0 31.5 S
1632.25 908 31.5 0 S
1654.5 884.75 0 31.5 S
1638.75 900.5 31.5 0 S
1660.5 870.25 0 31.5 S
1644.75 886 31.5 0 S
1666.5 844.25 0 31.5 S
1650.75 860 31.5 0 S
1672 840.25 0 31.5 S
1656.25 856 31.5 0 S
1677.5 831.25 0 31.5 S
1661.75 847 31.5 0 S
1683 813.25 0 31.5 S
1667.25 829 31.5 0 S
1688.5 774.25 0 31.5 S
1672.75 790 31.5 0 S
1694 800.75 0 31.5 S
1678.25 816.5 31.5 0 S
1699 793.75 0 31.5 S
1683.25 809.5 31.5 0 S
1704 767.25 0 31.5 S
1688.25 783 31.5 0 S
1709 755.25 0 31.5 S
1693.25 771 31.5 0 S
1714 763.25 0 31.5 S
1698.25 779 31.5 0 S
1718.5 796.25 0 31.5 S
1702.75 812 31.5 0 S
1723 735.25 0 31.5 S
1707.25 751 31.5 0 S
1728 763.25 0 31.5 S
1712.25 779 31.5 0 S
1732.5 750.75 0 31.5 S
1716.75 766.5 31.5 0 S
1736.5 698.25 0 31.5 S
1720.75 714 31.5 0 S
1741 767.25 0 31.5 S
1725.25 783 31.5 0 S
1745 715.75 0 31.5 S
1729.25 731.5 31.5 0 S
1749.5 698.25 0 31.5 S
1733.75 714 31.5 0 S
1753.5 687.75 0 31.5 S
1737.75 703.5 31.5 0 S
1757.5 675.25 0 31.5 S
1741.75 691 31.5 0 S
1761.5 564.25 0 31.5 S
1745.75 580 31.5 0 S
1765.5 675.25 0 31.5 S
1749.75 691 31.5 0 S
1769 564.25 0 31.5 S
1753.25 580 31.5 0 S
1773 675.25 0 31.5 S
1757.25 691 31.5 0 S
1776.5 612.25 0 31.5 S
1760.75 628 31.5 0 S
1780.5 659.75 0 31.5 S
1764.75 675.5 31.5 0 S
1784 564.25 0 31.5 S
1768.25 580 31.5 0 S
1787.5 675.25 0 31.5 S
1771.75 691 31.5 0 S
1791 675.25 0 31.5 S
1775.25 691 31.5 0 S
1794.5 639.75 0 31.5 S
1778.75 655.5 31.5 0 S
1798 564.25 0 31.5 S
1782.25 580 31.5 0 S
1801 687.75 0 31.5 S
1785.25 703.5 31.5 0 S
1804.5 612.25 0 31.5 S
1788.75 628 31.5 0 S
5 w
776 580 1104 952 re
S
cleartomark end end pagesave restore
 showpage
%%PageTrailer
%%Trailer
%%Pages: 1
