%!PS-Adobe-3.0 EPSF-3.0
%%BoundingBox: 69 53 267 190
%%HiResBoundingBox: 69.400000 53.900000 266.600000 189.100000
%.....................................
%%Creator: GPL Ghostscript 871 (epswrite)
%%CreationDate: 2012/01/28 17:04:49
%%DocumentData: Clean7Bit
%%LanguageLevel: 2
%%EndComments
%%BeginProlog
% This copyright applies to everything between here and the %%EndProlog:
% Copyright (C) 2010 Artifex Software, Inc.  All rights reserved.
%%BeginResource: procset GS_epswrite_2_0_1001 1.001 0
/GS_epswrite_2_0_1001 80 dict dup begin
/PageSize 2 array def/setpagesize{ PageSize aload pop 3 index eq exch
4 index eq and{ pop pop pop}{ PageSize dup  1
5 -1 roll put 0 4 -1 roll put dup null eq {false} {dup where} ifelse{ exch get exec}
{ pop/setpagedevice where
{ pop 1 dict dup /PageSize PageSize put setpagedevice}
{ /setpage where{ pop PageSize aload pop pageparams 3 {exch pop} repeat
setpage}if}ifelse}ifelse}ifelse} bind def
/!{bind def}bind def/#{load def}!/N/counttomark #
/rG{3{3 -1 roll 255 div}repeat setrgbcolor}!/G{255 div setgray}!/K{0 G}!
/r6{dup 3 -1 roll rG}!/r5{dup 3 1 roll rG}!/r3{dup rG}!
/w/setlinewidth #/J/setlinecap #
/j/setlinejoin #/M/setmiterlimit #/d/setdash #/i/setflat #
/m/moveto #/l/lineto #/c/rcurveto #
/p{N 2 idiv{N -2 roll rlineto}repeat}!
/P{N 0 gt{N -2 roll moveto p}if}!
/h{p closepath}!/H{P closepath}!
/lx{0 rlineto}!/ly{0 exch rlineto}!/v{0 0 6 2 roll c}!/y{2 copy c}!
/re{4 -2 roll m exch dup lx exch ly neg lx h}!
/^{3 index neg 3 index neg}!
/f{P fill}!/f*{P eofill}!/s{H stroke}!/S{P stroke}!
/q/gsave #/Q/grestore #/rf{re fill}!
/Y{P clip newpath}!/Y*{P eoclip newpath}!/rY{re Y}!
/|={pop exch 4 1 roll 1 array astore cvx 3 array astore cvx exch 1 index def exec}!
/|{exch string readstring |=}!
/+{dup type/nametype eq{2 index 7 add -3 bitshift 2 index mul}if}!
/@/currentfile #/${+ @ |}!
/B{{2 copy string{readstring pop}aload pop 4 array astore cvx
3 1 roll}repeat pop pop true}!
/Ix{[1 0 0 1 11 -2 roll exch neg exch neg]exch}!
/,{true exch Ix imagemask}!/If{false exch Ix imagemask}!/I{exch Ix image}!
/Ic{exch Ix false 3 colorimage}!
/F{/Columns counttomark 3 add -2 roll/Rows exch/K -1/BlackIs1 true>>
/CCITTFaxDecode filter}!/FX{<</EndOfBlock false F}!
/X{/ASCII85Decode filter}!/@X{@ X}!/&2{2 index 2 index}!
/@F{@ &2<<F}!/@C{@X &2 FX}!
/$X{+ @X |}!/&4{4 index 4 index}!/$F{+ @ &4<<F |}!/$C{+ @X &4 FX |}!
/IC{3 1 roll 10 dict begin 1{/ImageType/Interpolate/Decode/DataSource
/ImageMatrix/BitsPerComponent/Height/Width}{exch def}forall
currentdict end image}!
/~{@ read {pop} if}!
end def
%%EndResource
/pagesave null def
%%EndProlog
%%Page: 1 1
%%BeginPageSetup
GS_epswrite_2_0_1001 begin
/pagesave save store 197 dict begin
0.1 0.1 scale
%%EndPageSetup
gsave mark
Q q
0 0 250000 250000 re
Y
5 w
K
926 620 31.5 0 P
2594 620 -31.5 0 S
861 600 17 43 /3U
$C
,Tm'ds8W-!s-F.@R>;m@If~>
,
926 695 15.5 0 P
2594 695 -15.5 0 P
926 794.5 15.5 0 P
2594 794.5 -15.5 0 P
926 845.5 15.5 0 P
2594 845.5 -15.5 0 P
926 869.5 31.5 0 P
2594 869.5 -31.5 0 S
827 850 3U ,
853 849 34 44 /6U
$C
23%r'%\5X)j2)<u^Zk'1J,ZoQs8W-!s8VJ_s8Qk\g>99H(eYmM:r7r$~>
,
926 944.5 15.5 0 P
2594 944.5 -15.5 0 P
926 1044 15.5 0 P
2594 1044 -15.5 0 P
926 1095 15.5 0 P
2594 1095 -15.5 0 P
926 1119 31.5 0 P
2594 1119 -31.5 0 S
794 1099 3U ,
819 1098 6U ,
853 1098 6U ,
926 1194.5 15.5 0 P
2594 1194.5 -15.5 0 P
926 1293.5 15.5 0 P
2594 1293.5 -15.5 0 P
926 1344.5 15.5 0 P
2594 1344.5 -15.5 0 P
926 1369 31.5 0 P
2594 1369 -31.5 0 S
761 1349 3U ,
786 1348 6U ,
819 1348 6U ,
853 1348 6U ,
926 1444 15.5 0 P
2594 1444 -15.5 0 P
926 1543.5 15.5 0 P
2594 1543.5 -15.5 0 P
926 1594 15.5 0 P
2594 1594 -15.5 0 P
926 1618.5 31.5 0 P
2594 1618.5 -31.5 0 S
727 1599 3U ,
753 1598 6U ,
786 1598 6U ,
819 1598 6U ,
853 1598 6U ,
926 1693.5 15.5 0 P
2594 1693.5 -15.5 0 P
926 1793 15.5 0 P
2594 1793 -15.5 0 P
926 1844 15.5 0 P
2594 1844 -15.5 0 P
926 1868 31.5 0 P
2594 1868 -31.5 0 S
694 1848 3U ,
719 1847 6U ,
753 1847 6U ,
786 1847 6U ,
819 1847 6U ,
853 1847 6U ,
926 620 0 31.5 P
926 1868 0 -31.5 S
922 540 3U ,
1093.5 620 0 15.5 P
1093.5 1868 0 -15.5 P
1191.5 620 0 15.5 P
1191.5 1868 0 -15.5 P
1260.5 620 0 15.5 P
1260.5 1868 0 -15.5 P
1314.5 620 0 15.5 P
1314.5 1868 0 -15.5 P
1358.5 620 0 15.5 P
1358.5 1868 0 -15.5 P
1396 620 0 15.5 P
1396 1868 0 -15.5 P
1428 620 0 15.5 P
1428 1868 0 -15.5 P
1456.5 620 0 15.5 P
1456.5 1868 0 -15.5 P
1482 620 0 31.5 P
1482 1868 0 -31.5 S
1461 540 3U ,
1486 539 6U ,
1649.5 620 0 15.5 P
1649.5 1868 0 -15.5 P
1747.5 620 0 15.5 P
1747.5 1868 0 -15.5 P
1816.5 620 0 15.5 P
1816.5 1868 0 -15.5 P
1870.5 620 0 15.5 P
1870.5 1868 0 -15.5 P
1914.5 620 0 15.5 P
1914.5 1868 0 -15.5 P
1952 620 0 15.5 P
1952 1868 0 -15.5 P
1984 620 0 15.5 P
1984 1868 0 -15.5 P
2012.5 620 0 15.5 P
2012.5 1868 0 -15.5 P
2038 620 0 31.5 P
2038 1868 0 -31.5 S
2000 540 3U ,
2026 539 6U ,
2059 539 6U ,
2205.5 620 0 15.5 P
2205.5 1868 0 -15.5 P
2303.5 620 0 15.5 P
2303.5 1868 0 -15.5 P
2372.5 620 0 15.5 P
2372.5 1868 0 -15.5 P
2426.5 620 0 15.5 P
2426.5 1868 0 -15.5 P
2470.5 620 0 15.5 P
2470.5 1868 0 -15.5 P
2508 620 0 15.5 P
2508 1868 0 -15.5 P
2540 620 0 15.5 P
2540 1868 0 -15.5 P
2568.5 620 0 15.5 P
2568.5 1868 0 -15.5 P
2594 620 0 31.5 P
2594 1868 0 -31.5 S
2540 540 3U ,
2565 539 6U ,
2598 539 6U ,
2632 539 6U ,
926 620 1668 1248 re
S
2.5 w
926 1832.75 0 31.5 S
910.25 1848.5 31.5 0 S
1093.5 1832.25 0 31.5 S
1077.75 1848 31.5 0 S
1191.5 1831.75 0 31.5 S
1175.75 1847.5 31.5 0 S
1260.5 1831.75 0 31.5 S
1244.75 1847.5 31.5 0 S
1314.5 1831.25 0 31.5 S
1298.75 1847 31.5 0 S
1358.5 1830.75 0 31.5 S
1342.75 1846.5 31.5 0 S
1396 1830.25 0 31.5 S
1380.25 1846 31.5 0 S
1428 1829.75 0 31.5 S
1412.25 1845.5 31.5 0 S
1456.5 1829.25 0 31.5 S
1440.75 1845 31.5 0 S
1482 1828.75 0 31.5 S
1466.25 1844.5 31.5 0 S
1505 1828.25 0 31.5 S
1489.25 1844 31.5 0 S
1526 1827.75 0 31.5 S
1510.25 1843.5 31.5 0 S
1545.5 1827.75 0 31.5 S
1529.75 1843.5 31.5 0 S
1563 1827.25 0 31.5 S
1547.25 1843 31.5 0 S
1580 1826.75 0 31.5 S
1564.25 1842.5 31.5 0 S
1595.5 1826.25 0 31.5 S
1579.75 1842 31.5 0 S
1610 1825.75 0 31.5 S
1594.25 1841.5 31.5 0 S
1624 1825.25 0 31.5 S
1608.25 1841 31.5 0 S
1637 1824.25 0 31.5 S
1621.25 1840 31.5 0 S
1649.5 1823.75 0 31.5 S
1633.75 1839.5 31.5 0 S
1661 1823.25 0 31.5 S
1645.25 1839 31.5 0 S
1672.5 1822.75 0 31.5 S
1656.75 1838.5 31.5 0 S
1683 1822.25 0 31.5 S
1667.25 1838 31.5 0 S
1693.5 1821.75 0 31.5 S
1677.75 1837.5 31.5 0 S
1703.5 1821.25 0 31.5 S
1687.75 1837 31.5 0 S
1712.5 1820.75 0 31.5 S
1696.75 1836.5 31.5 0 S
1722 1819.75 0 31.5 S
1706.25 1835.5 31.5 0 S
1730.5 1819.25 0 31.5 S
1714.75 1835 31.5 0 S
1739 1818.75 0 31.5 S
1723.25 1834.5 31.5 0 S
1747.5 1818.25 0 31.5 S
1731.75 1834 31.5 0 S
1755 1817.75 0 31.5 S
1739.25 1833.5 31.5 0 S
1763 1817.25 0 31.5 S
1747.25 1833 31.5 0 S
1770.5 1816.25 0 31.5 S
1754.75 1832 31.5 0 S
1777.5 1815.75 0 31.5 S
1761.75 1831.5 31.5 0 S
1784.5 1815.25 0 31.5 S
1768.75 1831 31.5 0 S
1791.5 1814.25 0 31.5 S
1775.75 1830 31.5 0 S
1798 1813.75 0 31.5 S
1782.25 1829.5 31.5 0 S
1804.5 1813.25 0 31.5 S
1788.75 1829 31.5 0 S
1810.5 1812.25 0 31.5 S
1794.75 1828 31.5 0 S
1816.5 1811.75 0 31.5 S
1800.75 1827.5 31.5 0 S
1822.5 1810.75 0 31.5 S
1806.75 1826.5 31.5 0 S
1828.5 1810.25 0 31.5 S
1812.75 1826 31.5 0 S
1834 1809.75 0 31.5 S
1818.25 1825.5 31.5 0 S
1840 1808.75 0 31.5 S
1824.25 1824.5 31.5 0 S
1845 1808.25 0 31.5 S
1829.25 1824 31.5 0 S
1850.5 1807.25 0 31.5 S
1834.75 1823 31.5 0 S
1855.5 1806.75 0 31.5 S
1839.75 1822.5 31.5 0 S
1861 1805.75 0 31.5 S
1845.25 1821.5 31.5 0 S
1865.5 1804.75 0 31.5 S
1849.75 1820.5 31.5 0 S
1870.5 1804.25 0 31.5 S
1854.75 1820 31.5 0 S
1875.5 1803.25 0 31.5 S
1859.75 1819 31.5 0 S
1880 1802.75 0 31.5 S
1864.25 1818.5 31.5 0 S
1884.5 1801.75 0 31.5 S
1868.75 1817.5 31.5 0 S
1889 1801.25 0 31.5 S
1873.25 1817 31.5 0 S
1893.5 1800.25 0 31.5 S
1877.75 1816 31.5 0 S
1898 1799.25 0 31.5 S
1882.25 1815 31.5 0 S
1902.5 1798.25 0 31.5 S
1886.75 1814 31.5 0 S
1906.5 1797.75 0 31.5 S
1890.75 1813.5 31.5 0 S
1910.5 1796.75 0 31.5 S
1894.75 1812.5 31.5 0 S
1914.5 1795.75 0 31.5 S
1898.75 1811.5 31.5 0 S
1918.5 1795.25 0 31.5 S
1902.75 1811 31.5 0 S
1922.5 1794.25 0 31.5 S
1906.75 1810 31.5 0 S
1926.5 1793.25 0 31.5 S
1910.75 1809 31.5 0 S
1930 1792.25 0 31.5 S
1914.25 1808 31.5 0 S
1934 1791.75 0 31.5 S
1918.25 1807.5 31.5 0 S
1937.5 1790.75 0 31.5 S
1921.75 1806.5 31.5 0 S
1941.5 1789.75 0 31.5 S
1925.75 1805.5 31.5 0 S
1945 1788.75 0 31.5 S
1929.25 1804.5 31.5 0 S
1948.5 1787.75 0 31.5 S
1932.75 1803.5 31.5 0 S
1952 1786.75 0 31.5 S
1936.25 1802.5 31.5 0 S
1955.5 1785.75 0 31.5 S
1939.75 1801.5 31.5 0 S
1958.5 1784.75 0 31.5 S
1942.75 1800.5 31.5 0 S
1962 1783.75 0 31.5 S
1946.25 1799.5 31.5 0 S
1965.5 1782.75 0 31.5 S
1949.75 1798.5 31.5 0 S
1968.5 1781.75 0 31.5 S
1952.75 1797.5 31.5 0 S
1971.5 1780.75 0 31.5 S
1955.75 1796.5 31.5 0 S
1975 1779.75 0 31.5 S
1959.25 1795.5 31.5 0 S
1978 1778.75 0 31.5 S
1962.25 1794.5 31.5 0 S
1981 1777.75 0 31.5 S
1965.25 1793.5 31.5 0 S
1984 1776.25 0 31.5 S
1968.25 1792 31.5 0 S
1987 1775.25 0 31.5 S
1971.25 1791 31.5 0 S
1990 1774.25 0 31.5 S
1974.25 1790 31.5 0 S
1993 1773.25 0 31.5 S
1977.25 1789 31.5 0 S
1996 1772.25 0 31.5 S
1980.25 1788 31.5 0 S
1999 1771.25 0 31.5 S
1983.25 1787 31.5 0 S
2001.5 1769.75 0 31.5 S
1985.75 1785.5 31.5 0 S
2004.5 1768.75 0 31.5 S
1988.75 1784.5 31.5 0 S
2007 1767.75 0 31.5 S
1991.25 1783.5 31.5 0 S
2010 1766.25 0 31.5 S
1994.25 1782 31.5 0 S
2012.5 1765.25 0 31.5 S
1996.75 1781 31.5 0 S
2015 1764.25 0 31.5 S
1999.25 1780 31.5 0 S
2018 1762.75 0 31.5 S
2002.25 1778.5 31.5 0 S
2020.5 1761.75 0 31.5 S
2004.75 1777.5 31.5 0 S
2023 1760.25 0 31.5 S
2007.25 1776 31.5 0 S
2025.5 1759.25 0 31.5 S
2009.75 1775 31.5 0 S
2028 1757.75 0 31.5 S
2012.25 1773.5 31.5 0 S
2030.5 1756.75 0 31.5 S
2014.75 1772.5 31.5 0 S
2033 1755.25 0 31.5 S
2017.25 1771 31.5 0 S
2035.5 1753.75 0 31.5 S
2019.75 1769.5 31.5 0 S
2038 1752.75 0 31.5 S
2022.25 1768.5 31.5 0 S
2040.5 1751.25 0 31.5 S
2024.75 1767 31.5 0 S
2043 1749.75 0 31.5 S
2027.25 1765.5 31.5 0 S
2045 1748.25 0 31.5 S
2029.25 1764 31.5 0 S
2047.5 1747.25 0 31.5 S
2031.75 1763 31.5 0 S
2050 1745.75 0 31.5 S
2034.25 1761.5 31.5 0 S
2052 1744.25 0 31.5 S
2036.25 1760 31.5 0 S
2054.5 1742.75 0 31.5 S
2038.75 1758.5 31.5 0 S
2056.5 1741.75 0 31.5 S
2040.75 1757.5 31.5 0 S
2059 1740.25 0 31.5 S
2043.25 1756 31.5 0 S
2061 1738.75 0 31.5 S
2045.25 1754.5 31.5 0 S
2063 1737.25 0 31.5 S
2047.25 1753 31.5 0 S
2065.5 1735.75 0 31.5 S
2049.75 1751.5 31.5 0 S
2067.5 1734.25 0 31.5 S
2051.75 1750 31.5 0 S
2069.5 1732.75 0 31.5 S
2053.75 1748.5 31.5 0 S
2071.5 1731.25 0 31.5 S
2055.75 1747 31.5 0 S
2074 1729.75 0 31.5 S
2058.25 1745.5 31.5 0 S
2076 1728.25 0 31.5 S
2060.25 1744 31.5 0 S
2078 1726.75 0 31.5 S
2062.25 1742.5 31.5 0 S
2080 1725.25 0 31.5 S
2064.25 1741 31.5 0 S
2082 1723.25 0 31.5 S
2066.25 1739 31.5 0 S
2084 1721.75 0 31.5 S
2068.25 1737.5 31.5 0 S
2086 1720.25 0 31.5 S
2070.25 1736 31.5 0 S
2088 1718.75 0 31.5 S
2072.25 1734.5 31.5 0 S
2090 1717.25 0 31.5 S
2074.25 1733 31.5 0 S
2092 1715.75 0 31.5 S
2076.25 1731.5 31.5 0 S
2094 1713.75 0 31.5 S
2078.25 1729.5 31.5 0 S
2095.5 1712.25 0 31.5 S
2079.75 1728 31.5 0 S
2097.5 1710.75 0 31.5 S
2081.75 1726.5 31.5 0 S
2099.5 1708.75 0 31.5 S
2083.75 1724.5 31.5 0 S
2101.5 1707.25 0 31.5 S
2085.75 1723 31.5 0 S
2103 1705.25 0 31.5 S
2087.25 1721 31.5 0 S
2105 1703.75 0 31.5 S
2089.25 1719.5 31.5 0 S
2107 1701.75 0 31.5 S
2091.25 1717.5 31.5 0 S
2108.5 1700.25 0 31.5 S
2092.75 1716 31.5 0 S
2110.5 1698.25 0 31.5 S
2094.75 1714 31.5 0 S
2112 1696.75 0 31.5 S
2096.25 1712.5 31.5 0 S
2114 1694.75 0 31.5 S
2098.25 1710.5 31.5 0 S
2116 1692.75 0 31.5 S
2100.25 1708.5 31.5 0 S
2117.5 1691.25 0 31.5 S
2101.75 1707 31.5 0 S
2119 1689.75 0 31.5 S
2103.25 1705.5 31.5 0 S
2121 1687.75 0 31.5 S
2105.25 1703.5 31.5 0 S
2122.5 1685.75 0 31.5 S
2106.75 1701.5 31.5 0 S
2124.5 1683.75 0 31.5 S
2108.75 1699.5 31.5 0 S
2126 1682.25 0 31.5 S
2110.25 1698 31.5 0 S
2127.5 1680.25 0 31.5 S
2111.75 1696 31.5 0 S
2129.5 1678.25 0 31.5 S
2113.75 1694 31.5 0 S
2131 1676.75 0 31.5 S
2115.25 1692.5 31.5 0 S
2132.5 1674.25 0 31.5 S
2116.75 1690 31.5 0 S
2134.5 1672.25 0 31.5 S
2118.75 1688 31.5 0 S
2136 1670.25 0 31.5 S
2120.25 1686 31.5 0 S
2137.5 1668.75 0 31.5 S
2121.75 1684.5 31.5 0 S
2139 1666.75 0 31.5 S
2123.25 1682.5 31.5 0 S
2140.5 1664.75 0 31.5 S
2124.75 1680.5 31.5 0 S
2142.5 1662.75 0 31.5 S
2126.75 1678.5 31.5 0 S
2144 1660.75 0 31.5 S
2128.25 1676.5 31.5 0 S
2145.5 1658.75 0 31.5 S
2129.75 1674.5 31.5 0 S
2147 1656.75 0 31.5 S
2131.25 1672.5 31.5 0 S
2148.5 1654.75 0 31.5 S
2132.75 1670.5 31.5 0 S
2150 1652.75 0 31.5 S
2134.25 1668.5 31.5 0 S
2151.5 1650.75 0 31.5 S
2135.75 1666.5 31.5 0 S
2153 1648.75 0 31.5 S
2137.25 1664.5 31.5 0 S
2154.5 1646.75 0 31.5 S
2138.75 1662.5 31.5 0 S
2156 1644.25 0 31.5 S
2140.25 1660 31.5 0 S
2157.5 1642.75 0 31.5 S
2141.75 1658.5 31.5 0 S
2159 1640.25 0 31.5 S
2143.25 1656 31.5 0 S
2160.5 1638.25 0 31.5 S
2144.75 1654 31.5 0 S
2162 1635.75 0 31.5 S
2146.25 1651.5 31.5 0 S
2163.5 1633.75 0 31.5 S
2147.75 1649.5 31.5 0 S
2164.5 1631.75 0 31.5 S
2148.75 1647.5 31.5 0 S
2166 1629.25 0 31.5 S
2150.25 1645 31.5 0 S
2167.5 1627.25 0 31.5 S
2151.75 1643 31.5 0 S
2169 1624.75 0 31.5 S
2153.25 1640.5 31.5 0 S
2170.5 1622.75 0 31.5 S
2154.75 1638.5 31.5 0 S
2171.5 1620.25 0 31.5 S
2155.75 1636 31.5 0 S
2173 1618.25 0 31.5 S
2157.25 1634 31.5 0 S
2174.5 1615.75 0 31.5 S
2158.75 1631.5 31.5 0 S
2176 1613.75 0 31.5 S
2160.25 1629.5 31.5 0 S
2177 1611.25 0 31.5 S
2161.25 1627 31.5 0 S
2178.5 1608.75 0 31.5 S
2162.75 1624.5 31.5 0 S
2180 1606.75 0 31.5 S
2164.25 1622.5 31.5 0 S
2181.5 1604.25 0 31.5 S
2165.75 1620 31.5 0 S
2182.5 1601.75 0 31.5 S
2166.75 1617.5 31.5 0 S
2184 1599.25 0 31.5 S
2168.25 1615 31.5 0 S
2185 1596.75 0 31.5 S
2169.25 1612.5 31.5 0 S
2186.5 1594.75 0 31.5 S
2170.75 1610.5 31.5 0 S
2188 1592.25 0 31.5 S
2172.25 1608 31.5 0 S
2189 1589.25 0 31.5 S
2173.25 1605 31.5 0 S
2190.5 1586.75 0 31.5 S
2174.75 1602.5 31.5 0 S
2191.5 1584.25 0 31.5 S
2175.75 1600 31.5 0 S
2193 1581.75 0 31.5 S
2177.25 1597.5 31.5 0 S
2194.5 1579.25 0 31.5 S
2178.75 1595 31.5 0 S
2195.5 1576.25 0 31.5 S
2179.75 1592 31.5 0 S
2197 1573.25 0 31.5 S
2181.25 1589 31.5 0 S
2198 1570.25 0 31.5 S
2182.25 1586 31.5 0 S
2199.5 1568.25 0 31.5 S
2183.75 1584 31.5 0 S
2200.5 1565.25 0 31.5 S
2184.75 1581 31.5 0 S
2201.5 1562.75 0 31.5 S
2185.75 1578.5 31.5 0 S
2203 1560.25 0 31.5 S
2187.25 1576 31.5 0 S
2204 1557.25 0 31.5 S
2188.25 1573 31.5 0 S
2205.5 1554.75 0 31.5 S
2189.75 1570.5 31.5 0 S
2206.5 1552.25 0 31.5 S
2190.75 1568 31.5 0 S
2208 1549.25 0 31.5 S
2192.25 1565 31.5 0 S
2209 1546.75 0 31.5 S
2193.25 1562.5 31.5 0 S
2210 1544.25 0 31.5 S
2194.25 1560 31.5 0 S
2211.5 1541.75 0 31.5 S
2195.75 1557.5 31.5 0 S
2212.5 1539.25 0 31.5 S
2196.75 1555 31.5 0 S
2213.5 1536.25 0 31.5 S
2197.75 1552 31.5 0 S
2215 1533.75 0 31.5 S
2199.25 1549.5 31.5 0 S
2216 1530.25 0 31.5 S
2200.25 1546 31.5 0 S
2217 1528.25 0 31.5 S
2201.25 1544 31.5 0 S
2218.5 1525.25 0 31.5 S
2202.75 1541 31.5 0 S
2219.5 1522.25 0 31.5 S
2203.75 1538 31.5 0 S
2220.5 1519.75 0 31.5 S
2204.75 1535.5 31.5 0 S
2221.5 1517.25 0 31.5 S
2205.75 1533 31.5 0 S
2223 1514.25 0 31.5 S
2207.25 1530 31.5 0 S
2224 1510.75 0 31.5 S
2208.25 1526.5 31.5 0 S
2225 1507.75 0 31.5 S
2209.25 1523.5 31.5 0 S
2226 1504.75 0 31.5 S
2210.25 1520.5 31.5 0 S
2227.5 1502.25 0 31.5 S
2211.75 1518 31.5 0 S
2228.5 1499.25 0 31.5 S
2212.75 1515 31.5 0 S
2229.5 1496.25 0 31.5 S
2213.75 1512 31.5 0 S
2230.5 1493.75 0 31.5 S
2214.75 1509.5 31.5 0 S
2231.5 1490.75 0 31.5 S
2215.75 1506.5 31.5 0 S
2232.5 1487.75 0 31.5 S
2216.75 1503.5 31.5 0 S
2234 1484.75 0 31.5 S
2218.25 1500.5 31.5 0 S
2235 1481.75 0 31.5 S
2219.25 1497.5 31.5 0 S
2236 1479.75 0 31.5 S
2220.25 1495.5 31.5 0 S
2237 1476.75 0 31.5 S
2221.25 1492.5 31.5 0 S
2238 1473.25 0 31.5 S
2222.25 1489 31.5 0 S
2239 1469.75 0 31.5 S
2223.25 1485.5 31.5 0 S
2240 1466.75 0 31.5 S
2224.25 1482.5 31.5 0 S
2241 1464.25 0 31.5 S
2225.25 1480 31.5 0 S
2242 1461.25 0 31.5 S
2226.25 1477 31.5 0 S
2243.5 1458.25 0 31.5 S
2227.75 1474 31.5 0 S
2244.5 1455.25 0 31.5 S
2228.75 1471 31.5 0 S
2245.5 1451.75 0 31.5 S
2229.75 1467.5 31.5 0 S
2246.5 1448.25 0 31.5 S
2230.75 1464 31.5 0 S
2247.5 1445.25 0 31.5 S
2231.75 1461 31.5 0 S
2248.5 1441.75 0 31.5 S
2232.75 1457.5 31.5 0 S
2249.5 1439.25 0 31.5 S
2233.75 1455 31.5 0 S
2250.5 1436.25 0 31.5 S
2234.75 1452 31.5 0 S
2251.5 1433.25 0 31.5 S
2235.75 1449 31.5 0 S
2252.5 1429.25 0 31.5 S
2236.75 1445 31.5 0 S
2253.5 1425.75 0 31.5 S
2237.75 1441.5 31.5 0 S
2254.5 1422.75 0 31.5 S
2238.75 1438.5 31.5 0 S
2255.5 1419.75 0 31.5 S
2239.75 1435.5 31.5 0 S
2256.5 1417.25 0 31.5 S
2240.75 1433 31.5 0 S
2257.5 1414.25 0 31.5 S
2241.75 1430 31.5 0 S
2258.5 1410.75 0 31.5 S
2242.75 1426.5 31.5 0 S
2259.5 1407.25 0 31.5 S
2243.75 1423 31.5 0 S
2260 1404.25 0 31.5 S
2244.25 1420 31.5 0 S
2261 1400.75 0 31.5 S
2245.25 1416.5 31.5 0 S
2262 1397.25 0 31.5 S
2246.25 1413 31.5 0 S
2263 1394.25 0 31.5 S
2247.25 1410 31.5 0 S
2264 1390.75 0 31.5 S
2248.25 1406.5 31.5 0 S
2265 1387.75 0 31.5 S
2249.25 1403.5 31.5 0 S
2266 1384.75 0 31.5 S
2250.25 1400.5 31.5 0 S
2267 1381.25 0 31.5 S
2251.25 1397 31.5 0 S
2268 1377.25 0 31.5 S
2252.25 1393 31.5 0 S
2268.5 1373.75 0 31.5 S
2252.75 1389.5 31.5 0 S
2269.5 1371.25 0 31.5 S
2253.75 1387 31.5 0 S
2270.5 1367.25 0 31.5 S
2254.75 1383 31.5 0 S
2271.5 1363.25 0 31.5 S
2255.75 1379 31.5 0 S
2272.5 1360.25 0 31.5 S
2256.75 1376 31.5 0 S
2273.5 1357.25 0 31.5 S
2257.75 1373 31.5 0 S
2274 1354.25 0 31.5 S
2258.25 1370 31.5 0 S
2275 1352.25 0 31.5 S
2259.25 1368 31.5 0 S
2276 1348.75 0 31.5 S
2260.25 1364.5 31.5 0 S
2277 1346.25 0 31.5 S
2261.25 1362 31.5 0 S
2278 1343.75 0 31.5 S
2262.25 1359.5 31.5 0 S
2278.5 1339.75 0 31.5 S
2262.75 1355.5 31.5 0 S
2279.5 1336.25 0 31.5 S
2263.75 1352 31.5 0 S
2280.5 1332.75 0 31.5 S
2264.75 1348.5 31.5 0 S
2281.5 1329.25 0 31.5 S
2265.75 1345 31.5 0 S
2282.5 1325.25 0 31.5 S
2266.75 1341 31.5 0 S
2283 1322.25 0 31.5 S
2267.25 1338 31.5 0 S
2284 1319.75 0 31.5 S
2268.25 1335.5 31.5 0 S
2285 1316.75 0 31.5 S
2269.25 1332.5 31.5 0 S
2286 1312.75 0 31.5 S
2270.25 1328.5 31.5 0 S
2286.5 1308.75 0 31.5 S
2270.75 1324.5 31.5 0 S
2287.5 1304.75 0 31.5 S
2271.75 1320.5 31.5 0 S
2288.5 1301.25 0 31.5 S
2272.75 1317 31.5 0 S
2289 1295.75 0 31.5 S
2273.25 1311.5 31.5 0 S
2290 1292.25 0 31.5 S
2274.25 1308 31.5 0 S
2291 1290.25 0 31.5 S
2275.25 1306 31.5 0 S
2291.5 1286.75 0 31.5 S
2275.75 1302.5 31.5 0 S
2292.5 1284.25 0 31.5 S
2276.75 1300 31.5 0 S
2293.5 1278.75 0 31.5 S
2277.75 1294.5 31.5 0 S
2294.5 1275.25 0 31.5 S
2278.75 1291 31.5 0 S
2295 1270.75 0 31.5 S
2279.25 1286.5 31.5 0 S
2296 1266.25 0 31.5 S
2280.25 1282 31.5 0 S
2297 1263.75 0 31.5 S
2281.25 1279.5 31.5 0 S
2297.5 1259.25 0 31.5 S
2281.75 1275 31.5 0 S
2298.5 1256.25 0 31.5 S
2282.75 1272 31.5 0 S
2299 1252.25 0 31.5 S
2283.25 1268 31.5 0 S
2300 1248.25 0 31.5 S
2284.25 1264 31.5 0 S
2301 1246.25 0 31.5 S
2285.25 1262 31.5 0 S
2301.5 1241.25 0 31.5 S
2285.75 1257 31.5 0 S
2302.5 1238.25 0 31.5 S
2286.75 1254 31.5 0 S
2303.5 1234.75 0 31.5 S
2287.75 1250.5 31.5 0 S
2304 1229.25 0 31.5 S
2288.25 1245 31.5 0 S
2305 1228.75 0 31.5 S
2289.25 1244.5 31.5 0 S
2305.5 1226.25 0 31.5 S
2289.75 1242 31.5 0 S
2306.5 1222.75 0 31.5 S
2290.75 1238.5 31.5 0 S
2307.5 1218.25 0 31.5 S
2291.75 1234 31.5 0 S
2308 1215.75 0 31.5 S
2292.25 1231.5 31.5 0 S
2309 1213.25 0 31.5 S
2293.25 1229 31.5 0 S
2309.5 1209.75 0 31.5 S
2293.75 1225.5 31.5 0 S
2310.5 1206.25 0 31.5 S
2294.75 1222 31.5 0 S
2311 1201.25 0 31.5 S
2295.25 1217 31.5 0 S
2312 1199.25 0 31.5 S
2296.25 1215 31.5 0 S
2312.5 1196.75 0 31.5 S
2296.75 1212.5 31.5 0 S
2313.5 1190.25 0 31.5 S
2297.75 1206 31.5 0 S
2314.5 1188.75 0 31.5 S
2298.75 1204.5 31.5 0 S
2315 1184.25 0 31.5 S
2299.25 1200 31.5 0 S
2316 1179.75 0 31.5 S
2300.25 1195.5 31.5 0 S
2316.5 1175.25 0 31.5 S
2300.75 1191 31.5 0 S
2317.5 1170.75 0 31.5 S
2301.75 1186.5 31.5 0 S
2318 1168.25 0 31.5 S
2302.25 1184 31.5 0 S
2319 1165.75 0 31.5 S
2303.25 1181.5 31.5 0 S
2319.5 1162.75 0 31.5 S
2303.75 1178.5 31.5 0 S
2320.5 1160.25 0 31.5 S
2304.75 1176 31.5 0 S
2321 1156.25 0 31.5 S
2305.25 1172 31.5 0 S
2322 1154.25 0 31.5 S
2306.25 1170 31.5 0 S
2322.5 1148.75 0 31.5 S
2306.75 1164.5 31.5 0 S
2323.5 1146.75 0 31.5 S
2307.75 1162.5 31.5 0 S
2324 1145.25 0 31.5 S
2308.25 1161 31.5 0 S
2325 1142.25 0 31.5 S
2309.25 1158 31.5 0 S
2325.5 1140.75 0 31.5 S
2309.75 1156.5 31.5 0 S
2326.5 1139.25 0 31.5 S
2310.75 1155 31.5 0 S
2327 1136.75 0 31.5 S
2311.25 1152.5 31.5 0 S
2328 1133.75 0 31.5 S
2312.25 1149.5 31.5 0 S
2328.5 1128.75 0 31.5 S
2312.75 1144.5 31.5 0 S
2329 1126.75 0 31.5 S
2313.25 1142.5 31.5 0 S
2330 1123.25 0 31.5 S
2314.25 1139 31.5 0 S
2330.5 1122.25 0 31.5 S
2314.75 1138 31.5 0 S
2331.5 1120.25 0 31.5 S
2315.75 1136 31.5 0 S
2332 1117.75 0 31.5 S
2316.25 1133.5 31.5 0 S
2333 1111.75 0 31.5 S
2317.25 1127.5 31.5 0 S
2335 1109.75 0 31.5 S
2319.25 1125.5 31.5 0 S
2335.5 1108.75 0 31.5 S
2319.75 1124.5 31.5 0 S
2336.5 1105.75 0 31.5 S
2320.75 1121.5 31.5 0 S
2337 1103.25 0 31.5 S
2321.25 1119 31.5 0 S
2337.5 1101.25 0 31.5 S
2321.75 1117 31.5 0 S
2338.5 1099.25 0 31.5 S
2322.75 1115 31.5 0 S
2339 1097.75 0 31.5 S
2323.25 1113.5 31.5 0 S
2340 1093.25 0 31.5 S
2324.25 1109 31.5 0 S
2340.5 1090.75 0 31.5 S
2324.75 1106.5 31.5 0 S
2341 1089.75 0 31.5 S
2325.25 1105.5 31.5 0 S
2342 1088.25 0 31.5 S
2326.25 1104 31.5 0 S
2342.5 1081.75 0 31.5 S
2326.75 1097.5 31.5 0 S
2344 1080.75 0 31.5 S
2328.25 1096.5 31.5 0 S
2344.5 1079.25 0 31.5 S
2328.75 1095 31.5 0 S
2346 1077.75 0 31.5 S
2330.25 1093.5 31.5 0 S
2347.5 1073.75 0 31.5 S
2331.75 1089.5 31.5 0 S
2350.5 1069.25 0 31.5 S
2334.75 1085 31.5 0 S
2352.5 1067.75 0 31.5 S
2336.75 1083.5 31.5 0 S
2353.5 1066.25 0 31.5 S
2337.75 1082 31.5 0 S
2354.5 1064.75 0 31.5 S
2338.75 1080.5 31.5 0 S
2356 1063.25 0 31.5 S
2340.25 1079 31.5 0 S
2357 1061.75 0 31.5 S
2341.25 1077.5 31.5 0 S
2358 1058.25 0 31.5 S
2342.25 1074 31.5 0 S
2358.5 1056.75 0 31.5 S
2342.75 1072.5 31.5 0 S
2360.5 1055.25 0 31.5 S
2344.75 1071 31.5 0 S
2361 1053.25 0 31.5 S
2345.25 1069 31.5 0 S
2362.5 1049.75 0 31.5 S
2346.75 1065.5 31.5 0 S
2363.5 1046.25 0 31.5 S
2347.75 1062 31.5 0 S
2365.5 1044.25 0 31.5 S
2349.75 1060 31.5 0 S
2369.5 1042.75 0 31.5 S
2353.75 1058.5 31.5 0 S
2371.5 1040.75 0 31.5 S
2355.75 1056.5 31.5 0 S
2374.5 1038.75 0 31.5 S
2358.75 1054.5 31.5 0 S
2378 1036.75 0 31.5 S
2362.25 1052.5 31.5 0 S
2389 1034.75 0 31.5 S
2373.25 1050.5 31.5 0 S
2367.5 1032.75 0 31.5 S
2351.75 1048.5 31.5 0 S
2365 1030.25 0 31.5 S
2349.25 1046 31.5 0 S
2358.5 1028.25 0 31.5 S
2342.75 1044 31.5 0 S
2409.5 1026.25 0 31.5 S
2393.75 1042 31.5 0 S
2411.5 1023.75 0 31.5 S
2395.75 1039.5 31.5 0 S
2408 1021.75 0 31.5 S
2392.25 1037.5 31.5 0 S
2403 1016.75 0 31.5 S
2387.25 1032.5 31.5 0 S
2446.5 1011.75 0 31.5 S
2430.75 1027.5 31.5 0 S
2458.5 1006.75 0 31.5 S
2442.75 1022.5 31.5 0 S
2474.5 1001.25 0 31.5 S
2458.75 1017 31.5 0 S
2486.5 998.75 0 31.5 S
2470.75 1014.5 31.5 0 S
2503 992.75 0 31.5 S
2487.25 1008.5 31.5 0 S
2503.5 986.75 0 31.5 S
2487.75 1002.5 31.5 0 S
2505.5 979.75 0 31.5 S
2489.75 995.5 31.5 0 S
2507 976.25 0 31.5 S
2491.25 992 31.5 0 S
2507.5 972.75 0 31.5 S
2491.75 988.5 31.5 0 S
2511 969.25 0 31.5 S
2495.25 985 31.5 0 S
2512.5 965.25 0 31.5 S
2496.75 981 31.5 0 S
2515.5 953.25 0 31.5 S
2499.75 969 31.5 0 S
2516.5 944.25 0 31.5 S
2500.75 960 31.5 0 S
2517.5 939.25 0 31.5 S
2501.75 955 31.5 0 S
2518.5 934.25 0 31.5 S
2502.75 950 31.5 0 S
2519.5 923.25 0 31.5 S
2503.75 939 31.5 0 S
2520.5 911.25 0 31.5 S
2504.75 927 31.5 0 S
2521 904.75 0 31.5 S
2505.25 920.5 31.5 0 S
2521.5 897.75 0 31.5 S
2505.75 913.5 31.5 0 S
2523.5 890.25 0 31.5 S
2507.75 906 31.5 0 S
2524 882.25 0 31.5 S
2508.25 898 31.5 0 S
2524 864.25 0 31.5 S
2508.25 880 31.5 0 S
2524.5 842.25 0 31.5 S
2508.75 858 31.5 0 S
2525 829.75 0 31.5 S
2509.25 845.5 31.5 0 S
2526 815.25 0 31.5 S
2510.25 831 31.5 0 S
2526 798.25 0 31.5 S
2510.25 814 31.5 0 S
2527 754.75 0 31.5 S
2511.25 770.5 31.5 0 S
2527.5 679.25 0 31.5 S
2511.75 695 31.5 0 S
5 w
926 620 1668 1248 re
S
cleartomark end end pagesave restore
 showpage
%%PageTrailer
%%Trailer
%%Pages: 1
