%!PS-Adobe-3.0 EPSF-3.0
%%BoundingBox: 67 53 337 118
%%HiResBoundingBox: 67.900000 53.900000 336.200000 117.100000
%.....................................
%%Creator: GPL Ghostscript 871 (epswrite)
%%CreationDate: 2012/01/28 17:04:52
%%DocumentData: Clean7Bit
%%LanguageLevel: 2
%%EndComments
%%BeginProlog
% This copyright applies to everything between here and the %%EndProlog:
% Copyright (C) 2010 Artifex Software, Inc.  All rights reserved.
%%BeginResource: procset GS_epswrite_2_0_1001 1.001 0
/GS_epswrite_2_0_1001 80 dict dup begin
/PageSize 2 array def/setpagesize{ PageSize aload pop 3 index eq exch
4 index eq and{ pop pop pop}{ PageSize dup  1
5 -1 roll put 0 4 -1 roll put dup null eq {false} {dup where} ifelse{ exch get exec}
{ pop/setpagedevice where
{ pop 1 dict dup /PageSize PageSize put setpagedevice}
{ /setpage where{ pop PageSize aload pop pageparams 3 {exch pop} repeat
setpage}if}ifelse}ifelse}ifelse} bind def
/!{bind def}bind def/#{load def}!/N/counttomark #
/rG{3{3 -1 roll 255 div}repeat setrgbcolor}!/G{255 div setgray}!/K{0 G}!
/r6{dup 3 -1 roll rG}!/r5{dup 3 1 roll rG}!/r3{dup rG}!
/w/setlinewidth #/J/setlinecap #
/j/setlinejoin #/M/setmiterlimit #/d/setdash #/i/setflat #
/m/moveto #/l/lineto #/c/rcurveto #
/p{N 2 idiv{N -2 roll rlineto}repeat}!
/P{N 0 gt{N -2 roll moveto p}if}!
/h{p closepath}!/H{P closepath}!
/lx{0 rlineto}!/ly{0 exch rlineto}!/v{0 0 6 2 roll c}!/y{2 copy c}!
/re{4 -2 roll m exch dup lx exch ly neg lx h}!
/^{3 index neg 3 index neg}!
/f{P fill}!/f*{P eofill}!/s{H stroke}!/S{P stroke}!
/q/gsave #/Q/grestore #/rf{re fill}!
/Y{P clip newpath}!/Y*{P eoclip newpath}!/rY{re Y}!
/|={pop exch 4 1 roll 1 array astore cvx 3 array astore cvx exch 1 index def exec}!
/|{exch string readstring |=}!
/+{dup type/nametype eq{2 index 7 add -3 bitshift 2 index mul}if}!
/@/currentfile #/${+ @ |}!
/B{{2 copy string{readstring pop}aload pop 4 array astore cvx
3 1 roll}repeat pop pop true}!
/Ix{[1 0 0 1 11 -2 roll exch neg exch neg]exch}!
/,{true exch Ix imagemask}!/If{false exch Ix imagemask}!/I{exch Ix image}!
/Ic{exch Ix false 3 colorimage}!
/F{/Columns counttomark 3 add -2 roll/Rows exch/K -1/BlackIs1 true>>
/CCITTFaxDecode filter}!/FX{<</EndOfBlock false F}!
/X{/ASCII85Decode filter}!/@X{@ X}!/&2{2 index 2 index}!
/@F{@ &2<<F}!/@C{@X &2 FX}!
/$X{+ @X |}!/&4{4 index 4 index}!/$F{+ @ &4<<F |}!/$C{+ @X &4 FX |}!
/IC{3 1 roll 10 dict begin 1{/ImageType/Interpolate/Decode/DataSource
/ImageMatrix/BitsPerComponent/Height/Width}{exch def}forall
currentdict end image}!
/~{@ read {pop} if}!
end def
%%EndResource
/pagesave null def
%%EndProlog
%%Page: 1 1
%%BeginPageSetup
GS_epswrite_2_0_1001 begin
/pagesave save store 197 dict begin
0.1 0.1 scale
%%EndPageSetup
gsave mark
Q q
0 0 250000 250000 re
Y
5 w
K
878 620 31.5 0 P
3290 620 -31.5 0 P
842 620 S
685 615 21 4 /3S
$C
4qID~>
,
705 600 34 43 /6S
$C
4;jd(Qp5fN^"]dYfPna4iOE=NL>hOS^UAOiqu,+3CMbUV[OTh+@7(A~>
,
738 599 34 44 /3W
$C
23%r'%\5X)j2)<u^Zk'1J,ZoQs8W-!s8VJ_s8Qk\g>99H(eYmM:r7r$~>
,
771 599 3W ,
805 599 3W ,
878 695.5 31.5 0 P
3290 695.5 -31.5 0 P
842 695.5 S
805 675 3W ,
878 771 31.5 0 P
3290 771 -31.5 0 P
842 771 S
705 751 6S ,
738 750 3W ,
771 750 3W ,
805 750 3W ,
878 846.5 31.5 0 P
3290 846.5 -31.5 0 P
842 846.5 S
705 827 35 43 /6Y
$C
.M)RZs3Cmfr0V$lmIpMQmIpMQmJH;FpY5/kn_X9>^V/P~>
,
738 826 3W ,
771 826 3W ,
805 826 3W ,
878 921.5 31.5 0 P
3290 921.5 -31.5 0 P
842 921.5 S
705 901 35 44 /4C
$C
22__[-UH4U05uPcT2!a`He7T^qXqU=['7F,Z=C&h$n`Au*WOE]DtUNIgIhr,MR@1;L'd~>
,
738 901 3W ,
771 901 3W ,
805 901 3W ,
878 997 31.5 0 P
3290 997 -31.5 0 P
842 997 S
705 976 35 44 /7C
$C
2$jBqS07(D'Aa:H#WJZ`e,TIHX4Gk>$!:Ud'l"Rbl-UTa#WJZ`l2Ue`CO4^e@4ZT(6OF59~>
,
738 976 3W ,
771 976 3W ,
805 976 3W ,
878 1072.5 31.5 0 P
3290 1072.5 -31.5 0 P
842 1072.5 S
679 1053 17 43 /4G
$C
,Tm'ds8W-!s-F.@R>;m@If~>
,
705 1052 3W ,
738 1052 3W ,
771 1052 3W ,
805 1052 3W ,
878 1148 31.5 0 P
3290 1148 -31.5 0 P
842 1148 S
679 1128 4G ,
705 1128 6S ,
738 1127 3W ,
771 1127 3W ,
805 1127 3W ,
877 620 0 31.5 P
877 1148 0 -31.5 P
877 560 S
865 539 3W ,
1118.5 620 0 31.5 P
1118.5 1148 0 -31.5 P
1118.5 560 S
1073 539 35 44 /7G
$C
2%'Ns&9R0a'Aa:<PNfbDGdm_=;rkC=Bjl_7CKWS'fO25hs7ZK6."D-0~>
,
1106 539 3W ,
1140 539 3W ,
1359.5 620 0 31.5 P
1359.5 1148 0 -31.5 P
1359.5 560 S
1305 540 4G ,
1330 539 3W ,
1364 539 3W ,
1397 539 3W ,
1601 620 0 31.5 P
1601 1148 0 -31.5 P
1601 560 S
1547 540 4G ,
1572 539 7G ,
1605 539 3W ,
1639 539 3W ,
1842 620 0 31.5 P
1842 1148 0 -31.5 P
1842 560 S
1780 540 6S ,
1813 539 3W ,
1846 539 3W ,
1880 539 3W ,
2083.5 620 0 31.5 P
2083.5 1148 0 -31.5 P
2083.5 560 S
2021 540 6S ,
2054 539 7G ,
2088 539 3W ,
2121 539 3W ,
2325 620 0 31.5 P
2325 1148 0 -31.5 P
2325 560 S
2263 539 34 44 /4K
$C
3f*tLK;VJ#ZZne#2lEeH?]XK;@:la`Yct@m+Q2(jDLDKapAVZrg>Sl<[;*R2"T~>
,
2296 539 3W ,
2329 539 3W ,
2363 539 3W ,
2566 620 0 31.5 P
2566 1148 0 -31.5 P
2566 560 S
2504 539 4K ,
2537 539 7G ,
2570 539 3W ,
2604 539 3W ,
2807.5 620 0 31.5 P
2807.5 1148 0 -31.5 P
2807.5 560 S
2745 540 6Y ,
2778 539 3W ,
2812 539 3W ,
2845 539 3W ,
3048.5 620 0 31.5 P
3048.5 1148 0 -31.5 P
3048.5 560 S
2986 540 6Y ,
3019 539 7G ,
3053 539 3W ,
3086 539 3W ,
3290 620 0 31.5 P
3290 1148 0 -31.5 P
3290 560 S
3228 539 7G ,
3261 539 3W ,
3294 539 3W ,
3328 539 3W ,
878 620 2412 528 re
S
2.5 w
878 1043.5 0.5 2 0.5 -1.5 0.5 -1 0.5 -1 0.5 3 0.5 -0.5 0.5 -1 
0.5 1.5 0.5 0.5 0.5 -2 0.5 1.5 0.5 -2.5 0.5 3.5 0.5 -1 0 -2.5 
0.5 3.5 0.5 -1.5 0.5 -0.5 0.5 2 0.5 2 0.5 -2 0.5 0 0.5 1 
0.5 -1 0.5 -3.5 0.5 3 0.5 2 0.5 -14 0.5 5.5 0.5 2 0.5 3 
0.5 -0.5 0.5 2.5 0.5 -2.5 0.5 2 0.5 0 0.5 0 0.5 1.5 0.5 0 
0.5 -1 0.5 -2 0.5 1 0.5 2 0 -1.5 0.5 1 0.5 -0.5 0.5 -2.5 
0.5 0.5 0.5 -0.5 0.5 -1 0.5 4.5 0.5 -2.5 0.5 0.5 0.5 -2 0.5 0.5 
0.5 0.5 0.5 -1 0.5 0 0.5 2.5 0.5 -1.5 0.5 -4 0.5 6.5 0.5 -3 
0.5 0 0.5 -1 0.5 -0.5 0.5 0.5 0.5 -0.5 0.5 -2 0.5 1.5 0.5 1.5 
0 -0.5 0.5 -2 0.5 3 0.5 -2.5 0.5 0 0.5 1.5 0.5 0 0.5 1 
0.5 -0.5 0.5 -1 0.5 2 0.5 -0.5 0.5 0 0.5 0 0.5 -1.5 0.5 -0.5 
0.5 1 0.5 0.5 0.5 0.5 0.5 0.5 0.5 -2 0.5 1.5 0.5 2.5 0.5 -2.5 
0.5 0 0.5 -1.5 0.5 1 0.5 2 0.5 -1.5 0 1.5 0.5 0 0.5 -1 
0.5 -2 S
928 1042 0.5 -0.5 0.5 2 0.5 2.5 0.5 -2.5 0.5 -4 0.5 1.5 0.5 -0.5 
0.5 4 0.5 0 0.5 0.5 0.5 -2.5 0.5 0.5 0.5 -2 0.5 0.5 0.5 1.5 
0.5 2.5 0.5 0.5 0.5 -1.5 0.5 -2.5 0.5 1 0.5 -1.5 0.5 4 0.5 0.5 
0.5 -2.5 0.5 0.5 0.5 1 0.5 1.5 0.5 0.5 0.5 -1 0.5 0 0.5 0 
0.5 0 0.5 -1 0.5 1.5 0.5 -0.5 0.5 -2.5 0.5 2.5 0.5 -1.5 0.5 4 
0.5 -4 0.5 2.5 0.5 -4 0.5 1.5 0.5 -3 0.5 3.5 0.5 -1.5 0.5 3 
0.5 -3.5 0.5 2 0.5 -2 0.5 0 0.5 -1 0 -0.5 0.5 3 0.5 -1 
0.5 -0.5 0.5 -1 0.5 3.5 0.5 -8 0.5 5 0.5 -0.5 0.5 -1.5 0.5 0.5 
0.5 1 0.5 -1 0.5 1 0.5 2.5 0.5 -3 0.5 3.5 0.5 -3 0.5 -0.5 
0.5 -0.5 0.5 4.5 0.5 -5 0.5 -53 0.5 38.5 0.5 -29 0.5 -1.5 0.5 -1.5 
0.5 -12 0.5 37.5 0.5 3.5 0.5 1 0.5 2 0.5 -0.5 0.5 0 0.5 -2 
0.5 1 0.5 1.5 0.5 2.5 0.5 -3 0.5 1 0.5 -1.5 0.5 1 0.5 -2 
0.5 1.5 0.5 -0.5 0.5 -1 0.5 3 0.5 -2 0.5 2 0.5 1.5 0.5 -2.5 
0.5 0.5 S
979.5 1026.5 0.5 1.5 0.5 0 0.5 12 0.5 4.5 0.5 0.5 0 -1 0.5 0.5 
0.5 0 0.5 1.5 0.5 -2 0.5 -1.5 0.5 1.5 0.5 -2 0.5 5.5 0.5 -8 
0.5 1.5 0.5 6 0.5 -4 0.5 3.5 0.5 0 0.5 -0.5 0.5 0 0.5 -1.5 
0.5 1 0.5 2 0.5 -7 0.5 5 0.5 -1.5 0.5 2.5 0.5 -1.5 0.5 0.5 
0.5 0.5 0.5 0 0.5 0 0 -1.5 0.5 -1 0.5 -4.5 0.5 4.5 0.5 1.5 
0.5 1 0.5 -3.5 0.5 -1 0.5 0.5 0.5 1.5 0.5 -0.5 0.5 1 0.5 -0.5 
0.5 -0.5 0.5 -3 0.5 1 0.5 2 0.5 0.5 0.5 -2.5 0.5 1 0.5 2 
0.5 -1.5 0.5 0 0.5 -5 0.5 5.5 0.5 -1 0.5 1.5 0.5 1 0 -6 
0.5 4.5 0.5 -2 0.5 3 0.5 0.5 0.5 -3 0.5 1.5 0.5 -1 0.5 -1.5 
0.5 1.5 0.5 -1.5 0.5 -4.5 0.5 3.5 0.5 0 0.5 3 0.5 -1 0.5 -4 
0.5 3.5 0.5 -2 0.5 0.5 0.5 -0.5 0.5 3 0.5 -0.5 0.5 2 0.5 -3 
0.5 3 0.5 -4 0.5 1 0.5 0 0 0.5 0.5 1.5 0.5 -2.5 0.5 0 
0.5 -0.5 0.5 -1 0.5 1.5 0.5 -1 0.5 0 0.5 2 0.5 -4 0.5 5.5 
0.5 -0.5 S
1029.5 1042 0.5 1 0.5 -0.5 0.5 1.5 0.5 -2 0.5 1.5 0.5 -0.5 0.5 0.5 
0.5 -2.5 0.5 2.5 0.5 -3.5 0.5 3.5 0.5 0 0.5 1 0.5 -2.5 0.5 2.5 
0.5 -3.5 0 4 0.5 -3.5 0.5 1.5 0.5 -0.5 0.5 5 0.5 -4 0.5 -1 
0.5 3.5 0.5 -1.5 0.5 1 0.5 -1.5 0.5 0 0.5 -2.5 0.5 4 0.5 -3.5 
0.5 -1 0.5 2 0.5 -1.5 0.5 2.5 0.5 -1 0.5 0.5 0.5 0.5 0.5 1 
0.5 -5.5 0.5 4.5 0.5 0.5 0.5 -2 0.5 1.5 0.5 -0.5 0 -1.5 0.5 0 
0.5 -1.5 0.5 2.5 0.5 0 0.5 -1 0.5 -2 0.5 1.5 0.5 -1.5 0.5 2 
0.5 -1 0.5 2 0.5 -2.5 0.5 1 0.5 -4 0.5 5 0.5 -2 0.5 1 
0.5 -0.5 0.5 1.5 0.5 -5 0.5 2.5 0.5 0 0.5 0 0.5 -1.5 0.5 1 
0.5 -2 0.5 1.5 0 5.5 0.5 0.5 0.5 -4 0.5 0 0.5 -1 0.5 -4 
0.5 3 0.5 0 0.5 2.5 0.5 -2.5 0.5 -0.5 0.5 1.5 0.5 -2 0.5 1 
0.5 -0.5 0.5 0.5 0.5 1 0.5 1 0.5 -1.5 0.5 0 0.5 -1 0.5 1 
0.5 0.5 0.5 2.5 0.5 -2 0.5 -1 0.5 1 0.5 1 0.5 -0.5 0 1.5 
0.5 -2 S
1079.5 1040.5 0.5 -1.5 0.5 3.5 0.5 -3.5 0.5 3 0.5 -1.5 0.5 -1 0.5 1.5 
0.5 2 0.5 -2 0.5 1 0.5 -1.5 0.5 2.5 0.5 -1 0.5 1 0.5 0 
0.5 0 0.5 0 0.5 -1 0.5 0 0.5 4.5 0.5 -4.5 0.5 1.5 0.5 1 
0.5 -2.5 0.5 -0.5 0.5 1.5 0.5 -1.5 0 1 0.5 -1.5 0.5 -4 0.5 2 
0.5 0 0.5 -0.5 0.5 0 0.5 0 0.5 0.5 0.5 2 0.5 -1 0.5 -1 
0.5 -0.5 0.5 2 0.5 -2 0.5 3 0.5 -2.5 0.5 -0.5 0.5 3 0.5 -1.5 
0.5 0.5 0.5 -2 0.5 0 0.5 0.5 0.5 1.5 0.5 -1 0.5 1.5 0.5 -1.5 
0 0.5 0.5 1.5 0.5 -2 0.5 1 0.5 0 0.5 0 0.5 -3.5 0.5 1.5 
0.5 2 0.5 0.5 0.5 -1.5 0.5 -3 0.5 4 0.5 -1 0.5 -1 0.5 2 
0.5 -1 0.5 0 0.5 2 0.5 -1.5 0.5 -16 0.5 14.5 0.5 -0.5 0.5 2.5 
0.5 0 0.5 -2.5 0.5 2.5 0.5 -1.5 0.5 0.5 0 1 0.5 -1 0.5 -2.5 
0.5 -0.5 0.5 1 0.5 -0.5 0.5 5.5 0.5 -3 0.5 2.5 0.5 -1 0.5 -1 
0.5 -1.5 0.5 2.5 0.5 -2.5 0.5 1.5 0.5 4 0.5 -3.5 0.5 0 0.5 -0.5 
0.5 2.5 S
1130 1042.5 0.5 -0.5 0.5 -1 0.5 -2 0.5 1.5 0.5 0.5 0.5 -1 0.5 0 
0.5 2 0.5 -2 0 1 0.5 0.5 0.5 1 0.5 -2 0.5 0.5 0.5 -3 
0.5 5.5 0.5 0 0.5 -2.5 0.5 -2 0.5 3 0.5 -0.5 0.5 1.5 0.5 -4 
0.5 3 0.5 -2 0.5 2 0.5 -0.5 0.5 -0.5 0.5 -1 0.5 -1 0.5 1 
0.5 1.5 0.5 -0.5 0.5 -0.5 0.5 0.5 0.5 -1.5 0.5 -2 0.5 2 0 -2 
0.5 1 0.5 -0.5 0.5 0.5 0.5 -1.5 0.5 3 0.5 -3.5 0.5 1.5 0.5 -1.5 
0.5 -2 0.5 1 0.5 2 0.5 -0.5 0.5 1 0.5 -1 0.5 2 0.5 0 
0.5 -0.5 0.5 0.5 0.5 0.5 0.5 -2.5 0.5 3 0.5 -0.5 0.5 -1 0.5 1 
0.5 -1.5 0.5 0 0.5 3 0 -4 0.5 2 0.5 2 0.5 -2.5 0.5 1 
0.5 1.5 0.5 -1.5 0.5 1.5 0.5 -2.5 0.5 -0.5 0.5 2.5 0.5 -3 0.5 2 
0.5 -3 0.5 2 0.5 1 0.5 -2 0.5 3 0.5 -1.5 0.5 1 0.5 0 
0.5 0 0.5 -1 0.5 1 0.5 -0.5 0.5 -2 0.5 0.5 0.5 1 0.5 -1 
0.5 3 0.5 -2 0.5 -1.5 0.5 2.5 0.5 1.5 0.5 0 0.5 0 0.5 0.5 
0.5 -1 S
1180.5 1041 0.5 -3 0.5 1.5 0.5 -1 0.5 0.5 0.5 4.5 0.5 -2 0.5 1 
0.5 -3 0.5 0.5 0.5 -1.5 0.5 3.5 0.5 -2 0.5 1 0.5 1 0.5 0.5 
0.5 -1.5 0.5 0.5 0.5 0 0.5 0.5 0 -2.5 0.5 3 0.5 -2 0.5 0 
0.5 3 0.5 -4.5 0.5 0.5 0.5 1.5 0.5 1.5 0.5 -2.5 0.5 1 0.5 -1.5 
0.5 1 0.5 -0.5 0.5 0.5 0.5 0 0.5 -2 0.5 0.5 0.5 0 0.5 1.5 
0.5 -2.5 0.5 3.5 0.5 1 0.5 -2.5 0.5 -2 0.5 2.5 0.5 -1.5 0.5 0 
0.5 1.5 0 -0.5 0.5 -0.5 0.5 0 0.5 -2 0.5 1 0.5 1 0.5 1 
0.5 -3 0.5 3 0.5 -1 0.5 -0.5 0.5 -0.5 0.5 0.5 0.5 0.5 0.5 -4 
0.5 5 0.5 -2 0.5 1.5 0.5 0 0.5 -2.5 0.5 0 0.5 0.5 0.5 -0.5 
0.5 3 0.5 -2 0.5 -0.5 0.5 1 0.5 -1 0.5 2 0.5 -3.5 0.5 3.5 
0.5 -1.5 0.5 1 0.5 -1 0.5 0.5 0.5 -1 0.5 -1 0.5 2 0.5 -0.5 
0.5 1 0.5 1 0.5 1 0.5 0 0.5 -0.5 0.5 -0.5 0.5 3 0.5 -4 
0.5 0.5 0.5 1 0.5 -1 0.5 0.5 0.5 0.5 0.5 0 0.5 -2 0.5 0 
0.5 1 S
1231.5 1040 0 -1 0.5 2 0.5 -2.5 0.5 1 0.5 0.5 0.5 -0.5 0.5 3.5 
0.5 -2.5 0.5 1 0.5 -0.5 0.5 -1.5 0.5 1.5 0.5 0.5 0.5 2 0.5 -2 
0.5 0.5 0.5 -3 0.5 1 0.5 0.5 0.5 1 0.5 -1 0.5 -1 0.5 2.5 
0.5 -1 0.5 2 0.5 -4 0.5 3 0.5 -3 0.5 2.5 0 -2 0.5 1.5 
0.5 1.5 0.5 -1 0.5 -1.5 0.5 -0.5 0.5 1 0.5 0 0.5 -1 0.5 -2.5 
0.5 4 0.5 -2.5 0.5 0 0.5 -0.5 0.5 1.5 0.5 -2 0.5 0.5 0.5 1.5 
0.5 0 0.5 -1 0.5 0.5 0.5 1.5 0.5 0 0.5 -5 0.5 3 0.5 -4.5 
0.5 -1 0.5 2 0 2 0.5 -1.5 0.5 0.5 0.5 -0.5 0.5 -2.5 0.5 2 
0.5 1.5 0.5 0 0.5 -2 0.5 0.5 0.5 -1 0.5 3 0.5 6.5 0.5 -3.5 
0.5 1.5 0.5 -0.5 0.5 2.5 0.5 -5.5 0.5 3.5 0.5 1.5 0.5 -0.5 0.5 0 
0.5 0 0.5 -2 0.5 0.5 0.5 -0.5 0.5 2.5 0.5 -2 0.5 1 0 -3 
0.5 2.5 0.5 0 0.5 0.5 0.5 0 0.5 0 0.5 -1 0.5 1.5 0.5 -4.5 
0.5 1.5 0.5 1.5 0.5 0.5 0.5 -1 0.5 0.5 0.5 -2.5 0.5 0.5 0.5 -2 
0.5 4.5 S
1281.5 1041.5 0.5 -0.5 0.5 2.5 0.5 -1 0.5 1.5 0.5 -1.5 0.5 0.5 0.5 -1.5 
0.5 4 0.5 -2 0.5 -1.5 0.5 2.5 0 -3 0.5 2.5 0.5 0.5 0.5 -0.5 
0.5 -2 0.5 -0.5 0.5 2.5 0.5 0 0.5 1 0.5 -3.5 0.5 0.5 0.5 0 
0.5 -1.5 0.5 2 0.5 -2.5 0.5 -0.5 0.5 1 0.5 0.5 0.5 0 0.5 -2 
0.5 3.5 0.5 -3 0.5 0.5 0.5 3.5 0.5 -3 0.5 -1.5 0.5 2.5 0.5 -0.5 
0.5 -6.5 0 1 0.5 0 0.5 -2.5 0.5 3 0.5 -1.5 0.5 -1.5 0.5 6.5 
0.5 0.5 0.5 -3.5 0.5 2.5 0.5 2 0.5 -8.5 0.5 4 0.5 -2.5 0.5 2.5 
0.5 0 0.5 -1.5 0.5 1 0.5 -2 0.5 0 0.5 0 0.5 0.5 0.5 1 
0.5 1 0.5 -1.5 0.5 0.5 0.5 2 0.5 -3 0 -2.5 0.5 4 0.5 -2.5 
0.5 3 0.5 -0.5 0.5 3 0.5 0 0.5 0.5 0.5 4.5 0.5 -1 0.5 -1 
0.5 -1.5 0.5 2 0.5 2 0.5 -2.5 0.5 0.5 0.5 0 0.5 2.5 0.5 -4.5 
0.5 2 0.5 3 0.5 -4 0.5 1 0.5 3 0.5 -3.5 0.5 2 0.5 -1 
0.5 1.5 0.5 0.5 0 -1 0.5 0 0.5 -1 0.5 -1.5 0.5 0.5 0.5 1.5 
0.5 0.5 S
1331.5 1044 0.5 0 0.5 2 0.5 -4.5 0.5 1 0.5 2 0.5 -2.5 0.5 0.5 
0.5 1.5 0.5 -3 0.5 1.5 0.5 1.5 0.5 -2.5 0.5 2.5 0.5 -2 0.5 -1 
0.5 2.5 0.5 -2 0.5 -0.5 0.5 -0.5 0.5 0.5 0.5 0.5 0.5 2 0 -1 
0.5 0 0.5 0.5 0.5 -0.5 0.5 -1 0.5 1 0.5 -2 0.5 1.5 0.5 0 
0.5 1 0.5 -4 0.5 4 0.5 -2 0.5 2 0.5 -2.5 0.5 -0.5 0.5 1 
0.5 -1 0.5 0.5 0.5 -3 0.5 3 0.5 -2 0.5 2.5 0.5 -1 0.5 0.5 
0.5 0.5 0.5 1.5 0.5 0 0 -1.5 0.5 1.5 0.5 -2.5 0.5 0.5 0.5 1 
0.5 0 0.5 1 0.5 -2 0.5 0 0.5 0 0.5 1 0.5 -1 0.5 2 
0.5 -1 0.5 0 0.5 1.5 0.5 -2 0.5 -1 0.5 0 0.5 1 0.5 -1 
0.5 0.5 0.5 1 0.5 1 0.5 0 0.5 2.5 0.5 -2.5 0.5 -1 0.5 0.5 
0 1 0.5 -1 0.5 2 0.5 1 0.5 -113.5 0.5 108 0.5 3.5 0.5 2 
0.5 -4.5 0.5 6 0.5 -2.5 0.5 1 0.5 3 0.5 -2 0.5 -3 0.5 3.5 
0.5 -1 0.5 1.5 0.5 -2.5 0.5 -1 0.5 0.5 0.5 2.5 0.5 -2 0.5 -2 
0.5 3 S
1382 1045.5 0.5 -1 0.5 1 0.5 1.5 0.5 -1.5 0 -2.5 0.5 1.5 0.5 -2.5 
0.5 1 0.5 -2 0.5 2 0.5 0.5 0.5 0 0.5 0.5 0.5 -2 0.5 8.5 
0.5 0 0.5 0 0.5 -0.5 0.5 -0.5 0.5 0 0.5 1 0.5 -0.5 0.5 0 
0.5 -0.5 0.5 0.5 0.5 -1.5 0.5 0 0.5 -0.5 0.5 1 0.5 0.5 0.5 1 
0.5 -1 0.5 -0.5 0.5 1.5 0.5 -0.5 0.5 0 0.5 -1.5 0.5 -3 0.5 2.5 
0.5 -0.5 0.5 1 0.5 1 0.5 -1.5 0.5 1 0.5 1.5 0.5 0 0.5 -1 
0.5 1.5 0.5 -0.5 0.5 -1.5 0.5 1 0.5 -0.5 0.5 -0.5 0.5 2.5 0.5 -2 
0.5 2 0.5 -2.5 0.5 2.5 0.5 0 0.5 -1 0 0.5 0.5 -1 0.5 -0.5 
0.5 1.5 0.5 1.5 0.5 -0.5 0.5 0.5 0.5 -0.5 0.5 1.5 0.5 -2 0.5 1.5 
0.5 -1 0.5 1 0.5 1 0.5 -3 0.5 0.5 0.5 0 0.5 0 0.5 0.5 
0.5 -2.5 0.5 4.5 0.5 -4 0.5 2 0.5 0 0.5 1.5 0.5 -2.5 0.5 1 
0.5 1 0.5 1.5 0 -1.5 0.5 -0.5 0.5 -0.5 0.5 1 0.5 -0.5 0.5 -1 
0.5 1 0.5 -0.5 0.5 0 0.5 0.5 0.5 -1.5 0.5 2 0.5 -0.5 0.5 -1 
0.5 0.5 S
1432.5 1052 0.5 0.5 0.5 -1.5 0.5 1.5 0.5 -2 0.5 1 0.5 -1.5 0.5 1 
0.5 -2.5 0.5 3.5 0.5 -1 0.5 -3 0.5 3 0.5 -1 0.5 1 0 -0.5 
0.5 0 0.5 1 0.5 -1.5 0.5 -1 0.5 -4 0.5 0.5 0.5 -1.5 0.5 -5 
0.5 8 0.5 -1.5 0.5 -0.5 0.5 0.5 0.5 -1 0.5 2 0.5 3 0.5 0.5 
0.5 -1 0.5 2 0.5 0 0.5 -1.5 0.5 3 0.5 -1.5 0.5 0 0.5 0.5 
0.5 -1.5 0.5 0.5 0.5 -1 0.5 0 0 1.5 0.5 -2 0.5 -5 0.5 0.5 
0.5 2 0.5 1 0.5 1 0.5 1 0.5 1 0.5 -3.5 0.5 2.5 0.5 -1.5 
0.5 3.5 0.5 0 0.5 -1.5 0.5 -0.5 0.5 0.5 0.5 2 0.5 -2 0.5 -7 
0.5 2 0.5 1 0.5 3 0.5 0.5 0.5 0 0.5 -1.5 0.5 2.5 0.5 0 
0 0.5 0.5 -0.5 0.5 0.5 0.5 1 0.5 0 0.5 -2.5 0.5 2.5 0.5 -1 
0.5 1 0.5 -2 0.5 2.5 0.5 -1 0.5 0.5 0.5 0.5 0.5 -0.5 0.5 0.5 
0.5 -0.5 0.5 0.5 0.5 -0.5 0.5 -1.5 0.5 1 0.5 0 0.5 0 0.5 2 
0.5 -2 0.5 1.5 0.5 0 0.5 -1.5 0.5 3 0 -1 0.5 0 0.5 0 
0.5 -0.5 S
1482.5 1053 0.5 -1 0.5 -0.5 0.5 0 0.5 0 0.5 -2 0.5 0.5 0.5 0 
0.5 0.5 0.5 -0.5 0.5 -0.5 0.5 0 0.5 0.5 0.5 -1 0.5 0 0.5 0.5 
0.5 2 0.5 -2 0.5 -0.5 0.5 -1.5 0.5 -2.5 0.5 2 0.5 0 0.5 -1 
0.5 3 0.5 -2.5 0 2.5 0.5 -1 0.5 1.5 0.5 0.5 0.5 -1 0.5 1 
0.5 1.5 0.5 -1.5 0.5 0 0.5 -0.5 0.5 -0.5 0.5 0.5 0.5 1 0.5 0 
0.5 -6.5 0.5 5.5 0.5 1 0.5 -1 0.5 0.5 0.5 0 0.5 -0.5 0.5 -0.5 
0.5 3 0.5 -2.5 0.5 1.5 0.5 -2 0.5 1.5 0.5 1 0 -1 0.5 2.5 
0.5 -3 0.5 0 0.5 1.5 0.5 -3 0.5 3 0.5 0 0.5 0 0.5 0 
0.5 1 0.5 -3 0.5 3 0.5 -1.5 0.5 1 0.5 0 0.5 -1.5 0.5 0.5 
0.5 1.5 0.5 -0.5 0.5 1 0.5 0.5 0.5 -1.5 0.5 1 0.5 -1 0.5 0.5 
0.5 -1 0.5 0.5 0.5 0.5 0 -0.5 0.5 1 0.5 -1.5 0.5 2 0.5 -1.5 
0.5 0 0.5 -0.5 0.5 2 0.5 -1 0.5 2.5 0.5 -1.5 0.5 0.5 0.5 0.5 
0.5 -2 0.5 -1.5 0.5 1.5 0.5 -1 0.5 0.5 0.5 2 0.5 -6 0.5 2 
0.5 -0.5 S
1533 1049.5 0.5 0 0.5 -0.5 0.5 1 0.5 -1.5 0.5 -0.5 0.5 2 0.5 -1 
0 0.5 0.5 -2 0.5 2 0.5 -2.5 0.5 2 0.5 -2.5 0.5 3.5 0.5 -1 
0.5 2 0.5 -1 0.5 -1.5 0.5 -0.5 0.5 0.5 0.5 2 0.5 0.5 0.5 2 
0.5 -3 0.5 -0.5 0.5 0.5 0.5 1.5 0.5 -1 0.5 0 0.5 0 0.5 -1 
0.5 0.5 0.5 2.5 0.5 0 0.5 -0.5 0.5 -2 0 2.5 0.5 -2.5 0.5 2.5 
0.5 -1 0.5 1 0.5 0 0.5 0.5 0.5 0 0.5 -0.5 0.5 -2.5 0.5 2.5 
0.5 -1.5 0.5 2 0.5 -1.5 0.5 0 0.5 -0.5 0.5 0.5 0.5 1.5 0.5 0 
0.5 1 0.5 -1 0.5 0 0.5 1 0.5 -0.5 0.5 0 0.5 -1 0.5 0 
0.5 2.5 0 -1 0.5 1 0.5 0.5 0.5 0 0.5 0 0.5 -1.5 0.5 0 
0.5 -4 0.5 4.5 0.5 -1 0.5 -1.5 0.5 1 0.5 0.5 0.5 0.5 0.5 0 
0.5 0 0.5 -1 0.5 1 0.5 1 0.5 0 0.5 -0.5 0.5 -1 0.5 -0.5 
0.5 0.5 0.5 -2 0.5 1 0.5 -0.5 0.5 -2 0.5 1 0 0.5 0.5 0 
0.5 0 0.5 1 0.5 -3 0.5 0.5 0.5 0 0.5 -1 0.5 -0.5 0.5 1 
0.5 -1 S
1583 1048.5 0.5 1.5 0.5 -1.5 0.5 -1.5 0.5 1 0.5 0 0.5 0 0.5 0.5 
0.5 0 0.5 -0.5 0.5 0.5 0.5 1 0.5 1 0.5 -2.5 0.5 2 0.5 0.5 
0.5 -1 0.5 1 0.5 -1 0 0.5 0.5 -1 0.5 1.5 0.5 -1.5 0.5 -0.5 
0.5 2 0.5 -0.5 0.5 -0.5 0.5 0.5 0.5 0 0.5 -1 0.5 -0.5 0.5 -1.5 
0.5 2.5 0.5 -0.5 0.5 -7 0.5 9 0.5 -0.5 0.5 -1.5 0.5 0 0.5 0 
0.5 1 0.5 0.5 0.5 0 0.5 -0.5 0.5 -1 0.5 1.5 0.5 -0.5 0.5 1.5 
0 -0.5 0.5 1 0.5 0 0.5 0 0.5 0.5 0.5 1.5 0.5 0.5 0.5 -3.5 
0.5 1 0.5 1 0.5 -0.5 0.5 -27.5 0.5 25 0.5 1 0.5 2 0.5 -0.5 
0.5 0 0.5 -0.5 0.5 3 0.5 -1.5 0.5 -5 0.5 3.5 0.5 1.5 0.5 0.5 
0.5 -1.5 0.5 -2 0.5 4 0.5 -0.5 0 -0.5 0.5 0.5 0.5 -2.5 0.5 2 
0.5 -0.5 0.5 -1 0.5 1 0.5 0 0.5 0 0.5 -2.5 0.5 0.5 0.5 -1 
0.5 1 0.5 -0.5 0.5 -1.5 0.5 1.5 0.5 0 0.5 -1 0.5 1.5 0.5 -1.5 
0.5 -1 0.5 0.5 0.5 0.5 0.5 -0.5 0.5 0 0.5 1 0.5 -0.5 0.5 0 
0.5 -0.5 S
1633.5 1049 0 -3.5 0.5 3 0.5 1 0.5 -1.5 0.5 2 0.5 -1.5 0.5 -0.5 
0.5 1 0.5 -2.5 0.5 2 0.5 -5 0.5 3 0.5 1.5 0.5 0 0.5 0 
0.5 1 0.5 0 0.5 -1 0.5 1.5 0.5 0.5 0.5 -0.5 0.5 1 0.5 -2.5 
0.5 0.5 0.5 -4.5 0.5 1.5 0.5 -2.5 0.5 4 0.5 -4 0 2 0.5 1.5 
0.5 -1 0.5 4.5 0.5 0 0.5 0 0.5 0.5 0.5 0 0.5 3 0.5 -3.5 
0.5 0.5 0.5 0.5 0.5 1 0.5 -0.5 0.5 -0.5 0.5 3.5 0.5 -3 0.5 -1 
0.5 1 0.5 1 0.5 1.5 0.5 -2 0.5 1.5 0.5 -8 0.5 -10.5 0.5 -1 
0.5 -1 0.5 0 0 -0.5 0.5 6.5 0.5 12.5 0.5 -1 0.5 3 0.5 -1 
0.5 -3 0.5 2.5 0.5 0 0.5 0 0.5 -0.5 0.5 0.5 0.5 0 0.5 0 
0.5 -1 0.5 1 0.5 -1 0.5 -0.5 0.5 1 0.5 2 0.5 -1.5 0.5 1 
0.5 -4 0.5 2.5 0.5 -1.5 0.5 1.5 0.5 0 0.5 -0.5 0.5 -1.5 0 1.5 
0.5 -1.5 0.5 -18.5 0.5 0 0.5 18 0.5 -1.5 0.5 0 0.5 1 0.5 2.5 
0.5 -5.5 0.5 -14.5 0.5 1 0.5 0 0.5 -1.5 0.5 0 0.5 -3 0.5 3 
0.5 -0.5 S
1683.5 1030 0.5 2.5 0.5 -1.5 0.5 -0.5 0.5 1 0.5 -3 0.5 1 0.5 2 
0.5 0 0.5 -2 0.5 0.5 0.5 2 0 16.5 0.5 -1 0.5 0 0.5 0.5 
0.5 -1.5 0.5 -4.5 0.5 7.5 0.5 -1 0.5 -0.5 0.5 -0.5 0.5 3 0.5 -3 
0.5 1 0.5 -1 0.5 -2 0.5 2 0.5 2 0.5 -0.5 0.5 -1.5 0.5 -42 
0.5 41.5 0.5 -1 0.5 2.5 0.5 0.5 0.5 -0.5 0.5 1 0.5 0 0.5 0 
0.5 -0.5 0 0.5 0.5 -2 0.5 3.5 0.5 0 0.5 -1.5 0.5 0.5 0.5 1.5 
0.5 -1.5 0.5 2.5 0.5 -1.5 0.5 -0.5 0.5 -2 0.5 3 0.5 -1 0.5 1.5 
0.5 -1 0.5 0 0.5 0 0.5 -0.5 0.5 -5.5 0.5 -1.5 0.5 -1 0.5 1.5 
0.5 -8 0.5 -2 0.5 0.5 0.5 -1 0.5 -2.5 0 1 0.5 2.5 0.5 0.5 
0.5 -3 0.5 1.5 0.5 -2.5 0.5 1.5 0.5 -2 0.5 1.5 0.5 -2.5 0.5 4 
0.5 -1.5 0.5 -1.5 0.5 -2.5 0.5 12.5 0.5 1 0.5 0 0.5 -2 0.5 -0.5 
0.5 3 0.5 0.5 0.5 -2.5 0.5 1.5 0.5 -0.5 0.5 0.5 0.5 -1.5 0.5 -0.5 
0.5 2.5 0.5 -4.5 0 3 0.5 -21 0.5 22.5 0.5 -2 0.5 -1 0.5 -34 
0.5 31.5 S
1733.5 1036.5 0.5 3.5 0.5 0.5 0.5 -1.5 0.5 1 0.5 -0.5 0.5 0.5 0.5 1.5 
0.5 -1.5 0.5 1 0.5 0.5 0.5 -1 0.5 0.5 0.5 -4.5 0.5 4 0.5 1.5 
0.5 0.5 0.5 -2 0.5 2 0.5 -1.5 0.5 1.5 0.5 0 0.5 0.5 0 -1.5 
0.5 0.5 0.5 1 0.5 -2.5 0.5 1 0.5 -0.5 0.5 -1 0.5 1.5 0.5 -1 
0.5 3 0.5 -1 0.5 0 0.5 0 0.5 0.5 0.5 1 0.5 -2 0.5 2 
0.5 -1 0.5 -2.5 0.5 4.5 0.5 -3.5 0.5 0 0.5 -1 0.5 1.5 0.5 0 
0.5 2 0.5 -3 0.5 3 0 -3 0.5 -31.5 0.5 33.5 0.5 0.5 0.5 -1 
0.5 0.5 0.5 0.5 0.5 -0.5 0.5 1 0.5 -3.5 0.5 -394 0.5 394 0.5 1.5 
0.5 2 0.5 0 0.5 -3.5 0.5 -1.5 0.5 3.5 0.5 -2 0.5 4 0.5 -1.5 
0.5 -1 0.5 3 0.5 -2.5 0.5 -0.5 0.5 -0.5 0.5 -158 0.5 117 0.5 39.5 
0 -3 0.5 2.5 0.5 -1 0.5 1 0.5 0.5 0.5 0.5 0.5 -1 0.5 -0.5 
0.5 1 0.5 0 0.5 1 0.5 0.5 0.5 0.5 0.5 -2 0.5 1 0.5 -2 
0.5 0 0.5 -0.5 0.5 1 0.5 0 0.5 1.5 0.5 -2.5 0.5 1 0.5 3 
0.5 -3 S
1784 1039.5 0.5 3.5 0.5 -2.5 0.5 0.5 0.5 0.5 0 1 0.5 -4 0.5 3.5 
0.5 -1 0.5 0.5 0.5 1.5 0.5 -4 0.5 0.5 0.5 1 0.5 0 0.5 0 
0.5 -1 0.5 -2 0.5 3 0.5 0 0.5 1.5 0.5 -2 0.5 2 0.5 -2 
0.5 2 0.5 -2.5 0.5 1 0.5 -1.5 0.5 -1.5 0.5 4.5 0.5 0 0.5 -2 
0.5 2 0.5 0 0 -1.5 0.5 -0.5 0.5 1.5 0.5 0.5 0.5 0 0.5 1 
0.5 -1 0.5 -4.5 0.5 4.5 0.5 1 0.5 -0.5 0.5 -0.5 0.5 1 0.5 -1.5 
0.5 0 0.5 -0.5 0.5 0 0.5 -1 0.5 3 0.5 1 0.5 -2 0.5 1 
0.5 0.5 0.5 -0.5 0.5 1.5 0.5 -2 0.5 -0.5 0.5 0.5 0 -1 0.5 -0.5 
0.5 2.5 0.5 -1 0.5 -0.5 0.5 -2 0.5 1 0.5 -1 0.5 0.5 0.5 0.5 
0.5 0.5 0.5 -0.5 0.5 -0.5 0.5 -1 0.5 0.5 0.5 -1.5 0.5 1.5 0.5 -1.5 
0.5 1 0.5 0 0.5 0.5 0.5 -1.5 0.5 0.5 0.5 0.5 0.5 -1 0.5 0 
0.5 2 0.5 -2 0.5 -0.5 0 1 0.5 0.5 0.5 0 0.5 1 0.5 -2.5 
0.5 2 0.5 0 0.5 2 0.5 0 0.5 -1.5 0.5 0.5 0.5 0 0.5 0.5 
0.5 -1.5 S
1834 1040 0.5 1.5 0.5 -0.5 0.5 0 0.5 0.5 0.5 1.5 0.5 0.5 0.5 -1 
0.5 0 0.5 -0.5 0.5 1 0.5 -0.5 0.5 -0.5 0.5 0 0.5 3 0.5 -4 
0 2 0.5 -1.5 0.5 1.5 0.5 -2.5 0.5 2.5 0.5 -1.5 0.5 3.5 0.5 -5.5 
0.5 -73 0.5 67 0.5 -45 0.5 -7.5 0.5 61 0.5 -0.5 0.5 3.5 0.5 -2.5 
0.5 2 0.5 -3 0.5 3.5 0.5 0 0.5 1 0.5 -1.5 0.5 2.5 0.5 -3 
0.5 -1.5 0.5 2.5 0.5 0 0.5 -1 0.5 1 0 -1 0.5 2 0.5 0 
0.5 -1 0.5 0.5 0.5 -0.5 0.5 -0.5 0.5 1.5 0.5 0 0.5 1 0.5 -2.5 
0.5 2.5 0.5 -2.5 0.5 1.5 0.5 -0.5 0.5 -1.5 0.5 3 0.5 -4 0.5 1.5 
0.5 -1.5 0.5 -0.5 0.5 -332 0.5 111 0.5 -175 0.5 363 0.5 33 0.5 0 
0.5 -0.5 0 -2.5 0.5 0 0.5 -1 0.5 3.5 0.5 -0.5 0.5 0.5 0.5 0 
0.5 -0.5 0.5 -2 0.5 2 0.5 0 0.5 -2.5 0.5 2 0.5 1 0.5 2 
0.5 -1.5 0.5 -3.5 0.5 4 0.5 0 0.5 0.5 0.5 -1 0.5 0 0.5 -1.5 
0.5 3 0.5 -2 0.5 1.5 0.5 1 0.5 -126 0.5 119.5 0 -0.5 0.5 0.5 
0.5 1.5 S
1884 1039.5 0.5 -1 0.5 1 0.5 -1 0.5 0.5 0.5 1 0.5 1 0.5 -1 
0.5 3 0.5 -3 0.5 1 0.5 2 0.5 0.5 0.5 -1.5 0.5 -1.5 0.5 5 
0.5 -1 0.5 -0.5 0.5 -0.5 0.5 1 0.5 2 0.5 1 0.5 -2.5 0.5 4.5 
0.5 -5 0.5 3.5 0.5 -1.5 0 -2 0.5 -0.5 0.5 1 0.5 2.5 0.5 -2 
0.5 2.5 0.5 5 0.5 1 0.5 -1 0.5 0 0.5 -1 0.5 1 0.5 0 
0.5 1 0.5 -1.5 0.5 1.5 0.5 0.5 0.5 1 0.5 -3 0.5 2 0.5 -2 
0.5 1 0.5 -1.5 0.5 1.5 0.5 0.5 0.5 -2 0.5 0 0.5 0 0 -1 
0.5 1.5 0.5 -2 0.5 0.5 0.5 0 0.5 -1.5 0.5 2.5 0.5 -1 0.5 0 
0.5 2.5 0.5 -1 0.5 -1 0.5 0 0.5 1.5 0.5 -3 0.5 0 0.5 -1.5 
0.5 2.5 0.5 1.5 0.5 -1.5 0.5 1 0.5 -1 0.5 -0.5 0.5 -1 0.5 -1.5 
0.5 1 0.5 -0.5 0.5 0 0.5 2 0 -1.5 0.5 -0.5 0.5 1.5 0.5 0.5 
0.5 1 0.5 -0.5 0.5 0 0.5 -0.5 0.5 1.5 0.5 -1 0.5 -2.5 0.5 2 
0.5 0.5 0.5 -1 0.5 1 0.5 1 0.5 0 0.5 -1 0.5 -1 0.5 1 
0.5 -1.5 S
1934.5 1049.5 0.5 0.5 0.5 -1 0.5 1.5 0.5 -0.5 0.5 2 0.5 -1 0.5 -1.5 
0.5 3 0 -1 0.5 -1 0.5 -3.5 0.5 4.5 0.5 1.5 0.5 -3.5 0.5 0 
0.5 3 0.5 0 0.5 1 0.5 -2 0.5 0.5 0.5 1.5 0.5 0 0.5 -1 
0.5 1 0.5 -0.5 0.5 -0.5 0.5 0.5 0.5 1 0.5 -0.5 0.5 0 0.5 -0.5 
0.5 1.5 0.5 0 0.5 -2 0.5 1.5 0.5 -2 0.5 -0.5 0 1.5 0.5 -0.5 
0.5 0.5 0.5 0.5 0.5 -2 0.5 0.5 0.5 -1.5 0.5 1 0.5 0 0.5 -1 
0.5 -1.5 0.5 2.5 0.5 -1 0.5 2 0.5 -3 0.5 2 0.5 -2 0.5 2.5 
0.5 -0.5 0.5 1 0.5 -2.5 0.5 2 0.5 -0.5 0.5 0 0.5 -3.5 0.5 2.5 
0.5 0.5 0.5 0.5 0 -1.5 0.5 0 0.5 1 0.5 -1.5 0.5 -0.5 0.5 -0.5 
0.5 2 0.5 0.5 0.5 -1.5 0.5 0 0.5 2 0.5 -3 0.5 -0.5 0.5 1 
0.5 2 0.5 -1 0.5 0 0.5 1.5 0.5 -2 0.5 1.5 0.5 1 0.5 -2.5 
0.5 0 0.5 0.5 0.5 1 0.5 0 0.5 0 0.5 -2.5 0.5 1.5 0 2 
0.5 -0.5 0.5 -1 0.5 0.5 0.5 -0.5 0.5 -2.5 0.5 -1 0.5 1.5 0.5 -1 
0.5 3 S
1984.5 1050.5 0.5 -1.5 0.5 2.5 0.5 0 0.5 -0.5 0.5 -1 0.5 0 0.5 1 
0.5 0 0.5 3 0.5 -3 0.5 -0.5 0.5 1 0.5 -1 0.5 2.5 0.5 -1 
0.5 -1 0.5 2 0.5 -3 0.5 0.5 0 1 0.5 1 0.5 1 0.5 -1 
0.5 -2 0.5 3 0.5 -1 0.5 0.5 0.5 -2 0.5 0.5 0.5 -1 0.5 0.5 
0.5 0 0.5 1.5 0.5 -0.5 0.5 -1.5 0.5 1.5 0.5 1 0.5 -0.5 0.5 -3 
0.5 1.5 0.5 -1.5 0.5 -0.5 0.5 -0.5 0.5 0 0.5 1.5 0.5 -0.5 0.5 -28.5 
0.5 28 0 1 0.5 -1.5 0.5 1 0.5 0 0.5 -0.5 0.5 -0.5 0.5 -56.5 
0.5 57.5 0.5 0.5 0.5 0.5 0.5 -1.5 0.5 2 0.5 -2.5 0.5 1 0.5 -2.5 
0.5 4.5 0.5 -1.5 0.5 0.5 0.5 1.5 0.5 -162.5 0.5 161.5 0.5 -4 0.5 3 
0.5 -1 0.5 2 0.5 -0.5 0.5 -0.5 0.5 -0.5 0.5 -1 0.5 -35.5 0.5 35.5 
0.5 1.5 0.5 0.5 0.5 -0.5 0.5 0 0.5 -0.5 0.5 -0.5 0.5 0.5 0.5 -0.5 
0.5 0.5 0.5 -1 0.5 1 0.5 0.5 0.5 -0.5 0.5 0.5 0.5 -0.5 0.5 -1.5 
0.5 2 0.5 -3.5 0.5 2.5 0.5 -397.5 0.5 -5 0.5 0 0.5 202.5 0.5 193.5 
0.5 -281 S
2035.5 761.5 0 -114.5 0.5 -0.5 0.5 402 0.5 2.5 0.5 1.5 0.5 -2 0.5 -0.5 
0.5 -1.5 0.5 1.5 0.5 1 0.5 0.5 0.5 -1 0.5 1 0.5 1 0.5 -1 
0.5 -0.5 0.5 0.5 0.5 -0.5 0.5 -1.5 0.5 1 0.5 0 0.5 1.5 0.5 -1.5 
0.5 -0.5 0.5 -1 0.5 -1 0.5 1 0.5 -1.5 0.5 1 0.5 0 0.5 -2 
0.5 0 0.5 0.5 0.5 -0.5 0.5 2.5 0.5 -0.5 0.5 -0.5 0.5 1 0.5 -2.5 
0.5 1.5 0.5 0.5 0.5 0.5 0.5 1.5 0.5 -2 0.5 2.5 0.5 -3.5 0.5 -0.5 
0.5 2 0.5 2 0.5 -3 0.5 1 0.5 -2 0.5 -4 0.5 1.5 0.5 -2.5 
0.5 3.5 0 -1.5 0.5 6 0.5 -2.5 0.5 0.5 0.5 -1 0.5 0.5 0.5 -0.5 
0.5 1 0.5 1 0.5 -1.5 0.5 1.5 0.5 -3.5 0.5 3.5 0.5 -4 0.5 1.5 
0.5 1 0.5 -3 0.5 0.5 0.5 0 0.5 3 0.5 -0.5 0.5 -2.5 0.5 2.5 
0.5 -0.5 0.5 -1.5 0.5 0.5 0.5 0.5 0.5 0.5 0.5 -0.5 0 1 0.5 -0.5 
0.5 2.5 0.5 -4 0.5 2.5 0.5 -0.5 0.5 -1 0.5 -0.5 0.5 -0.5 0.5 2 
0.5 0.5 0.5 -1.5 0.5 1 0.5 -1.5 0.5 1 0.5 0 0.5 2.5 0.5 -1 
0.5 -1.5 S
2086 1047 0.5 1 0.5 -1.5 0.5 0 0.5 1 0.5 -1 0.5 1 0.5 1.5 
0.5 1 0.5 -1.5 0.5 0.5 0 -2 0.5 1.5 0.5 -1.5 0.5 -0.5 0.5 -1.5 
0.5 0.5 0.5 3 0.5 -1.5 0.5 2 0.5 -1 0.5 1 0.5 -1.5 0.5 -1 
0.5 -0.5 0.5 -1 0.5 -3 0.5 3.5 0.5 0 0.5 4 0.5 -1.5 0.5 -2 
0.5 0.5 0.5 0.5 0.5 1 0.5 0.5 0.5 -2 0.5 1 0.5 -1 0.5 0 
0 -1 0.5 -0.5 0.5 2.5 0.5 0.5 0.5 -1 0.5 -1.5 0.5 3 0.5 -2 
0.5 1.5 0.5 -3.5 0.5 2 0.5 0 0.5 0 0.5 1 0.5 0 0.5 -1 
0.5 -0.5 0.5 -1 0.5 2.5 0.5 -0.5 0.5 0 0.5 -1 0.5 0 0.5 0 
0.5 -0.5 0.5 1 0.5 1 0.5 -1 0 -1.5 0.5 2 0.5 -0.5 0.5 1.5 
0.5 0 0.5 -2 0.5 0.5 0.5 1 0.5 -1.5 0.5 2.5 0.5 0 0.5 -2 
0.5 -0.5 0.5 1 0.5 -0.5 0.5 0 0.5 1 0.5 -0.5 0.5 -0.5 0.5 2 
0.5 -3 0.5 1.5 0.5 1 0.5 -2 0.5 2 0.5 0 0.5 0.5 0.5 -0.5 
0.5 2 0 -2 0.5 -0.5 0.5 3 0.5 -3 0.5 1.5 0.5 0.5 0.5 2 
0.5 -2.5 S
2136 1049 0.5 0 0.5 -1 0.5 2 0.5 -0.5 0.5 -0.5 0.5 0 0.5 1.5 
0.5 -3 0.5 1 0.5 1 0.5 -0.5 0.5 -0.5 0.5 0.5 0.5 -1 0.5 0 
0.5 0 0.5 -1.5 0.5 1.5 0.5 -401.5 0.5 0 0.5 0 0.5 0 0.5 0 
0.5 2 0.5 397 0.5 0.5 0.5 -0.5 0.5 0.5 0.5 -1 0.5 0 0.5 0.5 
0.5 -1 0.5 0.5 0.5 0 0.5 1 0.5 -0.5 0.5 -1.5 0.5 0.5 0.5 -0.5 
0.5 3.5 0.5 -2 0.5 1 0.5 -2 0.5 1 0.5 0 0.5 0 0.5 0.5 
0.5 -0.5 0.5 1 0.5 1.5 0.5 -50 0.5 48.5 0.5 1 0.5 -1 0.5 -1.5 
0.5 1 0.5 1.5 0.5 -1 0.5 -1 0.5 0 0.5 2 0.5 0.5 0.5 -1.5 
0.5 1 0.5 -1.5 0.5 2 0.5 -1 0.5 1.5 0.5 -1 0.5 -4 0.5 2 
0.5 -0.5 0.5 0 0.5 1.5 0.5 0.5 0.5 -3 0 2.5 0.5 -0.5 0.5 -2 
0.5 0 0.5 1 0.5 3.5 0.5 -1 0.5 -2.5 0.5 2.5 0.5 -3 0.5 2.5 
0.5 -1 0.5 1.5 0.5 -1 0.5 2 0.5 -2.5 0.5 1 0.5 -1 0.5 0.5 
0.5 -1 0.5 1 0.5 0 0.5 2 0.5 -1 0.5 0 0.5 -1 0.5 2.5 
0.5 1 S
2187.5 1050 0.5 -2 0 -3.5 0.5 -119 0.5 123 0.5 -2.5 0.5 0 0.5 0 
0.5 0.5 0.5 0.5 0.5 -0.5 0.5 1.5 0.5 -0.5 0.5 -0.5 0.5 -0.5 0.5 0 
0.5 -1.5 0.5 2.5 0.5 -2.5 0.5 2 0.5 -0.5 0.5 0 0.5 2.5 0.5 -1 
0.5 -0.5 0.5 -1.5 0.5 -0.5 0.5 2 0.5 -1.5 0.5 -1 0.5 0 0 1.5 
0.5 0.5 0.5 1.5 0.5 -3.5 0.5 2 0.5 0.5 0.5 4 0.5 0.5 0.5 -2 
0.5 0 0.5 1 0.5 -1.5 0.5 -1.5 0.5 -2 0.5 3.5 0.5 -3.5 0.5 3 
0.5 -2.5 0.5 -2.5 0.5 3 0.5 0 0.5 -2 0.5 1 0.5 0 0.5 1.5 
0.5 -0.5 0.5 1 0.5 -1.5 0 -0.5 0.5 1.5 0.5 -2 0.5 1.5 0.5 -0.5 
0.5 -0.5 0.5 1 0.5 3 0.5 1 0.5 -0.5 0.5 -0.5 0.5 0 0.5 0 
0.5 -1.5 0.5 2.5 0.5 -1.5 0.5 0.5 0.5 2.5 0.5 -1.5 0.5 0 0.5 2 
0.5 -3 0.5 -1 0.5 2.5 0.5 0 0.5 -1 0.5 0 0.5 0 0.5 1.5 
0 -1.5 0.5 2 0.5 -2.5 0.5 2 0.5 1.5 0.5 -1.5 0.5 -3.5 0.5 2 
0.5 1 0.5 0 0.5 -1 0.5 -2 0.5 -0.5 0.5 2 0.5 -1 0.5 -2 
0.5 1 S
2237.5 1048 0.5 0 0.5 -2 0.5 3.5 0.5 -3.5 0.5 0.5 0.5 -1 0.5 0.5 
0.5 1.5 0.5 -0.5 0.5 1.5 0.5 0.5 0.5 -3.5 0 2.5 0.5 2.5 0.5 -6.5 
0.5 3 0.5 0.5 0.5 -3 0.5 2 0.5 1 0.5 -0.5 0.5 0 0.5 0.5 
0.5 2 0.5 -1.5 0.5 0 0.5 -0.5 0.5 0.5 0.5 1 0.5 -1.5 0.5 -6 
0.5 5 0.5 -5 0.5 8.5 0.5 0.5 0.5 -2.5 0.5 -2 0.5 2 0.5 0.5 
0.5 0.5 0.5 -0.5 0 1.5 0.5 -0.5 0.5 -1 0.5 -1 0.5 0.5 0.5 0 
0.5 0 0.5 -1.5 0.5 -1 0.5 1.5 0.5 1.5 0.5 -1 0.5 -1.5 0.5 2.5 
0.5 0 0.5 -0.5 0.5 0 0.5 0.5 0.5 -1.5 0.5 -0.5 0.5 -0.5 0.5 2 
0.5 -2.5 0.5 2.5 0.5 1.5 0.5 0 0.5 -1 0.5 -0.5 0 1 0.5 -0.5 
0.5 0 0.5 2 0.5 -2 0.5 1.5 0.5 -2 0.5 2.5 0.5 0.5 0.5 0 
0.5 -3 0.5 0 0.5 3.5 0.5 -1 0.5 -2.5 0.5 3 0.5 -0.5 0.5 1 
0.5 0 0.5 -1 0.5 0 0.5 1 0.5 -2.5 0.5 -0.5 0.5 -2 0.5 -0.5 
0.5 -0.5 0.5 0.5 0.5 1.5 0.5 -1.5 0.5 0 0.5 0 0.5 2 0.5 -1 
0.5 1 S
2288 1048 0.5 1 0.5 -1.5 0.5 0.5 0.5 -2.5 0.5 2 0.5 -0.5 0.5 -1.5 
0.5 2.5 0.5 -1.5 0.5 1 0.5 -2 0.5 1 0.5 -0.5 0.5 1.5 0.5 -0.5 
0.5 0.5 0.5 -2 0.5 -1.5 0.5 0.5 0.5 2 0.5 -2 0.5 1.5 0 -2 
0.5 -1.5 0.5 2.5 0.5 2.5 0.5 -1 0.5 -29.5 0.5 31 0.5 -0.5 0.5 1.5 
0.5 -3 0.5 1 0.5 -1.5 0.5 2.5 0.5 -1.5 0.5 2 0.5 -0.5 0.5 0 
0.5 -1 0.5 0 0.5 1.5 0.5 -3.5 0.5 2 0.5 2.5 0.5 -1 0.5 -2 
0.5 1 0.5 1.5 0.5 0 0 1 0.5 -2 0.5 1 0.5 -0.5 0.5 1 
0.5 -1 0.5 -0.5 0.5 0 0.5 1 0.5 -1 0.5 0.5 0.5 0 0.5 2 
0.5 -1 0.5 0.5 0.5 0 0.5 -0.5 0.5 -1 0.5 2 0.5 -1.5 0.5 1 
0.5 0.5 0.5 0 0.5 0 0.5 -0.5 0.5 -0.5 0.5 -1.5 0.5 1.5 0.5 3 
0 -2.5 0.5 1 0.5 -1.5 0.5 2 0.5 -2.5 0.5 -0.5 0.5 -0.5 0.5 2 
0.5 -3.5 0.5 3 0.5 -1.5 0.5 -1.5 0.5 1 0.5 0.5 0.5 0 0.5 -2 
0.5 0 0.5 0.5 0.5 0.5 0.5 1.5 0.5 -2.5 0.5 0 0.5 1 0.5 2 
0.5 -3 S
2338.5 1046 0.5 1.5 0.5 -0.5 0.5 1.5 0.5 -1 0 1 0.5 -1.5 0.5 2 
0.5 -2 0.5 2 0.5 -1.5 0.5 1 0.5 -2 0.5 -1.5 0.5 2.5 0.5 0.5 
0.5 0.5 0.5 -0.5 0.5 -0.5 0.5 -0.5 0.5 -0.5 0.5 2 0.5 0 0.5 0 
0.5 2 0.5 0 0.5 -1.5 0.5 -3 0.5 1.5 0.5 1 0.5 -1 0.5 1 
0.5 -0.5 0.5 0 0.5 0 0.5 0 0.5 0.5 0.5 -2.5 0.5 1.5 0.5 0 
0.5 2 0.5 -1.5 0.5 1 0.5 -0.5 0.5 -0.5 0.5 0 0.5 -0.5 0.5 1 
0.5 -2 0.5 1 0.5 2 0.5 -1 0.5 0 0.5 1.5 0.5 0.5 0.5 -1.5 
0.5 -0.5 0.5 2.5 0.5 -1.5 0.5 0.5 0.5 0.5 0 -1 0.5 1 0.5 -2 
0.5 0.5 0.5 3 0.5 -1 0.5 -1.5 0.5 0 0.5 1.5 0.5 -2 0.5 3.5 
0.5 -2 0.5 -1.5 0.5 2 0.5 -1.5 0.5 1 0.5 0 0.5 0.5 0.5 -5 
0.5 2 0.5 1.5 0.5 -3 0.5 2 0.5 -1 0.5 -0.5 0.5 0.5 0.5 1 
0.5 -2 0.5 -0.5 0 1.5 0.5 -1.5 0.5 1 0.5 1 0.5 0 0.5 0 
0.5 0.5 0.5 -1 0.5 -0.5 0.5 -7.5 0.5 7.5 0.5 1 0.5 0.5 0.5 -1 
0.5 2 S
2389 1049.5 0.5 -1 0.5 -1 0.5 -1.5 0.5 1.5 0.5 1.5 0.5 -1 0.5 -0.5 
0.5 1 0.5 0.5 0.5 -1 0.5 0 0.5 0.5 0.5 0 0.5 0 0 0.5 
0.5 -1 0.5 -0.5 0.5 -0.5 0.5 0 0.5 -1 0.5 1.5 0.5 0.5 0.5 -0.5 
0.5 -0.5 0.5 3 0.5 -3.5 0.5 -0.5 0.5 3 0.5 -1.5 0.5 -1 0.5 0 
0.5 0 0.5 0.5 0.5 -1 0.5 1.5 0.5 -1.5 0.5 1 0.5 2 0.5 -1 
0.5 -0.5 0.5 -0.5 0.5 1.5 0.5 -0.5 0 0.5 0.5 0 0.5 1 0.5 0 
0.5 -0.5 0.5 1 0.5 -1 0.5 -0.5 0.5 0 0.5 0 0.5 1.5 0.5 0 
0.5 -1.5 0.5 2 0.5 -2 0.5 -1 0.5 1 0.5 0.5 0.5 1 0.5 -1 
0.5 -0.5 0.5 0.5 0.5 0.5 0.5 0.5 0.5 1 0.5 -3 0.5 1 0.5 1 
0 -1 0.5 1 0.5 -1.5 0.5 -0.5 0.5 0 0.5 1 0.5 -1.5 0.5 1 
0.5 -1.5 0.5 0 0.5 2.5 0.5 -2.5 0.5 -0.5 0.5 0 0.5 1.5 0.5 0 
0.5 -1 0.5 -1 0.5 0.5 0.5 1.5 0.5 -0.5 0.5 -2 0.5 0 0.5 -0.5 
0.5 2.5 0.5 -5 0.5 7 0.5 -3 0.5 0 0 -1 0.5 0 0.5 0 
0.5 0.5 S
2439 1046 0.5 2.5 0.5 -3 0.5 0 0.5 -10 0.5 10.5 0.5 -2 0.5 3 
0.5 -1 0.5 -0.5 0.5 -4 0.5 5 0.5 -12 0.5 9.5 0.5 -1 0.5 2.5 
0.5 -1.5 0.5 -9.5 0.5 9 0.5 2 0.5 -7 0.5 7.5 0.5 -1.5 0.5 2 
0.5 0.5 0.5 0 0 -2.5 0.5 0.5 0.5 -0.5 0.5 1.5 0.5 1.5 0.5 -1.5 
0.5 1.5 0.5 -1 0.5 -0.5 0.5 2 0.5 -2 0.5 0.5 0.5 0 0.5 2 
0.5 0.5 0.5 -1 0.5 -1 0.5 1.5 0.5 1 0.5 -2 0.5 0 0.5 2.5 
0.5 -1.5 0.5 1.5 0.5 0.5 0.5 -0.5 0.5 -1.5 0.5 0 0 0.5 0.5 1.5 
0.5 -1.5 0.5 -1.5 0.5 2 0.5 0 0.5 -0.5 0.5 0 0.5 -0.5 0.5 0 
0.5 2 0.5 -2 0.5 0 0.5 -1 0.5 -0.5 0.5 1.5 0.5 -0.5 0.5 1 
0.5 -0.5 0.5 0 0.5 -2.5 0.5 0.5 0.5 1.5 0.5 0 0.5 -2 0.5 1.5 
0.5 0.5 0.5 0 0.5 -1.5 0 1 0.5 2 0.5 -1 0.5 0.5 0.5 -1.5 
0.5 1 0.5 -1.5 0.5 -0.5 0.5 1.5 0.5 -0.5 0.5 0 0.5 -1.5 0.5 1 
0.5 0.5 0.5 -1 0.5 1.5 0.5 -4 0.5 4.5 0.5 -10 0.5 9.5 0.5 -1.5 
0.5 1 S
2489.5 1047.5 0.5 0.5 0.5 0 0.5 -1 0.5 1 0.5 0.5 0.5 -2 0.5 0.5 
0 1.5 0.5 -2 0.5 -0.5 0.5 2 0.5 -1 0.5 1 0.5 -2 0.5 1.5 
0.5 -1 0.5 1.5 0.5 0 0.5 -1 0.5 1 0.5 -0.5 0.5 -1.5 0.5 2 
0.5 -1 0.5 -0.5 0.5 1.5 0.5 0 0.5 1 0.5 0.5 0.5 -2.5 0.5 2 
0.5 0 0.5 0 0.5 0 0.5 0 0.5 -1 0 3 0.5 -4 0.5 2.5 
0.5 0.5 0.5 1.5 0.5 -1 0.5 1.5 0.5 -2.5 0.5 1.5 0.5 -0.5 0.5 0.5 
0.5 0 0.5 2.5 0.5 1 0.5 -2 0.5 -1 0.5 -1.5 0.5 1 0.5 -1 
0.5 0.5 0.5 2 0.5 -1 0.5 0 0.5 -1 0.5 5 0.5 -3 0.5 1 
0.5 -1.5 0 3 0.5 -4 0.5 0.5 0.5 -1.5 0.5 0 0.5 1 0.5 -1.5 
0.5 1 0.5 -0.5 0.5 0.5 0.5 -0.5 0.5 0 0.5 0 0.5 -2 0.5 1.5 
0.5 -0.5 0.5 0.5 0.5 1 0.5 -1 0.5 0.5 0.5 0.5 0.5 -2 0.5 2 
0.5 -2.5 0.5 1.5 0.5 -0.5 0.5 0 0.5 1 0.5 1 0 -0.5 0.5 0 
0.5 -1 0.5 2.5 0.5 -2 0.5 0 0.5 -1 0.5 -0.5 0.5 1.5 0.5 0 
0.5 -1 S
2539.5 1049 0.5 -1 0.5 2 0.5 0.5 0.5 2 0.5 -2.5 0.5 0 0.5 -2 
0.5 1 0.5 1.5 0.5 -1 0.5 1.5 0.5 -1 0.5 -1 0.5 -0.5 0.5 0.5 
0.5 0.5 0.5 0.5 0.5 0 0 0.5 0.5 -0.5 0.5 1.5 0.5 -1.5 0.5 1 
0.5 2 0.5 0 0.5 -2 0.5 1 0.5 0 0.5 0.5 0.5 -1 0.5 -2 
0.5 0.5 0.5 -0.5 0.5 2.5 0.5 -1.5 0.5 1.5 0.5 -0.5 0.5 -0.5 0.5 -2 
0.5 1.5 0.5 0.5 0.5 0 0.5 1 0.5 1 0.5 -1.5 0.5 1 0 -1.5 
0.5 1 0.5 0.5 0.5 0 0.5 0.5 0.5 -0.5 0.5 1 0.5 -1.5 0.5 0.5 
0.5 -0.5 0.5 0.5 0.5 0.5 0.5 -3 0.5 -1.5 0.5 1 0.5 1.5 0.5 -0.5 
0.5 -0.5 0.5 -0.5 0.5 1 0.5 -1 0.5 0 0.5 0 0.5 -3 0.5 4 
0.5 -2.5 0.5 2 0.5 -1 0.5 -2 0 2 0.5 1 0.5 2 0.5 -2 
0.5 -2 0.5 1.5 0.5 -1.5 0.5 0.5 0.5 2.5 0.5 -1.5 0.5 0 0.5 -2 
0.5 1 0.5 2 0.5 1.5 0.5 -0.5 0.5 0 0.5 0 0.5 -1.5 0.5 1.5 
0.5 -1.5 0.5 -1.5 0.5 1.5 0.5 -1.5 0.5 1 0.5 0 0.5 0 0.5 1 
0.5 0.5 S
2590 1051 0 -2 0.5 1 0.5 0 0.5 0.5 0.5 -2.5 0.5 2 0.5 0 
0.5 1.5 0.5 -2.5 0.5 0 0.5 0 0.5 2 0.5 0 0.5 -0.5 0.5 -0.5 
0.5 1.5 0.5 -0.5 0.5 0 0.5 1 0.5 -0.5 0.5 0 0.5 0.5 0.5 1 
0.5 0 0.5 -0.5 0.5 0 0.5 -2 0.5 2 0.5 1 0 -1 0.5 0.5 
0.5 0 0.5 -1.5 0.5 2 0.5 -2 0.5 1.5 0.5 -0.5 0.5 -0.5 0.5 1 
0.5 -1 0.5 -0.5 0.5 0 0.5 0.5 0.5 0.5 0.5 1.5 0.5 -1.5 0.5 1 
0.5 -1.5 0.5 -2 0.5 -1 0.5 -1.5 0.5 0 0.5 3 0.5 -0.5 0.5 0.5 
0.5 1 0.5 -2 0 0.5 0.5 -0.5 0.5 0.5 0.5 -0.5 0.5 0 0.5 -1.5 
0.5 1 0.5 1 0.5 0 0.5 0 0.5 0.5 0.5 -0.5 0.5 -0.5 0.5 -0.5 
0.5 1 0.5 -0.5 0.5 0 0.5 -1 0.5 -0.5 0.5 0.5 0.5 0 0.5 0 
0.5 1 0.5 0.5 0.5 -1 0.5 0.5 0.5 0.5 0.5 0 0.5 1 0 -0.5 
0.5 0.5 0.5 -0.5 0.5 0 0.5 -0.5 0.5 2.5 0.5 -0.5 0.5 -1 0.5 -1 
0.5 -0.5 0.5 1.5 0.5 0 0.5 -1.5 0.5 -1.5 0.5 1.5 0.5 1.5 0.5 0 
0.5 0 S
2640 1051 0.5 0.5 0.5 0 0.5 -1 0.5 1.5 0.5 -2 0.5 2 0.5 0.5 
0.5 1 0.5 -1.5 0.5 1 0.5 -4.5 0 -2.5 0.5 5.5 0.5 1.5 0.5 -5 
0.5 -1.5 0.5 7 0.5 -1.5 0.5 0 0.5 1.5 0.5 -1 0.5 -1 0.5 -18 
0.5 1 0.5 -0.5 0.5 18.5 0.5 0.5 0.5 -1 0.5 0.5 0.5 0 0.5 0.5 
0.5 -1 0.5 1 0.5 0.5 0.5 0 0.5 1.5 0.5 -2.5 0.5 0.5 0.5 0 
0.5 -2.5 0 1.5 0.5 -2.5 0.5 2.5 0.5 -2 0.5 0 0.5 0.5 0.5 -2 
0.5 0.5 0.5 -0.5 0.5 2.5 0.5 0.5 0.5 0.5 0.5 -0.5 0.5 0.5 0.5 -1.5 
0.5 -1 0.5 0.5 0.5 -0.5 0.5 0 0.5 -2.5 0.5 1 0.5 1.5 0.5 -1 
0.5 -1 0.5 -0.5 0.5 3 0.5 -1.5 0.5 0 0 1 0.5 -0.5 0.5 0.5 
0.5 0.5 0.5 -1 0.5 1.5 0.5 -1 0.5 1 0.5 -2 0.5 -2.5 0.5 4 
0.5 1.5 0.5 -0.5 0.5 0 0.5 0.5 0.5 0 0.5 -0.5 0.5 0.5 0.5 -2 
0.5 1 0.5 -0.5 0.5 0 0.5 0 0.5 -0.5 0.5 0 0.5 0 0.5 0 
0.5 1 0.5 -2 0.5 -0.5 0.5 0.5 0.5 -1 0.5 0.5 0.5 1 0.5 -2.5 
0.5 3 S
2690.5 1049.5 0.5 -1.5 0.5 1 0.5 0 0.5 -0.5 0.5 1.5 0.5 0 0.5 0.5 
0.5 -0.5 0.5 0 0.5 -0.5 0.5 2.5 0.5 -2 0.5 -0.5 0.5 1 0.5 -2 
0.5 0.5 0.5 1.5 0.5 1 0.5 -1 0.5 -0.5 0.5 2.5 0 -2.5 0.5 1 
0.5 1 0.5 -1 0.5 1 0.5 1 0.5 -0.5 0.5 0.5 0.5 -2.5 0.5 2.5 
0.5 -2.5 0.5 3.5 0.5 -2.5 0.5 1 0.5 -1 0.5 -1 0.5 1 0.5 1 
0.5 -1.5 0.5 -0.5 0.5 1.5 0.5 -1.5 0.5 -0.5 0.5 -1 0.5 1 0.5 0 
0.5 -1.5 0.5 1.5 0.5 0.5 0.5 -1.5 0.5 1.5 0.5 -0.5 0.5 0 0.5 -0.5 
0.5 -1 0.5 2.5 0.5 -2 0.5 0 0.5 2 0.5 -3 0.5 3.5 0.5 -1.5 
0.5 -0.5 0.5 -1 0.5 0.5 0.5 0.5 0.5 -11.5 0.5 10.5 0.5 2 0.5 -2 
0.5 0.5 0.5 -0.5 0.5 0.5 0.5 -1.5 0.5 2 0.5 1 0 -3 0.5 0.5 
0.5 0 0.5 1.5 0.5 -4 0.5 1.5 0.5 0.5 0.5 -1.5 0.5 1 0.5 -2 
0.5 1 0.5 -0.5 0.5 4 0.5 -4 0.5 0.5 0.5 1 0.5 0 0.5 0 
0.5 -0.5 0.5 1 0.5 1.5 0.5 -1.5 0.5 0 0.5 1.5 0.5 1.5 0.5 -2 
0.5 1 S
2741.5 1049.5 0.5 -1.5 0.5 0 0 0.5 0.5 -1 0.5 -0.5 0.5 1 0.5 0.5 
0.5 0 0.5 2 0.5 -1.5 0.5 -2.5 0.5 2.5 0.5 0 0.5 -1 0.5 0 
0.5 1 0.5 -1.5 0.5 2 0.5 -1.5 0.5 1 0.5 -1.5 0.5 1 0.5 -1 
0.5 -3 0.5 2.5 0.5 -2 0.5 0.5 0.5 2 0.5 -1.5 0.5 0 0.5 1 
0 -1 0.5 0 0.5 -1 0.5 -0.5 0.5 0.5 0.5 0 0.5 0 0.5 -1.5 
0.5 1 0.5 0.5 0.5 -1 0.5 -1 0.5 2.5 0.5 -2 0.5 1 0.5 -2 
0.5 0.5 0.5 0 0.5 0.5 0.5 1.5 0.5 0 0.5 -1.5 0.5 1 0.5 -0.5 
0.5 -1 0.5 1 0.5 1 0.5 -0.5 0 -0.5 0.5 -1 0.5 1 0.5 0 
0.5 0 0.5 0 0.5 2 0.5 -0.5 0.5 1 0.5 -2 0.5 3.5 0.5 -2.5 
0.5 1.5 0.5 1 0.5 -1 0.5 -1 0.5 1.5 0.5 -0.5 0.5 0.5 0.5 2 
0.5 -2.5 0.5 1 0.5 0 0.5 0.5 0.5 0.5 0.5 -1 0.5 -0.5 0.5 -1 
0.5 1 0 0.5 0.5 1.5 0.5 -0.5 0.5 0.5 0.5 0 0.5 -3 0.5 1 
0.5 1.5 0.5 0 0.5 0 0.5 -2.5 0.5 4 0.5 -1.5 0.5 1 0.5 0 
0.5 0 S
2791.5 1050 0.5 -1.5 0.5 1.5 0.5 -0.5 0.5 0 0.5 0 0.5 0 0.5 1 
0.5 1.5 0.5 -1.5 0.5 1.5 0.5 -2.5 0.5 2.5 0.5 -2 0 1.5 0.5 0 
0.5 -1 0.5 0 0.5 -0.5 0.5 -0.5 0.5 1 0.5 -2.5 0.5 2.5 0.5 -1.5 
0.5 -1 0.5 0 0.5 -1 0.5 -0.5 0.5 1.5 0.5 0.5 0.5 0 0.5 -0.5 
0.5 1 0.5 -1.5 0.5 0.5 0.5 -0.5 0.5 1.5 0.5 -2 0.5 1.5 0.5 -3 
0.5 3 0.5 -1 0.5 -0.5 0 1 0.5 1 0.5 -1.5 0.5 2.5 0.5 -2 
0.5 2.5 0.5 -3.5 0.5 2 0.5 -0.5 0.5 -1.5 0.5 1 0.5 1 0.5 -2.5 
0.5 3 0.5 -2 0.5 1 0.5 -0.5 0.5 1 0.5 -1.5 0.5 0 0.5 -1 
0.5 1.5 0.5 -0.5 0.5 0.5 0.5 -0.5 0.5 0 0.5 -1 0.5 -0.5 0 1 
0.5 0.5 0.5 -2.5 0.5 1.5 0.5 0 0.5 0.5 0.5 0 0.5 2 0.5 -2 
0.5 1 0.5 -0.5 0.5 1.5 0.5 -1.5 0.5 0.5 0.5 -0.5 0.5 0.5 0.5 -0.5 
0.5 1.5 0.5 -1.5 0.5 0.5 0.5 -2 0.5 2.5 0.5 -1.5 0.5 3 0.5 -0.5 
0.5 -1 0.5 -0.5 0.5 2 0.5 0.5 0 -2.5 0.5 1.5 0.5 0.5 0.5 -1 
0.5 1.5 S
2841.5 1050.5 0.5 -1 0.5 -0.5 0.5 1 0.5 0 0.5 -1.5 0.5 1.5 0.5 1 
0.5 0 0.5 -0.5 0.5 -1 0.5 0 0.5 1.5 0.5 -1 0.5 -1.5 0.5 -1.5 
0.5 1 0.5 -1 0.5 3 0.5 -2 0.5 -0.5 0.5 0 0.5 0.5 0.5 1.5 
0.5 -2.5 0.5 2.5 0.5 -3.5 0.5 3 0.5 -0.5 0.5 -1 0.5 0.5 0.5 0.5 
0.5 -1 0.5 -1 0.5 1 0.5 -1.5 0.5 2.5 0.5 -2.5 0.5 2 0.5 0.5 
0.5 -0.5 0.5 0 0.5 -2.5 0.5 1 0.5 -2 0.5 1 0.5 4 0.5 -1 
0.5 -0.5 0.5 0 0.5 -0.5 0.5 0 0 -1 0.5 3.5 0.5 0.5 0.5 -1 
0.5 -2.5 0.5 2.5 0.5 -0.5 0.5 -3 0.5 0.5 0.5 1.5 0.5 -1.5 0.5 -15 
0.5 14.5 0.5 3 0.5 -1 0.5 0 0.5 -1 0.5 1 0.5 -1.5 0.5 1.5 
0.5 0 0.5 0 0.5 1 0.5 -0.5 0.5 0 0.5 1.5 0.5 0.5 0.5 0 
0.5 -1 0.5 0 0.5 0 0.5 0 0.5 1 0.5 0.5 0.5 0.5 0.5 -2 
0.5 -0.5 0.5 -0.5 0.5 1.5 0.5 0 0.5 0.5 0.5 -2.5 0.5 1 0.5 0 
0.5 2.5 0.5 0 0.5 -1.5 0.5 -0.5 0.5 -0.5 0.5 1.5 0.5 0 0.5 -1 
0.5 0.5 S
2893 1050 0.5 -0.5 0.5 -0.5 0.5 -0.5 0.5 0.5 0 -1 0.5 0 0.5 2 
0.5 -1 0.5 -1 0.5 -3 0.5 3 0.5 -1.5 0.5 -2.5 0.5 0 0.5 1.5 
0.5 1.5 0.5 1 0.5 -0.5 0.5 0.5 0.5 0 0.5 0 0.5 0.5 0.5 -0.5 
0.5 -1 0.5 2.5 0.5 -0.5 0.5 0.5 0.5 -2.5 0.5 -0.5 0.5 1.5 0.5 1.5 
0.5 -7.5 0.5 6 0 -2 0.5 2.5 0.5 -2 0.5 2.5 0.5 -0.5 0.5 -0.5 
0.5 -0.5 0.5 1.5 0.5 -2.5 0.5 2 0.5 -1 0.5 0.5 0.5 -2 0.5 1 
0.5 0 0.5 -1 0.5 0.5 0.5 0 0.5 0.5 0.5 -0.5 0.5 -0.5 0.5 0.5 
0.5 -1 0.5 1 0.5 -1 0.5 1 0.5 -0.5 0.5 0.5 0 -1 0.5 -0.5 
0.5 2 0.5 -4 0.5 2 0.5 -1 0.5 2 0.5 1 0.5 -1 0.5 0.5 
0.5 1.5 0.5 -1 0.5 -1.5 0.5 0 0.5 1.5 0.5 1 0.5 0 0.5 -0.5 
0.5 0.5 0.5 -0.5 0.5 0 0.5 0 0.5 -2 0.5 1 0.5 0.5 0.5 0 
0.5 1 0.5 -1 0.5 2.5 0 -1 0.5 -1 0.5 0 0.5 -0.5 0.5 1 
0.5 0 0.5 -1.5 0.5 2 0.5 -1.5 0.5 1 0.5 -0.5 0.5 1 0.5 -2 
0.5 1 S
2943 1047.5 0.5 -1.5 0.5 0 0.5 1 0.5 0 0.5 1.5 0.5 -1.5 0.5 -1.5 
0.5 2 0.5 -0.5 0.5 0.5 0.5 1 0.5 -0.5 0.5 0.5 0.5 -1.5 0.5 -1 
0 1.5 0.5 0 0.5 0 0.5 0.5 0.5 -1.5 0.5 0 0.5 1 0.5 -0.5 
0.5 -1.5 0.5 2.5 0.5 -1 0.5 -0.5 0.5 1.5 0.5 -0.5 0.5 -1.5 0.5 2.5 
0.5 -1 0.5 -1 0.5 1 0.5 0 0.5 1.5 0.5 -5 0.5 3 0.5 0.5 
0.5 0 0.5 -0.5 0.5 2.5 0.5 -1.5 0 -2 0.5 -1 0.5 1 0.5 -1 
0.5 2.5 0.5 0 0.5 -1.5 0.5 2 0.5 -1.5 0.5 0.5 0.5 0.5 0.5 -2 
0.5 3 0.5 -2 0.5 0.5 0.5 -2.5 0.5 3 0.5 1.5 0.5 -1.5 0.5 -1.5 
0.5 1 0.5 0.5 0.5 2 0.5 -2 0.5 0.5 0.5 1.5 0.5 -1 0.5 0 
0.5 -0.5 0 2.5 0.5 -1.5 0.5 -0.5 0.5 0 0.5 -1 0.5 2.5 0.5 0.5 
0.5 -2 0.5 2 0.5 -1.5 0.5 1 0.5 -1 0.5 0 0.5 0 0.5 1 
0.5 0 0.5 1 0.5 -1 0.5 -0.5 0.5 -0.5 0.5 0.5 0.5 -1.5 0.5 0 
0.5 -2.5 0.5 0 0.5 1 0.5 0.5 0.5 1 0.5 1.5 0 -1 0.5 1 
0.5 -39 S
2993 1010.5 0.5 37 0.5 1 0.5 0 0.5 -0.5 0.5 -0.5 0.5 0 0.5 0 
0.5 1 0.5 -1.5 0.5 -0.5 0.5 1 0.5 1 0.5 0.5 0.5 -1 0.5 1 
0.5 -1.5 0.5 0.5 0.5 1 0.5 -1.5 0.5 0.5 0.5 -1.5 0.5 1.5 0.5 0.5 
0.5 -0.5 0.5 0.5 0.5 -1 0 -0.5 0.5 1.5 0.5 -2 0.5 1.5 0.5 -0.5 
0.5 0 0.5 -1 0.5 0.5 0.5 -0.5 0.5 -1 0.5 1.5 0.5 -2.5 0.5 1.5 
0.5 -2 0.5 0.5 0.5 1.5 0.5 -1.5 0.5 2.5 0.5 -0.5 0.5 0 0.5 1 
0.5 -0.5 0.5 1 0.5 -0.5 0.5 -1 0.5 0.5 0.5 2.5 0.5 -2.5 0 0.5 
0.5 2 0.5 -0.5 0.5 0.5 0.5 -0.5 0.5 0.5 0.5 -2 0.5 0.5 0.5 0 
0.5 -1.5 0.5 1.5 0.5 0 0.5 0.5 0.5 0.5 0.5 -1.5 0.5 1 0.5 -1 
0.5 1.5 0.5 1 0.5 -3.5 0.5 2.5 0.5 -1 0.5 0.5 0.5 -1.5 0.5 3 
0.5 -0.5 0.5 -0.5 0.5 -0.5 0.5 0.5 0 -0.5 0.5 2.5 0.5 -3 0.5 2 
0.5 -2.5 0.5 -1.5 0.5 1 0.5 1 0.5 0.5 0.5 -1.5 0.5 0.5 0.5 0.5 
0.5 0 0.5 0 0.5 -0.5 0.5 0.5 0.5 -2.5 0.5 0.5 0.5 2.5 0.5 -0.5 
0.5 -1.5 S
3043.5 1046.5 0.5 -0.5 0.5 -1 0.5 0.5 0.5 1.5 0.5 -52.5 0.5 53 0.5 0 
0.5 0 0 -1.5 0.5 -1.5 0.5 0.5 0.5 -0.5 0.5 2 0.5 -0.5 0.5 0 
0.5 2 0.5 -0.5 0.5 -1 0.5 2 0.5 -2.5 0.5 1 0.5 -0.5 0.5 3.5 
0.5 -2.5 0.5 1 0.5 -1 0.5 -0.5 0.5 2.5 0.5 -4.5 0.5 2 0.5 0.5 
0.5 -2 0.5 -1 0.5 0.5 0.5 -0.5 0.5 0.5 0.5 0.5 0 2 0.5 -1.5 
0.5 0.5 0.5 0.5 0.5 -0.5 0.5 2 0.5 -5.5 0.5 3 0.5 -1 0.5 3.5 
0.5 -1 0.5 0 0.5 0 0.5 1 0.5 0.5 0.5 0 0.5 -1.5 0.5 0.5 
0.5 0 0.5 -1 0.5 1.5 0.5 -1.5 0.5 1.5 0.5 0.5 0.5 0 0.5 -1 
0.5 0.5 0.5 -1 0 -0.5 0.5 0 0.5 2 0.5 -3.5 0.5 1 0.5 1 
0.5 -1.5 0.5 3.5 0.5 -3 0.5 0 0.5 -3 0.5 4 0.5 2.5 0.5 -4.5 
0.5 3 0.5 -2.5 0.5 -4 0.5 5.5 0.5 0.5 0.5 -1.5 0.5 1.5 0.5 -9 
0.5 7.5 0.5 1 0.5 -1 0.5 2 0.5 0.5 0.5 0.5 0.5 -5 0 3 
0.5 -1.5 0.5 -33.5 0.5 36 0.5 -2.5 0.5 0 0.5 0 0.5 1 0.5 0.5 
0.5 -0.5 S
3093.5 1047 0.5 1 0.5 -2 0.5 1 0.5 -0.5 0.5 0.5 0.5 -1.5 0.5 1 
0.5 -1.5 0.5 1 0.5 -0.5 0.5 1.5 0.5 -0.5 0.5 -1.5 0.5 2.5 0.5 -0.5 
0.5 -0.5 0.5 -1.5 0.5 0 0.5 3.5 0 -2 0.5 0.5 0.5 -1 0.5 -0.5 
0.5 -2.5 0.5 3 0.5 -0.5 0.5 -1.5 0.5 1 0.5 1.5 0.5 0.5 0.5 0 
0.5 -4.5 0.5 1 0.5 1.5 0.5 -1 0.5 0.5 0.5 1 0.5 0 0.5 1.5 
0.5 0 0.5 -1.5 0.5 0 0.5 -0.5 0.5 0.5 0.5 1.5 0.5 1 0.5 -3.5 
0 2 0.5 0 0.5 -0.5 0.5 3.5 0.5 -1.5 0.5 0.5 0.5 -0.5 0.5 -1 
0.5 0 0.5 1 0.5 -1 0.5 0 0.5 0.5 0.5 0 0.5 2 0.5 -2.5 
0.5 1.5 0.5 1.5 0.5 -2 0.5 -1 0.5 2 0.5 -1.5 0.5 -1.5 0.5 1 
0.5 0 0.5 0 0.5 0 0.5 -2 0.5 2.5 0 -2 0.5 1 0.5 0 
0.5 0 0.5 -1 0.5 2.5 0.5 -3 0.5 -0.5 0.5 1 0.5 1.5 0.5 -3 
0.5 0.5 0.5 0 0.5 1 0.5 -1.5 0.5 1 0.5 -0.5 0.5 0.5 0.5 0.5 
0.5 -0.5 0.5 0 0.5 0.5 0.5 -1 0.5 -1 0.5 3 0.5 -3.5 0.5 0 
0.5 0.5 S
3144 1043.5 0.5 0.5 0 1 0.5 1 0.5 -2 0.5 0.5 0.5 0 0.5 0 
0.5 1.5 0.5 -1 0.5 -3.5 0.5 1.5 0.5 1 0.5 -1.5 0.5 2 0.5 1 
0.5 -2 0.5 -0.5 0.5 1.5 0.5 -0.5 0.5 -2 0.5 2 0.5 -0.5 0.5 1 
0.5 -1 0.5 1.5 0.5 -0.5 0.5 0.5 0.5 0 0.5 0 0.5 0 0 -0.5 
0.5 1.5 0.5 2 0.5 -3 0.5 0 0.5 1 0.5 1 0.5 0.5 0.5 -1 
0.5 -1 0.5 1.5 0.5 -0.5 0.5 0 0.5 2 0.5 -2 0.5 2.5 0.5 -0.5 
0.5 0 0.5 -1 0.5 0 0.5 -1.5 0.5 1.5 0.5 0.5 0.5 -1 0.5 0 
0.5 -2 0.5 -1 0.5 3 0 -0.5 0.5 0.5 0.5 1 0.5 1 0.5 -2 
0.5 -2 0.5 0 0.5 0 0.5 0 0.5 -1 0.5 -6 0.5 2.5 0.5 0 
0.5 0 0.5 5 0.5 -2 0.5 0.5 0.5 1.5 0.5 0 0.5 -1 0.5 1 
0.5 -0.5 0.5 -0.5 0.5 0.5 0.5 0 0.5 -0.5 0.5 0 0.5 0.5 0.5 0 
0 -1 0.5 0.5 0.5 1.5 0.5 -1 0.5 -0.5 0.5 1 0.5 0 0.5 -3.5 
0.5 2.5 0.5 -0.5 0.5 -0.5 0.5 1 0.5 0 0.5 -2 0.5 3.5 0.5 -2 
0.5 3 S
3194 1047 0.5 -0.5 0.5 -1 0.5 1.5 0.5 -2.5 0.5 0 0.5 1 0.5 0 
0.5 -0.5 0.5 2.5 0.5 -2 0.5 -3 0.5 -12 0 -1.5 0.5 7 0.5 10 
0.5 0.5 0.5 -4.5 0.5 5 0.5 0 0.5 -1 0.5 -1 0.5 1 0.5 1 
0.5 -1.5 0.5 2 0.5 -2.5 0.5 2 0.5 -0.5 0.5 1 0.5 0.5 0.5 -1.5 
0.5 1 0.5 -1 0.5 -3.5 0.5 2.5 0.5 1 0.5 2.5 0.5 1 0.5 -2 
0.5 -1 0.5 0 0 1.5 0.5 -1 0.5 -1 0.5 0 0.5 1.5 0.5 -0.5 
0.5 0.5 0.5 0 0.5 1 0.5 -0.5 0.5 -0.5 0.5 -0.5 0.5 1 0.5 -1 
0.5 0.5 0.5 -1.5 0.5 -1 0.5 0.5 0.5 -0.5 0.5 1 0.5 1 0.5 -0.5 
0.5 -3 0.5 0.5 0.5 1.5 0.5 0 0.5 0.5 0.5 -3 0 -37 0.5 41 
0.5 -2.5 0.5 1 0.5 0 0.5 -0.5 0.5 1.5 0.5 -3 0.5 2 0.5 -0.5 
0.5 0 0.5 -1 0.5 1.5 0.5 -2 0.5 0.5 0.5 0 0.5 3 0.5 -3.5 
0.5 5 0.5 -2.5 0.5 -4.5 0.5 2.5 0.5 -8 0.5 5 0.5 5 0.5 0.5 
0.5 0 0.5 1 0.5 -1 0 1 0.5 -2 0.5 -1 0.5 2 0.5 -17.5 
0.5 17 S
3244 1046.5 0.5 2 0.5 -1.5 0.5 0 0.5 -1 0.5 2 0.5 -1 0.5 1 
0.5 -1.5 0.5 -0.5 0.5 -1 0.5 2.5 0.5 -2 0.5 1 0.5 1 0.5 -2.5 
0.5 2 0.5 1 0.5 -0.5 0.5 0 0.5 0 0.5 2 0.5 -2.5 0.5 3 
0 -1.5 0.5 -1 0.5 1.5 0.5 -0.5 0.5 0.5 0.5 0 0.5 1.5 0.5 -2 
0.5 1.5 0.5 -2.5 0.5 2.5 0.5 -0.5 0.5 0.5 0.5 0 0.5 1.5 0.5 -0.5 
0.5 0 0.5 -0.5 0.5 1 0.5 0 0.5 -2 0.5 0.5 0.5 -2 0.5 0.5 
0.5 -0.5 0.5 -1 0.5 1 0.5 -3 0 2 0.5 -1.5 0.5 1.5 0.5 0 
0.5 0.5 0.5 -3 0.5 1.5 0.5 0.5 0.5 -1.5 0.5 2.5 0.5 1 0.5 -3.5 
0.5 -1 0.5 2 0.5 1 0.5 -6 0.5 4.5 0.5 0.5 0.5 -0.5 0.5 -3.5 
0.5 -6.5 0.5 1.5 0.5 1 0.5 9 0.5 -0.5 0.5 -1.5 0.5 -2 0.5 0 
0.5 3.5 0 -1 0.5 -2 0.5 -4.5 0.5 8.5 S
5 w
878 1095 0.5 0 0.5 0 0.5 -0.5 0.5 0 0.5 0.5 0.5 -0.5 0.5 0 
0.5 0 0.5 0 0.5 0 0.5 0 0.5 0 0.5 0 0.5 -0.5 0 0.5 
0.5 0 0.5 0 0.5 0 0.5 0 0.5 0 0.5 0 0.5 0 0.5 0 
0.5 0 0.5 -0.5 0.5 0 0.5 -0.5 0.5 0 0.5 -0.5 0.5 0 0.5 0 
0.5 0 0.5 -0.5 0.5 0.5 0.5 -0.5 0.5 0 0.5 0 0.5 0 0.5 0 
0.5 -0.5 0.5 0 0.5 0 0.5 0 0 -0.5 0.5 0 0.5 0 0.5 0 
0.5 0 0.5 0 0.5 0 0.5 0 0.5 0 0.5 0 0.5 0 0.5 0 
0.5 0 0.5 0.5 0.5 -0.5 0.5 0 0.5 0 0.5 0 0.5 0.5 0.5 0 
0.5 0 0.5 0.5 0.5 0 0.5 0 0.5 0 0.5 0 0.5 0 0.5 0 
0.5 0 0.5 0 0.5 0 0.5 0 0.5 0 0.5 0 0.5 0 0.5 0 
0.5 0 0.5 0 0.5 0 0.5 0 0.5 0 0.5 0 0.5 0 0.5 0 
0.5 -0.5 0.5 -0.5 0.5 0.5 0.5 0 0.5 0 0.5 0 0.5 0 0.5 0 
0.5 0 0.5 0 0.5 0 0.5 0 0.5 0.5 0.5 0.5 0.5 0 0.5 0.5 
0.5 0.5 S
929 1094 0.5 0 0.5 0 0.5 0.5 0.5 0 0.5 0.5 0.5 0 0.5 0 
0.5 0 0.5 0 0.5 0 0.5 0 0.5 0 0.5 0 0.5 0 0.5 0 
0.5 -1 0.5 0 0.5 0 0.5 -0.5 0.5 0 0.5 0 0.5 0 0.5 0 
0 -1 0.5 0 0.5 0 0.5 -0.5 0.5 0 0.5 0 0.5 0 0.5 0 
0.5 0 0.5 0 0.5 -0.5 0.5 0 0.5 -0.5 0.5 0 0.5 0 0.5 0 
0.5 0 0.5 0 0.5 0 0.5 0 0.5 0 0.5 0 0.5 0 0.5 0 
0.5 0 0.5 0 0.5 0.5 0.5 2 0 0.5 0.5 0 0.5 0 0.5 0 
0.5 0 0.5 0 0.5 0 0.5 0 0.5 0 0.5 0 0.5 0 0.5 0 
0.5 0 0.5 0 0.5 0 0.5 0 0.5 0 0.5 0 0.5 0 0.5 0 
0.5 0 0.5 0 0.5 0 0.5 0 0.5 0 0.5 0 0.5 0 0.5 0 
0.5 0 0.5 0 0.5 0 0.5 0 0.5 0 0.5 0 0.5 -0.5 0.5 0 
0.5 0 0.5 0 0.5 -0.5 0.5 0 0.5 0 0.5 0 0.5 0 0.5 0.5 
0.5 0 0.5 0 0.5 0 0.5 1 0.5 0 0.5 0 0.5 0 0.5 0 
0.5 0 S
980 1094.5 0.5 0 0.5 0 0.5 0.5 0.5 0 0 -0.5 0.5 0 0.5 0 
0.5 0 0.5 -0.5 0.5 0 0.5 0 0.5 0 0.5 0 0.5 -0.5 0.5 -1 
0.5 0 0.5 0 0.5 0 0.5 0 0.5 -0.5 0.5 0 0.5 0 0.5 0 
0.5 0 0.5 0 0.5 0 0.5 0 0.5 0 0.5 0 0.5 -0.5 0.5 0 
0.5 0 0.5 0 0.5 0 0.5 0 0.5 0 0.5 0 0.5 0.5 0.5 -0.5 
0.5 0 0.5 0 0.5 0 0.5 0 0.5 0 0.5 -0.5 0.5 0 0.5 0 
0.5 0 0.5 0 0.5 -0.5 0.5 0 0.5 -0.5 0.5 0 0.5 0 0.5 0.5 
0.5 -0.5 0.5 0.5 0.5 -0.5 0.5 0 0.5 0 0.5 0 0.5 0 0.5 0 
0.5 0 0.5 0 0.5 0 0.5 -0.5 0.5 -0.5 0.5 0 0.5 0 0.5 0 
0.5 0.5 0.5 0.5 0.5 0 0.5 0 0.5 0 0.5 1 0.5 0 0.5 0.5 
0.5 0 0.5 0 0.5 0 0.5 0 0.5 0.5 0.5 0 0.5 0 0.5 0.5 
0.5 0 0.5 0 0.5 0 0.5 -0.5 0.5 0.5 0.5 0 0.5 0 0.5 0 
0.5 0 0.5 0 0.5 1 0.5 -0.5 0.5 0 0.5 0 0.5 0 0.5 -0.5 
0.5 0 S
1031.5 1092.5 0.5 0 0.5 0.5 0.5 -0.5 0.5 0 0.5 0.5 0.5 0 0.5 -0.5 
0.5 0 0.5 0 0.5 -0.5 0.5 0.5 0.5 0 0.5 0 0.5 0 0.5 0 
0.5 -0.5 0.5 0 0.5 0 0.5 -0.5 0.5 -0.5 0.5 0 0.5 0 0.5 0 
0.5 0 0.5 0 0.5 0 0.5 0 0.5 -0.5 0.5 0 0.5 0 0.5 0 
0.5 0 0.5 0 0.5 0 0.5 0 0.5 -0.5 0.5 0 0.5 0 0.5 0 
0.5 0 0.5 0 0.5 0 0.5 0 0.5 0 0.5 -1 0.5 0 0.5 0 
0.5 0 0.5 0 0.5 0 0.5 1 0.5 -1 0.5 0 0.5 0 0.5 0 
0.5 0 0.5 -0.5 0.5 0 0.5 0 0.5 0 0.5 0 0.5 0 0.5 0.5 
0.5 0 0.5 0 0.5 0 0.5 0 0 0.5 0.5 0 0.5 0 0.5 0 
0.5 0 0.5 0 0.5 0 0.5 0 0.5 0.5 0.5 0 0.5 0 0.5 0 
0.5 0 0.5 0 0.5 0.5 0.5 0 0.5 0.5 0.5 0.5 0.5 0 0.5 0 
0.5 0 0.5 0 0.5 0 0.5 0.5 0.5 0 0.5 0 0.5 0 0.5 0 
0.5 0 0.5 0 0.5 -0.5 0.5 0 0.5 -0.5 0.5 0 0.5 0.5 0.5 0 
0.5 0 S
1083 1091.5 0.5 -0.5 0.5 -0.5 0.5 0 0.5 0 0.5 -0.5 0.5 0 0.5 0 
0.5 0 0.5 -0.5 0.5 0.5 0.5 0 0.5 0 0.5 0 0.5 0 0.5 0 
0.5 -0.5 0.5 0 0.5 0.5 0.5 -0.5 0.5 0 0.5 -0.5 0.5 0.5 0.5 0 
0.5 0 0.5 0 0.5 0 0.5 0 0.5 0 0.5 0 0.5 0 0.5 0 
0.5 0 0.5 0 0.5 0 0.5 0 0.5 0 0.5 0 0.5 0 0.5 0 
0.5 0 0.5 0 0.5 0 0.5 0 0.5 0 0.5 0 0.5 0 0.5 0 
0.5 0 0.5 0 0.5 0 0.5 0 0.5 2 0.5 0 0.5 -2 0.5 0 
0.5 0.5 0.5 0 0.5 0 0.5 0 0.5 1 0.5 0 0.5 0.5 0.5 0 
0.5 -0.5 0.5 -1 0.5 0 0.5 0 0.5 0 0.5 0 0.5 0 0.5 0 
0.5 0 0.5 -0.5 0.5 0 0.5 0 0.5 0 0.5 0.5 0.5 0 0.5 0 
0.5 0 0.5 0 0.5 0 0.5 0 0.5 0 0.5 0 0.5 0.5 0.5 0 
0.5 0 0.5 0 0.5 0 0.5 0.5 0.5 -0.5 0.5 0 0.5 0 0.5 0 
0.5 -0.5 0.5 0 0.5 0 0.5 0 0.5 0 0.5 0 0.5 0 0.5 0 
0.5 0 S
1135 1090 0.5 0 0.5 0 0.5 0 0.5 0 0.5 0 0.5 0.5 0.5 1 
0.5 0 0.5 0 0.5 0 0.5 0 0.5 0 0.5 0 0.5 0 0.5 0 
0.5 0 0.5 0 0.5 0 0.5 0 0.5 0 0.5 0 0.5 0 0.5 -2.5 
0.5 0 0.5 0 0.5 0 0.5 0 0 -0.5 0.5 0.5 0.5 0 0.5 0 
0.5 1 0.5 0 0.5 0 0.5 0 0.5 0 0.5 0 0.5 0 0.5 0 
0.5 0 0.5 0 0.5 -0.5 0.5 0.5 0.5 -0.5 0.5 0 0.5 0 0.5 0 
0.5 0 0.5 -0.5 0.5 0 0.5 0 0.5 0 0.5 0 0.5 0 0.5 0 
0.5 0 0.5 0 0.5 0 0.5 0 0.5 0 0.5 1 0.5 0.5 0.5 0 
0.5 0 0.5 0 0.5 0 0.5 0 0.5 0 0.5 0 0.5 0 0.5 0 
0.5 0 0.5 0 0.5 0 0.5 0 0.5 0 0.5 0 0.5 0 0.5 0.5 
0.5 -0.5 0.5 0 0.5 0 0.5 0 0.5 0 0.5 0 0.5 0 0.5 0 
0.5 0 0.5 -0.5 0.5 0 0.5 0.5 0.5 -0.5 0.5 0 0.5 0 0.5 -0.5 
0.5 0 0.5 0 0.5 0 0.5 0 0.5 0 0.5 0 0.5 0 0.5 0 
0.5 0 S
1186.5 1089.5 0.5 0 0.5 0 0.5 0 0.5 0 0.5 0 0.5 0 0.5 0 
0.5 0 0.5 -0.5 0.5 0.5 0.5 0 0.5 0 0.5 0 0.5 0 0.5 0 
0.5 0 0.5 -0.5 0.5 0 0.5 0 0.5 0 0.5 0 0.5 0.5 0.5 0 
0.5 0 0.5 -0.5 0.5 0 0.5 0.5 0.5 0 0.5 0 0.5 0 0.5 0.5 
0.5 1.5 0.5 -1.5 0.5 1.5 0.5 0 0.5 0 0.5 0 0.5 0 0.5 0 
0.5 0 0.5 0 0.5 0 0.5 0 0.5 0 0.5 0 0.5 0 0.5 0 
0.5 -1 0.5 0 0.5 0 0.5 -0.5 0.5 0.5 0.5 -0.5 0.5 0 0.5 0 
0.5 0 0.5 0 0.5 0 0.5 0 0.5 0 0.5 0 0.5 0 0 -0.5 
0.5 0 0.5 -0.5 0.5 0 0.5 0 0.5 0 0.5 0 0.5 0 0.5 0 
0.5 0 0.5 0 0.5 0 0.5 0 0.5 0.5 0.5 0.5 0.5 0 0.5 0 
0.5 0 0.5 0 0.5 0 0.5 0 0.5 0 0.5 0 0.5 0 0.5 0 
0.5 0 0.5 0.5 0.5 -0.5 0.5 0 0 -0.5 0.5 0 0.5 0.5 0.5 0 
0.5 0 0.5 0 0.5 0 0.5 0 0.5 -0.5 0.5 0 0.5 0 0.5 0 
0.5 0 S
1237.5 1089.5 0.5 0.5 0.5 -0.5 0.5 0.5 0.5 0 0.5 -0.5 0.5 0 0.5 0 
0.5 0 0.5 0 0.5 0 0.5 0 0.5 0 0.5 0 0.5 2 0.5 0 
0.5 0 0.5 0 0.5 0 0.5 0 0.5 0 0.5 0 0.5 0 0.5 0 
0.5 0 0.5 0 0.5 0 0.5 0 0.5 0 0.5 0 0.5 0 0.5 0 
0.5 0 0.5 0 0.5 0 0.5 0 0.5 0 0.5 0 0.5 0 0.5 0 
0.5 0 0.5 0 0.5 -1 0.5 1 0.5 0 0.5 -1 0.5 0 0.5 0.5 
0.5 0 0.5 -0.5 0.5 0 0.5 0 0.5 0 0.5 0 0.5 0 0.5 0 
0.5 0 0.5 0 0.5 0 0.5 0 0.5 0 0.5 0 0.5 0 0.5 0 
0.5 0 0.5 0 0.5 0 0.5 0 0.5 1 0.5 0 0.5 0 0.5 0 
0.5 0 0.5 0.5 0.5 0.5 0.5 0 0.5 -0.5 0.5 0.5 0.5 0 0.5 0.5 
0.5 0 0.5 0 0.5 -0.5 0.5 -1.5 0.5 0.5 0.5 -0.5 0.5 0 0.5 0 
0.5 0 0.5 -0.5 0.5 0 0.5 0 0.5 0 0.5 -0.5 0.5 0 0.5 -0.5 
0.5 0 0.5 0 0.5 0 0.5 0 0 0.5 0.5 0 0.5 0.5 0.5 0 
0.5 1 S
1289 1091.5 0.5 0 0.5 0 0.5 0 0.5 0 0.5 0 0.5 0 0.5 0 
0.5 0 0.5 0 0.5 0 0.5 0 0.5 0 0.5 0 0.5 0 0.5 0 
0.5 0 0.5 0 0.5 0 0.5 0 0.5 0 0.5 0 0.5 0 0.5 0 
0.5 0 0.5 0 0.5 0 0.5 0 0.5 0 0.5 0 0.5 0 0.5 0 
0.5 0 0.5 0 0.5 0 0.5 0 0.5 0 0.5 0 0.5 0 0.5 0 
0.5 0 0.5 0 0.5 0 0.5 0 0.5 0 0.5 0 0.5 0 0.5 0 
0.5 0 0.5 0 0.5 0 0.5 0 0 0.5 0.5 1 0.5 0 0.5 -1 
0.5 0 0.5 0.5 0.5 0 0.5 0.5 0.5 0 0.5 0 0.5 0 0.5 0 
0.5 0 0.5 -0.5 0.5 0 0.5 -0.5 0.5 -0.5 0.5 0 0.5 0 0.5 1 
0.5 -1 0.5 0 0.5 0 0.5 0 0.5 0 0.5 0 0.5 -0.5 0.5 -0.5 
0.5 0 0.5 1 0.5 0 0.5 0 0.5 0 0.5 0 0.5 -1 0.5 0.5 
0.5 0 0.5 0 0.5 0 0.5 0.5 0.5 0 0.5 0 0.5 0 0.5 -0.5 
0.5 0 0.5 -0.5 0.5 -0.5 0.5 0 0.5 0 0.5 0 0.5 0 0.5 -0.5 
0.5 0 S
1340.5 1089.5 0.5 0 0.5 0 0.5 0 0.5 0 0 0.5 0.5 0 0.5 -0.5 
0.5 0.5 0.5 0 0.5 0 0.5 0 0.5 0 0.5 0 0.5 0 0.5 0 
0.5 0.5 0.5 0 0.5 0 0.5 0 0.5 0 0.5 0 0.5 0 0.5 0 
0.5 -0.5 0.5 -0.5 0.5 0.5 0.5 0.5 0.5 0 0.5 0 0.5 0 0.5 0 
0.5 0 0.5 0 0.5 0.5 0.5 0 0.5 0 0.5 0 0.5 0.5 0.5 0 
0.5 0 0.5 0 0.5 0.5 0.5 0 0.5 0 0.5 1 0.5 0 0.5 0 
0.5 1 0.5 0 0.5 0 0.5 0 0.5 0 0.5 0 0.5 0 0.5 0 
0.5 0 0.5 0 0.5 0.5 0.5 0 0.5 0 0.5 -1 0.5 0 0.5 0 
0.5 0 0.5 0 0.5 0 0.5 -1 0.5 0 0.5 0 0.5 0 0.5 0 
0.5 0 0.5 0 0.5 0 0.5 0.5 0.5 0 0.5 5.5 0.5 0 0.5 0 
0.5 0.5 0.5 0 0.5 0 0.5 0 0.5 0 0.5 -0.5 0.5 0 0.5 0 
0.5 0 0.5 0 0.5 0 0.5 0 0.5 0 0.5 -0.5 0.5 0 0.5 0 
0.5 0 0.5 0 0.5 0 0.5 0 0.5 0 0.5 0 0.5 0 0.5 0.5 
0.5 0 S
1392 1098.5 0.5 -0.5 0.5 0 0.5 0.5 0.5 0 0.5 0 0.5 0 0.5 0 
0.5 0 0.5 0.5 0.5 0.5 0.5 0 0.5 0 0.5 -0.5 0.5 0 0.5 0.5 
0.5 0.5 0.5 0.5 0.5 0 0.5 0 0.5 0 0.5 0 0.5 0 0.5 0.5 
0.5 0 0.5 0 0.5 0 0.5 0 0.5 0 0.5 0 0.5 0 0.5 0 
0.5 0 0.5 0 0.5 0 0.5 0 0.5 0 0.5 0 0.5 0 0.5 0 
0.5 0 0.5 0 0.5 0.5 0.5 0 0.5 0 0.5 0 0.5 0 0.5 0 
0.5 0 0.5 0 0.5 0 0.5 0 0.5 0 0.5 0 0.5 0 0.5 -0.5 
0.5 0.5 0.5 -0.5 0.5 0 0.5 0 0.5 0 0.5 -0.5 0.5 0 0.5 0 
0.5 0 0.5 -0.5 0.5 0 0.5 0 0.5 0 0.5 0 0.5 -0.5 0.5 0 
0.5 0 0.5 0 0.5 -0.5 0.5 0 0.5 0 0.5 -1 0.5 0 0.5 -2 
0.5 -1.5 0.5 0 0.5 0 0.5 0 0.5 0 0.5 0 0.5 0 0.5 1 
0.5 0.5 0.5 2 0.5 0.5 0.5 0 0.5 0.5 0.5 0 0.5 0 0.5 0 
0 0.5 0.5 0 0.5 0 0.5 0 0.5 -0.5 0.5 -0.5 0.5 0 0.5 0 
0.5 0 S
1443.5 1098.5 0.5 0 0.5 0 0.5 -0.5 0.5 0 0.5 0 0.5 0 0.5 0 
0.5 0.5 0.5 0 0.5 0 0.5 0 0.5 0 0.5 0 0.5 0 0.5 0 
0.5 0 0.5 0 0.5 0 0.5 0 0.5 0 0.5 0.5 0.5 0 0.5 0 
0.5 -0.5 0.5 1 0.5 0 0.5 0 0.5 0 0.5 0.5 0.5 0 0.5 0 
0.5 0.5 0.5 0.5 0.5 0 0.5 0 0.5 0 0.5 0 0.5 0 0.5 0 
0.5 0 0.5 0 0.5 0 0.5 0 0.5 0 0.5 0 0.5 0 0.5 0 
0.5 0 0.5 0.5 0.5 0.5 0.5 0 0.5 0 0.5 0 0.5 0 0.5 0 
0.5 -1 0.5 0 0.5 -0.5 0.5 0 0.5 0 0.5 0 0.5 -1 0.5 -0.5 
0.5 0 0.5 0 0.5 0 0.5 0 0.5 -0.5 0.5 0 0.5 0 0.5 0 
0.5 0 0.5 -0.5 0.5 0 0.5 0 0.5 0 0.5 0 0.5 0 0.5 0 
0.5 0 0.5 0 0.5 0 0.5 0 0.5 0.5 0.5 0 0.5 0 0.5 0 
0.5 0 0.5 0 0.5 0 0.5 0.5 0.5 0 0.5 0 0.5 0 0.5 0 
0.5 -0.5 0.5 0 0.5 0 0.5 0 0.5 0 0.5 0.5 0.5 0 0.5 0 
0.5 0 S
1495.5 1099 0.5 0 0.5 0 0.5 0 0.5 0.5 0.5 0 0.5 1 0.5 0 
0.5 0 0.5 0 0.5 0 0.5 0 0.5 0 0.5 0 0.5 0 0.5 0 
0.5 0 0.5 0 0.5 0 0.5 0.5 0.5 0 0.5 0 0.5 0 0.5 0 
0.5 0 0.5 0 0.5 0 0.5 0.5 0.5 0 0.5 0 0.5 0 0.5 0 
0.5 -0.5 0.5 0 0.5 0.5 0.5 0 0.5 0 0.5 0 0.5 0 0.5 0 
0.5 0 0.5 0 0.5 0 0.5 0 0.5 0 0.5 0 0.5 0 0.5 0 
0.5 0 0.5 -0.5 0.5 -0.5 0.5 -0.5 0.5 -1 0.5 0 0.5 0 0 -0.5 
0.5 0 0.5 0 0.5 0 0.5 -0.5 0.5 0 0.5 0 0.5 0 0.5 0 
0.5 0 0.5 0 0.5 0 0.5 0 0.5 0 0.5 0 0.5 0 0.5 0.5 
0.5 0 0.5 0.5 0.5 0 0.5 0 0.5 0 0.5 0.5 0.5 -0.5 0.5 0 
0.5 0.5 0.5 0 0.5 0 0.5 0 0.5 0 0.5 0 0.5 0 0.5 1 
0.5 0 0.5 0.5 0.5 0.5 0.5 0 0.5 0 0.5 0 0.5 0 0.5 0 
0.5 0 0.5 0 0.5 0 0.5 0 0.5 0 0.5 0 0.5 0 0.5 0.5 
0.5 0 S
1547 1102 0.5 0 0.5 0 0.5 0 0.5 0 0.5 0 0.5 0 0.5 0 
0.5 0.5 0.5 0 0.5 0.5 0.5 0 0.5 0 0.5 0 0.5 0 0.5 0 
0.5 0 0.5 0 0.5 0 0.5 0 0.5 0 0.5 0 0.5 0 0.5 0 
0.5 0 0.5 0 0.5 0 0.5 0 0.5 0 0.5 -0.5 0.5 0 0.5 0 
0.5 0 0.5 0 0.5 0 0 -0.5 0.5 0 0.5 0 0.5 -0.5 0.5 -0.5 
0.5 -0.5 0.5 0 0.5 0 0.5 0 0.5 -0.5 0.5 -1 0.5 0 0.5 0 
0.5 0 0.5 -0.5 0.5 0 0.5 0 0.5 -0.5 0.5 0 0.5 -0.5 0.5 0 
0.5 0 0.5 0 0.5 0 0.5 0 0.5 0 0.5 0 0.5 0 0.5 0 
0 1 0.5 0 0.5 0 0.5 0 0.5 0 0.5 0 0.5 0.5 0.5 0 
0.5 0 0.5 0 0.5 0 0.5 -0.5 0.5 0 0.5 0 0.5 0 0.5 -0.5 
0.5 0.5 0.5 0 0.5 0 0.5 0 0.5 0 0.5 0 0.5 0 0.5 0 
0.5 0 0.5 0 0.5 0 0.5 0.5 0.5 0 0.5 0.5 0.5 0 0.5 0 
0.5 0 0.5 0 0.5 0.5 0.5 0 0.5 0.5 0.5 0.5 0.5 0 0.5 0 
0.5 0 S
1598 1101 0.5 0 0.5 0 0.5 0 0.5 0.5 0.5 0 0.5 0 0.5 0 
0.5 0 0.5 0 0.5 0 0.5 0 0.5 0 0.5 0 0.5 0 0.5 0.5 
0.5 0 0 0.5 0.5 0 0.5 0 0.5 0 0.5 0 0.5 -0.5 0.5 0 
0.5 0 0.5 0 0.5 0 0.5 0 0.5 0 0.5 0 0.5 -1 0.5 -0.5 
0.5 -0.5 0.5 0 0.5 0 0.5 -0.5 0.5 0 0.5 0 0.5 0 0.5 -0.5 
0.5 -0.5 0.5 0 0.5 0 0.5 0 0.5 0 0.5 0 0.5 0 0.5 -0.5 
0.5 0 0.5 0 0.5 0 0.5 0 0.5 0 0.5 0 0.5 -0.5 0.5 0 
0.5 0 0.5 -0.5 0.5 0 0.5 0 0.5 0 0.5 0 0.5 0 0.5 0 
0.5 0 0.5 0.5 0.5 -0.5 0.5 0.5 0.5 -0.5 0.5 0 0.5 0 0.5 0 
0.5 0 0.5 0 0.5 -1 0.5 0 0.5 0 0.5 0 0.5 0 0.5 0 
0.5 0 0.5 0 0.5 3 0.5 0 0.5 0 0.5 0 0.5 0.5 0.5 0 
0.5 0 0.5 0.5 0.5 0 0.5 0 0.5 0.5 0.5 0 0.5 0 0.5 0 
0.5 0 0.5 0 0.5 0 0.5 0 0.5 -0.5 0.5 0 0.5 0 0.5 0 
0.5 0 S
1649.5 1100 0.5 -1.5 0.5 0 0.5 0 0.5 0 0.5 1.5 0.5 0.5 0.5 0 
0.5 0.5 0.5 0 0.5 0 0.5 0 0.5 0 0.5 0 0.5 0 0.5 0 
0.5 0 0.5 0 0.5 0 0.5 -0.5 0.5 0 0.5 0 0.5 0 0.5 0 
0.5 -0.5 0.5 0 0.5 0 0.5 0 0.5 -1 0.5 -0.5 0.5 0 0.5 0 
0.5 0 0.5 0 0.5 -1 0.5 -1 0.5 0 0.5 -2 0.5 -3 0.5 0 
0.5 0 0.5 0 0.5 0 0.5 0 0.5 0 0.5 0 0.5 0 0.5 0 
0.5 0 0.5 0 0.5 0 0.5 0 0.5 0 0.5 0 0.5 0 0.5 0 
0.5 0 0.5 0 0.5 0 0.5 4 0.5 1 0.5 0 0.5 0 0.5 0 
0.5 0 0.5 0 0.5 0 0.5 0 0.5 0.5 0.5 -0.5 0.5 0 0.5 0 
0.5 0 0.5 0 0.5 0 0.5 0 0.5 0 0.5 1 0.5 0 0.5 0 
0 0.5 0.5 0 0.5 0 0.5 0 0.5 0 0.5 0.5 0.5 0 0.5 0 
0.5 0 0.5 0 0.5 0.5 0.5 0 0.5 0 0.5 0.5 0.5 0.5 0.5 0 
0.5 0 0.5 0 0.5 0 0.5 0 0.5 0 0.5 0 0.5 0 0.5 -0.5 
0.5 0 S
1701 1099.5 0.5 -2 0.5 -3.5 0.5 -1 0.5 -0.5 0 -1 0.5 0 0.5 0 
0.5 0 0.5 0 0.5 0 0.5 0 0.5 0 0.5 0 0.5 0 0.5 0 
0.5 0 0.5 0 0.5 0 0.5 0 0.5 0 0.5 0 0.5 0 0.5 0 
0.5 0 0.5 0 0.5 -0.5 0.5 -0.5 0.5 0 0.5 0 0.5 0 0.5 0 
0.5 0 0.5 0 0.5 0 0.5 0 0.5 0 0.5 0 0.5 0 0.5 0 
0.5 -0.5 0.5 -0.5 0.5 0 0.5 0 0.5 0 0.5 0 0.5 -0.5 0.5 0 
0.5 0 0.5 0 0.5 0.5 0.5 0 0.5 0 0.5 0 0.5 0 0.5 0 
0.5 0.5 0.5 0 0.5 0 0.5 0.5 0.5 0 0.5 0.5 0.5 0 0.5 0 
0.5 0 0.5 0 0.5 0 0.5 -0.5 0.5 0 0.5 0 0.5 0 0.5 0.5 
0.5 0 0.5 0 0.5 0 0.5 0.5 0.5 0 0.5 0 0.5 0 0.5 0 
0.5 0 0.5 0 0.5 0 0.5 0 0.5 0 0.5 0 0.5 0 0.5 0 
0.5 -0.5 0.5 0 0.5 0 0.5 0 0.5 0.5 0.5 0 0.5 0.5 0.5 0 
0.5 0 0.5 0 0.5 0 0.5 0 0.5 0 0.5 0 0.5 0 0.5 0 
0.5 0 S
1752.5 1092 0.5 -0.5 0.5 0 0.5 0 0.5 0 0.5 0 0.5 0 0.5 0 
0.5 0 0.5 0 0.5 0 0.5 0 0.5 0 0.5 0 0.5 0 0.5 0 
0.5 0 0.5 -0.5 0.5 -0.5 0.5 -1 0.5 -0.5 0.5 0 0.5 0 0.5 0 
0.5 0 0.5 0 0.5 0 0.5 0 0.5 0 0.5 0 0.5 0 0.5 0 
0.5 0 0.5 0 0.5 1 0.5 0 0.5 0 0.5 -0.5 0.5 0 0.5 0.5 
0.5 0 0.5 0 0.5 0 0.5 0 0.5 0.5 0.5 0 0.5 -0.5 0.5 0 
0.5 0 0.5 0 0.5 0 0.5 0 0.5 0 0.5 -0.5 0.5 0 0.5 0 
0.5 0 0.5 0 0.5 0 0.5 0 0.5 0 0.5 0 0.5 0 0.5 0 
0.5 0 0.5 0 0.5 0 0.5 1.5 0.5 -1.5 0.5 1 0.5 0 0.5 0.5 
0.5 0 0.5 0 0.5 0 0.5 0 0.5 0 0.5 0 0.5 0 0.5 0 
0.5 0 0.5 0 0.5 0 0.5 0 0.5 0 0.5 0 0.5 0 0.5 0 
0.5 0 0.5 0 0.5 0.5 0.5 0 0.5 0 0.5 0 0.5 0 0.5 0 
0.5 0 0.5 0 0.5 0 0.5 0 0.5 0 0.5 0 0.5 -0.5 0.5 0 
0.5 -0.5 S
1804.5 1090.5 0.5 0 0.5 -0.5 0.5 0 0.5 0 0.5 0 0.5 0 0.5 0 
0.5 -0.5 0.5 0 0.5 0 0.5 0 0.5 0 0.5 -0.5 0.5 0 0.5 0 
0.5 0 0.5 0 0.5 0 0.5 0 0.5 -0.5 0.5 0 0.5 0.5 0.5 0 
0.5 0 0.5 0 0.5 0.5 0.5 0 0.5 0 0.5 0 0.5 0 0.5 0 
0.5 0 0.5 0.5 0.5 0 0.5 0 0.5 0 0.5 0 0.5 0.5 0.5 0 
0.5 0 0.5 0 0.5 0 0.5 0.5 0.5 0 0.5 0 0.5 0 0 0.5 
0.5 0 0.5 0 0.5 0 0.5 0 0.5 0 0.5 0 0.5 -0.5 0.5 0.5 
0.5 0 0.5 0 0.5 0 0.5 0 0.5 0 0.5 0 0.5 0 0.5 0 
0.5 0 0.5 0 0.5 0 0.5 0 0.5 0 0.5 0 0.5 2 0.5 0 
0.5 0 0.5 0.5 0.5 0 0.5 0 0.5 0 0.5 0 0.5 0 0.5 0 
0.5 0 0.5 0 0.5 0 0.5 0 0.5 0 0.5 0 0.5 0 0.5 0 
0.5 0.5 0.5 0 0.5 0 0.5 0 0.5 0 0.5 0 0.5 -0.5 0.5 -0.5 
0.5 0 0.5 0 0.5 0 0.5 -0.5 0.5 -1 0.5 0 0.5 0 0.5 -0.5 
0.5 0 S
1856 1091.5 0.5 0 0.5 0 0.5 0 0.5 -0.5 0.5 0 0.5 0 0.5 0 
0.5 -0.5 0.5 0 0.5 0 0.5 0 0.5 0 0.5 0 0.5 0 0.5 0 
0.5 0 0.5 0.5 0.5 0 0.5 0 0.5 0 0.5 0.5 0.5 0 0.5 0 
0.5 0.5 0.5 0 0.5 0 0 -0.5 0.5 0 0.5 0 0.5 0 0.5 0 
0.5 0 0.5 0 0.5 0 0.5 0 0.5 0 0.5 0 0.5 0 0.5 -1.5 
0.5 0 0.5 0 0.5 0 0.5 0 0.5 0 0.5 0 0.5 1 0.5 0 
0.5 1 0.5 0 0.5 0.5 0.5 0 0.5 0.5 0.5 0.5 0.5 0 0.5 0.5 
0.5 0 0.5 0 0.5 0 0.5 0 0.5 0.5 0.5 1 0.5 0.5 0.5 0.5 
0.5 0 0.5 0.5 0.5 0 0.5 0 0.5 4 0.5 0.5 0.5 0.5 0.5 0 
0.5 0 0.5 0 0.5 0 0.5 0 0.5 0.5 0.5 -0.5 0.5 0.5 0.5 0 
0.5 0 0.5 0 0.5 0 0.5 -1 0.5 0 0.5 0 0.5 0 0.5 -0.5 
0.5 0 0.5 0 0.5 0 0.5 0 0.5 0 0.5 -0.5 0.5 0 0.5 0 
0.5 -0.5 0.5 0 0.5 0 0.5 0 0.5 0 0.5 0 0.5 0.5 0.5 -0.5 
0.5 0 S
1907.5 1100 0.5 0 0.5 0 0.5 0 0.5 -0.5 0.5 -0.5 0.5 0 0.5 -0.5 
0.5 0.5 0.5 0 0.5 0 0.5 0 0.5 0 0.5 0 0.5 0 0.5 0.5 
0.5 0 0.5 0 0.5 0 0.5 0 0.5 0 0.5 0.5 0.5 0 0.5 0 
0.5 0 0.5 0 0.5 0 0.5 0 0.5 0 0.5 -0.5 0.5 0 0.5 0 
0.5 0.5 0.5 -0.5 0.5 0.5 0.5 -0.5 0.5 0 0.5 0 0.5 0 0.5 0 
0.5 0 0.5 0 0.5 0.5 0.5 0.5 0.5 0 0.5 0 0.5 0 0.5 0.5 
0.5 0 0.5 0.5 0.5 0 0.5 0 0.5 0 0.5 0 0.5 0.5 0.5 0 
0.5 0 0.5 0.5 0.5 0 0.5 0 0.5 0 0.5 0 0.5 -0.5 0.5 0 
0.5 0 0.5 0 0.5 0 0.5 0 0.5 0 0.5 0 0.5 -0.5 0.5 0 
0.5 -0.5 0.5 -0.5 0.5 0 0.5 0 0.5 0 0.5 0 0.5 0 0.5 0 
0.5 0 0.5 0 0.5 0 0.5 0 0.5 0 0.5 0 0.5 0 0.5 0 
0.5 0 0.5 0 0.5 0 0.5 -0.5 0.5 0 0.5 0 0.5 -0.5 0.5 0 
0.5 0 0.5 0 0.5 0 0.5 0 0.5 0 0.5 -0.5 0.5 -0.5 0.5 0 
0.5 0 S
1959.5 1098.5 0.5 0 0.5 0 0.5 0 0.5 0.5 0.5 0 0.5 0 0.5 -0.5 
0.5 0.5 0.5 0 0.5 0 0.5 0 0.5 0 0.5 0 0.5 1 0.5 0 
0.5 0 0.5 0 0.5 0 0.5 -0.5 0.5 0 0.5 0 0.5 0 0.5 0 
0.5 0 0.5 0 0.5 0 0.5 0 0.5 0 0.5 0 0.5 0 0.5 0 
0.5 0 0.5 0 0.5 0.5 0.5 0 0.5 0 0.5 0 0.5 0 0.5 0 
0.5 0 0.5 0 0.5 0 0.5 0.5 0.5 0 0.5 0 0.5 0 0.5 1 
0.5 0 0.5 0 0.5 0 0.5 -1 0.5 0 0.5 0 0.5 0 0.5 0.5 
0.5 0 0.5 0 0.5 0 0.5 0 0.5 0 0.5 -0.5 0.5 -0.5 0.5 0 
0.5 0 0.5 0 0.5 0 0.5 -0.5 0.5 -0.5 0.5 -0.5 0.5 0 0.5 0 
0.5 0 0.5 0 0.5 0 0.5 -0.5 0.5 0 0.5 0 0.5 0.5 0.5 0 
0.5 0 0.5 -0.5 0.5 0.5 0.5 0 0.5 0 0.5 0 0.5 0 0.5 0 
0.5 0 0.5 0.5 0.5 0 0.5 0 0.5 0 0.5 0 0.5 0 0.5 0 
0.5 0 0.5 0 0.5 0 0.5 -0.5 0.5 0 0.5 0 0.5 0.5 0.5 0 
0.5 0 S
2011.5 1099 0.5 -0.5 0.5 0 0.5 0 0.5 0 0.5 0 0.5 0 0.5 0 
0.5 0 0.5 0 0.5 0 0.5 0 0.5 0 0.5 0 0.5 0 0.5 0 
0.5 0 0.5 -0.5 0.5 0 0.5 -0.5 0.5 -0.5 0 -1.5 0.5 -4 0.5 0 
0.5 0 0.5 0 0.5 0 0.5 0 0.5 0 0.5 0 0.5 6 0.5 0 
0.5 1.5 0.5 0 0.5 0.5 0.5 0 0.5 0.5 0.5 0 0.5 0 0.5 0 
0.5 0 0.5 0 0.5 0 0.5 0 0.5 0 0.5 0 0.5 -0.5 0.5 0 
0.5 0 0.5 0 0 -0.5 0.5 -0.5 0.5 -0.5 0.5 0 0.5 -0.5 0.5 0 
0.5 0 0.5 0 0.5 0 0.5 0 0.5 -0.5 0.5 0.5 0.5 0 0.5 0 
0.5 0 0.5 0 0.5 0 0.5 0 0.5 0 0.5 0 0.5 0 0.5 0 
0.5 0 0.5 0 0.5 0 0.5 0 0.5 0 0.5 -0.5 0.5 -0.5 0.5 0 
0.5 0 0.5 -0.5 0.5 0.5 0.5 0 0.5 0 0.5 0 0.5 0 0.5 0 
0.5 0 0.5 0 0.5 0 0.5 0 0.5 0 0.5 0 0.5 0 0.5 0 
0.5 0 0.5 0 0.5 0 0.5 0 0.5 -0.5 0.5 -0.5 0.5 -0.5 0.5 0.5 
0.5 0 S
2062.5 1095.5 0.5 0 0.5 0 0.5 0.5 0.5 0 0.5 0 0.5 0 0.5 0 
0.5 0 0.5 -0.5 0.5 0 0.5 0.5 0.5 0 0.5 0 0.5 0 0.5 0 
0.5 0 0.5 0 0.5 0 0.5 0 0.5 0 0.5 0 0.5 0 0.5 0 
0.5 0 0.5 0 0.5 0 0.5 0.5 0.5 0 0.5 0 0.5 0.5 0.5 -0.5 
0.5 0 0.5 0 0.5 -0.5 0.5 0.5 0.5 0 0.5 0 0.5 0.5 0.5 0.5 
0.5 -0.5 0.5 -0.5 0.5 -0.5 0.5 0 0.5 0 0.5 -0.5 0.5 0 0.5 0 
0.5 0.5 0.5 0 0.5 -0.5 0.5 0 0.5 0 0.5 0 0.5 0 0.5 0 
0.5 0 0.5 0 0.5 0 0.5 0 0.5 0.5 0.5 0 0.5 -0.5 0.5 0.5 
0.5 0 0.5 0 0.5 -0.5 0.5 0 0.5 0 0.5 0 0.5 0 0.5 0.5 
0.5 0 0.5 0 0.5 -0.5 0.5 0 0.5 0 0.5 0.5 0.5 -0.5 0.5 0 
0.5 0 0.5 0 0.5 0 0.5 0 0.5 0 0.5 0 0.5 0 0.5 0 
0.5 0 0.5 0 0.5 0 0.5 0 0.5 0 0.5 0 0.5 0.5 0.5 0 
0.5 0 0.5 0 0.5 0 0.5 0 0.5 0 0.5 0 0.5 0 0.5 0 
0.5 0 S
2114.5 1096 0.5 0 0.5 0 0.5 0 0.5 0 0.5 0 0.5 0 0.5 0 
0.5 0.5 0 0.5 0.5 0 0.5 0 0.5 0 0.5 0 0.5 0 0.5 0 
0.5 0 0.5 0.5 0.5 0 0.5 0.5 0.5 0 0.5 0 0.5 0 0.5 0 
0.5 0 0.5 0 0.5 0 0.5 0 0.5 0 0.5 0 0.5 0 0.5 0 
0.5 0 0.5 0 0.5 -0.5 0.5 0 0.5 -0.5 0.5 0 0.5 0 0.5 0 
0.5 -1.5 0.5 -1 0.5 0 0.5 0 0.5 0 0.5 0 0.5 -0.5 0.5 0 
0.5 -0.5 0.5 0.5 0.5 0 0.5 0 0.5 0.5 0.5 0 0.5 0 0.5 0 
0.5 0 0.5 0 0.5 0 0.5 -0.5 0.5 0 0.5 0.5 0.5 0 0.5 0 
0.5 0 0.5 0 0.5 0 0.5 0 0.5 0 0.5 0 0.5 0 0.5 0 
0.5 0 0.5 0.5 0.5 0 0.5 0 0.5 0 0.5 0.5 0.5 0 0.5 0 
0.5 0 0.5 0 0.5 0 0.5 0 0.5 0 0.5 0.5 0.5 0 0.5 0 
0.5 -0.5 0.5 0 0.5 0 0.5 0.5 0.5 -0.5 0.5 0 0.5 -0.5 0.5 0 
0.5 -0.5 0.5 0 0.5 0 0.5 0 0.5 0 0.5 0 0.5 0.5 0.5 0 
0.5 0 S
2166 1095 0.5 0 0.5 0.5 0.5 -0.5 0.5 0.5 0.5 0 0.5 0 0.5 0 
0.5 0 0.5 0 0.5 0 0.5 0 0.5 0.5 0.5 -0.5 0.5 0.5 0.5 0 
0.5 0.5 0 -0.5 0.5 0 0.5 0 0.5 0 0.5 0 0.5 0 0.5 0 
0.5 0 0.5 -0.5 0.5 0 0.5 0 0.5 0.5 0.5 -0.5 0.5 0 0.5 0 
0.5 0 0.5 0 0.5 0 0.5 0 0.5 0 0.5 0.5 0.5 0 0.5 0 
0.5 0 0.5 0 0.5 0 0.5 -0.5 0.5 0 0.5 0 0.5 0 0.5 0 
0.5 0 0.5 0 0.5 0.5 0.5 0 0.5 0 0.5 0 0.5 0.5 0.5 0 
0.5 0 0.5 1 0.5 0 0.5 0 0.5 0 0.5 0.5 0.5 0 0.5 0 
0.5 0 0.5 0 0.5 -0.5 0.5 -1.5 0.5 0 0.5 0 0.5 0 0.5 0 
0.5 -0.5 0.5 0 0.5 0 0.5 0 0.5 0.5 0.5 0 0.5 0 0.5 0 
0.5 0 0.5 0 0.5 0 0.5 0 0.5 0.5 0.5 0 0.5 1 0.5 1 
0.5 0.5 0.5 0 0.5 0 0.5 0 0.5 0 0.5 0 0.5 0 0.5 0 
0.5 0 0.5 0.5 0.5 0.5 0.5 0 0.5 0 0.5 0 0.5 0 0.5 0 
0.5 0 S
2217.5 1100 0.5 0.5 0.5 -0.5 0.5 0 0.5 0.5 0.5 0 0.5 -0.5 0.5 0 
0.5 -0.5 0.5 0 0.5 0 0.5 0 0.5 -0.5 0.5 0 0.5 -1 0.5 0 
0.5 -0.5 0.5 0 0.5 -0.5 0.5 0 0.5 0 0.5 -0.5 0.5 0 0.5 0 
0.5 0 0.5 0 0.5 -0.5 0.5 0 0.5 0 0.5 0 0.5 0 0.5 0 
0.5 0 0.5 0 0.5 0 0.5 0.5 0.5 0 0.5 0 0.5 0 0.5 0 
0.5 0 0.5 0 0.5 0 0.5 0 0.5 0 0.5 0 0.5 0 0.5 0.5 
0.5 0 0.5 0 0.5 0 0.5 0 0.5 0.5 0.5 0 0.5 0 0.5 0 
0.5 0 0.5 0 0.5 0 0.5 0 0.5 -0.5 0.5 0 0.5 0.5 0.5 -0.5 
0.5 0 0.5 0 0.5 0 0.5 0 0.5 0 0.5 0 0.5 0 0.5 0 
0.5 -0.5 0.5 0 0.5 0 0.5 0.5 0.5 0 0.5 0 0.5 0 0.5 0 
0.5 0 0.5 0 0.5 0.5 0.5 0 0.5 0 0.5 0 0.5 0 0.5 0 
0.5 0.5 0.5 0 0.5 -0.5 0.5 0 0.5 0.5 0.5 0 0.5 1 0.5 0.5 
0.5 0 0.5 0 0.5 0 0.5 0 0.5 0.5 0.5 0 0.5 -0.5 0.5 0 
0.5 0 S
2269.5 1099.5 0.5 0 0.5 0 0.5 -1.5 0.5 -0.5 0.5 -1 0.5 0 0.5 0 
0.5 -0.5 0.5 0 0.5 0 0.5 0 0.5 0 0.5 0 0.5 0.5 0.5 0 
0.5 0 0.5 0 0.5 -0.5 0.5 0.5 0.5 0 0.5 0 0.5 -0.5 0.5 0.5 
0.5 -0.5 0.5 0 0.5 0 0.5 -0.5 0.5 0 0.5 0 0.5 0 0.5 0 
0 -0.5 0.5 0 0.5 -0.5 0.5 0.5 0.5 0 0.5 -0.5 0.5 0 0.5 0 
0.5 0 0.5 0.5 0.5 0 0.5 0 0.5 0 0.5 0.5 0.5 0 0.5 0.5 
0.5 0.5 0.5 0 0.5 -0.5 0.5 0.5 0.5 0 0.5 -0.5 0.5 0 0.5 0 
0.5 0 0.5 0.5 0.5 0.5 0.5 0 0.5 0 0.5 0 0.5 0.5 0.5 0 
0.5 0 0.5 0 0.5 0 0.5 0 0.5 0 0.5 0 0.5 0 0.5 0 
0.5 0 0.5 0 0.5 0 0.5 0.5 0.5 -0.5 0.5 0.5 0.5 0 0.5 0 
0.5 0.5 0.5 0 0.5 0.5 0.5 0 0.5 0 0.5 0 0.5 0 0.5 0 
0.5 0 0.5 0 0.5 0 0.5 0 0.5 0 0.5 0 0.5 0 0.5 -0.5 
0.5 0 0.5 0 0.5 0 0.5 0 0.5 -0.5 0.5 -0.5 0.5 0 0.5 -0.5 
0.5 0 S
2321 1097 0.5 0 0.5 0 0.5 -0.5 0.5 -0.5 0.5 0 0.5 0 0.5 0 
0.5 0 0.5 0 0.5 0 0.5 0 0.5 0 0.5 0.5 0.5 0 0.5 0 
0.5 0 0.5 0 0.5 0 0.5 0 0.5 0 0.5 0 0.5 0 0.5 0.5 
0.5 -0.5 0.5 0 0.5 0 0.5 0 0.5 0 0.5 0.5 0.5 0 0.5 0 
0.5 0 0.5 0 0.5 0 0.5 0.5 0.5 0 0.5 0 0.5 0 0.5 0 
0.5 0 0.5 0 0.5 0 0.5 -0.5 0.5 0 0.5 0 0.5 0 0.5 0 
0.5 0 0.5 0 0.5 0 0.5 0 0.5 0 0.5 0 0.5 0 0.5 0 
0.5 0 0.5 0 0.5 0 0.5 0.5 0.5 0 0.5 0 0.5 0 0.5 0 
0.5 0 0.5 0.5 0.5 0 0.5 0.5 0.5 0 0.5 0 0.5 0 0.5 0.5 
0.5 0 0.5 -0.5 0.5 0 0.5 0 0.5 0.5 0.5 0 0.5 0 0.5 0.5 
0.5 -1 0.5 1 0.5 0 0.5 0 0.5 0 0.5 0 0.5 -1 0.5 0 
0.5 0 0.5 0 0.5 0 0.5 -0.5 0.5 -0.5 0.5 0 0.5 -0.5 0 -0.5 
0.5 0 0.5 0 0.5 0 0.5 0 0.5 0 0.5 0 0.5 0 0.5 0 
0.5 0 S
2372.5 1096.5 0.5 0 0.5 0 0.5 0 0.5 0 0.5 0 0.5 0.5 0.5 0 
0.5 0 0.5 -0.5 0.5 0 0.5 0 0.5 0 0.5 0 0.5 0.5 0.5 0 
0.5 0 0.5 0 0.5 0 0.5 0.5 0.5 -0.5 0.5 0 0.5 0 0.5 0 
0.5 0 0.5 0 0.5 0 0.5 0 0.5 0 0.5 0 0.5 -0.5 0.5 0 
0.5 0 0.5 0 0.5 0 0.5 -0.5 0.5 0 0.5 0 0.5 0 0.5 0 
0.5 0 0.5 0 0.5 0 0.5 0 0.5 0 0.5 0 0.5 0 0.5 0 
0.5 0.5 0.5 0 0.5 0.5 0.5 0 0.5 0.5 0.5 0 0.5 0 0.5 0 
0.5 0 0.5 0 0.5 0 0.5 0 0.5 0.5 0.5 0 0.5 0 0.5 0 
0.5 0 0.5 0 0.5 0 0.5 0 0.5 0 0.5 0 0.5 0 0.5 0 
0.5 0 0.5 0 0.5 0 0.5 0 0.5 0 0.5 0 0.5 0 0.5 0 
0.5 0 0.5 0 0.5 0 0.5 -0.5 0.5 0 0.5 0 0.5 0 0.5 -0.5 
0.5 0 0.5 0 0.5 0 0.5 -0.5 0.5 -0.5 0.5 0 0.5 0 0.5 0 
0.5 0 0.5 0 0.5 0 0.5 -0.5 0.5 0 0.5 0 0.5 0 0.5 0 
0.5 0 S
2424.5 1095.5 0.5 -0.5 0.5 0 0.5 -0.5 0.5 0 0.5 0 0.5 0 0.5 0 
0.5 0 0.5 0.5 0.5 -0.5 0.5 0 0.5 0 0.5 0 0.5 0 0.5 0 
0.5 0 0.5 0 0.5 -1.5 0.5 0 0.5 0 0.5 0 0.5 0 0.5 0 
0.5 0 0.5 0 0.5 0.5 0.5 0 0.5 0 0.5 0.5 0.5 0 0.5 0.5 
0.5 0.5 0.5 0 0.5 0 0.5 0.5 0.5 0 0.5 0 0.5 0 0.5 0 
0.5 0 0.5 0 0.5 0 0.5 0.5 0.5 0.5 0.5 0 0.5 0 0.5 0 
0.5 0.5 0.5 0 0.5 0.5 0.5 0 0.5 0 0.5 0 0.5 0 0.5 0.5 
0.5 0 0.5 0 0.5 0 0.5 0 0.5 0 0.5 0 0.5 0 0.5 0 
0.5 0 0.5 0 0.5 0 0.5 0 0.5 0 0.5 -0.5 0.5 0 0.5 0 
0.5 0 0.5 0 0.5 0 0.5 0 0.5 0 0.5 -0.5 0.5 0 0.5 0 
0.5 0 0.5 0 0.5 0 0.5 0 0.5 0 0.5 0 0.5 0 0.5 0 
0.5 0 0.5 0 0.5 -0.5 0.5 0 0.5 0 0.5 0 0.5 0 0.5 0 
0.5 0 0.5 0 0.5 0 0.5 0 0.5 0 0.5 -0.5 0.5 0.5 0.5 0 
0.5 0 S
2476.5 1096.5 0.5 0 0.5 0 0.5 0 0.5 0 0.5 0 0 0.5 0.5 -0.5 
0.5 0 0.5 0 0.5 0 0.5 0 0.5 0 0.5 0 0.5 0 0.5 0 
0.5 0 0.5 0 0.5 0 0.5 0 0.5 0 0.5 0 0.5 0 0.5 0 
0.5 0 0.5 0 0.5 0 0.5 0.5 0.5 0 0.5 0 0.5 0 0.5 0 
0.5 0 0.5 0 0.5 0 0 1 0.5 0 0.5 0 0.5 0 0.5 0 
0.5 0 0.5 0 0.5 0 0.5 0.5 0.5 0 0.5 0.5 0.5 0.5 0.5 0 
0.5 0.5 0.5 0 0.5 0 0.5 0 0.5 0 0.5 0 0.5 0 0.5 0 
0.5 0 0.5 0 0.5 0 0.5 0.5 0.5 0 0.5 0 0.5 0 0.5 0 
0.5 0 0.5 0 0.5 0 0.5 0 0.5 0 0.5 0 0.5 -0.5 0.5 0 
0.5 0 0.5 -0.5 0.5 0 0.5 0 0.5 -0.5 0.5 0 0.5 0 0.5 0 
0.5 0 0.5 0 0.5 0 0.5 0 0.5 0 0.5 0 0.5 -0.5 0.5 0 
0.5 0 0.5 0 0.5 0 0.5 0.5 0.5 0 0.5 0 0.5 0 0.5 0 
0.5 0 0.5 0 0.5 0 0.5 0 0.5 0 0.5 0 0.5 0 0.5 0 
0.5 0 S
2527.5 1099 0.5 0 0.5 0 0.5 0 0.5 0 0.5 0 0.5 0 0.5 0 
0.5 0 0.5 0 0.5 0 0.5 0 0.5 0 0.5 0 0.5 0 0.5 0 
0.5 0 0.5 0 0.5 0 0.5 0 0.5 0 0.5 0 0.5 0.5 0.5 0 
0.5 0.5 0.5 0.5 0.5 0 0.5 0 0.5 0 0.5 0 0.5 0 0.5 0 
0.5 0 0.5 0 0.5 0 0.5 0 0.5 -0.5 0.5 0 0.5 0 0.5 0 
0.5 0 0.5 0 0.5 0 0 0.5 0.5 0 0.5 0 0.5 0 0.5 0.5 
0.5 0 0.5 0.5 0.5 0 0.5 0 0.5 0 0.5 0 0.5 0 0.5 0 
0.5 0 0.5 0 0.5 0 0.5 0 0.5 0 0.5 -1.5 0.5 -0.5 0.5 0 
0.5 0 0.5 0 0.5 0 0.5 -1 0.5 0 0.5 0 0.5 0 0.5 0 
0.5 0 0.5 0 0.5 0 0.5 0 0.5 0 0.5 -0.5 0.5 0 0.5 0.5 
0.5 0 0.5 0 0.5 -0.5 0.5 0.5 0.5 0 0.5 0 0.5 0 0.5 0 
0.5 0 0.5 0.5 0.5 0.5 0.5 0 0.5 0 0.5 -0.5 0.5 0 0.5 0 
0.5 0 0.5 0.5 0.5 0 0 -0.5 0.5 0 0.5 0 0.5 0 0.5 0 
0.5 0 S
2578.5 1099 0.5 0 0.5 0 0.5 0 0.5 0 0.5 0 0.5 0 0.5 0 
0.5 0 0.5 0 0.5 0 0.5 0 0.5 0.5 0.5 0 0.5 0.5 0.5 0 
0.5 0 0.5 0 0.5 0 0.5 0.5 0.5 0 0.5 0 0.5 0 0.5 0.5 
0.5 0.5 0.5 0 0.5 0 0.5 0 0.5 0 0.5 0 0.5 0 0.5 0 
0.5 0 0.5 0 0.5 0 0.5 0 0.5 0 0.5 0 0.5 0 0.5 0 
0.5 0 0.5 0 0.5 -0.5 0.5 0 0.5 0 0.5 0 0.5 0 0.5 -0.5 
0.5 0 0.5 0 0.5 -1 0.5 0 0 -0.5 0.5 0 0.5 0 0.5 0 
0.5 -0.5 0.5 0 0.5 0 0.5 0.5 0.5 0 0.5 0 0.5 0 0.5 0 
0.5 -0.5 0.5 0.5 0.5 -0.5 0.5 0 0.5 0 0.5 0 0.5 0 0.5 0 
0.5 0 0.5 0 0.5 0 0.5 0 0.5 0 0.5 0 0.5 0 0.5 0 
0.5 0 0.5 0 0.5 0.5 0.5 0 0.5 0 0.5 0.5 0.5 0 0.5 0 
0.5 0 0.5 0 0.5 0 0.5 0 0.5 0 0.5 0 0.5 0 0.5 0 
0.5 0.5 0.5 0 0.5 0 0.5 0 0.5 0 0.5 0 0.5 0 0.5 0 
0.5 0 S
2630 1100 0.5 0 0.5 0.5 0.5 0 0.5 0 0.5 0 0.5 0 0.5 0 
0.5 0.5 0.5 0 0.5 0 0.5 0 0.5 0 0.5 0 0.5 0 0.5 -0.5 
0.5 0 0.5 0 0.5 0.5 0.5 0 0.5 0 0.5 0 0.5 0.5 0.5 -0.5 
0.5 0.5 0.5 0 0.5 0 0.5 0 0.5 0 0.5 0 0.5 0.5 0.5 0 
0.5 -0.5 0.5 0 0.5 0 0.5 0 0.5 -0.5 0.5 0 0.5 0 0.5 -1.5 
0.5 0 0.5 0 0.5 0 0.5 0 0.5 0 0.5 0 0.5 0 0.5 0 
0.5 -0.5 0.5 0 0.5 0 0.5 -0.5 0.5 0 0.5 0 0.5 0 0.5 0 
0.5 0 0.5 0 0.5 0 0.5 0 0 -0.5 0.5 0 0.5 0 0.5 0 
0.5 0 0.5 0 0.5 0.5 0.5 -0.5 0.5 0 0.5 0.5 0.5 0 0.5 0 
0.5 0 0.5 0.5 0.5 0 0.5 0.5 0.5 0 0.5 0 0.5 0 0.5 0 
0.5 0 0.5 0 0.5 0 0.5 0 0.5 0 0.5 -0.5 0.5 0 0.5 0 
0.5 -0.5 0.5 0 0.5 0 0.5 0 0.5 0 0.5 -0.5 0.5 0 0.5 -0.5 
0.5 0 0.5 0 0.5 0 0.5 0 0.5 0 0.5 0 0.5 0.5 0.5 0 
0.5 0 S
2681.5 1098 0.5 0.5 0.5 0 0.5 0 0.5 0.5 0.5 0 0.5 0 0.5 0 
0.5 0 0.5 0.5 0.5 0 0.5 0 0 -0.5 0.5 0.5 0.5 0 0.5 0 
0.5 0 0.5 0 0.5 0.5 0.5 0 0.5 0 0.5 0.5 0.5 0 0.5 0.5 
0.5 0 0.5 0 0.5 0 0.5 0 0.5 0 0.5 0 0.5 0 0.5 -0.5 
0.5 0 0.5 0 0.5 0 0.5 0 0.5 -0.5 0.5 0 0.5 -0.5 0.5 0 
0.5 0 0.5 0 0.5 0 0.5 -0.5 0.5 0 0.5 0 0.5 0 0.5 0 
0.5 0 0.5 0 0.5 0 0.5 0 0.5 0 0.5 0 0.5 0 0.5 -0.5 
0.5 0 0.5 0 0.5 0 0.5 -0.5 0.5 0 0.5 0 0.5 0 0.5 0 
0.5 0 0.5 0 0.5 0 0.5 0 0.5 -0.5 0.5 0 0.5 0 0.5 0 
0.5 0 0.5 0 0.5 -0.5 0.5 0 0.5 -0.5 0.5 0 0.5 0 0.5 0 
0.5 -0.5 0.5 0 0.5 0 0.5 0 0.5 0 0.5 0 0.5 0 0.5 0 
0.5 0 0.5 0 0.5 0 0.5 0.5 0.5 0 0.5 0 0.5 0 0.5 0 
0 0.5 0.5 0 0.5 0 0.5 0 0.5 0 0.5 0.5 0.5 0 0.5 0 
0.5 0 S
2732.5 1097.5 0.5 0 0.5 0 0.5 0 0.5 -0.5 0.5 0.5 0.5 0 0.5 0 
0.5 0 0.5 0 0.5 0 0.5 0 0.5 0 0.5 -0.5 0.5 0 0.5 0 
0.5 0 0.5 -0.5 0.5 0 0.5 0 0.5 0 0 -0.5 0.5 0 0.5 -1 
0.5 0 0.5 0 0.5 0 0.5 -0.5 0.5 0 0.5 -0.5 0.5 0 0.5 0 
0.5 0 0.5 0 0.5 0 0.5 0 0.5 -0.5 0.5 0 0.5 0 0.5 -0.5 
0.5 0 0.5 0 0.5 -0.5 0.5 0.5 0.5 0 0.5 -0.5 0.5 0 0.5 0.5 
0.5 0 0.5 0 0.5 0 0.5 0 0.5 0 0.5 0 0.5 0 0.5 0 
0.5 0 0.5 0 0.5 0 0.5 0.5 0.5 0 0.5 0 0.5 1 0.5 0 
0.5 0.5 0.5 0 0.5 0.5 0.5 0.5 0.5 0 0.5 0 0.5 0.5 0.5 0 
0.5 0 0.5 0 0.5 0 0.5 0 0.5 0 0.5 0.5 0.5 0 0.5 0.5 
0.5 0 0.5 0 0.5 0 0.5 0 0.5 0 0.5 0.5 0.5 -0.5 0.5 0.5 
0.5 0 0.5 0 0.5 0 0.5 0 0.5 0 0.5 0 0.5 0 0.5 0 
0.5 0.5 0.5 0 0.5 0 0.5 0 0.5 0.5 0.5 0 0.5 0 0.5 0 
0.5 0 S
2784 1099 0.5 0 0.5 0.5 0.5 0 0.5 0 0.5 0 0.5 0 0.5 0 
0.5 0 0.5 0 0.5 0 0.5 0 0.5 0 0.5 -0.5 0.5 -0.5 0.5 -0.5 
0.5 -0.5 0.5 0 0.5 0 0.5 -0.5 0.5 0 0.5 0 0.5 0 0.5 0 
0.5 0 0.5 0 0.5 0 0.5 0 0.5 0 0.5 0 0.5 0 0.5 0 
0.5 0 0.5 0 0.5 0 0.5 0 0.5 0 0.5 0 0.5 0 0.5 0 
0.5 0 0.5 0 0.5 0 0.5 0.5 0.5 -0.5 0.5 0.5 0.5 -0.5 0.5 0 
0.5 0 0.5 0 0.5 0 0.5 0 0.5 0 0.5 -0.5 0.5 0 0.5 0 
0.5 0 0.5 0 0.5 0 0.5 0 0.5 -0.5 0.5 0 0.5 0.5 0.5 -0.5 
0.5 0 0.5 0 0.5 0 0.5 0 0.5 0.5 0.5 0 0.5 0 0.5 0 
0.5 0 0.5 0 0.5 0 0.5 0 0.5 0.5 0.5 -0.5 0.5 0.5 0.5 0 
0.5 0 0.5 0 0.5 0 0.5 0 0.5 0.5 0.5 0 0.5 0 0.5 0.5 
0.5 0.5 0.5 0 0.5 0 0.5 0 0.5 0 0.5 0 0.5 0.5 0.5 0 
0.5 0 0.5 0 0.5 0 0.5 0 0.5 0 0.5 0 0.5 0 0.5 0 
0.5 0 S
2836 1099 0.5 0 0.5 -0.5 0.5 0 0.5 0 0.5 -1 0.5 0 0.5 -0.5 
0.5 0 0.5 0 0.5 0 0.5 0 0.5 0 0.5 0 0.5 0 0.5 0 
0.5 -0.5 0.5 0 0.5 0 0.5 0 0.5 0 0.5 0 0.5 0.5 0.5 0 
0.5 0 0.5 0 0.5 -0.5 0.5 0 0.5 0 0.5 0 0.5 0 0.5 0.5 
0.5 0 0.5 0 0.5 0 0.5 0 0.5 0 0.5 0 0.5 -0.5 0.5 0.5 
0.5 0.5 0.5 0 0.5 0 0.5 -0.5 0.5 0 0.5 -0.5 0.5 0 0.5 0 
0.5 0.5 0.5 0 0.5 0 0.5 0 0.5 -1 0.5 1 0.5 0 0.5 0 
0.5 0 0.5 0 0.5 0 0.5 0 0.5 0 0.5 0 0.5 0 0 0.5 
0.5 0 0.5 0.5 0.5 0.5 0.5 0 0.5 0 0.5 0 0.5 0 0.5 0 
0.5 0 0.5 0 0.5 0 0.5 0 0.5 0 0.5 0 0.5 0 0.5 0 
0.5 0.5 0.5 0 0.5 0 0.5 -0.5 0.5 0 0.5 0.5 0.5 0 0.5 0 
0.5 0 0.5 -0.5 0.5 0 0.5 0 0.5 0 0.5 0 0.5 0 0.5 -0.5 
0.5 0 0.5 0 0.5 0 0.5 -0.5 0.5 0 0.5 -0.5 0.5 0 0.5 0 
0.5 0 S
2887.5 1097 0.5 0 0.5 0 0.5 0 0.5 0 0.5 0 0.5 -0.5 0.5 0.5 
0.5 0 0.5 0 0.5 0 0.5 0 0.5 0 0.5 0 0.5 0 0.5 0 
0.5 0 0.5 0 0.5 0 0.5 0 0.5 0 0.5 0 0.5 0 0.5 0 
0.5 0 0.5 0 0.5 0 0.5 0 0.5 0 0.5 -0.5 0.5 0 0.5 0 
0.5 0 0.5 -0.5 0.5 0 0.5 0 0.5 -0.5 0.5 0 0.5 0 0.5 0 
0.5 0 0.5 0 0.5 0 0.5 0 0.5 0 0.5 0 0.5 -0.5 0.5 0 
0.5 0 0.5 0 0.5 0 0.5 0 0.5 0 0.5 0.5 0.5 -0.5 0.5 0 
0.5 0 0.5 0.5 0.5 0 0.5 0 0.5 0.5 0.5 0 0.5 0 0.5 0.5 
0.5 0 0.5 0 0.5 0 0.5 0 0.5 0 0.5 0 0.5 0 0.5 0 
0.5 0 0.5 0 0.5 0 0.5 0 0.5 0 0.5 0 0.5 0 0.5 0 
0.5 0 0.5 0.5 0.5 -0.5 0.5 0 0.5 0 0.5 0 0.5 0 0.5 -0.5 
0.5 0.5 0.5 0 0.5 -0.5 0.5 0.5 0.5 0 0.5 0 0.5 0 0.5 0 
0.5 0 0.5 0 0.5 0 0.5 0 0.5 0 0.5 0 0.5 0 0.5 0 
0.5 0 S
2939.5 1096.5 0.5 0 0.5 0 0.5 0 0.5 0 0.5 -0.5 0.5 0 0.5 0.5 
0.5 0 0.5 0 0.5 0 0.5 -0.5 0.5 0 0.5 0.5 0.5 0 0.5 0 
0.5 0 0.5 0 0.5 0 0.5 0 0.5 0 0.5 0 0.5 0 0.5 0 
0.5 -0.5 0.5 0.5 0.5 0 0.5 -0.5 0.5 0 0.5 0 0.5 0 0.5 0 
0.5 0 0.5 0 0.5 -0.5 0.5 0 0.5 0 0.5 0.5 0.5 0 0.5 0.5 
0.5 -0.5 0.5 0 0.5 0 0.5 0 0.5 0.5 0.5 0 0.5 0 0.5 0 
0.5 0 0.5 0 0 0.5 0.5 0.5 0.5 0 0.5 0 0.5 0 0.5 0 
0.5 0 0.5 0 0.5 0 0.5 0.5 0.5 0 0.5 0 0.5 0 0.5 0 
0.5 0 0.5 0 0.5 0 0.5 1 0.5 0 0.5 0 0.5 -0.5 0.5 0 
0.5 0 0.5 -0.5 0.5 0 0.5 0 0.5 0 0.5 0 0.5 0 0 -0.5 
0.5 0 0.5 -0.5 0.5 0 0.5 0 0.5 0 0.5 0 0.5 0 0.5 -0.5 
0.5 0 0.5 0.5 0.5 0 0.5 0 0.5 -0.5 0.5 0 0.5 0 0.5 0 
0.5 0.5 0.5 0 0.5 0 0.5 0 0.5 -0.5 0.5 0.5 0.5 0 0.5 0 
0.5 0 S
2990.5 1097 0.5 0 0.5 0 0.5 0 0.5 0 0.5 0 0.5 0 0.5 0 
0.5 0 0.5 -0.5 0.5 0 0.5 0 0.5 0 0.5 0 0.5 -0.5 0.5 0 
0.5 0 0.5 -0.5 0.5 0 0.5 0 0.5 0 0.5 0 0.5 0 0.5 0 
0.5 0 0.5 0 0.5 0 0.5 0 0.5 0 0.5 0.5 0.5 0 0.5 0 
0.5 0.5 0.5 0 0.5 0 0.5 0 0.5 0 0.5 0.5 0.5 0 0.5 0 
0.5 0 0.5 0 0.5 0 0.5 0 0.5 0 0.5 0.5 0.5 -0.5 0.5 0 
0.5 0 0.5 0 0.5 0 0.5 0 0.5 0 0.5 0 0.5 0.5 0.5 0 
0.5 0 0.5 0 0.5 0 0.5 0.5 0.5 0 0.5 0 0.5 -0.5 0.5 0 
0.5 0 0.5 0 0.5 0 0.5 0 0.5 0 0.5 -0.5 0.5 0 0.5 0 
0.5 0 0.5 0 0.5 0 0.5 -0.5 0.5 0 0.5 0.5 0.5 0 0.5 0 
0.5 -0.5 0.5 0 0.5 0 0.5 -0.5 0.5 0 0.5 0 0.5 0 0 -0.5 
0.5 -0.5 0.5 0 0.5 0 0.5 0 0.5 0 0.5 0 0.5 0 0.5 0 
0.5 0.5 0.5 0 0.5 0 0.5 0 0.5 0 0.5 0 0.5 0 0.5 0 
0.5 0.5 S
3042 1096 0.5 0 0.5 0.5 0.5 0 0.5 0 0.5 0 0.5 -0.5 0.5 0 
0.5 0 0.5 0 0.5 0 0.5 0 0.5 -1 0.5 0 0.5 0 0.5 0 
0.5 0 0.5 0 0.5 0 0.5 -0.5 0.5 0.5 0.5 0 0.5 0.5 0.5 0 
0.5 0.5 0.5 0.5 0.5 0 0.5 0 0.5 0 0.5 0 0.5 0 0.5 0 
0.5 0 0.5 0.5 0.5 0 0.5 0 0.5 0 0.5 0.5 0.5 0 0.5 -0.5 
0.5 0 0.5 0 0.5 0 0.5 -0.5 0.5 0 0.5 0 0.5 0 0.5 0 
0.5 0 0.5 0 0.5 0 0.5 -0.5 0.5 0 0.5 -0.5 0.5 0 0.5 0 
0.5 0 0.5 0 0.5 0 0.5 0 0.5 0 0.5 0 0.5 0 0.5 1 
0.5 0 0.5 0 0.5 0 0.5 0 0.5 0 0.5 0 0.5 -1 0.5 0 
0.5 0 0.5 0 0.5 0.5 0.5 0 0.5 0 0.5 0 0.5 0 0.5 -0.5 
0.5 0.5 0.5 -0.5 0.5 0 0.5 0 0.5 0 0.5 0 0.5 0 0.5 0 
0.5 0 0.5 0 0.5 0 0.5 0 0.5 0 0.5 0 0.5 0 0.5 0 
0.5 0 0.5 0 0.5 0 0.5 0 0.5 -0.5 0.5 0 0.5 0 0.5 0 
0.5 0 S
3094 1095 0.5 0 0.5 0 0.5 0 0.5 -0.5 0.5 0 0.5 0 0.5 0 
0.5 0 0.5 0 0.5 0 0.5 0 0.5 0 0.5 0 0.5 0 0.5 0 
0.5 0 0.5 0 0.5 0 0.5 0 0.5 0.5 0.5 0.5 0.5 0 0.5 0 
0.5 0 0.5 0.5 0.5 0 0.5 0 0.5 0 0.5 0 0.5 0 0.5 0.5 
0.5 0 0.5 0 0.5 0.5 0.5 0 0.5 -0.5 0.5 0 0.5 0 0.5 0 
0.5 0 0.5 0 0.5 0 0.5 0 0.5 0 0.5 0 0 -0.5 0.5 0 
0.5 0 0.5 0 0.5 0 0.5 0 0.5 -0.5 0.5 0 0.5 0 0.5 0 
0.5 0 0.5 -1 0.5 0 0.5 0 0.5 0 0.5 0 0.5 -0.5 0.5 0 
0.5 0 0.5 0 0.5 0 0.5 0 0.5 0 0.5 0 0.5 0 0.5 0 
0.5 0 0.5 0 0.5 -0.5 0 0.5 0.5 0 0.5 0 0.5 -0.5 0.5 0 
0.5 0 0.5 0 0.5 0 0.5 0 0.5 0 0.5 0 0.5 0 0.5 0 
0.5 0 0.5 0 0.5 0 0.5 0 0.5 0 0.5 -0.5 0.5 0 0.5 0 
0.5 0 0.5 -0.5 0.5 0.5 0.5 0 0.5 0 0.5 0.5 0.5 0 0.5 0 
0.5 0 S
3145 1093.5 0.5 0 0.5 0.5 0.5 0 0.5 0 0.5 0 0.5 0 0.5 0 
0.5 0 0.5 0.5 0.5 0.5 0.5 0 0.5 0.5 0.5 0 0.5 0 0.5 0 
0.5 0 0.5 0.5 0.5 0.5 0.5 0 0.5 0 0.5 0 0.5 0 0.5 0 
0.5 0 0.5 0 0.5 0 0.5 -0.5 0.5 0 0.5 0 0.5 0 0.5 0 
0.5 0 0.5 0 0.5 0 0.5 -0.5 0.5 -1 0.5 -0.5 0.5 0 0.5 0 
0.5 0 0.5 0 0.5 0 0.5 0 0.5 0 0.5 -0.5 0.5 0 0.5 0 
0.5 0 0.5 0 0.5 0 0.5 0 0.5 0 0.5 0.5 0.5 0 0.5 0 
0.5 0 0.5 0 0.5 0 0.5 0 0.5 0 0.5 0 0.5 0 0.5 -0.5 
0.5 0 0.5 0 0.5 0 0.5 0 0.5 0 0.5 0 0.5 0 0.5 0 
0.5 0 0.5 0.5 0.5 -0.5 0.5 0 0.5 0 0.5 0.5 0.5 0 0.5 0.5 
0.5 0 0.5 0 0.5 0 0.5 0 0.5 0 0.5 0 0.5 -0.5 0.5 0 
0.5 0.5 0.5 0 0.5 0 0.5 0 0.5 0.5 0.5 -0.5 0.5 0.5 0.5 0 
0.5 0 0.5 0 0.5 0.5 0.5 0 0.5 0 0.5 0.5 0.5 -0.5 0.5 0 
0.5 0 S
3197 1095.5 0.5 0 0.5 0 0.5 0 0.5 0.5 0.5 0 0.5 0 0.5 0.5 
0.5 -0.5 0.5 0 0.5 0 0.5 0 0.5 0.5 0.5 0 0.5 0.5 0.5 0 
0.5 0 0.5 0 0.5 0 0.5 0 0.5 0 0.5 0 0.5 0 0.5 0 
0.5 0 0.5 -0.5 0.5 0 0.5 0 0.5 0 0.5 -0.5 0.5 0 0.5 -0.5 
0.5 0 0.5 -0.5 0.5 0 0.5 0 0.5 0 0.5 0 0.5 0 0.5 0 
0.5 0 0.5 0 0.5 0 0.5 0 0.5 -0.5 0.5 0 0.5 0 0.5 0 
0.5 0 0.5 0 0.5 0 0.5 0 0.5 0 0.5 0 0.5 -1 0.5 0 
0.5 0 0.5 0 0.5 0 0.5 0 0.5 0 0.5 2 0.5 0 0.5 0 
0.5 0 0.5 0 0.5 0 0.5 0 0.5 0.5 0.5 0 0.5 0 0.5 0 
0.5 0 0.5 0 0.5 0 0.5 0 0.5 -0.5 0.5 0.5 0.5 0 0.5 0 
0.5 0 0.5 0 0.5 0 0.5 0 0.5 0 0.5 0 0.5 0 0.5 0.5 
0.5 -0.5 0.5 0.5 0.5 0 0.5 0 0.5 0 0.5 0 0.5 0.5 0.5 0.5 
0.5 0 0.5 0 0.5 0 0.5 0.5 0.5 0 0.5 0 0.5 0 0.5 0 
0.5 0.5 S
3249 1098.5 0.5 0.5 0.5 0 0.5 0 0.5 0 0.5 0 0.5 0 0.5 0 
0.5 0 0.5 0 0.5 0 0.5 0 0.5 0 0.5 -0.5 0 -1 0.5 -0.5 
0.5 0 0.5 0 0.5 -0.5 0.5 0 0.5 0 0.5 -0.5 0.5 0 0.5 0 
0.5 0 0.5 -0.5 0.5 0 0.5 0 0.5 0 0.5 0 0.5 -0.5 0.5 0 
0.5 -0.5 0.5 0 0.5 0 0.5 -0.5 0.5 0.5 0.5 0 0.5 -0.5 0.5 0 
0.5 0 0.5 0 0.5 0 0.5 0 0.5 0 0.5 0 0.5 0 0.5 0 
0.5 0 0.5 0 0.5 0 0.5 0 0.5 0 0.5 0 0.5 0 0.5 0 
0.5 0 0.5 0 0.5 0 0.5 0 0.5 0 0.5 0 0.5 0 0.5 0 
0.5 0 0.5 0 0.5 0 0.5 0 0.5 0 0.5 0 0.5 0 0.5 0 
0.5 0 0.5 0 0.5 0 0.5 0 0.5 0 0.5 0 0.5 0 0.5 0 
0.5 0 0.5 0 0.5 0 0.5 0 S
878 620 2412 528 re
S
cleartomark end end pagesave restore
 showpage
%%PageTrailer
%%Trailer
%%Pages: 1
