%!PS-Adobe-3.0 EPSF-3.0
%%Title: path_duration.fig
%%Creator: fig2dev Version 3.2 Patchlevel 5e
%%CreationDate: Sun Jul 24 17:53:59 2016
%%BoundingBox: 0 0 338 119
%Magnification: 1.0000
%%EndComments
%%BeginProlog
/$F2psDict 200 dict def
$F2psDict begin
$F2psDict /mtrx matrix put
/col-1 {0 setgray} bind def
/col0 {0.000 0.000 0.000 srgb} bind def
/col1 {0.000 0.000 1.000 srgb} bind def
/col2 {0.000 1.000 0.000 srgb} bind def
/col3 {0.000 1.000 1.000 srgb} bind def
/col4 {1.000 0.000 0.000 srgb} bind def
/col5 {1.000 0.000 1.000 srgb} bind def
/col6 {1.000 1.000 0.000 srgb} bind def
/col7 {1.000 1.000 1.000 srgb} bind def
/col8 {0.000 0.000 0.560 srgb} bind def
/col9 {0.000 0.000 0.690 srgb} bind def
/col10 {0.000 0.000 0.820 srgb} bind def
/col11 {0.530 0.810 1.000 srgb} bind def
/col12 {0.000 0.560 0.000 srgb} bind def
/col13 {0.000 0.690 0.000 srgb} bind def
/col14 {0.000 0.820 0.000 srgb} bind def
/col15 {0.000 0.560 0.560 srgb} bind def
/col16 {0.000 0.690 0.690 srgb} bind def
/col17 {0.000 0.820 0.820 srgb} bind def
/col18 {0.560 0.000 0.000 srgb} bind def
/col19 {0.690 0.000 0.000 srgb} bind def
/col20 {0.820 0.000 0.000 srgb} bind def
/col21 {0.560 0.000 0.560 srgb} bind def
/col22 {0.690 0.000 0.690 srgb} bind def
/col23 {0.820 0.000 0.820 srgb} bind def
/col24 {0.500 0.190 0.000 srgb} bind def
/col25 {0.630 0.250 0.000 srgb} bind def
/col26 {0.750 0.380 0.000 srgb} bind def
/col27 {1.000 0.500 0.500 srgb} bind def
/col28 {1.000 0.630 0.630 srgb} bind def
/col29 {1.000 0.750 0.750 srgb} bind def
/col30 {1.000 0.880 0.880 srgb} bind def
/col31 {1.000 0.840 0.000 srgb} bind def
/col32 {0.333 0.333 0.333 srgb} bind def
/col33 {0.667 0.667 0.667 srgb} bind def

end

/cp {closepath} bind def
/ef {eofill} bind def
/gr {grestore} bind def
/gs {gsave} bind def
/sa {save} bind def
/rs {restore} bind def
/l {lineto} bind def
/m {moveto} bind def
/rm {rmoveto} bind def
/n {newpath} bind def
/s {stroke} bind def
/sh {show} bind def
/slc {setlinecap} bind def
/slj {setlinejoin} bind def
/slw {setlinewidth} bind def
/srgb {setrgbcolor} bind def
/rot {rotate} bind def
/sc {scale} bind def
/sd {setdash} bind def
/ff {findfont} bind def
/sf {setfont} bind def
/scf {scalefont} bind def
/sw {stringwidth} bind def
/tr {translate} bind def
/tnt {dup dup currentrgbcolor
  4 -2 roll dup 1 exch sub 3 -1 roll mul add
  4 -2 roll dup 1 exch sub 3 -1 roll mul add
  4 -2 roll dup 1 exch sub 3 -1 roll mul add srgb}
  bind def
/shd {dup dup currentrgbcolor 4 -2 roll mul 4 -2 roll mul
  4 -2 roll mul srgb} bind def
 /DrawEllipse {
	/endangle exch def
	/startangle exch def
	/yrad exch def
	/xrad exch def
	/y exch def
	/x exch def
	/savematrix mtrx currentmatrix def
	x y tr xrad yrad sc 0 0 1 startangle endangle arc
	closepath
	savematrix setmatrix
	} def

/$F2psBegin {$F2psDict begin /$F2psEnteredState save def} def
/$F2psEnd {$F2psEnteredState restore end} def

/pageheader {
save
newpath 0 119 moveto 0 0 lineto 338 0 lineto 338 119 lineto closepath clip newpath
-268.3 199.4 translate
1 -1 scale
$F2psBegin
10 setmiterlimit
0 slj 0 slc
 0.06299 0.06299 sc
} bind def
/pagefooter {
$F2psEnd
restore
} bind def
%%EndProlog
pageheader
%
% Fig objects follow
%
% 
% here starts figure with depth 60
% Polyline
0 slj
0 slc
15.000 slw
n 5454 2044 m
 7652 2044 l gs col32 s gr 
% here ends figure;
% 
% here starts figure with depth 55
% Polyline
0 slj
0 slc
7.500 slw
 [60] 0 sd
n 4500 1800 m
 9450 1800 l gs 0.00 setgray ef gr gs col0 s gr  [] 0 sd
% Polyline
 [60] 0 sd
n 4500 2700 m
 9450 2700 l gs 0.00 setgray ef gr gs col0 s gr  [] 0 sd
% Polyline
 [60] 0 sd
n 4500 1350 m
 9450 1350 l gs 0.00 setgray ef gr gs col0 s gr  [] 0 sd
% here ends figure;
% 
% here starts figure with depth 50
% Ellipse
7.500 slw
n 7200 2700 45 45 0 360 DrawEllipse gs col7 0.00 shd ef gr gs col0 s gr

% Ellipse
n 7200 1800 45 45 0 360 DrawEllipse gs col7 0.00 shd ef gr gs col0 s gr

% Polyline
2 slj
0 slc
15.000 slw
n 7200 1800 m 7201 1803 l 7203 1811 l 7207 1824 l 7212 1843 l 7218 1867 l
 7226 1897 l 7234 1929 l 7243 1962 l 7251 1996 l 7259 2029 l
 7266 2060 l 7272 2089 l 7277 2116 l 7281 2141 l 7284 2165 l
 7287 2187 l 7289 2208 l 7290 2229 l 7290 2250 l 7290 2271 l
 7289 2292 l 7287 2313 l 7284 2335 l 7281 2359 l 7277 2384 l
 7272 2411 l 7266 2440 l 7259 2471 l 7251 2504 l 7243 2538 l
 7234 2571 l 7226 2603 l 7218 2633 l 7212 2657 l 7207 2676 l
 7203 2689 l 7201 2697 l
 7200 2700 l gs col0 s gr 
% Ellipse
7.500 slw
n 4950 1350 45 45 0 360 DrawEllipse gs col7 0.00 shd ef gr gs col0 s gr

% Ellipse
n 5850 2250 45 45 0 360 DrawEllipse gs col7 0.00 shd ef gr gs col0 s gr

% Ellipse
n 5850 1350 45 45 0 360 DrawEllipse gs col7 0.00 shd ef gr gs col0 s gr

% Ellipse
n 5400 1800 45 45 0 360 DrawEllipse gs col7 0.00 shd ef gr gs col0 s gr

% Ellipse
n 6300 2250 45 45 0 360 DrawEllipse gs col7 0.00 shd ef gr gs col0 s gr

% Ellipse
n 4950 1800 45 45 0 360 DrawEllipse gs col7 0.00 shd ef gr gs col0 s gr

% Ellipse
n 5400 2250 45 45 0 360 DrawEllipse gs col7 0.00 shd ef gr gs col0 s gr

% Ellipse
n 6300 2700 45 45 0 360 DrawEllipse gs col7 0.00 shd ef gr gs col0 s gr

% Polyline
0 slj
15.000 slw
n 6362 2476 m
 8100 2475 l gs col32 s gr 
% Polyline
7.500 slw
 [60] 0 sd
n 4500 2250 m
 9450 2250 l gs 0.00 setgray ef gr gs col0 s gr  [] 0 sd
% Polyline
15.000 slw
n 7294 2260 m
 8998 2258 l gs col32 s gr 
% Polyline
n 5939 1802 m
 7110 1800 l gs col32 s gr 
% Polyline
n 5013 1589 m
 6757 1592 l gs col32 s gr 
% Polyline
2 slj
n 4950 1350 m 4950 1351 l 4952 1355 l 4955 1364 l 4961 1380 l 4968 1401 l
 4976 1424 l 4984 1448 l 4991 1471 l 4997 1492 l 5002 1512 l
 5006 1529 l 5008 1545 l 5010 1560 l 5010 1575 l 5010 1590 l
 5008 1605 l 5006 1621 l 5002 1638 l 4997 1658 l 4991 1679 l
 4984 1702 l 4976 1726 l 4968 1749 l 4961 1770 l 4955 1786 l
 4952 1795 l 4950 1799 l
 4950 1800 l gs col0 s gr 
% Polyline
n 5850 1350 m 5851 1353 l 5853 1361 l 5857 1374 l 5862 1393 l 5868 1417 l
 5876 1447 l 5884 1479 l 5893 1512 l 5901 1546 l 5909 1579 l
 5916 1610 l 5922 1639 l 5927 1666 l 5931 1691 l 5934 1715 l
 5937 1737 l 5939 1758 l 5940 1779 l 5940 1800 l 5940 1821 l
 5939 1842 l 5937 1863 l 5934 1885 l 5931 1909 l 5927 1934 l
 5922 1961 l 5916 1990 l 5909 2021 l 5901 2054 l 5893 2088 l
 5884 2121 l 5876 2153 l 5868 2183 l 5862 2207 l 5857 2226 l
 5853 2239 l 5851 2247 l
 5850 2250 l gs col0 s gr 
% Polyline
n 5400 1800 m 5400 1801 l 5402 1805 l 5405 1814 l 5411 1830 l 5418 1851 l
 5426 1874 l 5434 1898 l 5441 1921 l 5447 1942 l 5452 1962 l
 5456 1979 l 5458 1995 l 5460 2010 l 5460 2025 l 5460 2040 l
 5458 2055 l 5456 2071 l 5452 2088 l 5447 2108 l 5441 2129 l
 5434 2152 l 5426 2176 l 5418 2199 l 5411 2220 l 5405 2236 l
 5402 2245 l 5400 2249 l
 5400 2250 l gs col0 s gr 
% Polyline
n 6300 2250 m 6300 2251 l 6302 2255 l 6305 2264 l 6311 2280 l 6318 2301 l
 6326 2324 l 6334 2348 l 6341 2371 l 6347 2392 l 6352 2412 l
 6356 2429 l 6358 2445 l 6360 2460 l 6360 2475 l 6360 2490 l
 6358 2505 l 6356 2521 l 6352 2538 l 6347 2558 l 6341 2579 l
 6334 2602 l 6326 2626 l 6318 2649 l 6311 2670 l 6305 2686 l
 6302 2695 l 6300 2699 l
 6300 2700 l gs col0 s gr 
% Polyline
0 slj
30.000 slw
n 4725 1350 m 5085 1350 l 5265 1800 l 5580 1800 l 5760 2250 l 6660 2250 l
 6885 2700 l 7920 2700 l
 8100 1800 l gs col4 s gr 
% Polyline
7.500 slw
gs  clippath
9314 2955 m 9465 2955 l 9465 2895 l 9314 2895 l 9314 2895 l 9434 2925 l 9314 2955 l cp
eoclip
n 4500 2925 m
 9450 2925 l gs 0.00 setgray ef gr gs col0 s gr gr

% arrowhead
n 9314 2955 m 9434 2925 l 9314 2895 l 9314 2955 l  cp gs 0.00 setgray ef gr  col0 s
% Polyline
n 4950 2925 m
 4950 2880 l gs 0.00 setgray ef gr gs col0 s gr 
% Polyline
n 5400 2925 m
 5400 2880 l gs 0.00 setgray ef gr gs col0 s gr 
% Polyline
n 5850 2925 m
 5850 2880 l gs 0.00 setgray ef gr gs col0 s gr 
% Polyline
n 6300 2925 m
 6300 2880 l gs 0.00 setgray ef gr gs col0 s gr 
% Polyline
n 6750 2925 m
 6750 2880 l gs 0.00 setgray ef gr gs col0 s gr 
% Polyline
n 7200 2925 m
 7200 2880 l gs 0.00 setgray ef gr gs col0 s gr 
% Polyline
n 7650 2925 m
 7650 2880 l gs 0.00 setgray ef gr gs col0 s gr 
% Polyline
n 8100 2925 m
 8100 2880 l gs 0.00 setgray ef gr gs col0 s gr 
% Polyline
n 8550 2925 m
 8550 2880 l gs 0.00 setgray ef gr gs col0 s gr 
% Polyline
n 9000 2925 m
 9000 2880 l gs 0.00 setgray ef gr gs col0 s gr 
/Times-Roman ff 158.75 scf sf
4905 3150 m
gs 1 -1 sc (2) col0 sh gr
/Times-Roman ff 158.75 scf sf
6255 3150 m
gs 1 -1 sc (8) col0 sh gr
/Times-Roman ff 158.75 scf sf
7560 3150 m
gs 1 -1 sc (14) col0 sh gr
/Times-Roman ff 158.75 scf sf
8910 3150 m
gs 1 -1 sc (20) col0 sh gr
/Times-Roman ff 206.38 scf sf
9225 3150 m
gs 1 -1 sc (time) col0 sh gr
/Times-Roman ff 206.38 scf sf
4275 1395 m
gs 1 -1 sc (a) col0 sh gr
/Times-Roman ff 206.38 scf sf
4275 1845 m
gs 1 -1 sc (b) col0 sh gr
/Times-Roman ff 206.38 scf sf
4275 2745 m
gs 1 -1 sc (d) col0 sh gr
/Times-Roman ff 206.38 scf sf
4275 2295 m
gs 1 -1 sc (c) col0 sh gr
% here ends figure;
pagefooter
showpage
%%Trailer
%EOF
