%!PS-Adobe-3.0 EPSF-3.0
%%Title: peeling-process.fig
%%Creator: fig2dev Version 3.2 Patchlevel 5e
%%CreationDate: Tue Jul 19 13:00:38 2016
%%BoundingBox: 0 0 484 521
%Magnification: 1.0000
%%EndComments
%%BeginProlog
/$F2psDict 200 dict def
$F2psDict begin
$F2psDict /mtrx matrix put
/col-1 {0 setgray} bind def
/col0 {0.000 0.000 0.000 srgb} bind def
/col1 {0.000 0.000 1.000 srgb} bind def
/col2 {0.000 1.000 0.000 srgb} bind def
/col3 {0.000 1.000 1.000 srgb} bind def
/col4 {1.000 0.000 0.000 srgb} bind def
/col5 {1.000 0.000 1.000 srgb} bind def
/col6 {1.000 1.000 0.000 srgb} bind def
/col7 {1.000 1.000 1.000 srgb} bind def
/col8 {0.000 0.000 0.560 srgb} bind def
/col9 {0.000 0.000 0.690 srgb} bind def
/col10 {0.000 0.000 0.820 srgb} bind def
/col11 {0.530 0.810 1.000 srgb} bind def
/col12 {0.000 0.560 0.000 srgb} bind def
/col13 {0.000 0.690 0.000 srgb} bind def
/col14 {0.000 0.820 0.000 srgb} bind def
/col15 {0.000 0.560 0.560 srgb} bind def
/col16 {0.000 0.690 0.690 srgb} bind def
/col17 {0.000 0.820 0.820 srgb} bind def
/col18 {0.560 0.000 0.000 srgb} bind def
/col19 {0.690 0.000 0.000 srgb} bind def
/col20 {0.820 0.000 0.000 srgb} bind def
/col21 {0.560 0.000 0.560 srgb} bind def
/col22 {0.690 0.000 0.690 srgb} bind def
/col23 {0.820 0.000 0.820 srgb} bind def
/col24 {0.500 0.190 0.000 srgb} bind def
/col25 {0.630 0.250 0.000 srgb} bind def
/col26 {0.750 0.380 0.000 srgb} bind def
/col27 {1.000 0.500 0.500 srgb} bind def
/col28 {1.000 0.630 0.630 srgb} bind def
/col29 {1.000 0.750 0.750 srgb} bind def
/col30 {1.000 0.880 0.880 srgb} bind def
/col31 {1.000 0.840 0.000 srgb} bind def

end

/cp {closepath} bind def
/ef {eofill} bind def
/gr {grestore} bind def
/gs {gsave} bind def
/sa {save} bind def
/rs {restore} bind def
/l {lineto} bind def
/m {moveto} bind def
/rm {rmoveto} bind def
/n {newpath} bind def
/s {stroke} bind def
/sh {show} bind def
/slc {setlinecap} bind def
/slj {setlinejoin} bind def
/slw {setlinewidth} bind def
/srgb {setrgbcolor} bind def
/rot {rotate} bind def
/sc {scale} bind def
/sd {setdash} bind def
/ff {findfont} bind def
/sf {setfont} bind def
/scf {scalefont} bind def
/sw {stringwidth} bind def
/tr {translate} bind def
/tnt {dup dup currentrgbcolor
  4 -2 roll dup 1 exch sub 3 -1 roll mul add
  4 -2 roll dup 1 exch sub 3 -1 roll mul add
  4 -2 roll dup 1 exch sub 3 -1 roll mul add srgb}
  bind def
/shd {dup dup currentrgbcolor 4 -2 roll mul 4 -2 roll mul
  4 -2 roll mul srgb} bind def
/$F2psBegin {$F2psDict begin /$F2psEnteredState save def} def
/$F2psEnd {$F2psEnteredState restore end} def

/pageheader {
save
newpath 0 521 moveto 0 0 lineto 484 0 lineto 484 521 lineto closepath clip newpath
-126.8 664.3 translate
1 -1 scale
$F2psBegin
10 setmiterlimit
0 slj 0 slc
 0.06299 0.06299 sc
} bind def
/pagefooter {
$F2psEnd
restore
} bind def
%%EndProlog
pageheader
%
% Fig objects follow
%
% 
% here starts figure with depth 50
% Polyline
0 slj
0 slc
7.500 slw
gs  clippath
3870 3620 m 3870 3840 l 3960 3840 l 3960 3620 l 3960 3620 l 3915 3770 l 3870 3620 l cp
eoclip
n 3915 2925 m
 3915 3825 l gs col0 s gr gr

% arrowhead
30.000 slw
n 3870 3620 m 3915 3770 l 3960 3620 l 3870 3620 l  cp gs 0.00 setgray ef gr  col0 s
% Polyline
7.500 slw
gs  clippath
3870 5150 m 3870 5370 l 3960 5370 l 3960 5150 l 3960 5150 l 3915 5300 l 3870 5150 l cp
eoclip
n 3915 4455 m
 3915 5355 l gs col0 s gr gr

% arrowhead
30.000 slw
n 3870 5150 m 3915 5300 l 3960 5150 l 3870 5150 l  cp gs 0.00 setgray ef gr  col0 s
% Polyline
7.500 slw
gs  clippath
3870 6455 m 3870 6675 l 3960 6675 l 3960 6455 l 3960 6455 l 3915 6605 l 3870 6455 l cp
eoclip
n 3915 5760 m
 3915 6660 l gs col0 s gr gr

% arrowhead
30.000 slw
n 3870 6455 m 3915 6605 l 3960 6455 l 3870 6455 l  cp gs 0.00 setgray ef gr  col0 s
% Polyline
7.500 slw
n 4950 7065 m
 5535 7065 l gs col0 s gr 
% Polyline
gs  clippath
6974 7095 m 7125 7095 l 7125 7035 l 6974 7035 l 6974 7035 l 7094 7065 l 6974 7095 l cp
eoclip
n 6345 7065 m
 7110 7065 l gs col0 s gr gr

% arrowhead
n 6974 7095 m 7094 7065 l 6974 7035 l 6974 7095 l  cp gs 0.00 setgray ef gr  col0 s
% Polyline
gs  clippath
3870 8390 m 3870 8610 l 3960 8610 l 3960 8390 l 3960 8390 l 3915 8540 l 3870 8390 l cp
eoclip
n 3915 7695 m
 3915 8595 l gs col0 s gr gr

% arrowhead
30.000 slw
n 3870 8390 m 3915 8540 l 3960 8390 l 3870 8390 l  cp gs 0.00 setgray ef gr  col0 s
% Polyline
7.500 slw
gs  clippath
3870 9965 m 3870 10185 l 3960 10185 l 3960 9965 l 3960 9965 l 3915 10115 l 3870 9965 l cp
eoclip
n 3915 9270 m
 3915 10170 l gs col0 s gr gr

% arrowhead
30.000 slw
n 3870 9965 m 3915 10115 l 3960 9965 l 3870 9965 l  cp gs 0.00 setgray ef gr  col0 s
% Polyline
7.500 slw
gs  clippath
7015 5950 m 7165 5971 l 7174 5912 l 7024 5891 l 7024 5891 l 7139 5938 l 7015 5950 l cp
eoclip
n 4950 5625 m
 7155 5940 l gs col0 s gr gr

% arrowhead
n 7015 5950 m 7139 5938 l 7024 5891 l 7015 5950 l  cp gs 0.00 setgray ef gr  col0 s
% Polyline
gs  clippath
2564 3945 m 2715 3945 l 2715 3885 l 2564 3885 l 2564 3885 l 2684 3915 l 2564 3945 l cp
eoclip
n 3375 10485 m 2025 10485 l 2025 3915 l
 2700 3915 l gs col0 s gr gr

% arrowhead
n 2564 3945 m 2684 3915 l 2564 3885 l 2564 3945 l  cp gs 0.00 setgray ef gr  col0 s
% Polyline
gs  clippath
7057 8525 m 7188 8600 l 7217 8548 l 7087 8473 l 7087 8473 l 7176 8559 l 7057 8525 l cp
eoclip
n 6020 7892 m
 7190 8567 l gs col0 s gr gr

% arrowhead
n 7057 8525 m 7176 8559 l 7087 8473 l 7057 8525 l  cp gs 0.00 setgray ef gr  col0 s
% Polyline
n 4950 7200 m
 5805 7740 l gs col0 s gr 
/Times-Roman ff 317.50 scf sf
2745 4005 m
gs 1 -1 sc (Compute features) col0 sh gr
/Times-Roman ff 317.50 scf sf
3285 4365 m
gs 1 -1 sc (of level i) col0 sh gr
/Times-Roman ff 317.50 scf sf
2925 6930 m
gs 1 -1 sc (Try to identify) col0 sh gr
/Times-Roman ff 317.50 scf sf
3105 7290 m
gs 1 -1 sc (all detected) col0 sh gr
/Times-Roman ff 317.50 scf sf
3375 7650 m
gs 1 -1 sc (events) col0 sh gr
/Times-Roman ff 317.50 scf sf
3240 9225 m
gs 1 -1 sc (identified) col0 sh gr
/Times-Roman ff 317.50 scf sf
3330 8865 m
gs 1 -1 sc (Remove ) col0 sh gr
/Times-Roman ff 317.50 scf sf
3555 2520 m
gs 1 -1 sc (Initial) col0 sh gr
/Times-Roman ff 317.50 scf sf
3015 5670 m
gs 1 -1 sc (Detect events) col0 sh gr
/Times-Roman ff 317.50 scf sf
3330 2880 m
gs 1 -1 sc (data \(i=0\)) col0 sh gr
/Times-Roman ff 254.00 scf sf
5580 7155 m
gs 1 -1 sc (failure) col0 sh gr
/Times-Roman ff 317.50 scf sf
7200 7155 m
gs 1 -1 sc (Leave in detected) col0 sh gr
/Times-Roman ff 317.50 scf sf
7200 6075 m
gs 1 -1 sc (Store in detected) col0 sh gr
/Times-Roman ff 317.50 scf sf
3600 10530 m
gs 1 -1 sc (i=i+1) col0 sh gr
/Times-Roman ff 254.00 scf sf
5535 7875 m
gs 1 -1 sc (success) col0 sh gr
/Times-Roman ff 317.50 scf sf
7200 8640 m
gs 1 -1 sc (Store as identified) col0 sh gr
% here ends figure;
pagefooter
showpage
%%Trailer
%EOF
