%!PS-Adobe-3.0 EPSF-3.0
%%BoundingBox: 68 53 265 190
%%HiResBoundingBox: 68.100000 53.900000 264.900000 189.100000
%.....................................
%%Creator: GPL Ghostscript 871 (epswrite)
%%CreationDate: 2012/01/28 17:04:52
%%DocumentData: Clean7Bit
%%LanguageLevel: 2
%%EndComments
%%BeginProlog
% This copyright applies to everything between here and the %%EndProlog:
% Copyright (C) 2010 Artifex Software, Inc.  All rights reserved.
%%BeginResource: procset GS_epswrite_2_0_1001 1.001 0
/GS_epswrite_2_0_1001 80 dict dup begin
/PageSize 2 array def/setpagesize{ PageSize aload pop 3 index eq exch
4 index eq and{ pop pop pop}{ PageSize dup  1
5 -1 roll put 0 4 -1 roll put dup null eq {false} {dup where} ifelse{ exch get exec}
{ pop/setpagedevice where
{ pop 1 dict dup /PageSize PageSize put setpagedevice}
{ /setpage where{ pop PageSize aload pop pageparams 3 {exch pop} repeat
setpage}if}ifelse}ifelse}ifelse} bind def
/!{bind def}bind def/#{load def}!/N/counttomark #
/rG{3{3 -1 roll 255 div}repeat setrgbcolor}!/G{255 div setgray}!/K{0 G}!
/r6{dup 3 -1 roll rG}!/r5{dup 3 1 roll rG}!/r3{dup rG}!
/w/setlinewidth #/J/setlinecap #
/j/setlinejoin #/M/setmiterlimit #/d/setdash #/i/setflat #
/m/moveto #/l/lineto #/c/rcurveto #
/p{N 2 idiv{N -2 roll rlineto}repeat}!
/P{N 0 gt{N -2 roll moveto p}if}!
/h{p closepath}!/H{P closepath}!
/lx{0 rlineto}!/ly{0 exch rlineto}!/v{0 0 6 2 roll c}!/y{2 copy c}!
/re{4 -2 roll m exch dup lx exch ly neg lx h}!
/^{3 index neg 3 index neg}!
/f{P fill}!/f*{P eofill}!/s{H stroke}!/S{P stroke}!
/q/gsave #/Q/grestore #/rf{re fill}!
/Y{P clip newpath}!/Y*{P eoclip newpath}!/rY{re Y}!
/|={pop exch 4 1 roll 1 array astore cvx 3 array astore cvx exch 1 index def exec}!
/|{exch string readstring |=}!
/+{dup type/nametype eq{2 index 7 add -3 bitshift 2 index mul}if}!
/@/currentfile #/${+ @ |}!
/B{{2 copy string{readstring pop}aload pop 4 array astore cvx
3 1 roll}repeat pop pop true}!
/Ix{[1 0 0 1 11 -2 roll exch neg exch neg]exch}!
/,{true exch Ix imagemask}!/If{false exch Ix imagemask}!/I{exch Ix image}!
/Ic{exch Ix false 3 colorimage}!
/F{/Columns counttomark 3 add -2 roll/Rows exch/K -1/BlackIs1 true>>
/CCITTFaxDecode filter}!/FX{<</EndOfBlock false F}!
/X{/ASCII85Decode filter}!/@X{@ X}!/&2{2 index 2 index}!
/@F{@ &2<<F}!/@C{@X &2 FX}!
/$X{+ @X |}!/&4{4 index 4 index}!/$F{+ @ &4<<F |}!/$C{+ @X &4 FX |}!
/IC{3 1 roll 10 dict begin 1{/ImageType/Interpolate/Decode/DataSource
/ImageMatrix/BitsPerComponent/Height/Width}{exch def}forall
currentdict end image}!
/~{@ read {pop} if}!
end def
%%EndResource
/pagesave null def
%%EndProlog
%%Page: 1 1
%%BeginPageSetup
GS_epswrite_2_0_1001 begin
/pagesave save store 197 dict begin
0.1 0.1 scale
%%EndPageSetup
gsave mark
Q q
0 0 250000 250000 re
Y
5 w
K
854 620 31.5 0 P
2594 620 -31.5 0 S
781 599 34 44 /3U
$C
23%r'%\5X)j2)<u^Zk'1J,ZoQs8W-!s8VJ_s8Qk\g>99H(eYmM:r7r$~>
,
854 745 31.5 0 P
2594 745 -31.5 0 S
714 724 35 44 /6U
$C
2%'Ns&9R0a'Aa:<PNfbDGdm_=;rkC=Bjl_7CKWS'fO25hs7ZK6."D-0~>
,
747 724 3U ,
781 724 3U ,
854 869.5 31.5 0 P
2594 869.5 -31.5 0 S
689 850 17 43 /3Y
$C
,Tm'ds8W-!s-F.@R>;m@If~>
,
714 849 3U ,
747 849 3U ,
781 849 3U ,
854 994.5 31.5 0 P
2594 994.5 -31.5 0 S
689 975 3Y ,
714 974 6U ,
747 974 3U ,
781 974 3U ,
854 1119 31.5 0 P
2594 1119 -31.5 0 S
681 1099 34 43 /6Y
$C
4;jd(Qp5fN^"]dYfPna4iOE=NL>hOS^UAOiqu,+3CMbUV[OTh+@7(A~>
,
714 1098 3U ,
747 1098 3U ,
781 1098 3U ,
854 1244 31.5 0 P
2594 1244 -31.5 0 S
681 1224 6Y ,
714 1223 6U ,
747 1223 3U ,
781 1223 3U ,
854 1369 31.5 0 P
2594 1369 -31.5 0 S
681 1348 34 44 /4C
$C
3f*tLK;VJ#ZZne#2lEeH?]XK;@:la`Yct@m+Q2(jDLDKapAVZrg>Sl<[;*R2"T~>
,
714 1348 3U ,
747 1348 3U ,
781 1348 3U ,
854 1493.5 31.5 0 P
2594 1493.5 -31.5 0 S
681 1473 4C ,
714 1473 6U ,
747 1473 3U ,
781 1473 3U ,
854 1618.5 31.5 0 P
2594 1618.5 -31.5 0 S
681 1599 35 43 /7C
$C
.M)RZs3Cmfr0V$lmIpMQmIpMQmJH;FpY5/kn_X9>^V/P~>
,
714 1598 3U ,
747 1598 3U ,
781 1598 3U ,
854 1743 31.5 0 P
2594 1743 -31.5 0 S
681 1723 7C ,
714 1722 6U ,
747 1722 3U ,
781 1722 3U ,
854 1868 31.5 0 P
2594 1868 -31.5 0 S
681 1847 6U ,
714 1847 3U ,
747 1847 3U ,
781 1847 3U ,
854 620 0 31.5 P
854 1868 0 -31.5 S
842 539 3U ,
1028 620 0 31.5 P
1028 1868 0 -31.5 S
1007 540 3Y ,
1032 539 3U ,
1202 620 0 31.5 P
1202 1868 0 -31.5 S
1173 540 6Y ,
1206 539 3U ,
1376 620 0 31.5 P
1376 1868 0 -31.5 S
1347 539 4C ,
1380 539 3U ,
1550 620 0 31.5 P
1550 1868 0 -31.5 S
1521 540 7C ,
1554 539 3U ,
1724 620 0 31.5 P
1724 1868 0 -31.5 S
1695 539 6U ,
1728 539 3U ,
1898 620 0 31.5 P
1898 1868 0 -31.5 S
1869 539 35 44 /4G
$C
22__[-UH4U05uPcT2!a`He7T^qXqU=['7F,Z=C&h$n`Au*WOE]DtUNIgIhr,MR@1;L'd~>
,
1902 539 3U ,
2072 620 0 31.5 P
2072 1868 0 -31.5 S
2043 540 35 43 /7G
$C
,Sg=Wrr)ibmJYqspAMaEgV3(PG5]%%Ho""&~>
,
2076 539 3U ,
2246 620 0 31.5 P
2246 1868 0 -31.5 S
2217 539 35 44 /4K
$C
2$jBqS07(D'Aa:H#WJZ`e,TIHX4Gk>$!:Ud'l"Rbl-UTa#WJZ`l2Ue`CO4^e@4ZT(6OF59~>
,
2250 539 3U ,
2420 620 0 31.5 P
2420 1868 0 -31.5 S
2391 539 34 44 /7K
$C
3f=8'6.=X%ER7#DhOCS3MgtWLU=_cj#H+8i0B!.-l1\MVs0)+QHJ7+ZV.#(s>)'+,0VA~>
,
2424 539 3U ,
2594 620 0 31.5 P
2594 1868 0 -31.5 S
2556 540 3Y ,
2582 539 3U ,
2615 539 3U ,
854 620 1740 1248 re
S
2.5 w
889 1615.75 0 31.5 S
873.25 1631.5 31.5 0 S
906 1315.25 0 31.5 S
890.25 1331 31.5 0 S
923.5 1176.25 0 31.5 S
907.75 1192 31.5 0 S
941 1069.75 0 31.5 S
925.25 1085.5 31.5 0 S
958.5 977.75 0 31.5 S
942.75 993.5 31.5 0 S
976 920.75 0 31.5 S
960.25 936.5 31.5 0 S
993 893.25 0 31.5 S
977.25 909 31.5 0 S
1010.5 853.75 0 31.5 S
994.75 869.5 31.5 0 S
1028 848.75 0 31.5 S
1012.25 864.5 31.5 0 S
1045.5 817.25 0 31.5 S
1029.75 833 31.5 0 S
1063 788.25 0 31.5 S
1047.25 804 31.5 0 S
1080 785.25 0 31.5 S
1064.25 801 31.5 0 S
1097.5 771.25 0 31.5 S
1081.75 787 31.5 0 S
1115 771.25 0 31.5 S
1099.25 787 31.5 0 S
1132.5 765.75 0 31.5 S
1116.75 781.5 31.5 0 S
1150 749.75 0 31.5 S
1134.25 765.5 31.5 0 S
1167 743.25 0 31.5 S
1151.25 759 31.5 0 S
1184.5 729.75 0 31.5 S
1168.75 745.5 31.5 0 S
1202 719.75 0 31.5 S
1186.25 735.5 31.5 0 S
1219.5 718.75 0 31.5 S
1203.75 734.5 31.5 0 S
1237 722.75 0 31.5 S
1221.25 738.5 31.5 0 S
1254 708.75 0 31.5 S
1238.25 724.5 31.5 0 S
1271.5 710.75 0 31.5 S
1255.75 726.5 31.5 0 S
1289 700.25 0 31.5 S
1273.25 716 31.5 0 S
1306.5 700.25 0 31.5 S
1290.75 716 31.5 0 S
1324 701.25 0 31.5 S
1308.25 717 31.5 0 S
1341 693.25 0 31.5 S
1325.25 709 31.5 0 S
1358.5 690.75 0 31.5 S
1342.75 706.5 31.5 0 S
1376 694.75 0 31.5 S
1360.25 710.5 31.5 0 S
1393.5 688.25 0 31.5 S
1377.75 704 31.5 0 S
1411 686.25 0 31.5 S
1395.25 702 31.5 0 S
1428 679.25 0 31.5 S
1412.25 695 31.5 0 S
1445.5 677.75 0 31.5 S
1429.75 693.5 31.5 0 S
1463 676.75 0 31.5 S
1447.25 692.5 31.5 0 S
1480.5 673.25 0 31.5 S
1464.75 689 31.5 0 S
1498 675.75 0 31.5 S
1482.25 691.5 31.5 0 S
1515 670.25 0 31.5 S
1499.25 686 31.5 0 S
1532.5 667.75 0 31.5 S
1516.75 683.5 31.5 0 S
1550 671.75 0 31.5 S
1534.25 687.5 31.5 0 S
1567.5 663.75 0 31.5 S
1551.75 679.5 31.5 0 S
1585 667.25 0 31.5 S
1569.25 683 31.5 0 S
1602 661.75 0 31.5 S
1586.25 677.5 31.5 0 S
1619.5 663.25 0 31.5 S
1603.75 679 31.5 0 S
1637 655.25 0 31.5 S
1621.25 671 31.5 0 S
1654.5 656.25 0 31.5 S
1638.75 672 31.5 0 S
1672 656.75 0 31.5 S
1656.25 672.5 31.5 0 S
1689 655.75 0 31.5 S
1673.25 671.5 31.5 0 S
1706.5 660.25 0 31.5 S
1690.75 676 31.5 0 S
1724 652.75 0 31.5 S
1708.25 668.5 31.5 0 S
1741.5 650.75 0 31.5 S
1725.75 666.5 31.5 0 S
1759 650.25 0 31.5 S
1743.25 666 31.5 0 S
1776 648.25 0 31.5 S
1760.25 664 31.5 0 S
1793.5 649.75 0 31.5 S
1777.75 665.5 31.5 0 S
1811 651.75 0 31.5 S
1795.25 667.5 31.5 0 S
1828.5 649.75 0 31.5 S
1812.75 665.5 31.5 0 S
1846 642.75 0 31.5 S
1830.25 658.5 31.5 0 S
1863 654.25 0 31.5 S
1847.25 670 31.5 0 S
1880.5 647.25 0 31.5 S
1864.75 663 31.5 0 S
1898 640.75 0 31.5 S
1882.25 656.5 31.5 0 S
1915.5 641.25 0 31.5 S
1899.75 657 31.5 0 S
1933 641.75 0 31.5 S
1917.25 657.5 31.5 0 S
1950 642.25 0 31.5 S
1934.25 658 31.5 0 S
1967.5 638.75 0 31.5 S
1951.75 654.5 31.5 0 S
1985 646.75 0 31.5 S
1969.25 662.5 31.5 0 S
2002.5 640.25 0 31.5 S
1986.75 656 31.5 0 S
2020 645.75 0 31.5 S
2004.25 661.5 31.5 0 S
2037 638.25 0 31.5 S
2021.25 654 31.5 0 S
2054.5 632.75 0 31.5 S
2038.75 648.5 31.5 0 S
2072 641.75 0 31.5 S
2056.25 657.5 31.5 0 S
2089.5 636.75 0 31.5 S
2073.75 652.5 31.5 0 S
2107 634.75 0 31.5 S
2091.25 650.5 31.5 0 S
2124 639.25 0 31.5 S
2108.25 655 31.5 0 S
2141.5 638.25 0 31.5 S
2125.75 654 31.5 0 S
2159 637.75 0 31.5 S
2143.25 653.5 31.5 0 S
2176.5 635.75 0 31.5 S
2160.75 651.5 31.5 0 S
2194 634.25 0 31.5 S
2178.25 650 31.5 0 S
2211 644.25 0 31.5 S
2195.25 660 31.5 0 S
2228.5 638.75 0 31.5 S
2212.75 654.5 31.5 0 S
2246 634.25 0 31.5 S
2230.25 650 31.5 0 S
2263.5 631.75 0 31.5 S
2247.75 647.5 31.5 0 S
2281 636.75 0 31.5 S
2265.25 652.5 31.5 0 S
2298 641.75 0 31.5 S
2282.25 657.5 31.5 0 S
2315.5 628.75 0 31.5 S
2299.75 644.5 31.5 0 S
2333 633.25 0 31.5 S
2317.25 649 31.5 0 S
2350.5 634.25 0 31.5 S
2334.75 650 31.5 0 S
2368 634.25 0 31.5 S
2352.25 650 31.5 0 S
2385 625.25 0 31.5 S
2369.25 641 31.5 0 S
2402.5 629.25 0 31.5 S
2386.75 645 31.5 0 S
2420 631.75 0 31.5 S
2404.25 647.5 31.5 0 S
2437.5 630.75 0 31.5 S
2421.75 646.5 31.5 0 S
2455 627.25 0 31.5 S
2439.25 643 31.5 0 S
2472 631.25 0 31.5 S
2456.25 647 31.5 0 S
2489.5 630.25 0 31.5 S
2473.75 646 31.5 0 S
2507 626.25 0 31.5 S
2491.25 642 31.5 0 S
2524.5 625.75 0 31.5 S
2508.75 641.5 31.5 0 S
2542 631.75 0 31.5 S
2526.25 647.5 31.5 0 S
2559 633.75 0 31.5 S
2543.25 649.5 31.5 0 S
2576.5 630.25 0 31.5 S
2560.75 646 31.5 0 S
5 w
854 620 1740 1248 re
S
cleartomark end end pagesave restore
 showpage
%%PageTrailer
%%Trailer
%%Pages: 1
