%!PS-Adobe-3.0 EPSF-3.0
%%BoundingBox: 68 53 265 188
%%HiResBoundingBox: 68.900000 53.900000 264.900000 187.050000
%.....................................
%%Creator: GPL Ghostscript 871 (epswrite)
%%CreationDate: 2012/01/28 17:04:52
%%DocumentData: Clean7Bit
%%LanguageLevel: 2
%%EndComments
%%BeginProlog
% This copyright applies to everything between here and the %%EndProlog:
% Copyright (C) 2010 Artifex Software, Inc.  All rights reserved.
%%BeginResource: procset GS_epswrite_2_0_1001 1.001 0
/GS_epswrite_2_0_1001 80 dict dup begin
/PageSize 2 array def/setpagesize{ PageSize aload pop 3 index eq exch
4 index eq and{ pop pop pop}{ PageSize dup  1
5 -1 roll put 0 4 -1 roll put dup null eq {false} {dup where} ifelse{ exch get exec}
{ pop/setpagedevice where
{ pop 1 dict dup /PageSize PageSize put setpagedevice}
{ /setpage where{ pop PageSize aload pop pageparams 3 {exch pop} repeat
setpage}if}ifelse}ifelse}ifelse} bind def
/!{bind def}bind def/#{load def}!/N/counttomark #
/rG{3{3 -1 roll 255 div}repeat setrgbcolor}!/G{255 div setgray}!/K{0 G}!
/r6{dup 3 -1 roll rG}!/r5{dup 3 1 roll rG}!/r3{dup rG}!
/w/setlinewidth #/J/setlinecap #
/j/setlinejoin #/M/setmiterlimit #/d/setdash #/i/setflat #
/m/moveto #/l/lineto #/c/rcurveto #
/p{N 2 idiv{N -2 roll rlineto}repeat}!
/P{N 0 gt{N -2 roll moveto p}if}!
/h{p closepath}!/H{P closepath}!
/lx{0 rlineto}!/ly{0 exch rlineto}!/v{0 0 6 2 roll c}!/y{2 copy c}!
/re{4 -2 roll m exch dup lx exch ly neg lx h}!
/^{3 index neg 3 index neg}!
/f{P fill}!/f*{P eofill}!/s{H stroke}!/S{P stroke}!
/q/gsave #/Q/grestore #/rf{re fill}!
/Y{P clip newpath}!/Y*{P eoclip newpath}!/rY{re Y}!
/|={pop exch 4 1 roll 1 array astore cvx 3 array astore cvx exch 1 index def exec}!
/|{exch string readstring |=}!
/+{dup type/nametype eq{2 index 7 add -3 bitshift 2 index mul}if}!
/@/currentfile #/${+ @ |}!
/B{{2 copy string{readstring pop}aload pop 4 array astore cvx
3 1 roll}repeat pop pop true}!
/Ix{[1 0 0 1 11 -2 roll exch neg exch neg]exch}!
/,{true exch Ix imagemask}!/If{false exch Ix imagemask}!/I{exch Ix image}!
/Ic{exch Ix false 3 colorimage}!
/F{/Columns counttomark 3 add -2 roll/Rows exch/K -1/BlackIs1 true>>
/CCITTFaxDecode filter}!/FX{<</EndOfBlock false F}!
/X{/ASCII85Decode filter}!/@X{@ X}!/&2{2 index 2 index}!
/@F{@ &2<<F}!/@C{@X &2 FX}!
/$X{+ @X |}!/&4{4 index 4 index}!/$F{+ @ &4<<F |}!/$C{+ @X &4 FX |}!
/IC{3 1 roll 10 dict begin 1{/ImageType/Interpolate/Decode/DataSource
/ImageMatrix/BitsPerComponent/Height/Width}{exch def}forall
currentdict end image}!
/~{@ read {pop} if}!
end def
%%EndResource
/pagesave null def
%%EndProlog
%%Page: 1 1
%%BeginPageSetup
GS_epswrite_2_0_1001 begin
/pagesave save store 197 dict begin
0.1 0.1 scale
%%EndPageSetup
gsave mark
Q q
0 0 250000 250000 re
Y
5 w
K
854 620 31.5 0 P
2594 620 -31.5 0 S
755 600 17 43 /3U
$C
,Tm'ds8W-!s-F.@R>;m@If~>
,
781 599 34 44 /6U
$C
23%r'%\5X)j2)<u^Zk'1J,ZoQs8W-!s8VJ_s8Qk\g>99H(eYmM:r7r$~>
,
854 759 15.5 0 P
2594 759 -15.5 0 P
854 840.5 15.5 0 P
2594 840.5 -15.5 0 P
854 898.5 15.5 0 P
2594 898.5 -15.5 0 P
854 943 15.5 0 P
2594 943 -15.5 0 P
854 980 15.5 0 P
2594 980 -15.5 0 P
854 1011 15.5 0 P
2594 1011 -15.5 0 P
854 1037.5 15.5 0 P
2594 1037.5 -15.5 0 P
854 1061 15.5 0 P
2594 1061 -15.5 0 P
854 1082.5 31.5 0 P
2594 1082.5 -31.5 0 S
722 1063 3U ,
747 1062 6U ,
781 1062 6U ,
854 1221.5 15.5 0 P
2594 1221.5 -15.5 0 P
854 1303 15.5 0 P
2594 1303 -15.5 0 P
854 1361 15.5 0 P
2594 1361 -15.5 0 P
854 1405.5 15.5 0 P
2594 1405.5 -15.5 0 P
854 1442 15.5 0 P
2594 1442 -15.5 0 P
854 1473 15.5 0 P
2594 1473 -15.5 0 P
854 1500 15.5 0 P
2594 1500 -15.5 0 P
854 1523.5 15.5 0 P
2594 1523.5 -15.5 0 P
854 1545 31.5 0 P
2594 1545 -31.5 0 S
689 1525 3U ,
714 1524 6U ,
747 1524 6U ,
781 1524 6U ,
854 1684 15.5 0 P
2594 1684 -15.5 0 P
854 1765.5 15.5 0 P
2594 1765.5 -15.5 0 P
854 1823 15.5 0 P
2594 1823 -15.5 0 P
854 1868 15.5 0 P
2594 1868 -15.5 0 P
854 620 0 31.5 P
854 1868 0 -31.5 S
842 539 6U ,
1028 620 0 31.5 P
1028 1868 0 -31.5 S
1007 540 3U ,
1032 539 6U ,
1202 620 0 31.5 P
1202 1868 0 -31.5 S
1173 540 34 43 /3Y
$C
4;jd(Qp5fN^"]dYfPna4iOE=NL>hOS^UAOiqu,+3CMbUV[OTh+@7(A~>
,
1206 539 6U ,
1376 620 0 31.5 P
1376 1868 0 -31.5 S
1347 539 34 44 /6Y
$C
3f*tLK;VJ#ZZne#2lEeH?]XK;@:la`Yct@m+Q2(jDLDKapAVZrg>Sl<[;*R2"T~>
,
1380 539 6U ,
1550 620 0 31.5 P
1550 1868 0 -31.5 S
1521 540 35 43 /4C
$C
.M)RZs3Cmfr0V$lmIpMQmIpMQmJH;FpY5/kn_X9>^V/P~>
,
1554 539 6U ,
1724 620 0 31.5 P
1724 1868 0 -31.5 S
1695 539 35 44 /7C
$C
2%'Ns&9R0a'Aa:<PNfbDGdm_=;rkC=Bjl_7CKWS'fO25hs7ZK6."D-0~>
,
1728 539 6U ,
1898 620 0 31.5 P
1898 1868 0 -31.5 S
1869 539 35 44 /4G
$C
22__[-UH4U05uPcT2!a`He7T^qXqU=['7F,Z=C&h$n`Au*WOE]DtUNIgIhr,MR@1;L'd~>
,
1902 539 6U ,
2072 620 0 31.5 P
2072 1868 0 -31.5 S
2043 540 35 43 /7G
$C
,Sg=Wrr)ibmJYqspAMaEgV3(PG5]%%Ho""&~>
,
2076 539 6U ,
2246 620 0 31.5 P
2246 1868 0 -31.5 S
2217 539 35 44 /4K
$C
2$jBqS07(D'Aa:H#WJZ`e,TIHX4Gk>$!:Ud'l"Rbl-UTa#WJZ`l2Ue`CO4^e@4ZT(6OF59~>
,
2250 539 6U ,
2420 620 0 31.5 P
2420 1868 0 -31.5 S
2391 539 34 44 /7K
$C
3f=8'6.=X%ER7#DhOCS3MgtWLU=_cj#H+8i0B!.-l1\MVs0)+QHJ7+ZV.#(s>)'+,0VA~>
,
2424 539 6U ,
2594 620 0 31.5 P
2594 1868 0 -31.5 S
2556 540 3U ,
2582 539 6U ,
2615 539 6U ,
854 620 1740 1248 re
S
2.5 w
889 1810.25 0 31.5 S
873.25 1826 31.5 0 S
906 1739.25 0 31.5 S
890.25 1755 31.5 0 S
923.5 1695.75 0 31.5 S
907.75 1711.5 31.5 0 S
941 1654.25 0 31.5 S
925.25 1670 31.5 0 S
958.5 1610.25 0 31.5 S
942.75 1626 31.5 0 S
976 1576.75 0 31.5 S
960.25 1592.5 31.5 0 S
993 1558.75 0 31.5 S
977.25 1574.5 31.5 0 S
1010.5 1528.75 0 31.5 S
994.75 1544.5 31.5 0 S
1028 1524.75 0 31.5 S
1012.25 1540.5 31.5 0 S
1045.5 1497.25 0 31.5 S
1029.75 1513 31.5 0 S
1063 1467.75 0 31.5 S
1047.25 1483.5 31.5 0 S
1080 1464.75 0 31.5 S
1064.25 1480.5 31.5 0 S
1097.5 1448.75 0 31.5 S
1081.75 1464.5 31.5 0 S
1115 1448.75 0 31.5 S
1099.25 1464.5 31.5 0 S
1132.5 1441.75 0 31.5 S
1116.75 1457.5 31.5 0 S
1150 1420.75 0 31.5 S
1134.25 1436.5 31.5 0 S
1167 1411.25 0 31.5 S
1151.25 1427 31.5 0 S
1184.5 1391.25 0 31.5 S
1168.75 1407 31.5 0 S
1202 1373.75 0 31.5 S
1186.25 1389.5 31.5 0 S
1219.5 1372.75 0 31.5 S
1203.75 1388.5 31.5 0 S
1237 1379.25 0 31.5 S
1221.25 1395 31.5 0 S
1254 1354.25 0 31.5 S
1238.25 1370 31.5 0 S
1271.5 1357.75 0 31.5 S
1255.75 1373.5 31.5 0 S
1289 1336.75 0 31.5 S
1273.25 1352.5 31.5 0 S
1306.5 1336.75 0 31.5 S
1290.75 1352.5 31.5 0 S
1324 1338.75 0 31.5 S
1308.25 1354.5 31.5 0 S
1341 1322.25 0 31.5 S
1325.25 1338 31.5 0 S
1358.5 1315.75 0 31.5 S
1342.75 1331.5 31.5 0 S
1376 1325.75 0 31.5 S
1360.25 1341.5 31.5 0 S
1393.5 1310.75 0 31.5 S
1377.75 1326.5 31.5 0 S
1411 1305.75 0 31.5 S
1395.25 1321.5 31.5 0 S
1428 1287.75 0 31.5 S
1412.25 1303.5 31.5 0 S
1445.5 1283.75 0 31.5 S
1429.75 1299.5 31.5 0 S
1463 1280.25 0 31.5 S
1447.25 1296 31.5 0 S
1480.5 1270.75 0 31.5 S
1464.75 1286.5 31.5 0 S
1498 1278.25 0 31.5 S
1482.25 1294 31.5 0 S
1515 1261.75 0 31.5 S
1499.25 1277.5 31.5 0 S
1532.5 1254.75 0 31.5 S
1516.75 1270.5 31.5 0 S
1550 1266.25 0 31.5 S
1534.25 1282 31.5 0 S
1567.5 1241.75 0 31.5 S
1551.75 1257.5 31.5 0 S
1585 1252.25 0 31.5 S
1569.25 1268 31.5 0 S
1602 1233.75 0 31.5 S
1586.25 1249.5 31.5 0 S
1619.5 1239.75 0 31.5 S
1603.75 1255.5 31.5 0 S
1637 1209.75 0 31.5 S
1621.25 1225.5 31.5 0 S
1654.5 1213.75 0 31.5 S
1638.75 1229.5 31.5 0 S
1672 1216.75 0 31.5 S
1656.25 1232.5 31.5 0 S
1689 1211.75 0 31.5 S
1673.25 1227.5 31.5 0 S
1706.5 1228.75 0 31.5 S
1690.75 1244.5 31.5 0 S
1724 1200.75 0 31.5 S
1708.25 1216.5 31.5 0 S
1741.5 1192.25 0 31.5 S
1725.75 1208 31.5 0 S
1759 1189.25 0 31.5 S
1743.25 1205 31.5 0 S
1776 1181.25 0 31.5 S
1760.25 1197 31.5 0 S
1793.5 1188.25 0 31.5 S
1777.75 1204 31.5 0 S
1811 1195.75 0 31.5 S
1795.25 1211.5 31.5 0 S
1828.5 1188.25 0 31.5 S
1812.75 1204 31.5 0 S
1846 1153.25 0 31.5 S
1830.25 1169 31.5 0 S
1863 1205.75 0 31.5 S
1847.25 1221.5 31.5 0 S
1880.5 1176.75 0 31.5 S
1864.75 1192.5 31.5 0 S
1898 1142.75 0 31.5 S
1882.25 1158.5 31.5 0 S
1915.5 1146.75 0 31.5 S
1899.75 1162.5 31.5 0 S
1933 1149.25 0 31.5 S
1917.25 1165 31.5 0 S
1950 1150.75 0 31.5 S
1934.25 1166.5 31.5 0 S
1967.5 1131.25 0 31.5 S
1951.75 1147 31.5 0 S
1985 1173.25 0 31.5 S
1969.25 1189 31.5 0 S
2002.5 1141.25 0 31.5 S
1986.75 1157 31.5 0 S
2020 1169.75 0 31.5 S
2004.25 1185.5 31.5 0 S
2037 1129.75 0 31.5 S
2021.25 1145.5 31.5 0 S
2054.5 1094.75 0 31.5 S
2038.75 1110.5 31.5 0 S
2072 1149.25 0 31.5 S
2056.25 1165 31.5 0 S
2089.5 1119.25 0 31.5 S
2073.75 1135 31.5 0 S
2107 1106.75 0 31.5 S
2091.25 1122.5 31.5 0 S
2124 1135.75 0 31.5 S
2108.25 1151.5 31.5 0 S
2141.5 1129.75 0 31.5 S
2125.75 1145.5 31.5 0 S
2159 1125.25 0 31.5 S
2143.25 1141 31.5 0 S
2176.5 1113.25 0 31.5 S
2160.75 1129 31.5 0 S
2194 1103.25 0 31.5 S
2178.25 1119 31.5 0 S
2211 1162.25 0 31.5 S
2195.25 1178 31.5 0 S
2228.5 1132.75 0 31.5 S
2212.75 1148.5 31.5 0 S
2246 1104.75 0 31.5 S
2230.25 1120.5 31.5 0 S
2263.5 1085.75 0 31.5 S
2247.75 1101.5 31.5 0 S
2281 1119.25 0 31.5 S
2265.25 1135 31.5 0 S
2298 1149.25 0 31.5 S
2282.25 1165 31.5 0 S
2315.5 1062.75 0 31.5 S
2299.75 1078.5 31.5 0 S
2333 1096.25 0 31.5 S
2317.25 1112 31.5 0 S
2350.5 1104.75 0 31.5 S
2334.75 1120.5 31.5 0 S
2368 1104.75 0 31.5 S
2352.25 1120.5 31.5 0 S
2385 1031.75 0 31.5 S
2369.25 1047.5 31.5 0 S
2402.5 1068.75 0 31.5 S
2386.75 1084.5 31.5 0 S
2420 1085.75 0 31.5 S
2404.25 1101.5 31.5 0 S
2437.5 1078.25 0 31.5 S
2421.75 1094 31.5 0 S
2455 1049.75 0 31.5 S
2439.25 1065.5 31.5 0 S
2472 1082.25 0 31.5 S
2456.25 1098 31.5 0 S
2489.5 1076.25 0 31.5 S
2473.75 1092 31.5 0 S
2507 1043.25 0 31.5 S
2491.25 1059 31.5 0 S
2524.5 1038.75 0 31.5 S
2508.75 1054.5 31.5 0 S
2542 1085.75 0 31.5 S
2526.25 1101.5 31.5 0 S
2559 1101.75 0 31.5 S
2543.25 1117.5 31.5 0 S
2576.5 1074.75 0 31.5 S
2560.75 1090.5 31.5 0 S
5 w
854 620 1740 1248 re
S
cleartomark end end pagesave restore
 showpage
%%PageTrailer
%%Trailer
%%Pages: 1
