%!PS-Adobe-3.0 EPSF-3.0
%%BoundingBox: 68 53 265 188
%%HiResBoundingBox: 68.900000 53.900000 264.900000 187.050000
%.....................................
%%Creator: GPL Ghostscript 871 (epswrite)
%%CreationDate: 2012/01/28 17:04:53
%%DocumentData: Clean7Bit
%%LanguageLevel: 2
%%EndComments
%%BeginProlog
% This copyright applies to everything between here and the %%EndProlog:
% Copyright (C) 2010 Artifex Software, Inc.  All rights reserved.
%%BeginResource: procset GS_epswrite_2_0_1001 1.001 0
/GS_epswrite_2_0_1001 80 dict dup begin
/PageSize 2 array def/setpagesize{ PageSize aload pop 3 index eq exch
4 index eq and{ pop pop pop}{ PageSize dup  1
5 -1 roll put 0 4 -1 roll put dup null eq {false} {dup where} ifelse{ exch get exec}
{ pop/setpagedevice where
{ pop 1 dict dup /PageSize PageSize put setpagedevice}
{ /setpage where{ pop PageSize aload pop pageparams 3 {exch pop} repeat
setpage}if}ifelse}ifelse}ifelse} bind def
/!{bind def}bind def/#{load def}!/N/counttomark #
/rG{3{3 -1 roll 255 div}repeat setrgbcolor}!/G{255 div setgray}!/K{0 G}!
/r6{dup 3 -1 roll rG}!/r5{dup 3 1 roll rG}!/r3{dup rG}!
/w/setlinewidth #/J/setlinecap #
/j/setlinejoin #/M/setmiterlimit #/d/setdash #/i/setflat #
/m/moveto #/l/lineto #/c/rcurveto #
/p{N 2 idiv{N -2 roll rlineto}repeat}!
/P{N 0 gt{N -2 roll moveto p}if}!
/h{p closepath}!/H{P closepath}!
/lx{0 rlineto}!/ly{0 exch rlineto}!/v{0 0 6 2 roll c}!/y{2 copy c}!
/re{4 -2 roll m exch dup lx exch ly neg lx h}!
/^{3 index neg 3 index neg}!
/f{P fill}!/f*{P eofill}!/s{H stroke}!/S{P stroke}!
/q/gsave #/Q/grestore #/rf{re fill}!
/Y{P clip newpath}!/Y*{P eoclip newpath}!/rY{re Y}!
/|={pop exch 4 1 roll 1 array astore cvx 3 array astore cvx exch 1 index def exec}!
/|{exch string readstring |=}!
/+{dup type/nametype eq{2 index 7 add -3 bitshift 2 index mul}if}!
/@/currentfile #/${+ @ |}!
/B{{2 copy string{readstring pop}aload pop 4 array astore cvx
3 1 roll}repeat pop pop true}!
/Ix{[1 0 0 1 11 -2 roll exch neg exch neg]exch}!
/,{true exch Ix imagemask}!/If{false exch Ix imagemask}!/I{exch Ix image}!
/Ic{exch Ix false 3 colorimage}!
/F{/Columns counttomark 3 add -2 roll/Rows exch/K -1/BlackIs1 true>>
/CCITTFaxDecode filter}!/FX{<</EndOfBlock false F}!
/X{/ASCII85Decode filter}!/@X{@ X}!/&2{2 index 2 index}!
/@F{@ &2<<F}!/@C{@X &2 FX}!
/$X{+ @X |}!/&4{4 index 4 index}!/$F{+ @ &4<<F |}!/$C{+ @X &4 FX |}!
/IC{3 1 roll 10 dict begin 1{/ImageType/Interpolate/Decode/DataSource
/ImageMatrix/BitsPerComponent/Height/Width}{exch def}forall
currentdict end image}!
/~{@ read {pop} if}!
end def
%%EndResource
/pagesave null def
%%EndProlog
%%Page: 1 1
%%BeginPageSetup
GS_epswrite_2_0_1001 begin
/pagesave save store 197 dict begin
0.1 0.1 scale
%%EndPageSetup
gsave mark
Q q
0 0 250000 250000 re
Y
5 w
K
854 620 31.5 0 P
2594 620 -31.5 0 S
755 600 17 43 /3U
$C
,Tm'ds8W-!s-F.@R>;m@If~>
,
781 599 34 44 /6U
$C
23%r'%\5X)j2)<u^Zk'1J,ZoQs8W-!s8VJ_s8Qk\g>99H(eYmM:r7r$~>
,
854 759 15.5 0 P
2594 759 -15.5 0 P
854 840.5 15.5 0 P
2594 840.5 -15.5 0 P
854 898.5 15.5 0 P
2594 898.5 -15.5 0 P
854 943 15.5 0 P
2594 943 -15.5 0 P
854 980 15.5 0 P
2594 980 -15.5 0 P
854 1011 15.5 0 P
2594 1011 -15.5 0 P
854 1037.5 15.5 0 P
2594 1037.5 -15.5 0 P
854 1061 15.5 0 P
2594 1061 -15.5 0 P
854 1082.5 31.5 0 P
2594 1082.5 -31.5 0 S
722 1063 3U ,
747 1062 6U ,
781 1062 6U ,
854 1221.5 15.5 0 P
2594 1221.5 -15.5 0 P
854 1303 15.5 0 P
2594 1303 -15.5 0 P
854 1361 15.5 0 P
2594 1361 -15.5 0 P
854 1405.5 15.5 0 P
2594 1405.5 -15.5 0 P
854 1442 15.5 0 P
2594 1442 -15.5 0 P
854 1473 15.5 0 P
2594 1473 -15.5 0 P
854 1500 15.5 0 P
2594 1500 -15.5 0 P
854 1523.5 15.5 0 P
2594 1523.5 -15.5 0 P
854 1545 31.5 0 P
2594 1545 -31.5 0 S
689 1525 3U ,
714 1524 6U ,
747 1524 6U ,
781 1524 6U ,
854 1684 15.5 0 P
2594 1684 -15.5 0 P
854 1765.5 15.5 0 P
2594 1765.5 -15.5 0 P
854 1823 15.5 0 P
2594 1823 -15.5 0 P
854 1868 15.5 0 P
2594 1868 -15.5 0 P
854 620 0 31.5 P
854 1868 0 -31.5 S
850 540 3U ,
1116 620 0 15.5 P
1116 1868 0 -15.5 P
1269 620 0 15.5 P
1269 1868 0 -15.5 P
1378 620 0 15.5 P
1378 1868 0 -15.5 P
1462 620 0 15.5 P
1462 1868 0 -15.5 P
1531 620 0 15.5 P
1531 1868 0 -15.5 P
1589 620 0 15.5 P
1589 1868 0 -15.5 P
1639.5 620 0 15.5 P
1639.5 1868 0 -15.5 P
1684 620 0 15.5 P
1684 1868 0 -15.5 P
1724 620 0 31.5 P
1724 1868 0 -31.5 S
1703 540 3U ,
1728 539 6U ,
1986 620 0 15.5 P
1986 1868 0 -15.5 P
2139 620 0 15.5 P
2139 1868 0 -15.5 P
2248 620 0 15.5 P
2248 1868 0 -15.5 P
2332 620 0 15.5 P
2332 1868 0 -15.5 P
2401 620 0 15.5 P
2401 1868 0 -15.5 P
2459 620 0 15.5 P
2459 1868 0 -15.5 P
2509.5 620 0 15.5 P
2509.5 1868 0 -15.5 P
2554 620 0 15.5 P
2554 1868 0 -15.5 P
2594 620 0 31.5 P
2594 1868 0 -31.5 S
2556 540 3U ,
2582 539 6U ,
2615 539 6U ,
854 620 1740 1248 re
S
2.5 w
1116 1810.25 0 31.5 S
1100.25 1826 31.5 0 S
1269 1739.25 0 31.5 S
1253.25 1755 31.5 0 S
1378 1695.75 0 31.5 S
1362.25 1711.5 31.5 0 S
1462 1654.25 0 31.5 S
1446.25 1670 31.5 0 S
1531 1610.25 0 31.5 S
1515.25 1626 31.5 0 S
1589 1576.75 0 31.5 S
1573.25 1592.5 31.5 0 S
1639.5 1558.75 0 31.5 S
1623.75 1574.5 31.5 0 S
1684 1528.75 0 31.5 S
1668.25 1544.5 31.5 0 S
1724 1524.75 0 31.5 S
1708.25 1540.5 31.5 0 S
1760 1497.25 0 31.5 S
1744.25 1513 31.5 0 S
1793 1467.75 0 31.5 S
1777.25 1483.5 31.5 0 S
1823 1464.75 0 31.5 S
1807.25 1480.5 31.5 0 S
1851 1448.75 0 31.5 S
1835.25 1464.5 31.5 0 S
1877 1448.75 0 31.5 S
1861.25 1464.5 31.5 0 S
1901.5 1441.75 0 31.5 S
1885.75 1457.5 31.5 0 S
1924.5 1420.75 0 31.5 S
1908.75 1436.5 31.5 0 S
1946 1411.25 0 31.5 S
1930.25 1427 31.5 0 S
1966.5 1391.25 0 31.5 S
1950.75 1407 31.5 0 S
1986 1373.75 0 31.5 S
1970.25 1389.5 31.5 0 S
2004.5 1372.75 0 31.5 S
1988.75 1388.5 31.5 0 S
2022 1379.25 0 31.5 S
2006.25 1395 31.5 0 S
2038.5 1354.25 0 31.5 S
2022.75 1370 31.5 0 S
2055 1357.75 0 31.5 S
2039.25 1373.5 31.5 0 S
2070 1336.75 0 31.5 S
2054.25 1352.5 31.5 0 S
2085 1336.75 0 31.5 S
2069.25 1352.5 31.5 0 S
2099.5 1338.75 0 31.5 S
2083.75 1354.5 31.5 0 S
2113 1322.25 0 31.5 S
2097.25 1338 31.5 0 S
2126.5 1315.75 0 31.5 S
2110.75 1331.5 31.5 0 S
2139 1325.75 0 31.5 S
2123.25 1341.5 31.5 0 S
2151.5 1310.75 0 31.5 S
2135.75 1326.5 31.5 0 S
2163.5 1305.75 0 31.5 S
2147.75 1321.5 31.5 0 S
2175 1287.75 0 31.5 S
2159.25 1303.5 31.5 0 S
2186.5 1283.75 0 31.5 S
2170.75 1299.5 31.5 0 S
2197.5 1280.25 0 31.5 S
2181.75 1296 31.5 0 S
2208 1270.75 0 31.5 S
2192.25 1286.5 31.5 0 S
2218.5 1278.25 0 31.5 S
2202.75 1294 31.5 0 S
2228.5 1261.75 0 31.5 S
2212.75 1277.5 31.5 0 S
2238 1254.75 0 31.5 S
2222.25 1270.5 31.5 0 S
2248 1266.25 0 31.5 S
2232.25 1282 31.5 0 S
2257 1241.75 0 31.5 S
2241.25 1257.5 31.5 0 S
2266 1252.25 0 31.5 S
2250.25 1268 31.5 0 S
2275 1233.75 0 31.5 S
2259.25 1249.5 31.5 0 S
2284 1239.75 0 31.5 S
2268.25 1255.5 31.5 0 S
2292.5 1209.75 0 31.5 S
2276.75 1225.5 31.5 0 S
2300.5 1213.75 0 31.5 S
2284.75 1229.5 31.5 0 S
2308.5 1216.75 0 31.5 S
2292.75 1232.5 31.5 0 S
2316.5 1211.75 0 31.5 S
2300.75 1227.5 31.5 0 S
2324.5 1228.75 0 31.5 S
2308.75 1244.5 31.5 0 S
2332 1200.75 0 31.5 S
2316.25 1216.5 31.5 0 S
2339.5 1192.25 0 31.5 S
2323.75 1208 31.5 0 S
2347 1189.25 0 31.5 S
2331.25 1205 31.5 0 S
2354 1181.25 0 31.5 S
2338.25 1197 31.5 0 S
2361 1188.25 0 31.5 S
2345.25 1204 31.5 0 S
2368 1195.75 0 31.5 S
2352.25 1211.5 31.5 0 S
2375 1188.25 0 31.5 S
2359.25 1204 31.5 0 S
2381.5 1153.25 0 31.5 S
2365.75 1169 31.5 0 S
2388 1205.75 0 31.5 S
2372.25 1221.5 31.5 0 S
2394.5 1176.75 0 31.5 S
2378.75 1192.5 31.5 0 S
2401 1142.75 0 31.5 S
2385.25 1158.5 31.5 0 S
2407 1146.75 0 31.5 S
2391.25 1162.5 31.5 0 S
2413.5 1149.25 0 31.5 S
2397.75 1165 31.5 0 S
2419.5 1150.75 0 31.5 S
2403.75 1166.5 31.5 0 S
2425.5 1131.25 0 31.5 S
2409.75 1147 31.5 0 S
2431 1173.25 0 31.5 S
2415.25 1189 31.5 0 S
2437 1141.25 0 31.5 S
2421.25 1157 31.5 0 S
2442.5 1169.75 0 31.5 S
2426.75 1185.5 31.5 0 S
2448.5 1129.75 0 31.5 S
2432.75 1145.5 31.5 0 S
2454 1094.75 0 31.5 S
2438.25 1110.5 31.5 0 S
2459 1149.25 0 31.5 S
2443.25 1165 31.5 0 S
2464.5 1119.25 0 31.5 S
2448.75 1135 31.5 0 S
2470 1106.75 0 31.5 S
2454.25 1122.5 31.5 0 S
2475 1135.75 0 31.5 S
2459.25 1151.5 31.5 0 S
2480 1129.75 0 31.5 S
2464.25 1145.5 31.5 0 S
2485.5 1125.25 0 31.5 S
2469.75 1141 31.5 0 S
2490.5 1113.25 0 31.5 S
2474.75 1129 31.5 0 S
2495 1103.25 0 31.5 S
2479.25 1119 31.5 0 S
2500 1162.25 0 31.5 S
2484.25 1178 31.5 0 S
2505 1132.75 0 31.5 S
2489.25 1148.5 31.5 0 S
2509.5 1104.75 0 31.5 S
2493.75 1120.5 31.5 0 S
2514.5 1085.75 0 31.5 S
2498.75 1101.5 31.5 0 S
2519 1119.25 0 31.5 S
2503.25 1135 31.5 0 S
2523.5 1149.25 0 31.5 S
2507.75 1165 31.5 0 S
2528 1062.75 0 31.5 S
2512.25 1078.5 31.5 0 S
2532.5 1096.25 0 31.5 S
2516.75 1112 31.5 0 S
2537 1104.75 0 31.5 S
2521.25 1120.5 31.5 0 S
2541.5 1104.75 0 31.5 S
2525.75 1120.5 31.5 0 S
2545.5 1031.75 0 31.5 S
2529.75 1047.5 31.5 0 S
2550 1068.75 0 31.5 S
2534.25 1084.5 31.5 0 S
2554 1085.75 0 31.5 S
2538.25 1101.5 31.5 0 S
2558.5 1078.25 0 31.5 S
2542.75 1094 31.5 0 S
2562.5 1049.75 0 31.5 S
2546.75 1065.5 31.5 0 S
2566.5 1082.25 0 31.5 S
2550.75 1098 31.5 0 S
2570.5 1076.25 0 31.5 S
2554.75 1092 31.5 0 S
2574.5 1043.25 0 31.5 S
2558.75 1059 31.5 0 S
2578.5 1038.75 0 31.5 S
2562.75 1054.5 31.5 0 S
2582.5 1085.75 0 31.5 S
2566.75 1101.5 31.5 0 S
2586.5 1101.75 0 31.5 S
2570.75 1117.5 31.5 0 S
2590 1074.75 0 31.5 S
2574.25 1090.5 31.5 0 S
5 w
854 620 1740 1248 re
S
cleartomark end end pagesave restore
 showpage
%%PageTrailer
%%Trailer
%%Pages: 1
