%!PS-Adobe-3.0 EPSF-3.0
%%BoundingBox: 68 53 265 190
%%HiResBoundingBox: 68.300000 53.900000 264.900000 189.100000
%.....................................
%%Creator: GPL Ghostscript 871 (epswrite)
%%CreationDate: 2012/01/28 17:04:53
%%DocumentData: Clean7Bit
%%LanguageLevel: 2
%%EndComments
%%BeginProlog
% This copyright applies to everything between here and the %%EndProlog:
% Copyright (C) 2010 Artifex Software, Inc.  All rights reserved.
%%BeginResource: procset GS_epswrite_2_0_1001 1.001 0
/GS_epswrite_2_0_1001 80 dict dup begin
/PageSize 2 array def/setpagesize{ PageSize aload pop 3 index eq exch
4 index eq and{ pop pop pop}{ PageSize dup  1
5 -1 roll put 0 4 -1 roll put dup null eq {false} {dup where} ifelse{ exch get exec}
{ pop/setpagedevice where
{ pop 1 dict dup /PageSize PageSize put setpagedevice}
{ /setpage where{ pop PageSize aload pop pageparams 3 {exch pop} repeat
setpage}if}ifelse}ifelse}ifelse} bind def
/!{bind def}bind def/#{load def}!/N/counttomark #
/rG{3{3 -1 roll 255 div}repeat setrgbcolor}!/G{255 div setgray}!/K{0 G}!
/r6{dup 3 -1 roll rG}!/r5{dup 3 1 roll rG}!/r3{dup rG}!
/w/setlinewidth #/J/setlinecap #
/j/setlinejoin #/M/setmiterlimit #/d/setdash #/i/setflat #
/m/moveto #/l/lineto #/c/rcurveto #
/p{N 2 idiv{N -2 roll rlineto}repeat}!
/P{N 0 gt{N -2 roll moveto p}if}!
/h{p closepath}!/H{P closepath}!
/lx{0 rlineto}!/ly{0 exch rlineto}!/v{0 0 6 2 roll c}!/y{2 copy c}!
/re{4 -2 roll m exch dup lx exch ly neg lx h}!
/^{3 index neg 3 index neg}!
/f{P fill}!/f*{P eofill}!/s{H stroke}!/S{P stroke}!
/q/gsave #/Q/grestore #/rf{re fill}!
/Y{P clip newpath}!/Y*{P eoclip newpath}!/rY{re Y}!
/|={pop exch 4 1 roll 1 array astore cvx 3 array astore cvx exch 1 index def exec}!
/|{exch string readstring |=}!
/+{dup type/nametype eq{2 index 7 add -3 bitshift 2 index mul}if}!
/@/currentfile #/${+ @ |}!
/B{{2 copy string{readstring pop}aload pop 4 array astore cvx
3 1 roll}repeat pop pop true}!
/Ix{[1 0 0 1 11 -2 roll exch neg exch neg]exch}!
/,{true exch Ix imagemask}!/If{false exch Ix imagemask}!/I{exch Ix image}!
/Ic{exch Ix false 3 colorimage}!
/F{/Columns counttomark 3 add -2 roll/Rows exch/K -1/BlackIs1 true>>
/CCITTFaxDecode filter}!/FX{<</EndOfBlock false F}!
/X{/ASCII85Decode filter}!/@X{@ X}!/&2{2 index 2 index}!
/@F{@ &2<<F}!/@C{@X &2 FX}!
/$X{+ @X |}!/&4{4 index 4 index}!/$F{+ @ &4<<F |}!/$C{+ @X &4 FX |}!
/IC{3 1 roll 10 dict begin 1{/ImageType/Interpolate/Decode/DataSource
/ImageMatrix/BitsPerComponent/Height/Width}{exch def}forall
currentdict end image}!
/~{@ read {pop} if}!
end def
%%EndResource
/pagesave null def
%%EndProlog
%%Page: 1 1
%%BeginPageSetup
GS_epswrite_2_0_1001 begin
/pagesave save store 197 dict begin
0.1 0.1 scale
%%EndPageSetup
gsave mark
Q q
0 0 250000 250000 re
Y
5 w
K
890 620 31.5 0 P
2594 620 -31.5 0 S
817 599 34 44 /3U
$C
23%r'%\5X)j2)<u^Zk'1J,ZoQs8W-!s8VJ_s8Qk\g>99H(eYmM:r7r$~>
,
890 869.5 31.5 0 P
2594 869.5 -31.5 0 S
691 850 17 43 /6U
$C
,Tm'ds8W-!s-F.@R>;m@If~>
,
717 849 3U ,
750 849 3U ,
783 849 3U ,
817 849 3U ,
890 1119 31.5 0 P
2594 1119 -31.5 0 S
683 1099 34 43 /3Y
$C
4;jd(Qp5fN^"]dYfPna4iOE=NL>hOS^UAOiqu,+3CMbUV[OTh+@7(A~>
,
717 1098 3U ,
750 1098 3U ,
783 1098 3U ,
817 1098 3U ,
890 1369 31.5 0 P
2594 1369 -31.5 0 S
683 1348 34 44 /6Y
$C
3f*tLK;VJ#ZZne#2lEeH?]XK;@:la`Yct@m+Q2(jDLDKapAVZrg>Sl<[;*R2"T~>
,
717 1348 3U ,
750 1348 3U ,
783 1348 3U ,
817 1348 3U ,
890 1618.5 31.5 0 P
2594 1618.5 -31.5 0 S
683 1599 35 43 /4C
$C
.M)RZs3Cmfr0V$lmIpMQmIpMQmJH;FpY5/kn_X9>^V/P~>
,
717 1598 3U ,
750 1598 3U ,
783 1598 3U ,
817 1598 3U ,
890 1868 31.5 0 P
2594 1868 -31.5 0 S
683 1847 35 44 /7C
$C
2%'Ns&9R0a'Aa:<PNfbDGdm_=;rkC=Bjl_7CKWS'fO25hs7ZK6."D-0~>
,
717 1847 3U ,
750 1847 3U ,
783 1847 3U ,
817 1847 3U ,
890 620 0 31.5 P
890 1868 0 -31.5 S
878 539 3U ,
1174 620 0 31.5 P
1174 1868 0 -31.5 S
1145 540 3Y ,
1178 539 3U ,
1458 620 0 31.5 P
1458 1868 0 -31.5 S
1429 540 4C ,
1462 539 3U ,
1742 620 0 31.5 P
1742 1868 0 -31.5 S
1713 539 35 44 /4G
$C
22__[-UH4U05uPcT2!a`He7T^qXqU=['7F,Z=C&h$n`Au*WOE]DtUNIgIhr,MR@1;L'd~>
,
1746 539 3U ,
2026 620 0 31.5 P
2026 1868 0 -31.5 S
1997 539 35 44 /7G
$C
2$jBqS07(D'Aa:H#WJZ`e,TIHX4Gk>$!:Ud'l"Rbl-UTa#WJZ`l2Ue`CO4^e@4ZT(6OF59~>
,
2030 539 3U ,
2310 620 0 31.5 P
2310 1868 0 -31.5 S
2272 540 6U ,
2298 539 3U ,
2331 539 3U ,
2594 620 0 31.5 P
2594 1868 0 -31.5 S
2556 540 6U ,
2582 540 3Y ,
2615 539 3U ,
890 620 1704 1248 re
S
2.5 w
890 1751.75 0 31.5 S
874.25 1767.5 31.5 0 S
904 1580.75 0 31.5 S
888.25 1596.5 31.5 0 S
918.5 1479.75 0 31.5 S
902.75 1495.5 31.5 0 S
932.5 1408.75 0 31.5 S
916.75 1424.5 31.5 0 S
947 1351.25 0 31.5 S
931.25 1367 31.5 0 S
961 1304.75 0 31.5 S
945.25 1320.5 31.5 0 S
975 1267.25 0 31.5 S
959.25 1283 31.5 0 S
989.5 1235.75 0 31.5 S
973.75 1251.5 31.5 0 S
1003.5 1206.75 0 31.5 S
987.75 1222.5 31.5 0 S
1018 1181.75 0 31.5 S
1002.25 1197.5 31.5 0 S
1032 1157.25 0 31.5 S
1016.25 1173 31.5 0 S
1046 1136.25 0 31.5 S
1030.25 1152 31.5 0 S
1060.5 1117.75 0 31.5 S
1044.75 1133.5 31.5 0 S
1074.5 1099.75 0 31.5 S
1058.75 1115.5 31.5 0 S
1089 1082.75 0 31.5 S
1073.25 1098.5 31.5 0 S
1103 1066.25 0 31.5 S
1087.25 1082 31.5 0 S
1117 1050.25 0 31.5 S
1101.25 1066 31.5 0 S
1131.5 1035.25 0 31.5 S
1115.75 1051 31.5 0 S
1145.5 1021.75 0 31.5 S
1129.75 1037.5 31.5 0 S
1160 1009.25 0 31.5 S
1144.25 1025 31.5 0 S
1174 997.25 0 31.5 S
1158.25 1013 31.5 0 S
1188 986.25 0 31.5 S
1172.25 1002 31.5 0 S
1202.5 974.25 0 31.5 S
1186.75 990 31.5 0 S
1216.5 963.75 0 31.5 S
1200.75 979.5 31.5 0 S
1231 953.25 0 31.5 S
1215.25 969 31.5 0 S
1245 943.75 0 31.5 S
1229.25 959.5 31.5 0 S
1259 933.75 0 31.5 S
1243.25 949.5 31.5 0 S
1273.5 924.25 0 31.5 S
1257.75 940 31.5 0 S
1287.5 915.25 0 31.5 S
1271.75 931 31.5 0 S
1302 906.75 0 31.5 S
1286.25 922.5 31.5 0 S
1316 897.75 0 31.5 S
1300.25 913.5 31.5 0 S
1330 889.25 0 31.5 S
1314.25 905 31.5 0 S
1344.5 881.25 0 31.5 S
1328.75 897 31.5 0 S
1358.5 873.75 0 31.5 S
1342.75 889.5 31.5 0 S
1373 866.25 0 31.5 S
1357.25 882 31.5 0 S
1387 858.75 0 31.5 S
1371.25 874.5 31.5 0 S
1401 852.25 0 31.5 S
1385.25 868 31.5 0 S
1415.5 844.75 0 31.5 S
1399.75 860.5 31.5 0 S
1429.5 838.25 0 31.5 S
1413.75 854 31.5 0 S
1444 831.75 0 31.5 S
1428.25 847.5 31.5 0 S
1458 825.25 0 31.5 S
1442.25 841 31.5 0 S
1472 819.25 0 31.5 S
1456.25 835 31.5 0 S
1486.5 812.75 0 31.5 S
1470.75 828.5 31.5 0 S
1500.5 807.25 0 31.5 S
1484.75 823 31.5 0 S
1515 801.25 0 31.5 S
1499.25 817 31.5 0 S
1529 796.25 0 31.5 S
1513.25 812 31.5 0 S
1543 790.75 0 31.5 S
1527.25 806.5 31.5 0 S
1557.5 785.75 0 31.5 S
1541.75 801.5 31.5 0 S
1571.5 780.75 0 31.5 S
1555.75 796.5 31.5 0 S
1586 774.75 0 31.5 S
1570.25 790.5 31.5 0 S
1600 770.25 0 31.5 S
1584.25 786 31.5 0 S
1614 765.25 0 31.5 S
1598.25 781 31.5 0 S
1628.5 760.75 0 31.5 S
1612.75 776.5 31.5 0 S
1642.5 756.25 0 31.5 S
1626.75 772 31.5 0 S
1657 751.75 0 31.5 S
1641.25 767.5 31.5 0 S
1671 747.25 0 31.5 S
1655.25 763 31.5 0 S
1685 742.75 0 31.5 S
1669.25 758.5 31.5 0 S
1699.5 738.75 0 31.5 S
1683.75 754.5 31.5 0 S
1713.5 733.75 0 31.5 S
1697.75 749.5 31.5 0 S
1728 729.25 0 31.5 S
1712.25 745 31.5 0 S
1742 725.75 0 31.5 S
1726.25 741.5 31.5 0 S
1756 722.25 0 31.5 S
1740.25 738 31.5 0 S
1770.5 718.25 0 31.5 S
1754.75 734 31.5 0 S
1784.5 714.25 0 31.5 S
1768.75 730 31.5 0 S
1799 711.25 0 31.5 S
1783.25 727 31.5 0 S
1813 706.75 0 31.5 S
1797.25 722.5 31.5 0 S
1827 703.25 0 31.5 S
1811.25 719 31.5 0 S
1841.5 698.75 0 31.5 S
1825.75 714.5 31.5 0 S
1855.5 695.75 0 31.5 S
1839.75 711.5 31.5 0 S
1870 692.75 0 31.5 S
1854.25 708.5 31.5 0 S
1884 688.75 0 31.5 S
1868.25 704.5 31.5 0 S
1898 685.75 0 31.5 S
1882.25 701.5 31.5 0 S
1912.5 682.75 0 31.5 S
1896.75 698.5 31.5 0 S
1926.5 679.25 0 31.5 S
1910.75 695 31.5 0 S
1941 675.75 0 31.5 S
1925.25 691.5 31.5 0 S
1955 672.25 0 31.5 S
1939.25 688 31.5 0 S
1969 669.25 0 31.5 S
1953.25 685 31.5 0 S
1983.5 666.25 0 31.5 S
1967.75 682 31.5 0 S
1997.5 662.25 0 31.5 S
1981.75 678 31.5 0 S
2012 658.75 0 31.5 S
1996.25 674.5 31.5 0 S
2026 655.75 0 31.5 S
2010.25 671.5 31.5 0 S
2040 652.75 0 31.5 S
2024.25 668.5 31.5 0 S
2054.5 649.75 0 31.5 S
2038.75 665.5 31.5 0 S
2068.5 645.75 0 31.5 S
2052.75 661.5 31.5 0 S
2083 643.75 0 31.5 S
2067.25 659.5 31.5 0 S
2097 640.75 0 31.5 S
2081.25 656.5 31.5 0 S
2111 637.75 0 31.5 S
2095.25 653.5 31.5 0 S
2125.5 634.75 0 31.5 S
2109.75 650.5 31.5 0 S
2139.5 632.25 0 31.5 S
2123.75 648 31.5 0 S
2154 629.75 0 31.5 S
2138.25 645.5 31.5 0 S
2168 627.25 0 31.5 S
2152.25 643 31.5 0 S
2182 624.75 0 31.5 S
2166.25 640.5 31.5 0 S
2196.5 622.25 0 31.5 S
2180.75 638 31.5 0 S
2210.5 619.75 0 31.5 S
2194.75 635.5 31.5 0 S
2225 616.75 0 31.5 S
2209.25 632.5 31.5 0 S
2239 614.75 0 31.5 S
2223.25 630.5 31.5 0 S
2253 612.75 0 31.5 S
2237.25 628.5 31.5 0 S
2267.5 609.75 0 31.5 S
2251.75 625.5 31.5 0 S
2281.5 606.75 0 31.5 S
2265.75 622.5 31.5 0 S
2296 604.25 0 31.5 S
2280.25 620 31.5 0 S
5 w
890 620 1704 1248 re
S
cleartomark end end pagesave restore
 showpage
%%PageTrailer
%%Trailer
%%Pages: 1
