%!PS-Adobe-3.0 EPSF-3.0
%%BoundingBox: 69 53 267 188
%%HiResBoundingBox: 69.100000 53.900000 266.600000 187.050000
%.....................................
%%Creator: GPL Ghostscript 871 (epswrite)
%%CreationDate: 2012/01/28 17:04:54
%%DocumentData: Clean7Bit
%%LanguageLevel: 2
%%EndComments
%%BeginProlog
% This copyright applies to everything between here and the %%EndProlog:
% Copyright (C) 2010 Artifex Software, Inc.  All rights reserved.
%%BeginResource: procset GS_epswrite_2_0_1001 1.001 0
/GS_epswrite_2_0_1001 80 dict dup begin
/PageSize 2 array def/setpagesize{ PageSize aload pop 3 index eq exch
4 index eq and{ pop pop pop}{ PageSize dup  1
5 -1 roll put 0 4 -1 roll put dup null eq {false} {dup where} ifelse{ exch get exec}
{ pop/setpagedevice where
{ pop 1 dict dup /PageSize PageSize put setpagedevice}
{ /setpage where{ pop PageSize aload pop pageparams 3 {exch pop} repeat
setpage}if}ifelse}ifelse}ifelse} bind def
/!{bind def}bind def/#{load def}!/N/counttomark #
/rG{3{3 -1 roll 255 div}repeat setrgbcolor}!/G{255 div setgray}!/K{0 G}!
/r6{dup 3 -1 roll rG}!/r5{dup 3 1 roll rG}!/r3{dup rG}!
/w/setlinewidth #/J/setlinecap #
/j/setlinejoin #/M/setmiterlimit #/d/setdash #/i/setflat #
/m/moveto #/l/lineto #/c/rcurveto #
/p{N 2 idiv{N -2 roll rlineto}repeat}!
/P{N 0 gt{N -2 roll moveto p}if}!
/h{p closepath}!/H{P closepath}!
/lx{0 rlineto}!/ly{0 exch rlineto}!/v{0 0 6 2 roll c}!/y{2 copy c}!
/re{4 -2 roll m exch dup lx exch ly neg lx h}!
/^{3 index neg 3 index neg}!
/f{P fill}!/f*{P eofill}!/s{H stroke}!/S{P stroke}!
/q/gsave #/Q/grestore #/rf{re fill}!
/Y{P clip newpath}!/Y*{P eoclip newpath}!/rY{re Y}!
/|={pop exch 4 1 roll 1 array astore cvx 3 array astore cvx exch 1 index def exec}!
/|{exch string readstring |=}!
/+{dup type/nametype eq{2 index 7 add -3 bitshift 2 index mul}if}!
/@/currentfile #/${+ @ |}!
/B{{2 copy string{readstring pop}aload pop 4 array astore cvx
3 1 roll}repeat pop pop true}!
/Ix{[1 0 0 1 11 -2 roll exch neg exch neg]exch}!
/,{true exch Ix imagemask}!/If{false exch Ix imagemask}!/I{exch Ix image}!
/Ic{exch Ix false 3 colorimage}!
/F{/Columns counttomark 3 add -2 roll/Rows exch/K -1/BlackIs1 true>>
/CCITTFaxDecode filter}!/FX{<</EndOfBlock false F}!
/X{/ASCII85Decode filter}!/@X{@ X}!/&2{2 index 2 index}!
/@F{@ &2<<F}!/@C{@X &2 FX}!
/$X{+ @X |}!/&4{4 index 4 index}!/$F{+ @ &4<<F |}!/$C{+ @X &4 FX |}!
/IC{3 1 roll 10 dict begin 1{/ImageType/Interpolate/Decode/DataSource
/ImageMatrix/BitsPerComponent/Height/Width}{exch def}forall
currentdict end image}!
/~{@ read {pop} if}!
end def
%%EndResource
/pagesave null def
%%EndProlog
%%Page: 1 1
%%BeginPageSetup
GS_epswrite_2_0_1001 begin
/pagesave save store 197 dict begin
0.1 0.1 scale
%%EndPageSetup
gsave mark
Q q
0 0 250000 250000 re
Y
5 w
K
890 620 31.5 0 P
2594 620 -31.5 0 S
758 600 17 43 /3U
$C
,Tm'ds8W-!s-F.@R>;m@If~>
,
783 599 34 44 /6U
$C
23%r'%\5X)j2)<u^Zk'1J,ZoQs8W-!s8VJ_s8Qk\g>99H(eYmM:r7r$~>
,
817 599 6U ,
890 759 15.5 0 P
2594 759 -15.5 0 P
890 840.5 15.5 0 P
2594 840.5 -15.5 0 P
890 898.5 15.5 0 P
2594 898.5 -15.5 0 P
890 943 15.5 0 P
2594 943 -15.5 0 P
890 980 15.5 0 P
2594 980 -15.5 0 P
890 1011 15.5 0 P
2594 1011 -15.5 0 P
890 1037.5 15.5 0 P
2594 1037.5 -15.5 0 P
890 1061 15.5 0 P
2594 1061 -15.5 0 P
890 1082.5 31.5 0 P
2594 1082.5 -31.5 0 S
725 1063 3U ,
750 1062 6U ,
783 1062 6U ,
817 1062 6U ,
890 1221.5 15.5 0 P
2594 1221.5 -15.5 0 P
890 1303 15.5 0 P
2594 1303 -15.5 0 P
890 1361 15.5 0 P
2594 1361 -15.5 0 P
890 1405.5 15.5 0 P
2594 1405.5 -15.5 0 P
890 1442 15.5 0 P
2594 1442 -15.5 0 P
890 1473 15.5 0 P
2594 1473 -15.5 0 P
890 1500 15.5 0 P
2594 1500 -15.5 0 P
890 1523.5 15.5 0 P
2594 1523.5 -15.5 0 P
890 1545 31.5 0 P
2594 1545 -31.5 0 S
691 1525 3U ,
717 1524 6U ,
750 1524 6U ,
783 1524 6U ,
817 1524 6U ,
890 1684 15.5 0 P
2594 1684 -15.5 0 P
890 1765.5 15.5 0 P
2594 1765.5 -15.5 0 P
890 1823 15.5 0 P
2594 1823 -15.5 0 P
890 1868 15.5 0 P
2594 1868 -15.5 0 P
890 620 0 31.5 P
890 1868 0 -31.5 S
886 540 3U ,
1061 620 0 15.5 P
1061 1868 0 -15.5 P
1161 620 0 15.5 P
1161 1868 0 -15.5 P
1232 620 0 15.5 P
1232 1868 0 -15.5 P
1287 620 0 15.5 P
1287 1868 0 -15.5 P
1332 620 0 15.5 P
1332 1868 0 -15.5 P
1370 620 0 15.5 P
1370 1868 0 -15.5 P
1403 620 0 15.5 P
1403 1868 0 -15.5 P
1432 620 0 15.5 P
1432 1868 0 -15.5 P
1458 620 0 31.5 P
1458 1868 0 -31.5 S
1437 540 3U ,
1462 539 6U ,
1629 620 0 15.5 P
1629 1868 0 -15.5 P
1729 620 0 15.5 P
1729 1868 0 -15.5 P
1800 620 0 15.5 P
1800 1868 0 -15.5 P
1855 620 0 15.5 P
1855 1868 0 -15.5 P
1900 620 0 15.5 P
1900 1868 0 -15.5 P
1938 620 0 15.5 P
1938 1868 0 -15.5 P
1971 620 0 15.5 P
1971 1868 0 -15.5 P
2000 620 0 15.5 P
2000 1868 0 -15.5 P
2026 620 0 31.5 P
2026 1868 0 -31.5 S
1988 540 3U ,
2014 539 6U ,
2047 539 6U ,
2197 620 0 15.5 P
2197 1868 0 -15.5 P
2297 620 0 15.5 P
2297 1868 0 -15.5 P
2368 620 0 15.5 P
2368 1868 0 -15.5 P
2423 620 0 15.5 P
2423 1868 0 -15.5 P
2468 620 0 15.5 P
2468 1868 0 -15.5 P
2506 620 0 15.5 P
2506 1868 0 -15.5 P
2539 620 0 15.5 P
2539 1868 0 -15.5 P
2568 620 0 15.5 P
2568 1868 0 -15.5 P
2594 620 0 31.5 P
2594 1868 0 -31.5 S
2540 540 3U ,
2565 539 6U ,
2598 539 6U ,
2632 539 6U ,
890 620 1704 1248 re
S
2.5 w
890 1802.75 0 31.5 S
874.25 1818.5 31.5 0 S
1061 1781.25 0 31.5 S
1045.25 1797 31.5 0 S
1161 1764.25 0 31.5 S
1145.25 1780 31.5 0 S
1232 1749.25 0 31.5 S
1216.25 1765 31.5 0 S
1287 1736.25 0 31.5 S
1271.25 1752 31.5 0 S
1332 1725.25 0 31.5 S
1316.25 1741 31.5 0 S
1370 1715.25 0 31.5 S
1354.25 1731 31.5 0 S
1403 1706.25 0 31.5 S
1387.25 1722 31.5 0 S
1432 1697.75 0 31.5 S
1416.25 1713.5 31.5 0 S
1458 1688.75 0 31.5 S
1442.25 1704.5 31.5 0 S
1481.5 1680.75 0 31.5 S
1465.75 1696.5 31.5 0 S
1503 1673.75 0 31.5 S
1487.25 1689.5 31.5 0 S
1522.5 1666.75 0 31.5 S
1506.75 1682.5 31.5 0 S
1541 1659.75 0 31.5 S
1525.25 1675.5 31.5 0 S
1558 1652.75 0 31.5 S
1542.25 1668.5 31.5 0 S
1574 1645.75 0 31.5 S
1558.25 1661.5 31.5 0 S
1589 1638.75 0 31.5 S
1573.25 1654.5 31.5 0 S
1603 1632.25 0 31.5 S
1587.25 1648 31.5 0 S
1616.5 1626.25 0 31.5 S
1600.75 1642 31.5 0 S
1629 1620.25 0 31.5 S
1613.25 1636 31.5 0 S
1641 1614.25 0 31.5 S
1625.25 1630 31.5 0 S
1652.5 1608.25 0 31.5 S
1636.75 1624 31.5 0 S
1663.5 1602.25 0 31.5 S
1647.75 1618 31.5 0 S
1674 1596.25 0 31.5 S
1658.25 1612 31.5 0 S
1684 1590.75 0 31.5 S
1668.25 1606.5 31.5 0 S
1693.5 1584.75 0 31.5 S
1677.75 1600.5 31.5 0 S
1703 1578.75 0 31.5 S
1687.25 1594.5 31.5 0 S
1712 1573.25 0 31.5 S
1696.25 1589 31.5 0 S
1720.5 1567.75 0 31.5 S
1704.75 1583.5 31.5 0 S
1729 1561.75 0 31.5 S
1713.25 1577.5 31.5 0 S
1737 1555.75 0 31.5 S
1721.25 1571.5 31.5 0 S
1745 1549.75 0 31.5 S
1729.25 1565.5 31.5 0 S
1752.5 1544.25 0 31.5 S
1736.75 1560 31.5 0 S
1760 1538.75 0 31.5 S
1744.25 1554.5 31.5 0 S
1767 1533.25 0 31.5 S
1751.25 1549 31.5 0 S
1774 1527.75 0 31.5 S
1758.25 1543.5 31.5 0 S
1780.5 1521.75 0 31.5 S
1764.75 1537.5 31.5 0 S
1787.5 1516.25 0 31.5 S
1771.75 1532 31.5 0 S
1793.5 1510.75 0 31.5 S
1777.75 1526.5 31.5 0 S
1800 1504.75 0 31.5 S
1784.25 1520.5 31.5 0 S
1806 1499.25 0 31.5 S
1790.25 1515 31.5 0 S
1812 1493.25 0 31.5 S
1796.25 1509 31.5 0 S
1818 1487.25 0 31.5 S
1802.25 1503 31.5 0 S
1823.5 1481.75 0 31.5 S
1807.75 1497.5 31.5 0 S
1829 1476.25 0 31.5 S
1813.25 1492 31.5 0 S
1834.5 1470.75 0 31.5 S
1818.75 1486.5 31.5 0 S
1840 1465.25 0 31.5 S
1824.25 1481 31.5 0 S
1845 1459.25 0 31.5 S
1829.25 1475 31.5 0 S
1850 1452.75 0 31.5 S
1834.25 1468.5 31.5 0 S
1855 1446.75 0 31.5 S
1839.25 1462.5 31.5 0 S
1860 1441.25 0 31.5 S
1844.25 1457 31.5 0 S
1864.5 1435.25 0 31.5 S
1848.75 1451 31.5 0 S
1869.5 1429.75 0 31.5 S
1853.75 1445.5 31.5 0 S
1874 1423.75 0 31.5 S
1858.25 1439.5 31.5 0 S
1878.5 1417.25 0 31.5 S
1862.75 1433 31.5 0 S
1883 1410.25 0 31.5 S
1867.25 1426 31.5 0 S
1887.5 1404.75 0 31.5 S
1871.75 1420.5 31.5 0 S
1891.5 1397.25 0 31.5 S
1875.75 1413 31.5 0 S
1896 1390.25 0 31.5 S
1880.25 1406 31.5 0 S
1900 1384.25 0 31.5 S
1884.25 1400 31.5 0 S
1904 1378.25 0 31.5 S
1888.25 1394 31.5 0 S
1908 1371.75 0 31.5 S
1892.25 1387.5 31.5 0 S
1912 1364.75 0 31.5 S
1896.25 1380.5 31.5 0 S
1916 1358.75 0 31.5 S
1900.25 1374.5 31.5 0 S
1919.5 1350.25 0 31.5 S
1903.75 1366 31.5 0 S
1923.5 1343.25 0 31.5 S
1907.75 1359 31.5 0 S
1927 1334.75 0 31.5 S
1911.25 1350.5 31.5 0 S
1931 1327.25 0 31.5 S
1915.25 1343 31.5 0 S
1934.5 1320.75 0 31.5 S
1918.75 1336.5 31.5 0 S
1938 1311.75 0 31.5 S
1922.25 1327.5 31.5 0 S
1941.5 1304.25 0 31.5 S
1925.75 1320 31.5 0 S
1945 1296.25 0 31.5 S
1929.25 1312 31.5 0 S
1948.5 1287.25 0 31.5 S
1932.75 1303 31.5 0 S
1951.5 1277.75 0 31.5 S
1935.75 1293.5 31.5 0 S
1955 1268.25 0 31.5 S
1939.25 1284 31.5 0 S
1958.5 1258.75 0 31.5 S
1942.75 1274.5 31.5 0 S
1961.5 1249.25 0 31.5 S
1945.75 1265 31.5 0 S
1964.5 1235.75 0 31.5 S
1948.75 1251.5 31.5 0 S
1968 1223.25 0 31.5 S
1952.25 1239 31.5 0 S
1971 1211.75 0 31.5 S
1955.25 1227.5 31.5 0 S
1974 1200.75 0 31.5 S
1958.25 1216.5 31.5 0 S
1977 1187.25 0 31.5 S
1961.25 1203 31.5 0 S
1980 1169.75 0 31.5 S
1964.25 1185.5 31.5 0 S
1983 1157.75 0 31.5 S
1967.25 1173.5 31.5 0 S
1986 1142.25 0 31.5 S
1970.25 1158 31.5 0 S
1989 1124.75 0 31.5 S
1973.25 1140.5 31.5 0 S
1991.5 1105.75 0 31.5 S
1975.75 1121.5 31.5 0 S
1994.5 1091.25 0 31.5 S
1978.75 1107 31.5 0 S
1997.5 1072.75 0 31.5 S
1981.75 1088.5 31.5 0 S
2000 1049.75 0 31.5 S
1984.25 1065.5 31.5 0 S
2002.5 1025.25 0 31.5 S
1986.75 1041 31.5 0 S
2005.5 1001.25 0 31.5 S
1989.75 1017 31.5 0 S
2008 968.75 0 31.5 S
1992.25 984.5 31.5 0 S
2010.5 931.25 0 31.5 S
1994.75 947 31.5 0 S
2013.5 892.25 0 31.5 S
1997.75 908 31.5 0 S
2016 845.75 0 31.5 S
2000.25 861.5 31.5 0 S
2018.5 765.25 0 31.5 S
2002.75 781 31.5 0 S
2021 612.25 0 31.5 S
2005.25 628 31.5 0 S
5 w
890 620 1704 1248 re
S
cleartomark end end pagesave restore
 showpage
%%PageTrailer
%%Trailer
%%Pages: 1
