%!PS-Adobe-3.0 EPSF-3.0
%%BoundingBox: 69 53 265 188
%%HiResBoundingBox: 69.100000 53.900000 264.900000 187.050000
%.....................................
%%Creator: GPL Ghostscript 871 (epswrite)
%%CreationDate: 2012/01/28 17:04:53
%%DocumentData: Clean7Bit
%%LanguageLevel: 2
%%EndComments
%%BeginProlog
% This copyright applies to everything between here and the %%EndProlog:
% Copyright (C) 2010 Artifex Software, Inc.  All rights reserved.
%%BeginResource: procset GS_epswrite_2_0_1001 1.001 0
/GS_epswrite_2_0_1001 80 dict dup begin
/PageSize 2 array def/setpagesize{ PageSize aload pop 3 index eq exch
4 index eq and{ pop pop pop}{ PageSize dup  1
5 -1 roll put 0 4 -1 roll put dup null eq {false} {dup where} ifelse{ exch get exec}
{ pop/setpagedevice where
{ pop 1 dict dup /PageSize PageSize put setpagedevice}
{ /setpage where{ pop PageSize aload pop pageparams 3 {exch pop} repeat
setpage}if}ifelse}ifelse}ifelse} bind def
/!{bind def}bind def/#{load def}!/N/counttomark #
/rG{3{3 -1 roll 255 div}repeat setrgbcolor}!/G{255 div setgray}!/K{0 G}!
/r6{dup 3 -1 roll rG}!/r5{dup 3 1 roll rG}!/r3{dup rG}!
/w/setlinewidth #/J/setlinecap #
/j/setlinejoin #/M/setmiterlimit #/d/setdash #/i/setflat #
/m/moveto #/l/lineto #/c/rcurveto #
/p{N 2 idiv{N -2 roll rlineto}repeat}!
/P{N 0 gt{N -2 roll moveto p}if}!
/h{p closepath}!/H{P closepath}!
/lx{0 rlineto}!/ly{0 exch rlineto}!/v{0 0 6 2 roll c}!/y{2 copy c}!
/re{4 -2 roll m exch dup lx exch ly neg lx h}!
/^{3 index neg 3 index neg}!
/f{P fill}!/f*{P eofill}!/s{H stroke}!/S{P stroke}!
/q/gsave #/Q/grestore #/rf{re fill}!
/Y{P clip newpath}!/Y*{P eoclip newpath}!/rY{re Y}!
/|={pop exch 4 1 roll 1 array astore cvx 3 array astore cvx exch 1 index def exec}!
/|{exch string readstring |=}!
/+{dup type/nametype eq{2 index 7 add -3 bitshift 2 index mul}if}!
/@/currentfile #/${+ @ |}!
/B{{2 copy string{readstring pop}aload pop 4 array astore cvx
3 1 roll}repeat pop pop true}!
/Ix{[1 0 0 1 11 -2 roll exch neg exch neg]exch}!
/,{true exch Ix imagemask}!/If{false exch Ix imagemask}!/I{exch Ix image}!
/Ic{exch Ix false 3 colorimage}!
/F{/Columns counttomark 3 add -2 roll/Rows exch/K -1/BlackIs1 true>>
/CCITTFaxDecode filter}!/FX{<</EndOfBlock false F}!
/X{/ASCII85Decode filter}!/@X{@ X}!/&2{2 index 2 index}!
/@F{@ &2<<F}!/@C{@X &2 FX}!
/$X{+ @X |}!/&4{4 index 4 index}!/$F{+ @ &4<<F |}!/$C{+ @X &4 FX |}!
/IC{3 1 roll 10 dict begin 1{/ImageType/Interpolate/Decode/DataSource
/ImageMatrix/BitsPerComponent/Height/Width}{exch def}forall
currentdict end image}!
/~{@ read {pop} if}!
end def
%%EndResource
/pagesave null def
%%EndProlog
%%Page: 1 1
%%BeginPageSetup
GS_epswrite_2_0_1001 begin
/pagesave save store 197 dict begin
0.1 0.1 scale
%%EndPageSetup
gsave mark
Q q
0 0 250000 250000 re
Y
5 w
K
890 620 31.5 0 P
2594 620 -31.5 0 S
758 600 17 43 /3U
$C
,Tm'ds8W-!s-F.@R>;m@If~>
,
783 599 34 44 /6U
$C
23%r'%\5X)j2)<u^Zk'1J,ZoQs8W-!s8VJ_s8Qk\g>99H(eYmM:r7r$~>
,
817 599 6U ,
890 759 15.5 0 P
2594 759 -15.5 0 P
890 840.5 15.5 0 P
2594 840.5 -15.5 0 P
890 898.5 15.5 0 P
2594 898.5 -15.5 0 P
890 943 15.5 0 P
2594 943 -15.5 0 P
890 980 15.5 0 P
2594 980 -15.5 0 P
890 1011 15.5 0 P
2594 1011 -15.5 0 P
890 1037.5 15.5 0 P
2594 1037.5 -15.5 0 P
890 1061 15.5 0 P
2594 1061 -15.5 0 P
890 1082.5 31.5 0 P
2594 1082.5 -31.5 0 S
725 1063 3U ,
750 1062 6U ,
783 1062 6U ,
817 1062 6U ,
890 1221.5 15.5 0 P
2594 1221.5 -15.5 0 P
890 1303 15.5 0 P
2594 1303 -15.5 0 P
890 1361 15.5 0 P
2594 1361 -15.5 0 P
890 1405.5 15.5 0 P
2594 1405.5 -15.5 0 P
890 1442 15.5 0 P
2594 1442 -15.5 0 P
890 1473 15.5 0 P
2594 1473 -15.5 0 P
890 1500 15.5 0 P
2594 1500 -15.5 0 P
890 1523.5 15.5 0 P
2594 1523.5 -15.5 0 P
890 1545 31.5 0 P
2594 1545 -31.5 0 S
691 1525 3U ,
717 1524 6U ,
750 1524 6U ,
783 1524 6U ,
817 1524 6U ,
890 1684 15.5 0 P
2594 1684 -15.5 0 P
890 1765.5 15.5 0 P
2594 1765.5 -15.5 0 P
890 1823 15.5 0 P
2594 1823 -15.5 0 P
890 1868 15.5 0 P
2594 1868 -15.5 0 P
890 620 0 31.5 P
890 1868 0 -31.5 S
878 539 6U ,
1174 620 0 31.5 P
1174 1868 0 -31.5 S
1145 540 34 43 /3Y
$C
4;jd(Qp5fN^"]dYfPna4iOE=NL>hOS^UAOiqu,+3CMbUV[OTh+@7(A~>
,
1178 539 6U ,
1458 620 0 31.5 P
1458 1868 0 -31.5 S
1429 540 35 43 /6Y
$C
.M)RZs3Cmfr0V$lmIpMQmIpMQmJH;FpY5/kn_X9>^V/P~>
,
1462 539 6U ,
1742 620 0 31.5 P
1742 1868 0 -31.5 S
1713 539 35 44 /4C
$C
22__[-UH4U05uPcT2!a`He7T^qXqU=['7F,Z=C&h$n`Au*WOE]DtUNIgIhr,MR@1;L'd~>
,
1746 539 6U ,
2026 620 0 31.5 P
2026 1868 0 -31.5 S
1997 539 35 44 /7C
$C
2$jBqS07(D'Aa:H#WJZ`e,TIHX4Gk>$!:Ud'l"Rbl-UTa#WJZ`l2Ue`CO4^e@4ZT(6OF59~>
,
2030 539 6U ,
2310 620 0 31.5 P
2310 1868 0 -31.5 S
2272 540 3U ,
2298 539 6U ,
2331 539 6U ,
2594 620 0 31.5 P
2594 1868 0 -31.5 S
2556 540 3U ,
2582 540 3Y ,
2615 539 6U ,
890 620 1704 1248 re
S
2.5 w
890 1835.25 0 31.5 S
874.25 1851 31.5 0 S
904 1802.75 0 31.5 S
888.25 1818.5 31.5 0 S
918.5 1781.25 0 31.5 S
902.75 1797 31.5 0 S
932.5 1764.25 0 31.5 S
916.75 1780 31.5 0 S
947 1749.25 0 31.5 S
931.25 1765 31.5 0 S
961 1736.25 0 31.5 S
945.25 1752 31.5 0 S
975 1725.25 0 31.5 S
959.25 1741 31.5 0 S
989.5 1715.25 0 31.5 S
973.75 1731 31.5 0 S
1003.5 1706.25 0 31.5 S
987.75 1722 31.5 0 S
1018 1697.75 0 31.5 S
1002.25 1713.5 31.5 0 S
1032 1688.75 0 31.5 S
1016.25 1704.5 31.5 0 S
1046 1680.75 0 31.5 S
1030.25 1696.5 31.5 0 S
1060.5 1673.75 0 31.5 S
1044.75 1689.5 31.5 0 S
1074.5 1666.75 0 31.5 S
1058.75 1682.5 31.5 0 S
1089 1659.75 0 31.5 S
1073.25 1675.5 31.5 0 S
1103 1652.75 0 31.5 S
1087.25 1668.5 31.5 0 S
1117 1645.75 0 31.5 S
1101.25 1661.5 31.5 0 S
1131.5 1638.75 0 31.5 S
1115.75 1654.5 31.5 0 S
1145.5 1632.25 0 31.5 S
1129.75 1648 31.5 0 S
1160 1626.25 0 31.5 S
1144.25 1642 31.5 0 S
1174 1620.25 0 31.5 S
1158.25 1636 31.5 0 S
1188 1614.25 0 31.5 S
1172.25 1630 31.5 0 S
1202.5 1608.25 0 31.5 S
1186.75 1624 31.5 0 S
1216.5 1602.25 0 31.5 S
1200.75 1618 31.5 0 S
1231 1596.25 0 31.5 S
1215.25 1612 31.5 0 S
1245 1590.75 0 31.5 S
1229.25 1606.5 31.5 0 S
1259 1584.75 0 31.5 S
1243.25 1600.5 31.5 0 S
1273.5 1578.75 0 31.5 S
1257.75 1594.5 31.5 0 S
1287.5 1573.25 0 31.5 S
1271.75 1589 31.5 0 S
1302 1567.75 0 31.5 S
1286.25 1583.5 31.5 0 S
1316 1561.75 0 31.5 S
1300.25 1577.5 31.5 0 S
1330 1555.75 0 31.5 S
1314.25 1571.5 31.5 0 S
1344.5 1549.75 0 31.5 S
1328.75 1565.5 31.5 0 S
1358.5 1544.25 0 31.5 S
1342.75 1560 31.5 0 S
1373 1538.75 0 31.5 S
1357.25 1554.5 31.5 0 S
1387 1533.25 0 31.5 S
1371.25 1549 31.5 0 S
1401 1527.75 0 31.5 S
1385.25 1543.5 31.5 0 S
1415.5 1521.75 0 31.5 S
1399.75 1537.5 31.5 0 S
1429.5 1516.25 0 31.5 S
1413.75 1532 31.5 0 S
1444 1510.75 0 31.5 S
1428.25 1526.5 31.5 0 S
1458 1504.75 0 31.5 S
1442.25 1520.5 31.5 0 S
1472 1499.25 0 31.5 S
1456.25 1515 31.5 0 S
1486.5 1493.25 0 31.5 S
1470.75 1509 31.5 0 S
1500.5 1487.25 0 31.5 S
1484.75 1503 31.5 0 S
1515 1481.75 0 31.5 S
1499.25 1497.5 31.5 0 S
1529 1476.25 0 31.5 S
1513.25 1492 31.5 0 S
1543 1470.75 0 31.5 S
1527.25 1486.5 31.5 0 S
1557.5 1465.25 0 31.5 S
1541.75 1481 31.5 0 S
1571.5 1459.25 0 31.5 S
1555.75 1475 31.5 0 S
1586 1452.75 0 31.5 S
1570.25 1468.5 31.5 0 S
1600 1446.75 0 31.5 S
1584.25 1462.5 31.5 0 S
1614 1441.25 0 31.5 S
1598.25 1457 31.5 0 S
1628.5 1435.25 0 31.5 S
1612.75 1451 31.5 0 S
1642.5 1429.75 0 31.5 S
1626.75 1445.5 31.5 0 S
1657 1423.75 0 31.5 S
1641.25 1439.5 31.5 0 S
1671 1417.25 0 31.5 S
1655.25 1433 31.5 0 S
1685 1410.25 0 31.5 S
1669.25 1426 31.5 0 S
1699.5 1404.75 0 31.5 S
1683.75 1420.5 31.5 0 S
1713.5 1397.25 0 31.5 S
1697.75 1413 31.5 0 S
1728 1390.25 0 31.5 S
1712.25 1406 31.5 0 S
1742 1384.25 0 31.5 S
1726.25 1400 31.5 0 S
1756 1378.25 0 31.5 S
1740.25 1394 31.5 0 S
1770.5 1371.75 0 31.5 S
1754.75 1387.5 31.5 0 S
1784.5 1364.75 0 31.5 S
1768.75 1380.5 31.5 0 S
1799 1358.75 0 31.5 S
1783.25 1374.5 31.5 0 S
1813 1350.25 0 31.5 S
1797.25 1366 31.5 0 S
1827 1343.25 0 31.5 S
1811.25 1359 31.5 0 S
1841.5 1334.75 0 31.5 S
1825.75 1350.5 31.5 0 S
1855.5 1327.25 0 31.5 S
1839.75 1343 31.5 0 S
1870 1320.75 0 31.5 S
1854.25 1336.5 31.5 0 S
1884 1311.75 0 31.5 S
1868.25 1327.5 31.5 0 S
1898 1304.25 0 31.5 S
1882.25 1320 31.5 0 S
1912.5 1296.25 0 31.5 S
1896.75 1312 31.5 0 S
1926.5 1287.25 0 31.5 S
1910.75 1303 31.5 0 S
1941 1277.75 0 31.5 S
1925.25 1293.5 31.5 0 S
1955 1268.25 0 31.5 S
1939.25 1284 31.5 0 S
1969 1258.75 0 31.5 S
1953.25 1274.5 31.5 0 S
1983.5 1249.25 0 31.5 S
1967.75 1265 31.5 0 S
1997.5 1235.75 0 31.5 S
1981.75 1251.5 31.5 0 S
2012 1223.25 0 31.5 S
1996.25 1239 31.5 0 S
2026 1211.75 0 31.5 S
2010.25 1227.5 31.5 0 S
2040 1200.75 0 31.5 S
2024.25 1216.5 31.5 0 S
2054.5 1187.25 0 31.5 S
2038.75 1203 31.5 0 S
2068.5 1169.75 0 31.5 S
2052.75 1185.5 31.5 0 S
2083 1157.75 0 31.5 S
2067.25 1173.5 31.5 0 S
2097 1142.25 0 31.5 S
2081.25 1158 31.5 0 S
2111 1124.75 0 31.5 S
2095.25 1140.5 31.5 0 S
2125.5 1105.75 0 31.5 S
2109.75 1121.5 31.5 0 S
2139.5 1091.25 0 31.5 S
2123.75 1107 31.5 0 S
2154 1072.75 0 31.5 S
2138.25 1088.5 31.5 0 S
2168 1049.75 0 31.5 S
2152.25 1065.5 31.5 0 S
2182 1025.25 0 31.5 S
2166.25 1041 31.5 0 S
2196.5 1001.25 0 31.5 S
2180.75 1017 31.5 0 S
2210.5 968.75 0 31.5 S
2194.75 984.5 31.5 0 S
2225 931.25 0 31.5 S
2209.25 947 31.5 0 S
2239 892.25 0 31.5 S
2223.25 908 31.5 0 S
2253 845.75 0 31.5 S
2237.25 861.5 31.5 0 S
2267.5 765.25 0 31.5 S
2251.75 781 31.5 0 S
2281.5 612.25 0 31.5 S
2265.75 628 31.5 0 S
5 w
890 620 1704 1248 re
S
cleartomark end end pagesave restore
 showpage
%%PageTrailer
%%Trailer
%%Pages: 1
