%!PS-Adobe-3.0 EPSF-3.0
%%BoundingBox: 64 53 264 190
%%HiResBoundingBox: 64.200000 53.200000 263.100000 189.800000
%.....................................
%%Creator: GPL Ghostscript 871 (epswrite)
%%CreationDate: 2012/01/28 17:04:55
%%DocumentData: Clean7Bit
%%LanguageLevel: 2
%%EndComments
%%BeginProlog
% This copyright applies to everything between here and the %%EndProlog:
% Copyright (C) 2010 Artifex Software, Inc.  All rights reserved.
%%BeginResource: procset GS_epswrite_2_0_1001 1.001 0
/GS_epswrite_2_0_1001 80 dict dup begin
/PageSize 2 array def/setpagesize{ PageSize aload pop 3 index eq exch
4 index eq and{ pop pop pop}{ PageSize dup  1
5 -1 roll put 0 4 -1 roll put dup null eq {false} {dup where} ifelse{ exch get exec}
{ pop/setpagedevice where
{ pop 1 dict dup /PageSize PageSize put setpagedevice}
{ /setpage where{ pop PageSize aload pop pageparams 3 {exch pop} repeat
setpage}if}ifelse}ifelse}ifelse} bind def
/!{bind def}bind def/#{load def}!/N/counttomark #
/rG{3{3 -1 roll 255 div}repeat setrgbcolor}!/G{255 div setgray}!/K{0 G}!
/r6{dup 3 -1 roll rG}!/r5{dup 3 1 roll rG}!/r3{dup rG}!
/w/setlinewidth #/J/setlinecap #
/j/setlinejoin #/M/setmiterlimit #/d/setdash #/i/setflat #
/m/moveto #/l/lineto #/c/rcurveto #
/p{N 2 idiv{N -2 roll rlineto}repeat}!
/P{N 0 gt{N -2 roll moveto p}if}!
/h{p closepath}!/H{P closepath}!
/lx{0 rlineto}!/ly{0 exch rlineto}!/v{0 0 6 2 roll c}!/y{2 copy c}!
/re{4 -2 roll m exch dup lx exch ly neg lx h}!
/^{3 index neg 3 index neg}!
/f{P fill}!/f*{P eofill}!/s{H stroke}!/S{P stroke}!
/q/gsave #/Q/grestore #/rf{re fill}!
/Y{P clip newpath}!/Y*{P eoclip newpath}!/rY{re Y}!
/|={pop exch 4 1 roll 1 array astore cvx 3 array astore cvx exch 1 index def exec}!
/|{exch string readstring |=}!
/+{dup type/nametype eq{2 index 7 add -3 bitshift 2 index mul}if}!
/@/currentfile #/${+ @ |}!
/B{{2 copy string{readstring pop}aload pop 4 array astore cvx
3 1 roll}repeat pop pop true}!
/Ix{[1 0 0 1 11 -2 roll exch neg exch neg]exch}!
/,{true exch Ix imagemask}!/If{false exch Ix imagemask}!/I{exch Ix image}!
/Ic{exch Ix false 3 colorimage}!
/F{/Columns counttomark 3 add -2 roll/Rows exch/K -1/BlackIs1 true>>
/CCITTFaxDecode filter}!/FX{<</EndOfBlock false F}!
/X{/ASCII85Decode filter}!/@X{@ X}!/&2{2 index 2 index}!
/@F{@ &2<<F}!/@C{@X &2 FX}!
/$X{+ @X |}!/&4{4 index 4 index}!/$F{+ @ &4<<F |}!/$C{+ @X &4 FX |}!
/IC{3 1 roll 10 dict begin 1{/ImageType/Interpolate/Decode/DataSource
/ImageMatrix/BitsPerComponent/Height/Width}{exch def}forall
currentdict end image}!
/~{@ read {pop} if}!
end def
%%EndResource
/pagesave null def
%%EndProlog
%%Page: 1 1
%%BeginPageSetup
GS_epswrite_2_0_1001 begin
/pagesave save store 197 dict begin
0.1 0.1 scale
%%EndPageSetup
gsave mark
Q q
0 0 250000 250000 re
Y
5 w
K
785 600 31.5 0 P
2585 600 -31.5 0 S
725 582 27 36 /3U
$C
,RtB-l-V&(&8tA@:&jmtJ,fQKs8Qphs7Xn?f#%erX&bpJ~>
,
785 783 31.5 0 P
2585 783 -31.5 0 S
642 766 19 35 /6U
$C
3kt^ps8W,jiVXZ9hg>~>
,
670 765 3U ,
697 765 3U ,
725 765 3U ,
785 965.5 31.5 0 P
2585 965.5 -31.5 0 S
642 949 27 35 /3Y
$C
2@;[4:B,M)iS0)-LC?7`gc#\s^>.cKrn"2dL(^alX[.X~>
,
670 948 3U ,
697 948 3U ,
725 948 3U ,
785 1148.5 31.5 0 P
2585 1148.5 -31.5 0 S
642 1131 27 36 /6Y
$C
-l*@R:7W!o_@=qCHe7<S<J7/%]%.k!-uRl(+91f@m4/Wc<inZ>J,~>
,
670 1131 3U ,
697 1131 3U ,
725 1131 3U ,
785 1331.5 31.5 0 P
2585 1331.5 -31.5 0 S
642 1315 28 35 /4C
$C
,9QscjoEHmBJ1I:n$h2`n$h2`n%WeMj1YE[If~>
,
670 1314 3U ,
697 1314 3U ,
725 1314 3U ,
785 1514.5 31.5 0 P
2585 1514.5 -31.5 0 S
642 1497 27 36 /7C
$C
-l*A5K;Xmq83WN=s3kKXX\Lb-iInI>[?fa\s8B_'"@)e~>
,
670 1497 3U ,
697 1497 3U ,
725 1497 3U ,
785 1697 31.5 0 P
2585 1697 -31.5 0 S
642 1679 27 36 /4G
$C
,RtB-*BGLlPNfYSm[r,2qb-^"Ya-djFi.H<\D.$oK7;7W[aN2*=AZkb~>
,
670 1679 3U ,
697 1679 3U ,
725 1679 3U ,
785 1880 31.5 0 P
2585 1880 -31.5 0 S
642 1863 28 35 /7G
$C
1dCHDJ%P[:g\1T\Dqj+8me6C#YV5b~>
,
670 1862 3U ,
697 1862 3U ,
725 1862 3U ,
785 600 0 31.5 P
785 1880 0 -31.5 S
776 532 3U ,
1042 600 0 31.5 P
1042 1880 0 -31.5 S
1005 533 6U ,
1033 532 3U ,
1061 532 3U ,
1299.5 600 0 31.5 P
1299.5 1880 0 -31.5 S
1263 533 3Y ,
1291 532 3U ,
1318 532 3U ,
1556.5 600 0 31.5 P
1556.5 1880 0 -31.5 S
1520 532 6Y ,
1548 532 3U ,
1575 532 3U ,
1813.5 600 0 31.5 P
1813.5 1880 0 -31.5 S
1777 533 4C ,
1805 532 3U ,
1832 532 3U ,
2070.5 600 0 31.5 P
2070.5 1880 0 -31.5 S
2034 532 7C ,
2062 532 3U ,
2089 532 3U ,
2328 600 0 31.5 P
2328 1880 0 -31.5 S
2291 532 4G ,
2319 532 3U ,
2347 532 3U ,
2585 600 0 31.5 P
2585 1880 0 -31.5 S
2548 533 7G ,
2576 532 3U ,
2604 532 3U ,
785 600 1800 1280 re
S
2.5 w
787.5 1716.75 0 31.5 S
771.75 1732.5 31.5 0 S
790 1356.25 0 31.5 S
774.25 1372 31.5 0 S
792.5 1151.25 0 31.5 S
776.75 1167 31.5 0 S
795.5 1019.25 0 31.5 S
779.75 1035 31.5 0 S
798 932.25 0 31.5 S
782.25 948 31.5 0 S
800.5 865.75 0 31.5 S
784.75 881.5 31.5 0 S
803 824.25 0 31.5 S
787.25 840 31.5 0 S
805.5 795.25 0 31.5 S
789.75 811 31.5 0 S
808 768.25 0 31.5 S
792.25 784 31.5 0 S
810.5 744.75 0 31.5 S
794.75 760.5 31.5 0 S
813.5 726.75 0 31.5 S
797.75 742.5 31.5 0 S
816 712.25 0 31.5 S
800.25 728 31.5 0 S
818.5 697.75 0 31.5 S
802.75 713.5 31.5 0 S
821 687.25 0 31.5 S
805.25 703 31.5 0 S
823.5 678.75 0 31.5 S
807.75 694.5 31.5 0 S
826 669.75 0 31.5 S
810.25 685.5 31.5 0 S
828.5 665.25 0 31.5 S
812.75 681 31.5 0 S
831.5 660.25 0 31.5 S
815.75 676 31.5 0 S
834 655.75 0 31.5 S
818.25 671.5 31.5 0 S
836.5 650.75 0 31.5 S
820.75 666.5 31.5 0 S
839 646.75 0 31.5 S
823.25 662.5 31.5 0 S
841.5 641.25 0 31.5 S
825.75 657 31.5 0 S
844 638.75 0 31.5 S
828.25 654.5 31.5 0 S
846.5 635.75 0 31.5 S
830.75 651.5 31.5 0 S
849.5 632.75 0 31.5 S
833.75 648.5 31.5 0 S
852 630.75 0 31.5 S
836.25 646.5 31.5 0 S
854.5 627.75 0 31.5 S
838.75 643.5 31.5 0 S
857 625.75 0 31.5 S
841.25 641.5 31.5 0 S
859.5 623.25 0 31.5 S
843.75 639 31.5 0 S
862 621.75 0 31.5 S
846.25 637.5 31.5 0 S
864.5 619.25 0 31.5 S
848.75 635 31.5 0 S
867.5 618.25 0 31.5 S
851.75 634 31.5 0 S
870 616.75 0 31.5 S
854.25 632.5 31.5 0 S
872.5 615.25 0 31.5 S
856.75 631 31.5 0 S
875 614.25 0 31.5 S
859.25 630 31.5 0 S
877.5 612.75 0 31.5 S
861.75 628.5 31.5 0 S
880 612.25 0 31.5 S
864.25 628 31.5 0 S
882.5 612.25 0 31.5 S
866.75 628 31.5 0 S
885.5 610.75 0 31.5 S
869.75 626.5 31.5 0 S
888 610.25 0 31.5 S
872.25 626 31.5 0 S
890.5 608.25 0 31.5 S
874.75 624 31.5 0 S
893 608.25 0 31.5 S
877.25 624 31.5 0 S
895.5 607.25 0 31.5 S
879.75 623 31.5 0 S
898 606.25 0 31.5 S
882.25 622 31.5 0 S
900.5 605.25 0 31.5 S
884.75 621 31.5 0 S
903.5 604.75 0 31.5 S
887.75 620.5 31.5 0 S
906 603.75 0 31.5 S
890.25 619.5 31.5 0 S
908.5 603.25 0 31.5 S
892.75 619 31.5 0 S
911 602.25 0 31.5 S
895.25 618 31.5 0 S
913.5 601.75 0 31.5 S
897.75 617.5 31.5 0 S
916 601.25 0 31.5 S
900.25 617 31.5 0 S
918.5 600.75 0 31.5 S
902.75 616.5 31.5 0 S
921.5 600.75 0 31.5 S
905.75 616.5 31.5 0 S
924 600.25 0 31.5 S
908.25 616 31.5 0 S
926.5 599.75 0 31.5 S
910.75 615.5 31.5 0 S
929 599.75 0 31.5 S
913.25 615.5 31.5 0 S
931.5 599.25 0 31.5 S
915.75 615 31.5 0 S
934 598.75 0 31.5 S
918.25 614.5 31.5 0 S
936.5 598.75 0 31.5 S
920.75 614.5 31.5 0 S
939.5 598.25 0 31.5 S
923.75 614 31.5 0 S
942 597.75 0 31.5 S
926.25 613.5 31.5 0 S
944.5 597.75 0 31.5 S
928.75 613.5 31.5 0 S
952 597.25 0 31.5 S
936.25 613 31.5 0 S
957.5 597.25 0 31.5 S
941.75 613 31.5 0 S
960 596.25 0 31.5 S
944.25 612 31.5 0 S
962.5 595.75 0 31.5 S
946.75 611.5 31.5 0 S
965 595.25 0 31.5 S
949.25 611 31.5 0 S
967.5 594.75 0 31.5 S
951.75 610.5 31.5 0 S
970 594.25 0 31.5 S
954.25 610 31.5 0 S
972.5 594.25 0 31.5 S
956.75 610 31.5 0 S
978 594.25 0 31.5 S
962.25 610 31.5 0 S
980.5 593.75 0 31.5 S
964.75 609.5 31.5 0 S
985.5 593.25 0 31.5 S
969.75 609 31.5 0 S
988 593.25 0 31.5 S
972.25 609 31.5 0 S
990.5 592.25 0 31.5 S
974.75 608 31.5 0 S
993.5 592.25 0 31.5 S
977.75 608 31.5 0 S
996 591.75 0 31.5 S
980.25 607.5 31.5 0 S
998.5 591.25 0 31.5 S
982.75 607 31.5 0 S
1003.5 591.25 0 31.5 S
987.75 607 31.5 0 S
1008.5 590.75 0 31.5 S
992.75 606.5 31.5 0 S
1014 590.75 0 31.5 S
998.25 606.5 31.5 0 S
1019 590.25 0 31.5 S
1003.25 606 31.5 0 S
1021.5 590.25 0 31.5 S
1005.75 606 31.5 0 S
1024 589.75 0 31.5 S
1008.25 605.5 31.5 0 S
1029.5 589.75 0 31.5 S
1013.75 605.5 31.5 0 S
1034.5 589.25 0 31.5 S
1018.75 605 31.5 0 S
1037 589.25 0 31.5 S
1021.25 605 31.5 0 S
1039.5 589.25 0 31.5 S
1023.75 605 31.5 0 S
1044.5 588.75 0 31.5 S
1028.75 604.5 31.5 0 S
1047.5 588.75 0 31.5 S
1031.75 604.5 31.5 0 S
1052.5 588.25 0 31.5 S
1036.75 604 31.5 0 S
1062.5 588.25 0 31.5 S
1046.75 604 31.5 0 S
1068 588.25 0 31.5 S
1052.25 604 31.5 0 S
1086 587.75 0 31.5 S
1070.25 603.5 31.5 0 S
1098.5 587.75 0 31.5 S
1082.75 603.5 31.5 0 S
1101.5 587.75 0 31.5 S
1085.75 603.5 31.5 0 S
1104 587.25 0 31.5 S
1088.25 603 31.5 0 S
1145 587.25 0 31.5 S
1129.25 603 31.5 0 S
1186 586.75 0 31.5 S
1170.25 602.5 31.5 0 S
1188.5 586.75 0 31.5 S
1172.75 602.5 31.5 0 S
1199 586.25 0 31.5 S
1183.25 602 31.5 0 S
1219.5 586.25 0 31.5 S
1203.75 602 31.5 0 S
1248 586.25 0 31.5 S
1232.25 602 31.5 0 S
1266 585.75 0 31.5 S
1250.25 601.5 31.5 0 S
1278.5 585.75 0 31.5 S
1262.75 601.5 31.5 0 S
1289 585.25 0 31.5 S
1273.25 601 31.5 0 S
1397 585.25 0 31.5 S
1381.25 601 31.5 0 S
1446 584.75 0 31.5 S
1430.25 600.5 31.5 0 S
1649 584.75 0 31.5 S
1633.25 600.5 31.5 0 S
2199.5 584.75 0 31.5 S
2183.75 600.5 31.5 0 S
2258.5 584.25 0 31.5 S
2242.75 600 31.5 0 S
2515.5 584.25 0 31.5 S
2499.75 600 31.5 0 S
5 w
785 600 1800 1280 re
S
cleartomark end end pagesave restore
 showpage
%%PageTrailer
%%Trailer
%%Pages: 1
