%!PS-Adobe-3.0 EPSF-3.0
%%BoundingBox: 64 53 264 190
%%HiResBoundingBox: 64.200000 53.200000 263.100000 189.800000
%.....................................
%%Creator: GPL Ghostscript 871 (epswrite)
%%CreationDate: 2012/01/28 17:04:54
%%DocumentData: Clean7Bit
%%LanguageLevel: 2
%%EndComments
%%BeginProlog
% This copyright applies to everything between here and the %%EndProlog:
% Copyright (C) 2010 Artifex Software, Inc.  All rights reserved.
%%BeginResource: procset GS_epswrite_2_0_1001 1.001 0
/GS_epswrite_2_0_1001 80 dict dup begin
/PageSize 2 array def/setpagesize{ PageSize aload pop 3 index eq exch
4 index eq and{ pop pop pop}{ PageSize dup  1
5 -1 roll put 0 4 -1 roll put dup null eq {false} {dup where} ifelse{ exch get exec}
{ pop/setpagedevice where
{ pop 1 dict dup /PageSize PageSize put setpagedevice}
{ /setpage where{ pop PageSize aload pop pageparams 3 {exch pop} repeat
setpage}if}ifelse}ifelse}ifelse} bind def
/!{bind def}bind def/#{load def}!/N/counttomark #
/rG{3{3 -1 roll 255 div}repeat setrgbcolor}!/G{255 div setgray}!/K{0 G}!
/r6{dup 3 -1 roll rG}!/r5{dup 3 1 roll rG}!/r3{dup rG}!
/w/setlinewidth #/J/setlinecap #
/j/setlinejoin #/M/setmiterlimit #/d/setdash #/i/setflat #
/m/moveto #/l/lineto #/c/rcurveto #
/p{N 2 idiv{N -2 roll rlineto}repeat}!
/P{N 0 gt{N -2 roll moveto p}if}!
/h{p closepath}!/H{P closepath}!
/lx{0 rlineto}!/ly{0 exch rlineto}!/v{0 0 6 2 roll c}!/y{2 copy c}!
/re{4 -2 roll m exch dup lx exch ly neg lx h}!
/^{3 index neg 3 index neg}!
/f{P fill}!/f*{P eofill}!/s{H stroke}!/S{P stroke}!
/q/gsave #/Q/grestore #/rf{re fill}!
/Y{P clip newpath}!/Y*{P eoclip newpath}!/rY{re Y}!
/|={pop exch 4 1 roll 1 array astore cvx 3 array astore cvx exch 1 index def exec}!
/|{exch string readstring |=}!
/+{dup type/nametype eq{2 index 7 add -3 bitshift 2 index mul}if}!
/@/currentfile #/${+ @ |}!
/B{{2 copy string{readstring pop}aload pop 4 array astore cvx
3 1 roll}repeat pop pop true}!
/Ix{[1 0 0 1 11 -2 roll exch neg exch neg]exch}!
/,{true exch Ix imagemask}!/If{false exch Ix imagemask}!/I{exch Ix image}!
/Ic{exch Ix false 3 colorimage}!
/F{/Columns counttomark 3 add -2 roll/Rows exch/K -1/BlackIs1 true>>
/CCITTFaxDecode filter}!/FX{<</EndOfBlock false F}!
/X{/ASCII85Decode filter}!/@X{@ X}!/&2{2 index 2 index}!
/@F{@ &2<<F}!/@C{@X &2 FX}!
/$X{+ @X |}!/&4{4 index 4 index}!/$F{+ @ &4<<F |}!/$C{+ @X &4 FX |}!
/IC{3 1 roll 10 dict begin 1{/ImageType/Interpolate/Decode/DataSource
/ImageMatrix/BitsPerComponent/Height/Width}{exch def}forall
currentdict end image}!
/~{@ read {pop} if}!
end def
%%EndResource
/pagesave null def
%%EndProlog
%%Page: 1 1
%%BeginPageSetup
GS_epswrite_2_0_1001 begin
/pagesave save store 197 dict begin
0.1 0.1 scale
%%EndPageSetup
gsave mark
Q q
0 0 250000 250000 re
Y
5 w
K
785 600 31.5 0 P
2585 600 -31.5 0 S
725 582 27 36 /3U
$C
,RtB-l-V&(&8tA@:&jmtJ,fQKs8Qphs7Xn?f#%erX&bpJ~>
,
785 760 31.5 0 P
2585 760 -31.5 0 S
670 742 27 36 /6U
$C
-l*A5K;Xmq83WN=s3kKXX\Lb-iInI>[?fa\s8B_'"@)e~>
,
697 742 3U ,
725 742 3U ,
785 920 31.5 0 P
2585 920 -31.5 0 S
642 903 19 35 /3Y
$C
3kt^ps8W,jiVXZ9hg>~>
,
670 902 3U ,
697 902 3U ,
725 902 3U ,
785 1080 31.5 0 P
2585 1080 -31.5 0 S
642 1063 3Y ,
670 1062 6U ,
697 1062 3U ,
725 1062 3U ,
785 1240 31.5 0 P
2585 1240 -31.5 0 S
642 1223 27 35 /6Y
$C
2@;[4:B,M)iS0)-LC?7`gc#\s^>.cKrn"2dL(^alX[.X~>
,
670 1222 3U ,
697 1222 3U ,
725 1222 3U ,
785 1400 31.5 0 P
2585 1400 -31.5 0 S
642 1383 6Y ,
670 1382 6U ,
697 1382 3U ,
725 1382 3U ,
785 1560 31.5 0 P
2585 1560 -31.5 0 S
642 1542 27 36 /4C
$C
-l*@R:7W!o_@=qCHe7<S<J7/%]%.k!-uRl(+91f@m4/Wc<inZ>J,~>
,
670 1542 3U ,
697 1542 3U ,
725 1542 3U ,
785 1720 31.5 0 P
2585 1720 -31.5 0 S
642 1702 4C ,
670 1702 6U ,
697 1702 3U ,
725 1702 3U ,
785 1880 31.5 0 P
2585 1880 -31.5 0 S
642 1863 28 35 /7C
$C
,9QscjoEHmBJ1I:n$h2`n$h2`n%WeMj1YE[If~>
,
670 1862 3U ,
697 1862 3U ,
725 1862 3U ,
785 600 0 31.5 P
785 1880 0 -31.5 S
776 532 3U ,
1042 600 0 31.5 P
1042 1880 0 -31.5 S
1005 533 3Y ,
1033 532 3U ,
1061 532 3U ,
1299.5 600 0 31.5 P
1299.5 1880 0 -31.5 S
1263 533 6Y ,
1291 532 3U ,
1318 532 3U ,
1556.5 600 0 31.5 P
1556.5 1880 0 -31.5 S
1520 532 4C ,
1548 532 3U ,
1575 532 3U ,
1813.5 600 0 31.5 P
1813.5 1880 0 -31.5 S
1777 533 7C ,
1805 532 3U ,
1832 532 3U ,
2070.5 600 0 31.5 P
2070.5 1880 0 -31.5 S
2034 532 6U ,
2062 532 3U ,
2089 532 3U ,
2328 600 0 31.5 P
2328 1880 0 -31.5 S
2291 532 27 36 /4G
$C
,RtB-*BGLlPNfYSm[r,2qb-^"Ya-djFi.H<\D.$oK7;7W[aN2*=AZkb~>
,
2319 532 3U ,
2347 532 3U ,
2585 600 0 31.5 P
2585 1880 0 -31.5 S
2548 533 28 35 /7G
$C
1dCHDJ%P[:g\1T\Dqj+8me6C#YV5b~>
,
2576 532 3U ,
2604 532 3U ,
785 600 1800 1280 re
S
2.5 w
787.5 1802.25 0 31.5 S
771.75 1818 31.5 0 S
790 1214.75 0 31.5 S
774.25 1230.5 31.5 0 S
792.5 942.75 0 31.5 S
776.75 958.5 31.5 0 S
795.5 815.25 0 31.5 S
779.75 831 31.5 0 S
798 736.75 0 31.5 S
782.25 752.5 31.5 0 S
800.5 700.25 0 31.5 S
784.75 716 31.5 0 S
803 657.25 0 31.5 S
787.25 673 31.5 0 S
805.5 634.75 0 31.5 S
789.75 650.5 31.5 0 S
808 631.25 0 31.5 S
792.25 647 31.5 0 S
810.5 625.25 0 31.5 S
794.75 641 31.5 0 S
813.5 616.25 0 31.5 S
797.75 632 31.5 0 S
816 609.25 0 31.5 S
800.25 625 31.5 0 S
818.5 609.75 0 31.5 S
802.75 625.5 31.5 0 S
821 602.75 0 31.5 S
805.25 618.5 31.5 0 S
823.5 598.75 0 31.5 S
807.75 614.5 31.5 0 S
826 600.75 0 31.5 S
810.25 616.5 31.5 0 S
828.5 592.25 0 31.5 S
812.75 608 31.5 0 S
831.5 592.75 0 31.5 S
815.75 608.5 31.5 0 S
834 591.75 0 31.5 S
818.25 607.5 31.5 0 S
836.5 593.25 0 31.5 S
820.75 609 31.5 0 S
839 591.25 0 31.5 S
823.25 607 31.5 0 S
841.5 593.25 0 31.5 S
825.75 609 31.5 0 S
844 589.25 0 31.5 S
828.25 605 31.5 0 S
846.5 588.75 0 31.5 S
830.75 604.5 31.5 0 S
849.5 590.25 0 31.5 S
833.75 606 31.5 0 S
852 587.75 0 31.5 S
836.25 603.5 31.5 0 S
854.5 589.25 0 31.5 S
838.75 605 31.5 0 S
857 587.75 0 31.5 S
841.25 603.5 31.5 0 S
859.5 588.75 0 31.5 S
843.75 604.5 31.5 0 S
862 587.25 0 31.5 S
846.25 603 31.5 0 S
864.5 588.25 0 31.5 S
848.75 604 31.5 0 S
867.5 586.25 0 31.5 S
851.75 602 31.5 0 S
870 586.75 0 31.5 S
854.25 602.5 31.5 0 S
872.5 586.75 0 31.5 S
856.75 602.5 31.5 0 S
875 586.25 0 31.5 S
859.25 602 31.5 0 S
877.5 586.25 0 31.5 S
861.75 602 31.5 0 S
880 585.25 0 31.5 S
864.25 601 31.5 0 S
882.5 584.75 0 31.5 S
866.75 600.5 31.5 0 S
885.5 586.75 0 31.5 S
869.75 602.5 31.5 0 S
888 585.25 0 31.5 S
872.25 601 31.5 0 S
890.5 587.25 0 31.5 S
874.75 603 31.5 0 S
893 584.75 0 31.5 S
877.25 600.5 31.5 0 S
895.5 585.75 0 31.5 S
879.75 601.5 31.5 0 S
898 586.25 0 31.5 S
882.25 602 31.5 0 S
900.5 585.25 0 31.5 S
884.75 601 31.5 0 S
903.5 585.75 0 31.5 S
887.75 601.5 31.5 0 S
906 585.75 0 31.5 S
890.25 601.5 31.5 0 S
908.5 585.75 0 31.5 S
892.75 601.5 31.5 0 S
911 585.75 0 31.5 S
895.25 601.5 31.5 0 S
913.5 584.75 0 31.5 S
897.75 600.5 31.5 0 S
916 585.25 0 31.5 S
900.25 601 31.5 0 S
918.5 585.75 0 31.5 S
902.75 601.5 31.5 0 S
921.5 584.75 0 31.5 S
905.75 600.5 31.5 0 S
924 584.75 0 31.5 S
908.25 600.5 31.5 0 S
926.5 584.75 0 31.5 S
910.75 600.5 31.5 0 S
929 584.75 0 31.5 S
913.25 600.5 31.5 0 S
931.5 584.75 0 31.5 S
915.75 600.5 31.5 0 S
934 585.25 0 31.5 S
918.25 601 31.5 0 S
936.5 584.75 0 31.5 S
920.75 600.5 31.5 0 S
939.5 584.75 0 31.5 S
923.75 600.5 31.5 0 S
942 584.75 0 31.5 S
926.25 600.5 31.5 0 S
944.5 584.75 0 31.5 S
928.75 600.5 31.5 0 S
952 584.75 0 31.5 S
936.25 600.5 31.5 0 S
957.5 584.75 0 31.5 S
941.75 600.5 31.5 0 S
960 586.25 0 31.5 S
944.25 602 31.5 0 S
962.5 584.75 0 31.5 S
946.75 600.5 31.5 0 S
965 585.25 0 31.5 S
949.25 601 31.5 0 S
967.5 585.75 0 31.5 S
951.75 601.5 31.5 0 S
970 584.75 0 31.5 S
954.25 600.5 31.5 0 S
972.5 584.75 0 31.5 S
956.75 600.5 31.5 0 S
978 584.75 0 31.5 S
962.25 600.5 31.5 0 S
980.5 585.25 0 31.5 S
964.75 601 31.5 0 S
985.5 584.75 0 31.5 S
969.75 600.5 31.5 0 S
988 584.75 0 31.5 S
972.25 600.5 31.5 0 S
990.5 585.75 0 31.5 S
974.75 601.5 31.5 0 S
993.5 584.75 0 31.5 S
977.75 600.5 31.5 0 S
996 585.25 0 31.5 S
980.25 601 31.5 0 S
998.5 584.75 0 31.5 S
982.75 600.5 31.5 0 S
1003.5 584.75 0 31.5 S
987.75 600.5 31.5 0 S
1008.5 584.75 0 31.5 S
992.75 600.5 31.5 0 S
1014 584.75 0 31.5 S
998.25 600.5 31.5 0 S
1019 584.75 0 31.5 S
1003.25 600.5 31.5 0 S
1021.5 584.75 0 31.5 S
1005.75 600.5 31.5 0 S
1024 584.75 0 31.5 S
1008.25 600.5 31.5 0 S
1029.5 584.75 0 31.5 S
1013.75 600.5 31.5 0 S
1034.5 584.75 0 31.5 S
1018.75 600.5 31.5 0 S
1037 584.75 0 31.5 S
1021.25 600.5 31.5 0 S
1039.5 584.75 0 31.5 S
1023.75 600.5 31.5 0 S
1044.5 584.75 0 31.5 S
1028.75 600.5 31.5 0 S
1047.5 584.75 0 31.5 S
1031.75 600.5 31.5 0 S
1052.5 584.75 0 31.5 S
1036.75 600.5 31.5 0 S
1062.5 584.75 0 31.5 S
1046.75 600.5 31.5 0 S
1068 584.75 0 31.5 S
1052.25 600.5 31.5 0 S
1086 584.75 0 31.5 S
1070.25 600.5 31.5 0 S
1098.5 584.75 0 31.5 S
1082.75 600.5 31.5 0 S
1101.5 584.75 0 31.5 S
1085.75 600.5 31.5 0 S
1104 584.75 0 31.5 S
1088.25 600.5 31.5 0 S
1145 584.75 0 31.5 S
1129.25 600.5 31.5 0 S
1186 584.75 0 31.5 S
1170.25 600.5 31.5 0 S
1188.5 584.75 0 31.5 S
1172.75 600.5 31.5 0 S
1199 584.75 0 31.5 S
1183.25 600.5 31.5 0 S
1219.5 584.75 0 31.5 S
1203.75 600.5 31.5 0 S
1248 584.75 0 31.5 S
1232.25 600.5 31.5 0 S
1266 584.75 0 31.5 S
1250.25 600.5 31.5 0 S
1278.5 584.75 0 31.5 S
1262.75 600.5 31.5 0 S
1289 584.75 0 31.5 S
1273.25 600.5 31.5 0 S
1397 584.75 0 31.5 S
1381.25 600.5 31.5 0 S
1446 584.75 0 31.5 S
1430.25 600.5 31.5 0 S
1649 584.75 0 31.5 S
1633.25 600.5 31.5 0 S
2199.5 584.75 0 31.5 S
2183.75 600.5 31.5 0 S
2258.5 584.75 0 31.5 S
2242.75 600.5 31.5 0 S
2515.5 584.75 0 31.5 S
2499.75 600.5 31.5 0 S
5 w
785 600 1800 1280 re
S
cleartomark end end pagesave restore
 showpage
%%PageTrailer
%%Trailer
%%Pages: 1
