%!PS-Adobe-3.0 EPSF-3.0
%%BoundingBox: 64 53 265 190
%%HiResBoundingBox: 64.400000 53.200000 264.500000 189.800000
%.....................................
%%Creator: GPL Ghostscript 871 (epswrite)
%%CreationDate: 2012/01/28 17:04:54
%%DocumentData: Clean7Bit
%%LanguageLevel: 2
%%EndComments
%%BeginProlog
% This copyright applies to everything between here and the %%EndProlog:
% Copyright (C) 2010 Artifex Software, Inc.  All rights reserved.
%%BeginResource: procset GS_epswrite_2_0_1001 1.001 0
/GS_epswrite_2_0_1001 80 dict dup begin
/PageSize 2 array def/setpagesize{ PageSize aload pop 3 index eq exch
4 index eq and{ pop pop pop}{ PageSize dup  1
5 -1 roll put 0 4 -1 roll put dup null eq {false} {dup where} ifelse{ exch get exec}
{ pop/setpagedevice where
{ pop 1 dict dup /PageSize PageSize put setpagedevice}
{ /setpage where{ pop PageSize aload pop pageparams 3 {exch pop} repeat
setpage}if}ifelse}ifelse}ifelse} bind def
/!{bind def}bind def/#{load def}!/N/counttomark #
/rG{3{3 -1 roll 255 div}repeat setrgbcolor}!/G{255 div setgray}!/K{0 G}!
/r6{dup 3 -1 roll rG}!/r5{dup 3 1 roll rG}!/r3{dup rG}!
/w/setlinewidth #/J/setlinecap #
/j/setlinejoin #/M/setmiterlimit #/d/setdash #/i/setflat #
/m/moveto #/l/lineto #/c/rcurveto #
/p{N 2 idiv{N -2 roll rlineto}repeat}!
/P{N 0 gt{N -2 roll moveto p}if}!
/h{p closepath}!/H{P closepath}!
/lx{0 rlineto}!/ly{0 exch rlineto}!/v{0 0 6 2 roll c}!/y{2 copy c}!
/re{4 -2 roll m exch dup lx exch ly neg lx h}!
/^{3 index neg 3 index neg}!
/f{P fill}!/f*{P eofill}!/s{H stroke}!/S{P stroke}!
/q/gsave #/Q/grestore #/rf{re fill}!
/Y{P clip newpath}!/Y*{P eoclip newpath}!/rY{re Y}!
/|={pop exch 4 1 roll 1 array astore cvx 3 array astore cvx exch 1 index def exec}!
/|{exch string readstring |=}!
/+{dup type/nametype eq{2 index 7 add -3 bitshift 2 index mul}if}!
/@/currentfile #/${+ @ |}!
/B{{2 copy string{readstring pop}aload pop 4 array astore cvx
3 1 roll}repeat pop pop true}!
/Ix{[1 0 0 1 11 -2 roll exch neg exch neg]exch}!
/,{true exch Ix imagemask}!/If{false exch Ix imagemask}!/I{exch Ix image}!
/Ic{exch Ix false 3 colorimage}!
/F{/Columns counttomark 3 add -2 roll/Rows exch/K -1/BlackIs1 true>>
/CCITTFaxDecode filter}!/FX{<</EndOfBlock false F}!
/X{/ASCII85Decode filter}!/@X{@ X}!/&2{2 index 2 index}!
/@F{@ &2<<F}!/@C{@X &2 FX}!
/$X{+ @X |}!/&4{4 index 4 index}!/$F{+ @ &4<<F |}!/$C{+ @X &4 FX |}!
/IC{3 1 roll 10 dict begin 1{/ImageType/Interpolate/Decode/DataSource
/ImageMatrix/BitsPerComponent/Height/Width}{exch def}forall
currentdict end image}!
/~{@ read {pop} if}!
end def
%%EndResource
/pagesave null def
%%EndProlog
%%Page: 1 1
%%BeginPageSetup
GS_epswrite_2_0_1001 begin
/pagesave save store 197 dict begin
0.1 0.1 scale
%%EndPageSetup
gsave mark
Q q
0 0 250000 250000 re
Y
5 w
K
815 600 31.5 0 P
2585 600 -31.5 0 S
755 583 19 35 /3U
$C
3kt^ps8W,jiVXZ9hg>~>
,
815 696.5 15.5 0 P
2585 696.5 -15.5 0 P
815 752.5 15.5 0 P
2585 752.5 -15.5 0 P
815 792.5 15.5 0 P
2585 792.5 -15.5 0 P
815 823.5 15.5 0 P
2585 823.5 -15.5 0 P
815 849 15.5 0 P
2585 849 -15.5 0 P
815 870.5 15.5 0 P
2585 870.5 -15.5 0 P
815 889 15.5 0 P
2585 889 -15.5 0 P
815 905.5 15.5 0 P
2585 905.5 -15.5 0 P
815 920 31.5 0 P
2585 920 -31.5 0 S
727 903 3U ,
755 902 27 36 /6U
$C
,RtB-l-V&(&8tA@:&jmtJ,fQKs8Qphs7Xn?f#%erX&bpJ~>
,
815 1016.5 15.5 0 P
2585 1016.5 -15.5 0 P
815 1072.5 15.5 0 P
2585 1072.5 -15.5 0 P
815 1112.5 15.5 0 P
2585 1112.5 -15.5 0 P
815 1143.5 15.5 0 P
2585 1143.5 -15.5 0 P
815 1169 15.5 0 P
2585 1169 -15.5 0 P
815 1190.5 15.5 0 P
2585 1190.5 -15.5 0 P
815 1209 15.5 0 P
2585 1209 -15.5 0 P
815 1225.5 15.5 0 P
2585 1225.5 -15.5 0 P
815 1240 31.5 0 P
2585 1240 -31.5 0 S
700 1223 3U ,
727 1222 6U ,
755 1222 6U ,
815 1336.5 15.5 0 P
2585 1336.5 -15.5 0 P
815 1392.5 15.5 0 P
2585 1392.5 -15.5 0 P
815 1432.5 15.5 0 P
2585 1432.5 -15.5 0 P
815 1463.5 15.5 0 P
2585 1463.5 -15.5 0 P
815 1489 15.5 0 P
2585 1489 -15.5 0 P
815 1510.5 15.5 0 P
2585 1510.5 -15.5 0 P
815 1529 15.5 0 P
2585 1529 -15.5 0 P
815 1545.5 15.5 0 P
2585 1545.5 -15.5 0 P
815 1560 31.5 0 P
2585 1560 -31.5 0 S
672 1543 3U ,
700 1542 6U ,
727 1542 6U ,
755 1542 6U ,
815 1656.5 15.5 0 P
2585 1656.5 -15.5 0 P
815 1712.5 15.5 0 P
2585 1712.5 -15.5 0 P
815 1752.5 15.5 0 P
2585 1752.5 -15.5 0 P
815 1783.5 15.5 0 P
2585 1783.5 -15.5 0 P
815 1809 15.5 0 P
2585 1809 -15.5 0 P
815 1830.5 15.5 0 P
2585 1830.5 -15.5 0 P
815 1849 15.5 0 P
2585 1849 -15.5 0 P
815 1865.5 15.5 0 P
2585 1865.5 -15.5 0 P
815 1880 31.5 0 P
2585 1880 -31.5 0 S
644 1863 3U ,
672 1862 6U ,
700 1862 6U ,
727 1862 6U ,
755 1862 6U ,
815 600 0 31.5 P
815 1880 0 -31.5 S
806 533 3U ,
992.5 600 0 15.5 P
992.5 1880 0 -15.5 P
1096.5 600 0 15.5 P
1096.5 1880 0 -15.5 P
1170 600 0 15.5 P
1170 1880 0 -15.5 P
1227.5 600 0 15.5 P
1227.5 1880 0 -15.5 P
1274 600 0 15.5 P
1274 1880 0 -15.5 P
1313.5 600 0 15.5 P
1313.5 1880 0 -15.5 P
1348 600 0 15.5 P
1348 1880 0 -15.5 P
1378 600 0 15.5 P
1378 1880 0 -15.5 P
1405 600 0 31.5 P
1405 1880 0 -31.5 S
1382 533 3U ,
1410 532 6U ,
1582.5 600 0 15.5 P
1582.5 1880 0 -15.5 P
1686.5 600 0 15.5 P
1686.5 1880 0 -15.5 P
1760 600 0 15.5 P
1760 1880 0 -15.5 P
1817.5 600 0 15.5 P
1817.5 1880 0 -15.5 P
1864 600 0 15.5 P
1864 1880 0 -15.5 P
1903.5 600 0 15.5 P
1903.5 1880 0 -15.5 P
1938 600 0 15.5 P
1938 1880 0 -15.5 P
1968 600 0 15.5 P
1968 1880 0 -15.5 P
1995 600 0 31.5 P
1995 1880 0 -31.5 S
1958 533 3U ,
1986 532 6U ,
2014 532 6U ,
2172.5 600 0 15.5 P
2172.5 1880 0 -15.5 P
2276.5 600 0 15.5 P
2276.5 1880 0 -15.5 P
2350 600 0 15.5 P
2350 1880 0 -15.5 P
2407.5 600 0 15.5 P
2407.5 1880 0 -15.5 P
2454 600 0 15.5 P
2454 1880 0 -15.5 P
2493.5 600 0 15.5 P
2493.5 1880 0 -15.5 P
2528 600 0 15.5 P
2528 1880 0 -15.5 P
2558 600 0 15.5 P
2558 1880 0 -15.5 P
2585 600 0 31.5 P
2585 1880 0 -31.5 S
2534 533 3U ,
2562 532 6U ,
2590 532 6U ,
2618 532 6U ,
815 600 1770 1280 re
S
2.5 w
815 1730.25 0 31.5 S
799.25 1746 31.5 0 S
992.5 1638.75 0 31.5 S
976.75 1654.5 31.5 0 S
1096.5 1560.25 0 31.5 S
1080.75 1576 31.5 0 S
1170 1498.75 0 31.5 S
1154.25 1514.5 31.5 0 S
1227.5 1441.25 0 31.5 S
1211.75 1457 31.5 0 S
1274 1403.25 0 31.5 S
1258.25 1419 31.5 0 S
1313.5 1338.75 0 31.5 S
1297.75 1354.5 31.5 0 S
1348 1287.75 0 31.5 S
1332.25 1303.5 31.5 0 S
1378 1277.75 0 31.5 S
1362.25 1293.5 31.5 0 S
1405 1258.75 0 31.5 S
1389.25 1274.5 31.5 0 S
1429.5 1224.25 0 31.5 S
1413.75 1240 31.5 0 S
1451.5 1189.75 0 31.5 S
1435.75 1205.5 31.5 0 S
1472 1191.25 0 31.5 S
1456.25 1207 31.5 0 S
1491 1148.75 0 31.5 S
1475.25 1164.5 31.5 0 S
1509 1116.25 0 31.5 S
1493.25 1132 31.5 0 S
1525.5 1130.75 0 31.5 S
1509.75 1146.5 31.5 0 S
1541 1031.75 0 31.5 S
1525.25 1047.5 31.5 0 S
1555.5 1042.25 0 31.5 S
1539.75 1058 31.5 0 S
1569.5 1025.75 0 31.5 S
1553.75 1041.5 31.5 0 S
1582.5 1047.25 0 31.5 S
1566.75 1063 31.5 0 S
1595 1013.75 0 31.5 S
1579.25 1029.5 31.5 0 S
1607 1047.25 0 31.5 S
1591.25 1063 31.5 0 S
1618.5 969.75 0 31.5 S
1602.75 985.5 31.5 0 S
1629.5 951.25 0 31.5 S
1613.75 967 31.5 0 S
1640 985.75 0 31.5 S
1624.25 1001.5 31.5 0 S
1650 917.25 0 31.5 S
1634.25 933 31.5 0 S
1659.5 960.75 0 31.5 S
1643.75 976.5 31.5 0 S
1669 917.25 0 31.5 S
1653.25 933 31.5 0 S
1678 951.25 0 31.5 S
1662.25 967 31.5 0 S
1686.5 904.25 0 31.5 S
1670.75 920 31.5 0 S
1695 929.75 0 31.5 S
1679.25 945.5 31.5 0 S
1703 833.25 0 31.5 S
1687.25 849 31.5 0 S
1711 873.25 0 31.5 S
1695.25 889 31.5 0 S
1718.5 873.25 0 31.5 S
1702.75 889 31.5 0 S
1726 854.75 0 31.5 S
1710.25 870.5 31.5 0 S
1733 833.25 0 31.5 S
1717.25 849 31.5 0 S
1740 736.75 0 31.5 S
1724.25 752.5 31.5 0 S
1747 680.75 0 31.5 S
1731.25 696.5 31.5 0 S
1753.5 873.25 0 31.5 S
1737.75 889 31.5 0 S
1760 736.75 0 31.5 S
1744.25 752.5 31.5 0 S
1766.5 889.75 0 31.5 S
1750.75 905.5 31.5 0 S
1772.5 680.75 0 31.5 S
1756.75 696.5 31.5 0 S
1778.5 776.75 0 31.5 S
1762.75 792.5 31.5 0 S
1784.5 854.75 0 31.5 S
1768.75 870.5 31.5 0 S
1790.5 736.75 0 31.5 S
1774.75 752.5 31.5 0 S
1796 807.75 0 31.5 S
1780.25 823.5 31.5 0 S
1801.5 776.75 0 31.5 S
1785.75 792.5 31.5 0 S
1807 776.75 0 31.5 S
1791.25 792.5 31.5 0 S
1812 776.75 0 31.5 S
1796.25 792.5 31.5 0 S
1817.5 680.75 0 31.5 S
1801.75 696.5 31.5 0 S
1822.5 736.75 0 31.5 S
1806.75 752.5 31.5 0 S
1827.5 776.75 0 31.5 S
1811.75 792.5 31.5 0 S
1832.5 584.25 0 31.5 S
1816.75 600 31.5 0 S
1837 680.75 0 31.5 S
1821.25 696.5 31.5 0 S
1842 680.75 0 31.5 S
1826.25 696.5 31.5 0 S
1846.5 584.25 0 31.5 S
1830.75 600 31.5 0 S
1851 680.75 0 31.5 S
1835.25 696.5 31.5 0 S
1855.5 736.75 0 31.5 S
1839.75 752.5 31.5 0 S
1860 584.25 0 31.5 S
1844.25 600 31.5 0 S
1864 584.25 0 31.5 S
1848.25 600 31.5 0 S
1868.5 680.75 0 31.5 S
1852.75 696.5 31.5 0 S
1872.5 584.25 0 31.5 S
1856.75 600 31.5 0 S
1884.5 680.75 0 31.5 S
1868.75 696.5 31.5 0 S
1892.5 584.25 0 31.5 S
1876.75 600 31.5 0 S
1896 833.25 0 31.5 S
1880.25 849 31.5 0 S
1900 584.25 0 31.5 S
1884.25 600 31.5 0 S
1903.5 736.75 0 31.5 S
1887.75 752.5 31.5 0 S
1907 776.75 0 31.5 S
1891.25 792.5 31.5 0 S
1911 584.25 0 31.5 S
1895.25 600 31.5 0 S
1914.5 584.25 0 31.5 S
1898.75 600 31.5 0 S
1921.5 584.25 0 31.5 S
1905.75 600 31.5 0 S
1924.5 736.75 0 31.5 S
1908.75 752.5 31.5 0 S
1931.5 584.25 0 31.5 S
1915.75 600 31.5 0 S
1934.5 680.75 0 31.5 S
1918.75 696.5 31.5 0 S
1938 776.75 0 31.5 S
1922.25 792.5 31.5 0 S
1941 584.25 0 31.5 S
1925.25 600 31.5 0 S
1944 736.75 0 31.5 S
1928.25 752.5 31.5 0 S
1947.5 584.25 0 31.5 S
1931.75 600 31.5 0 S
1953.5 680.75 0 31.5 S
1937.75 696.5 31.5 0 S
1959.5 584.25 0 31.5 S
1943.75 600 31.5 0 S
1965 584.25 0 31.5 S
1949.25 600 31.5 0 S
1971 584.25 0 31.5 S
1955.25 600 31.5 0 S
1973.5 680.75 0 31.5 S
1957.75 696.5 31.5 0 S
1976.5 680.75 0 31.5 S
1960.75 696.5 31.5 0 S
1982 584.25 0 31.5 S
1966.25 600 31.5 0 S
1987 584.25 0 31.5 S
1971.25 600 31.5 0 S
1990 584.25 0 31.5 S
1974.25 600 31.5 0 S
1992.5 584.25 0 31.5 S
1976.75 600 31.5 0 S
1997.5 584.25 0 31.5 S
1981.75 600 31.5 0 S
2000 584.25 0 31.5 S
1984.25 600 31.5 0 S
2005 584.25 0 31.5 S
1989.25 600 31.5 0 S
2014.5 584.25 0 31.5 S
1998.75 600 31.5 0 S
2019.5 584.25 0 31.5 S
2003.75 600 31.5 0 S
2035 584.25 0 31.5 S
2019.25 600 31.5 0 S
2046 584.25 0 31.5 S
2030.25 600 31.5 0 S
2048 584.25 0 31.5 S
2032.25 600 31.5 0 S
2050 584.25 0 31.5 S
2034.25 600 31.5 0 S
2081 584.25 0 31.5 S
2065.25 600 31.5 0 S
2109 584.25 0 31.5 S
2093.25 600 31.5 0 S
2110.5 584.25 0 31.5 S
2094.75 600 31.5 0 S
2117 680.75 0 31.5 S
2101.25 696.5 31.5 0 S
2129.5 584.25 0 31.5 S
2113.75 600 31.5 0 S
2145.5 584.25 0 31.5 S
2129.75 600 31.5 0 S
2155.5 680.75 0 31.5 S
2139.75 696.5 31.5 0 S
2162 584.25 0 31.5 S
2146.25 600 31.5 0 S
2167.5 584.25 0 31.5 S
2151.75 600 31.5 0 S
2217 584.25 0 31.5 S
2201.25 600 31.5 0 S
2237 584.25 0 31.5 S
2221.25 600 31.5 0 S
2305.5 584.25 0 31.5 S
2289.75 600 31.5 0 S
2432 584.25 0 31.5 S
2416.25 600 31.5 0 S
2442.5 584.25 0 31.5 S
2426.75 600 31.5 0 S
2483.5 584.25 0 31.5 S
2467.75 600 31.5 0 S
5 w
815 600 1770 1280 re
S
cleartomark end end pagesave restore
 showpage
%%PageTrailer
%%Trailer
%%Pages: 1
