%!PS-Adobe-3.0 EPSF-3.0
%%BoundingBox: 64 53 264 190
%%HiResBoundingBox: 64.400000 53.200000 263.100000 189.800000
%.....................................
%%Creator: GPL Ghostscript 871 (epswrite)
%%CreationDate: 2012/01/28 17:04:54
%%DocumentData: Clean7Bit
%%LanguageLevel: 2
%%EndComments
%%BeginProlog
% This copyright applies to everything between here and the %%EndProlog:
% Copyright (C) 2010 Artifex Software, Inc.  All rights reserved.
%%BeginResource: procset GS_epswrite_2_0_1001 1.001 0
/GS_epswrite_2_0_1001 80 dict dup begin
/PageSize 2 array def/setpagesize{ PageSize aload pop 3 index eq exch
4 index eq and{ pop pop pop}{ PageSize dup  1
5 -1 roll put 0 4 -1 roll put dup null eq {false} {dup where} ifelse{ exch get exec}
{ pop/setpagedevice where
{ pop 1 dict dup /PageSize PageSize put setpagedevice}
{ /setpage where{ pop PageSize aload pop pageparams 3 {exch pop} repeat
setpage}if}ifelse}ifelse}ifelse} bind def
/!{bind def}bind def/#{load def}!/N/counttomark #
/rG{3{3 -1 roll 255 div}repeat setrgbcolor}!/G{255 div setgray}!/K{0 G}!
/r6{dup 3 -1 roll rG}!/r5{dup 3 1 roll rG}!/r3{dup rG}!
/w/setlinewidth #/J/setlinecap #
/j/setlinejoin #/M/setmiterlimit #/d/setdash #/i/setflat #
/m/moveto #/l/lineto #/c/rcurveto #
/p{N 2 idiv{N -2 roll rlineto}repeat}!
/P{N 0 gt{N -2 roll moveto p}if}!
/h{p closepath}!/H{P closepath}!
/lx{0 rlineto}!/ly{0 exch rlineto}!/v{0 0 6 2 roll c}!/y{2 copy c}!
/re{4 -2 roll m exch dup lx exch ly neg lx h}!
/^{3 index neg 3 index neg}!
/f{P fill}!/f*{P eofill}!/s{H stroke}!/S{P stroke}!
/q/gsave #/Q/grestore #/rf{re fill}!
/Y{P clip newpath}!/Y*{P eoclip newpath}!/rY{re Y}!
/|={pop exch 4 1 roll 1 array astore cvx 3 array astore cvx exch 1 index def exec}!
/|{exch string readstring |=}!
/+{dup type/nametype eq{2 index 7 add -3 bitshift 2 index mul}if}!
/@/currentfile #/${+ @ |}!
/B{{2 copy string{readstring pop}aload pop 4 array astore cvx
3 1 roll}repeat pop pop true}!
/Ix{[1 0 0 1 11 -2 roll exch neg exch neg]exch}!
/,{true exch Ix imagemask}!/If{false exch Ix imagemask}!/I{exch Ix image}!
/Ic{exch Ix false 3 colorimage}!
/F{/Columns counttomark 3 add -2 roll/Rows exch/K -1/BlackIs1 true>>
/CCITTFaxDecode filter}!/FX{<</EndOfBlock false F}!
/X{/ASCII85Decode filter}!/@X{@ X}!/&2{2 index 2 index}!
/@F{@ &2<<F}!/@C{@X &2 FX}!
/$X{+ @X |}!/&4{4 index 4 index}!/$F{+ @ &4<<F |}!/$C{+ @X &4 FX |}!
/IC{3 1 roll 10 dict begin 1{/ImageType/Interpolate/Decode/DataSource
/ImageMatrix/BitsPerComponent/Height/Width}{exch def}forall
currentdict end image}!
/~{@ read {pop} if}!
end def
%%EndResource
/pagesave null def
%%EndProlog
%%Page: 1 1
%%BeginPageSetup
GS_epswrite_2_0_1001 begin
/pagesave save store 197 dict begin
0.1 0.1 scale
%%EndPageSetup
gsave mark
Q q
0 0 250000 250000 re
Y
5 w
K
815 600 31.5 0 P
2585 600 -31.5 0 S
755 583 19 35 /3U
$C
3kt^ps8W,jiVXZ9hg>~>
,
815 696.5 15.5 0 P
2585 696.5 -15.5 0 P
815 752.5 15.5 0 P
2585 752.5 -15.5 0 P
815 792.5 15.5 0 P
2585 792.5 -15.5 0 P
815 823.5 15.5 0 P
2585 823.5 -15.5 0 P
815 849 15.5 0 P
2585 849 -15.5 0 P
815 870.5 15.5 0 P
2585 870.5 -15.5 0 P
815 889 15.5 0 P
2585 889 -15.5 0 P
815 905.5 15.5 0 P
2585 905.5 -15.5 0 P
815 920 31.5 0 P
2585 920 -31.5 0 S
727 903 3U ,
755 902 27 36 /6U
$C
,RtB-l-V&(&8tA@:&jmtJ,fQKs8Qphs7Xn?f#%erX&bpJ~>
,
815 1016.5 15.5 0 P
2585 1016.5 -15.5 0 P
815 1072.5 15.5 0 P
2585 1072.5 -15.5 0 P
815 1112.5 15.5 0 P
2585 1112.5 -15.5 0 P
815 1143.5 15.5 0 P
2585 1143.5 -15.5 0 P
815 1169 15.5 0 P
2585 1169 -15.5 0 P
815 1190.5 15.5 0 P
2585 1190.5 -15.5 0 P
815 1209 15.5 0 P
2585 1209 -15.5 0 P
815 1225.5 15.5 0 P
2585 1225.5 -15.5 0 P
815 1240 31.5 0 P
2585 1240 -31.5 0 S
700 1223 3U ,
727 1222 6U ,
755 1222 6U ,
815 1336.5 15.5 0 P
2585 1336.5 -15.5 0 P
815 1392.5 15.5 0 P
2585 1392.5 -15.5 0 P
815 1432.5 15.5 0 P
2585 1432.5 -15.5 0 P
815 1463.5 15.5 0 P
2585 1463.5 -15.5 0 P
815 1489 15.5 0 P
2585 1489 -15.5 0 P
815 1510.5 15.5 0 P
2585 1510.5 -15.5 0 P
815 1529 15.5 0 P
2585 1529 -15.5 0 P
815 1545.5 15.5 0 P
2585 1545.5 -15.5 0 P
815 1560 31.5 0 P
2585 1560 -31.5 0 S
672 1543 3U ,
700 1542 6U ,
727 1542 6U ,
755 1542 6U ,
815 1656.5 15.5 0 P
2585 1656.5 -15.5 0 P
815 1712.5 15.5 0 P
2585 1712.5 -15.5 0 P
815 1752.5 15.5 0 P
2585 1752.5 -15.5 0 P
815 1783.5 15.5 0 P
2585 1783.5 -15.5 0 P
815 1809 15.5 0 P
2585 1809 -15.5 0 P
815 1830.5 15.5 0 P
2585 1830.5 -15.5 0 P
815 1849 15.5 0 P
2585 1849 -15.5 0 P
815 1865.5 15.5 0 P
2585 1865.5 -15.5 0 P
815 1880 31.5 0 P
2585 1880 -31.5 0 S
644 1863 3U ,
672 1862 6U ,
700 1862 6U ,
727 1862 6U ,
755 1862 6U ,
815 600 0 31.5 P
815 1880 0 -31.5 S
806 532 6U ,
1068 600 0 31.5 P
1068 1880 0 -31.5 S
1031 533 3U ,
1059 532 6U ,
1087 532 6U ,
1320.5 600 0 31.5 P
1320.5 1880 0 -31.5 S
1284 533 27 35 /3Y
$C
2@;[4:B,M)iS0)-LC?7`gc#\s^>.cKrn"2dL(^alX[.X~>
,
1312 532 6U ,
1339 532 6U ,
1573.5 600 0 31.5 P
1573.5 1880 0 -31.5 S
1537 532 27 36 /6Y
$C
-l*@R:7W!o_@=qCHe7<S<J7/%]%.k!-uRl(+91f@m4/Wc<inZ>J,~>
,
1565 532 6U ,
1592 532 6U ,
1826.5 600 0 31.5 P
1826.5 1880 0 -31.5 S
1790 533 28 35 /4C
$C
,9QscjoEHmBJ1I:n$h2`n$h2`n%WeMj1YE[If~>
,
1818 532 6U ,
1845 532 6U ,
2079.5 600 0 31.5 P
2079.5 1880 0 -31.5 S
2043 532 27 36 /7C
$C
-l*A5K;Xmq83WN=s3kKXX\Lb-iInI>[?fa\s8B_'"@)e~>
,
2071 532 6U ,
2098 532 6U ,
2332 600 0 31.5 P
2332 1880 0 -31.5 S
2295 532 27 36 /4G
$C
,RtB-*BGLlPNfYSm[r,2qb-^"Ya-djFi.H<\D.$oK7;7W[aN2*=AZkb~>
,
2323 532 6U ,
2351 532 6U ,
2585 600 0 31.5 P
2585 1880 0 -31.5 S
2548 533 28 35 /7G
$C
1dCHDJ%P[:g\1T\Dqj+8me6C#YV5b~>
,
2576 532 6U ,
2604 532 6U ,
815 600 1770 1280 re
S
2.5 w
817.5 1730.25 0 31.5 S
801.75 1746 31.5 0 S
820 1638.75 0 31.5 S
804.25 1654.5 31.5 0 S
822.5 1560.25 0 31.5 S
806.75 1576 31.5 0 S
825 1498.75 0 31.5 S
809.25 1514.5 31.5 0 S
827.5 1441.25 0 31.5 S
811.75 1457 31.5 0 S
830 1403.25 0 31.5 S
814.25 1419 31.5 0 S
832.5 1338.75 0 31.5 S
816.75 1354.5 31.5 0 S
835 1287.75 0 31.5 S
819.25 1303.5 31.5 0 S
838 1277.75 0 31.5 S
822.25 1293.5 31.5 0 S
840.5 1258.75 0 31.5 S
824.75 1274.5 31.5 0 S
843 1224.25 0 31.5 S
827.25 1240 31.5 0 S
845.5 1189.75 0 31.5 S
829.75 1205.5 31.5 0 S
848 1191.25 0 31.5 S
832.25 1207 31.5 0 S
850.5 1148.75 0 31.5 S
834.75 1164.5 31.5 0 S
853 1116.25 0 31.5 S
837.25 1132 31.5 0 S
855.5 1130.75 0 31.5 S
839.75 1146.5 31.5 0 S
858 1031.75 0 31.5 S
842.25 1047.5 31.5 0 S
860.5 1042.25 0 31.5 S
844.75 1058 31.5 0 S
863 1025.75 0 31.5 S
847.25 1041.5 31.5 0 S
865.5 1047.25 0 31.5 S
849.75 1063 31.5 0 S
868 1013.75 0 31.5 S
852.25 1029.5 31.5 0 S
870.5 1047.25 0 31.5 S
854.75 1063 31.5 0 S
873 969.75 0 31.5 S
857.25 985.5 31.5 0 S
875.5 951.25 0 31.5 S
859.75 967 31.5 0 S
878 985.75 0 31.5 S
862.25 1001.5 31.5 0 S
880.5 917.25 0 31.5 S
864.75 933 31.5 0 S
883.5 960.75 0 31.5 S
867.75 976.5 31.5 0 S
886 917.25 0 31.5 S
870.25 933 31.5 0 S
888.5 951.25 0 31.5 S
872.75 967 31.5 0 S
891 904.25 0 31.5 S
875.25 920 31.5 0 S
893.5 929.75 0 31.5 S
877.75 945.5 31.5 0 S
896 833.25 0 31.5 S
880.25 849 31.5 0 S
898.5 873.25 0 31.5 S
882.75 889 31.5 0 S
901 873.25 0 31.5 S
885.25 889 31.5 0 S
903.5 854.75 0 31.5 S
887.75 870.5 31.5 0 S
906 833.25 0 31.5 S
890.25 849 31.5 0 S
908.5 736.75 0 31.5 S
892.75 752.5 31.5 0 S
911 680.75 0 31.5 S
895.25 696.5 31.5 0 S
913.5 873.25 0 31.5 S
897.75 889 31.5 0 S
916 736.75 0 31.5 S
900.25 752.5 31.5 0 S
918.5 889.75 0 31.5 S
902.75 905.5 31.5 0 S
921 680.75 0 31.5 S
905.25 696.5 31.5 0 S
923.5 776.75 0 31.5 S
907.75 792.5 31.5 0 S
926.5 854.75 0 31.5 S
910.75 870.5 31.5 0 S
929 736.75 0 31.5 S
913.25 752.5 31.5 0 S
931.5 807.75 0 31.5 S
915.75 823.5 31.5 0 S
934 776.75 0 31.5 S
918.25 792.5 31.5 0 S
936.5 776.75 0 31.5 S
920.75 792.5 31.5 0 S
939 776.75 0 31.5 S
923.25 792.5 31.5 0 S
941.5 680.75 0 31.5 S
925.75 696.5 31.5 0 S
944 736.75 0 31.5 S
928.25 752.5 31.5 0 S
946.5 776.75 0 31.5 S
930.75 792.5 31.5 0 S
949 584.25 0 31.5 S
933.25 600 31.5 0 S
951.5 680.75 0 31.5 S
935.75 696.5 31.5 0 S
954 680.75 0 31.5 S
938.25 696.5 31.5 0 S
956.5 584.25 0 31.5 S
940.75 600 31.5 0 S
959 680.75 0 31.5 S
943.25 696.5 31.5 0 S
961.5 736.75 0 31.5 S
945.75 752.5 31.5 0 S
964 584.25 0 31.5 S
948.25 600 31.5 0 S
966.5 584.25 0 31.5 S
950.75 600 31.5 0 S
969 680.75 0 31.5 S
953.25 696.5 31.5 0 S
972 584.25 0 31.5 S
956.25 600 31.5 0 S
979.5 680.75 0 31.5 S
963.75 696.5 31.5 0 S
984.5 584.25 0 31.5 S
968.75 600 31.5 0 S
987 833.25 0 31.5 S
971.25 849 31.5 0 S
989.5 584.25 0 31.5 S
973.75 600 31.5 0 S
992 736.75 0 31.5 S
976.25 752.5 31.5 0 S
994.5 776.75 0 31.5 S
978.75 792.5 31.5 0 S
997 584.25 0 31.5 S
981.25 600 31.5 0 S
999.5 584.25 0 31.5 S
983.75 600 31.5 0 S
1004.5 584.25 0 31.5 S
988.75 600 31.5 0 S
1007 736.75 0 31.5 S
991.25 752.5 31.5 0 S
1012 584.25 0 31.5 S
996.25 600 31.5 0 S
1015 680.75 0 31.5 S
999.25 696.5 31.5 0 S
1017.5 776.75 0 31.5 S
1001.75 792.5 31.5 0 S
1020 584.25 0 31.5 S
1004.25 600 31.5 0 S
1022.5 736.75 0 31.5 S
1006.75 752.5 31.5 0 S
1025 584.25 0 31.5 S
1009.25 600 31.5 0 S
1030 680.75 0 31.5 S
1014.25 696.5 31.5 0 S
1035 584.25 0 31.5 S
1019.25 600 31.5 0 S
1040 584.25 0 31.5 S
1024.25 600 31.5 0 S
1045 584.25 0 31.5 S
1029.25 600 31.5 0 S
1047.5 680.75 0 31.5 S
1031.75 696.5 31.5 0 S
1050 680.75 0 31.5 S
1034.25 696.5 31.5 0 S
1055 584.25 0 31.5 S
1039.25 600 31.5 0 S
1060.5 584.25 0 31.5 S
1044.75 600 31.5 0 S
1063 584.25 0 31.5 S
1047.25 600 31.5 0 S
1065.5 584.25 0 31.5 S
1049.75 600 31.5 0 S
1070.5 584.25 0 31.5 S
1054.75 600 31.5 0 S
1073 584.25 0 31.5 S
1057.25 600 31.5 0 S
1078 584.25 0 31.5 S
1062.25 600 31.5 0 S
1088 584.25 0 31.5 S
1072.25 600 31.5 0 S
1093 584.25 0 31.5 S
1077.25 600 31.5 0 S
1111 584.25 0 31.5 S
1095.25 600 31.5 0 S
1123.5 584.25 0 31.5 S
1107.75 600 31.5 0 S
1126 584.25 0 31.5 S
1110.25 600 31.5 0 S
1128.5 584.25 0 31.5 S
1112.75 600 31.5 0 S
1169 584.25 0 31.5 S
1153.25 600 31.5 0 S
1209.5 584.25 0 31.5 S
1193.75 600 31.5 0 S
1212 584.25 0 31.5 S
1196.25 600 31.5 0 S
1222 680.75 0 31.5 S
1206.25 696.5 31.5 0 S
1242.5 584.25 0 31.5 S
1226.75 600 31.5 0 S
1270 584.25 0 31.5 S
1254.25 600 31.5 0 S
1288 680.75 0 31.5 S
1272.25 696.5 31.5 0 S
1300.5 584.25 0 31.5 S
1284.75 600 31.5 0 S
1310.5 584.25 0 31.5 S
1294.75 600 31.5 0 S
1417 584.25 0 31.5 S
1401.25 600 31.5 0 S
1465 584.25 0 31.5 S
1449.25 600 31.5 0 S
1664.5 584.25 0 31.5 S
1648.75 600 31.5 0 S
2205.5 584.25 0 31.5 S
2189.75 600 31.5 0 S
2264 584.25 0 31.5 S
2248.25 600 31.5 0 S
2516.5 584.25 0 31.5 S
2500.75 600 31.5 0 S
5 w
815 600 1770 1280 re
S
cleartomark end end pagesave restore
 showpage
%%PageTrailer
%%Trailer
%%Pages: 1
