%!PS-Adobe-3.0 EPSF-3.0
%%Title: stream-clustering.fig
%%Creator: fig2dev Version 3.2 Patchlevel 5e
%%CreationDate: Mon Jul 25 11:47:32 2016
%%BoundingBox: 0 0 191 83
%Magnification: 1.0000
%%EndComments
%%BeginProlog
/$F2psDict 200 dict def
$F2psDict begin
$F2psDict /mtrx matrix put
/col-1 {0 setgray} bind def
/col0 {0.000 0.000 0.000 srgb} bind def
/col1 {0.000 0.000 1.000 srgb} bind def
/col2 {0.000 1.000 0.000 srgb} bind def
/col3 {0.000 1.000 1.000 srgb} bind def
/col4 {1.000 0.000 0.000 srgb} bind def
/col5 {1.000 0.000 1.000 srgb} bind def
/col6 {1.000 1.000 0.000 srgb} bind def
/col7 {1.000 1.000 1.000 srgb} bind def
/col8 {0.000 0.000 0.560 srgb} bind def
/col9 {0.000 0.000 0.690 srgb} bind def
/col10 {0.000 0.000 0.820 srgb} bind def
/col11 {0.530 0.810 1.000 srgb} bind def
/col12 {0.000 0.560 0.000 srgb} bind def
/col13 {0.000 0.690 0.000 srgb} bind def
/col14 {0.000 0.820 0.000 srgb} bind def
/col15 {0.000 0.560 0.560 srgb} bind def
/col16 {0.000 0.690 0.690 srgb} bind def
/col17 {0.000 0.820 0.820 srgb} bind def
/col18 {0.560 0.000 0.000 srgb} bind def
/col19 {0.690 0.000 0.000 srgb} bind def
/col20 {0.820 0.000 0.000 srgb} bind def
/col21 {0.560 0.000 0.560 srgb} bind def
/col22 {0.690 0.000 0.690 srgb} bind def
/col23 {0.820 0.000 0.820 srgb} bind def
/col24 {0.500 0.190 0.000 srgb} bind def
/col25 {0.630 0.250 0.000 srgb} bind def
/col26 {0.750 0.380 0.000 srgb} bind def
/col27 {1.000 0.500 0.500 srgb} bind def
/col28 {1.000 0.630 0.630 srgb} bind def
/col29 {1.000 0.750 0.750 srgb} bind def
/col30 {1.000 0.880 0.880 srgb} bind def
/col31 {1.000 0.840 0.000 srgb} bind def
/col32 {0.000 0.000 0.000 srgb} bind def
/col33 {0.980 0.941 0.902 srgb} bind def
/col34 {0.851 0.851 0.851 srgb} bind def

end

/cp {closepath} bind def
/ef {eofill} bind def
/gr {grestore} bind def
/gs {gsave} bind def
/sa {save} bind def
/rs {restore} bind def
/l {lineto} bind def
/m {moveto} bind def
/rm {rmoveto} bind def
/n {newpath} bind def
/s {stroke} bind def
/sh {show} bind def
/slc {setlinecap} bind def
/slj {setlinejoin} bind def
/slw {setlinewidth} bind def
/srgb {setrgbcolor} bind def
/rot {rotate} bind def
/sc {scale} bind def
/sd {setdash} bind def
/ff {findfont} bind def
/sf {setfont} bind def
/scf {scalefont} bind def
/sw {stringwidth} bind def
/tr {translate} bind def
/tnt {dup dup currentrgbcolor
  4 -2 roll dup 1 exch sub 3 -1 roll mul add
  4 -2 roll dup 1 exch sub 3 -1 roll mul add
  4 -2 roll dup 1 exch sub 3 -1 roll mul add srgb}
  bind def
/shd {dup dup currentrgbcolor 4 -2 roll mul 4 -2 roll mul
  4 -2 roll mul srgb} bind def
 /DrawEllipse {
	/endangle exch def
	/startangle exch def
	/yrad exch def
	/xrad exch def
	/y exch def
	/x exch def
	/savematrix mtrx currentmatrix def
	x y tr xrad yrad sc 0 0 1 startangle endangle arc
	closepath
	savematrix setmatrix
	} def

/$F2psBegin {$F2psDict begin /$F2psEnteredState save def} def
/$F2psEnd {$F2psEnteredState restore end} def

/pageheader {
save
newpath 0 83 moveto 0 0 lineto 191 0 lineto 191 83 lineto closepath clip newpath
-809.3 221.0 translate
1 -1 scale
$F2psBegin
10 setmiterlimit
0 slj 0 slc
 0.06000 0.06000 sc
} bind def
/pagefooter {
$F2psEnd
restore
} bind def
%%EndProlog
pageheader
%
% Fig objects follow
%
% 
% here starts figure with depth 52
% Ellipse
7.500 slw
n 14250 2400 27 27 0 360 DrawEllipse gs 0.00 setgray ef gr gs col0 s gr

% Ellipse
n 14100 2400 27 27 0 360 DrawEllipse gs 0.00 setgray ef gr gs col0 s gr

% Ellipse
n 14250 3300 27 27 0 360 DrawEllipse gs 0.00 setgray ef gr gs col0 s gr

% Polyline
0 slj
0 slc
 [60] 0 sd
n 14100 2400 m
 16650 2400 l gs col0 s gr  [] 0 sd
% Polyline
n 14250 2400 m
 14250 2700 l gs 0.00 setgray ef gr gs col0 s gr 
% Polyline
n 14100 2400 m
 14100 3000 l gs 0.00 setgray ef gr gs col0 s gr 
% Polyline
n 14250 2550 m
 16500 2550 l gs 0.00 setgray ef gr gs col0 s gr 
% Polyline
n 14100 2850 m
 16200 2850 l gs 0.00 setgray ef gr gs col0 s gr 
% Polyline
n 14400 3000 m
 14400 3300 l gs 0.00 setgray ef gr gs col0 s gr 
% Polyline
n 14250 3300 m
 14250 3600 l gs 0.00 setgray ef gr gs col0 s gr 
% Polyline
n 14550 2700 m
 14550 3300 l gs 0.00 setgray ef gr gs col0 s gr 
% Polyline
n 14850 3000 m
 14850 3600 l gs 0.00 setgray ef gr gs col0 s gr 
% Polyline
n 14400 3150 m
 15900 3150 l gs 0.00 setgray ef gr gs col0 s gr 
% Polyline
n 14250 3450 m
 16050 3450 l gs 0.00 setgray ef gr gs col0 s gr 
% Polyline
n 14550 3075 m
 15750 3075 l gs 0.00 setgray ef gr gs col0 s gr 
% Polyline
n 14850 3375 m
 16050 3375 l gs 0.00 setgray ef gr gs col0 s gr 
% Polyline
0.000 slw
n 14253 2678 m 16498 2678 l 16498 2732 l 14253 2732 l
 cp gs col11 1.00 shd ef gr 
% Polyline
n 14395 3278 m 15895 3278 l 15895 3331 l 14395 3331 l
 cp gs col11 1.00 shd ef gr 
% Polyline
n 14253 3575 m 16045 3575 l 16045 3628 l 14253 3628 l
 cp gs col11 1.00 shd ef gr 
% Polyline
7.500 slw
 [60] 0 sd
n 14100 3600 m
 16650 3600 l gs col0 s gr  [] 0 sd
% Polyline
 [60] 0 sd
n 14100 3300 m
 16650 3300 l gs col0 s gr  [] 0 sd
/Times-Roman ff 233.33 scf sf
13946 2750 m
gs 1 -1 sc (a) col0 sh gr
/Times-Roman ff 233.33 scf sf
13943 3054 m
gs 1 -1 sc (b) col0 sh gr
/Times-Roman ff 233.33 scf sf
13939 3345 m
gs 1 -1 sc (u) col0 sh gr
/Times-Roman ff 233.33 scf sf
13939 3653 m
gs 1 -1 sc (x) col0 sh gr
/Times-Roman ff 233.33 scf sf
13943 2462 m
gs 1 -1 sc (v) col0 sh gr
% Polyline
0.000 slw
n 14102 2967 m 16201 2967 l 16201 3029 l 14102 3029 l
 cp gs col11 1.00 shd ef gr 
% Polyline
7.500 slw
n 13575 2475 m
 13575 2325 l gs col0 s gr 
% Polyline
n 13500 2325 m
 13650 2325 l gs col0 s gr 
% Polyline
n 13575 3525 m
 13575 3375 l gs col0 s gr 
% Polyline
n 13500 3375 m
 13650 3375 l gs col0 s gr 
% Polyline
n 13575 2925 m
 13575 2775 l gs col0 s gr 
% Polyline
n 13500 2925 m
 13650 2925 l gs col0 s gr 
% Arc
n 14175.0 2850.0 375.0 -143.1301 143.1301 arcn
gs col0 s gr

% Arc
n 14175.0 3450.0 375.0 -143.1301 143.1301 arcn
gs col0 s gr

% Arc
n 13875.0 2400.0 75.0 90.0000 -90.0000 arc
gs col0 s gr

% Ellipse
n 14250 2700 27 27 0 360 DrawEllipse gs 0.00 setgray ef gr gs col0 s gr

% Ellipse
n 14550 2700 27 27 0 360 DrawEllipse gs 0.00 setgray ef gr gs col0 s gr

% Ellipse
n 14850 3000 27 27 0 360 DrawEllipse gs 0.00 setgray ef gr gs col0 s gr

% Ellipse
n 14400 3000 27 27 0 360 DrawEllipse gs 0.00 setgray ef gr gs col0 s gr

% Ellipse
n 14100 3000 27 27 0 360 DrawEllipse gs 0.00 setgray ef gr gs col0 s gr

% Ellipse
n 14400 3300 27 27 0 360 DrawEllipse gs 0.00 setgray ef gr gs col0 s gr

% Ellipse
n 14550 3300 27 27 0 360 DrawEllipse gs 0.00 setgray ef gr gs col0 s gr

% Ellipse
n 14850 3600 27 27 0 360 DrawEllipse gs 0.00 setgray ef gr gs col0 s gr

% Ellipse
n 14250 3600 27 27 0 360 DrawEllipse gs 0.00 setgray ef gr gs col0 s gr

% Polyline
 [60] 0 sd
n 14100 3000 m
 16650 3000 l gs col0 s gr  [] 0 sd
% Polyline
 [60] 0 sd
n 14100 2700 m
 16650 2700 l gs col0 s gr  [] 0 sd
% here ends figure;
pagefooter
showpage
%%Trailer
%EOF
