#FIG 3.2  Produced by xfig version 3.2.5c
Landscape
Center
Metric
A4      
100.00
Single
-2
1200 2
1 3 0 1 0 12 48 -1 20 4.000 1 0.0000 2025 4050 45 45 2025 4050 2070 4050
1 3 0 1 0 12 48 -1 20 4.000 1 0.0000 2025 3600 45 45 2025 3600 2070 3600
1 3 0 1 0 10 48 -1 20 4.000 1 0.0000 1800 3150 45 45 1800 3150 1845 3150
1 3 0 1 0 10 48 -1 20 4.000 1 0.0000 1800 3600 45 45 1800 3600 1845 3600
1 3 0 1 0 20 48 -1 20 4.000 1 0.0000 3375 4050 45 45 3375 4050 3420 4050
1 3 0 1 0 20 48 -1 20 4.000 1 0.0000 3375 3150 45 45 3375 3150 3420 3150
1 3 0 1 0 20 48 -1 20 4.000 1 0.0000 2925 4050 45 45 2925 4050 2970 4050
1 3 0 1 0 20 48 -1 20 4.000 1 0.0000 2925 4500 45 45 2925 4500 2970 4500
2 1 1 1 0 0 49 -1 20 4.000 0 0 -1 0 0 2
	 1575 3600 4275 3600
2 1 1 1 0 0 49 -1 20 4.000 0 0 -1 0 0 2
	 1575 4050 4275 4050
2 1 1 1 0 0 49 -1 20 4.000 0 0 -1 0 0 2
	 1575 4500 4275 4500
2 1 1 1 0 0 49 -1 20 4.000 0 0 -1 0 0 2
	 1575 3150 4275 3150
2 1 0 1 0 0 49 -1 20 4.000 0 0 -1 1 0 2
	1 1 1.00 60.00 120.00
	 1575 4725 4275 4725
2 1 0 1 0 0 49 -1 20 4.000 0 0 -1 0 0 2
	 2025 4725 2025 4680
2 1 0 1 0 0 49 -1 20 4.000 0 0 -1 0 0 2
	 2475 4725 2475 4680
2 1 0 1 0 0 49 -1 20 4.000 0 0 -1 0 0 2
	 2925 4725 2925 4680
2 1 0 1 0 0 49 -1 20 4.000 0 0 -1 0 0 2
	 3375 4725 3375 4680
2 1 0 1 0 0 49 -1 20 4.000 0 0 -1 0 0 2
	 3825 4725 3825 4680
2 1 0 1 10 10 49 -1 20 4.000 0 0 7 0 0 2
	 1800 3375 2475 3375
2 1 0 1 10 10 49 -1 20 4.000 0 0 7 0 0 2
	 1800 3150 1800 3600
2 1 0 1 20 20 49 -1 20 4.000 0 0 7 0 0 2
	 3375 3555 4050 3555
2 1 0 1 20 20 49 -1 20 4.000 0 0 7 0 0 2
	 3375 3150 3375 4050
2 1 0 1 20 20 49 -1 20 4.000 0 0 7 0 0 2
	 2925 4275 4050 4275
2 1 0 1 20 20 49 -1 20 4.000 0 0 7 0 0 2
	 2925 4050 2925 4500
2 1 0 1 12 12 49 -1 20 4.000 0 0 7 0 0 2
	 2025 3825 3150 3825
2 1 0 1 12 12 49 -1 20 4.000 0 0 7 0 0 2
	 2025 3600 2025 4050
4 0 0 49 -1 0 13 0.0000 4 90 90 1350 3195 a\001
4 0 0 49 -1 0 13 0.0000 4 135 105 1350 3645 b\001
4 0 0 49 -1 0 13 0.0000 4 90 90 1350 4095 c\001
4 0 0 49 -1 0 13 0.0000 4 135 105 1350 4545 d\001
4 0 0 49 -1 0 10 0.0000 4 105 90 1980 4950 2\001
4 0 0 49 -1 0 10 0.0000 4 120 90 2880 4950 6\001
4 0 0 49 -1 0 10 0.0000 4 105 180 3735 4950 10\001
4 0 0 49 -1 0 13 0.0000 4 135 375 4185 4950 time\001
