%!PS-Adobe-3.0 EPSF-3.0
%%Title: stream-example.fig
%%Creator: fig2dev Version 3.2 Patchlevel 5e
%%CreationDate: Sat Jul  9 22:42:25 2016
%%BoundingBox: 0 0 358 175
%Magnification: 1.0000
%%EndComments
%%BeginProlog
/$F2psDict 200 dict def
$F2psDict begin
$F2psDict /mtrx matrix put
/col-1 {0 setgray} bind def
/col0 {0.000 0.000 0.000 srgb} bind def
/col1 {0.000 0.000 1.000 srgb} bind def
/col2 {0.000 1.000 0.000 srgb} bind def
/col3 {0.000 1.000 1.000 srgb} bind def
/col4 {1.000 0.000 0.000 srgb} bind def
/col5 {1.000 0.000 1.000 srgb} bind def
/col6 {1.000 1.000 0.000 srgb} bind def
/col7 {1.000 1.000 1.000 srgb} bind def
/col8 {0.000 0.000 0.560 srgb} bind def
/col9 {0.000 0.000 0.690 srgb} bind def
/col10 {0.000 0.000 0.820 srgb} bind def
/col11 {0.530 0.810 1.000 srgb} bind def
/col12 {0.000 0.560 0.000 srgb} bind def
/col13 {0.000 0.690 0.000 srgb} bind def
/col14 {0.000 0.820 0.000 srgb} bind def
/col15 {0.000 0.560 0.560 srgb} bind def
/col16 {0.000 0.690 0.690 srgb} bind def
/col17 {0.000 0.820 0.820 srgb} bind def
/col18 {0.560 0.000 0.000 srgb} bind def
/col19 {0.690 0.000 0.000 srgb} bind def
/col20 {0.820 0.000 0.000 srgb} bind def
/col21 {0.560 0.000 0.560 srgb} bind def
/col22 {0.690 0.000 0.690 srgb} bind def
/col23 {0.820 0.000 0.820 srgb} bind def
/col24 {0.500 0.190 0.000 srgb} bind def
/col25 {0.630 0.250 0.000 srgb} bind def
/col26 {0.750 0.380 0.000 srgb} bind def
/col27 {1.000 0.500 0.500 srgb} bind def
/col28 {1.000 0.630 0.630 srgb} bind def
/col29 {1.000 0.750 0.750 srgb} bind def
/col30 {1.000 0.880 0.880 srgb} bind def
/col31 {1.000 0.840 0.000 srgb} bind def

end

/cp {closepath} bind def
/ef {eofill} bind def
/gr {grestore} bind def
/gs {gsave} bind def
/sa {save} bind def
/rs {restore} bind def
/l {lineto} bind def
/m {moveto} bind def
/rm {rmoveto} bind def
/n {newpath} bind def
/s {stroke} bind def
/sh {show} bind def
/slc {setlinecap} bind def
/slj {setlinejoin} bind def
/slw {setlinewidth} bind def
/srgb {setrgbcolor} bind def
/rot {rotate} bind def
/sc {scale} bind def
/sd {setdash} bind def
/ff {findfont} bind def
/sf {setfont} bind def
/scf {scalefont} bind def
/sw {stringwidth} bind def
/tr {translate} bind def
/tnt {dup dup currentrgbcolor
  4 -2 roll dup 1 exch sub 3 -1 roll mul add
  4 -2 roll dup 1 exch sub 3 -1 roll mul add
  4 -2 roll dup 1 exch sub 3 -1 roll mul add srgb}
  bind def
/shd {dup dup currentrgbcolor 4 -2 roll mul 4 -2 roll mul
  4 -2 roll mul srgb} bind def
 /DrawEllipse {
	/endangle exch def
	/startangle exch def
	/yrad exch def
	/xrad exch def
	/y exch def
	/x exch def
	/savematrix mtrx currentmatrix def
	x y tr xrad yrad sc 0 0 1 startangle endangle arc
	closepath
	savematrix setmatrix
	} def

/$F2psBegin {$F2psDict begin /$F2psEnteredState save def} def
/$F2psEnd {$F2psEnteredState restore end} def

/pageheader {
save
newpath 0 175 moveto 0 0 lineto 358 0 lineto 358 175 lineto closepath clip newpath
-192.6 305.6 translate
1 -1 scale
$F2psBegin
10 setmiterlimit
0 slj 0 slc
 0.06000 0.06000 sc
} bind def
/pagefooter {
$F2psEnd
restore
} bind def
%%EndProlog
pageheader
%
% Fig objects follow
%
% 
% here starts figure with depth 50
% Ellipse
0.000 slw
n 3750 2250 32 32 0 360 DrawEllipse gs col7 0.00 shd ef gr 
% Ellipse
n 3750 2700 32 32 0 360 DrawEllipse gs col7 0.00 shd ef gr 
% Ellipse
n 4050 2700 32 32 0 360 DrawEllipse gs col7 0.00 shd ef gr 
% Ellipse
n 4050 3150 32 32 0 360 DrawEllipse gs col7 0.00 shd ef gr 
% Ellipse
n 3900 3600 32 32 0 360 DrawEllipse gs col7 0.00 shd ef gr 
% Ellipse
n 3900 4050 32 32 0 360 DrawEllipse gs col7 0.00 shd ef gr 
% Ellipse
n 4350 3600 32 32 0 360 DrawEllipse gs col7 0.00 shd ef gr 
% Ellipse
n 4350 4050 32 32 0 360 DrawEllipse gs col7 0.00 shd ef gr 
% Ellipse
n 4650 3600 32 32 0 360 DrawEllipse gs col7 0.00 shd ef gr 
% Ellipse
n 4650 4050 32 32 0 360 DrawEllipse gs col7 0.00 shd ef gr 
% Ellipse
n 5250 4950 32 32 0 360 DrawEllipse gs col7 0.00 shd ef gr 
% Ellipse
n 5250 4050 32 32 0 360 DrawEllipse gs col7 0.00 shd ef gr 
% Ellipse
n 5100 3600 32 32 0 360 DrawEllipse gs col7 0.00 shd ef gr 
% Ellipse
n 5100 4500 32 32 0 360 DrawEllipse gs col7 0.00 shd ef gr 
% Ellipse
n 5850 2250 32 32 0 360 DrawEllipse gs col7 0.00 shd ef gr 
% Ellipse
n 5850 2700 32 32 0 360 DrawEllipse gs col7 0.00 shd ef gr 
% Ellipse
n 6150 2700 32 32 0 360 DrawEllipse gs col7 0.00 shd ef gr 
% Ellipse
n 6150 3150 32 32 0 360 DrawEllipse gs col7 0.00 shd ef gr 
% Ellipse
n 6600 3150 32 32 0 360 DrawEllipse gs col7 0.00 shd ef gr 
% Ellipse
n 6600 2250 32 32 0 360 DrawEllipse gs col7 0.00 shd ef gr 
% Ellipse
n 7800 4050 32 32 0 360 DrawEllipse gs col7 0.00 shd ef gr 
% Ellipse
n 7800 4500 32 32 0 360 DrawEllipse gs col7 0.00 shd ef gr 
% Ellipse
n 8100 4500 32 32 0 360 DrawEllipse gs col7 0.00 shd ef gr 
% Ellipse
n 8100 4950 32 32 0 360 DrawEllipse gs col7 0.00 shd ef gr 
% Ellipse
n 8400 4500 32 32 0 360 DrawEllipse gs col7 0.00 shd ef gr 
% Ellipse
n 8400 4050 32 32 0 360 DrawEllipse gs col7 0.00 shd ef gr 
% Ellipse
n 8700 4500 32 32 0 360 DrawEllipse gs col7 0.00 shd ef gr 
% Ellipse
n 8700 4950 32 32 0 360 DrawEllipse gs col7 0.00 shd ef gr 
% Ellipse
n 8850 4050 32 32 0 360 DrawEllipse gs col7 0.00 shd ef gr 
% Ellipse
n 8850 4500 32 32 0 360 DrawEllipse gs col7 0.00 shd ef gr 
% Ellipse
n 3600 3150 32 32 0 360 DrawEllipse gs col7 0.00 shd ef gr 
% Ellipse
n 3600 3600 32 32 0 360 DrawEllipse gs col7 0.00 shd ef gr 
% Polyline
0 slj
0 slc
7.500 slw
 [60] 0 sd
n 3450 2250 m
 9150 2250 l gs col0 s gr  [] 0 sd
% Polyline
 [60] 0 sd
n 3450 2700 m
 9150 2700 l gs col0 s gr  [] 0 sd
% Polyline
 [60] 0 sd
n 3450 3150 m
 9150 3150 l gs col0 s gr  [] 0 sd
% Polyline
 [60] 0 sd
n 3450 3600 m
 9150 3600 l gs col0 s gr  [] 0 sd
% Polyline
 [60] 0 sd
n 3450 4050 m
 9150 4050 l gs col0 s gr  [] 0 sd
% Polyline
 [60] 0 sd
n 3450 4500 m
 9150 4500 l gs col0 s gr  [] 0 sd
% Polyline
 [60] 0 sd
n 3450 4950 m
 9150 4950 l gs col0 s gr  [] 0 sd
% Polyline
n 3750 2250 m
 3750 2700 l gs col0 s gr 
% Polyline
n 4050 2700 m
 4050 3150 l gs col0 s gr 
% Polyline
n 3900 3600 m
 3900 4050 l gs col0 s gr 
% Polyline
n 4350 3600 m
 4350 4050 l gs col0 s gr 
% Polyline
n 4650 3600 m
 4650 4050 l gs col0 s gr 
% Polyline
n 5250 4050 m
 5250 4950 l gs col0 s gr 
% Polyline
n 5100 3600 m
 5100 4500 l gs col0 s gr 
% Polyline
n 5850 2250 m
 5850 2700 l gs col0 s gr 
% Polyline
n 6150 2700 m
 6150 3150 l gs col0 s gr 
% Polyline
n 6600 2250 m
 6600 3150 l gs col0 s gr 
% Polyline
n 3750 2475 m
 4950 2475 l gs col0 s gr 
% Polyline
n 4050 2925 m
 4800 2925 l gs col0 s gr 
% Polyline
n 3900 3825 m
 4200 3825 l gs col0 s gr 
% Polyline
n 4350 3825 m
 4500 3825 l gs col0 s gr 
% Polyline
n 4650 3825 m
 4950 3825 l gs col0 s gr 
% Polyline
n 5100 3975 m
 6900 3975 l gs col0 s gr 
% Polyline
n 5250 4350 m
 6900 4350 l gs col0 s gr 
% Polyline
n 5850 2475 m
 7950 2475 l gs col0 s gr 
% Polyline
n 6600 2850 m
 7950 2850 l gs col0 s gr 
% Polyline
n 6150 3000 m
 8250 3000 l gs col0 s gr 
% Polyline
n 7800 4050 m
 7800 4500 l gs col0 s gr 
% Polyline
n 8400 4050 m
 8400 4500 l gs col0 s gr 
% Polyline
n 8850 4050 m
 8850 4500 l gs col0 s gr 
% Polyline
n 8700 4500 m
 8700 4950 l gs col0 s gr 
% Polyline
n 8100 4500 m
 8100 4950 l gs col0 s gr 
% Polyline
n 7800 4275 m
 8250 4275 l gs col0 s gr 
% Polyline
n 8400 4275 m
 8700 4275 l gs col0 s gr 
% Polyline
n 8850 4275 m
 9075 4275 l gs col0 s gr 
% Polyline
n 8700 4725 m
 9000 4725 l gs col0 s gr 
% Polyline
n 8100 4725 m
 8400 4725 l gs col0 s gr 
% Polyline
n 3600 3150 m
 3600 3600 l gs col0 s gr 
% Polyline
n 3600 3375 m
 7350 3375 l gs col0 s gr 
/Times-Roman ff 266.67 scf sf
3225 2775 m
gs 1 -1 sc (b) col0 sh gr
/Times-Roman ff 266.67 scf sf
3225 3225 m
gs 1 -1 sc (c) col0 sh gr
/Times-Roman ff 266.67 scf sf
3225 3675 m
gs 1 -1 sc (d) col0 sh gr
/Times-Roman ff 266.67 scf sf
3225 4125 m
gs 1 -1 sc (e) col0 sh gr
/Times-Roman ff 266.67 scf sf
3225 4575 m
gs 1 -1 sc (f) col0 sh gr
/Times-Roman ff 266.67 scf sf
3225 5025 m
gs 1 -1 sc (g) col0 sh gr
/Times-Roman ff 266.67 scf sf
3225 2325 m
gs 1 -1 sc (a) col0 sh gr
% here ends figure;
pagefooter
showpage
%%Trailer
%EOF
