#FIG 3.2  Produced by xfig version 3.2.5c
Landscape
Center
Inches
Letter  
100.00
Single
-2
1200 2
1 3 0 0 0 7 50 -1 0 2.000 1 0.0000 3750 2250 32 32 3750 2250 3774 2229
1 3 0 0 0 7 50 -1 0 2.000 1 0.0000 3750 2700 32 32 3750 2700 3774 2679
1 3 0 0 0 7 50 -1 0 2.000 1 0.0000 4050 2700 32 32 4050 2700 4074 2679
1 3 0 0 0 7 50 -1 0 2.000 1 0.0000 4050 3150 32 32 4050 3150 4074 3129
1 3 0 0 0 7 50 -1 0 2.000 1 0.0000 3900 3600 32 32 3900 3600 3924 3579
1 3 0 0 0 7 50 -1 0 2.000 1 0.0000 3900 4050 32 32 3900 4050 3924 4029
1 3 0 0 0 7 50 -1 0 2.000 1 0.0000 4350 3600 32 32 4350 3600 4374 3579
1 3 0 0 0 7 50 -1 0 2.000 1 0.0000 4350 4050 32 32 4350 4050 4374 4029
1 3 0 0 0 7 50 -1 0 2.000 1 0.0000 4650 3600 32 32 4650 3600 4674 3579
1 3 0 0 0 7 50 -1 0 2.000 1 0.0000 4650 4050 32 32 4650 4050 4674 4029
1 3 0 0 0 7 50 -1 0 2.000 1 0.0000 5250 4950 32 32 5250 4950 5274 4929
1 3 0 0 0 7 50 -1 0 2.000 1 0.0000 5250 4050 32 32 5250 4050 5274 4029
1 3 0 0 0 7 50 -1 0 2.000 1 0.0000 5100 3600 32 32 5100 3600 5124 3579
1 3 0 0 0 7 50 -1 0 2.000 1 0.0000 5100 4500 32 32 5100 4500 5124 4479
1 3 0 0 0 7 50 -1 0 2.000 1 0.0000 5850 2250 32 32 5850 2250 5874 2229
1 3 0 0 0 7 50 -1 0 2.000 1 0.0000 5850 2700 32 32 5850 2700 5874 2679
1 3 0 0 0 7 50 -1 0 2.000 1 0.0000 6150 2700 32 32 6150 2700 6174 2679
1 3 0 0 0 7 50 -1 0 2.000 1 0.0000 6150 3150 32 32 6150 3150 6174 3129
1 3 0 0 0 7 50 -1 0 2.000 1 0.0000 6600 3150 32 32 6600 3150 6624 3129
1 3 0 0 0 7 50 -1 0 2.000 1 0.0000 6600 2250 32 32 6600 2250 6624 2229
1 3 0 0 0 7 50 -1 0 2.000 1 0.0000 7800 4050 32 32 7800 4050 7824 4029
1 3 0 0 0 7 50 -1 0 2.000 1 0.0000 7800 4500 32 32 7800 4500 7824 4479
1 3 0 0 0 7 50 -1 0 2.000 1 0.0000 8100 4500 32 32 8100 4500 8124 4479
1 3 0 0 0 7 50 -1 0 2.000 1 0.0000 8100 4950 32 32 8100 4950 8124 4929
1 3 0 0 0 7 50 -1 0 2.000 1 0.0000 8400 4500 32 32 8400 4500 8424 4479
1 3 0 0 0 7 50 -1 0 2.000 1 0.0000 8400 4050 32 32 8400 4050 8424 4029
1 3 0 0 0 7 50 -1 0 2.000 1 0.0000 8700 4500 32 32 8700 4500 8724 4479
1 3 0 0 0 7 50 -1 0 2.000 1 0.0000 8700 4950 32 32 8700 4950 8724 4929
1 3 0 0 0 7 50 -1 0 2.000 1 0.0000 8850 4050 32 32 8850 4050 8874 4029
1 3 0 0 0 7 50 -1 0 2.000 1 0.0000 8850 4500 32 32 8850 4500 8874 4479
1 3 0 0 0 7 50 -1 0 2.000 1 0.0000 3600 3150 32 32 3600 3150 3624 3129
1 3 0 0 0 7 50 -1 0 2.000 1 0.0000 3600 3600 32 32 3600 3600 3624 3579
2 1 1 1 0 7 50 -1 -1 4.000 0 0 7 0 0 2
	 3450 2250 9150 2250
2 1 1 1 0 7 50 -1 -1 4.000 0 0 7 0 0 2
	 3450 2700 9150 2700
2 1 1 1 0 7 50 -1 -1 4.000 0 0 7 0 0 2
	 3450 3150 9150 3150
2 1 1 1 0 7 50 -1 -1 4.000 0 0 7 0 0 2
	 3450 3600 9150 3600
2 1 1 1 0 7 50 -1 -1 4.000 0 0 7 0 0 2
	 3450 4050 9150 4050
2 1 1 1 0 7 50 -1 -1 4.000 0 0 7 0 0 2
	 3450 4500 9150 4500
2 1 1 1 0 7 50 -1 -1 4.000 0 0 7 0 0 2
	 3450 4950 9150 4950
2 1 0 1 0 7 50 -1 -1 4.000 0 0 -1 0 0 2
	 3750 2250 3750 2700
2 1 0 1 0 7 50 -1 -1 4.000 0 0 -1 0 0 2
	 4050 2700 4050 3150
2 1 0 1 0 7 50 -1 -1 4.000 0 0 -1 0 0 2
	 3900 3600 3900 4050
2 1 0 1 0 7 50 -1 -1 4.000 0 0 -1 0 0 2
	 4350 3600 4350 4050
2 1 0 1 0 7 50 -1 -1 4.000 0 0 -1 0 0 2
	 4650 3600 4650 4050
2 1 0 1 0 7 50 -1 -1 4.000 0 0 -1 0 0 2
	 5250 4050 5250 4950
2 1 0 1 0 7 50 -1 -1 4.000 0 0 -1 0 0 2
	 5100 3600 5100 4500
2 1 0 1 0 7 50 -1 -1 4.000 0 0 -1 0 0 2
	 5850 2250 5850 2700
2 1 0 1 0 7 50 -1 -1 4.000 0 0 -1 0 0 2
	 6150 2700 6150 3150
2 1 0 1 0 7 50 -1 -1 4.000 0 0 -1 0 0 2
	 6600 2250 6600 3150
2 1 0 1 0 7 50 -1 -1 4.000 0 0 -1 0 0 2
	 3750 2475 4950 2475
2 1 0 1 0 7 50 -1 -1 4.000 0 0 -1 0 0 2
	 4050 2925 4800 2925
2 1 0 1 0 7 50 -1 -1 4.000 0 0 -1 0 0 2
	 3900 3825 4200 3825
2 1 0 1 0 7 50 -1 -1 4.000 0 0 -1 0 0 2
	 4350 3825 4500 3825
2 1 0 1 0 7 50 -1 -1 4.000 0 0 -1 0 0 2
	 4650 3825 4950 3825
2 1 0 1 0 7 50 -1 -1 4.000 0 0 -1 0 0 2
	 5100 3975 6900 3975
2 1 0 1 0 7 50 -1 -1 4.000 0 0 -1 0 0 2
	 5250 4350 6900 4350
2 1 0 1 0 7 50 -1 -1 4.000 0 0 -1 0 0 2
	 5850 2475 7950 2475
2 1 0 1 0 7 50 -1 -1 4.000 0 0 -1 0 0 2
	 6600 2850 7950 2850
2 1 0 1 0 7 50 -1 -1 4.000 0 0 -1 0 0 2
	 6150 3000 8250 3000
2 1 0 1 0 7 50 -1 -1 4.000 0 0 -1 0 0 2
	 7800 4050 7800 4500
2 1 0 1 0 7 50 -1 -1 4.000 0 0 -1 0 0 2
	 8400 4050 8400 4500
2 1 0 1 0 7 50 -1 -1 4.000 0 0 -1 0 0 2
	 8850 4050 8850 4500
2 1 0 1 0 7 50 -1 -1 4.000 0 0 -1 0 0 2
	 8700 4500 8700 4950
2 1 0 1 0 7 50 -1 -1 4.000 0 0 -1 0 0 2
	 8100 4500 8100 4950
2 1 0 1 0 7 50 -1 -1 4.000 0 0 -1 0 0 2
	 7800 4275 8250 4275
2 1 0 1 0 7 50 -1 -1 4.000 0 0 -1 0 0 2
	 8400 4275 8700 4275
2 1 0 1 0 7 50 -1 -1 4.000 0 0 -1 0 0 2
	 8850 4275 9075 4275
2 1 0 1 0 7 50 -1 -1 4.000 0 0 -1 0 0 2
	 8700 4725 9000 4725
2 1 0 1 0 7 50 -1 -1 4.000 0 0 -1 0 0 2
	 8100 4725 8400 4725
2 1 0 1 0 7 50 -1 -1 4.000 0 0 -1 0 0 2
	 3600 3150 3600 3600
2 1 0 1 0 7 50 -1 -1 4.000 0 0 -1 0 0 2
	 3600 3375 7350 3375
4 0 0 50 -1 0 16 0.0000 4 180 135 3225 2775 b\001
4 0 0 50 -1 0 16 0.0000 4 120 120 3225 3225 c\001
4 0 0 50 -1 0 16 0.0000 4 180 135 3225 3675 d\001
4 0 0 50 -1 0 16 0.0000 4 120 120 3225 4125 e\001
4 0 0 50 -1 0 16 0.0000 4 180 90 3225 4575 f\001
4 0 0 50 -1 0 16 0.0000 4 180 135 3225 5025 g\001
4 0 0 50 -1 0 16 0.0000 4 120 120 3225 2325 a\001
