%!PS-Adobe-3.0 EPSF-3.0
%%Title: streambip-projection.fig
%%Creator: fig2dev Version 3.2 Patchlevel 5e
%%CreationDate: Mon Jul 25 11:53:27 2016
%%BoundingBox: 0 0 255 134
%Magnification: 1.0000
%%EndComments
%%BeginProlog
/$F2psDict 200 dict def
$F2psDict begin
$F2psDict /mtrx matrix put
/col-1 {0 setgray} bind def
/col0 {0.000 0.000 0.000 srgb} bind def
/col1 {0.000 0.000 1.000 srgb} bind def
/col2 {0.000 1.000 0.000 srgb} bind def
/col3 {0.000 1.000 1.000 srgb} bind def
/col4 {1.000 0.000 0.000 srgb} bind def
/col5 {1.000 0.000 1.000 srgb} bind def
/col6 {1.000 1.000 0.000 srgb} bind def
/col7 {1.000 1.000 1.000 srgb} bind def
/col8 {0.000 0.000 0.560 srgb} bind def
/col9 {0.000 0.000 0.690 srgb} bind def
/col10 {0.000 0.000 0.820 srgb} bind def
/col11 {0.530 0.810 1.000 srgb} bind def
/col12 {0.000 0.560 0.000 srgb} bind def
/col13 {0.000 0.690 0.000 srgb} bind def
/col14 {0.000 0.820 0.000 srgb} bind def
/col15 {0.000 0.560 0.560 srgb} bind def
/col16 {0.000 0.690 0.690 srgb} bind def
/col17 {0.000 0.820 0.820 srgb} bind def
/col18 {0.560 0.000 0.000 srgb} bind def
/col19 {0.690 0.000 0.000 srgb} bind def
/col20 {0.820 0.000 0.000 srgb} bind def
/col21 {0.560 0.000 0.560 srgb} bind def
/col22 {0.690 0.000 0.690 srgb} bind def
/col23 {0.820 0.000 0.820 srgb} bind def
/col24 {0.500 0.190 0.000 srgb} bind def
/col25 {0.630 0.250 0.000 srgb} bind def
/col26 {0.750 0.380 0.000 srgb} bind def
/col27 {1.000 0.500 0.500 srgb} bind def
/col28 {1.000 0.630 0.630 srgb} bind def
/col29 {1.000 0.750 0.750 srgb} bind def
/col30 {1.000 0.880 0.880 srgb} bind def
/col31 {1.000 0.840 0.000 srgb} bind def
/col32 {0.000 0.000 0.000 srgb} bind def
/col33 {0.980 0.941 0.902 srgb} bind def
/col34 {0.851 0.851 0.851 srgb} bind def

end

/cp {closepath} bind def
/ef {eofill} bind def
/gr {grestore} bind def
/gs {gsave} bind def
/sa {save} bind def
/rs {restore} bind def
/l {lineto} bind def
/m {moveto} bind def
/rm {rmoveto} bind def
/n {newpath} bind def
/s {stroke} bind def
/sh {show} bind def
/slc {setlinecap} bind def
/slj {setlinejoin} bind def
/slw {setlinewidth} bind def
/srgb {setrgbcolor} bind def
/rot {rotate} bind def
/sc {scale} bind def
/sd {setdash} bind def
/ff {findfont} bind def
/sf {setfont} bind def
/scf {scalefont} bind def
/sw {stringwidth} bind def
/tr {translate} bind def
/tnt {dup dup currentrgbcolor
  4 -2 roll dup 1 exch sub 3 -1 roll mul add
  4 -2 roll dup 1 exch sub 3 -1 roll mul add
  4 -2 roll dup 1 exch sub 3 -1 roll mul add srgb}
  bind def
/shd {dup dup currentrgbcolor 4 -2 roll mul 4 -2 roll mul
  4 -2 roll mul srgb} bind def
 /DrawEllipse {
	/endangle exch def
	/startangle exch def
	/yrad exch def
	/xrad exch def
	/y exch def
	/x exch def
	/savematrix mtrx currentmatrix def
	x y tr xrad yrad sc 0 0 1 startangle endangle arc
	closepath
	savematrix setmatrix
	} def

/$F2psBegin {$F2psDict begin /$F2psEnteredState save def} def
/$F2psEnd {$F2psEnteredState restore end} def

/pageheader {
save
newpath 0 134 moveto 0 0 lineto 255 0 lineto 255 134 lineto closepath clip newpath
-799.1 237.2 translate
1 -1 scale
$F2psBegin
10 setmiterlimit
0 slj 0 slc
 0.06000 0.06000 sc
} bind def
/pagefooter {
$F2psEnd
restore
} bind def
%%EndProlog
pageheader
%
% Fig objects follow
%
% 
% here starts figure with depth 52
% Arc
7.500 slw
0 slc
n 17662.5 2100.0 637.5 -151.9275 151.9275 arcn
gs col0 s gr

% Ellipse
n 13650 2100 40 40 0 360 DrawEllipse gs 0.00 setgray ef gr gs col0 s gr

% Ellipse
n 13650 2400 40 40 0 360 DrawEllipse gs 0.00 setgray ef gr gs col0 s gr

% Ellipse
n 13950 2400 40 40 0 360 DrawEllipse gs 0.00 setgray ef gr gs col0 s gr

% Ellipse
n 13950 2700 40 40 0 360 DrawEllipse gs 0.00 setgray ef gr gs col0 s gr

% Ellipse
n 13650 3600 40 40 0 360 DrawEllipse gs 0.00 setgray ef gr gs col0 s gr

% Ellipse
n 13650 3300 40 40 0 360 DrawEllipse gs 0.00 setgray ef gr gs col0 s gr

% Ellipse
n 14250 3300 40 40 0 360 DrawEllipse gs 0.00 setgray ef gr gs col0 s gr

% Ellipse
n 14250 2400 40 40 0 360 DrawEllipse gs 0.00 setgray ef gr gs col0 s gr

% Ellipse
n 14550 3300 40 40 0 360 DrawEllipse gs 0.00 setgray ef gr gs col0 s gr

% Ellipse
n 14550 3000 40 40 0 360 DrawEllipse gs 0.00 setgray ef gr gs col0 s gr

% Ellipse
n 14700 3300 40 40 0 360 DrawEllipse gs 0.00 setgray ef gr gs col0 s gr

% Ellipse
n 14700 3600 40 40 0 360 DrawEllipse gs 0.00 setgray ef gr gs col0 s gr

% Ellipse
n 13800 2700 40 40 0 360 DrawEllipse gs 0.00 setgray ef gr gs col0 s gr

% Ellipse
n 13800 3000 40 40 0 360 DrawEllipse gs 0.00 setgray ef gr gs col0 s gr

% Ellipse
n 16350 3300 40 40 0 360 DrawEllipse gs 0.00 setgray ef gr gs col0 s gr

% Ellipse
n 16350 3600 40 40 0 360 DrawEllipse gs 0.00 setgray ef gr gs col0 s gr

% Ellipse
n 16200 1800 40 40 0 360 DrawEllipse gs 0.00 setgray ef gr gs col0 s gr

% Ellipse
n 16200 2100 40 40 0 360 DrawEllipse gs 0.00 setgray ef gr gs col0 s gr

% Ellipse
n 17100 2100 40 40 0 360 DrawEllipse gs 0.00 setgray ef gr gs col0 s gr

% Ellipse
n 17100 2400 40 40 0 360 DrawEllipse gs 0.00 setgray ef gr gs col0 s gr

% Ellipse
n 17100 1800 40 40 0 360 DrawEllipse gs 0.00 setgray ef gr gs col0 s gr

% Ellipse
n 16650 1800 40 40 0 360 DrawEllipse gs 0.00 setgray ef gr gs col0 s gr

% Ellipse
n 16650 2400 40 40 0 360 DrawEllipse gs 0.00 setgray ef gr gs col0 s gr

% Ellipse
n 13950 3000 40 40 0 360 DrawEllipse gs 0.00 setgray ef gr gs col0 s gr

% Ellipse
n 13950 3300 40 40 0 360 DrawEllipse gs 0.00 setgray ef gr gs col0 s gr

% Ellipse
n 16350 3600 40 40 0 360 DrawEllipse gs 0.00 setgray ef gr gs col0 s gr

% Ellipse
n 16350 3900 40 40 0 360 DrawEllipse gs 0.00 setgray ef gr gs col0 s gr

% Ellipse
n 16650 3300 40 40 0 360 DrawEllipse gs 0.00 setgray ef gr gs col0 s gr

% Ellipse
n 16650 3900 40 40 0 360 DrawEllipse gs 0.00 setgray ef gr gs col0 s gr

% Ellipse
n 16950 1800 40 40 0 360 DrawEllipse gs 0.00 setgray ef gr gs col0 s gr

% Ellipse
n 16950 2100 40 40 0 360 DrawEllipse gs 0.00 setgray ef gr gs col0 s gr

% Polyline
0 slj
 [60] 0 sd
n 13500 2100 m
 15150 2100 l gs col0 s gr  [] 0 sd
% Polyline
 [60] 0 sd
n 13500 2400 m
 15150 2400 l gs col0 s gr  [] 0 sd
% Polyline
 [60] 0 sd
n 13500 2700 m
 15150 2700 l gs col0 s gr  [] 0 sd
% Polyline
 [60] 0 sd
n 13500 3000 m
 15150 3000 l gs col0 s gr  [] 0 sd
% Polyline
 [60] 0 sd
n 13500 3300 m
 15150 3300 l gs col0 s gr  [] 0 sd
% Polyline
 [60] 0 sd
n 13500 3600 m
 15150 3600 l gs col0 s gr  [] 0 sd
% Polyline
 [60] 0 sd
n 15900 1800 m
 17550 1800 l gs col0 s gr  [] 0 sd
% Polyline
 [60] 0 sd
n 15900 2100 m
 17550 2100 l gs col0 s gr  [] 0 sd
% Polyline
 [60] 0 sd
n 15900 2400 m
 17550 2400 l gs col0 s gr  [] 0 sd
% Polyline
 [60] 0 sd
n 15900 3300 m
 17550 3300 l gs col0 s gr  [] 0 sd
% Polyline
 [60] 0 sd
n 15900 3600 m
 17550 3600 l gs col0 s gr  [] 0 sd
% Polyline
 [60] 0 sd
n 15900 3900 m
 17550 3900 l gs col0 s gr  [] 0 sd
% Polyline
n 13650 2100 m
 13650 2400 l gs 0.00 setgray ef gr gs col0 s gr 
% Polyline
n 14250 2400 m
 14250 3300 l gs 0.00 setgray ef gr gs col0 s gr 
% Polyline
n 13950 2400 m
 13950 2700 l gs 0.00 setgray ef gr gs col0 s gr 
% Polyline
n 14550 3000 m
 14550 3300 l gs 0.00 setgray ef gr gs col0 s gr 
% Polyline
n 13650 3300 m
 13650 3600 l gs 0.00 setgray ef gr gs col0 s gr 
% Polyline
n 13650 2250 m
 14850 2250 l gs 0.00 setgray ef gr gs col0 s gr 
% Polyline
n 13950 2550 m
 14550 2550 l gs 0.00 setgray ef gr gs col0 s gr 
% Polyline
n 14250 2850 m
 14850 2850 l gs 0.00 setgray ef gr gs col0 s gr 
% Polyline
n 14550 3150 m
 15000 3150 l gs 0.00 setgray ef gr gs col0 s gr 
% Polyline
n 13650 3450 m
 14400 3450 l gs 0.00 setgray ef gr gs col0 s gr 
% Polyline
n 14700 3300 m
 14700 3600 l gs 0.00 setgray ef gr gs col0 s gr 
% Polyline
n 14700 3450 m
 15000 3450 l gs 0.00 setgray ef gr gs col0 s gr 
% Polyline
n 13800 2700 m
 13800 3000 l gs 0.00 setgray ef gr gs col0 s gr 
% Polyline
n 13796 2850 m 13804 2850 l gs col0 s gr
% Polyline
n 13800 2850 m
 14100 2850 l gs 0.00 setgray ef gr gs col0 s gr 
% Polyline
n 16350 3300 m
 16350 3600 l gs 0.00 setgray ef gr gs col0 s gr 
% Polyline
n 16350 3450 m
 16950 3450 l gs 0.00 setgray ef gr gs col0 s gr 
% Polyline
n 16200 1800 m
 16200 2100 l gs 0.00 setgray ef gr gs col0 s gr 
% Polyline
n 16200 1950 m
 16350 1950 l gs 0.00 setgray ef gr gs col0 s gr 
% Polyline
n 17100 2250 m
 17400 2250 l gs 0.00 setgray ef gr gs col0 s gr 
% Polyline
n 17100 2100 m
 17100 2400 l gs 0.00 setgray ef gr gs col0 s gr 
% Polyline
n 17041 1950 m
 17245 1950 l gs col0 s gr 
% Polyline
n 16650 1800 m
 16650 2400 l gs col0 s gr 
% Polyline
n 16650 2250 m
 16800 2250 l gs col0 s gr 
% Polyline
n 13950 3000 m
 13950 3300 l gs col0 s gr 
% Polyline
n 13950 3150 m
 14100 3150 l gs col0 s gr 
% Polyline
n 16350 3600 m
 16350 3900 l gs col0 s gr 
% Polyline
n 16350 3750 m
 16500 3750 l gs col0 s gr 
% Polyline
n 16650 3300 m
 16650 3900 l gs col0 s gr 
% Polyline
n 16650 3750 m
 17250 3750 l gs col0 s gr 
% Polyline
gs  clippath
15573 2120 m 15703 2043 l 15672 1991 l 15542 2069 l 15542 2069 l 15661 2033 l 15573 2120 l cp
eoclip
n 15300 2250 m
 15675 2025 l gs col0 s gr gr

% arrowhead
n 15573 2120 m 15661 2033 l 15542 2069 l 15573 2120 l  cp gs 0.00 setgray ef gr  col0 s
% Polyline
gs  clippath
15549 3538 m 15667 3632 l 15705 3585 l 15587 3491 l 15587 3491 l 15662 3590 l 15549 3538 l cp
eoclip
n 15300 3300 m
 15675 3600 l gs col0 s gr gr

% arrowhead
n 15549 3538 m 15662 3590 l 15587 3491 l 15549 3538 l  cp gs 0.00 setgray ef gr  col0 s
/Times-Roman ff 233.33 scf sf
15741 3348 m
gs 1 -1 sc (u) col0 sh gr
/Times-Roman ff 233.33 scf sf
15737 3649 m
gs 1 -1 sc (v) col0 sh gr
/Times-Roman ff 233.33 scf sf
15741 3939 m
gs 1 -1 sc (x) col0 sh gr
/Times-Roman ff 233.33 scf sf
15745 2449 m
gs 1 -1 sc (c) col0 sh gr
/Times-Roman ff 233.33 scf sf
15746 2153 m
gs 1 -1 sc (b) col0 sh gr
/Times-Roman ff 233.33 scf sf
15746 1844 m
gs 1 -1 sc (a) col0 sh gr
/Times-Roman ff 233.33 scf sf
13345 2154 m
gs 1 -1 sc (u) col0 sh gr
/Times-Roman ff 233.33 scf sf
13350 2449 m
gs 1 -1 sc (a) col0 sh gr
/Times-Roman ff 233.33 scf sf
13333 2749 m
gs 1 -1 sc (v) col0 sh gr
/Times-Roman ff 233.33 scf sf
13345 3049 m
gs 1 -1 sc (b) col0 sh gr
/Times-Roman ff 233.33 scf sf
13341 3358 m
gs 1 -1 sc (x) col0 sh gr
/Times-Roman ff 233.33 scf sf
13350 3653 m
gs 1 -1 sc (c) col0 sh gr
% here ends figure;
% 
% here starts figure with depth 50
% Polyline
0 slj
0 slc
7.500 slw
n 16950 1800 m
 16950 2100 l gs col0 s gr 
% Polyline
n 16950 1875 m
 17250 1875 l gs col0 s gr 
% here ends figure;
pagefooter
showpage
%%Trailer
%EOF
