#FIG 3.2  Produced by xfig version 3.2.5c
Landscape
Center
Inches
Letter  
100.00
Single
-2
1200 2
0 32 #000000
0 33 #faf0e6
0 34 #d9d9d9
6 2400 2925 2775 3000
6 2400 2925 2715 3000
6 2400 2925 2715 3000
4 0 0 49 -1 0 6 0.0000 4 75 315 2400 3000 node v\001
-6
-6
-6
6 2400 1425 2715 1500
4 0 0 49 -1 0 6 0.0000 4 75 315 2400 1500 node u\001
-6
6 3150 1200 4875 1950
5 1 0 1 0 0 49 -1 -1 3.000 0 1 0 0 4687.500 1575.000 4125 1275 4050 1575 4125 1875
1 3 0 1 0 0 49 -1 20 4.000 1 0.0000 3825 1275 32 32 3825 1275 3848 1253
1 3 0 1 0 0 49 -1 20 4.000 1 0.0000 3825 1575 32 32 3825 1575 3848 1553
1 3 0 1 0 0 49 -1 20 4.000 1 0.0000 4125 1575 32 32 4125 1575 4148 1553
1 3 0 1 0 0 49 -1 20 4.000 1 0.0000 4125 1875 32 32 4125 1875 4148 1853
1 3 0 1 0 0 49 -1 20 4.000 1 0.0000 4125 1275 32 32 4125 1275 4148 1253
2 1 1 1 0 0 49 -1 20 4.000 0 0 -1 0 0 2
	 3375 1275 4875 1275
2 1 1 1 0 0 49 -1 20 4.000 0 0 -1 0 0 2
	 3375 1575 4875 1575
2 1 1 1 0 0 49 -1 20 4.000 0 0 -1 0 0 2
	 3375 1875 4875 1875
2 1 0 1 0 0 49 -1 20 3.000 0 0 7 0 0 2
	 4125 1350 4425 1350
2 1 0 1 0 0 49 -1 20 3.000 0 0 7 0 0 2
	 3825 1425 4425 1425
2 1 0 1 0 0 49 -1 20 3.000 0 0 7 0 0 2
	 4125 1725 4575 1725
2 1 0 1 0 0 49 -1 20 3.000 0 0 -1 0 0 2
	 3825 1275 3825 1575
2 1 0 1 0 0 49 -1 20 3.000 0 0 -1 0 0 2
	 4125 1575 4125 1875
2 1 0 1 0 0 49 -1 -1 3.000 0 0 -1 0 0 2
	 4275 1350 4092 1350
4 0 0 49 -1 0 14 0.0000 4 105 105 3224 1315 a\001
4 0 0 49 -1 0 14 0.0000 4 165 120 3226 1628 b\001
4 0 0 49 -1 0 14 0.0000 4 105 105 3218 1932 c\001
-6
6 3150 2400 4875 3150
1 3 0 1 0 0 49 -1 20 4.000 1 0.0000 3675 2475 32 32 3675 2475 3698 2453
1 3 0 1 0 0 49 -1 20 4.000 1 0.0000 3675 2775 32 32 3675 2775 3698 2753
2 1 1 1 0 0 49 -1 20 4.000 0 0 -1 0 0 2
	 3375 2475 4875 2475
2 1 1 1 0 0 49 -1 20 4.000 0 0 -1 0 0 2
	 3375 2775 4875 2775
2 1 1 1 0 0 49 -1 20 4.000 0 0 -1 0 0 2
	 3375 3075 4875 3075
2 1 0 1 0 0 49 -1 20 3.000 0 0 7 0 0 2
	 3675 2625 4275 2625
2 1 0 1 0 0 49 -1 20 3.000 0 0 7 0 0 2
	 3675 2475 3675 2775
4 0 0 49 -1 0 14 0.0000 4 105 105 3224 2518 a\001
4 0 0 49 -1 0 14 0.0000 4 165 120 3218 2831 b\001
4 0 0 49 -1 0 14 0.0000 4 105 105 3231 3126 c\001
-6
1 3 0 1 0 0 49 -1 20 4.000 1 0.0000 450 1500 32 32 450 1500 473 1478
1 3 0 1 0 0 49 -1 20 4.000 1 0.0000 450 2100 32 32 450 2100 473 2078
1 3 0 1 0 0 49 -1 20 4.000 1 0.0000 600 1800 32 32 600 1800 623 1778
1 3 0 1 0 0 49 -1 20 4.000 1 0.0000 600 2100 32 32 600 2100 623 2078
1 3 0 1 0 0 49 -1 20 4.000 1 0.0000 750 1500 32 32 750 1500 773 1478
1 3 0 1 0 0 49 -1 20 4.000 1 0.0000 750 2400 32 32 750 2400 773 2378
1 3 0 1 0 0 49 -1 20 4.000 1 0.0000 900 1800 32 32 900 1800 923 1778
1 3 0 1 0 0 49 -1 20 4.000 1 0.0000 900 2400 32 32 900 2400 923 2378
1 3 0 1 0 0 49 -1 20 4.000 1 0.0000 1200 1800 32 32 1200 1800 1223 1778
1 3 0 1 0 0 49 -1 20 4.000 1 0.0000 1200 2700 32 32 1200 2700 1223 2678
2 1 1 1 0 0 49 -1 20 4.000 0 0 -1 0 0 2
	 450 1500 1950 1500
2 1 1 1 0 0 49 -1 20 4.000 0 0 -1 0 0 2
	 450 1800 1950 1800
2 1 1 1 0 0 49 -1 20 4.000 0 0 -1 0 0 2
	 450 2100 1950 2100
2 1 1 1 0 0 49 -1 20 4.000 0 0 -1 0 0 2
	 450 2700 1950 2700
2 1 0 1 0 0 49 -1 20 4.000 0 0 -1 0 0 2
	 450 1500 450 2100
2 1 0 1 0 0 49 -1 20 3.000 0 0 7 0 0 2
	 450 1650 1350 1650
2 1 0 1 0 0 49 -1 20 3.000 0 0 7 0 0 2
	 750 1500 750 2400
2 1 0 1 0 0 49 -1 20 3.000 0 0 7 0 0 2
	 750 2175 1500 2175
2 1 1 1 0 0 49 -1 20 4.000 0 0 -1 0 0 2
	 450 2400 1950 2400
2 1 0 1 0 0 49 -1 20 3.000 0 0 7 0 0 2
	 600 1800 600 2100
2 1 0 1 0 0 49 -1 20 3.000 0 0 7 0 0 2
	 600 1950 1500 1950
2 1 0 1 0 0 49 -1 20 3.000 0 0 7 0 0 2
	 900 1800 900 2400
2 1 0 1 0 0 49 -1 20 3.000 0 0 7 0 0 2
	 900 2250 1650 2250
2 1 0 1 0 0 49 -1 20 3.000 0 0 7 0 0 2
	 1200 1800 1200 2700
2 1 0 1 0 0 49 -1 20 3.000 0 0 7 0 0 2
	 1200 2550 1950 2550
2 1 0 1 0 0 49 -1 20 3.000 0 0 -1 1 0 2
	1 1 1.00 60.00 120.00
	 2100 2400 3000 2700
2 1 0 1 0 0 49 -1 20 3.000 0 0 -1 1 0 2
	1 1 1.00 60.00 120.00
	 2100 1800 3000 1500
4 0 0 49 -1 0 14 0.0000 4 105 105 300 2748 c\001
4 0 0 49 -1 0 14 0.0000 4 105 105 297 2140 a\001
4 0 0 49 -1 0 14 0.0000 4 165 120 295 2449 b\001
4 0 0 49 -1 0 14 0.0000 4 105 120 296 1854 v\001
4 0 0 49 -1 0 14 0.0000 4 105 120 296 1562 u\001
4 0 0 49 -1 0 6 0.0000 4 90 825 2175 2850 Projection without\001
4 0 0 49 -1 0 6 0.0000 4 90 825 2175 1350 Projection without\001
