%!PS-Adobe-3.0 EPSF-3.0
%%Title: stream-redundancy.fig
%%Creator: fig2dev Version 3.2 Patchlevel 5e
%%CreationDate: Sun Jul 10 22:21:46 2016
%%BoundingBox: 0 0 277 117
%Magnification: 1.0000
%%EndComments
%%BeginProlog
/$F2psDict 200 dict def
$F2psDict begin
$F2psDict /mtrx matrix put
/col-1 {0 setgray} bind def
/col0 {0.000 0.000 0.000 srgb} bind def
/col1 {0.000 0.000 1.000 srgb} bind def
/col2 {0.000 1.000 0.000 srgb} bind def
/col3 {0.000 1.000 1.000 srgb} bind def
/col4 {1.000 0.000 0.000 srgb} bind def
/col5 {1.000 0.000 1.000 srgb} bind def
/col6 {1.000 1.000 0.000 srgb} bind def
/col7 {1.000 1.000 1.000 srgb} bind def
/col8 {0.000 0.000 0.560 srgb} bind def
/col9 {0.000 0.000 0.690 srgb} bind def
/col10 {0.000 0.000 0.820 srgb} bind def
/col11 {0.530 0.810 1.000 srgb} bind def
/col12 {0.000 0.560 0.000 srgb} bind def
/col13 {0.000 0.690 0.000 srgb} bind def
/col14 {0.000 0.820 0.000 srgb} bind def
/col15 {0.000 0.560 0.560 srgb} bind def
/col16 {0.000 0.690 0.690 srgb} bind def
/col17 {0.000 0.820 0.820 srgb} bind def
/col18 {0.560 0.000 0.000 srgb} bind def
/col19 {0.690 0.000 0.000 srgb} bind def
/col20 {0.820 0.000 0.000 srgb} bind def
/col21 {0.560 0.000 0.560 srgb} bind def
/col22 {0.690 0.000 0.690 srgb} bind def
/col23 {0.820 0.000 0.820 srgb} bind def
/col24 {0.500 0.190 0.000 srgb} bind def
/col25 {0.630 0.250 0.000 srgb} bind def
/col26 {0.750 0.380 0.000 srgb} bind def
/col27 {1.000 0.500 0.500 srgb} bind def
/col28 {1.000 0.630 0.630 srgb} bind def
/col29 {1.000 0.750 0.750 srgb} bind def
/col30 {1.000 0.880 0.880 srgb} bind def
/col31 {1.000 0.840 0.000 srgb} bind def
/col32 {0.000 0.000 0.000 srgb} bind def
/col33 {0.980 0.941 0.902 srgb} bind def
/col34 {0.851 0.851 0.851 srgb} bind def

end

/cp {closepath} bind def
/ef {eofill} bind def
/gr {grestore} bind def
/gs {gsave} bind def
/sa {save} bind def
/rs {restore} bind def
/l {lineto} bind def
/m {moveto} bind def
/rm {rmoveto} bind def
/n {newpath} bind def
/s {stroke} bind def
/sh {show} bind def
/slc {setlinecap} bind def
/slj {setlinejoin} bind def
/slw {setlinewidth} bind def
/srgb {setrgbcolor} bind def
/rot {rotate} bind def
/sc {scale} bind def
/sd {setdash} bind def
/ff {findfont} bind def
/sf {setfont} bind def
/scf {scalefont} bind def
/sw {stringwidth} bind def
/tr {translate} bind def
/tnt {dup dup currentrgbcolor
  4 -2 roll dup 1 exch sub 3 -1 roll mul add
  4 -2 roll dup 1 exch sub 3 -1 roll mul add
  4 -2 roll dup 1 exch sub 3 -1 roll mul add srgb}
  bind def
/shd {dup dup currentrgbcolor 4 -2 roll mul 4 -2 roll mul
  4 -2 roll mul srgb} bind def
 /DrawEllipse {
	/endangle exch def
	/startangle exch def
	/yrad exch def
	/xrad exch def
	/y exch def
	/x exch def
	/savematrix mtrx currentmatrix def
	x y tr xrad yrad sc 0 0 1 startangle endangle arc
	closepath
	savematrix setmatrix
	} def

/$F2psBegin {$F2psDict begin /$F2psEnteredState save def} def
/$F2psEnd {$F2psEnteredState restore end} def

/pageheader {
save
newpath 0 117 moveto 0 0 lineto 277 0 lineto 277 117 lineto closepath clip newpath
-16.8 188.5 translate
1 -1 scale
$F2psBegin
10 setmiterlimit
0 slj 0 slc
 0.06000 0.06000 sc
} bind def
/pagefooter {
$F2psEnd
restore
} bind def
%%EndProlog
pageheader
%
% Fig objects follow
%
% 
% here starts figure with depth 49
% Arc
7.500 slw
0 slc
n 4687.5 1575.0 637.5 -151.9275 151.9275 arcn
gs col0 s gr

% Ellipse
n 3825 1275 32 32 0 360 DrawEllipse gs 0.00 setgray ef gr gs col0 s gr

% Ellipse
n 3825 1575 32 32 0 360 DrawEllipse gs 0.00 setgray ef gr gs col0 s gr

% Ellipse
n 4125 1575 32 32 0 360 DrawEllipse gs 0.00 setgray ef gr gs col0 s gr

% Ellipse
n 4125 1875 32 32 0 360 DrawEllipse gs 0.00 setgray ef gr gs col0 s gr

% Ellipse
n 4125 1275 32 32 0 360 DrawEllipse gs 0.00 setgray ef gr gs col0 s gr

% Polyline
0 slj
 [60] 0 sd
n 3375 1275 m
 4875 1275 l gs 0.00 setgray ef gr gs col0 s gr  [] 0 sd
% Polyline
 [60] 0 sd
n 3375 1575 m
 4875 1575 l gs 0.00 setgray ef gr gs col0 s gr  [] 0 sd
% Polyline
 [60] 0 sd
n 3375 1875 m
 4875 1875 l gs 0.00 setgray ef gr gs col0 s gr  [] 0 sd
% Polyline
n 4125 1350 m
 4425 1350 l gs 0.00 setgray ef gr gs col0 s gr 
% Polyline
n 3825 1425 m
 4425 1425 l gs 0.00 setgray ef gr gs col0 s gr 
% Polyline
n 4125 1725 m
 4575 1725 l gs 0.00 setgray ef gr gs col0 s gr 
% Polyline
n 3825 1275 m
 3825 1575 l gs 0.00 setgray ef gr gs col0 s gr 
% Polyline
n 4125 1575 m
 4125 1875 l gs 0.00 setgray ef gr gs col0 s gr 
% Polyline
n 4275 1350 m
 4092 1350 l gs col0 s gr 
% Ellipse
n 3675 2475 32 32 0 360 DrawEllipse gs 0.00 setgray ef gr gs col0 s gr

% Ellipse
n 3675 2775 32 32 0 360 DrawEllipse gs 0.00 setgray ef gr gs col0 s gr

% Polyline
 [60] 0 sd
n 3375 2475 m
 4875 2475 l gs 0.00 setgray ef gr gs col0 s gr  [] 0 sd
% Polyline
 [60] 0 sd
n 3375 2775 m
 4875 2775 l gs 0.00 setgray ef gr gs col0 s gr  [] 0 sd
% Polyline
 [60] 0 sd
n 3375 3075 m
 4875 3075 l gs 0.00 setgray ef gr gs col0 s gr  [] 0 sd
% Polyline
n 3675 2625 m
 4275 2625 l gs 0.00 setgray ef gr gs col0 s gr 
% Polyline
n 3675 2475 m
 3675 2775 l gs 0.00 setgray ef gr gs col0 s gr 
% Ellipse
n 450 1500 32 32 0 360 DrawEllipse gs 0.00 setgray ef gr gs col0 s gr

% Ellipse
n 450 2100 32 32 0 360 DrawEllipse gs 0.00 setgray ef gr gs col0 s gr

% Ellipse
n 600 1800 32 32 0 360 DrawEllipse gs 0.00 setgray ef gr gs col0 s gr

% Ellipse
n 600 2100 32 32 0 360 DrawEllipse gs 0.00 setgray ef gr gs col0 s gr

% Ellipse
n 750 1500 32 32 0 360 DrawEllipse gs 0.00 setgray ef gr gs col0 s gr

% Ellipse
n 750 2400 32 32 0 360 DrawEllipse gs 0.00 setgray ef gr gs col0 s gr

% Ellipse
n 900 1800 32 32 0 360 DrawEllipse gs 0.00 setgray ef gr gs col0 s gr

% Ellipse
n 900 2400 32 32 0 360 DrawEllipse gs 0.00 setgray ef gr gs col0 s gr

% Ellipse
n 1200 1800 32 32 0 360 DrawEllipse gs 0.00 setgray ef gr gs col0 s gr

% Ellipse
n 1200 2700 32 32 0 360 DrawEllipse gs 0.00 setgray ef gr gs col0 s gr

% Polyline
 [60] 0 sd
n 450 1500 m
 1950 1500 l gs 0.00 setgray ef gr gs col0 s gr  [] 0 sd
% Polyline
 [60] 0 sd
n 450 1800 m
 1950 1800 l gs 0.00 setgray ef gr gs col0 s gr  [] 0 sd
% Polyline
 [60] 0 sd
n 450 2100 m
 1950 2100 l gs 0.00 setgray ef gr gs col0 s gr  [] 0 sd
% Polyline
 [60] 0 sd
n 450 2700 m
 1950 2700 l gs 0.00 setgray ef gr gs col0 s gr  [] 0 sd
% Polyline
n 450 1500 m
 450 2100 l gs 0.00 setgray ef gr gs col0 s gr 
% Polyline
n 450 1650 m
 1350 1650 l gs 0.00 setgray ef gr gs col0 s gr 
% Polyline
n 750 1500 m
 750 2400 l gs 0.00 setgray ef gr gs col0 s gr 
% Polyline
n 750 2175 m
 1500 2175 l gs 0.00 setgray ef gr gs col0 s gr 
% Polyline
 [60] 0 sd
n 450 2400 m
 1950 2400 l gs 0.00 setgray ef gr gs col0 s gr  [] 0 sd
% Polyline
n 600 1800 m
 600 2100 l gs 0.00 setgray ef gr gs col0 s gr 
% Polyline
n 600 1950 m
 1500 1950 l gs 0.00 setgray ef gr gs col0 s gr 
% Polyline
n 900 1800 m
 900 2400 l gs 0.00 setgray ef gr gs col0 s gr 
% Polyline
n 900 2250 m
 1650 2250 l gs 0.00 setgray ef gr gs col0 s gr 
% Polyline
n 1200 1800 m
 1200 2700 l gs 0.00 setgray ef gr gs col0 s gr 
% Polyline
n 1200 2550 m
 1950 2550 l gs 0.00 setgray ef gr gs col0 s gr 
% Polyline
gs  clippath
2861 2685 m 3004 2733 l 3023 2676 l 2880 2628 l 2880 2628 l 2985 2695 l 2861 2685 l cp
eoclip
n 2100 2400 m
 3000 2700 l gs 0.00 setgray ef gr gs col0 s gr gr

% arrowhead
n 2861 2685 m 2985 2695 l 2880 2628 l 2861 2685 l  cp gs 0.00 setgray ef gr  col0 s
% Polyline
gs  clippath
2880 1571 m 3023 1523 l 3004 1466 l 2861 1514 l 2861 1514 l 2985 1505 l 2880 1571 l cp
eoclip
n 2100 1800 m
 3000 1500 l gs 0.00 setgray ef gr gs col0 s gr gr

% arrowhead
n 2880 1571 m 2985 1505 l 2861 1514 l 2880 1571 l  cp gs 0.00 setgray ef gr  col0 s
/Times-Roman ff 100.00 scf sf
2400 3000 m
gs 1 -1 sc (node v) col0 sh gr
/Times-Roman ff 100.00 scf sf
2400 1500 m
gs 1 -1 sc (node u) col0 sh gr
/Times-Roman ff 233.33 scf sf
3224 1315 m
gs 1 -1 sc (a) col0 sh gr
/Times-Roman ff 233.33 scf sf
3226 1628 m
gs 1 -1 sc (b) col0 sh gr
/Times-Roman ff 233.33 scf sf
3218 1932 m
gs 1 -1 sc (c) col0 sh gr
/Times-Roman ff 233.33 scf sf
3224 2518 m
gs 1 -1 sc (a) col0 sh gr
/Times-Roman ff 233.33 scf sf
3218 2831 m
gs 1 -1 sc (b) col0 sh gr
/Times-Roman ff 233.33 scf sf
3231 3126 m
gs 1 -1 sc (c) col0 sh gr
/Times-Roman ff 233.33 scf sf
300 2748 m
gs 1 -1 sc (c) col0 sh gr
/Times-Roman ff 233.33 scf sf
297 2140 m
gs 1 -1 sc (a) col0 sh gr
/Times-Roman ff 233.33 scf sf
295 2449 m
gs 1 -1 sc (b) col0 sh gr
/Times-Roman ff 233.33 scf sf
296 1854 m
gs 1 -1 sc (v) col0 sh gr
/Times-Roman ff 233.33 scf sf
296 1562 m
gs 1 -1 sc (u) col0 sh gr
/Times-Roman ff 100.00 scf sf
2175 2850 m
gs 1 -1 sc (Projection without) col0 sh gr
/Times-Roman ff 100.00 scf sf
2175 1350 m
gs 1 -1 sc (Projection without) col0 sh gr
% here ends figure;
pagefooter
showpage
%%Trailer
%EOF
