%!PS-Adobe-3.0 EPSF-3.0
%%Title: stream-link-cluster.fig
%%Creator: fig2dev Version 3.2 Patchlevel 5e
%%CreationDate: Fri Jul 15 15:43:54 2016
%%BoundingBox: 0 0 205 119
%Magnification: 1.0000
%%EndComments
%%BeginProlog
/$F2psDict 200 dict def
$F2psDict begin
$F2psDict /mtrx matrix put
/col-1 {0 setgray} bind def
/col0 {0.000 0.000 0.000 srgb} bind def
/col1 {0.000 0.000 1.000 srgb} bind def
/col2 {0.000 1.000 0.000 srgb} bind def
/col3 {0.000 1.000 1.000 srgb} bind def
/col4 {1.000 0.000 0.000 srgb} bind def
/col5 {1.000 0.000 1.000 srgb} bind def
/col6 {1.000 1.000 0.000 srgb} bind def
/col7 {1.000 1.000 1.000 srgb} bind def
/col8 {0.000 0.000 0.560 srgb} bind def
/col9 {0.000 0.000 0.690 srgb} bind def
/col10 {0.000 0.000 0.820 srgb} bind def
/col11 {0.530 0.810 1.000 srgb} bind def
/col12 {0.000 0.560 0.000 srgb} bind def
/col13 {0.000 0.690 0.000 srgb} bind def
/col14 {0.000 0.820 0.000 srgb} bind def
/col15 {0.000 0.560 0.560 srgb} bind def
/col16 {0.000 0.690 0.690 srgb} bind def
/col17 {0.000 0.820 0.820 srgb} bind def
/col18 {0.560 0.000 0.000 srgb} bind def
/col19 {0.690 0.000 0.000 srgb} bind def
/col20 {0.820 0.000 0.000 srgb} bind def
/col21 {0.560 0.000 0.560 srgb} bind def
/col22 {0.690 0.000 0.690 srgb} bind def
/col23 {0.820 0.000 0.820 srgb} bind def
/col24 {0.500 0.190 0.000 srgb} bind def
/col25 {0.630 0.250 0.000 srgb} bind def
/col26 {0.750 0.380 0.000 srgb} bind def
/col27 {1.000 0.500 0.500 srgb} bind def
/col28 {1.000 0.630 0.630 srgb} bind def
/col29 {1.000 0.750 0.750 srgb} bind def
/col30 {1.000 0.880 0.880 srgb} bind def
/col31 {1.000 0.840 0.000 srgb} bind def

end

/cp {closepath} bind def
/ef {eofill} bind def
/gr {grestore} bind def
/gs {gsave} bind def
/sa {save} bind def
/rs {restore} bind def
/l {lineto} bind def
/m {moveto} bind def
/rm {rmoveto} bind def
/n {newpath} bind def
/s {stroke} bind def
/sh {show} bind def
/slc {setlinecap} bind def
/slj {setlinejoin} bind def
/slw {setlinewidth} bind def
/srgb {setrgbcolor} bind def
/rot {rotate} bind def
/sc {scale} bind def
/sd {setdash} bind def
/ff {findfont} bind def
/sf {setfont} bind def
/scf {scalefont} bind def
/sw {stringwidth} bind def
/tr {translate} bind def
/tnt {dup dup currentrgbcolor
  4 -2 roll dup 1 exch sub 3 -1 roll mul add
  4 -2 roll dup 1 exch sub 3 -1 roll mul add
  4 -2 roll dup 1 exch sub 3 -1 roll mul add srgb}
  bind def
/shd {dup dup currentrgbcolor 4 -2 roll mul 4 -2 roll mul
  4 -2 roll mul srgb} bind def
 /DrawEllipse {
	/endangle exch def
	/startangle exch def
	/yrad exch def
	/xrad exch def
	/y exch def
	/x exch def
	/savematrix mtrx currentmatrix def
	x y tr xrad yrad sc 0 0 1 startangle endangle arc
	closepath
	savematrix setmatrix
	} def

/$F2psBegin {$F2psDict begin /$F2psEnteredState save def} def
/$F2psEnd {$F2psEnteredState restore end} def

/pageheader {
save
newpath 0 119 moveto 0 0 lineto 205 0 lineto 205 119 lineto closepath clip newpath
-84.1 312.8 translate
1 -1 scale
$F2psBegin
10 setmiterlimit
0 slj 0 slc
 0.06299 0.06299 sc
} bind def
/pagefooter {
$F2psEnd
restore
} bind def
%%EndProlog
pageheader
%
% Fig objects follow
%
% 
% here starts figure with depth 49
% Polyline
0 slj
0 slc
7.500 slw
 [60] 0 sd
n 1575 3600 m
 4275 3600 l gs 0.00 setgray ef gr gs col0 s gr  [] 0 sd
% Polyline
 [60] 0 sd
n 1575 4050 m
 4275 4050 l gs 0.00 setgray ef gr gs col0 s gr  [] 0 sd
% Polyline
 [60] 0 sd
n 1575 4500 m
 4275 4500 l gs 0.00 setgray ef gr gs col0 s gr  [] 0 sd
% Polyline
 [60] 0 sd
n 1575 3150 m
 4275 3150 l gs 0.00 setgray ef gr gs col0 s gr  [] 0 sd
% Polyline
gs  clippath
4139 4755 m 4290 4755 l 4290 4695 l 4139 4695 l 4139 4695 l 4259 4725 l 4139 4755 l cp
eoclip
n 1575 4725 m
 4275 4725 l gs 0.00 setgray ef gr gs col0 s gr gr

% arrowhead
n 4139 4755 m 4259 4725 l 4139 4695 l 4139 4755 l  cp gs 0.00 setgray ef gr  col0 s
% Polyline
n 2025 4725 m
 2025 4680 l gs 0.00 setgray ef gr gs col0 s gr 
% Polyline
n 2475 4725 m
 2475 4680 l gs 0.00 setgray ef gr gs col0 s gr 
% Polyline
n 2925 4725 m
 2925 4680 l gs 0.00 setgray ef gr gs col0 s gr 
% Polyline
n 3375 4725 m
 3375 4680 l gs 0.00 setgray ef gr gs col0 s gr 
% Polyline
n 3825 4725 m
 3825 4680 l gs 0.00 setgray ef gr gs col0 s gr 
% Polyline
n 1800 3375 m
 2475 3375 l gs col10 1.00 shd ef gr gs col10 s gr 
% Polyline
n 1800 3150 m
 1800 3600 l gs col10 1.00 shd ef gr gs col10 s gr 
% Polyline
n 3375 3555 m
 4050 3555 l gs col20 1.00 shd ef gr gs col20 s gr 
% Polyline
n 3375 3150 m
 3375 4050 l gs col20 1.00 shd ef gr gs col20 s gr 
% Polyline
n 2925 4275 m
 4050 4275 l gs col20 1.00 shd ef gr gs col20 s gr 
% Polyline
n 2925 4050 m
 2925 4500 l gs col20 1.00 shd ef gr gs col20 s gr 
% Polyline
n 2025 3825 m
 3150 3825 l gs col12 1.00 shd ef gr gs col12 s gr 
% Polyline
n 2025 3600 m
 2025 4050 l gs col12 1.00 shd ef gr gs col12 s gr 
/Times-Roman ff 206.38 scf sf
1350 3195 m
gs 1 -1 sc (a) col0 sh gr
/Times-Roman ff 206.38 scf sf
1350 3645 m
gs 1 -1 sc (b) col0 sh gr
/Times-Roman ff 206.38 scf sf
1350 4095 m
gs 1 -1 sc (c) col0 sh gr
/Times-Roman ff 206.38 scf sf
1350 4545 m
gs 1 -1 sc (d) col0 sh gr
/Times-Roman ff 158.75 scf sf
1980 4950 m
gs 1 -1 sc (2) col0 sh gr
/Times-Roman ff 158.75 scf sf
2880 4950 m
gs 1 -1 sc (6) col0 sh gr
/Times-Roman ff 158.75 scf sf
3735 4950 m
gs 1 -1 sc (10) col0 sh gr
/Times-Roman ff 206.38 scf sf
4185 4950 m
gs 1 -1 sc (time) col0 sh gr
% Ellipse
n 2025 4050 45 45 0 360 DrawEllipse gs col12 1.00 shd ef gr gs col0 s gr

% Ellipse
n 2025 3600 45 45 0 360 DrawEllipse gs col12 1.00 shd ef gr gs col0 s gr

% Ellipse
n 1800 3150 45 45 0 360 DrawEllipse gs col10 1.00 shd ef gr gs col0 s gr

% Ellipse
n 1800 3600 45 45 0 360 DrawEllipse gs col10 1.00 shd ef gr gs col0 s gr

% Ellipse
n 3375 4050 45 45 0 360 DrawEllipse gs col20 1.00 shd ef gr gs col0 s gr

% Ellipse
n 3375 3150 45 45 0 360 DrawEllipse gs col20 1.00 shd ef gr gs col0 s gr

% Ellipse
n 2925 4050 45 45 0 360 DrawEllipse gs col20 1.00 shd ef gr gs col0 s gr

% Ellipse
n 2925 4500 45 45 0 360 DrawEllipse gs col20 1.00 shd ef gr gs col0 s gr

% here ends figure;
pagefooter
showpage
%%Trailer
%EOF
