%!PS-Adobe-3.0 EPSF-3.0
%%Title: stream-quotient.fig
%%Creator: fig2dev Version 3.2 Patchlevel 5e
%%CreationDate: Tue Jun 14 10:14:09 2016
%%BoundingBox: 0 0 399 125
%Magnification: 1.0000
%%EndComments
%%BeginProlog
/$F2psDict 200 dict def
$F2psDict begin
$F2psDict /mtrx matrix put
/col-1 {0 setgray} bind def
/col0 {0.000 0.000 0.000 srgb} bind def
/col1 {0.000 0.000 1.000 srgb} bind def
/col2 {0.000 1.000 0.000 srgb} bind def
/col3 {0.000 1.000 1.000 srgb} bind def
/col4 {1.000 0.000 0.000 srgb} bind def
/col5 {1.000 0.000 1.000 srgb} bind def
/col6 {1.000 1.000 0.000 srgb} bind def
/col7 {1.000 1.000 1.000 srgb} bind def
/col8 {0.000 0.000 0.560 srgb} bind def
/col9 {0.000 0.000 0.690 srgb} bind def
/col10 {0.000 0.000 0.820 srgb} bind def
/col11 {0.530 0.810 1.000 srgb} bind def
/col12 {0.000 0.560 0.000 srgb} bind def
/col13 {0.000 0.690 0.000 srgb} bind def
/col14 {0.000 0.820 0.000 srgb} bind def
/col15 {0.000 0.560 0.560 srgb} bind def
/col16 {0.000 0.690 0.690 srgb} bind def
/col17 {0.000 0.820 0.820 srgb} bind def
/col18 {0.560 0.000 0.000 srgb} bind def
/col19 {0.690 0.000 0.000 srgb} bind def
/col20 {0.820 0.000 0.000 srgb} bind def
/col21 {0.560 0.000 0.560 srgb} bind def
/col22 {0.690 0.000 0.690 srgb} bind def
/col23 {0.820 0.000 0.820 srgb} bind def
/col24 {0.500 0.190 0.000 srgb} bind def
/col25 {0.630 0.250 0.000 srgb} bind def
/col26 {0.750 0.380 0.000 srgb} bind def
/col27 {1.000 0.500 0.500 srgb} bind def
/col28 {1.000 0.630 0.630 srgb} bind def
/col29 {1.000 0.750 0.750 srgb} bind def
/col30 {1.000 0.880 0.880 srgb} bind def
/col31 {1.000 0.840 0.000 srgb} bind def
/col32 {0.533 0.533 0.533 srgb} bind def

end

/cp {closepath} bind def
/ef {eofill} bind def
/gr {grestore} bind def
/gs {gsave} bind def
/sa {save} bind def
/rs {restore} bind def
/l {lineto} bind def
/m {moveto} bind def
/rm {rmoveto} bind def
/n {newpath} bind def
/s {stroke} bind def
/sh {show} bind def
/slc {setlinecap} bind def
/slj {setlinejoin} bind def
/slw {setlinewidth} bind def
/srgb {setrgbcolor} bind def
/rot {rotate} bind def
/sc {scale} bind def
/sd {setdash} bind def
/ff {findfont} bind def
/sf {setfont} bind def
/scf {scalefont} bind def
/sw {stringwidth} bind def
/tr {translate} bind def
/tnt {dup dup currentrgbcolor
  4 -2 roll dup 1 exch sub 3 -1 roll mul add
  4 -2 roll dup 1 exch sub 3 -1 roll mul add
  4 -2 roll dup 1 exch sub 3 -1 roll mul add srgb}
  bind def
/shd {dup dup currentrgbcolor 4 -2 roll mul 4 -2 roll mul
  4 -2 roll mul srgb} bind def
 /DrawEllipse {
	/endangle exch def
	/startangle exch def
	/yrad exch def
	/xrad exch def
	/y exch def
	/x exch def
	/savematrix mtrx currentmatrix def
	x y tr xrad yrad sc 0 0 1 startangle endangle arc
	closepath
	savematrix setmatrix
	} def

/$F2psBegin {$F2psDict begin /$F2psEnteredState save def} def
/$F2psEnd {$F2psEnteredState restore end} def

/pageheader {
save
newpath 0 125 moveto 0 0 lineto 399 0 lineto 399 125 lineto closepath clip newpath
-211.7 340.9 translate
1 -1 scale
$F2psBegin
10 setmiterlimit
0 slj 0 slc
 0.06299 0.06299 sc
} bind def
/pagefooter {
$F2psEnd
restore
} bind def
%%EndProlog
pageheader
%
% Fig objects follow
%
% 
% here starts figure with depth 51
% Polyline
0 slj
0 slc
7.500 slw
 [15 45] 45 sd
n 7650 3600 m
 7650 5400 l gs col7 0.00 shd ef gr gs col32 s gr  [] 0 sd
% Polyline
 [15 45] 45 sd
n 8100 3600 m
 8100 5400 l gs col7 0.00 shd ef gr gs col32 s gr  [] 0 sd
% Polyline
 [15 45] 45 sd
n 8550 3600 m
 8550 5400 l gs col7 0.00 shd ef gr gs col32 s gr  [] 0 sd
% Polyline
 [15 45] 45 sd
n 9000 3600 m
 9000 5400 l gs col7 0.00 shd ef gr gs col32 s gr  [] 0 sd
% Polyline
 [15 45] 45 sd
n 9450 3600 m
 9450 5400 l gs col7 0.00 shd ef gr gs col32 s gr  [] 0 sd
% Polyline
gs  clippath
6974 4530 m 7125 4530 l 7125 4470 l 6974 4470 l 6974 4470 l 7094 4500 l 6974 4530 l cp
eoclip
n 6210 4500 m
 7110 4500 l gs col7 0.00 shd ef gr gs col0 s gr gr

% arrowhead
n 6974 4530 m 7094 4500 l 6974 4470 l 6974 4530 l  cp gs 0.00 setgray ef gr  col0 s
% Polyline
 [15 45] 45 sd
n 4050 3600 m
 4050 5400 l gs col7 0.00 shd ef gr gs col32 s gr  [] 0 sd
% Polyline
 [15 45] 45 sd
n 4500 3600 m
 4500 5400 l gs col7 0.00 shd ef gr gs col32 s gr  [] 0 sd
% Polyline
 [15 45] 45 sd
n 4950 3600 m
 4950 5400 l gs col7 0.00 shd ef gr gs col32 s gr  [] 0 sd
% Polyline
 [15 45] 45 sd
n 5400 3600 m
 5400 5400 l gs col7 0.00 shd ef gr gs col32 s gr  [] 0 sd
% Polyline
 [15 45] 45 sd
n 5850 3600 m
 5850 5400 l gs col7 0.00 shd ef gr gs col32 s gr  [] 0 sd
% Polyline
 [60] 0 sd
n 7200 5175 m
 9675 5175 l gs col7 1.00 shd ef gr gs col21 s gr  [] 0 sd
% Polyline
 [60] 0 sd
n 7200 4725 m
 9675 4725 l gs col7 1.00 shd ef gr gs col27 s gr  [] 0 sd
% Polyline
 [60] 0 sd
n 7200 4275 m
 9675 4275 l gs col7 1.00 shd ef gr gs col8 s gr  [] 0 sd
% Polyline
 [60] 0 sd
n 7200 3825 m
 9675 3825 l gs col7 1.00 shd ef gr gs col12 s gr  [] 0 sd
/Times-Roman ff 127.00 scf sf
7605 3555 m
gs 1 -1 sc (2) col32 sh gr
/Times-Roman ff 127.00 scf sf
8055 3555 m
gs 1 -1 sc (4) col32 sh gr
/Times-Roman ff 127.00 scf sf
8505 3555 m
gs 1 -1 sc (6) col32 sh gr
/Times-Roman ff 127.00 scf sf
8955 3555 m
gs 1 -1 sc (8) col32 sh gr
/Times-Roman ff 127.00 scf sf
9360 3555 m
gs 1 -1 sc (10) col32 sh gr
/Times-Roman ff 127.00 scf sf
4005 3555 m
gs 1 -1 sc (2) col32 sh gr
/Times-Roman ff 127.00 scf sf
4455 3555 m
gs 1 -1 sc (4) col32 sh gr
/Times-Roman ff 127.00 scf sf
4905 3555 m
gs 1 -1 sc (6) col32 sh gr
/Times-Roman ff 127.00 scf sf
5355 3555 m
gs 1 -1 sc (8) col32 sh gr
/Times-Roman ff 127.00 scf sf
5760 3555 m
gs 1 -1 sc (10) col32 sh gr
% Arc
n 8955.0 4275.0 1170.0 -157.3801 157.3801 arcn
gs col0 s gr

% Ellipse
n 4275 5175 45 45 0 360 DrawEllipse gs col27 1.00 shd ef gr gs col0 s gr

% Ellipse
n 4275 4275 45 45 0 360 DrawEllipse gs col27 1.00 shd ef gr gs col0 s gr

% Polyline
n 7650 3825 m
 7650 4275 l gs col7 0.00 shd ef gr gs col0 s gr 
% Polyline
n 7875 4275 m
 7875 4725 l gs col7 0.00 shd ef gr gs col0 s gr 
% Polyline
n 8550 3825 m
 8550 4725 l gs col0 s gr 
% Polyline
n 9225 4725 m
 9225 5175 l gs col0 s gr 
% Polyline
n 7650 4050 m
 8100 4050 l gs col0 s gr 
% Polyline
n 7785 4140 m
 8100 4140 l gs col0 s gr 
% Polyline
n 7875 4500 m
 8100 4500 l gs col0 s gr 
% Polyline
n 8550 4500 m
 8775 4500 l gs col0 s gr 
% Polyline
n 9225 4950 m
 9450 4950 l gs col0 s gr 
% Polyline
 [60] 0 sd
n 3600 3825 m
 6075 3825 l gs col0 s gr  [] 0 sd
% Polyline
 [60] 0 sd
n 3600 4275 m
 6075 4275 l gs col0 s gr  [] 0 sd
% Polyline
 [60] 0 sd
n 3600 4725 m
 6075 4725 l gs col0 s gr  [] 0 sd
% Polyline
 [60] 0 sd
n 3600 5175 m
 6075 5175 l gs col0 s gr  [] 0 sd
% Polyline
n 3825 4050 m
 4500 4050 l gs col12 1.00 shd ef gr gs col12 s gr 
% Polyline
n 3825 3825 m
 3825 4275 l gs col12 1.00 shd ef gr gs col12 s gr 
% Polyline
n 4950 4050 m
 5400 4050 l gs col12 1.00 shd ef gr gs col12 s gr 
% Polyline
n 4950 3825 m
 4950 4275 l gs col12 1.00 shd ef gr gs col12 s gr 
% Polyline
n 5625 4500 m
 5850 4500 l gs col27 1.00 shd ef gr gs col27 s gr 
% Polyline
n 5625 4275 m
 5625 4725 l gs col27 1.00 shd ef gr gs col27 s gr 
% Polyline
n 4725 4500 m
 5175 4500 l gs col27 1.00 shd ef gr gs col27 s gr 
% Polyline
n 4725 4275 m
 4725 4725 l gs col27 1.00 shd ef gr gs col27 s gr 
% Polyline
n 4275 4950 m
 4725 4950 l gs col27 1.00 shd ef gr gs col27 s gr 
% Polyline
n 4275 4275 m
 4275 5175 l gs col27 1.00 shd ef gr gs col27 s gr 
% Polyline
n 4050 4500 m
 4500 4500 l gs col27 1.00 shd ef gr gs col8 s gr 
% Polyline
n 4050 4275 m
 4050 4725 l gs col27 1.00 shd ef gr gs col8 s gr 
% Polyline
n 5175 4950 m
 5850 4950 l gs col21 1.00 shd ef gr gs col21 s gr 
% Polyline
n 5175 4725 m
 5175 5175 l gs col21 1.00 shd ef gr gs col21 s gr 
/Times-Roman ff 222.25 scf sf
3375 5220 m
gs 1 -1 sc (d) col0 sh gr
/Times-Roman ff 222.25 scf sf
3375 4770 m
gs 1 -1 sc (c) col0 sh gr
/Times-Roman ff 222.25 scf sf
3375 4320 m
gs 1 -1 sc (b) col0 sh gr
/Times-Roman ff 222.25 scf sf
3375 3870 m
gs 1 -1 sc (a) col0 sh gr
% Ellipse
n 5175 4725 45 45 0 360 DrawEllipse gs col21 1.00 shd ef gr gs col0 s gr

% Ellipse
n 5175 5175 45 45 0 360 DrawEllipse gs col21 1.00 shd ef gr gs col0 s gr

% Ellipse
n 5625 4275 45 45 0 360 DrawEllipse gs col27 1.00 shd ef gr gs col0 s gr

% Ellipse
n 5625 4725 45 45 0 360 DrawEllipse gs col27 1.00 shd ef gr gs col0 s gr

% Ellipse
n 4725 4275 45 45 0 360 DrawEllipse gs col27 1.00 shd ef gr gs col0 s gr

% Ellipse
n 4725 4725 45 45 0 360 DrawEllipse gs col27 1.00 shd ef gr gs col0 s gr

% Ellipse
n 4950 4275 45 45 0 360 DrawEllipse gs col12 1.00 shd ef gr gs col0 s gr

% Ellipse
n 4950 3825 45 45 0 360 DrawEllipse gs col12 1.00 shd ef gr gs col0 s gr

% Ellipse
n 3825 3825 45 45 0 360 DrawEllipse gs col12 1.00 shd ef gr gs col0 s gr

% Ellipse
n 3825 4275 45 45 0 360 DrawEllipse gs col12 1.00 shd ef gr gs col0 s gr

% Ellipse
n 4050 4275 45 45 0 360 DrawEllipse gs col8 1.00 shd ef gr gs col0 s gr

% Ellipse
n 4050 4725 45 45 0 360 DrawEllipse gs col8 1.00 shd ef gr gs col0 s gr

% Ellipse
n 7650 3825 45 45 0 360 DrawEllipse gs col12 1.00 shd ef gr gs col0 s gr

% Ellipse
n 7875 3825 45 45 0 360 DrawEllipse gs col12 1.00 shd ef gr gs col0 s gr

% Ellipse
n 8550 3825 45 45 0 360 DrawEllipse gs col12 1.00 shd ef gr gs col0 s gr

% Ellipse
n 7650 4275 45 45 0 360 DrawEllipse gs col8 1.00 shd ef gr gs col0 s gr

% Ellipse
n 7875 4275 45 45 0 360 DrawEllipse gs col8 1.00 shd ef gr gs col0 s gr

% Ellipse
n 7875 4725 45 45 0 360 DrawEllipse gs col27 1.00 shd ef gr gs col0 s gr

% Ellipse
n 8550 4725 45 45 0 360 DrawEllipse gs col27 1.00 shd ef gr gs col0 s gr

% Ellipse
n 9225 4725 45 45 0 360 DrawEllipse gs col27 1.00 shd ef gr gs col0 s gr

% Ellipse
n 9225 5175 45 45 0 360 DrawEllipse gs col21 1.00 shd ef gr gs col0 s gr

% here ends figure;
pagefooter
showpage
%%Trailer
%EOF
