%!PS-Adobe-3.0 EPSF-3.0
%%Title: summary-events.fig
%%Creator: fig2dev Version 3.2 Patchlevel 5e
%%CreationDate: Mon Jul 25 07:40:11 2016
%%BoundingBox: 0 0 275 301
%Magnification: 1.0000
%%EndComments
%%BeginProlog
/$F2psDict 200 dict def
$F2psDict begin
$F2psDict /mtrx matrix put
/col-1 {0 setgray} bind def
/col0 {0.000 0.000 0.000 srgb} bind def
/col1 {0.000 0.000 1.000 srgb} bind def
/col2 {0.000 1.000 0.000 srgb} bind def
/col3 {0.000 1.000 1.000 srgb} bind def
/col4 {1.000 0.000 0.000 srgb} bind def
/col5 {1.000 0.000 1.000 srgb} bind def
/col6 {1.000 1.000 0.000 srgb} bind def
/col7 {1.000 1.000 1.000 srgb} bind def
/col8 {0.000 0.000 0.560 srgb} bind def
/col9 {0.000 0.000 0.690 srgb} bind def
/col10 {0.000 0.000 0.820 srgb} bind def
/col11 {0.530 0.810 1.000 srgb} bind def
/col12 {0.000 0.560 0.000 srgb} bind def
/col13 {0.000 0.690 0.000 srgb} bind def
/col14 {0.000 0.820 0.000 srgb} bind def
/col15 {0.000 0.560 0.560 srgb} bind def
/col16 {0.000 0.690 0.690 srgb} bind def
/col17 {0.000 0.820 0.820 srgb} bind def
/col18 {0.560 0.000 0.000 srgb} bind def
/col19 {0.690 0.000 0.000 srgb} bind def
/col20 {0.820 0.000 0.000 srgb} bind def
/col21 {0.560 0.000 0.560 srgb} bind def
/col22 {0.690 0.000 0.690 srgb} bind def
/col23 {0.820 0.000 0.820 srgb} bind def
/col24 {0.500 0.190 0.000 srgb} bind def
/col25 {0.630 0.250 0.000 srgb} bind def
/col26 {0.750 0.380 0.000 srgb} bind def
/col27 {1.000 0.500 0.500 srgb} bind def
/col28 {1.000 0.630 0.630 srgb} bind def
/col29 {1.000 0.750 0.750 srgb} bind def
/col30 {1.000 0.880 0.880 srgb} bind def
/col31 {1.000 0.840 0.000 srgb} bind def

end

/cp {closepath} bind def
/ef {eofill} bind def
/gr {grestore} bind def
/gs {gsave} bind def
/sa {save} bind def
/rs {restore} bind def
/l {lineto} bind def
/m {moveto} bind def
/rm {rmoveto} bind def
/n {newpath} bind def
/s {stroke} bind def
/sh {show} bind def
/slc {setlinecap} bind def
/slj {setlinejoin} bind def
/slw {setlinewidth} bind def
/srgb {setrgbcolor} bind def
/rot {rotate} bind def
/sc {scale} bind def
/sd {setdash} bind def
/ff {findfont} bind def
/sf {setfont} bind def
/scf {scalefont} bind def
/sw {stringwidth} bind def
/tr {translate} bind def
/tnt {dup dup currentrgbcolor
  4 -2 roll dup 1 exch sub 3 -1 roll mul add
  4 -2 roll dup 1 exch sub 3 -1 roll mul add
  4 -2 roll dup 1 exch sub 3 -1 roll mul add srgb}
  bind def
/shd {dup dup currentrgbcolor 4 -2 roll mul 4 -2 roll mul
  4 -2 roll mul srgb} bind def
/$F2psBegin {$F2psDict begin /$F2psEnteredState save def} def
/$F2psEnd {$F2psEnteredState restore end} def

/pageheader {
save
newpath 0 301 moveto 0 0 lineto 275 0 lineto 275 301 lineto closepath clip newpath
-288.2 600.0 translate
1 -1 scale
$F2psBegin
10 setmiterlimit
0 slj 0 slc
 0.06299 0.06299 sc
} bind def
/pagefooter {
$F2psEnd
restore
} bind def
%%EndProlog
pageheader
%
% Fig objects follow
%
% 
% here starts figure with depth 50
% Polyline
0 slj
0 slc
7.500 slw
gs  clippath
5220 6455 m 5220 6675 l 5310 6675 l 5310 6455 l 5310 6455 l 5265 6605 l 5220 6455 l cp
eoclip
n 5265 5400 m
 5265 6660 l gs col0 s gr gr

% arrowhead
30.000 slw
n 5220 6455 m 5265 6605 l 5310 6455 l 5220 6455 l  cp gs 0.00 setgray ef gr  col0 s
% Polyline
7.500 slw
gs  clippath
5220 8480 m 5220 8700 l 5310 8700 l 5310 8480 l 5310 8480 l 5265 8630 l 5220 8480 l cp
eoclip
n 5265 7425 m
 5265 8685 l gs col0 s gr gr

% arrowhead
30.000 slw
n 5220 8480 m 5265 8630 l 5310 8480 l 5220 8480 l  cp gs 0.00 setgray ef gr  col0 s
% Polyline
7.500 slw
 [60] 0 sd
gs  clippath
6635 7020 m 6855 7020 l 6855 6930 l 6635 6930 l 6635 6930 l 6785 6975 l 6635 7020 l cp
eoclip
n 5850 6975 m
 6840 6975 l gs col0 s gr gr
 [] 0 sd
% arrowhead
30.000 slw
n 6635 7020 m 6785 6975 l 6635 6930 l 6635 7020 l  cp gs 0.00 setgray ef gr  col0 s
% Polyline
7.500 slw
 [60] 0 sd
gs  clippath
6590 9045 m 6810 9045 l 6810 8955 l 6590 8955 l 6590 8955 l 6740 9000 l 6590 9045 l cp
eoclip
n 5805 9000 m
 6795 9000 l gs col0 s gr gr
 [] 0 sd
% arrowhead
30.000 slw
n 6590 9045 m 6740 9000 l 6590 8955 l 6590 9045 l  cp gs 0.00 setgray ef gr  col0 s
/Times-Roman ff 317.50 scf sf
5130 7290 m
gs 1 -1 sc (D) col0 sh gr
/Times-Roman ff 238.13 scf sf
5355 7380 m
gs 1 -1 sc (1) col0 sh gr
/Times-Roman ff 317.50 scf sf
4995 6975 m
gs 1 -1 sc (3.2.1) col0 sh gr
/Times-Roman ff 317.50 scf sf
5175 5355 m
gs 1 -1 sc (D) col0 sh gr
/Times-Roman ff 317.50 scf sf
4590 4995 m
gs 1 -1 sc (Initial data) col0 sh gr
/Times-Roman ff 317.50 scf sf
5130 9360 m
gs 1 -1 sc (D) col0 sh gr
/Times-Roman ff 238.13 scf sf
5355 9450 m
gs 1 -1 sc (2) col0 sh gr
/Times-Roman ff 317.50 scf sf
4950 9000 m
gs 1 -1 sc (3.2.2) col0 sh gr
/Times-Roman ff 317.50 scf sf
6840 8730 m
gs 1 -1 sc (1 detected) col0 sh gr
/Times-Roman ff 317.50 scf sf
6840 9120 m
gs 1 -1 sc (1 identified) col0 sh gr
/Times-Roman ff 317.50 scf sf
6840 9510 m
gs 1 -1 sc (0.1% of traffic) col0 sh gr
/Times-Roman ff 317.50 scf sf
6930 6705 m
gs 1 -1 sc (7 detected) col0 sh gr
/Times-Roman ff 317.50 scf sf
6930 7095 m
gs 1 -1 sc (6 identified) col0 sh gr
/Times-Roman ff 317.50 scf sf
6930 7485 m
gs 1 -1 sc (1.3% of traffic) col0 sh gr
% here ends figure;
pagefooter
showpage
%%Trailer
%EOF
