%!PS-Adobe-3.0 EPSF-3.0
%%Title: temporal-network.fig
%%Creator: fig2dev Version 3.2 Patchlevel 5e
%%CreationDate: Sat Jul 23 22:10:11 2016
%%BoundingBox: 0 0 271 123
%Magnification: 1.0000
%%EndComments
%%BeginProlog
/$F2psDict 200 dict def
$F2psDict begin
$F2psDict /mtrx matrix put
/col-1 {0 setgray} bind def
/col0 {0.000 0.000 0.000 srgb} bind def
/col1 {0.000 0.000 1.000 srgb} bind def
/col2 {0.000 1.000 0.000 srgb} bind def
/col3 {0.000 1.000 1.000 srgb} bind def
/col4 {1.000 0.000 0.000 srgb} bind def
/col5 {1.000 0.000 1.000 srgb} bind def
/col6 {1.000 1.000 0.000 srgb} bind def
/col7 {1.000 1.000 1.000 srgb} bind def
/col8 {0.000 0.000 0.560 srgb} bind def
/col9 {0.000 0.000 0.690 srgb} bind def
/col10 {0.000 0.000 0.820 srgb} bind def
/col11 {0.530 0.810 1.000 srgb} bind def
/col12 {0.000 0.560 0.000 srgb} bind def
/col13 {0.000 0.690 0.000 srgb} bind def
/col14 {0.000 0.820 0.000 srgb} bind def
/col15 {0.000 0.560 0.560 srgb} bind def
/col16 {0.000 0.690 0.690 srgb} bind def
/col17 {0.000 0.820 0.820 srgb} bind def
/col18 {0.560 0.000 0.000 srgb} bind def
/col19 {0.690 0.000 0.000 srgb} bind def
/col20 {0.820 0.000 0.000 srgb} bind def
/col21 {0.560 0.000 0.560 srgb} bind def
/col22 {0.690 0.000 0.690 srgb} bind def
/col23 {0.820 0.000 0.820 srgb} bind def
/col24 {0.500 0.190 0.000 srgb} bind def
/col25 {0.630 0.250 0.000 srgb} bind def
/col26 {0.750 0.380 0.000 srgb} bind def
/col27 {1.000 0.500 0.500 srgb} bind def
/col28 {1.000 0.630 0.630 srgb} bind def
/col29 {1.000 0.750 0.750 srgb} bind def
/col30 {1.000 0.880 0.880 srgb} bind def
/col31 {1.000 0.840 0.000 srgb} bind def

end

/cp {closepath} bind def
/ef {eofill} bind def
/gr {grestore} bind def
/gs {gsave} bind def
/sa {save} bind def
/rs {restore} bind def
/l {lineto} bind def
/m {moveto} bind def
/rm {rmoveto} bind def
/n {newpath} bind def
/s {stroke} bind def
/sh {show} bind def
/slc {setlinecap} bind def
/slj {setlinejoin} bind def
/slw {setlinewidth} bind def
/srgb {setrgbcolor} bind def
/rot {rotate} bind def
/sc {scale} bind def
/sd {setdash} bind def
/ff {findfont} bind def
/sf {setfont} bind def
/scf {scalefont} bind def
/sw {stringwidth} bind def
/tr {translate} bind def
/tnt {dup dup currentrgbcolor
  4 -2 roll dup 1 exch sub 3 -1 roll mul add
  4 -2 roll dup 1 exch sub 3 -1 roll mul add
  4 -2 roll dup 1 exch sub 3 -1 roll mul add srgb}
  bind def
/shd {dup dup currentrgbcolor 4 -2 roll mul 4 -2 roll mul
  4 -2 roll mul srgb} bind def
 /DrawEllipse {
	/endangle exch def
	/startangle exch def
	/yrad exch def
	/xrad exch def
	/y exch def
	/x exch def
	/savematrix mtrx currentmatrix def
	x y tr xrad yrad sc 0 0 1 startangle endangle arc
	closepath
	savematrix setmatrix
	} def

/$F2psBegin {$F2psDict begin /$F2psEnteredState save def} def
/$F2psEnd {$F2psEnteredState restore end} def

/pageheader {
save
newpath 0 123 moveto 0 0 lineto 271 0 lineto 271 123 lineto closepath clip newpath
-27.4 369.4 translate
1 -1 scale
$F2psBegin
10 setmiterlimit
0 slj 0 slc
 0.06299 0.06299 sc
} bind def
/pagefooter {
$F2psEnd
restore
} bind def
%%EndProlog
pageheader
%
% Fig objects follow
%
% 
% here starts figure with depth 53
% Arc
7.500 slw
0 slc
n 1665.0 4275.0 585.0 -157.3801 157.3801 arcn
gs col0 s gr

% Arc
n 2115.0 4275.0 585.0 -157.3801 157.3801 arcn
gs col0 s gr

% Arc
n 2565.0 4275.0 585.0 -157.3801 157.3801 arcn
gs col0 s gr

% Arc
n 5040.0 4725.0 585.0 -157.3801 157.3801 arcn
gs col0 s gr

% Arc
n 4815.0 5175.0 585.0 -157.3801 157.3801 arcn
gs col0 s gr

% Arc
n 4590.0 5175.0 585.0 -157.3801 157.3801 arcn
gs col0 s gr

% Arc
n 2565.0 5175.0 585.0 -157.3801 157.3801 arcn
gs col0 s gr

% Arc
n 3915.0 4725.0 585.0 -157.3801 157.3801 arcn
gs col0 s gr

% Arc
n 3555.0 4500.0 1170.0 -157.3801 157.3801 arcn
gs col0 s gr

% Arc
n 4005.0 4950.0 1170.0 -157.3801 157.3801 arcn
gs col0 s gr

% Arc
n 2430.0 4950.0 1170.0 -157.3801 157.3801 arcn
gs col0 s gr

% Arc
n 5437.5 4725.0 1748.1 -157.2856 157.2856 arcn
gs col0 s gr

% Ellipse
n 1125 4050 64 64 0 360 DrawEllipse gs 0.00 setgray ef gr gs col0 s gr

% Ellipse
n 1125 4500 64 64 0 360 DrawEllipse gs 0.00 setgray ef gr gs col0 s gr

% Ellipse
n 1575 4050 64 64 0 360 DrawEllipse gs 0.00 setgray ef gr gs col0 s gr

% Ellipse
n 1575 4500 64 64 0 360 DrawEllipse gs 0.00 setgray ef gr gs col0 s gr

% Ellipse
n 2025 4500 64 64 0 360 DrawEllipse gs 0.00 setgray ef gr gs col0 s gr

% Ellipse
n 2025 4050 64 64 0 360 DrawEllipse gs 0.00 setgray ef gr gs col0 s gr

% Ellipse
n 1350 4500 64 64 0 360 DrawEllipse gs 0.00 setgray ef gr gs col0 s gr

% Ellipse
n 1350 5400 64 64 0 360 DrawEllipse gs 0.00 setgray ef gr gs col0 s gr

% Ellipse
n 2025 4950 64 64 0 360 DrawEllipse gs 0.00 setgray ef gr gs col0 s gr

% Ellipse
n 2025 5400 64 64 0 360 DrawEllipse gs 0.00 setgray ef gr gs col0 s gr

% Ellipse
n 2475 4950 64 64 0 360 DrawEllipse gs 0.00 setgray ef gr gs col0 s gr

% Ellipse
n 2475 4050 64 64 0 360 DrawEllipse gs 0.00 setgray ef gr gs col0 s gr

% Ellipse
n 2925 4500 64 64 0 360 DrawEllipse gs 0.00 setgray ef gr gs col0 s gr

% Ellipse
n 2925 5400 64 64 0 360 DrawEllipse gs 0.00 setgray ef gr gs col0 s gr

% Ellipse
n 3375 4950 64 64 0 360 DrawEllipse gs 0.00 setgray ef gr gs col0 s gr

% Ellipse
n 3375 4500 64 64 0 360 DrawEllipse gs 0.00 setgray ef gr gs col0 s gr

% Ellipse
n 3825 4050 64 64 0 360 DrawEllipse gs 0.00 setgray ef gr gs col0 s gr

% Ellipse
n 3825 5400 64 64 0 360 DrawEllipse gs 0.00 setgray ef gr gs col0 s gr

% Ellipse
n 4050 5400 64 64 0 360 DrawEllipse gs 0.00 setgray ef gr gs col0 s gr

% Ellipse
n 4050 4950 64 64 0 360 DrawEllipse gs 0.00 setgray ef gr gs col0 s gr

% Ellipse
n 4275 4950 64 64 0 360 DrawEllipse gs 0.00 setgray ef gr gs col0 s gr

% Ellipse
n 4275 5400 64 64 0 360 DrawEllipse gs 0.00 setgray ef gr gs col0 s gr

% Ellipse
n 4500 4500 64 64 0 360 DrawEllipse gs 0.00 setgray ef gr gs col0 s gr

% Ellipse
n 4500 4950 64 64 0 360 DrawEllipse gs 0.00 setgray ef gr gs col0 s gr

% Polyline
0 slj
n 675 4050 m
 4725 4050 l gs col0 s gr 
% Polyline
n 675 4500 m
 4725 4500 l gs col0 s gr 
% Polyline
n 675 4950 m
 4725 4950 l gs col0 s gr 
% Polyline
n 675 5400 m
 4725 5400 l gs col0 s gr 
% Polyline
n 1125 5580 m
 1125 5625 l gs col0 s gr 
% Polyline
n 1350 5580 m
 1350 5625 l gs col0 s gr 
% Polyline
n 1575 5580 m
 1575 5625 l gs col0 s gr 
% Polyline
n 1800 5580 m
 1800 5625 l gs col0 s gr 
% Polyline
n 2250 5580 m
 2250 5625 l gs col0 s gr 
% Polyline
n 2475 5580 m
 2475 5625 l gs col0 s gr 
% Polyline
n 2700 5580 m
 2700 5625 l gs col0 s gr 
% Polyline
n 2925 5580 m
 2925 5625 l gs col0 s gr 
% Polyline
n 3375 5580 m
 3375 5625 l gs col0 s gr 
% Polyline
n 3600 5580 m
 3600 5625 l gs col0 s gr 
% Polyline
n 3825 5580 m
 3825 5625 l gs col0 s gr 
% Polyline
n 4050 5580 m
 4050 5625 l gs col0 s gr 
% Polyline
n 4500 5580 m
 4500 5625 l gs col0 s gr 
% Polyline
30.000 slw
n 900 5580 m
 900 5625 l gs col0 s gr 
% Polyline
n 2025 5580 m
 2025 5625 l gs col0 s gr 
% Polyline
7.500 slw
n 675 5625 m
 4725 5625 l gs col0 s gr 
% Polyline
30.000 slw
n 3150 5580 m
 3150 5625 l gs col0 s gr 
% Polyline
n 4275 5580 m
 4275 5625 l gs col0 s gr 
/Times-Roman ff 222.25 scf sf
450 4590 m
gs 1 -1 sc (B) col0 sh gr
/Times-Roman ff 222.25 scf sf
450 4095 m
gs 1 -1 sc (A) col0 sh gr
/Times-Roman ff 222.25 scf sf
450 5040 m
gs 1 -1 sc (C) col0 sh gr
/Times-Roman ff 222.25 scf sf
450 5490 m
gs 1 -1 sc (D) col0 sh gr
/Times-Roman ff 158.75 scf sf
855 5850 m
gs 1 -1 sc (0) col0 sh gr
/Times-Roman ff 158.75 scf sf
1980 5850 m
gs 1 -1 sc (5) col0 sh gr
/Times-Roman ff 158.75 scf sf
3060 5850 m
gs 1 -1 sc (10) col0 sh gr
/Times-Roman ff 158.75 scf sf
4185 5850 m
gs 1 -1 sc (15) col0 sh gr
% here ends figure;
pagefooter
showpage
%%Trailer
%EOF
