%!PS-Adobe-3.0 EPSF-3.0
%%Title: time-varying-graph.fig
%%Creator: fig2dev Version 3.2 Patchlevel 5e
%%CreationDate: Sat Jul 23 14:27:09 2016
%%BoundingBox: 0 0 481 117
%Magnification: 1.0000
%%EndComments
%%BeginProlog
/$F2psDict 200 dict def
$F2psDict begin
$F2psDict /mtrx matrix put
/col-1 {0 setgray} bind def
/col0 {0.000 0.000 0.000 srgb} bind def
/col1 {0.000 0.000 1.000 srgb} bind def
/col2 {0.000 1.000 0.000 srgb} bind def
/col3 {0.000 1.000 1.000 srgb} bind def
/col4 {1.000 0.000 0.000 srgb} bind def
/col5 {1.000 0.000 1.000 srgb} bind def
/col6 {1.000 1.000 0.000 srgb} bind def
/col7 {1.000 1.000 1.000 srgb} bind def
/col8 {0.000 0.000 0.560 srgb} bind def
/col9 {0.000 0.000 0.690 srgb} bind def
/col10 {0.000 0.000 0.820 srgb} bind def
/col11 {0.530 0.810 1.000 srgb} bind def
/col12 {0.000 0.560 0.000 srgb} bind def
/col13 {0.000 0.690 0.000 srgb} bind def
/col14 {0.000 0.820 0.000 srgb} bind def
/col15 {0.000 0.560 0.560 srgb} bind def
/col16 {0.000 0.690 0.690 srgb} bind def
/col17 {0.000 0.820 0.820 srgb} bind def
/col18 {0.560 0.000 0.000 srgb} bind def
/col19 {0.690 0.000 0.000 srgb} bind def
/col20 {0.820 0.000 0.000 srgb} bind def
/col21 {0.560 0.000 0.560 srgb} bind def
/col22 {0.690 0.000 0.690 srgb} bind def
/col23 {0.820 0.000 0.820 srgb} bind def
/col24 {0.500 0.190 0.000 srgb} bind def
/col25 {0.630 0.250 0.000 srgb} bind def
/col26 {0.750 0.380 0.000 srgb} bind def
/col27 {1.000 0.500 0.500 srgb} bind def
/col28 {1.000 0.630 0.630 srgb} bind def
/col29 {1.000 0.750 0.750 srgb} bind def
/col30 {1.000 0.880 0.880 srgb} bind def
/col31 {1.000 0.840 0.000 srgb} bind def

end

/cp {closepath} bind def
/ef {eofill} bind def
/gr {grestore} bind def
/gs {gsave} bind def
/sa {save} bind def
/rs {restore} bind def
/l {lineto} bind def
/m {moveto} bind def
/rm {rmoveto} bind def
/n {newpath} bind def
/s {stroke} bind def
/sh {show} bind def
/slc {setlinecap} bind def
/slj {setlinejoin} bind def
/slw {setlinewidth} bind def
/srgb {setrgbcolor} bind def
/rot {rotate} bind def
/sc {scale} bind def
/sd {setdash} bind def
/ff {findfont} bind def
/sf {setfont} bind def
/scf {scalefont} bind def
/sw {stringwidth} bind def
/tr {translate} bind def
/tnt {dup dup currentrgbcolor
  4 -2 roll dup 1 exch sub 3 -1 roll mul add
  4 -2 roll dup 1 exch sub 3 -1 roll mul add
  4 -2 roll dup 1 exch sub 3 -1 roll mul add srgb}
  bind def
/shd {dup dup currentrgbcolor 4 -2 roll mul 4 -2 roll mul
  4 -2 roll mul srgb} bind def
 /DrawEllipse {
	/endangle exch def
	/startangle exch def
	/yrad exch def
	/xrad exch def
	/y exch def
	/x exch def
	/savematrix mtrx currentmatrix def
	x y tr xrad yrad sc 0 0 1 startangle endangle arc
	closepath
	savematrix setmatrix
	} def

/$F2psBegin {$F2psDict begin /$F2psEnteredState save def} def
/$F2psEnd {$F2psEnteredState restore end} def

/pageheader {
save
newpath 0 117 moveto 0 0 lineto 481 0 lineto 481 117 lineto closepath clip newpath
-155.0 369.4 translate
1 -1 scale
$F2psBegin
10 setmiterlimit
0 slj 0 slc
 0.06299 0.06299 sc
} bind def
/pagefooter {
$F2psEnd
restore
} bind def
%%EndProlog
pageheader
%
% Fig objects follow
%
% 
% here starts figure with depth 52
% Ellipse
7.500 slw
n 4725 5175 45 45 0 360 DrawEllipse gs col12 1.00 shd ef gr gs col12 s gr

% Polyline
0 slj
0 slc
 [60] 0 sd
n 7875 5175 m
 7425 4950 l gs col20 s gr  [] 0 sd
% Polyline
 [60] 0 sd
n 7425 4500 m
 8325 4950 l gs col20 s gr  [] 0 sd
% Polyline
n 7425 4950 m
 8325 4500 l gs col12 s gr 
% Polyline
n 4725 5175 m
 4275 4950 l gs col12 s gr 
% Polyline
n 4725 4275 m
 5175 4950 l gs col12 s gr 
% Polyline
n 6300 5175 m
 5850 4950 l gs col0 s gr 
% Polyline
n 6300 4275 m
 6750 4950 l gs col0 s gr 
% Polyline
 [60] 0 sd
n 5850 4950 m
 6300 4275 l gs col20 s gr  [] 0 sd
% Ellipse
n 4275 4500 45 45 0 360 DrawEllipse gs 0.00 setgray ef gr gs col0 s gr

% Ellipse
n 4275 4950 45 45 0 360 DrawEllipse gs 0.00 setgray ef gr gs col0 s gr

% Ellipse
n 5175 4950 45 45 0 360 DrawEllipse gs 0.00 setgray ef gr gs col0 s gr

% Ellipse
n 5175 4500 45 45 0 360 DrawEllipse gs 0.00 setgray ef gr gs col0 s gr

% Ellipse
n 4725 4275 45 45 0 360 DrawEllipse gs 0.00 setgray ef gr gs col0 s gr

% Ellipse
n 5850 4500 45 45 0 360 DrawEllipse gs 0.00 setgray ef gr gs col0 s gr

% Ellipse
n 6300 4275 45 45 0 360 DrawEllipse gs 0.00 setgray ef gr gs col0 s gr

% Ellipse
n 6750 4500 45 45 0 360 DrawEllipse gs 0.00 setgray ef gr gs col0 s gr

% Ellipse
n 5850 4950 45 45 0 360 DrawEllipse gs 0.00 setgray ef gr gs col0 s gr

% Ellipse
n 6300 5175 45 45 0 360 DrawEllipse gs 0.00 setgray ef gr gs col0 s gr

% Ellipse
n 6750 4950 45 45 0 360 DrawEllipse gs 0.00 setgray ef gr gs col0 s gr

% Ellipse
n 7425 4500 45 45 0 360 DrawEllipse gs 0.00 setgray ef gr gs col0 s gr

% Ellipse
n 7425 4950 45 45 0 360 DrawEllipse gs 0.00 setgray ef gr gs col0 s gr

% Ellipse
n 7875 4275 45 45 0 360 DrawEllipse gs 0.00 setgray ef gr gs col0 s gr

% Ellipse
n 8325 4950 45 45 0 360 DrawEllipse gs 0.00 setgray ef gr gs col0 s gr

% Ellipse
n 2700 4500 45 45 0 360 DrawEllipse gs 0.00 setgray ef gr gs col0 s gr

% Ellipse
n 3150 4275 45 45 0 360 DrawEllipse gs 0.00 setgray ef gr gs col0 s gr

% Ellipse
n 3600 4500 45 45 0 360 DrawEllipse gs 0.00 setgray ef gr gs col0 s gr

% Ellipse
n 3375 4950 45 45 0 360 DrawEllipse gs 0.00 setgray ef gr gs col0 s gr

% Ellipse
n 2925 4950 45 45 0 360 DrawEllipse gs 0.00 setgray ef gr gs col0 s gr

% Ellipse
n 9000 4500 45 45 0 360 DrawEllipse gs 0.00 setgray ef gr gs col0 s gr

% Ellipse
n 9450 4275 45 45 0 360 DrawEllipse gs 0.00 setgray ef gr gs col0 s gr

% Ellipse
n 9900 4500 45 45 0 360 DrawEllipse gs 0.00 setgray ef gr gs col0 s gr

% Ellipse
n 9675 4950 45 45 0 360 DrawEllipse gs 0.00 setgray ef gr gs col0 s gr

% Ellipse
n 9225 4950 45 45 0 360 DrawEllipse gs 0.00 setgray ef gr gs col0 s gr

% Ellipse
n 7875 5175 45 45 0 360 DrawEllipse gs 0.00 setgray ef gr gs col0 s gr

% Ellipse
n 8325 4500 45 45 0 360 DrawEllipse gs 0.00 setgray ef gr gs col0 s gr

% Polyline
n 3150 4275 m 2700 4500 l 3600 4500 l 3375 4950 l 2925 4950 l 3150 4275 l

 3600 4500 l gs col0 s gr 
% Polyline
n 3375 4950 m
 2700 4500 l gs col0 s gr 
% Polyline
n 4725 4275 m
 5175 4500 l gs col0 s gr 
% Polyline
n 4275 4500 m
 5175 4950 l gs col0 s gr 
% Polyline
n 4275 4500 m
 4725 4275 l gs col0 s gr 
% Polyline
n 5175 4500 m
 5175 4950 l gs col0 s gr 
% Polyline
n 4725 4275 m
 4275 4950 l gs col0 s gr 
% Polyline
n 4275 4500 m
 5175 4500 l gs col0 s gr 
% Polyline
n 4275 4950 m
 5175 4950 l gs col0 s gr 
% Polyline
n 5850 4500 m
 6750 4950 l gs col0 s gr 
% Polyline
n 9000 4500 m 9450 4275 l 9900 4500 l
 9000 4500 l  cp gs col0 s gr 
% Polyline
n 9900 4500 m
 9675 4950 l gs col0 s gr 
% Polyline
n 9450 4275 m 9225 4950 l
 9675 4950 l gs col0 s gr 
% Polyline
n 9000 4500 m
 9675 4950 l gs col0 s gr 
% Polyline
n 5850 4950 m 6750 4950 l 6750 4500 l 6300 4275 l 5850 4500 l
 6795 4500 l gs col0 s gr 
% Polyline
n 7425 4950 m 8325 4950 l 8325 4500 l 7875 4275 l 7425 4500 l
 8370 4500 l gs col0 s gr 
/Times-Roman ff 158.75 scf sf
2475 4500 m
gs 1 -1 sc (a) col0 sh gr
/Times-Roman ff 158.75 scf sf
4050 4500 m
gs 1 -1 sc (a) col0 sh gr
/Times-Roman ff 158.75 scf sf
5625 4500 m
gs 1 -1 sc (a) col0 sh gr
/Times-Roman ff 158.75 scf sf
7245 4500 m
gs 1 -1 sc (a) col0 sh gr
/Times-Roman ff 158.75 scf sf
8820 4500 m
gs 1 -1 sc (a) col0 sh gr
/Times-Roman ff 158.75 scf sf
3105 4140 m
gs 1 -1 sc (b) col0 sh gr
/Times-Roman ff 158.75 scf sf
4680 4140 m
gs 1 -1 sc (b) col0 sh gr
/Times-Roman ff 158.75 scf sf
6255 4140 m
gs 1 -1 sc (b) col0 sh gr
/Times-Roman ff 158.75 scf sf
7830 4140 m
gs 1 -1 sc (b) col0 sh gr
/Times-Roman ff 158.75 scf sf
9405 4140 m
gs 1 -1 sc (b) col0 sh gr
/Times-Roman ff 158.75 scf sf
3690 4500 m
gs 1 -1 sc (c) col0 sh gr
/Times-Roman ff 158.75 scf sf
5265 4500 m
gs 1 -1 sc (c) col0 sh gr
/Times-Roman ff 158.75 scf sf
6840 4500 m
gs 1 -1 sc (c) col0 sh gr
/Times-Roman ff 158.75 scf sf
9990 4500 m
gs 1 -1 sc (c) col0 sh gr
/Times-Roman ff 158.75 scf sf
3465 4995 m
gs 1 -1 sc (d) col0 sh gr
/Times-Roman ff 158.75 scf sf
5265 4995 m
gs 1 -1 sc (d) col0 sh gr
/Times-Roman ff 158.75 scf sf
6840 4995 m
gs 1 -1 sc (d) col0 sh gr
/Times-Roman ff 158.75 scf sf
8415 4995 m
gs 1 -1 sc (d) col0 sh gr
/Times-Roman ff 158.75 scf sf
9765 4995 m
gs 1 -1 sc (d) col0 sh gr
/Times-Roman ff 158.75 scf sf
2745 4995 m
gs 1 -1 sc (e) col0 sh gr
/Times-Roman ff 158.75 scf sf
4050 4995 m
gs 1 -1 sc (e) col0 sh gr
/Times-Roman ff 158.75 scf sf
5625 4995 m
gs 1 -1 sc (e) col0 sh gr
/Times-Roman ff 158.75 scf sf
7245 4995 m
gs 1 -1 sc (e) col0 sh gr
/Times-Roman ff 158.75 scf sf
9045 4995 m
gs 1 -1 sc (e) col0 sh gr
/Times-Roman ff 158.75 scf sf
4680 5400 m
gs 1 -1 sc (f) col0 sh gr
/Times-Roman ff 158.75 scf sf
6255 5400 m
gs 1 -1 sc (f) col0 sh gr
/Times-Roman ff 222.25 scf sf
2925 5850 m
gs 1 -1 sc (T=1) col0 sh gr
/Times-Roman ff 222.25 scf sf
4500 5850 m
gs 1 -1 sc (T=2) col0 sh gr
/Times-Roman ff 222.25 scf sf
5985 5850 m
gs 1 -1 sc (T=2.5) col0 sh gr
/Times-Roman ff 222.25 scf sf
7650 5850 m
gs 1 -1 sc (T=4) col0 sh gr
/Times-Roman ff 222.25 scf sf
9270 5850 m
gs 1 -1 sc (T=5) col0 sh gr
/Times-Roman ff 158.75 scf sf
7830 5400 m
gs 1 -1 sc (f) col0 sh gr
/Times-Roman ff 158.75 scf sf
8415 4500 m
gs 1 -1 sc (c) col0 sh gr
% here ends figure;
pagefooter
showpage
%%Trailer
%EOF
