%!PS-Adobe-3.0 EPSF-3.0
%%Title: tvg-casteigts.fig
%%Creator: fig2dev Version 3.2 Patchlevel 5e
%%CreationDate: Mon Jul 25 16:02:56 2016
%%BoundingBox: 0 0 235 83
%Magnification: 1.0000
%%EndComments
%%BeginProlog
/$F2psDict 200 dict def
$F2psDict begin
$F2psDict /mtrx matrix put
/col-1 {0 setgray} bind def
/col0 {0.000 0.000 0.000 srgb} bind def
/col1 {0.000 0.000 1.000 srgb} bind def
/col2 {0.000 1.000 0.000 srgb} bind def
/col3 {0.000 1.000 1.000 srgb} bind def
/col4 {1.000 0.000 0.000 srgb} bind def
/col5 {1.000 0.000 1.000 srgb} bind def
/col6 {1.000 1.000 0.000 srgb} bind def
/col7 {1.000 1.000 1.000 srgb} bind def
/col8 {0.000 0.000 0.560 srgb} bind def
/col9 {0.000 0.000 0.690 srgb} bind def
/col10 {0.000 0.000 0.820 srgb} bind def
/col11 {0.530 0.810 1.000 srgb} bind def
/col12 {0.000 0.560 0.000 srgb} bind def
/col13 {0.000 0.690 0.000 srgb} bind def
/col14 {0.000 0.820 0.000 srgb} bind def
/col15 {0.000 0.560 0.560 srgb} bind def
/col16 {0.000 0.690 0.690 srgb} bind def
/col17 {0.000 0.820 0.820 srgb} bind def
/col18 {0.560 0.000 0.000 srgb} bind def
/col19 {0.690 0.000 0.000 srgb} bind def
/col20 {0.820 0.000 0.000 srgb} bind def
/col21 {0.560 0.000 0.560 srgb} bind def
/col22 {0.690 0.000 0.690 srgb} bind def
/col23 {0.820 0.000 0.820 srgb} bind def
/col24 {0.500 0.190 0.000 srgb} bind def
/col25 {0.630 0.250 0.000 srgb} bind def
/col26 {0.750 0.380 0.000 srgb} bind def
/col27 {1.000 0.500 0.500 srgb} bind def
/col28 {1.000 0.630 0.630 srgb} bind def
/col29 {1.000 0.750 0.750 srgb} bind def
/col30 {1.000 0.880 0.880 srgb} bind def
/col31 {1.000 0.840 0.000 srgb} bind def

end

/cp {closepath} bind def
/ef {eofill} bind def
/gr {grestore} bind def
/gs {gsave} bind def
/sa {save} bind def
/rs {restore} bind def
/l {lineto} bind def
/m {moveto} bind def
/rm {rmoveto} bind def
/n {newpath} bind def
/s {stroke} bind def
/sh {show} bind def
/slc {setlinecap} bind def
/slj {setlinejoin} bind def
/slw {setlinewidth} bind def
/srgb {setrgbcolor} bind def
/rot {rotate} bind def
/sc {scale} bind def
/sd {setdash} bind def
/ff {findfont} bind def
/sf {setfont} bind def
/scf {scalefont} bind def
/sw {stringwidth} bind def
/tr {translate} bind def
/tnt {dup dup currentrgbcolor
  4 -2 roll dup 1 exch sub 3 -1 roll mul add
  4 -2 roll dup 1 exch sub 3 -1 roll mul add
  4 -2 roll dup 1 exch sub 3 -1 roll mul add srgb}
  bind def
/shd {dup dup currentrgbcolor 4 -2 roll mul 4 -2 roll mul
  4 -2 roll mul srgb} bind def
 /DrawEllipse {
	/endangle exch def
	/startangle exch def
	/yrad exch def
	/xrad exch def
	/y exch def
	/x exch def
	/savematrix mtrx currentmatrix def
	x y tr xrad yrad sc 0 0 1 startangle endangle arc
	closepath
	savematrix setmatrix
	} def

/$F2psBegin {$F2psDict begin /$F2psEnteredState save def} def
/$F2psEnd {$F2psEnteredState restore end} def

/pageheader {
save
newpath 0 83 moveto 0 0 lineto 235 0 lineto 235 83 lineto closepath clip newpath
-183.3 368.9 translate
1 -1 scale
$F2psBegin
10 setmiterlimit
0 slj 0 slc
 0.06299 0.06299 sc
} bind def
/pagefooter {
$F2psEnd
restore
} bind def
%%EndProlog
pageheader
%
% Fig objects follow
%
% 
% here starts figure with depth 52
% Ellipse
7.500 slw
n 4050 5175 45 45 0 360 DrawEllipse gs 0.00 setgray ef gr gs col0 s gr

% Ellipse
n 3375 5625 45 45 0 360 DrawEllipse gs 0.00 setgray ef gr gs col0 s gr

% Ellipse
n 5175 5175 45 45 0 360 DrawEllipse gs 0.00 setgray ef gr gs col0 s gr

% Ellipse
n 3375 4725 45 45 0 360 DrawEllipse gs 0.00 setgray ef gr gs col0 s gr

% Polyline
0 slj
0 slc
n 3375 4725 m
 4050 5175 l gs col0 s gr 
% Polyline
n 3375 4725 m 3375 5625 l 4050 5175 l
 5175 5175 l gs col0 s gr 
/Times-Roman ff 190.50 scf sf
2925 5220 m
gs 1 -1 sc ([1,5\)) col0 sh gr
/Times-Roman ff 190.50 scf sf
3600 5670 m
gs 1 -1 sc ([1,3\)) col0 sh gr
/Times-Roman ff 190.50 scf sf
3600 4770 m
gs 1 -1 sc ([0,4\)) col0 sh gr
/Times-Roman ff 190.50 scf sf
4185 5040 m
gs 1 -1 sc ([2,4\)   [6,8\)) col0 sh gr
/AvantGarde-Book ff 190.50 scf sf
4557 5139 m
gs 1 -1 sc (U) col0 sh gr
% here ends figure;
% 
% here starts figure with depth 50
% Ellipse
7.500 slw
n 5850 4725 45 45 0 360 DrawEllipse gs col7 0.00 shd ef gr gs col0 s gr

% Ellipse
n 6300 5175 45 45 0 360 DrawEllipse gs col7 0.00 shd ef gr gs col0 s gr

% Ellipse
n 5850 5625 45 45 0 360 DrawEllipse gs col7 0.00 shd ef gr gs col0 s gr

% Polyline
0 slj
0 slc
n 5175 5175 m
 5850 5625 l gs col7 0.00 shd ef gr gs col0 s gr 
% Polyline
n 5850 5625 m
 6300 5175 l gs col7 0.00 shd ef gr gs col0 s gr 
% Polyline
n 6300 5175 m
 5850 4725 l gs col7 0.00 shd ef gr gs col0 s gr 
% Polyline
n 5850 4725 m
 5850 5625 l gs col7 0.00 shd ef gr gs col0 s gr 
/Times-Roman ff 190.50 scf sf
5085 5535 m
gs 1 -1 sc ([0,8\)) col0 sh gr
/Times-Roman ff 190.50 scf sf
5445 5130 m
gs 1 -1 sc ([2,3\)) col0 sh gr
/Times-Roman ff 190.50 scf sf
6120 4905 m
gs 1 -1 sc ([1,2\)) col0 sh gr
/Times-Roman ff 190.50 scf sf
6120 5535 m
gs 1 -1 sc ([8,12\)) col0 sh gr
/Times-Roman ff 158.75 scf sf
3195 5670 m
gs 1 -1 sc (b) col0 sh gr
/Times-Roman ff 158.75 scf sf
4095 5355 m
gs 1 -1 sc (c) col0 sh gr
/Times-Roman ff 158.75 scf sf
5040 5355 m
gs 1 -1 sc (d) col0 sh gr
/Times-Roman ff 158.75 scf sf
3240 4635 m
gs 1 -1 sc (a) col0 sh gr
/Times-Roman ff 158.75 scf sf
5805 5805 m
gs 1 -1 sc (g) col0 sh gr
/Times-Roman ff 158.75 scf sf
6390 5220 m
gs 1 -1 sc (f) col0 sh gr
/Times-Roman ff 158.75 scf sf
5805 4635 m
gs 1 -1 sc (e) col0 sh gr
% here ends figure;
pagefooter
showpage
%%Trailer
%EOF
