%!PS-Adobe-3.0 EPSF-3.0
%%BoundingBox: 65 53 266 211
%%HiResBoundingBox: 65.500000 53.600000 265.900000 211.000000
%.....................................
%%Creator: GPL Ghostscript 871 (epswrite)
%%CreationDate: 2012/01/28 17:04:56
%%DocumentData: Clean7Bit
%%LanguageLevel: 2
%%EndComments
%%BeginProlog
% This copyright applies to everything between here and the %%EndProlog:
% Copyright (C) 2010 Artifex Software, Inc.  All rights reserved.
%%BeginResource: procset GS_epswrite_2_0_1001 1.001 0
/GS_epswrite_2_0_1001 80 dict dup begin
/PageSize 2 array def/setpagesize{ PageSize aload pop 3 index eq exch
4 index eq and{ pop pop pop}{ PageSize dup  1
5 -1 roll put 0 4 -1 roll put dup null eq {false} {dup where} ifelse{ exch get exec}
{ pop/setpagedevice where
{ pop 1 dict dup /PageSize PageSize put setpagedevice}
{ /setpage where{ pop PageSize aload pop pageparams 3 {exch pop} repeat
setpage}if}ifelse}ifelse}ifelse} bind def
/!{bind def}bind def/#{load def}!/N/counttomark #
/rG{3{3 -1 roll 255 div}repeat setrgbcolor}!/G{255 div setgray}!/K{0 G}!
/r6{dup 3 -1 roll rG}!/r5{dup 3 1 roll rG}!/r3{dup rG}!
/w/setlinewidth #/J/setlinecap #
/j/setlinejoin #/M/setmiterlimit #/d/setdash #/i/setflat #
/m/moveto #/l/lineto #/c/rcurveto #
/p{N 2 idiv{N -2 roll rlineto}repeat}!
/P{N 0 gt{N -2 roll moveto p}if}!
/h{p closepath}!/H{P closepath}!
/lx{0 rlineto}!/ly{0 exch rlineto}!/v{0 0 6 2 roll c}!/y{2 copy c}!
/re{4 -2 roll m exch dup lx exch ly neg lx h}!
/^{3 index neg 3 index neg}!
/f{P fill}!/f*{P eofill}!/s{H stroke}!/S{P stroke}!
/q/gsave #/Q/grestore #/rf{re fill}!
/Y{P clip newpath}!/Y*{P eoclip newpath}!/rY{re Y}!
/|={pop exch 4 1 roll 1 array astore cvx 3 array astore cvx exch 1 index def exec}!
/|{exch string readstring |=}!
/+{dup type/nametype eq{2 index 7 add -3 bitshift 2 index mul}if}!
/@/currentfile #/${+ @ |}!
/B{{2 copy string{readstring pop}aload pop 4 array astore cvx
3 1 roll}repeat pop pop true}!
/Ix{[1 0 0 1 11 -2 roll exch neg exch neg]exch}!
/,{true exch Ix imagemask}!/If{false exch Ix imagemask}!/I{exch Ix image}!
/Ic{exch Ix false 3 colorimage}!
/F{/Columns counttomark 3 add -2 roll/Rows exch/K -1/BlackIs1 true>>
/CCITTFaxDecode filter}!/FX{<</EndOfBlock false F}!
/X{/ASCII85Decode filter}!/@X{@ X}!/&2{2 index 2 index}!
/@F{@ &2<<F}!/@C{@X &2 FX}!
/$X{+ @X |}!/&4{4 index 4 index}!/$F{+ @ &4<<F |}!/$C{+ @X &4 FX |}!
/IC{3 1 roll 10 dict begin 1{/ImageType/Interpolate/Decode/DataSource
/ImageMatrix/BitsPerComponent/Height/Width}{exch def}forall
currentdict end image}!
/~{@ read {pop} if}!
end def
%%EndResource
/pagesave null def
%%EndProlog
%%Page: 1 1
%%BeginPageSetup
GS_epswrite_2_0_1001 begin
/pagesave save store 197 dict begin
0.1 0.1 scale
%%EndPageSetup
gsave mark
Q q
0 0 250000 250000 re
Y
5 w
K
813.5 610 31.5 0 P
2577.5 610 -31.5 0 S
747 591 31 40 /3U
$C
3XZ3SFQf&P:$Ln$qG%"iUu24Ps8W-![[7$kBn'o8.qrM$$n,OL~>
,
813.5 758 31.5 0 P
2577.5 758 -31.5 0 S
686 739 31 40 /6U
$C
3XZ'1+R.8q]a!^bS#-.n5Q8&QCVJM)@4YG]lXXu40O0&+qu4ZMJ+s~>
,
716 739 3U ,
747 739 3U ,
813.5 906 31.5 0 P
2577.5 906 -31.5 0 S
663 888 14 39 /3Y
$X
!.4co!.4co!.4co!.4co!.4co!.4co!.4co!.4co!.4co!.4co!.4co!.4co!.4co!.4coJ,Ffo
J,CDd!W2rq!.4c/!'C6D!#t~>
,
686 887 3U ,
716 887 3U ,
747 887 3U ,
813.5 1053.5 31.5 0 P
2577.5 1053.5 -31.5 0 S
663 1035 3Y ,
686 1034 6U ,
716 1034 3U ,
747 1034 3U ,
813.5 1201.5 31.5 0 P
2577.5 1201.5 -31.5 0 S
655 1183 31 39 /6Y
$C
3#Q)FQZ)<hYjLDe%c)mK3,[M1%Goq7Gi/Q$<pOO</24L^e1dSM~>
,
686 1182 3U ,
716 1182 3U ,
747 1182 3U ,
813.5 1349.5 31.5 0 P
2577.5 1349.5 -31.5 0 S
655 1331 6Y ,
686 1330 6U ,
716 1330 3U ,
747 1330 3U ,
813.5 1497.5 31.5 0 P
2577.5 1497.5 -31.5 0 S
655 1478 31 40 /4C
$C
+c-IE-UH-%]HHj9mn3?S+4dJ!:8!tX_ij&7mr!CMs8TO>X)"r)Nl&1.$3~>
,
686 1478 3U ,
716 1478 3U ,
747 1478 3U ,
813.5 1645.5 31.5 0 P
2577.5 1645.5 -31.5 0 S
655 1626 4C ,
686 1626 6U ,
716 1626 3U ,
747 1626 3U ,
813.5 1793 31.5 0 P
2577.5 1793 -31.5 0 S
655 1775 32 39 /7C
$C
--uVks3:gUo#N31g])3$g])3$hqr@]hqqqWrU55\~>
,
686 1774 3U ,
716 1774 3U ,
747 1774 3U ,
813.5 1941 31.5 0 P
2577.5 1941 -31.5 0 S
655 1923 7C ,
686 1922 6U ,
716 1922 3U ,
747 1922 3U ,
813.5 2089 31.5 0 P
2577.5 2089 -31.5 0 S
655 2070 6U ,
686 2070 3U ,
716 2070 3U ,
747 2070 3U ,
813.5 610 0 31.5 P
813.5 2089 0 -31.5 S
750 537 3Y ,
772 536 3U ,
803 536 6U ,
833 536 3U ,
864 536 3U ,
1065.5 610 0 31.5 P
1065.5 2089 0 -31.5 S
1002 537 3Y ,
1032 537 3Y ,
1055 536 3U ,
1085 536 3U ,
1116 536 3U ,
1317.5 610 0 31.5 P
1317.5 2089 0 -31.5 S
1254 537 3Y ,
1284 537 3Y ,
1307 536 6U ,
1337 536 3U ,
1368 536 3U ,
1569.5 610 0 31.5 P
1569.5 2089 0 -31.5 S
1506 537 3Y ,
1528 537 6Y ,
1559 536 3U ,
1589 536 3U ,
1620 536 3U ,
1821.5 610 0 31.5 P
1821.5 2089 0 -31.5 S
1758 537 3Y ,
1780 537 6Y ,
1811 536 6U ,
1841 536 3U ,
1872 536 3U ,
2073.5 610 0 31.5 P
2073.5 2089 0 -31.5 S
2010 537 3Y ,
2032 536 4C ,
2063 536 3U ,
2093 536 3U ,
2124 536 3U ,
2325.5 610 0 31.5 P
2325.5 2089 0 -31.5 S
2262 537 3Y ,
2284 536 4C ,
2315 536 6U ,
2345 536 3U ,
2376 536 3U ,
2577.5 610 0 31.5 P
2577.5 2089 0 -31.5 S
2514 537 3Y ,
2536 537 7C ,
2567 536 3U ,
2597 536 3U ,
2628 536 3U ,
813.5 610 1764 1479 re
S
2.5 w
882 1978.75 0 31.5 S
866.25 1994.5 31.5 0 S
1180.5 1978.75 0 31.5 S
1164.75 1994.5 31.5 0 S
1301.5 1978.25 0 31.5 S
1285.75 1994 31.5 0 S
1361.5 1978.25 0 31.5 S
1345.75 1994 31.5 0 S
1382 1977.75 0 31.5 S
1366.25 1993.5 31.5 0 S
1412.5 1977.25 0 31.5 S
1396.75 1993 31.5 0 S
1422 1977.25 0 31.5 S
1406.25 1993 31.5 0 S
1470 1976.75 0 31.5 S
1454.25 1992.5 31.5 0 S
1475.5 1976.75 0 31.5 S
1459.75 1992.5 31.5 0 S
1503 1976.25 0 31.5 S
1487.25 1992 31.5 0 S
1533.5 1975.75 0 31.5 S
1517.75 1991.5 31.5 0 S
1554 1975.75 0 31.5 S
1538.25 1991.5 31.5 0 S
1557 1975.25 0 31.5 S
1541.25 1991 31.5 0 S
1559 1975.25 0 31.5 S
1543.25 1991 31.5 0 S
1573.5 1974.75 0 31.5 S
1557.75 1990.5 31.5 0 S
1581 1974.25 0 31.5 S
1565.25 1990 31.5 0 S
1582 1973.75 0 31.5 S
1566.25 1989.5 31.5 0 S
1582.5 1973.25 0 31.5 S
1566.75 1989 31.5 0 S
1585.5 1972.75 0 31.5 S
1569.75 1988.5 31.5 0 S
1586.5 1971.25 0 31.5 S
1570.75 1987 31.5 0 S
1587 1970.75 0 31.5 S
1571.25 1986.5 31.5 0 S
1587.5 1969.25 0 31.5 S
1571.75 1985 31.5 0 S
1588 1969.25 0 31.5 S
1572.25 1985 31.5 0 S
1589.5 1968.75 0 31.5 S
1573.75 1984.5 31.5 0 S
1591.5 1968.25 0 31.5 S
1575.75 1984 31.5 0 S
1592 1967.75 0 31.5 S
1576.25 1983.5 31.5 0 S
1592.5 1966.25 0 31.5 S
1576.75 1982 31.5 0 S
1593 1966.25 0 31.5 S
1577.25 1982 31.5 0 S
1593.5 1964.75 0 31.5 S
1577.75 1980.5 31.5 0 S
1594 1964.25 0 31.5 S
1578.25 1980 31.5 0 S
1594.5 1963.75 0 31.5 S
1578.75 1979.5 31.5 0 S
1595 1962.25 0 31.5 S
1579.25 1978 31.5 0 S
1595.5 1961.25 0 31.5 S
1579.75 1977 31.5 0 S
1596 1961.25 0 31.5 S
1580.25 1977 31.5 0 S
1596.5 1960.25 0 31.5 S
1580.75 1976 31.5 0 S
1597 1958.25 0 31.5 S
1581.25 1974 31.5 0 S
1597.5 1956.25 0 31.5 S
1581.75 1972 31.5 0 S
1598 1954.75 0 31.5 S
1582.25 1970.5 31.5 0 S
1598.5 1954.25 0 31.5 S
1582.75 1970 31.5 0 S
1599 1952.25 0 31.5 S
1583.25 1968 31.5 0 S
1599.5 1951.75 0 31.5 S
1583.75 1967.5 31.5 0 S
1600 1950.25 0 31.5 S
1584.25 1966 31.5 0 S
1600.5 1948.25 0 31.5 S
1584.75 1964 31.5 0 S
1601.5 1948.25 0 31.5 S
1585.75 1964 31.5 0 S
1602 1946.75 0 31.5 S
1586.25 1962.5 31.5 0 S
1602.5 1945.75 0 31.5 S
1586.75 1961.5 31.5 0 S
1603 1944.75 0 31.5 S
1587.25 1960.5 31.5 0 S
1603.5 1943.25 0 31.5 S
1587.75 1959 31.5 0 S
1604 1941.75 0 31.5 S
1588.25 1957.5 31.5 0 S
1604.5 1941.25 0 31.5 S
1588.75 1957 31.5 0 S
1605 1939.75 0 31.5 S
1589.25 1955.5 31.5 0 S
1605.5 1938.75 0 31.5 S
1589.75 1954.5 31.5 0 S
1606 1937.75 0 31.5 S
1590.25 1953.5 31.5 0 S
1606.5 1936.75 0 31.5 S
1590.75 1952.5 31.5 0 S
1607 1935.25 0 31.5 S
1591.25 1951 31.5 0 S
1607.5 1934.25 0 31.5 S
1591.75 1950 31.5 0 S
1608 1933.25 0 31.5 S
1592.25 1949 31.5 0 S
1608.5 1932.75 0 31.5 S
1592.75 1948.5 31.5 0 S
1609 1931.25 0 31.5 S
1593.25 1947 31.5 0 S
1609.5 1929.25 0 31.5 S
1593.75 1945 31.5 0 S
1610 1928.75 0 31.5 S
1594.25 1944.5 31.5 0 S
1610.5 1927.75 0 31.5 S
1594.75 1943.5 31.5 0 S
1611 1926.25 0 31.5 S
1595.25 1942 31.5 0 S
1611.5 1923.75 0 31.5 S
1595.75 1939.5 31.5 0 S
1612 1921.25 0 31.5 S
1596.25 1937 31.5 0 S
1612.5 1920.25 0 31.5 S
1596.75 1936 31.5 0 S
1613 1917.25 0 31.5 S
1597.25 1933 31.5 0 S
1613.5 1914.25 0 31.5 S
1597.75 1930 31.5 0 S
1614 1910.75 0 31.5 S
1598.25 1926.5 31.5 0 S
1614.5 1909.25 0 31.5 S
1598.75 1925 31.5 0 S
1615 1907.75 0 31.5 S
1599.25 1923.5 31.5 0 S
1615.5 1905.75 0 31.5 S
1599.75 1921.5 31.5 0 S
1616 1903.25 0 31.5 S
1600.25 1919 31.5 0 S
1616.5 1901.75 0 31.5 S
1600.75 1917.5 31.5 0 S
1617 1898.75 0 31.5 S
1601.25 1914.5 31.5 0 S
1617.5 1898.25 0 31.5 S
1601.75 1914 31.5 0 S
1618 1896.25 0 31.5 S
1602.25 1912 31.5 0 S
1618.5 1894.75 0 31.5 S
1602.75 1910.5 31.5 0 S
1619 1891.75 0 31.5 S
1603.25 1907.5 31.5 0 S
1619.5 1888.75 0 31.5 S
1603.75 1904.5 31.5 0 S
1620 1887.25 0 31.5 S
1604.25 1903 31.5 0 S
1620.5 1885.75 0 31.5 S
1604.75 1901.5 31.5 0 S
1621 1882.25 0 31.5 S
1605.25 1898 31.5 0 S
1621.5 1880.75 0 31.5 S
1605.75 1896.5 31.5 0 S
1622 1878.75 0 31.5 S
1606.25 1894.5 31.5 0 S
1622.5 1875.75 0 31.5 S
1606.75 1891.5 31.5 0 S
1623 1874.25 0 31.5 S
1607.25 1890 31.5 0 S
1623.5 1872.75 0 31.5 S
1607.75 1888.5 31.5 0 S
1624 1871.25 0 31.5 S
1608.25 1887 31.5 0 S
1624.5 1870.25 0 31.5 S
1608.75 1886 31.5 0 S
1625 1866.75 0 31.5 S
1609.25 1882.5 31.5 0 S
1625.5 1863.25 0 31.5 S
1609.75 1879 31.5 0 S
1626 1860.25 0 31.5 S
1610.25 1876 31.5 0 S
1626.5 1857.75 0 31.5 S
1610.75 1873.5 31.5 0 S
1627 1856.25 0 31.5 S
1611.25 1872 31.5 0 S
1627.5 1852.75 0 31.5 S
1611.75 1868.5 31.5 0 S
1628 1850.75 0 31.5 S
1612.25 1866.5 31.5 0 S
1628.5 1847.75 0 31.5 S
1612.75 1863.5 31.5 0 S
1629 1846.75 0 31.5 S
1613.25 1862.5 31.5 0 S
1629.5 1843.25 0 31.5 S
1613.75 1859 31.5 0 S
1630 1842.25 0 31.5 S
1614.25 1858 31.5 0 S
1630.5 1840.75 0 31.5 S
1614.75 1856.5 31.5 0 S
1631 1838.75 0 31.5 S
1615.25 1854.5 31.5 0 S
1631.5 1836.25 0 31.5 S
1615.75 1852 31.5 0 S
1632 1832.25 0 31.5 S
1616.25 1848 31.5 0 S
1632.5 1829.25 0 31.5 S
1616.75 1845 31.5 0 S
1633 1827.25 0 31.5 S
1617.25 1843 31.5 0 S
1633.5 1824.25 0 31.5 S
1617.75 1840 31.5 0 S
1634 1821.75 0 31.5 S
1618.25 1837.5 31.5 0 S
1634.5 1818.75 0 31.5 S
1618.75 1834.5 31.5 0 S
1635 1815.75 0 31.5 S
1619.25 1831.5 31.5 0 S
1635.5 1810.75 0 31.5 S
1619.75 1826.5 31.5 0 S
1636 1807.25 0 31.5 S
1620.25 1823 31.5 0 S
1636.5 1803.75 0 31.5 S
1620.75 1819.5 31.5 0 S
1637 1799.25 0 31.5 S
1621.25 1815 31.5 0 S
1637.5 1797.25 0 31.5 S
1621.75 1813 31.5 0 S
1638 1791.75 0 31.5 S
1622.25 1807.5 31.5 0 S
1638.5 1788.75 0 31.5 S
1622.75 1804.5 31.5 0 S
1639 1785.25 0 31.5 S
1623.25 1801 31.5 0 S
1639.5 1782.25 0 31.5 S
1623.75 1798 31.5 0 S
1640 1779.25 0 31.5 S
1624.25 1795 31.5 0 S
1640.5 1774.75 0 31.5 S
1624.75 1790.5 31.5 0 S
1641 1770.25 0 31.5 S
1625.25 1786 31.5 0 S
1641.5 1767.25 0 31.5 S
1625.75 1783 31.5 0 S
1642 1762.75 0 31.5 S
1626.25 1778.5 31.5 0 S
1642.5 1759.25 0 31.5 S
1626.75 1775 31.5 0 S
1643 1755.25 0 31.5 S
1627.25 1771 31.5 0 S
1643.5 1752.75 0 31.5 S
1627.75 1768.5 31.5 0 S
1644 1749.25 0 31.5 S
1628.25 1765 31.5 0 S
1644.5 1745.25 0 31.5 S
1628.75 1761 31.5 0 S
1645 1740.75 0 31.5 S
1629.25 1756.5 31.5 0 S
1645.5 1738.75 0 31.5 S
1629.75 1754.5 31.5 0 S
1646 1733.75 0 31.5 S
1630.25 1749.5 31.5 0 S
1646.5 1730.25 0 31.5 S
1630.75 1746 31.5 0 S
1647 1725.75 0 31.5 S
1631.25 1741.5 31.5 0 S
1647.5 1722.25 0 31.5 S
1631.75 1738 31.5 0 S
1648 1717.75 0 31.5 S
1632.25 1733.5 31.5 0 S
1648.5 1715.25 0 31.5 S
1632.75 1731 31.5 0 S
1649 1711.25 0 31.5 S
1633.25 1727 31.5 0 S
1649.5 1706.25 0 31.5 S
1633.75 1722 31.5 0 S
1650 1702.75 0 31.5 S
1634.25 1718.5 31.5 0 S
1650.5 1698.25 0 31.5 S
1634.75 1714 31.5 0 S
1651 1694.75 0 31.5 S
1635.25 1710.5 31.5 0 S
1651.5 1691.25 0 31.5 S
1635.75 1707 31.5 0 S
1652 1688.25 0 31.5 S
1636.25 1704 31.5 0 S
1652.5 1684.25 0 31.5 S
1636.75 1700 31.5 0 S
1653 1677.25 0 31.5 S
1637.25 1693 31.5 0 S
1653.5 1672.75 0 31.5 S
1637.75 1688.5 31.5 0 S
1654 1666.75 0 31.5 S
1638.25 1682.5 31.5 0 S
1654.5 1662.75 0 31.5 S
1638.75 1678.5 31.5 0 S
1655 1658.25 0 31.5 S
1639.25 1674 31.5 0 S
1655.5 1656.25 0 31.5 S
1639.75 1672 31.5 0 S
1656 1652.25 0 31.5 S
1640.25 1668 31.5 0 S
1656.5 1647.75 0 31.5 S
1640.75 1663.5 31.5 0 S
1657 1643.25 0 31.5 S
1641.25 1659 31.5 0 S
1657.5 1638.25 0 31.5 S
1641.75 1654 31.5 0 S
1658 1635.25 0 31.5 S
1642.25 1651 31.5 0 S
1658.5 1628.75 0 31.5 S
1642.75 1644.5 31.5 0 S
1659 1624.25 0 31.5 S
1643.25 1640 31.5 0 S
1659.5 1620.25 0 31.5 S
1643.75 1636 31.5 0 S
1660 1617.25 0 31.5 S
1644.25 1633 31.5 0 S
1660.5 1612.75 0 31.5 S
1644.75 1628.5 31.5 0 S
1661 1607.75 0 31.5 S
1645.25 1623.5 31.5 0 S
1661.5 1602.75 0 31.5 S
1645.75 1618.5 31.5 0 S
1662 1599.75 0 31.5 S
1646.25 1615.5 31.5 0 S
1662.5 1591.75 0 31.5 S
1646.75 1607.5 31.5 0 S
1663 1583.25 0 31.5 S
1647.25 1599 31.5 0 S
1663.5 1580.25 0 31.5 S
1647.75 1596 31.5 0 S
1664.5 1574.25 0 31.5 S
1648.75 1590 31.5 0 S
1665 1567.25 0 31.5 S
1649.25 1583 31.5 0 S
1665.5 1560.75 0 31.5 S
1649.75 1576.5 31.5 0 S
1666 1553.75 0 31.5 S
1650.25 1569.5 31.5 0 S
1666.5 1549.25 0 31.5 S
1650.75 1565 31.5 0 S
1667 1542.25 0 31.5 S
1651.25 1558 31.5 0 S
1667.5 1535.75 0 31.5 S
1651.75 1551.5 31.5 0 S
1668 1532.25 0 31.5 S
1652.25 1548 31.5 0 S
1668.5 1526.25 0 31.5 S
1652.75 1542 31.5 0 S
1669 1521.75 0 31.5 S
1653.25 1537.5 31.5 0 S
1669.5 1515.25 0 31.5 S
1653.75 1531 31.5 0 S
1670 1507.75 0 31.5 S
1654.25 1523.5 31.5 0 S
1670.5 1505.25 0 31.5 S
1654.75 1521 31.5 0 S
1671 1497.25 0 31.5 S
1655.25 1513 31.5 0 S
1671.5 1491.25 0 31.5 S
1655.75 1507 31.5 0 S
1672 1483.25 0 31.5 S
1656.25 1499 31.5 0 S
1672.5 1476.75 0 31.5 S
1656.75 1492.5 31.5 0 S
1673 1469.75 0 31.5 S
1657.25 1485.5 31.5 0 S
1673.5 1462.75 0 31.5 S
1657.75 1478.5 31.5 0 S
1674 1454.25 0 31.5 S
1658.25 1470 31.5 0 S
1674.5 1447.25 0 31.5 S
1658.75 1463 31.5 0 S
1675 1442.25 0 31.5 S
1659.25 1458 31.5 0 S
1675.5 1437.25 0 31.5 S
1659.75 1453 31.5 0 S
1676 1431.25 0 31.5 S
1660.25 1447 31.5 0 S
1676.5 1425.25 0 31.5 S
1660.75 1441 31.5 0 S
1677 1418.25 0 31.5 S
1661.25 1434 31.5 0 S
1677.5 1412.75 0 31.5 S
1661.75 1428.5 31.5 0 S
1678 1405.25 0 31.5 S
1662.25 1421 31.5 0 S
1678.5 1399.25 0 31.5 S
1662.75 1415 31.5 0 S
1679 1392.25 0 31.5 S
1663.25 1408 31.5 0 S
1679.5 1382.75 0 31.5 S
1663.75 1398.5 31.5 0 S
1680 1375.25 0 31.5 S
1664.25 1391 31.5 0 S
1680.5 1368.25 0 31.5 S
1664.75 1384 31.5 0 S
1681 1360.75 0 31.5 S
1665.25 1376.5 31.5 0 S
1681.5 1355.25 0 31.5 S
1665.75 1371 31.5 0 S
1682 1347.75 0 31.5 S
1666.25 1363.5 31.5 0 S
1682.5 1340.75 0 31.5 S
1666.75 1356.5 31.5 0 S
1683 1333.25 0 31.5 S
1667.25 1349 31.5 0 S
1683.5 1326.75 0 31.5 S
1667.75 1342.5 31.5 0 S
1684 1320.75 0 31.5 S
1668.25 1336.5 31.5 0 S
1684.5 1314.75 0 31.5 S
1668.75 1330.5 31.5 0 S
1685 1310.75 0 31.5 S
1669.25 1326.5 31.5 0 S
1685.5 1306.75 0 31.5 S
1669.75 1322.5 31.5 0 S
1686 1300.25 0 31.5 S
1670.25 1316 31.5 0 S
1686.5 1292.75 0 31.5 S
1670.75 1308.5 31.5 0 S
1687 1286.25 0 31.5 S
1671.25 1302 31.5 0 S
1687.5 1279.25 0 31.5 S
1671.75 1295 31.5 0 S
1688 1273.75 0 31.5 S
1672.25 1289.5 31.5 0 S
1688.5 1269.25 0 31.5 S
1672.75 1285 31.5 0 S
1689 1263.75 0 31.5 S
1673.25 1279.5 31.5 0 S
1689.5 1258.75 0 31.5 S
1673.75 1274.5 31.5 0 S
1690 1252.75 0 31.5 S
1674.25 1268.5 31.5 0 S
1690.5 1249.25 0 31.5 S
1674.75 1265 31.5 0 S
1691 1245.75 0 31.5 S
1675.25 1261.5 31.5 0 S
1691.5 1238.75 0 31.5 S
1675.75 1254.5 31.5 0 S
1692 1232.75 0 31.5 S
1676.25 1248.5 31.5 0 S
1692.5 1227.75 0 31.5 S
1676.75 1243.5 31.5 0 S
1693 1222.25 0 31.5 S
1677.25 1238 31.5 0 S
1693.5 1217.25 0 31.5 S
1677.75 1233 31.5 0 S
1694 1211.75 0 31.5 S
1678.25 1227.5 31.5 0 S
1694.5 1206.75 0 31.5 S
1678.75 1222.5 31.5 0 S
1695 1201.75 0 31.5 S
1679.25 1217.5 31.5 0 S
1695.5 1197.75 0 31.5 S
1679.75 1213.5 31.5 0 S
1696 1193.25 0 31.5 S
1680.25 1209 31.5 0 S
1696.5 1188.25 0 31.5 S
1680.75 1204 31.5 0 S
1697 1184.25 0 31.5 S
1681.25 1200 31.5 0 S
1697.5 1180.75 0 31.5 S
1681.75 1196.5 31.5 0 S
1698 1177.75 0 31.5 S
1682.25 1193.5 31.5 0 S
1698.5 1171.75 0 31.5 S
1682.75 1187.5 31.5 0 S
1699 1165.25 0 31.5 S
1683.25 1181 31.5 0 S
1699.5 1161.25 0 31.5 S
1683.75 1177 31.5 0 S
1700 1156.75 0 31.5 S
1684.25 1172.5 31.5 0 S
1700.5 1151.75 0 31.5 S
1684.75 1167.5 31.5 0 S
1701 1145.25 0 31.5 S
1685.25 1161 31.5 0 S
1701.5 1140.25 0 31.5 S
1685.75 1156 31.5 0 S
1702 1134.25 0 31.5 S
1686.25 1150 31.5 0 S
1702.5 1129.75 0 31.5 S
1686.75 1145.5 31.5 0 S
1703 1126.25 0 31.5 S
1687.25 1142 31.5 0 S
1703.5 1124.75 0 31.5 S
1687.75 1140.5 31.5 0 S
1704 1120.25 0 31.5 S
1688.25 1136 31.5 0 S
1704.5 1115.25 0 31.5 S
1688.75 1131 31.5 0 S
1705 1111.25 0 31.5 S
1689.25 1127 31.5 0 S
1705.5 1107.25 0 31.5 S
1689.75 1123 31.5 0 S
1706 1103.75 0 31.5 S
1690.25 1119.5 31.5 0 S
1706.5 1098.25 0 31.5 S
1690.75 1114 31.5 0 S
1707 1095.75 0 31.5 S
1691.25 1111.5 31.5 0 S
1707.5 1090.75 0 31.5 S
1691.75 1106.5 31.5 0 S
1708 1085.75 0 31.5 S
1692.25 1101.5 31.5 0 S
1708.5 1081.25 0 31.5 S
1692.75 1097 31.5 0 S
1709 1076.75 0 31.5 S
1693.25 1092.5 31.5 0 S
1709.5 1073.25 0 31.5 S
1693.75 1089 31.5 0 S
1710 1069.25 0 31.5 S
1694.25 1085 31.5 0 S
1710.5 1066.25 0 31.5 S
1694.75 1082 31.5 0 S
1711 1060.25 0 31.5 S
1695.25 1076 31.5 0 S
1711.5 1054.75 0 31.5 S
1695.75 1070.5 31.5 0 S
1712 1050.25 0 31.5 S
1696.25 1066 31.5 0 S
1712.5 1044.25 0 31.5 S
1696.75 1060 31.5 0 S
1713 1040.25 0 31.5 S
1697.25 1056 31.5 0 S
1713.5 1035.75 0 31.5 S
1697.75 1051.5 31.5 0 S
1714 1031.75 0 31.5 S
1698.25 1047.5 31.5 0 S
1714.5 1027.75 0 31.5 S
1698.75 1043.5 31.5 0 S
1715 1023.25 0 31.5 S
1699.25 1039 31.5 0 S
1715.5 1020.25 0 31.5 S
1699.75 1036 31.5 0 S
1716 1015.25 0 31.5 S
1700.25 1031 31.5 0 S
1716.5 1011.25 0 31.5 S
1700.75 1027 31.5 0 S
1717 1007.25 0 31.5 S
1701.25 1023 31.5 0 S
1717.5 1002.75 0 31.5 S
1701.75 1018.5 31.5 0 S
1718 998.75 0 31.5 S
1702.25 1014.5 31.5 0 S
1718.5 996.75 0 31.5 S
1702.75 1012.5 31.5 0 S
1719 992.75 0 31.5 S
1703.25 1008.5 31.5 0 S
1719.5 989.75 0 31.5 S
1703.75 1005.5 31.5 0 S
1720 986.25 0 31.5 S
1704.25 1002 31.5 0 S
1720.5 982.75 0 31.5 S
1704.75 998.5 31.5 0 S
1721 977.75 0 31.5 S
1705.25 993.5 31.5 0 S
1721.5 973.25 0 31.5 S
1705.75 989 31.5 0 S
1722 969.75 0 31.5 S
1706.25 985.5 31.5 0 S
1722.5 965.75 0 31.5 S
1706.75 981.5 31.5 0 S
1723 962.75 0 31.5 S
1707.25 978.5 31.5 0 S
1723.5 958.25 0 31.5 S
1707.75 974 31.5 0 S
1724 955.25 0 31.5 S
1708.25 971 31.5 0 S
1724.5 949.75 0 31.5 S
1708.75 965.5 31.5 0 S
1725 947.75 0 31.5 S
1709.25 963.5 31.5 0 S
1725.5 944.25 0 31.5 S
1709.75 960 31.5 0 S
1726 941.75 0 31.5 S
1710.25 957.5 31.5 0 S
1726.5 937.75 0 31.5 S
1710.75 953.5 31.5 0 S
1727.5 935.75 0 31.5 S
1711.75 951.5 31.5 0 S
1728 931.25 0 31.5 S
1712.25 947 31.5 0 S
1728.5 927.75 0 31.5 S
1712.75 943.5 31.5 0 S
1729 923.25 0 31.5 S
1713.25 939 31.5 0 S
1729.5 918.25 0 31.5 S
1713.75 934 31.5 0 S
1730 914.25 0 31.5 S
1714.25 930 31.5 0 S
1730.5 911.25 0 31.5 S
1714.75 927 31.5 0 S
1731 907.75 0 31.5 S
1715.25 923.5 31.5 0 S
1731.5 904.75 0 31.5 S
1715.75 920.5 31.5 0 S
1732 900.75 0 31.5 S
1716.25 916.5 31.5 0 S
1732.5 898.75 0 31.5 S
1716.75 914.5 31.5 0 S
1733 895.75 0 31.5 S
1717.25 911.5 31.5 0 S
1733.5 890.25 0 31.5 S
1717.75 906 31.5 0 S
1734 887.25 0 31.5 S
1718.25 903 31.5 0 S
1734.5 884.25 0 31.5 S
1718.75 900 31.5 0 S
1735 880.75 0 31.5 S
1719.25 896.5 31.5 0 S
1735.5 876.25 0 31.5 S
1719.75 892 31.5 0 S
1736 872.75 0 31.5 S
1720.25 888.5 31.5 0 S
1736.5 870.75 0 31.5 S
1720.75 886.5 31.5 0 S
1737 867.75 0 31.5 S
1721.25 883.5 31.5 0 S
1737.5 865.25 0 31.5 S
1721.75 881 31.5 0 S
1738 864.25 0 31.5 S
1722.25 880 31.5 0 S
1738.5 861.25 0 31.5 S
1722.75 877 31.5 0 S
1739 858.25 0 31.5 S
1723.25 874 31.5 0 S
1739.5 855.75 0 31.5 S
1723.75 871.5 31.5 0 S
1740 854.25 0 31.5 S
1724.25 870 31.5 0 S
1740.5 851.75 0 31.5 S
1724.75 867.5 31.5 0 S
1741 849.75 0 31.5 S
1725.25 865.5 31.5 0 S
1741.5 848.25 0 31.5 S
1725.75 864 31.5 0 S
1742 846.25 0 31.5 S
1726.25 862 31.5 0 S
1742.5 842.25 0 31.5 S
1726.75 858 31.5 0 S
1743 838.75 0 31.5 S
1727.25 854.5 31.5 0 S
1743.5 837.25 0 31.5 S
1727.75 853 31.5 0 S
1744 833.75 0 31.5 S
1728.25 849.5 31.5 0 S
1744.5 831.25 0 31.5 S
1728.75 847 31.5 0 S
1745 828.25 0 31.5 S
1729.25 844 31.5 0 S
1745.5 826.25 0 31.5 S
1729.75 842 31.5 0 S
1746 823.75 0 31.5 S
1730.25 839.5 31.5 0 S
1746.5 821.75 0 31.5 S
1730.75 837.5 31.5 0 S
1747 818.75 0 31.5 S
1731.25 834.5 31.5 0 S
1747.5 817.25 0 31.5 S
1731.75 833 31.5 0 S
1748 813.75 0 31.5 S
1732.25 829.5 31.5 0 S
1748.5 812.25 0 31.5 S
1732.75 828 31.5 0 S
1749 810.25 0 31.5 S
1733.25 826 31.5 0 S
1749.5 808.25 0 31.5 S
1733.75 824 31.5 0 S
1750 806.75 0 31.5 S
1734.25 822.5 31.5 0 S
1750.5 803.25 0 31.5 S
1734.75 819 31.5 0 S
1751 799.75 0 31.5 S
1735.25 815.5 31.5 0 S
1751.5 797.75 0 31.5 S
1735.75 813.5 31.5 0 S
1752 794.25 0 31.5 S
1736.25 810 31.5 0 S
1752.5 791.75 0 31.5 S
1736.75 807.5 31.5 0 S
1753 789.75 0 31.5 S
1737.25 805.5 31.5 0 S
1753.5 787.75 0 31.5 S
1737.75 803.5 31.5 0 S
1754 785.25 0 31.5 S
1738.25 801 31.5 0 S
1754.5 783.75 0 31.5 S
1738.75 799.5 31.5 0 S
1755 781.75 0 31.5 S
1739.25 797.5 31.5 0 S
1755.5 780.25 0 31.5 S
1739.75 796 31.5 0 S
1756 778.25 0 31.5 S
1740.25 794 31.5 0 S
1756.5 776.25 0 31.5 S
1740.75 792 31.5 0 S
1757 774.25 0 31.5 S
1741.25 790 31.5 0 S
1757.5 772.75 0 31.5 S
1741.75 788.5 31.5 0 S
1758 771.75 0 31.5 S
1742.25 787.5 31.5 0 S
1758.5 770.25 0 31.5 S
1742.75 786 31.5 0 S
1759 767.75 0 31.5 S
1743.25 783.5 31.5 0 S
1759.5 766.25 0 31.5 S
1743.75 782 31.5 0 S
1760 765.75 0 31.5 S
1744.25 781.5 31.5 0 S
1760.5 764.75 0 31.5 S
1744.75 780.5 31.5 0 S
1761 764.75 0 31.5 S
1745.25 780.5 31.5 0 S
1761.5 764.25 0 31.5 S
1745.75 780 31.5 0 S
1762 763.25 0 31.5 S
1746.25 779 31.5 0 S
1762.5 762.25 0 31.5 S
1746.75 778 31.5 0 S
1763 760.75 0 31.5 S
1747.25 776.5 31.5 0 S
1763.5 759.75 0 31.5 S
1747.75 775.5 31.5 0 S
1764 758.75 0 31.5 S
1748.25 774.5 31.5 0 S
1764.5 757.75 0 31.5 S
1748.75 773.5 31.5 0 S
1765 756.75 0 31.5 S
1749.25 772.5 31.5 0 S
1765.5 755.75 0 31.5 S
1749.75 771.5 31.5 0 S
1766 753.75 0 31.5 S
1750.25 769.5 31.5 0 S
1766.5 751.75 0 31.5 S
1750.75 767.5 31.5 0 S
1767 750.75 0 31.5 S
1751.25 766.5 31.5 0 S
1767.5 749.75 0 31.5 S
1751.75 765.5 31.5 0 S
1768 749.25 0 31.5 S
1752.25 765 31.5 0 S
1768.5 748.75 0 31.5 S
1752.75 764.5 31.5 0 S
1769 747.75 0 31.5 S
1753.25 763.5 31.5 0 S
1769.5 746.25 0 31.5 S
1753.75 762 31.5 0 S
1770 744.75 0 31.5 S
1754.25 760.5 31.5 0 S
1770.5 744.25 0 31.5 S
1754.75 760 31.5 0 S
1771 743.75 0 31.5 S
1755.25 759.5 31.5 0 S
1771.5 741.75 0 31.5 S
1755.75 757.5 31.5 0 S
1772 740.25 0 31.5 S
1756.25 756 31.5 0 S
1772.5 740.25 0 31.5 S
1756.75 756 31.5 0 S
1773 739.25 0 31.5 S
1757.25 755 31.5 0 S
1773.5 738.25 0 31.5 S
1757.75 754 31.5 0 S
1774 737.25 0 31.5 S
1758.25 753 31.5 0 S
1774.5 737.25 0 31.5 S
1758.75 753 31.5 0 S
1775 736.25 0 31.5 S
1759.25 752 31.5 0 S
1775.5 735.25 0 31.5 S
1759.75 751 31.5 0 S
1776 734.75 0 31.5 S
1760.25 750.5 31.5 0 S
1776.5 733.25 0 31.5 S
1760.75 749 31.5 0 S
1777 732.25 0 31.5 S
1761.25 748 31.5 0 S
1777.5 732.25 0 31.5 S
1761.75 748 31.5 0 S
1778 731.25 0 31.5 S
1762.25 747 31.5 0 S
1778.5 730.75 0 31.5 S
1762.75 746.5 31.5 0 S
1779 730.25 0 31.5 S
1763.25 746 31.5 0 S
1779.5 729.75 0 31.5 S
1763.75 745.5 31.5 0 S
1780 729.25 0 31.5 S
1764.25 745 31.5 0 S
1780.5 728.75 0 31.5 S
1764.75 744.5 31.5 0 S
1781 728.75 0 31.5 S
1765.25 744.5 31.5 0 S
1781.5 727.75 0 31.5 S
1765.75 743.5 31.5 0 S
1782 726.75 0 31.5 S
1766.25 742.5 31.5 0 S
1782.5 725.75 0 31.5 S
1766.75 741.5 31.5 0 S
1783 725.25 0 31.5 S
1767.25 741 31.5 0 S
1783.5 724.75 0 31.5 S
1767.75 740.5 31.5 0 S
1784 723.75 0 31.5 S
1768.25 739.5 31.5 0 S
1784.5 722.75 0 31.5 S
1768.75 738.5 31.5 0 S
1785 722.25 0 31.5 S
1769.25 738 31.5 0 S
1785.5 720.75 0 31.5 S
1769.75 736.5 31.5 0 S
1786 720.25 0 31.5 S
1770.25 736 31.5 0 S
1786.5 719.25 0 31.5 S
1770.75 735 31.5 0 S
1787 718.25 0 31.5 S
1771.25 734 31.5 0 S
1788 717.75 0 31.5 S
1772.25 733.5 31.5 0 S
1788.5 717.25 0 31.5 S
1772.75 733 31.5 0 S
1789 716.25 0 31.5 S
1773.25 732 31.5 0 S
1790.5 715.75 0 31.5 S
1774.75 731.5 31.5 0 S
1791 715.75 0 31.5 S
1775.25 731.5 31.5 0 S
1791.5 715.25 0 31.5 S
1775.75 731 31.5 0 S
1792 714.75 0 31.5 S
1776.25 730.5 31.5 0 S
1792.5 714.25 0 31.5 S
1776.75 730 31.5 0 S
1793 713.25 0 31.5 S
1777.25 729 31.5 0 S
1793.5 711.75 0 31.5 S
1777.75 727.5 31.5 0 S
1794 711.25 0 31.5 S
1778.25 727 31.5 0 S
1794.5 710.25 0 31.5 S
1778.75 726 31.5 0 S
1795 709.25 0 31.5 S
1779.25 725 31.5 0 S
1795.5 709.25 0 31.5 S
1779.75 725 31.5 0 S
1796 708.75 0 31.5 S
1780.25 724.5 31.5 0 S
1796.5 708.25 0 31.5 S
1780.75 724 31.5 0 S
1797 707.75 0 31.5 S
1781.25 723.5 31.5 0 S
1797.5 707.25 0 31.5 S
1781.75 723 31.5 0 S
1798 706.75 0 31.5 S
1782.25 722.5 31.5 0 S
1798.5 706.25 0 31.5 S
1782.75 722 31.5 0 S
1799 705.75 0 31.5 S
1783.25 721.5 31.5 0 S
1799.5 704.75 0 31.5 S
1783.75 720.5 31.5 0 S
1800.5 703.75 0 31.5 S
1784.75 719.5 31.5 0 S
1801 703.25 0 31.5 S
1785.25 719 31.5 0 S
1801.5 703.25 0 31.5 S
1785.75 719 31.5 0 S
1802 702.75 0 31.5 S
1786.25 718.5 31.5 0 S
1802.5 702.25 0 31.5 S
1786.75 718 31.5 0 S
1803 701.25 0 31.5 S
1787.25 717 31.5 0 S
1804.5 701.25 0 31.5 S
1788.75 717 31.5 0 S
1805 700.25 0 31.5 S
1789.25 716 31.5 0 S
1805.5 698.75 0 31.5 S
1789.75 714.5 31.5 0 S
1806 698.75 0 31.5 S
1790.25 714.5 31.5 0 S
1806.5 698.25 0 31.5 S
1790.75 714 31.5 0 S
1807 697.25 0 31.5 S
1791.25 713 31.5 0 S
1807.5 696.75 0 31.5 S
1791.75 712.5 31.5 0 S
1808 696.25 0 31.5 S
1792.25 712 31.5 0 S
1809 696.25 0 31.5 S
1793.25 712 31.5 0 S
1809.5 694.75 0 31.5 S
1793.75 710.5 31.5 0 S
1810 694.75 0 31.5 S
1794.25 710.5 31.5 0 S
1810.5 693.75 0 31.5 S
1794.75 709.5 31.5 0 S
1811 693.25 0 31.5 S
1795.25 709 31.5 0 S
1811.5 693.25 0 31.5 S
1795.75 709 31.5 0 S
1812 691.75 0 31.5 S
1796.25 707.5 31.5 0 S
1813 690.25 0 31.5 S
1797.25 706 31.5 0 S
1813.5 689.75 0 31.5 S
1797.75 705.5 31.5 0 S
1814.5 689.25 0 31.5 S
1798.75 705 31.5 0 S
1815.5 688.75 0 31.5 S
1799.75 704.5 31.5 0 S
1816 688.75 0 31.5 S
1800.25 704.5 31.5 0 S
1817 688.25 0 31.5 S
1801.25 704 31.5 0 S
1817.5 688.25 0 31.5 S
1801.75 704 31.5 0 S
1818 687.25 0 31.5 S
1802.25 703 31.5 0 S
1819 686.75 0 31.5 S
1803.25 702.5 31.5 0 S
1819.5 686.75 0 31.5 S
1803.75 702.5 31.5 0 S
1820 686.25 0 31.5 S
1804.25 702 31.5 0 S
1821 685.75 0 31.5 S
1805.25 701.5 31.5 0 S
1821.5 685.25 0 31.5 S
1805.75 701 31.5 0 S
1822 685.25 0 31.5 S
1806.25 701 31.5 0 S
1822.5 683.75 0 31.5 S
1806.75 699.5 31.5 0 S
1823 682.75 0 31.5 S
1807.25 698.5 31.5 0 S
1823.5 682.75 0 31.5 S
1807.75 698.5 31.5 0 S
1824 681.75 0 31.5 S
1808.25 697.5 31.5 0 S
1824.5 681.25 0 31.5 S
1808.75 697 31.5 0 S
1825 680.75 0 31.5 S
1809.25 696.5 31.5 0 S
1825.5 680.75 0 31.5 S
1809.75 696.5 31.5 0 S
1826 680.25 0 31.5 S
1810.25 696 31.5 0 S
1827 679.25 0 31.5 S
1811.25 695 31.5 0 S
1828 678.75 0 31.5 S
1812.25 694.5 31.5 0 S
1828.5 678.25 0 31.5 S
1812.75 694 31.5 0 S
1829 677.75 0 31.5 S
1813.25 693.5 31.5 0 S
1829.5 677.75 0 31.5 S
1813.75 693.5 31.5 0 S
1830 676.25 0 31.5 S
1814.25 692 31.5 0 S
1830.5 676.25 0 31.5 S
1814.75 692 31.5 0 S
1831 675.75 0 31.5 S
1815.25 691.5 31.5 0 S
1831.5 675.25 0 31.5 S
1815.75 691 31.5 0 S
1832 673.75 0 31.5 S
1816.25 689.5 31.5 0 S
1833 673.75 0 31.5 S
1817.25 689.5 31.5 0 S
1833.5 673.25 0 31.5 S
1817.75 689 31.5 0 S
1834 672.75 0 31.5 S
1818.25 688.5 31.5 0 S
1834.5 671.75 0 31.5 S
1818.75 687.5 31.5 0 S
1835 670.75 0 31.5 S
1819.25 686.5 31.5 0 S
1835.5 670.75 0 31.5 S
1819.75 686.5 31.5 0 S
1836 669.25 0 31.5 S
1820.25 685 31.5 0 S
1836.5 668.25 0 31.5 S
1820.75 684 31.5 0 S
1837 667.75 0 31.5 S
1821.25 683.5 31.5 0 S
1837.5 666.25 0 31.5 S
1821.75 682 31.5 0 S
1838 665.75 0 31.5 S
1822.25 681.5 31.5 0 S
1838.5 665.25 0 31.5 S
1822.75 681 31.5 0 S
1839 664.75 0 31.5 S
1823.25 680.5 31.5 0 S
1839.5 664.25 0 31.5 S
1823.75 680 31.5 0 S
1840 663.75 0 31.5 S
1824.25 679.5 31.5 0 S
1840.5 663.25 0 31.5 S
1824.75 679 31.5 0 S
1841.5 662.75 0 31.5 S
1825.75 678.5 31.5 0 S
1842.5 662.75 0 31.5 S
1826.75 678.5 31.5 0 S
1843 661.75 0 31.5 S
1827.25 677.5 31.5 0 S
1843.5 661.75 0 31.5 S
1827.75 677.5 31.5 0 S
1844.5 661.25 0 31.5 S
1828.75 677 31.5 0 S
1845 660.75 0 31.5 S
1829.25 676.5 31.5 0 S
1845.5 660.25 0 31.5 S
1829.75 676 31.5 0 S
1849 659.75 0 31.5 S
1833.25 675.5 31.5 0 S
1850 658.75 0 31.5 S
1834.25 674.5 31.5 0 S
1850.5 658.25 0 31.5 S
1834.75 674 31.5 0 S
1851 657.75 0 31.5 S
1835.25 673.5 31.5 0 S
1851.5 657.75 0 31.5 S
1835.75 673.5 31.5 0 S
1852 656.75 0 31.5 S
1836.25 672.5 31.5 0 S
1854 656.75 0 31.5 S
1838.25 672.5 31.5 0 S
1854.5 656.25 0 31.5 S
1838.75 672 31.5 0 S
1855.5 655.75 0 31.5 S
1839.75 671.5 31.5 0 S
1857.5 655.25 0 31.5 S
1841.75 671 31.5 0 S
1858 654.75 0 31.5 S
1842.25 670.5 31.5 0 S
1859 654.25 0 31.5 S
1843.25 670 31.5 0 S
1860 654.25 0 31.5 S
1844.25 670 31.5 0 S
1860.5 653.25 0 31.5 S
1844.75 669 31.5 0 S
1861 652.75 0 31.5 S
1845.25 668.5 31.5 0 S
1863 652.25 0 31.5 S
1847.25 668 31.5 0 S
1863.5 651.75 0 31.5 S
1847.75 667.5 31.5 0 S
1864 651.25 0 31.5 S
1848.25 667 31.5 0 S
1864.5 651.25 0 31.5 S
1848.75 667 31.5 0 S
1865.5 650.75 0 31.5 S
1849.75 666.5 31.5 0 S
1866 650.25 0 31.5 S
1850.25 666 31.5 0 S
1866.5 649.75 0 31.5 S
1850.75 665.5 31.5 0 S
1867 649.25 0 31.5 S
1851.25 665 31.5 0 S
1867.5 648.75 0 31.5 S
1851.75 664.5 31.5 0 S
1869 648.25 0 31.5 S
1853.25 664 31.5 0 S
1869.5 648.25 0 31.5 S
1853.75 664 31.5 0 S
1870 647.25 0 31.5 S
1854.25 663 31.5 0 S
1870.5 646.75 0 31.5 S
1854.75 662.5 31.5 0 S
1871 646.25 0 31.5 S
1855.25 662 31.5 0 S
1871.5 646.25 0 31.5 S
1855.75 662 31.5 0 S
1872 645.25 0 31.5 S
1856.25 661 31.5 0 S
1873 645.25 0 31.5 S
1857.25 661 31.5 0 S
1873.5 644.75 0 31.5 S
1857.75 660.5 31.5 0 S
1875.5 644.25 0 31.5 S
1859.75 660 31.5 0 S
1876 643.75 0 31.5 S
1860.25 659.5 31.5 0 S
1877 643.25 0 31.5 S
1861.25 659 31.5 0 S
1877.5 642.25 0 31.5 S
1861.75 658 31.5 0 S
1878 641.75 0 31.5 S
1862.25 657.5 31.5 0 S
1878.5 641.25 0 31.5 S
1862.75 657 31.5 0 S
1880 640.75 0 31.5 S
1864.25 656.5 31.5 0 S
1880.5 640.25 0 31.5 S
1864.75 656 31.5 0 S
1881.5 639.75 0 31.5 S
1865.75 655.5 31.5 0 S
1882 638.75 0 31.5 S
1866.25 654.5 31.5 0 S
1882.5 638.75 0 31.5 S
1866.75 654.5 31.5 0 S
1883 638.25 0 31.5 S
1867.25 654 31.5 0 S
1883.5 637.25 0 31.5 S
1867.75 653 31.5 0 S
1884 636.75 0 31.5 S
1868.25 652.5 31.5 0 S
1885 635.75 0 31.5 S
1869.25 651.5 31.5 0 S
1885.5 635.75 0 31.5 S
1869.75 651.5 31.5 0 S
1886 634.75 0 31.5 S
1870.25 650.5 31.5 0 S
1886.5 634.25 0 31.5 S
1870.75 650 31.5 0 S
1887 632.75 0 31.5 S
1871.25 648.5 31.5 0 S
1888 632.75 0 31.5 S
1872.25 648.5 31.5 0 S
1888.5 632.25 0 31.5 S
1872.75 648 31.5 0 S
1889 631.75 0 31.5 S
1873.25 647.5 31.5 0 S
1890.5 631.25 0 31.5 S
1874.75 647 31.5 0 S
1891 630.75 0 31.5 S
1875.25 646.5 31.5 0 S
1891.5 629.75 0 31.5 S
1875.75 645.5 31.5 0 S
1892 628.75 0 31.5 S
1876.25 644.5 31.5 0 S
1892.5 627.25 0 31.5 S
1876.75 643 31.5 0 S
1893 626.25 0 31.5 S
1877.25 642 31.5 0 S
1893.5 625.75 0 31.5 S
1877.75 641.5 31.5 0 S
1894 624.75 0 31.5 S
1878.25 640.5 31.5 0 S
1894.5 623.75 0 31.5 S
1878.75 639.5 31.5 0 S
1895 623.25 0 31.5 S
1879.25 639 31.5 0 S
1895.5 622.25 0 31.5 S
1879.75 638 31.5 0 S
1896 622.25 0 31.5 S
1880.25 638 31.5 0 S
1897 621.75 0 31.5 S
1881.25 637.5 31.5 0 S
1897.5 620.75 0 31.5 S
1881.75 636.5 31.5 0 S
1898.5 619.75 0 31.5 S
1882.75 635.5 31.5 0 S
1899 619.25 0 31.5 S
1883.25 635 31.5 0 S
1899.5 618.75 0 31.5 S
1883.75 634.5 31.5 0 S
1901 618.25 0 31.5 S
1885.25 634 31.5 0 S
1901.5 617.75 0 31.5 S
1885.75 633.5 31.5 0 S
1902 617.25 0 31.5 S
1886.25 633 31.5 0 S
1903 616.75 0 31.5 S
1887.25 632.5 31.5 0 S
1904.5 616.25 0 31.5 S
1888.75 632 31.5 0 S
1905 615.75 0 31.5 S
1889.25 631.5 31.5 0 S
1905.5 614.75 0 31.5 S
1889.75 630.5 31.5 0 S
1906.5 614.25 0 31.5 S
1890.75 630 31.5 0 S
1907 613.25 0 31.5 S
1891.25 629 31.5 0 S
1907.5 613.25 0 31.5 S
1891.75 629 31.5 0 S
1909 612.75 0 31.5 S
1893.25 628.5 31.5 0 S
1910.5 612.75 0 31.5 S
1894.75 628.5 31.5 0 S
1911.5 612.25 0 31.5 S
1895.75 628 31.5 0 S
1913 611.75 0 31.5 S
1897.25 627.5 31.5 0 S
1915 611.75 0 31.5 S
1899.25 627.5 31.5 0 S
1919 611.25 0 31.5 S
1903.25 627 31.5 0 S
1921.5 611.25 0 31.5 S
1905.75 627 31.5 0 S
1925.5 610.75 0 31.5 S
1909.75 626.5 31.5 0 S
1931.5 610.75 0 31.5 S
1915.75 626.5 31.5 0 S
1933.5 610.25 0 31.5 S
1917.75 626 31.5 0 S
1935 609.75 0 31.5 S
1919.25 625.5 31.5 0 S
1941 609.75 0 31.5 S
1925.25 625.5 31.5 0 S
1946 609.25 0 31.5 S
1930.25 625 31.5 0 S
1946.5 609.25 0 31.5 S
1930.75 625 31.5 0 S
1947.5 608.75 0 31.5 S
1931.75 624.5 31.5 0 S
1950.5 608.25 0 31.5 S
1934.75 624 31.5 0 S
1952 608.25 0 31.5 S
1936.25 624 31.5 0 S
1952.5 607.75 0 31.5 S
1936.75 623.5 31.5 0 S
1954 607.75 0 31.5 S
1938.25 623.5 31.5 0 S
1956.5 607.25 0 31.5 S
1940.75 623 31.5 0 S
1960 606.75 0 31.5 S
1944.25 622.5 31.5 0 S
1960.5 606.75 0 31.5 S
1944.75 622.5 31.5 0 S
1961 606.25 0 31.5 S
1945.25 622 31.5 0 S
1961.5 606.25 0 31.5 S
1945.75 622 31.5 0 S
1962.5 605.75 0 31.5 S
1946.75 621.5 31.5 0 S
1965 605.25 0 31.5 S
1949.25 621 31.5 0 S
1966 605.25 0 31.5 S
1950.25 621 31.5 0 S
1966.5 604.75 0 31.5 S
1950.75 620.5 31.5 0 S
1968 604.75 0 31.5 S
1952.25 620.5 31.5 0 S
1969 604.25 0 31.5 S
1953.25 620 31.5 0 S
1969.5 604.25 0 31.5 S
1953.75 620 31.5 0 S
1970 603.75 0 31.5 S
1954.25 619.5 31.5 0 S
1972.5 603.25 0 31.5 S
1956.75 619 31.5 0 S
1980 603.25 0 31.5 S
1964.25 619 31.5 0 S
1983.5 602.75 0 31.5 S
1967.75 618.5 31.5 0 S
1984 602.75 0 31.5 S
1968.25 618.5 31.5 0 S
1987.5 602.25 0 31.5 S
1971.75 618 31.5 0 S
1993.5 601.75 0 31.5 S
1977.75 617.5 31.5 0 S
1994.5 601.75 0 31.5 S
1978.75 617.5 31.5 0 S
1996 601.25 0 31.5 S
1980.25 617 31.5 0 S
1997 601.25 0 31.5 S
1981.25 617 31.5 0 S
2002 600.75 0 31.5 S
1986.25 616.5 31.5 0 S
2011 600.25 0 31.5 S
1995.25 616 31.5 0 S
2015 600.25 0 31.5 S
1999.25 616 31.5 0 S
2019.5 599.75 0 31.5 S
2003.75 615.5 31.5 0 S
2029 599.75 0 31.5 S
2013.25 615.5 31.5 0 S
2034 599.25 0 31.5 S
2018.25 615 31.5 0 S
2038.5 598.75 0 31.5 S
2022.75 614.5 31.5 0 S
2040.5 598.75 0 31.5 S
2024.75 614.5 31.5 0 S
2046.5 598.25 0 31.5 S
2030.75 614 31.5 0 S
2047.5 598.25 0 31.5 S
2031.75 614 31.5 0 S
2050 597.75 0 31.5 S
2034.25 613.5 31.5 0 S
2057 597.75 0 31.5 S
2041.25 613.5 31.5 0 S
2222 597.25 0 31.5 S
2206.25 613 31.5 0 S
2289.5 596.75 0 31.5 S
2273.75 612.5 31.5 0 S
2324.5 596.75 0 31.5 S
2308.75 612.5 31.5 0 S
2372.5 596.25 0 31.5 S
2356.75 612 31.5 0 S
2386.5 596.25 0 31.5 S
2370.75 612 31.5 0 S
2393 595.75 0 31.5 S
2377.25 611.5 31.5 0 S
2393.5 595.25 0 31.5 S
2377.75 611 31.5 0 S
2397 594.75 0 31.5 S
2381.25 610.5 31.5 0 S
2400 594.75 0 31.5 S
2384.25 610.5 31.5 0 S
2401 594.25 0 31.5 S
2385.25 610 31.5 0 S
5 w
813.5 610 1764 1479 re
S
cleartomark end end pagesave restore
 showpage
%%PageTrailer
%%Trailer
%%Pages: 1
