%!PS-Adobe-3.0 EPSF-3.0
%%BoundingBox: 62 52 193 119
%%HiResBoundingBox: 62.800000 52.900000 192.700000 118.300000
%.....................................
%%Creator: GPL Ghostscript 871 (epswrite)
%%CreationDate: 2012/01/28 17:04:57
%%DocumentData: Clean7Bit
%%LanguageLevel: 2
%%EndComments
%%BeginProlog
% This copyright applies to everything between here and the %%EndProlog:
% Copyright (C) 2010 Artifex Software, Inc.  All rights reserved.
%%BeginResource: procset GS_epswrite_2_0_1001 1.001 0
/GS_epswrite_2_0_1001 80 dict dup begin
/PageSize 2 array def/setpagesize{ PageSize aload pop 3 index eq exch
4 index eq and{ pop pop pop}{ PageSize dup  1
5 -1 roll put 0 4 -1 roll put dup null eq {false} {dup where} ifelse{ exch get exec}
{ pop/setpagedevice where
{ pop 1 dict dup /PageSize PageSize put setpagedevice}
{ /setpage where{ pop PageSize aload pop pageparams 3 {exch pop} repeat
setpage}if}ifelse}ifelse}ifelse} bind def
/!{bind def}bind def/#{load def}!/N/counttomark #
/rG{3{3 -1 roll 255 div}repeat setrgbcolor}!/G{255 div setgray}!/K{0 G}!
/r6{dup 3 -1 roll rG}!/r5{dup 3 1 roll rG}!/r3{dup rG}!
/w/setlinewidth #/J/setlinecap #
/j/setlinejoin #/M/setmiterlimit #/d/setdash #/i/setflat #
/m/moveto #/l/lineto #/c/rcurveto #
/p{N 2 idiv{N -2 roll rlineto}repeat}!
/P{N 0 gt{N -2 roll moveto p}if}!
/h{p closepath}!/H{P closepath}!
/lx{0 rlineto}!/ly{0 exch rlineto}!/v{0 0 6 2 roll c}!/y{2 copy c}!
/re{4 -2 roll m exch dup lx exch ly neg lx h}!
/^{3 index neg 3 index neg}!
/f{P fill}!/f*{P eofill}!/s{H stroke}!/S{P stroke}!
/q/gsave #/Q/grestore #/rf{re fill}!
/Y{P clip newpath}!/Y*{P eoclip newpath}!/rY{re Y}!
/|={pop exch 4 1 roll 1 array astore cvx 3 array astore cvx exch 1 index def exec}!
/|{exch string readstring |=}!
/+{dup type/nametype eq{2 index 7 add -3 bitshift 2 index mul}if}!
/@/currentfile #/${+ @ |}!
/B{{2 copy string{readstring pop}aload pop 4 array astore cvx
3 1 roll}repeat pop pop true}!
/Ix{[1 0 0 1 11 -2 roll exch neg exch neg]exch}!
/,{true exch Ix imagemask}!/If{false exch Ix imagemask}!/I{exch Ix image}!
/Ic{exch Ix false 3 colorimage}!
/F{/Columns counttomark 3 add -2 roll/Rows exch/K -1/BlackIs1 true>>
/CCITTFaxDecode filter}!/FX{<</EndOfBlock false F}!
/X{/ASCII85Decode filter}!/@X{@ X}!/&2{2 index 2 index}!
/@F{@ &2<<F}!/@C{@X &2 FX}!
/$X{+ @X |}!/&4{4 index 4 index}!/$F{+ @ &4<<F |}!/$C{+ @X &4 FX |}!
/IC{3 1 roll 10 dict begin 1{/ImageType/Interpolate/Decode/DataSource
/ImageMatrix/BitsPerComponent/Height/Width}{exch def}forall
currentdict end image}!
/~{@ read {pop} if}!
end def
%%EndResource
/pagesave null def
%%EndProlog
%%Page: 1 1
%%BeginPageSetup
GS_epswrite_2_0_1001 begin
/pagesave save store 197 dict begin
0.1 0.1 scale
%%EndPageSetup
gsave mark
Q q
0 0 250000 250000 re
Y
5 w
K
756.5 590 31.5 0 P
1872.5 590 -31.5 0 P
729.5 590 S
703 574 24 33 /3U
$C
-QF8ne"Tt:oUF>0ot#YQs8W,nXfqbA/ZlCbg4g:qTE~>
,
756.5 647.5 31.5 0 P
1872.5 647.5 -31.5 0 P
729.5 647.5 S
653 632 24 33 /6U
$C
-QE\>l-V,*&9#:sf`189D/d?oonA_5>^tZ2+N(t`~>
,
678 632 3U ,
703 632 3U ,
756.5 705 31.5 0 P
1872.5 705 -31.5 0 P
729.5 705 S
628 690 17 32 /3Y
$C
+i"'Ws8W*](WjZ;pV6~>
,
653 689 3U ,
678 689 3U ,
703 689 3U ,
756.5 763 31.5 0 P
1872.5 763 -31.5 0 P
729.5 763 S
628 748 3Y ,
653 747 6U ,
678 747 3U ,
703 747 3U ,
756.5 820.5 31.5 0 P
1872.5 820.5 -31.5 0 P
729.5 820.5 S
628 806 24 32 /6Y
$C
0H36C?Z1,TfQQ5/@D`QoL@9'80`Si<m4/St.b$<a'E~>
,
653 805 3U ,
678 805 3U ,
703 805 3U ,
756.5 878 31.5 0 P
1872.5 878 -31.5 0 P
729.5 878 S
628 863 6Y ,
653 862 6U ,
678 862 3U ,
703 862 3U ,
756.5 935.5 31.5 0 P
1872.5 935.5 -31.5 0 P
729.5 935.5 S
628 920 24 33 /4C
$C
1_pXAKA@1'5mQkUs2WY>ao^l:F&Bhur58R3CV&/&'mg9):]~>
,
653 920 3U ,
678 920 3U ,
703 920 3U ,
756.5 993 31.5 0 P
1872.5 993 -31.5 0 P
729.5 993 S
628 977 4C ,
653 977 6U ,
678 977 3U ,
703 977 3U ,
756.5 1051 31.5 0 P
1872.5 1051 -31.5 0 P
729.5 1051 S
628 1036 24 32 /7C
$C
2*_-?>T<\ojkG3trqh-BpA9::pA5rFn*bK~>
,
653 1035 3U ,
678 1035 3U ,
703 1035 3U ,
756.5 1108.5 31.5 0 P
1872.5 1108.5 -31.5 0 P
729.5 1108.5 S
628 1094 7C ,
653 1093 6U ,
678 1093 3U ,
703 1093 3U ,
756.5 1166 31.5 0 P
1872.5 1166 -31.5 0 P
729.5 1166 S
628 1150 6U ,
653 1150 3U ,
678 1150 3U ,
703 1150 3U ,
756.5 590 0 31.5 P
756.5 1166 0 -31.5 P
756.5 545 S
749 529 3U ,
868 590 0 31.5 P
868 1166 0 -31.5 P
868 545 S
836 530 6Y ,
861 529 3U ,
886 529 3U ,
979.5 590 0 31.5 P
979.5 1166 0 -31.5 P
979.5 545 S
947 530 7C ,
972 529 3U ,
997 529 3U ,
1091.5 590 0 31.5 P
1091.5 1166 0 -31.5 P
1091.5 545 S
1059 529 24 33 /4G
$C
-QF8m3mfL'6+Xe6FMIj`lYD4k'p^oJE5LXRrKFkj>7E)'X&-Z`~>
,
1084 529 3U ,
1109 529 3U ,
1203 590 0 31.5 P
1203 1166 0 -31.5 P
1203 545 S
1171 529 24 33 /7G
$C
-QF8f#>U*Fi<Ri_l2Ue<95@shXAstcFA!YdH;4G>rNrfGfW/&HK`~>
,
1196 529 3U ,
1221 529 3U ,
1314.5 590 0 31.5 P
1314.5 1166 0 -31.5 P
1314.5 545 S
1270 530 3Y ,
1295 529 3U ,
1320 529 3U ,
1345 529 3U ,
1426 590 0 31.5 P
1426 1166 0 -31.5 P
1426 545 S
1381 530 3Y ,
1406 530 6Y ,
1431 529 3U ,
1456 529 3U ,
1537.5 590 0 31.5 P
1537.5 1166 0 -31.5 P
1537.5 545 S
1493 530 3Y ,
1518 530 7C ,
1543 529 3U ,
1568 529 3U ,
1649.5 590 0 31.5 P
1649.5 1166 0 -31.5 P
1649.5 545 S
1605 530 3Y ,
1630 529 4G ,
1655 529 3U ,
1680 529 3U ,
1761 590 0 31.5 P
1761 1166 0 -31.5 P
1761 545 S
1716 530 3Y ,
1741 529 7G ,
1766 529 3U ,
1791 529 3U ,
1872.5 590 0 31.5 P
1872.5 1166 0 -31.5 P
1872.5 545 S
1828 530 6Y ,
1853 529 3U ,
1878 529 3U ,
1903 529 3U ,
756.5 590 1116 576 re
S
2.5 w
757 1148.75 0 31.5 S
741.25 1164.5 31.5 0 S
771.5 1148.25 0 31.5 S
755.75 1164 31.5 0 S
785.5 1148.25 0 31.5 S
769.75 1164 31.5 0 S
795.5 1148.25 0 31.5 S
779.75 1164 31.5 0 S
796 1148.25 0 31.5 S
780.25 1164 31.5 0 S
797 1147.75 0 31.5 S
781.25 1163.5 31.5 0 S
801 1147.75 0 31.5 S
785.25 1163.5 31.5 0 S
801.5 1147.25 0 31.5 S
785.75 1163 31.5 0 S
803 1147.25 0 31.5 S
787.25 1163 31.5 0 S
804 1146.75 0 31.5 S
788.25 1162.5 31.5 0 S
804.5 1146.25 0 31.5 S
788.75 1162 31.5 0 S
805 1145.75 0 31.5 S
789.25 1161.5 31.5 0 S
805.5 1145.75 0 31.5 S
789.75 1161.5 31.5 0 S
806 1145.25 0 31.5 S
790.25 1161 31.5 0 S
806.5 1144.75 0 31.5 S
790.75 1160.5 31.5 0 S
807.5 1144.25 0 31.5 S
791.75 1160 31.5 0 S
808 1143.75 0 31.5 S
792.25 1159.5 31.5 0 S
808.5 1143.25 0 31.5 S
792.75 1159 31.5 0 S
809 1142.75 0 31.5 S
793.25 1158.5 31.5 0 S
809.5 1141.75 0 31.5 S
793.75 1157.5 31.5 0 S
810 1141.25 0 31.5 S
794.25 1157 31.5 0 S
810.5 1140.25 0 31.5 S
794.75 1156 31.5 0 S
811 1139.25 0 31.5 S
795.25 1155 31.5 0 S
811.5 1137.75 0 31.5 S
795.75 1153.5 31.5 0 S
812.5 1136.25 0 31.5 S
796.75 1152 31.5 0 S
813 1135.75 0 31.5 S
797.25 1151.5 31.5 0 S
813.5 1134.25 0 31.5 S
797.75 1150 31.5 0 S
814 1132.75 0 31.5 S
798.25 1148.5 31.5 0 S
814.5 1130.75 0 31.5 S
798.75 1146.5 31.5 0 S
815 1128.75 0 31.5 S
799.25 1144.5 31.5 0 S
815.5 1126.25 0 31.5 S
799.75 1142 31.5 0 S
816 1123.75 0 31.5 S
800.25 1139.5 31.5 0 S
817 1121.25 0 31.5 S
801.25 1137 31.5 0 S
817.5 1118.25 0 31.5 S
801.75 1134 31.5 0 S
818 1115.75 0 31.5 S
802.25 1131.5 31.5 0 S
818.5 1113.75 0 31.5 S
802.75 1129.5 31.5 0 S
819 1110.75 0 31.5 S
803.25 1126.5 31.5 0 S
819.5 1107.75 0 31.5 S
803.75 1123.5 31.5 0 S
820 1104.75 0 31.5 S
804.25 1120.5 31.5 0 S
820.5 1100.75 0 31.5 S
804.75 1116.5 31.5 0 S
821 1096.25 0 31.5 S
805.25 1112 31.5 0 S
822 1090.75 0 31.5 S
806.25 1106.5 31.5 0 S
822.5 1085.75 0 31.5 S
806.75 1101.5 31.5 0 S
823 1081.25 0 31.5 S
807.25 1097 31.5 0 S
823.5 1076.75 0 31.5 S
807.75 1092.5 31.5 0 S
824 1071.75 0 31.5 S
808.25 1087.5 31.5 0 S
824.5 1067.25 0 31.5 S
808.75 1083 31.5 0 S
825 1062.25 0 31.5 S
809.25 1078 31.5 0 S
825.5 1056.25 0 31.5 S
809.75 1072 31.5 0 S
826.5 1049.75 0 31.5 S
810.75 1065.5 31.5 0 S
827 1041.75 0 31.5 S
811.25 1057.5 31.5 0 S
827.5 1035.25 0 31.5 S
811.75 1051 31.5 0 S
828 1029.75 0 31.5 S
812.25 1045.5 31.5 0 S
828.5 1024.75 0 31.5 S
812.75 1040.5 31.5 0 S
829 1017.25 0 31.5 S
813.25 1033 31.5 0 S
829.5 1010.75 0 31.5 S
813.75 1026.5 31.5 0 S
830 1003.75 0 31.5 S
814.25 1019.5 31.5 0 S
830.5 998.75 0 31.5 S
814.75 1014.5 31.5 0 S
831.5 990.25 0 31.5 S
815.75 1006 31.5 0 S
832 982.75 0 31.5 S
816.25 998.5 31.5 0 S
832.5 976.75 0 31.5 S
816.75 992.5 31.5 0 S
833 970.75 0 31.5 S
817.25 986.5 31.5 0 S
833.5 964.25 0 31.5 S
817.75 980 31.5 0 S
834 955.25 0 31.5 S
818.25 971 31.5 0 S
834.5 948.25 0 31.5 S
818.75 964 31.5 0 S
835 939.75 0 31.5 S
819.25 955.5 31.5 0 S
835.5 932.75 0 31.5 S
819.75 948.5 31.5 0 S
836.5 924.25 0 31.5 S
820.75 940 31.5 0 S
837 917.25 0 31.5 S
821.25 933 31.5 0 S
837.5 910.25 0 31.5 S
821.75 926 31.5 0 S
838 903.75 0 31.5 S
822.25 919.5 31.5 0 S
838.5 896.25 0 31.5 S
822.75 912 31.5 0 S
839 890.25 0 31.5 S
823.25 906 31.5 0 S
839.5 882.25 0 31.5 S
823.75 898 31.5 0 S
840 873.75 0 31.5 S
824.25 889.5 31.5 0 S
841 866.25 0 31.5 S
825.25 882 31.5 0 S
841.5 859.25 0 31.5 S
825.75 875 31.5 0 S
842 852.25 0 31.5 S
826.25 868 31.5 0 S
842.5 847.75 0 31.5 S
826.75 863.5 31.5 0 S
843 840.75 0 31.5 S
827.25 856.5 31.5 0 S
843.5 835.25 0 31.5 S
827.75 851 31.5 0 S
844 826.75 0 31.5 S
828.25 842.5 31.5 0 S
844.5 820.75 0 31.5 S
828.75 836.5 31.5 0 S
845 812.75 0 31.5 S
829.25 828.5 31.5 0 S
846 806.25 0 31.5 S
830.25 822 31.5 0 S
846.5 799.75 0 31.5 S
830.75 815.5 31.5 0 S
847 795.25 0 31.5 S
831.25 811 31.5 0 S
847.5 787.25 0 31.5 S
831.75 803 31.5 0 S
848 783.25 0 31.5 S
832.25 799 31.5 0 S
848.5 778.25 0 31.5 S
832.75 794 31.5 0 S
849 773.25 0 31.5 S
833.25 789 31.5 0 S
849.5 768.75 0 31.5 S
833.75 784.5 31.5 0 S
850 765.75 0 31.5 S
834.25 781.5 31.5 0 S
851 760.25 0 31.5 S
835.25 776 31.5 0 S
851.5 756.25 0 31.5 S
835.75 772 31.5 0 S
852 750.75 0 31.5 S
836.25 766.5 31.5 0 S
852.5 745.75 0 31.5 S
836.75 761.5 31.5 0 S
853 739.75 0 31.5 S
837.25 755.5 31.5 0 S
853.5 735.25 0 31.5 S
837.75 751 31.5 0 S
854 731.25 0 31.5 S
838.25 747 31.5 0 S
854.5 727.75 0 31.5 S
838.75 743.5 31.5 0 S
855.5 722.75 0 31.5 S
839.75 738.5 31.5 0 S
856 719.25 0 31.5 S
840.25 735 31.5 0 S
856.5 715.25 0 31.5 S
840.75 731 31.5 0 S
857 711.75 0 31.5 S
841.25 727.5 31.5 0 S
857.5 707.75 0 31.5 S
841.75 723.5 31.5 0 S
858 703.75 0 31.5 S
842.25 719.5 31.5 0 S
858.5 700.25 0 31.5 S
842.75 716 31.5 0 S
859 695.75 0 31.5 S
843.25 711.5 31.5 0 S
859.5 692.75 0 31.5 S
843.75 708.5 31.5 0 S
860.5 689.75 0 31.5 S
844.75 705.5 31.5 0 S
861 686.75 0 31.5 S
845.25 702.5 31.5 0 S
861.5 683.25 0 31.5 S
845.75 699 31.5 0 S
862 679.75 0 31.5 S
846.25 695.5 31.5 0 S
862.5 676.75 0 31.5 S
846.75 692.5 31.5 0 S
863 674.25 0 31.5 S
847.25 690 31.5 0 S
863.5 671.75 0 31.5 S
847.75 687.5 31.5 0 S
864 669.25 0 31.5 S
848.25 685 31.5 0 S
865 666.75 0 31.5 S
849.25 682.5 31.5 0 S
865.5 663.75 0 31.5 S
849.75 679.5 31.5 0 S
866 660.75 0 31.5 S
850.25 676.5 31.5 0 S
866.5 659.25 0 31.5 S
850.75 675 31.5 0 S
867 657.75 0 31.5 S
851.25 673.5 31.5 0 S
867.5 655.25 0 31.5 S
851.75 671 31.5 0 S
868 653.25 0 31.5 S
852.25 669 31.5 0 S
868.5 651.25 0 31.5 S
852.75 667 31.5 0 S
869 649.75 0 31.5 S
853.25 665.5 31.5 0 S
870 647.25 0 31.5 S
854.25 663 31.5 0 S
870.5 644.75 0 31.5 S
854.75 660.5 31.5 0 S
871 643.25 0 31.5 S
855.25 659 31.5 0 S
871.5 639.75 0 31.5 S
855.75 655.5 31.5 0 S
872 638.25 0 31.5 S
856.25 654 31.5 0 S
872.5 636.75 0 31.5 S
856.75 652.5 31.5 0 S
873 634.75 0 31.5 S
857.25 650.5 31.5 0 S
873.5 632.25 0 31.5 S
857.75 648 31.5 0 S
874 631.25 0 31.5 S
858.25 647 31.5 0 S
875 629.75 0 31.5 S
859.25 645.5 31.5 0 S
875.5 627.25 0 31.5 S
859.75 643 31.5 0 S
876 625.75 0 31.5 S
860.25 641.5 31.5 0 S
876.5 624.75 0 31.5 S
860.75 640.5 31.5 0 S
877 623.75 0 31.5 S
861.25 639.5 31.5 0 S
877.5 622.75 0 31.5 S
861.75 638.5 31.5 0 S
878 622.25 0 31.5 S
862.25 638 31.5 0 S
878.5 621.75 0 31.5 S
862.75 637.5 31.5 0 S
879.5 620.25 0 31.5 S
863.75 636 31.5 0 S
880 619.25 0 31.5 S
864.25 635 31.5 0 S
880.5 618.25 0 31.5 S
864.75 634 31.5 0 S
881 617.75 0 31.5 S
865.25 633.5 31.5 0 S
881.5 616.75 0 31.5 S
865.75 632.5 31.5 0 S
882 615.75 0 31.5 S
866.25 631.5 31.5 0 S
882.5 615.25 0 31.5 S
866.75 631 31.5 0 S
883 614.75 0 31.5 S
867.25 630.5 31.5 0 S
883.5 613.75 0 31.5 S
867.75 629.5 31.5 0 S
884.5 612.75 0 31.5 S
868.75 628.5 31.5 0 S
885 612.75 0 31.5 S
869.25 628.5 31.5 0 S
885.5 611.75 0 31.5 S
869.75 627.5 31.5 0 S
886 611.25 0 31.5 S
870.25 627 31.5 0 S
886.5 610.25 0 31.5 S
870.75 626 31.5 0 S
887 609.75 0 31.5 S
871.25 625.5 31.5 0 S
887.5 609.25 0 31.5 S
871.75 625 31.5 0 S
888 608.25 0 31.5 S
872.25 624 31.5 0 S
888.5 607.75 0 31.5 S
872.75 623.5 31.5 0 S
889.5 606.75 0 31.5 S
873.75 622.5 31.5 0 S
890.5 605.75 0 31.5 S
874.75 621.5 31.5 0 S
891 605.25 0 31.5 S
875.25 621 31.5 0 S
891.5 604.75 0 31.5 S
875.75 620.5 31.5 0 S
892 604.25 0 31.5 S
876.25 620 31.5 0 S
892.5 603.75 0 31.5 S
876.75 619.5 31.5 0 S
893 603.25 0 31.5 S
877.25 619 31.5 0 S
894 602.75 0 31.5 S
878.25 618.5 31.5 0 S
894.5 602.25 0 31.5 S
878.75 618 31.5 0 S
895 601.75 0 31.5 S
879.25 617.5 31.5 0 S
895.5 600.75 0 31.5 S
879.75 616.5 31.5 0 S
896 600.75 0 31.5 S
880.25 616.5 31.5 0 S
896.5 600.75 0 31.5 S
880.75 616.5 31.5 0 S
897 600.75 0 31.5 S
881.25 616.5 31.5 0 S
897.5 599.75 0 31.5 S
881.75 615.5 31.5 0 S
898 599.25 0 31.5 S
882.25 615 31.5 0 S
899 598.75 0 31.5 S
883.25 614.5 31.5 0 S
899.5 598.25 0 31.5 S
883.75 614 31.5 0 S
900 598.25 0 31.5 S
884.25 614 31.5 0 S
900.5 597.75 0 31.5 S
884.75 613.5 31.5 0 S
901 597.25 0 31.5 S
885.25 613 31.5 0 S
901.5 596.75 0 31.5 S
885.75 612.5 31.5 0 S
902 596.25 0 31.5 S
886.25 612 31.5 0 S
902.5 595.75 0 31.5 S
886.75 611.5 31.5 0 S
903.5 595.75 0 31.5 S
887.75 611.5 31.5 0 S
904.5 595.25 0 31.5 S
888.75 611 31.5 0 S
905 595.25 0 31.5 S
889.25 611 31.5 0 S
905.5 595.25 0 31.5 S
889.75 611 31.5 0 S
906.5 594.75 0 31.5 S
890.75 610.5 31.5 0 S
907 594.25 0 31.5 S
891.25 610 31.5 0 S
907.5 594.25 0 31.5 S
891.75 610 31.5 0 S
908.5 593.75 0 31.5 S
892.75 609.5 31.5 0 S
909 593.75 0 31.5 S
893.25 609.5 31.5 0 S
910 593.25 0 31.5 S
894.25 609 31.5 0 S
910.5 592.75 0 31.5 S
894.75 608.5 31.5 0 S
911 592.75 0 31.5 S
895.25 608.5 31.5 0 S
911.5 592.25 0 31.5 S
895.75 608 31.5 0 S
912 591.75 0 31.5 S
896.25 607.5 31.5 0 S
913.5 591.75 0 31.5 S
897.75 607.5 31.5 0 S
914.5 591.75 0 31.5 S
898.75 607.5 31.5 0 S
915 591.25 0 31.5 S
899.25 607 31.5 0 S
915.5 591.25 0 31.5 S
899.75 607 31.5 0 S
917 590.75 0 31.5 S
901.25 606.5 31.5 0 S
918.5 590.25 0 31.5 S
902.75 606 31.5 0 S
919 590.25 0 31.5 S
903.25 606 31.5 0 S
919.5 590.25 0 31.5 S
903.75 606 31.5 0 S
920 589.75 0 31.5 S
904.25 605.5 31.5 0 S
920.5 589.75 0 31.5 S
904.75 605.5 31.5 0 S
921 589.25 0 31.5 S
905.25 605 31.5 0 S
921.5 588.75 0 31.5 S
905.75 604.5 31.5 0 S
922 588.25 0 31.5 S
906.25 604 31.5 0 S
923 588.25 0 31.5 S
907.25 604 31.5 0 S
923.5 588.25 0 31.5 S
907.75 604 31.5 0 S
924 587.75 0 31.5 S
908.25 603.5 31.5 0 S
924.5 587.75 0 31.5 S
908.75 603.5 31.5 0 S
925 587.75 0 31.5 S
909.25 603.5 31.5 0 S
925.5 587.25 0 31.5 S
909.75 603 31.5 0 S
926.5 587.25 0 31.5 S
910.75 603 31.5 0 S
927 586.75 0 31.5 S
911.25 602.5 31.5 0 S
928 586.75 0 31.5 S
912.25 602.5 31.5 0 S
928.5 586.25 0 31.5 S
912.75 602 31.5 0 S
929 586.25 0 31.5 S
913.25 602 31.5 0 S
932.5 586.25 0 31.5 S
916.75 602 31.5 0 S
933 586.25 0 31.5 S
917.25 602 31.5 0 S
933.5 585.75 0 31.5 S
917.75 601.5 31.5 0 S
934.5 585.75 0 31.5 S
918.75 601.5 31.5 0 S
935 585.25 0 31.5 S
919.25 601 31.5 0 S
935.5 585.25 0 31.5 S
919.75 601 31.5 0 S
936.5 584.75 0 31.5 S
920.75 600.5 31.5 0 S
937.5 584.75 0 31.5 S
921.75 600.5 31.5 0 S
938 584.75 0 31.5 S
922.25 600.5 31.5 0 S
938.5 584.75 0 31.5 S
922.75 600.5 31.5 0 S
939 584.25 0 31.5 S
923.25 600 31.5 0 S
940 584.25 0 31.5 S
924.25 600 31.5 0 S
940.5 583.75 0 31.5 S
924.75 599.5 31.5 0 S
941 583.75 0 31.5 S
925.25 599.5 31.5 0 S
942 583.25 0 31.5 S
926.25 599 31.5 0 S
944 583.25 0 31.5 S
928.25 599 31.5 0 S
945 583.25 0 31.5 S
929.25 599 31.5 0 S
948 583.25 0 31.5 S
932.25 599 31.5 0 S
948.5 582.75 0 31.5 S
932.75 598.5 31.5 0 S
950 582.75 0 31.5 S
934.25 598.5 31.5 0 S
950.5 582.75 0 31.5 S
934.75 598.5 31.5 0 S
951 582.25 0 31.5 S
935.25 598 31.5 0 S
952.5 582.25 0 31.5 S
936.75 598 31.5 0 S
956.5 582.25 0 31.5 S
940.75 598 31.5 0 S
957.5 581.75 0 31.5 S
941.75 597.5 31.5 0 S
960 581.75 0 31.5 S
944.25 597.5 31.5 0 S
961.5 581.75 0 31.5 S
945.75 597.5 31.5 0 S
962.5 581.75 0 31.5 S
946.75 597.5 31.5 0 S
963 581.25 0 31.5 S
947.25 597 31.5 0 S
971.5 581.25 0 31.5 S
955.75 597 31.5 0 S
973.5 581.25 0 31.5 S
957.75 597 31.5 0 S
974.5 581.25 0 31.5 S
958.75 597 31.5 0 S
976.5 580.75 0 31.5 S
960.75 596.5 31.5 0 S
978.5 580.75 0 31.5 S
962.75 596.5 31.5 0 S
982 580.75 0 31.5 S
966.25 596.5 31.5 0 S
991 580.25 0 31.5 S
975.25 596 31.5 0 S
992 580.25 0 31.5 S
976.25 596 31.5 0 S
999 580.25 0 31.5 S
983.25 596 31.5 0 S
1005 580.25 0 31.5 S
989.25 596 31.5 0 S
1015 580.25 0 31.5 S
999.25 596 31.5 0 S
1020 579.75 0 31.5 S
1004.25 595.5 31.5 0 S
1022.5 579.75 0 31.5 S
1006.75 595.5 31.5 0 S
1028 579.75 0 31.5 S
1012.25 595.5 31.5 0 S
1032 579.75 0 31.5 S
1016.25 595.5 31.5 0 S
1034 579.25 0 31.5 S
1018.25 595 31.5 0 S
1035 579.25 0 31.5 S
1019.25 595 31.5 0 S
1065 579.25 0 31.5 S
1049.25 595 31.5 0 S
1065.5 579.25 0 31.5 S
1049.75 595 31.5 0 S
1070 578.75 0 31.5 S
1054.25 594.5 31.5 0 S
1083.5 578.75 0 31.5 S
1067.75 594.5 31.5 0 S
1085 578.75 0 31.5 S
1069.25 594.5 31.5 0 S
1089.5 578.75 0 31.5 S
1073.75 594.5 31.5 0 S
1103 578.75 0 31.5 S
1087.25 594.5 31.5 0 S
1120.5 578.25 0 31.5 S
1104.75 594 31.5 0 S
1127 578.25 0 31.5 S
1111.25 594 31.5 0 S
1127.5 578.25 0 31.5 S
1111.75 594 31.5 0 S
1133 578.25 0 31.5 S
1117.25 594 31.5 0 S
1136.5 577.75 0 31.5 S
1120.75 593.5 31.5 0 S
1141 577.75 0 31.5 S
1125.25 593.5 31.5 0 S
1144 577.75 0 31.5 S
1128.25 593.5 31.5 0 S
1159 577.75 0 31.5 S
1143.25 593.5 31.5 0 S
1160 577.25 0 31.5 S
1144.25 593 31.5 0 S
1167.5 577.25 0 31.5 S
1151.75 593 31.5 0 S
1168.5 577.25 0 31.5 S
1152.75 593 31.5 0 S
1174 577.25 0 31.5 S
1158.25 593 31.5 0 S
1179.5 576.75 0 31.5 S
1163.75 592.5 31.5 0 S
1191.5 576.75 0 31.5 S
1175.75 592.5 31.5 0 S
1193 576.75 0 31.5 S
1177.25 592.5 31.5 0 S
1193.5 576.75 0 31.5 S
1177.75 592.5 31.5 0 S
1214 576.25 0 31.5 S
1198.25 592 31.5 0 S
1218.5 576.25 0 31.5 S
1202.75 592 31.5 0 S
1227.5 576.25 0 31.5 S
1211.75 592 31.5 0 S
1232.5 576.25 0 31.5 S
1216.75 592 31.5 0 S
1280.5 575.75 0 31.5 S
1264.75 591.5 31.5 0 S
1288.5 575.75 0 31.5 S
1272.75 591.5 31.5 0 S
1299 575.75 0 31.5 S
1283.25 591.5 31.5 0 S
1312.5 575.75 0 31.5 S
1296.75 591.5 31.5 0 S
1328 575.75 0 31.5 S
1312.25 591.5 31.5 0 S
1346.5 575.25 0 31.5 S
1330.75 591 31.5 0 S
1447.5 575.25 0 31.5 S
1431.75 591 31.5 0 S
1498 575.25 0 31.5 S
1482.25 591 31.5 0 S
1502.5 575.25 0 31.5 S
1486.75 591 31.5 0 S
1505.5 574.75 0 31.5 S
1489.75 590.5 31.5 0 S
1535.5 574.75 0 31.5 S
1519.75 590.5 31.5 0 S
1578.5 574.75 0 31.5 S
1562.75 590.5 31.5 0 S
1659 574.75 0 31.5 S
1643.25 590.5 31.5 0 S
1670 574.25 0 31.5 S
1654.25 590 31.5 0 S
1803.5 574.25 0 31.5 S
1787.75 590 31.5 0 S
5 w
756.5 590 1116 576 re
S
cleartomark end end pagesave restore
 showpage
%%PageTrailer
%%Trailer
%%Pages: 1
