%!PS-Adobe-3.0 EPSF-3.0
%%BoundingBox: 62 52 193 119
%%HiResBoundingBox: 62.400000 52.900000 192.700000 118.300000
%.....................................
%%Creator: GPL Ghostscript 871 (epswrite)
%%CreationDate: 2012/01/28 17:04:57
%%DocumentData: Clean7Bit
%%LanguageLevel: 2
%%EndComments
%%BeginProlog
% This copyright applies to everything between here and the %%EndProlog:
% Copyright (C) 2010 Artifex Software, Inc.  All rights reserved.
%%BeginResource: procset GS_epswrite_2_0_1001 1.001 0
/GS_epswrite_2_0_1001 80 dict dup begin
/PageSize 2 array def/setpagesize{ PageSize aload pop 3 index eq exch
4 index eq and{ pop pop pop}{ PageSize dup  1
5 -1 roll put 0 4 -1 roll put dup null eq {false} {dup where} ifelse{ exch get exec}
{ pop/setpagedevice where
{ pop 1 dict dup /PageSize PageSize put setpagedevice}
{ /setpage where{ pop PageSize aload pop pageparams 3 {exch pop} repeat
setpage}if}ifelse}ifelse}ifelse} bind def
/!{bind def}bind def/#{load def}!/N/counttomark #
/rG{3{3 -1 roll 255 div}repeat setrgbcolor}!/G{255 div setgray}!/K{0 G}!
/r6{dup 3 -1 roll rG}!/r5{dup 3 1 roll rG}!/r3{dup rG}!
/w/setlinewidth #/J/setlinecap #
/j/setlinejoin #/M/setmiterlimit #/d/setdash #/i/setflat #
/m/moveto #/l/lineto #/c/rcurveto #
/p{N 2 idiv{N -2 roll rlineto}repeat}!
/P{N 0 gt{N -2 roll moveto p}if}!
/h{p closepath}!/H{P closepath}!
/lx{0 rlineto}!/ly{0 exch rlineto}!/v{0 0 6 2 roll c}!/y{2 copy c}!
/re{4 -2 roll m exch dup lx exch ly neg lx h}!
/^{3 index neg 3 index neg}!
/f{P fill}!/f*{P eofill}!/s{H stroke}!/S{P stroke}!
/q/gsave #/Q/grestore #/rf{re fill}!
/Y{P clip newpath}!/Y*{P eoclip newpath}!/rY{re Y}!
/|={pop exch 4 1 roll 1 array astore cvx 3 array astore cvx exch 1 index def exec}!
/|{exch string readstring |=}!
/+{dup type/nametype eq{2 index 7 add -3 bitshift 2 index mul}if}!
/@/currentfile #/${+ @ |}!
/B{{2 copy string{readstring pop}aload pop 4 array astore cvx
3 1 roll}repeat pop pop true}!
/Ix{[1 0 0 1 11 -2 roll exch neg exch neg]exch}!
/,{true exch Ix imagemask}!/If{false exch Ix imagemask}!/I{exch Ix image}!
/Ic{exch Ix false 3 colorimage}!
/F{/Columns counttomark 3 add -2 roll/Rows exch/K -1/BlackIs1 true>>
/CCITTFaxDecode filter}!/FX{<</EndOfBlock false F}!
/X{/ASCII85Decode filter}!/@X{@ X}!/&2{2 index 2 index}!
/@F{@ &2<<F}!/@C{@X &2 FX}!
/$X{+ @X |}!/&4{4 index 4 index}!/$F{+ @ &4<<F |}!/$C{+ @X &4 FX |}!
/IC{3 1 roll 10 dict begin 1{/ImageType/Interpolate/Decode/DataSource
/ImageMatrix/BitsPerComponent/Height/Width}{exch def}forall
currentdict end image}!
/~{@ read {pop} if}!
end def
%%EndResource
/pagesave null def
%%EndProlog
%%Page: 1 1
%%BeginPageSetup
GS_epswrite_2_0_1001 begin
/pagesave save store 197 dict begin
0.1 0.1 scale
%%EndPageSetup
gsave mark
Q q
0 0 250000 250000 re
Y
5 w
K
702.5 590 31.5 0 P
1872.5 590 -31.5 0 P
675.5 590 S
649 574 24 33 /3U
$C
-QF8ne"Tt:oUF>0ot#YQs8W,nXfqbA/ZlCbg4g:qTE~>
,
702.5 662 31.5 0 P
1872.5 662 -31.5 0 P
675.5 662 S
624 647 17 32 /6U
$C
+i"'Ws8W*](WjZ;pV6~>
,
649 646 3U ,
702.5 734 31.5 0 P
1872.5 734 -31.5 0 P
675.5 734 S
624 719 24 32 /3Y
$C
0H36C?Z1,TfQQ5/@D`QoL@9'80`Si<m4/St.b$<a'E~>
,
649 718 3U ,
702.5 806 31.5 0 P
1872.5 806 -31.5 0 P
675.5 806 S
624 790 24 33 /6Y
$C
1_pXAKA@1'5mQkUs2WY>ao^l:F&Bhur58R3CV&/&'mg9):]~>
,
649 790 3U ,
702.5 878 31.5 0 P
1872.5 878 -31.5 0 P
675.5 878 S
624 863 24 32 /4C
$C
2*_-?>T<\ojkG3trqh-BpA9::pA5rFn*bK~>
,
649 862 3U ,
702.5 950 31.5 0 P
1872.5 950 -31.5 0 P
675.5 950 S
624 934 24 33 /7C
$C
-QE\>l-V,*&9#:sf`189D/d?oonA_5>^tZ2+N(t`~>
,
649 934 3U ,
702.5 1022 31.5 0 P
1872.5 1022 -31.5 0 P
675.5 1022 S
624 1006 24 33 /4G
$C
-QF8m3mfL'6+Xe6FMIj`lYD4k'p^oJE5LXRrKFkj>7E)'X&-Z`~>
,
649 1006 3U ,
702.5 1094 31.5 0 P
1872.5 1094 -31.5 0 P
675.5 1094 S
624 1079 24 32 /7G
$C
5'R%]rnmGJpO1qCh7N+KpM@W]qu~>
,
649 1078 3U ,
702.5 1166 31.5 0 P
1872.5 1166 -31.5 0 P
675.5 1166 S
624 1150 24 33 /4K
$C
-QF8f#>U*Fi<Ri_l2Ue<95@shXAstcFA!YdH;4G>rNrfGfW/&HK`~>
,
649 1150 3U ,
702.5 590 0 31.5 P
702.5 1166 0 -31.5 P
702.5 545 S
695 529 3U ,
819.5 590 0 31.5 P
819.5 1166 0 -31.5 P
819.5 545 S
787 530 3Y ,
812 529 3U ,
837 529 3U ,
936.5 590 0 31.5 P
936.5 1166 0 -31.5 P
936.5 545 S
904 530 4C ,
929 529 3U ,
954 529 3U ,
1053.5 590 0 31.5 P
1053.5 1166 0 -31.5 P
1053.5 545 S
1021 529 4G ,
1046 529 3U ,
1071 529 3U ,
1170.5 590 0 31.5 P
1170.5 1166 0 -31.5 P
1170.5 545 S
1138 529 4K ,
1163 529 3U ,
1188 529 3U ,
1287.5 590 0 31.5 P
1287.5 1166 0 -31.5 P
1287.5 545 S
1243 530 6U ,
1268 529 3U ,
1293 529 3U ,
1318 529 3U ,
1404.5 590 0 31.5 P
1404.5 1166 0 -31.5 P
1404.5 545 S
1360 530 6U ,
1385 530 3Y ,
1410 529 3U ,
1435 529 3U ,
1521.5 590 0 31.5 P
1521.5 1166 0 -31.5 P
1521.5 545 S
1477 530 6U ,
1502 530 4C ,
1527 529 3U ,
1552 529 3U ,
1638.5 590 0 31.5 P
1638.5 1166 0 -31.5 P
1638.5 545 S
1594 530 6U ,
1619 529 4G ,
1644 529 3U ,
1669 529 3U ,
1755.5 590 0 31.5 P
1755.5 1166 0 -31.5 P
1755.5 545 S
1711 530 6U ,
1736 529 4K ,
1761 529 3U ,
1786 529 3U ,
1872.5 590 0 31.5 P
1872.5 1166 0 -31.5 P
1872.5 545 S
1828 530 3Y ,
1853 529 3U ,
1878 529 3U ,
1903 529 3U ,
702.5 590 1170 576 re
S
2.5 w
703 581.25 0 31.5 S
687.25 597 31.5 0 S
718.5 581.25 0 31.5 S
702.75 597 31.5 0 S
733 581.25 0 31.5 S
717.25 597 31.5 0 S
743.5 581.25 0 31.5 S
727.75 597 31.5 0 S
744 581.25 0 31.5 S
728.25 597 31.5 0 S
745 581.25 0 31.5 S
729.25 597 31.5 0 S
749.5 588.75 0 31.5 S
733.75 604.5 31.5 0 S
750 595.75 0 31.5 S
734.25 611.5 31.5 0 S
751 588.75 0 31.5 S
735.25 604.5 31.5 0 S
752 595.75 0 31.5 S
736.25 611.5 31.5 0 S
753 603.25 0 31.5 S
737.25 619 31.5 0 S
753.5 603.25 0 31.5 S
737.75 619 31.5 0 S
754 595.75 0 31.5 S
738.25 611.5 31.5 0 S
754.5 581.25 0 31.5 S
738.75 597 31.5 0 S
755 610.25 0 31.5 S
739.25 626 31.5 0 S
755.5 617.25 0 31.5 S
739.75 633 31.5 0 S
756.5 610.25 0 31.5 S
740.75 626 31.5 0 S
757 588.75 0 31.5 S
741.25 604.5 31.5 0 S
757.5 624.75 0 31.5 S
741.75 640.5 31.5 0 S
758 624.75 0 31.5 S
742.25 640.5 31.5 0 S
758.5 595.75 0 31.5 S
742.75 611.5 31.5 0 S
759 631.75 0 31.5 S
743.25 647.5 31.5 0 S
760 646.25 0 31.5 S
744.25 662 31.5 0 S
760.5 660.75 0 31.5 S
744.75 676.5 31.5 0 S
761 667.75 0 31.5 S
745.25 683.5 31.5 0 S
761.5 617.25 0 31.5 S
745.75 633 31.5 0 S
762 667.75 0 31.5 S
746.25 683.5 31.5 0 S
763 667.75 0 31.5 S
747.25 683.5 31.5 0 S
763.5 711.25 0 31.5 S
747.75 727 31.5 0 S
764 682.25 0 31.5 S
748.25 698 31.5 0 S
764.5 739.75 0 31.5 S
748.75 755.5 31.5 0 S
765 739.75 0 31.5 S
749.25 755.5 31.5 0 S
765.5 711.25 0 31.5 S
749.75 727 31.5 0 S
766.5 761.25 0 31.5 S
750.75 777 31.5 0 S
767 732.75 0 31.5 S
751.25 748.5 31.5 0 S
767.5 696.75 0 31.5 S
751.75 712.5 31.5 0 S
768 768.75 0 31.5 S
752.25 784.5 31.5 0 S
768.5 747.25 0 31.5 S
752.75 763 31.5 0 S
769 790.25 0 31.5 S
753.25 806 31.5 0 S
770 797.25 0 31.5 S
754.25 813 31.5 0 S
770.5 862.25 0 31.5 S
754.75 878 31.5 0 S
771 912.75 0 31.5 S
755.25 928.5 31.5 0 S
771.5 891.25 0 31.5 S
755.75 907 31.5 0 S
772 855.25 0 31.5 S
756.25 871 31.5 0 S
772.5 855.25 0 31.5 S
756.75 871 31.5 0 S
773.5 883.75 0 31.5 S
757.75 899.5 31.5 0 S
774 855.25 0 31.5 S
758.25 871 31.5 0 S
774.5 883.75 0 31.5 S
758.75 899.5 31.5 0 S
775 955.75 0 31.5 S
759.25 971.5 31.5 0 S
775.5 999.25 0 31.5 S
759.75 1015 31.5 0 S
776 1056.75 0 31.5 S
760.25 1072.5 31.5 0 S
777 984.75 0 31.5 S
761.25 1000.5 31.5 0 S
777.5 927.25 0 31.5 S
761.75 943 31.5 0 S
778 883.75 0 31.5 S
762.25 899.5 31.5 0 S
778.5 1049.25 0 31.5 S
762.75 1065 31.5 0 S
779 977.25 0 31.5 S
763.25 993 31.5 0 S
779.5 991.75 0 31.5 S
763.75 1007.5 31.5 0 S
780.5 905.25 0 31.5 S
764.75 921 31.5 0 S
781 1092.75 0 31.5 S
765.25 1108.5 31.5 0 S
781.5 1063.75 0 31.5 S
765.75 1079.5 31.5 0 S
782 919.75 0 31.5 S
766.25 935.5 31.5 0 S
782.5 977.25 0 31.5 S
766.75 993 31.5 0 S
783 977.25 0 31.5 S
767.25 993 31.5 0 S
784 1128.75 0 31.5 S
768.25 1144.5 31.5 0 S
784.5 1020.75 0 31.5 S
768.75 1036.5 31.5 0 S
785 1092.75 0 31.5 S
769.25 1108.5 31.5 0 S
785.5 1027.75 0 31.5 S
769.75 1043.5 31.5 0 S
786 1092.75 0 31.5 S
770.25 1108.5 31.5 0 S
786.5 1013.25 0 31.5 S
770.75 1029 31.5 0 S
787.5 999.25 0 31.5 S
771.75 1015 31.5 0 S
788 991.75 0 31.5 S
772.25 1007.5 31.5 0 S
788.5 1035.25 0 31.5 S
772.75 1051 31.5 0 S
789 970.25 0 31.5 S
773.25 986 31.5 0 S
789.5 1049.25 0 31.5 S
773.75 1065 31.5 0 S
790 1128.75 0 31.5 S
774.25 1144.5 31.5 0 S
791 1035.25 0 31.5 S
775.25 1051 31.5 0 S
791.5 1006.25 0 31.5 S
775.75 1022 31.5 0 S
792 999.25 0 31.5 S
776.25 1015 31.5 0 S
792.5 883.75 0 31.5 S
776.75 899.5 31.5 0 S
793 984.75 0 31.5 S
777.25 1000.5 31.5 0 S
794 941.25 0 31.5 S
778.25 957 31.5 0 S
794.5 1107.25 0 31.5 S
778.75 1123 31.5 0 S
795 941.25 0 31.5 S
779.25 957 31.5 0 S
795.5 1063.75 0 31.5 S
779.75 1079.5 31.5 0 S
796 999.25 0 31.5 S
780.25 1015 31.5 0 S
796.5 977.25 0 31.5 S
780.75 993 31.5 0 S
797.5 833.25 0 31.5 S
781.75 849 31.5 0 S
798 1071.25 0 31.5 S
782.25 1087 31.5 0 S
798.5 833.25 0 31.5 S
782.75 849 31.5 0 S
799 905.25 0 31.5 S
783.25 921 31.5 0 S
799.5 869.25 0 31.5 S
783.75 885 31.5 0 S
800 862.25 0 31.5 S
784.25 878 31.5 0 S
801 768.75 0 31.5 S
785.25 784.5 31.5 0 S
801.5 905.25 0 31.5 S
785.75 921 31.5 0 S
802 840.75 0 31.5 S
786.25 856.5 31.5 0 S
802.5 891.25 0 31.5 S
786.75 907 31.5 0 S
803 912.75 0 31.5 S
787.25 928.5 31.5 0 S
803.5 941.25 0 31.5 S
787.75 957 31.5 0 S
804.5 862.25 0 31.5 S
788.75 878 31.5 0 S
805 797.25 0 31.5 S
789.25 813 31.5 0 S
805.5 819.25 0 31.5 S
789.75 835 31.5 0 S
806 869.25 0 31.5 S
790.25 885 31.5 0 S
806.5 811.75 0 31.5 S
790.75 827.5 31.5 0 S
807 804.75 0 31.5 S
791.25 820.5 31.5 0 S
808 790.25 0 31.5 S
792.25 806 31.5 0 S
808.5 840.75 0 31.5 S
792.75 856.5 31.5 0 S
809 826.25 0 31.5 S
793.25 842 31.5 0 S
809.5 797.25 0 31.5 S
793.75 813 31.5 0 S
810 847.75 0 31.5 S
794.25 863.5 31.5 0 S
810.5 768.75 0 31.5 S
794.75 784.5 31.5 0 S
811.5 761.25 0 31.5 S
795.75 777 31.5 0 S
812 761.25 0 31.5 S
796.25 777 31.5 0 S
812.5 775.75 0 31.5 S
796.75 791.5 31.5 0 S
813 797.25 0 31.5 S
797.25 813 31.5 0 S
813.5 754.25 0 31.5 S
797.75 770 31.5 0 S
814 732.75 0 31.5 S
798.25 748.5 31.5 0 S
815 739.75 0 31.5 S
799.25 755.5 31.5 0 S
815.5 732.75 0 31.5 S
799.75 748.5 31.5 0 S
816 739.75 0 31.5 S
800.25 755.5 31.5 0 S
816.5 754.25 0 31.5 S
800.75 770 31.5 0 S
817 761.25 0 31.5 S
801.25 777 31.5 0 S
817.5 653.25 0 31.5 S
801.75 669 31.5 0 S
818.5 682.25 0 31.5 S
802.75 698 31.5 0 S
819 739.75 0 31.5 S
803.25 755.5 31.5 0 S
819.5 675.25 0 31.5 S
803.75 691 31.5 0 S
820 718.25 0 31.5 S
804.25 734 31.5 0 S
820.5 667.75 0 31.5 S
804.75 683.5 31.5 0 S
821.5 725.25 0 31.5 S
805.75 741 31.5 0 S
822 711.25 0 31.5 S
806.25 727 31.5 0 S
822.5 689.25 0 31.5 S
806.75 705 31.5 0 S
823 775.75 0 31.5 S
807.25 791.5 31.5 0 S
823.5 689.25 0 31.5 S
807.75 705 31.5 0 S
824 653.25 0 31.5 S
808.25 669 31.5 0 S
825 711.25 0 31.5 S
809.25 727 31.5 0 S
825.5 725.25 0 31.5 S
809.75 741 31.5 0 S
826 639.25 0 31.5 S
810.25 655 31.5 0 S
826.5 675.25 0 31.5 S
810.75 691 31.5 0 S
827 718.25 0 31.5 S
811.25 734 31.5 0 S
827.5 682.25 0 31.5 S
811.75 698 31.5 0 S
828.5 610.25 0 31.5 S
812.75 626 31.5 0 S
829 639.25 0 31.5 S
813.25 655 31.5 0 S
829.5 646.25 0 31.5 S
813.75 662 31.5 0 S
830 603.25 0 31.5 S
814.25 619 31.5 0 S
830.5 603.25 0 31.5 S
814.75 619 31.5 0 S
831 660.75 0 31.5 S
815.25 676.5 31.5 0 S
832 639.25 0 31.5 S
816.25 655 31.5 0 S
832.5 631.75 0 31.5 S
816.75 647.5 31.5 0 S
833 617.25 0 31.5 S
817.25 633 31.5 0 S
833.5 646.25 0 31.5 S
817.75 662 31.5 0 S
834 624.75 0 31.5 S
818.25 640.5 31.5 0 S
834.5 610.25 0 31.5 S
818.75 626 31.5 0 S
835.5 617.25 0 31.5 S
819.75 633 31.5 0 S
836 639.25 0 31.5 S
820.25 655 31.5 0 S
836.5 617.25 0 31.5 S
820.75 633 31.5 0 S
837 588.75 0 31.5 S
821.25 604.5 31.5 0 S
837.5 631.75 0 31.5 S
821.75 647.5 31.5 0 S
838 610.25 0 31.5 S
822.25 626 31.5 0 S
839 617.25 0 31.5 S
823.25 633 31.5 0 S
839.5 617.25 0 31.5 S
823.75 633 31.5 0 S
840 603.25 0 31.5 S
824.25 619 31.5 0 S
840.5 631.75 0 31.5 S
824.75 647.5 31.5 0 S
841 624.75 0 31.5 S
825.25 640.5 31.5 0 S
841.5 639.25 0 31.5 S
825.75 655 31.5 0 S
843 610.25 0 31.5 S
827.25 626 31.5 0 S
843.5 610.25 0 31.5 S
827.75 626 31.5 0 S
844 603.25 0 31.5 S
828.25 619 31.5 0 S
844.5 624.75 0 31.5 S
828.75 640.5 31.5 0 S
845 603.25 0 31.5 S
829.25 619 31.5 0 S
846 603.25 0 31.5 S
830.25 619 31.5 0 S
846.5 603.25 0 31.5 S
830.75 619 31.5 0 S
847 610.25 0 31.5 S
831.25 626 31.5 0 S
847.5 610.25 0 31.5 S
831.75 626 31.5 0 S
848 610.25 0 31.5 S
832.25 626 31.5 0 S
848.5 581.25 0 31.5 S
832.75 597 31.5 0 S
849.5 581.25 0 31.5 S
833.75 597 31.5 0 S
850 581.25 0 31.5 S
834.25 597 31.5 0 S
850.5 624.75 0 31.5 S
834.75 640.5 31.5 0 S
851 603.25 0 31.5 S
835.25 619 31.5 0 S
851.5 603.25 0 31.5 S
835.75 619 31.5 0 S
852.5 610.25 0 31.5 S
836.75 626 31.5 0 S
853 588.75 0 31.5 S
837.25 604.5 31.5 0 S
853.5 595.75 0 31.5 S
837.75 611.5 31.5 0 S
854 595.75 0 31.5 S
838.25 611.5 31.5 0 S
854.5 624.75 0 31.5 S
838.75 640.5 31.5 0 S
855 588.75 0 31.5 S
839.25 604.5 31.5 0 S
856 603.25 0 31.5 S
840.25 619 31.5 0 S
856.5 595.75 0 31.5 S
840.75 611.5 31.5 0 S
857.5 581.25 0 31.5 S
841.75 597 31.5 0 S
858 588.75 0 31.5 S
842.25 604.5 31.5 0 S
858.5 581.25 0 31.5 S
842.75 597 31.5 0 S
860 588.75 0 31.5 S
844.25 604.5 31.5 0 S
860.5 603.25 0 31.5 S
844.75 619 31.5 0 S
861 595.75 0 31.5 S
845.25 611.5 31.5 0 S
861.5 588.75 0 31.5 S
845.75 604.5 31.5 0 S
862 588.75 0 31.5 S
846.25 604.5 31.5 0 S
863.5 610.25 0 31.5 S
847.75 626 31.5 0 S
864 595.75 0 31.5 S
848.25 611.5 31.5 0 S
864.5 581.25 0 31.5 S
848.75 597 31.5 0 S
865 603.25 0 31.5 S
849.25 619 31.5 0 S
865.5 595.75 0 31.5 S
849.75 611.5 31.5 0 S
867 581.25 0 31.5 S
851.25 597 31.5 0 S
868 581.25 0 31.5 S
852.25 597 31.5 0 S
868.5 595.75 0 31.5 S
852.75 611.5 31.5 0 S
869 581.25 0 31.5 S
853.25 597 31.5 0 S
871 595.75 0 31.5 S
855.25 611.5 31.5 0 S
872 588.75 0 31.5 S
856.25 604.5 31.5 0 S
872.5 581.25 0 31.5 S
856.75 597 31.5 0 S
873.5 581.25 0 31.5 S
857.75 597 31.5 0 S
874 603.25 0 31.5 S
858.25 619 31.5 0 S
874.5 581.25 0 31.5 S
858.75 597 31.5 0 S
875 595.75 0 31.5 S
859.25 611.5 31.5 0 S
875.5 617.25 0 31.5 S
859.75 633 31.5 0 S
876 588.75 0 31.5 S
860.25 604.5 31.5 0 S
877 581.25 0 31.5 S
861.25 597 31.5 0 S
877.5 581.25 0 31.5 S
861.75 597 31.5 0 S
878 588.75 0 31.5 S
862.25 604.5 31.5 0 S
878.5 581.25 0 31.5 S
862.75 597 31.5 0 S
879 581.25 0 31.5 S
863.25 597 31.5 0 S
880 588.75 0 31.5 S
864.25 604.5 31.5 0 S
881 588.75 0 31.5 S
865.25 604.5 31.5 0 S
881.5 595.75 0 31.5 S
865.75 611.5 31.5 0 S
882 595.75 0 31.5 S
866.25 611.5 31.5 0 S
882.5 581.25 0 31.5 S
866.75 597 31.5 0 S
883.5 581.25 0 31.5 S
867.75 597 31.5 0 S
887 588.75 0 31.5 S
871.25 604.5 31.5 0 S
887.5 581.25 0 31.5 S
871.75 597 31.5 0 S
888 581.25 0 31.5 S
872.25 597 31.5 0 S
889 588.75 0 31.5 S
873.25 604.5 31.5 0 S
889.5 588.75 0 31.5 S
873.75 604.5 31.5 0 S
890.5 588.75 0 31.5 S
874.75 604.5 31.5 0 S
891.5 588.75 0 31.5 S
875.75 604.5 31.5 0 S
892 581.25 0 31.5 S
876.25 597 31.5 0 S
892.5 588.75 0 31.5 S
876.75 604.5 31.5 0 S
893 581.25 0 31.5 S
877.25 597 31.5 0 S
894 595.75 0 31.5 S
878.25 611.5 31.5 0 S
895 581.25 0 31.5 S
879.25 597 31.5 0 S
895.5 588.75 0 31.5 S
879.75 604.5 31.5 0 S
896 588.75 0 31.5 S
880.25 604.5 31.5 0 S
896.5 581.25 0 31.5 S
880.75 597 31.5 0 S
899 581.25 0 31.5 S
883.25 597 31.5 0 S
900 581.25 0 31.5 S
884.25 597 31.5 0 S
903 581.25 0 31.5 S
887.25 597 31.5 0 S
903.5 588.75 0 31.5 S
887.75 604.5 31.5 0 S
905.5 581.25 0 31.5 S
889.75 597 31.5 0 S
906 588.75 0 31.5 S
890.25 604.5 31.5 0 S
906.5 581.25 0 31.5 S
890.75 597 31.5 0 S
908 581.25 0 31.5 S
892.25 597 31.5 0 S
912 581.25 0 31.5 S
896.25 597 31.5 0 S
913 588.75 0 31.5 S
897.25 604.5 31.5 0 S
916 581.25 0 31.5 S
900.25 597 31.5 0 S
917 581.25 0 31.5 S
901.25 597 31.5 0 S
918.5 581.25 0 31.5 S
902.75 597 31.5 0 S
919 588.75 0 31.5 S
903.25 604.5 31.5 0 S
927.5 581.25 0 31.5 S
911.75 597 31.5 0 S
930 581.25 0 31.5 S
914.25 597 31.5 0 S
931 581.25 0 31.5 S
915.25 597 31.5 0 S
933 581.25 0 31.5 S
917.25 597 31.5 0 S
935.5 588.75 0 31.5 S
919.75 604.5 31.5 0 S
939 581.25 0 31.5 S
923.25 597 31.5 0 S
948 581.25 0 31.5 S
932.25 597 31.5 0 S
949.5 581.25 0 31.5 S
933.75 597 31.5 0 S
957 581.25 0 31.5 S
941.25 597 31.5 0 S
963 581.25 0 31.5 S
947.25 597 31.5 0 S
973.5 581.25 0 31.5 S
957.75 597 31.5 0 S
978.5 581.25 0 31.5 S
962.75 597 31.5 0 S
981.5 581.25 0 31.5 S
965.75 597 31.5 0 S
987.5 581.25 0 31.5 S
971.75 597 31.5 0 S
991.5 581.25 0 31.5 S
975.75 597 31.5 0 S
993 581.25 0 31.5 S
977.25 597 31.5 0 S
994.5 581.25 0 31.5 S
978.75 597 31.5 0 S
1026 581.25 0 31.5 S
1010.25 597 31.5 0 S
1026.5 581.25 0 31.5 S
1010.75 597 31.5 0 S
1031.5 581.25 0 31.5 S
1015.75 597 31.5 0 S
1045.5 581.25 0 31.5 S
1029.75 597 31.5 0 S
1047 581.25 0 31.5 S
1031.25 597 31.5 0 S
1051.5 581.25 0 31.5 S
1035.75 597 31.5 0 S
1066 581.25 0 31.5 S
1050.25 597 31.5 0 S
1084 581.25 0 31.5 S
1068.25 597 31.5 0 S
1091 581.25 0 31.5 S
1075.25 597 31.5 0 S
1091.5 581.25 0 31.5 S
1075.75 597 31.5 0 S
1097.5 581.25 0 31.5 S
1081.75 597 31.5 0 S
1101 581.25 0 31.5 S
1085.25 597 31.5 0 S
1105.5 581.25 0 31.5 S
1089.75 597 31.5 0 S
1108.5 581.25 0 31.5 S
1092.75 597 31.5 0 S
1124.5 581.25 0 31.5 S
1108.75 597 31.5 0 S
1125.5 581.25 0 31.5 S
1109.75 597 31.5 0 S
1133.5 588.75 0 31.5 S
1117.75 604.5 31.5 0 S
1134 581.25 0 31.5 S
1118.25 597 31.5 0 S
1140 581.25 0 31.5 S
1124.25 597 31.5 0 S
1146 581.25 0 31.5 S
1130.25 597 31.5 0 S
1159 581.25 0 31.5 S
1143.25 597 31.5 0 S
1160 581.25 0 31.5 S
1144.25 597 31.5 0 S
1160.5 581.25 0 31.5 S
1144.75 597 31.5 0 S
1182 581.25 0 31.5 S
1166.25 597 31.5 0 S
1187 581.25 0 31.5 S
1171.25 597 31.5 0 S
1196 581.25 0 31.5 S
1180.25 597 31.5 0 S
1201.5 581.25 0 31.5 S
1185.75 597 31.5 0 S
1252 581.25 0 31.5 S
1236.25 597 31.5 0 S
1260 581.25 0 31.5 S
1244.25 597 31.5 0 S
1271 581.25 0 31.5 S
1255.25 597 31.5 0 S
1285 581.25 0 31.5 S
1269.25 597 31.5 0 S
1301.5 581.25 0 31.5 S
1285.75 597 31.5 0 S
1321 581.25 0 31.5 S
1305.25 597 31.5 0 S
1426.5 581.25 0 31.5 S
1410.75 597 31.5 0 S
1480 581.25 0 31.5 S
1464.25 597 31.5 0 S
1484.5 581.25 0 31.5 S
1468.75 597 31.5 0 S
1487.5 581.25 0 31.5 S
1471.75 597 31.5 0 S
1519 581.25 0 31.5 S
1503.25 597 31.5 0 S
1564 581.25 0 31.5 S
1548.25 597 31.5 0 S
1648.5 581.25 0 31.5 S
1632.75 597 31.5 0 S
1660 588.75 0 31.5 S
1644.25 604.5 31.5 0 S
1800 581.25 0 31.5 S
1784.25 597 31.5 0 S
5 w
702.5 590 1170 576 re
S
cleartomark end end pagesave restore
 showpage
%%PageTrailer
%%Trailer
%%Pages: 1
