%!PS-Adobe-3.0 EPSF-3.0
%%BoundingBox: 67 53 337 118
%%HiResBoundingBox: 67.900000 53.900000 336.200000 117.100000
%.....................................
%%Creator: GPL Ghostscript 871 (epswrite)
%%CreationDate: 2012/01/28 17:04:58
%%DocumentData: Clean7Bit
%%LanguageLevel: 2
%%EndComments
%%BeginProlog
% This copyright applies to everything between here and the %%EndProlog:
% Copyright (C) 2010 Artifex Software, Inc.  All rights reserved.
%%BeginResource: procset GS_epswrite_2_0_1001 1.001 0
/GS_epswrite_2_0_1001 80 dict dup begin
/PageSize 2 array def/setpagesize{ PageSize aload pop 3 index eq exch
4 index eq and{ pop pop pop}{ PageSize dup  1
5 -1 roll put 0 4 -1 roll put dup null eq {false} {dup where} ifelse{ exch get exec}
{ pop/setpagedevice where
{ pop 1 dict dup /PageSize PageSize put setpagedevice}
{ /setpage where{ pop PageSize aload pop pageparams 3 {exch pop} repeat
setpage}if}ifelse}ifelse}ifelse} bind def
/!{bind def}bind def/#{load def}!/N/counttomark #
/rG{3{3 -1 roll 255 div}repeat setrgbcolor}!/G{255 div setgray}!/K{0 G}!
/r6{dup 3 -1 roll rG}!/r5{dup 3 1 roll rG}!/r3{dup rG}!
/w/setlinewidth #/J/setlinecap #
/j/setlinejoin #/M/setmiterlimit #/d/setdash #/i/setflat #
/m/moveto #/l/lineto #/c/rcurveto #
/p{N 2 idiv{N -2 roll rlineto}repeat}!
/P{N 0 gt{N -2 roll moveto p}if}!
/h{p closepath}!/H{P closepath}!
/lx{0 rlineto}!/ly{0 exch rlineto}!/v{0 0 6 2 roll c}!/y{2 copy c}!
/re{4 -2 roll m exch dup lx exch ly neg lx h}!
/^{3 index neg 3 index neg}!
/f{P fill}!/f*{P eofill}!/s{H stroke}!/S{P stroke}!
/q/gsave #/Q/grestore #/rf{re fill}!
/Y{P clip newpath}!/Y*{P eoclip newpath}!/rY{re Y}!
/|={pop exch 4 1 roll 1 array astore cvx 3 array astore cvx exch 1 index def exec}!
/|{exch string readstring |=}!
/+{dup type/nametype eq{2 index 7 add -3 bitshift 2 index mul}if}!
/@/currentfile #/${+ @ |}!
/B{{2 copy string{readstring pop}aload pop 4 array astore cvx
3 1 roll}repeat pop pop true}!
/Ix{[1 0 0 1 11 -2 roll exch neg exch neg]exch}!
/,{true exch Ix imagemask}!/If{false exch Ix imagemask}!/I{exch Ix image}!
/Ic{exch Ix false 3 colorimage}!
/F{/Columns counttomark 3 add -2 roll/Rows exch/K -1/BlackIs1 true>>
/CCITTFaxDecode filter}!/FX{<</EndOfBlock false F}!
/X{/ASCII85Decode filter}!/@X{@ X}!/&2{2 index 2 index}!
/@F{@ &2<<F}!/@C{@X &2 FX}!
/$X{+ @X |}!/&4{4 index 4 index}!/$F{+ @ &4<<F |}!/$C{+ @X &4 FX |}!
/IC{3 1 roll 10 dict begin 1{/ImageType/Interpolate/Decode/DataSource
/ImageMatrix/BitsPerComponent/Height/Width}{exch def}forall
currentdict end image}!
/~{@ read {pop} if}!
end def
%%EndResource
/pagesave null def
%%EndProlog
%%Page: 1 1
%%BeginPageSetup
GS_epswrite_2_0_1001 begin
/pagesave save store 197 dict begin
0.1 0.1 scale
%%EndPageSetup
gsave mark
Q q
0 0 250000 250000 re
Y
5 w
K
878 620 31.5 0 P
3290 620 -31.5 0 P
842 620 S
805 599 34 44 /3U
$C
23%r'%\5X)j2)<u^Zk'1J,ZoQs8W-!s8VJ_s8Qk\g>99H(eYmM:r7r$~>
,
878 708 31.5 0 P
3290 708 -31.5 0 P
842 708 S
705 688 34 43 /6U
$C
4;jd(Qp5fN^"]dYfPna4iOE=NL>hOS^UAOiqu,+3CMbUV[OTh+@7(A~>
,
738 687 3U ,
771 687 3U ,
805 687 3U ,
878 796 31.5 0 P
3290 796 -31.5 0 P
842 796 S
705 776 35 43 /3Y
$C
.M)RZs3Cmfr0V$lmIpMQmIpMQmJH;FpY5/kn_X9>^V/P~>
,
738 775 3U ,
771 775 3U ,
805 775 3U ,
878 884 31.5 0 P
3290 884 -31.5 0 P
842 884 S
705 863 35 44 /6Y
$C
22__[-UH4U05uPcT2!a`He7T^qXqU=['7F,Z=C&h$n`Au*WOE]DtUNIgIhr,MR@1;L'd~>
,
738 863 3U ,
771 863 3U ,
805 863 3U ,
878 972 31.5 0 P
3290 972 -31.5 0 P
842 972 S
705 951 35 44 /4C
$C
2$jBqS07(D'Aa:H#WJZ`e,TIHX4Gk>$!:Ud'l"Rbl-UTa#WJZ`l2Ue`CO4^e@4ZT(6OF59~>
,
738 951 3U ,
771 951 3U ,
805 951 3U ,
878 1060 31.5 0 P
3290 1060 -31.5 0 P
842 1060 S
679 1040 17 43 /7C
$C
,Tm'ds8W-!s-F.@R>;m@If~>
,
705 1039 3U ,
738 1039 3U ,
771 1039 3U ,
805 1039 3U ,
878 1148 31.5 0 P
3290 1148 -31.5 0 P
842 1148 S
679 1128 7C ,
705 1128 6U ,
738 1127 3U ,
771 1127 3U ,
805 1127 3U ,
877 620 0 31.5 P
877 1148 0 -31.5 P
877 560 S
865 539 3U ,
1118.5 620 0 31.5 P
1118.5 1148 0 -31.5 P
1118.5 560 S
1073 539 35 44 /4G
$C
2%'Ns&9R0a'Aa:<PNfbDGdm_=;rkC=Bjl_7CKWS'fO25hs7ZK6."D-0~>
,
1106 539 3U ,
1140 539 3U ,
1359.5 620 0 31.5 P
1359.5 1148 0 -31.5 P
1359.5 560 S
1305 540 7C ,
1330 539 3U ,
1364 539 3U ,
1397 539 3U ,
1601 620 0 31.5 P
1601 1148 0 -31.5 P
1601 560 S
1547 540 7C ,
1572 539 4G ,
1605 539 3U ,
1639 539 3U ,
1842 620 0 31.5 P
1842 1148 0 -31.5 P
1842 560 S
1780 540 6U ,
1813 539 3U ,
1846 539 3U ,
1880 539 3U ,
2083.5 620 0 31.5 P
2083.5 1148 0 -31.5 P
2083.5 560 S
2021 540 6U ,
2054 539 4G ,
2088 539 3U ,
2121 539 3U ,
2325 620 0 31.5 P
2325 1148 0 -31.5 P
2325 560 S
2263 539 34 44 /7G
$C
3f*tLK;VJ#ZZne#2lEeH?]XK;@:la`Yct@m+Q2(jDLDKapAVZrg>Sl<[;*R2"T~>
,
2296 539 3U ,
2329 539 3U ,
2363 539 3U ,
2566 620 0 31.5 P
2566 1148 0 -31.5 P
2566 560 S
2504 539 7G ,
2537 539 4G ,
2570 539 3U ,
2604 539 3U ,
2807.5 620 0 31.5 P
2807.5 1148 0 -31.5 P
2807.5 560 S
2745 540 3Y ,
2778 539 3U ,
2812 539 3U ,
2845 539 3U ,
3048.5 620 0 31.5 P
3048.5 1148 0 -31.5 P
3048.5 560 S
2986 540 3Y ,
3019 539 4G ,
3053 539 3U ,
3086 539 3U ,
3290 620 0 31.5 P
3290 1148 0 -31.5 P
3290 560 S
3228 539 4G ,
3261 539 3U ,
3294 539 3U ,
3328 539 3U ,
878 620 2412 528 re
S
2.5 w
878 1083 0.5 2.5 0.5 -1.5 0.5 -1.5 0.5 -1 0.5 3.5 0.5 -0.5 0.5 -1 
0.5 1.5 0.5 0.5 0.5 -2.5 0.5 2 0.5 -3 0.5 4 0.5 -1 0 -3 
0.5 4 0.5 -1.5 0.5 -0.5 0.5 2 0.5 2.5 0.5 -2 0.5 0 0.5 1 
0.5 -1.5 0.5 -3.5 0.5 3 0.5 2.5 0.5 -16.5 0.5 6.5 0.5 2.5 0.5 3.5 
0.5 -0.5 0.5 3 0.5 -3.5 0.5 2.5 0.5 0 0.5 0.5 0.5 1.5 0.5 0 
0.5 -1.5 0.5 -2.5 0.5 1.5 0.5 2.5 0 -2 0.5 1.5 0.5 -0.5 0.5 -3.5 
0.5 1 0.5 -0.5 0.5 -1.5 0.5 5 0.5 -2.5 0.5 0.5 0.5 -2.5 0.5 1 
0.5 0.5 0.5 -1.5 0.5 0 0.5 3 0.5 -2 0.5 -4 0.5 7 0.5 -3 
0.5 -0.5 0.5 -1 0.5 -0.5 0.5 0.5 0.5 -0.5 0.5 -2 0.5 1 0.5 2.5 
0 -1 0.5 -2 0.5 3 0.5 -3 0.5 0.5 0.5 1.5 0.5 0.5 0.5 0.5 
0.5 -0.5 0.5 -1 0.5 2 0.5 0 0.5 0 0.5 0 0.5 -2 0.5 -0.5 
0.5 1 0.5 0.5 0.5 1 0.5 0 0.5 -2 0.5 2 0.5 2.5 0.5 -2.5 
0.5 -0.5 0.5 -1.5 0.5 1 0.5 2.5 0.5 -1.5 0 2 0.5 -0.5 0.5 -1.5 
0.5 -2 S
928 1081.5 0.5 -1 0.5 3 0.5 3 0.5 -3.5 0.5 -4.5 0.5 2 0.5 -0.5 
0.5 4.5 0.5 0 0.5 0.5 0.5 -3 0.5 1 0.5 -2.5 0.5 0.5 0.5 1.5 
0.5 3 0.5 1 0.5 -2 0.5 -3 0.5 1 0.5 -1.5 0.5 4.5 0.5 0.5 
0.5 -2.5 0.5 0.5 0.5 1 0.5 1.5 0.5 1 0.5 -1.5 0.5 0 0.5 0.5 
0.5 0 0.5 -1.5 0.5 1.5 0.5 -0.5 0.5 -3 0.5 3.5 0.5 -2.5 0.5 5 
0.5 -4.5 0.5 3 0.5 -5 0.5 2 0.5 -3.5 0.5 4 0.5 -2 0.5 3.5 
0.5 -4 0.5 2.5 0.5 -2.5 0.5 0 0.5 -1 0 -1 0.5 4 0.5 -1.5 
0.5 0 0.5 -1.5 0.5 4 0.5 -9.5 0.5 6 0.5 -0.5 0.5 -1.5 0.5 0.5 
0.5 1 0.5 -1 0.5 1 0.5 3 0.5 -3.5 0.5 4 0.5 -3.5 0.5 -0.5 
0.5 -0.5 0.5 5 0.5 -5.5 0.5 -62 0.5 45 0.5 -34 0.5 -1.5 0.5 -1.5 
0.5 -14.5 0.5 44 0.5 4 0.5 1 0.5 2.5 0.5 -1 0.5 0.5 0.5 -2.5 
0.5 1.5 0.5 1.5 0.5 3 0.5 -3.5 0.5 1 0.5 -2 0.5 1.5 0.5 -2.5 
0.5 1.5 0.5 -0.5 0.5 -0.5 0.5 3 0.5 -2 0.5 2 0.5 1.5 0.5 -3 
0.5 1 S
979.5 1063.5 0.5 1.5 0.5 0 0.5 14.5 0.5 5 0.5 0.5 0 -1 0.5 0.5 
0.5 0 0.5 1.5 0.5 -2 0.5 -1.5 0.5 1.5 0.5 -2.5 0.5 6.5 0.5 -9.5 
0.5 2 0.5 7 0.5 -5 0.5 4 0.5 0.5 0.5 -0.5 0.5 -0.5 0.5 -2 
0.5 1.5 0.5 2.5 0.5 -8 0.5 5.5 0.5 -1.5 0.5 2.5 0.5 -1.5 0.5 0.5 
0.5 0.5 0.5 0 0.5 0 0 -2 0.5 -0.5 0.5 -5.5 0.5 5.5 0.5 1.5 
0.5 1 0.5 -3.5 0.5 -1.5 0.5 0.5 0.5 1.5 0.5 0 0.5 0.5 0.5 0 
0.5 -0.5 0.5 -3.5 0.5 1 0.5 2.5 0.5 0.5 0.5 -3 0.5 1 0.5 2.5 
0.5 -2 0.5 0 0.5 -5.5 0.5 6 0.5 -1 0.5 1.5 0.5 1 0 -7 
0.5 5.5 0.5 -2 0.5 3.5 0.5 0 0.5 -3 0.5 1.5 0.5 -1 0.5 -1.5 
0.5 1.5 0.5 -1.5 0.5 -5.5 0.5 4 0.5 0 0.5 3.5 0.5 -1 0.5 -5 
0.5 4.5 0.5 -2.5 0.5 0.5 0.5 -0.5 0.5 3.5 0.5 -0.5 0.5 2.5 0.5 -3.5 
0.5 3.5 0.5 -4.5 0.5 0.5 0.5 0.5 0.5 2.5 0.5 -3 0.5 0 0.5 -0.5 
0.5 -1.5 0.5 2 0.5 -1.5 0.5 0 0.5 2.5 0.5 -5 0.5 6.5 0.5 -0.5 
0.5 1.5 S
1030 1083 0.5 -0.5 0.5 1.5 0.5 -2.5 0.5 1.5 0.5 0 0.5 0 0.5 -3 
0.5 3 0.5 -3.5 0.5 3.5 0.5 0.5 0.5 1 0.5 -3 0.5 2.5 0.5 -3.5 
0 4.5 0.5 -4 0.5 1.5 0.5 -0.5 0.5 6 0.5 -4.5 0.5 -1.5 0.5 4 
0.5 -2 0.5 1.5 0.5 -1.5 0.5 0 0.5 -3 0.5 4.5 0.5 -4 0.5 -1 
0.5 2 0.5 -1.5 0.5 3 0.5 -1 0.5 0 0.5 1 0.5 1 0.5 -6 
0.5 5 0.5 0 0.5 -1.5 0.5 1 0.5 0 0 -2 0.5 0 0.5 -2 
0.5 3.5 0.5 -0.5 0.5 -1 0.5 -2 0.5 1.5 0.5 -2 0.5 2.5 0.5 -1 
0.5 2 0.5 -3 0.5 1.5 0.5 -5 0.5 6 0.5 -2 0.5 1 0.5 -1 
0.5 2 0.5 -6 0.5 3 0.5 0.5 0.5 -0.5 0.5 -1.5 0.5 1.5 0.5 -2.5 
0.5 1.5 0 6.5 0.5 0.5 0.5 -5 0.5 0.5 0.5 -1.5 0.5 -4.5 0.5 3.5 
0.5 0 0.5 3 0.5 -3 0.5 -0.5 0.5 1.5 0.5 -2.5 0.5 2 0.5 -1 
0.5 0.5 0.5 1.5 0.5 1 0.5 -2 0.5 0.5 0.5 -1.5 0.5 1 0.5 0.5 
0.5 3 0.5 -2.5 0.5 -1 0.5 1.5 0.5 1 0.5 -1 0 2 0.5 -2.5 
0.5 -1.5 S
1080 1078 0.5 4 0.5 -3.5 0.5 3 0.5 -1.5 0.5 -1 0.5 1.5 0.5 2 
0.5 -2 0.5 1.5 0.5 -2.5 0.5 3.5 0.5 -1 0.5 1 0.5 -0.5 0.5 0 
0.5 0 0.5 -0.5 0.5 -0.5 0.5 5 0.5 -5 0.5 2 0.5 1 0.5 -2.5 
0.5 -1 0.5 2 0.5 -2.5 0 2 0.5 -2.5 0.5 -4 0.5 2 0.5 0 
0.5 -0.5 0.5 0 0.5 0 0.5 0.5 0.5 2 0.5 -0.5 0.5 -1.5 0.5 -0.5 
0.5 2 0.5 -2.5 0.5 4 0.5 -2.5 0.5 -1 0.5 3.5 0.5 -2 0.5 1 
0.5 -3 0.5 0.5 0.5 0.5 0.5 2 0.5 -1.5 0.5 2 0.5 -2 0 0.5 
0.5 2 0.5 -2.5 0.5 1 0.5 0 0.5 0.5 0.5 -4.5 0.5 2 0.5 2 
0.5 0.5 0.5 -1.5 0.5 -3.5 0.5 4.5 0.5 -0.5 0.5 -1.5 0.5 2 0.5 -0.5 
0.5 -0.5 0.5 2.5 0.5 -1.5 0.5 -19 0.5 16.5 0.5 -0.5 0.5 3.5 0.5 -0.5 
0.5 -2.5 0.5 2.5 0.5 -1.5 0.5 0.5 0 1.5 0.5 -1.5 0.5 -2.5 0.5 -1 
0.5 1.5 0.5 -0.5 0.5 6 0.5 -3.5 0.5 3 0.5 -1 0.5 -1.5 0.5 -1.5 
0.5 3 0.5 -3.5 0.5 2 0.5 5 0.5 -4 0.5 0 0.5 -1 0.5 3 
0.5 -0.5 S
1130.5 1081.5 0.5 -1 0.5 -2.5 0.5 1.5 0.5 1 0.5 -1 0.5 0 0.5 2 
0.5 -2.5 0 1.5 0.5 0.5 0.5 1 0.5 -2.5 0.5 0.5 0.5 -3.5 0.5 6.5 
0.5 0 0.5 -3 0.5 -2 0.5 3.5 0.5 -0.5 0.5 2 0.5 -5 0.5 3.5 
0.5 -2 0.5 2 0.5 -0.5 0.5 -1 0.5 -1 0.5 -1 0.5 1.5 0.5 1.5 
0.5 -0.5 0.5 -0.5 0.5 0.5 0.5 -2 0.5 -2 0.5 2 0 -2 0.5 1 
0.5 -0.5 0.5 0.5 0.5 -2 0.5 3.5 0.5 -4 0.5 2 0.5 -2 0.5 -2 
0.5 1 0.5 2.5 0.5 -0.5 0.5 0.5 0.5 -0.5 0.5 2 0.5 0 0.5 -0.5 
0.5 0.5 0.5 0.5 0.5 -3 0.5 3.5 0.5 -0.5 0.5 -1.5 0.5 1.5 0.5 -1.5 
0.5 0 0.5 3 0 -4 0.5 2.5 0.5 2 0.5 -3 0.5 1 0.5 1.5 
0.5 -1.5 0.5 2 0.5 -3 0.5 -0.5 0.5 2.5 0.5 -3 0.5 2 0.5 -3 
0.5 2 0.5 1 0.5 -2.5 0.5 3.5 0.5 -1.5 0.5 1 0.5 0.5 0.5 -0.5 
0.5 -1 0.5 1 0.5 0 0.5 -2.5 0.5 0.5 0.5 1 0.5 -1.5 0 0.5 
0.5 3 0.5 -2 0.5 -1.5 0.5 2.5 0.5 2 0.5 -0.5 0.5 0 0.5 1 
0.5 -1 S
1180.5 1080.5 0.5 -3.5 0.5 2 0.5 -1.5 0.5 0.5 0.5 5 0.5 -2.5 0.5 1.5 
0.5 -3.5 0.5 0.5 0.5 -1.5 0.5 4 0.5 -2 0.5 0.5 0.5 1.5 0.5 1 
0.5 -2 0.5 0.5 0.5 0 0.5 0.5 0 -3 0.5 3.5 0.5 -2.5 0.5 0 
0.5 4 0.5 -5 0.5 0.5 0.5 1 0.5 2 0.5 -3 0.5 1.5 0.5 -2 
0.5 1 0.5 0 0.5 0 0.5 0.5 0.5 -2.5 0.5 0.5 0.5 0 0.5 2 
0.5 -3.5 0.5 4.5 0.5 1 0.5 -2.5 0.5 -2.5 0.5 3 0.5 -2 0.5 0 
0.5 2 0 -1 0.5 -0.5 0.5 0.5 0.5 -2.5 0.5 1 0.5 1 0.5 1 
0.5 -3.5 0.5 4 0.5 -1 0.5 -1 0.5 -0.5 0.5 1 0.5 0 0.5 -4.5 
0.5 5.5 0.5 -2 0.5 2 0.5 -0.5 0.5 -2.5 0.5 0 0.5 0 0.5 -0.5 
0.5 4 0.5 -2.5 0.5 -1 0.5 1.5 0.5 -1 0 -0.5 0.5 2.5 0.5 -4 
0.5 4 0.5 -1.5 0.5 1.5 0.5 -1.5 0.5 0.5 0.5 -1 0.5 -1 0.5 2 
0.5 -0.5 0.5 1.5 0.5 1 0.5 1 0.5 0 0.5 -1 0.5 -0.5 0.5 3.5 
0.5 -4.5 0.5 0.5 0.5 1.5 0.5 -1.5 0.5 1 0.5 0 0.5 0.5 0.5 -2.5 
0.5 0 S
1231 1078 0.5 1.5 0 -1.5 0.5 2.5 0.5 -3 0.5 1 0.5 1 0.5 -1 
0.5 4 0.5 -2.5 0.5 1 0.5 -0.5 0.5 -2 0.5 2 0.5 0 0.5 3 
0.5 -2.5 0.5 0.5 0.5 -3 0.5 1 0.5 0.5 0.5 1 0.5 -1.5 0.5 -0.5 
0.5 2.5 0.5 -1.5 0.5 2.5 0.5 -4.5 0.5 3.5 0.5 -3 0.5 2.5 0 -2 
0.5 1.5 0.5 1.5 0.5 -1 0.5 -2 0.5 0 0.5 0.5 0.5 0 0.5 -1 
0.5 -2.5 0.5 4 0.5 -2.5 0.5 -0.5 0.5 0 0.5 1.5 0.5 -2.5 0.5 1 
0.5 1.5 0.5 0 0.5 -1 0.5 0.5 0.5 1.5 0.5 0.5 0.5 -6 0.5 3 
0.5 -4.5 0.5 -1.5 0.5 2.5 0 2 0.5 -1.5 0.5 0.5 0.5 -0.5 0.5 -3 
0.5 2.5 0.5 1.5 0.5 0 0.5 -2.5 0.5 1 0.5 -1.5 0.5 4 0.5 7 
0.5 -4 0.5 1.5 0.5 -0.5 0.5 3.5 0.5 -6.5 0.5 3.5 0.5 2.5 0.5 -1 
0.5 0 0.5 0 0.5 -2 0.5 0.5 0.5 -1 0.5 3 0.5 -2 0.5 1.5 
0 -3.5 0.5 2.5 0.5 0 0.5 0.5 0.5 0 0.5 0 0.5 -1 0.5 2 
0.5 -5.5 0.5 2 0.5 1.5 0.5 0.5 0.5 -1 0.5 0 0.5 -2.5 0.5 1 
0.5 -2.5 S
1281 1076 0.5 5 0.5 -0.5 0.5 2.5 0.5 -1 0.5 2 0.5 -2 0.5 0.5 
0.5 -1.5 0.5 4.5 0.5 -2 0.5 -1.5 0.5 2.5 0 -3.5 0.5 3 0.5 0.5 
0.5 -0.5 0.5 -2.5 0.5 -0.5 0.5 3 0.5 0 0.5 1 0.5 -4.5 0.5 1 
0.5 0 0.5 -2 0.5 2.5 0.5 -3 0.5 -0.5 0.5 1.5 0.5 0.5 0.5 -0.5 
0.5 -2 0.5 4 0.5 -3.5 0.5 1 0.5 4 0.5 -4 0.5 -1.5 0.5 3 
0.5 -0.5 0.5 -7.5 0 0.5 0.5 0.5 0.5 -3 0.5 3.5 0.5 -1.5 0.5 -2 
0.5 7.5 0.5 0.5 0.5 -4 0.5 3.5 0.5 2 0.5 -10.5 0.5 5 0.5 -3 
0.5 3 0.5 0 0.5 -2 0.5 1.5 0.5 -2.5 0.5 0.5 0.5 -0.5 0.5 1 
0.5 1 0.5 1 0.5 -1.5 0.5 0.5 0.5 2 0.5 -3.5 0 -2.5 0.5 4.5 
0.5 -3 0.5 3.5 0.5 -0.5 0.5 3.5 0.5 0 0.5 0.5 0.5 5.5 0.5 -1.5 
0.5 -1 0.5 -1.5 0.5 2 0.5 2.5 0.5 -3 0.5 0.5 0.5 0 0.5 3 
0.5 -5 0.5 2.5 0.5 3 0.5 -4.5 0.5 1 0.5 3.5 0.5 -3.5 0.5 2 
0.5 -1.5 0.5 2 0.5 0.5 0 -1 0.5 0 0.5 -1.5 0.5 -1.5 0.5 0.5 
0.5 1.5 S
1331 1083 0.5 0.5 0.5 0.5 0.5 2 0.5 -5.5 0.5 1.5 0.5 2.5 0.5 -3 
0.5 1 0.5 1.5 0.5 -3.5 0.5 1.5 0.5 1.5 0.5 -2.5 0.5 2.5 0.5 -1.5 
0.5 -1.5 0.5 2.5 0.5 -2 0.5 -0.5 0.5 -1 0.5 0.5 0.5 0.5 0.5 3 
0 -1.5 0.5 0 0.5 0.5 0.5 -0.5 0.5 -1 0.5 1 0.5 -2 0.5 1.5 
0.5 0 0.5 1.5 0.5 -5 0.5 4.5 0.5 -2.5 0.5 3 0.5 -3 0.5 -1 
0.5 1.5 0.5 -1.5 0.5 0.5 0.5 -3 0.5 3.5 0.5 -2.5 0.5 2.5 0.5 -1 
0.5 1 0.5 0.5 0.5 1.5 0.5 0.5 0 -2.5 0.5 2.5 0.5 -3 0.5 0.5 
0.5 0.5 0.5 0.5 0.5 1 0.5 -2 0.5 -0.5 0.5 0.5 0.5 1 0.5 -1.5 
0.5 2.5 0.5 -1 0.5 -0.5 0.5 2 0.5 -2 0.5 -1.5 0.5 0 0.5 1.5 
0.5 -1 0.5 0.5 0.5 0.5 0.5 1.5 0.5 0.5 0.5 2.5 0.5 -3 0.5 -1.5 
0.5 1 0 1.5 0.5 -1.5 0.5 2.5 0.5 1 0.5 -132.5 0.5 126 0.5 4 
0.5 2.5 0.5 -5 0.5 7 0.5 -3 0.5 1 0.5 3.5 0.5 -2 0.5 -4 
0.5 4 0.5 -1 0.5 2 0.5 -3 0.5 -1.5 0.5 1 0.5 2.5 0.5 -2 
0.5 -2 S
1381.5 1082.5 0.5 3 0.5 -1 0.5 1 0.5 2 0.5 -2 0 -3 0.5 2 
0.5 -3 0.5 1 0.5 -2.5 0.5 3 0.5 0.5 0.5 0 0.5 0 0.5 -2 
0.5 10 0.5 0 0.5 -0.5 0.5 0 0.5 -0.5 0.5 -0.5 0.5 1.5 0.5 -0.5 
0.5 -0.5 0.5 -0.5 0.5 1 0.5 -1.5 0.5 -0.5 0.5 -0.5 0.5 1 0.5 1 
0.5 1 0.5 -1.5 0.5 -0.5 0.5 1.5 0.5 0 0.5 0 0.5 -2 0.5 -3.5 
0.5 3.5 0.5 -1 0.5 1 0.5 1 0.5 -1.5 0.5 1.5 0.5 1.5 0.5 0 
0.5 -1 0.5 1.5 0.5 -0.5 0.5 -2 0.5 1.5 0.5 -1 0.5 -0.5 0.5 3 
0.5 -2.5 0.5 2.5 0.5 -2.5 0.5 2.5 0.5 0 0.5 -1 0 0.5 0.5 -1 
0.5 -1 0.5 2.5 0.5 1 0.5 -0.5 0.5 1 0.5 -0.5 0.5 1.5 0.5 -2 
0.5 1.5 0.5 -1 0.5 1 0.5 1 0.5 -3.5 0.5 1 0.5 -0.5 0.5 0.5 
0.5 0 0.5 -3 0.5 5.5 0.5 -4.5 0.5 2.5 0.5 -0.5 0.5 2 0.5 -3 
0.5 1.5 0.5 1 0.5 1.5 0 -2 0.5 -0.5 0.5 -0.5 0.5 1 0.5 -0.5 
0.5 -1 0.5 1 0.5 0 0.5 -0.5 0.5 1 0.5 -2 0.5 2 0.5 -0.5 
0.5 -1 S
1432 1092.5 0.5 0.5 0.5 0.5 0.5 -1 0.5 1 0.5 -2 0.5 1 0.5 -1.5 
0.5 1.5 0.5 -3.5 0.5 4 0.5 -1 0.5 -3.5 0.5 4 0.5 -2 0.5 1.5 
0 -0.5 0.5 -0.5 0.5 1.5 0.5 -1.5 0.5 -1 0.5 -5 0.5 1 0.5 -2 
0.5 -6 0.5 9.5 0.5 -1.5 0.5 -0.5 0.5 0 0.5 -1 0.5 2 0.5 3.5 
0.5 0.5 0.5 -0.5 0.5 2 0.5 0.5 0.5 -2.5 0.5 4 0.5 -2 0.5 0 
0.5 0.5 0.5 -1.5 0.5 0.5 0.5 -1 0.5 0 0 1.5 0.5 -2.5 0.5 -5.5 
0.5 0.5 0.5 2 0.5 1.5 0.5 1 0.5 1 0.5 1.5 0.5 -4 0.5 2.5 
0.5 -1.5 0.5 4 0.5 0.5 0.5 -2 0.5 -0.5 0.5 0.5 0.5 2 0.5 -2 
0.5 -8 0.5 2 0.5 1 0.5 4 0.5 0 0.5 0.5 0.5 -2 0.5 2.5 
0.5 0.5 0 0.5 0.5 -0.5 0.5 0.5 0.5 1 0.5 0 0.5 -3 0.5 3 
0.5 -1 0.5 1.5 0.5 -2.5 0.5 2.5 0.5 -0.5 0.5 0 0.5 1 0.5 -0.5 
0.5 0.5 0.5 -1 0.5 1 0.5 -1 0.5 -1.5 0.5 1 0.5 0.5 0.5 0 
0.5 1.5 0.5 -2 0.5 2 0.5 -0.5 0.5 -1 0.5 3 0 -1 0.5 -0.5 
0.5 0.5 S
1482 1095 0.5 -0.5 0.5 -1.5 0.5 -0.5 0.5 0 0.5 0.5 0.5 -2.5 0.5 0 
0.5 0.5 0.5 0 0.5 0 0.5 -0.5 0.5 0 0.5 0.5 0.5 -1.5 0.5 0.5 
0.5 0 0.5 3 0.5 -3 0.5 -0.5 0.5 -1.5 0.5 -3 0.5 2 0.5 0.5 
0.5 -1.5 0.5 3.5 0.5 -2.5 0 2.5 0.5 -1 0.5 2 0.5 0.5 0.5 -1 
0.5 1 0.5 1.5 0.5 -1.5 0.5 0 0.5 -0.5 0.5 -0.5 0.5 0.5 0.5 0.5 
0.5 0.5 0.5 -7.5 0.5 6.5 0.5 1 0.5 -1.5 0.5 0.5 0.5 0.5 0.5 -1 
0.5 -0.5 0.5 4 0.5 -3 0.5 2 0.5 -2.5 0.5 1.5 0.5 1 0 -1 
0.5 2.5 0.5 -3.5 0.5 0.5 0.5 1.5 0.5 -3.5 0.5 3.5 0.5 0.5 0.5 -0.5 
0.5 0 0.5 1 0.5 -3 0.5 3 0.5 -1.5 0.5 1 0.5 0 0.5 -1.5 
0.5 0.5 0.5 2 0.5 -0.5 0.5 1 0.5 0.5 0.5 -1.5 0.5 0.5 0.5 -1 
0.5 0.5 0.5 -1 0.5 1 0.5 0 0 -0.5 0.5 1 0.5 -1.5 0.5 2 
0.5 -1.5 0.5 0.5 0.5 -1 0.5 2 0.5 -1 0.5 3 0.5 -2 0.5 1 
0.5 0.5 0.5 -2.5 0.5 -1.5 0.5 1.5 0.5 -1 0.5 1 0.5 2 0.5 -6.5 
0.5 1.5 S
1532.5 1090.5 0.5 -0.5 0.5 0 0.5 -0.5 0.5 1.5 0.5 -2 0.5 -0.5 0.5 2 
0.5 -1 0 1 0.5 -3 0.5 3 0.5 -3 0.5 2 0.5 -2.5 0.5 4 
0.5 -1.5 0.5 2.5 0.5 -1 0.5 -1.5 0.5 -1 0.5 1 0.5 2 0.5 0.5 
0.5 2.5 0.5 -3.5 0.5 -1 0.5 1 0.5 1.5 0.5 -1 0.5 -0.5 0.5 0.5 
0.5 -1.5 0.5 1 0.5 3 0.5 0 0.5 -0.5 0.5 -3 0 3.5 0.5 -3 
0.5 2.5 0.5 -1 0.5 1.5 0.5 -0.5 0.5 0.5 0.5 0.5 0.5 -0.5 0.5 -3 
0.5 3 0.5 -2 0.5 2 0.5 -1 0.5 0 0.5 -0.5 0.5 0 0.5 2 
0.5 0 0.5 0.5 0.5 -0.5 0.5 0 0.5 1.5 0.5 -1 0.5 0 0.5 -1 
0.5 0 0.5 2.5 0 -1 0.5 1.5 0.5 0 0.5 0 0.5 0 0.5 -1.5 
0.5 0 0.5 -4.5 0.5 5 0.5 -1 0.5 -1.5 0.5 0.5 0.5 1 0.5 0.5 
0.5 0 0.5 0.5 0.5 -1.5 0.5 1.5 0.5 1 0.5 -0.5 0.5 -0.5 0.5 -1 
0.5 -1 0.5 0.5 0.5 -2 0.5 1.5 0.5 -1 0.5 -2 0.5 1 0 0.5 
0.5 0 0.5 0 0.5 1 0.5 -3 0.5 0.5 0.5 -0.5 0.5 -0.5 0.5 -0.5 
0.5 0.5 S
1582.5 1090 0.5 -1 0.5 1.5 0.5 -1 0.5 -2 0.5 1 0.5 -0.5 0.5 0.5 
0.5 1 0.5 0 0.5 -0.5 0.5 0 0.5 1.5 0.5 1 0.5 -3 0.5 2.5 
0.5 0.5 0.5 -1 0.5 1 0.5 -1 0 0.5 0.5 -1.5 0.5 2 0.5 -2 
0.5 -0.5 0.5 2.5 0.5 -0.5 0.5 -1 0.5 1 0.5 0 0.5 -1 0.5 -1 
0.5 -2 0.5 3 0.5 0 0.5 -8 0.5 10 0.5 -0.5 0.5 -1.5 0.5 0 
0.5 0 0.5 1 0.5 0.5 0.5 0 0.5 -0.5 0.5 -1.5 0.5 2 0.5 -1 
0.5 2 0 -0.5 0.5 1 0.5 0 0.5 0 0.5 1 0.5 1.5 0.5 0.5 
0.5 -4 0.5 1 0.5 1.5 0.5 -0.5 0.5 -32 0.5 29 0.5 1.5 0.5 2 
0.5 -0.5 0.5 0 0.5 -0.5 0.5 3.5 0.5 -2 0.5 -6 0.5 4.5 0.5 1.5 
0.5 0.5 0.5 -1.5 0.5 -2.5 0.5 5 0.5 -1 0 -0.5 0.5 1 0.5 -3 
0.5 2 0.5 -1 0.5 -0.5 0.5 1 0.5 0 0.5 0 0.5 -3 0.5 0.5 
0.5 -1 0.5 1 0.5 -0.5 0.5 -1.5 0.5 1.5 0.5 0 0.5 -1 0.5 2 
0.5 -2 0.5 -1.5 0.5 0.5 0.5 1 0.5 -1 0.5 0.5 0.5 1 0.5 -1 
0.5 0 S
1633 1090 0.5 -0.5 0 -4 0.5 3.5 0.5 1 0.5 -2 0.5 2.5 0.5 -1.5 
0.5 -0.5 0.5 1.5 0.5 -3.5 0.5 3 0.5 -6 0.5 3 0.5 2 0.5 0 
0.5 0 0.5 1 0.5 0 0.5 -1 0.5 2 0.5 0 0.5 0 0.5 0.5 
0.5 -2.5 0.5 0.5 0.5 -5 0.5 2 0.5 -3 0.5 4.5 0.5 -5 0 2.5 
0.5 2 0.5 -1.5 0.5 5 0.5 0.5 0.5 0 0.5 0.5 0.5 0 0.5 3.5 
0.5 -4 0.5 0.5 0.5 0.5 0.5 1.5 0.5 -1 0.5 -0.5 0.5 4 0.5 -3.5 
0.5 -1 0.5 1.5 0.5 0.5 0.5 2.5 0.5 -3 0.5 2 0.5 -9.5 0.5 -12 
0.5 -1.5 0.5 -1 0.5 0.5 0 -1 0.5 7.5 0.5 15 0.5 -1.5 0.5 3.5 
0.5 -1.5 0.5 -3.5 0.5 3 0.5 0 0.5 0.5 0.5 -1 0.5 0.5 0.5 0.5 
0.5 -0.5 0.5 -0.5 0.5 0.5 0.5 -1 0.5 -1 0.5 1.5 0.5 2.5 0.5 -2 
0.5 1.5 0.5 -5 0.5 3 0.5 -1.5 0.5 1.5 0.5 0 0.5 -0.5 0.5 -1.5 
0 1.5 0.5 -2 0.5 -21 0.5 0 0.5 21 0.5 -2 0.5 0 0.5 1 
0.5 3 0.5 -6.5 0.5 -17 0.5 1 0.5 0 0.5 -1.5 0.5 0 0.5 -3 
0.5 3.5 S
1683 1068.5 0.5 -1 0.5 3 0.5 -1.5 0.5 -1 0.5 1 0.5 -3 0.5 1 
0.5 2 0.5 0.5 0.5 -3 0.5 1 0.5 2.5 0 19.5 0.5 -1.5 0.5 -0.5 
0.5 1 0.5 -2 0.5 -5 0.5 8.5 0.5 -1 0.5 -0.5 0.5 -0.5 0.5 3 
0.5 -3 0.5 1 0.5 -1 0.5 -2.5 0.5 2.5 0.5 2 0.5 -0.5 0.5 -1.5 
0.5 -49 0.5 48.5 0.5 -1 0.5 3 0.5 0 0.5 -0.5 0.5 1.5 0.5 0 
0.5 0 0.5 -1 0 1 0.5 -2.5 0.5 4 0.5 0 0.5 -1.5 0.5 0 
0.5 2 0.5 -1.5 0.5 2.5 0.5 -1.5 0.5 -0.5 0.5 -2.5 0.5 3.5 0.5 -1 
0.5 1.5 0.5 -1 0.5 0 0.5 0.5 0.5 -1 0.5 -6.5 0.5 -1.5 0.5 -1.5 
0.5 2 0.5 -9.5 0.5 -2 0.5 0.5 0.5 -1 0.5 -3.5 0 1.5 0.5 2.5 
0.5 0.5 0.5 -3 0.5 1.5 0.5 -3 0.5 2 0.5 -2.5 0.5 2 0.5 -3.5 
0.5 5 0.5 -1.5 0.5 -2 0.5 -3 0.5 15 0.5 1 0.5 0 0.5 -2.5 
0.5 -0.5 0.5 3.5 0.5 0.5 0.5 -3 0.5 2 0.5 -1 0.5 1 0.5 -1.5 
0.5 -1 0.5 3 0.5 -5.5 0 4 0.5 -24.5 0.5 26.5 0.5 -3 0.5 -1 
0.5 -40 S
1733 1038 0.5 37 0.5 4 0.5 0.5 0.5 -1.5 0.5 1.5 0.5 -0.5 0.5 0 
0.5 2 0.5 -2 0.5 1 0.5 1 0.5 -1 0.5 0 0.5 -5 0.5 4.5 
0.5 2 0.5 0.5 0.5 -2 0.5 2 0.5 -1.5 0.5 1.5 0.5 0.5 0.5 0 
0 -1.5 0.5 0.5 0.5 1.5 0.5 -3.5 0.5 1.5 0.5 -1 0.5 -1 0.5 2 
0.5 -1.5 0.5 4 0.5 -1.5 0.5 0 0.5 0 0.5 0.5 0.5 1 0.5 -1.5 
0.5 2 0.5 -1.5 0.5 -3 0.5 5.5 0.5 -4 0.5 0 0.5 -1 0.5 1.5 
0.5 0 0.5 2.5 0.5 -4 0.5 4 0 -3.5 0.5 -37 0.5 39 0.5 1 
0.5 -1 0.5 0 0.5 0.5 0.5 -0.5 0.5 1 0.5 -3.5 0.5 -460 0.5 460 
0.5 1.5 0.5 2.5 0.5 -0.5 0.5 -3.5 0.5 -2 0.5 4 0.5 -2 0.5 4 
0.5 -1.5 0.5 -1 0.5 3.5 0.5 -3 0.5 0 0.5 -1.5 0.5 -184 0.5 136.5 
0.5 46.5 0 -3.5 0.5 2.5 0.5 -1 0.5 1.5 0.5 0 0.5 0.5 0.5 -1 
0.5 -0.5 0.5 1.5 0.5 0 0.5 1 0.5 0.5 0.5 0.5 0.5 -2.5 0.5 1.5 
0.5 -2 0.5 -0.5 0.5 -0.5 0.5 1.5 0.5 -0.5 0.5 1.5 0.5 -2.5 0.5 1.5 
0.5 3 S
1783.5 1082 0.5 -3.5 0.5 4 0.5 -2.5 0.5 0.5 0.5 0 0 2 0.5 -5 
0.5 4 0.5 -1 0.5 0.5 0.5 2 0.5 -4.5 0.5 0 0.5 1.5 0.5 0 
0.5 0 0.5 -1.5 0.5 -2 0.5 3.5 0.5 0 0.5 1.5 0.5 -2 0.5 2.5 
0.5 -2.5 0.5 2 0.5 -3 0.5 1 0.5 -1 0.5 -2.5 0.5 5.5 0.5 0 
0.5 -2.5 0.5 2.5 0.5 0 0 -1.5 0.5 -1 0.5 2 0.5 1 0.5 -0.5 
0.5 1 0.5 -1 0.5 -5.5 0.5 5.5 0.5 1.5 0.5 -1 0.5 -0.5 0.5 1 
0.5 -1.5 0.5 0 0.5 -0.5 0.5 -0.5 0.5 -1 0.5 4 0.5 1 0.5 -2.5 
0.5 1 0.5 1 0.5 -1 0.5 1.5 0.5 -2 0.5 0 0.5 0 0 -1 
0.5 -0.5 0.5 3 0.5 -1.5 0.5 -0.5 0.5 -2 0.5 1 0.5 -1 0.5 0 
0.5 1 0.5 0.5 0.5 -0.5 0.5 -0.5 0.5 -1 0.5 0.5 0.5 -2 0.5 1.5 
0.5 -1.5 0.5 1.5 0.5 0 0.5 0 0.5 -1.5 0.5 0.5 0.5 0.5 0.5 -1 
0.5 0 0.5 2.5 0.5 -2.5 0.5 -0.5 0 1.5 0.5 0 0.5 0 0.5 1.5 
0.5 -3 0.5 2 0.5 0 0.5 2.5 0.5 0 0.5 -1.5 0.5 0.5 0.5 -0.5 
0.5 1 S
1833.5 1081 0.5 -1.5 0.5 1.5 0.5 -1 0.5 0 0.5 1 0.5 2 0.5 0 
0.5 -0.5 0.5 0 0.5 -1 0.5 1 0.5 0 0.5 -0.5 0.5 -0.5 0.5 3.5 
0.5 -4.5 0 2.5 0.5 -2.5 0.5 2 0.5 -2.5 0.5 2.5 0.5 -1.5 0.5 4 
0.5 -6.5 0.5 -85 0.5 78 0.5 -52.5 0.5 -8.5 0.5 71.5 0.5 -1 0.5 4 
0.5 -2.5 0.5 2 0.5 -3.5 0.5 4 0.5 0 0.5 1.5 0.5 -2 0.5 3 
0.5 -3.5 0.5 -2 0.5 3 0.5 0 0.5 -1 0.5 1 0 -1 0.5 2 
0.5 0.5 0.5 -1.5 0.5 0.5 0.5 -0.5 0.5 -0.5 0.5 1.5 0.5 0 0.5 1.5 
0.5 -3 0.5 3 0.5 -3 0.5 1.5 0.5 -0.5 0.5 -1.5 0.5 3 0.5 -4.5 
0.5 2 0.5 -2 0.5 -0.5 0.5 -387.5 0.5 130 0.5 -204.5 0.5 423.5 0.5 39 
0.5 -0.5 0.5 -0.5 0 -3 0.5 0.5 0.5 -1.5 0.5 4 0.5 -0.5 0.5 0.5 
0.5 0 0.5 -0.5 0.5 -2.5 0.5 2.5 0.5 0 0.5 -3 0.5 2.5 0.5 1 
0.5 2.5 0.5 -2 0.5 -4 0.5 4.5 0.5 0 0.5 0.5 0.5 -1 0.5 0.5 
0.5 -2 0.5 3.5 0.5 -2.5 0.5 1.5 0.5 1.5 0.5 -147 0.5 139 0 -0.5 
0.5 1 S
1883.5 1077 0.5 1.5 0.5 -1 0.5 1 0.5 -1 0.5 0.5 0.5 1 0.5 1 
0.5 -1 0.5 4 0.5 -3.5 0.5 1 0.5 2.5 0.5 0.5 0.5 -2 0.5 -1.5 
0.5 5.5 0.5 -1.5 0.5 0 0.5 -0.5 0.5 1 0.5 2.5 0.5 1 0.5 -3 
0.5 5.5 0.5 -6 0.5 4 0.5 -2 0 -2 0.5 -0.5 0.5 1 0.5 3 
0.5 -2.5 0.5 3 0.5 5.5 0.5 1.5 0.5 -1 0.5 0 0.5 -1.5 0.5 1.5 
0.5 0 0.5 1.5 0.5 -2.5 0.5 1.5 0.5 1 0.5 1 0.5 -3.5 0.5 2.5 
0.5 -2 0.5 1 0.5 -1.5 0.5 1.5 0.5 1 0.5 -3 0.5 0.5 0.5 0 
0 -1.5 0.5 1.5 0.5 -2 0.5 0.5 0.5 0 0.5 -1.5 0.5 2.5 0.5 -1 
0.5 0 0.5 3 0.5 -1 0.5 -1 0.5 -0.5 0.5 2 0.5 -3.5 0.5 0 
0.5 -1.5 0.5 2.5 0.5 1.5 0.5 -1.5 0.5 1.5 0.5 -1.5 0.5 -0.5 0.5 -1 
0.5 -2 0.5 1 0.5 -0.5 0.5 0 0.5 2 0 -1.5 0.5 0 0.5 1.5 
0.5 0.5 0.5 1 0.5 -0.5 0.5 0 0.5 -0.5 0.5 1.5 0.5 -1 0.5 -3 
0.5 2.5 0.5 0.5 0.5 -1.5 0.5 1.5 0.5 1 0.5 0.5 0.5 -1.5 0.5 -1 
0.5 1 S
1934 1092 0.5 -2 0.5 0.5 0.5 -0.5 0.5 1.5 0.5 -0.5 0.5 2.5 0.5 -1.5 
0.5 -1.5 0.5 3.5 0 -1.5 0.5 -1.5 0.5 -3.5 0.5 5 0.5 1.5 0.5 -3.5 
0.5 0 0.5 3 0.5 0 0.5 1.5 0.5 -2 0.5 0 0.5 2 0.5 0 
0.5 -1.5 0.5 1.5 0.5 -0.5 0.5 -1 0.5 1 0.5 1 0.5 -0.5 0.5 0 
0.5 -0.5 0.5 1.5 0.5 0 0.5 -2 0.5 1.5 0.5 -2.5 0.5 0 0 1.5 
0.5 -1 0.5 1 0.5 0.5 0.5 -2.5 0.5 1 0.5 -2 0.5 1 0.5 0 
0.5 -1 0.5 -2 0.5 3.5 0.5 -1.5 0.5 2.5 0.5 -4 0.5 2.5 0.5 -2.5 
0.5 3 0.5 -0.5 0.5 1 0.5 -2.5 0.5 2.5 0.5 -1 0.5 0 0.5 -4 
0.5 3 0.5 0.5 0.5 0.5 0 -1.5 0.5 0 0.5 1 0.5 -1.5 0.5 -1 
0.5 -0.5 0.5 2.5 0.5 0.5 0.5 -2 0.5 0.5 0.5 2 0.5 -3 0.5 -0.5 
0.5 1 0.5 2 0.5 -1 0.5 0 0.5 1.5 0.5 -2.5 0.5 2 0.5 1 
0.5 -3 0.5 0 0.5 1 0.5 1 0.5 0 0.5 0 0.5 -3 0.5 2 
0 2 0.5 -0.5 0.5 -1 0.5 1 0.5 -1 0.5 -2.5 0.5 -1.5 0.5 2 
0.5 -1.5 S
1984 1088 0.5 3 0.5 -1 0.5 2.5 0.5 0 0.5 -0.5 0.5 -1 0.5 0 
0.5 1.5 0.5 -0.5 0.5 3.5 0.5 -3.5 0.5 -0.5 0.5 1 0.5 -1 0.5 3 
0.5 -1 0.5 -1.5 0.5 2.5 0.5 -3.5 0.5 0.5 0 1.5 0.5 0.5 0.5 1.5 
0.5 -1 0.5 -2.5 0.5 3.5 0.5 -1 0.5 0.5 0.5 -2 0.5 0 0.5 -1 
0.5 0.5 0.5 0 0.5 2 0.5 -1 0.5 -1.5 0.5 2 0.5 1 0.5 -0.5 
0.5 -3.5 0.5 1.5 0.5 -2 0.5 0 0.5 -0.5 0.5 -0.5 0.5 2 0.5 -1 
0.5 -33 0.5 33 0 1 0.5 -2 0.5 1 0.5 0 0.5 0 0.5 -0.5 
0.5 -66 0.5 67 0.5 0.5 0.5 0 0.5 -1 0.5 2.5 0.5 -3 0.5 0.5 
0.5 -2.5 0.5 5 0.5 -1.5 0.5 0.5 0.5 1.5 0.5 -189 0.5 188 0.5 -5 
0.5 4 0.5 -1.5 0.5 2.5 0.5 -1 0.5 -0.5 0.5 -0.5 0 0.5 0.5 -1.5 
0.5 -41 0.5 41.5 0.5 1.5 0.5 0 0.5 0 0.5 0 0.5 -1 0.5 -0.5 
0.5 0.5 0.5 -0.5 0.5 1 0.5 -1.5 0.5 1.5 0.5 0.5 0.5 -0.5 0.5 0.5 
0.5 -1 0.5 -1.5 0.5 2.5 0.5 -4 0.5 2.5 0.5 -463.5 0.5 -6 0.5 0 
0.5 236.5 S
2034.5 856.5 0.5 226 0.5 -328.5 0 -133.5 0.5 -0.5 0.5 469.5 0.5 2.5 0.5 1.5 
0.5 -2 0.5 -1 0.5 -1.5 0.5 2 0.5 1 0.5 0.5 0.5 -1 0.5 1 
0.5 1.5 0.5 -1.5 0.5 0 0.5 0 0.5 -0.5 0.5 -2 0.5 1.5 0.5 0 
0.5 2 0.5 -2.5 0.5 0 0.5 -1.5 0.5 -0.5 0.5 1 0.5 -2 0.5 1 
0 0.5 0.5 -0.5 0.5 -2 0.5 0 0.5 0 0.5 0 0.5 2.5 0.5 -0.5 
0.5 -0.5 0.5 1.5 0.5 -3.5 0.5 2.5 0.5 0 0.5 0.5 0.5 2 0.5 -2.5 
0.5 3 0.5 -4 0.5 -1 0.5 2.5 0.5 2.5 0.5 -3.5 0.5 1 0.5 -2 
0.5 -5 0.5 1.5 0.5 -2.5 0.5 4.5 0 -2 0.5 7 0.5 -3 0.5 1 
0.5 -1.5 0.5 0 0.5 0 0.5 1.5 0.5 0.5 0.5 -1.5 0.5 1.5 0.5 -4 
0.5 4.5 0.5 -5 0.5 2 0.5 0.5 0.5 -3 0.5 0.5 0.5 0.5 0.5 3 
0.5 -0.5 0.5 -3 0.5 2.5 0.5 -0.5 0.5 -1 0.5 0 0.5 1 0.5 0 
0.5 -0.5 0 1.5 0.5 -0.5 0.5 2.5 0.5 -4.5 0.5 3 0.5 -0.5 0.5 -1.5 
0.5 0 0.5 -1 0.5 2.5 0.5 0.5 0.5 -1.5 0.5 1 0.5 -2 0.5 1.5 
0.5 0 S
2084.5 1087.5 0.5 3 0.5 -1 0.5 -2.5 0.5 1.5 0.5 -1.5 0.5 0 0.5 1 
0.5 -1 0.5 1 0.5 2 0.5 0.5 0.5 -1.5 0.5 1 0 -2.5 0.5 1.5 
0.5 -1.5 0.5 -0.5 0.5 -1.5 0.5 0 0.5 3.5 0.5 -2 0.5 3 0.5 -1.5 
0.5 1 0.5 -2 0.5 -0.5 0.5 -1 0.5 -1 0.5 -3.5 0.5 4.5 0.5 -0.5 
0.5 5 0.5 -2 0.5 -2 0.5 0.5 0.5 0 0.5 1.5 0.5 0.5 0.5 -2 
0.5 1 0.5 -1 0.5 0 0 -1.5 0.5 -0.5 0.5 3 0.5 1 0.5 -2 
0.5 -1 0.5 3 0.5 -2 0.5 1.5 0.5 -4 0.5 2.5 0.5 0 0.5 -0.5 
0.5 1.5 0.5 0 0.5 -1 0.5 -0.5 0.5 -1.5 0.5 3 0.5 -0.5 0.5 0 
0.5 -1.5 0.5 0 0.5 0 0.5 0 0.5 1 0.5 1 0.5 -1.5 0 -1.5 
0.5 2.5 0.5 -0.5 0.5 1.5 0.5 0 0.5 -2.5 0.5 1 0.5 1 0.5 -2 
0.5 3 0.5 0 0.5 -2.5 0.5 -0.5 0.5 1 0.5 0 0.5 -0.5 0.5 1.5 
0.5 -0.5 0.5 -0.5 0.5 2.5 0.5 -4 0.5 2 0.5 1 0.5 -2 0.5 2 
0.5 0 0.5 0.5 0.5 0 0.5 2 0 -2.5 0.5 -0.5 0.5 3.5 0.5 -3.5 
0.5 2 S
2134.5 1090 0.5 0.5 0.5 2 0.5 -2.5 0.5 -0.5 0.5 -1 0.5 2.5 0.5 -0.5 
0.5 -0.5 0.5 -0.5 0.5 2 0.5 -4 0.5 1.5 0.5 1.5 0.5 -0.5 0.5 -0.5 
0.5 0.5 0.5 -1.5 0.5 0 0.5 0 0.5 -2 0.5 2 0.5 -468.5 0.5 0 
0.5 0 0.5 0 0.5 0 0.5 2.5 0.5 463 0.5 1 0.5 -1 0.5 1 
0.5 -1 0.5 -0.5 0.5 1 0.5 -1.5 0.5 0.5 0.5 0 0.5 1.5 0.5 -1 
0.5 -2 0.5 1 0.5 -0.5 0.5 4 0.5 -2 0.5 1 0.5 -2.5 0.5 1.5 
0.5 -0.5 0.5 0 0.5 0.5 0.5 -0.5 0.5 1.5 0.5 1.5 0.5 -58 0.5 56.5 
0.5 0.5 0.5 -1 0.5 -1.5 0.5 1.5 0.5 1.5 0.5 -1 0.5 -1 0.5 -0.5 
0.5 2.5 0.5 0.5 0.5 -2 0.5 1.5 0.5 -2 0.5 2.5 0.5 -1.5 0.5 2 
0.5 -1 0.5 -4.5 0.5 2 0.5 -0.5 0.5 0 0.5 2 0.5 0 0.5 -3 
0 3 0.5 -0.5 0.5 -3 0.5 0.5 0.5 1.5 0.5 3.5 0.5 -1 0.5 -3 
0.5 3 0.5 -3.5 0.5 3 0.5 -1.5 0.5 2 0.5 -1.5 0.5 3 0.5 -3.5 
0.5 1.5 0.5 -1 0.5 0 0.5 -0.5 0.5 0.5 0.5 0.5 0.5 2.5 0.5 -1.5 
0.5 0 S
2186 1088 0.5 -1 0.5 2.5 0.5 1 0.5 -1.5 0 -4.5 0.5 -139 0.5 144 
0.5 -3 0.5 -0.5 0.5 0 0.5 1 0.5 0 0.5 0 0.5 1.5 0.5 -0.5 
0.5 -0.5 0.5 -0.5 0.5 0 0.5 -2 0.5 3 0.5 -2.5 0.5 1.5 0.5 0 
0.5 0 0.5 2.5 0.5 -1 0.5 -0.5 0.5 -1.5 0.5 -1 0.5 2.5 0.5 -1.5 
0.5 -1.5 0.5 0 0 2 0.5 0 0.5 2 0.5 -4 0.5 2.5 0.5 0.5 
0.5 5 0.5 0 0.5 -2 0.5 0 0.5 1 0.5 -1.5 0.5 -1.5 0.5 -3 
0.5 4 0.5 -4 0.5 3.5 0.5 -2.5 0.5 -3.5 0.5 4 0.5 -0.5 0.5 -2 
0.5 1.5 0.5 -0.5 0.5 2 0.5 -0.5 0.5 1 0.5 -2 0 -0.5 0.5 2 
0.5 -2.5 0.5 1.5 0.5 0 0.5 -0.5 0.5 0.5 0.5 4 0.5 1 0.5 -0.5 
0.5 -0.5 0.5 0 0.5 0 0.5 -2 0.5 3 0.5 -1.5 0.5 0.5 0.5 2.5 
0.5 -1.5 0.5 0 0.5 2 0.5 -3 0.5 -1 0.5 3 0.5 0 0.5 -1.5 
0.5 0 0.5 0 0.5 2 0 -2 0.5 2 0.5 -2.5 0.5 2.5 0.5 1.5 
0.5 -2 0.5 -4 0.5 2.5 0.5 1 0.5 0 0.5 -1.5 0.5 -1.5 0.5 -1 
0.5 2.5 S
2236 1091 0.5 -1 0.5 -2.5 0.5 1 0.5 0 0.5 -2 0.5 4 0.5 -4.5 
0.5 1 0.5 -1 0.5 0.5 0.5 1 0.5 -0.5 0.5 2.5 0.5 0 0.5 -4 
0 3 0.5 2.5 0.5 -7 0.5 3.5 0.5 0.5 0.5 -3.5 0.5 2.5 0.5 1 
0.5 -1 0.5 0 0.5 1 0.5 2.5 0.5 -2 0.5 0 0.5 -0.5 0.5 1 
0.5 1 0.5 -2 0.5 -7 0.5 6 0.5 -6 0.5 10 0.5 0.5 0.5 -3 
0.5 -2 0.5 2.5 0.5 0 0.5 0.5 0.5 -0.5 0 2 0.5 -1 0.5 -1 
0.5 -1 0.5 0.5 0.5 0 0.5 0 0.5 -1.5 0.5 -1.5 0.5 2 0.5 1.5 
0.5 -1 0.5 -1.5 0.5 3 0.5 -0.5 0.5 -0.5 0.5 0 0.5 0.5 0.5 -2 
0.5 0 0.5 -0.5 0.5 2 0.5 -2.5 0.5 2.5 0.5 1.5 0.5 0.5 0.5 -1.5 
0.5 -0.5 0 1 0.5 0 0.5 -0.5 0.5 2.5 0.5 -2.5 0.5 2 0.5 -2 
0.5 2.5 0.5 0.5 0.5 0 0.5 -3.5 0.5 0 0.5 4 0.5 -1 0.5 -2.5 
0.5 3 0.5 -0.5 0.5 1 0.5 0 0.5 -1 0.5 0 0.5 1 0.5 -3 
0.5 -0.5 0.5 -2.5 0.5 0 0.5 -1 0.5 0.5 0.5 2 0.5 -1.5 0.5 -0.5 
0.5 0 S
2286.5 1086 0.5 2.5 0.5 -1 0.5 1 0.5 1 0.5 -1.5 0.5 0.5 0.5 -2.5 
0.5 2 0.5 -0.5 0.5 -2 0.5 3 0.5 -1.5 0.5 0.5 0.5 -2 0.5 1.5 
0.5 -1 0.5 2 0.5 -1 0.5 1 0.5 -2.5 0.5 -1.5 0.5 0.5 0.5 2 
0.5 -2.5 0.5 2.5 0 -3 0.5 -1.5 0.5 3 0.5 3 0.5 -1 0.5 -34.5 
0.5 36 0.5 -0.5 0.5 1.5 0.5 -3 0.5 1 0.5 -2 0.5 3 0.5 -1.5 
0.5 2 0.5 -0.5 0.5 0 0.5 -1 0.5 0 0.5 2 0.5 -4.5 0.5 2 
0.5 3 0.5 -1 0.5 -2 0.5 1 0.5 1.5 0.5 0 0 1.5 0.5 -3 
0.5 2 0.5 -1 0.5 1 0.5 -1 0.5 -0.5 0.5 0.5 0.5 0.5 0.5 -1 
0.5 0.5 0.5 0.5 0.5 2 0.5 -1 0.5 0.5 0.5 -0.5 0.5 0 0.5 -1.5 
0.5 2 0.5 -1.5 0.5 1 0.5 0.5 0.5 0 0.5 0.5 0.5 -0.5 0.5 -1 
0.5 -1.5 0.5 2 0.5 3.5 0 -3 0.5 1 0.5 -2 0.5 2.5 0.5 -3 
0.5 -0.5 0.5 0 0.5 2 0.5 -4 0.5 3 0.5 -1.5 0.5 -1.5 0.5 1 
0.5 0.5 0.5 0 0.5 -2.5 0.5 0.5 0.5 0.5 0.5 0.5 0.5 1.5 0.5 -2.5 
0.5 -0.5 S
2337 1086 0.5 1 0.5 3 0.5 -3.5 0.5 1.5 0.5 -0.5 0.5 2 0.5 -1.5 
0 1.5 0.5 -2 0.5 2.5 0.5 -3 0.5 3 0.5 -2 0.5 1 0.5 -2.5 
0.5 -1.5 0.5 3 0.5 0.5 0.5 0.5 0.5 -0.5 0.5 -0.5 0.5 -0.5 0.5 -1 
0.5 2.5 0.5 0 0.5 0.5 0.5 2 0.5 0 0.5 -1.5 0.5 -3.5 0.5 1.5 
0.5 1 0.5 -1 0.5 1.5 0.5 -1.5 0.5 0.5 0.5 0.5 0.5 -0.5 0.5 0.5 
0.5 -3 0.5 2 0.5 0 0.5 2.5 0.5 -2 0.5 1 0.5 0 0.5 -1 
0.5 0 0.5 -0.5 0.5 1.5 0.5 -2.5 0.5 1 0.5 2 0.5 -1 0.5 0.5 
0.5 1.5 0.5 0.5 0.5 -2 0.5 -0.5 0.5 3 0.5 -2 0.5 1 0.5 0.5 
0 -1 0.5 1 0.5 -2.5 0.5 0.5 0.5 3.5 0.5 -1 0.5 -1.5 0.5 -0.5 
0.5 2 0.5 -2 0.5 3.5 0.5 -2 0.5 -2 0.5 2.5 0.5 -1.5 0.5 1 
0.5 0 0.5 0.5 0.5 -5.5 0.5 2 0.5 1.5 0.5 -3 0.5 2 0.5 -1 
0.5 -1 0.5 1 0.5 1 0.5 -2.5 0.5 -0.5 0 2 0.5 -2 0.5 1.5 
0.5 1 0.5 0 0.5 0 0.5 0.5 0.5 -1 0.5 -0.5 0.5 -9 0.5 8.5 
0.5 1.5 S
2387.5 1088.5 0.5 1 0.5 -1.5 0.5 2 0.5 -1 0.5 -1 0.5 -2 0.5 2 
0.5 2 0.5 -1.5 0.5 -0.5 0.5 1 0.5 0.5 0.5 -1 0.5 0 0.5 1 
0.5 -0.5 0.5 0 0 1 0.5 -1.5 0.5 -0.5 0.5 -1 0.5 0.5 0.5 -1 
0.5 1.5 0.5 0.5 0.5 -1 0.5 0 0.5 3.5 0.5 -4.5 0.5 0 0.5 3 
0.5 -1.5 0.5 -1.5 0.5 0.5 0.5 -0.5 0.5 1 0.5 -1 0.5 1.5 0.5 -1.5 
0.5 1 0.5 2.5 0.5 -1.5 0.5 -1 0.5 0 0.5 2 0.5 -0.5 0.5 0 
0.5 1 0.5 0.5 0.5 -1 0.5 1 0.5 -0.5 0.5 -1 0.5 0 0.5 0 
0.5 2 0.5 -0.5 0.5 -1.5 0.5 2.5 0.5 -2 0.5 -1.5 0.5 1 0.5 0.5 
0.5 1.5 0.5 -1.5 0.5 -0.5 0.5 1 0.5 0 0.5 1 0.5 1 0.5 -3.5 
0.5 1.5 0.5 1 0 -1.5 0.5 1.5 0.5 -2 0.5 -0.5 0.5 0.5 0.5 0.5 
0.5 -1.5 0.5 1 0.5 -2 0.5 0.5 0.5 3 0.5 -3.5 0.5 -0.5 0.5 0 
0.5 2 0.5 0 0.5 -1 0.5 -1 0.5 0.5 0.5 1.5 0.5 -0.5 0.5 -2 
0.5 0 0.5 -1 0.5 2.5 0.5 -5 0.5 7.5 0.5 -3 0.5 0 0 -1 
0.5 -0.5 S
2438 1085.5 0.5 0 0.5 1 0.5 2.5 0.5 -3.5 0.5 0 0.5 -11.5 0.5 12 
0.5 -2 0.5 3.5 0.5 -1.5 0.5 -0.5 0.5 -4.5 0.5 6 0.5 -14 0.5 11 
0.5 -1.5 0.5 3.5 0.5 -2 0.5 -11 0.5 10.5 0.5 2 0.5 -8.5 0.5 9.5 
0.5 -2 0.5 2.5 0.5 0.5 0.5 0 0 -3.5 0.5 1 0.5 -0.5 0.5 2 
0.5 1.5 0.5 -2 0.5 1.5 0.5 -0.5 0.5 -0.5 0.5 2 0.5 -2 0.5 0.5 
0.5 -0.5 0.5 3 0.5 0 0.5 -1 0.5 -1 0.5 1.5 0.5 1 0.5 -2 
0.5 0 0.5 3 0.5 -2 0.5 1.5 0.5 0.5 0.5 0 0.5 -2 0.5 0 
0 0.5 0.5 1.5 0.5 -1.5 0.5 -1.5 0.5 2.5 0.5 0 0.5 -0.5 0.5 -0.5 
0.5 -0.5 0.5 0.5 0.5 2 0.5 -2 0.5 -0.5 0.5 -1.5 0.5 0 0.5 1.5 
0.5 0 0.5 0.5 0.5 -0.5 0.5 0 0.5 -3 0.5 0.5 0.5 2 0.5 0 
0.5 -2 0.5 1.5 0.5 0.5 0.5 0.5 0.5 -2.5 0 1.5 0.5 2 0.5 -1 
0.5 0.5 0.5 -1.5 0.5 1.5 0.5 -2 0.5 -0.5 0.5 1.5 0.5 -0.5 0.5 0 
0.5 -1.5 0.5 1 0.5 0 0.5 -0.5 0.5 1.5 0.5 -4.5 0.5 5 0.5 -11.5 
0.5 11 S
2488.5 1088.5 0.5 -1.5 0.5 0.5 0.5 1 0.5 0 0.5 -1 0.5 1 0.5 0.5 
0.5 -2 0.5 0.5 0 1.5 0.5 -2 0.5 -0.5 0.5 2 0.5 -1 0.5 1 
0.5 -2.5 0.5 2 0.5 -1 0.5 1 0.5 0.5 0.5 -1 0.5 1 0.5 -0.5 
0.5 -1.5 0.5 2 0.5 -1 0.5 -0.5 0.5 1.5 0.5 0 0.5 1 0.5 0.5 
0.5 -2.5 0.5 2 0.5 0 0.5 0 0.5 0 0.5 0.5 0.5 -1.5 0 3.5 
0.5 -4.5 0.5 3 0.5 0.5 0.5 1.5 0.5 -1 0.5 2 0.5 -3 0.5 1.5 
0.5 -0.5 0.5 0.5 0.5 0 0.5 3 0.5 1.5 0.5 -3 0.5 -0.5 0.5 -2.5 
0.5 1.5 0.5 -1 0.5 0.5 0.5 2.5 0.5 -1 0.5 -0.5 0.5 -1 0.5 5.5 
0.5 -3 0.5 1 0.5 -1.5 0 3 0.5 -4.5 0.5 1 0.5 -2 0.5 0 
0.5 1 0.5 -2 0.5 1.5 0.5 -1 0.5 1 0.5 -0.5 0.5 -0.5 0.5 0 
0.5 -2 0.5 1.5 0.5 0 0.5 0.5 0.5 1 0.5 -1 0.5 0 0.5 1 
0.5 -2.5 0.5 2 0.5 -2.5 0.5 2 0.5 -1 0.5 0 0.5 1.5 0.5 1.5 
0 -1 0.5 -0.5 0.5 -0.5 0.5 2.5 0.5 -2.5 0.5 0.5 0.5 -1 0.5 -0.5 
0.5 1 S
2538.5 1090.5 0.5 0.5 0.5 -1 0.5 -1.5 0.5 2.5 0.5 0.5 0.5 2 0.5 -2.5 
0.5 0 0.5 -2.5 0.5 1 0.5 2 0.5 -1.5 0.5 2 0.5 -1.5 0.5 -0.5 
0.5 -0.5 0.5 0.5 0.5 0.5 0.5 0.5 0.5 0 0 0.5 0.5 -0.5 0.5 1.5 
0.5 -2 0.5 1.5 0.5 2.5 0.5 0 0.5 -2 0.5 0.5 0.5 0 0.5 0.5 
0.5 -1 0.5 -2 0.5 0 0.5 -0.5 0.5 3 0.5 -1.5 0.5 1.5 0.5 0 
0.5 -1 0.5 -2 0.5 1.5 0.5 0.5 0.5 0 0.5 1 0.5 1 0.5 -1.5 
0.5 1.5 0 -2 0.5 1 0.5 0.5 0.5 0.5 0.5 0.5 0.5 -0.5 0.5 1 
0.5 -1.5 0.5 0 0.5 0 0.5 0.5 0.5 0.5 0.5 -3.5 0.5 -1.5 0.5 1 
0.5 1.5 0.5 -0.5 0.5 -0.5 0.5 -1 0.5 1.5 0.5 -1 0.5 -0.5 0.5 0 
0.5 -3 0.5 4.5 0.5 -3 0.5 2.5 0.5 -1.5 0.5 -2 0 2.5 0.5 0.5 
0.5 2.5 0.5 -2 0.5 -2.5 0.5 2 0.5 -1.5 0.5 0 0.5 3 0.5 -2 
0.5 0.5 0.5 -2.5 0.5 1 0.5 2.5 0.5 2 0.5 -1 0.5 0.5 0.5 0 
0.5 -2.5 0.5 2 0.5 -1.5 0.5 -1.5 0.5 1.5 0.5 -2 0.5 1.5 0.5 0 
0.5 0 S
2589 1090.5 0.5 1 0.5 0.5 0 -2.5 0.5 1.5 0.5 0 0.5 0.5 0.5 -2.5 
0.5 2 0.5 -0.5 0.5 2.5 0.5 -3 0.5 0 0.5 -0.5 0.5 2.5 0.5 0 
0.5 -0.5 0.5 -0.5 0.5 2 0.5 -1 0.5 0 0.5 1 0.5 -0.5 0.5 0.5 
0.5 0.5 0.5 1 0.5 0 0.5 -1 0.5 0.5 0.5 -2.5 0.5 2.5 0.5 1 
0 -1.5 0.5 1 0.5 -0.5 0.5 -1.5 0.5 2.5 0.5 -2.5 0.5 1.5 0.5 0 
0.5 -1 0.5 1.5 0.5 -1 0.5 -0.5 0.5 -0.5 0.5 0.5 0.5 1 0.5 1.5 
0.5 -1.5 0.5 1 0.5 -2 0.5 -2 0.5 -1 0.5 -2 0.5 -0.5 0.5 4 
0.5 -0.5 0.5 0.5 0.5 1 0.5 -2 0 0.5 0.5 -1 0.5 0.5 0.5 -0.5 
0.5 0 0.5 -1.5 0.5 1 0.5 1.5 0.5 -0.5 0.5 0.5 0.5 0.5 0.5 -0.5 
0.5 -0.5 0.5 -0.5 0.5 1 0.5 -0.5 0.5 0 0.5 -1 0.5 -1 0.5 0.5 
0.5 0 0.5 0 0.5 1.5 0.5 0 0.5 -1 0.5 0.5 0.5 0.5 0.5 0.5 
0.5 1 0 -1 0.5 1 0.5 -0.5 0.5 -0.5 0.5 0 0.5 2.5 0.5 -0.5 
0.5 -1 0.5 -1 0.5 -1 0.5 2.5 0.5 -0.5 0.5 -1.5 0.5 -2 0.5 1.5 
0.5 2 S
2639 1092 0.5 0 0.5 0 0.5 1 0.5 -0.5 0.5 -1 0.5 2 0.5 -2.5 
0.5 2 0.5 0.5 0.5 1.5 0.5 -1.5 0.5 1 0.5 -5.5 0 -3 0.5 7 
0.5 1.5 0.5 -6 0.5 -1.5 0.5 8 0.5 -2 0.5 0 0.5 2 0.5 -1.5 
0.5 -0.5 0.5 -21.5 0.5 1.5 0.5 -0.5 0.5 21.5 0.5 0.5 0.5 -1 0.5 0 
0.5 0.5 0.5 0.5 0.5 -1.5 0.5 1 0.5 1 0.5 0 0.5 1.5 0.5 -2.5 
0.5 0.5 0.5 -0.5 0.5 -2.5 0 1.5 0.5 -3 0.5 3.5 0.5 -2.5 0.5 -0.5 
0.5 1 0.5 -2.5 0.5 0.5 0.5 0 0.5 2.5 0.5 0.5 0.5 0.5 0.5 0 
0.5 0 0.5 -1.5 0.5 -1.5 0.5 1 0.5 -1 0.5 0 0.5 -3 0.5 1 
0.5 2.5 0.5 -1.5 0.5 -1.5 0.5 0 0.5 3 0.5 -1 0.5 0 0 1 
0.5 -1 0.5 1 0.5 0 0.5 -1 0.5 2 0.5 -1 0.5 1 0.5 -2 
0.5 -3.5 0.5 4.5 0.5 2 0.5 -0.5 0.5 0 0.5 0.5 0.5 0.5 0.5 -1 
0.5 0.5 0.5 -2.5 0.5 1.5 0.5 -1 0.5 0 0.5 0.5 0.5 -0.5 0.5 -0.5 
0.5 0.5 0.5 -0.5 0.5 1.5 0.5 -2 0 -0.5 0.5 -0.5 0.5 0.5 0.5 -1 
0.5 1 S
2689 1089 0.5 0.5 0.5 -2.5 0.5 3.5 0.5 -2 0.5 1 0.5 0 0.5 0 
0.5 1 0.5 0.5 0.5 0.5 0.5 -1 0.5 0.5 0.5 -0.5 0.5 2.5 0.5 -2 
0.5 -1 0.5 1.5 0.5 -2 0.5 0 0.5 2 0.5 1.5 0.5 -1.5 0.5 -0.5 
0.5 2.5 0 -3 0.5 1.5 0.5 1.5 0.5 -1.5 0.5 1 0.5 1.5 0.5 -1 
0.5 1 0.5 -3 0.5 2.5 0.5 -2.5 0.5 4 0.5 -3 0.5 1 0.5 -1 
0.5 -1 0.5 1 0.5 1 0.5 -1.5 0.5 -0.5 0.5 1.5 0.5 -1.5 0.5 -1 
0.5 -1 0.5 1.5 0.5 0 0.5 -1.5 0.5 1.5 0.5 0.5 0.5 -1.5 0.5 1.5 
0.5 -1 0.5 0.5 0.5 -0.5 0.5 -1.5 0.5 3 0.5 -2.5 0.5 0 0.5 2.5 
0.5 -3.5 0.5 4 0.5 -1.5 0.5 -0.5 0.5 -1.5 0.5 1 0.5 0.5 0.5 -13.5 
0.5 12.5 0.5 2 0.5 -2 0.5 0 0.5 -0.5 0.5 0.5 0.5 -1.5 0.5 2.5 
0.5 1 0 -3.5 0.5 0.5 0.5 0 0.5 1.5 0.5 -4.5 0.5 2 0.5 0 
0.5 -1.5 0.5 1.5 0.5 -2.5 0.5 1.5 0.5 -1 0.5 4.5 0.5 -4.5 0.5 0.5 
0.5 1.5 0.5 -0.5 0.5 0.5 0.5 -0.5 0.5 1 0.5 1.5 0.5 -1.5 0.5 -0.5 
0.5 2.5 S
2740 1090 0.5 1.5 0.5 -2.5 0.5 1.5 0.5 -2 0.5 0 0 1 0.5 -1.5 
0.5 -1 0.5 1.5 0.5 0.5 0.5 0 0.5 2.5 0.5 -2 0.5 -3 0.5 3 
0.5 0 0.5 -1 0.5 -0.5 0.5 1.5 0.5 -1.5 0.5 2.5 0.5 -2.5 0.5 1.5 
0.5 -1.5 0.5 1 0.5 -1 0.5 -3.5 0.5 3 0.5 -2 0.5 0 0.5 2.5 
0.5 -1.5 0.5 0 0.5 1 0 -1 0.5 -0.5 0.5 -1 0.5 -0.5 0.5 0.5 
0.5 0.5 0.5 -0.5 0.5 -1.5 0.5 0.5 0.5 1 0.5 -1 0.5 -1 0.5 2.5 
0.5 -2 0.5 1 0.5 -2.5 0.5 0.5 0.5 0 0.5 1 0.5 1.5 0.5 0 
0.5 -1.5 0.5 1 0.5 -1 0.5 -0.5 0.5 1 0.5 1 0.5 -0.5 0 -0.5 
0.5 -1.5 0.5 1 0.5 0 0.5 0 0.5 0.5 0.5 2 0.5 -0.5 0.5 1 
0.5 -2 0.5 4.5 0.5 -3.5 0.5 1.5 0.5 1.5 0.5 -1 0.5 -1.5 0.5 2 
0.5 -0.5 0.5 0.5 0.5 2 0.5 -2.5 0.5 1 0.5 0.5 0.5 0 0.5 0.5 
0.5 -0.5 0.5 -1 0.5 -1 0.5 1 0 0.5 0.5 1.5 0.5 -0.5 0.5 1 
0.5 0 0.5 -4 0.5 1.5 0.5 1.5 0.5 0.5 0.5 -0.5 0.5 -2.5 0.5 4.5 
0.5 -2 S
2790 1089.5 0.5 1.5 0.5 0 0.5 0 0.5 -2 0.5 1.5 0.5 0 0.5 0 
0.5 -0.5 0.5 0 0.5 1.5 0.5 2 0.5 -2 0.5 2 0.5 -3 0.5 2.5 
0.5 -2.5 0 2 0.5 0.5 0.5 -1.5 0.5 0 0.5 -0.5 0.5 -0.5 0.5 1 
0.5 -3 0.5 2.5 0.5 -1 0.5 -1.5 0.5 0.5 0.5 -1.5 0.5 -0.5 0.5 1.5 
0.5 0.5 0.5 0 0.5 -0.5 0.5 1.5 0.5 -2 0.5 0.5 0.5 -0.5 0.5 1.5 
0.5 -2.5 0.5 2 0.5 -3.5 0.5 3.5 0.5 -1.5 0.5 0 0 1 0.5 1 
0.5 -1.5 0.5 3 0.5 -2.5 0.5 3 0.5 -4 0.5 2 0.5 -0.5 0.5 -2 
0.5 1.5 0.5 1 0.5 -2.5 0.5 3.5 0.5 -3 0.5 2 0.5 -1 0.5 1.5 
0.5 -2 0.5 0 0.5 -1 0.5 1.5 0.5 -0.5 0.5 0.5 0.5 -0.5 0.5 0 
0.5 -1 0.5 -1 0 1 0.5 1 0.5 -3 0.5 2 0.5 0 0.5 0.5 
0.5 0 0.5 2 0.5 -2 0.5 1 0.5 -0.5 0.5 1.5 0.5 -1.5 0.5 0.5 
0.5 -0.5 0.5 1 0.5 -1 0.5 1.5 0.5 -1.5 0.5 0.5 0.5 -2.5 0.5 3 
0.5 -1.5 0.5 3.5 0.5 -1 0.5 -1 0.5 -0.5 0.5 2.5 0.5 0.5 0 -3 
0.5 1.5 S
2840 1090 0.5 1 0.5 -1.5 0.5 2 0.5 -1 0.5 -1 0.5 1.5 0.5 0 
0.5 -2 0.5 1.5 0.5 2 0.5 -0.5 0.5 -0.5 0.5 -1 0.5 0 0.5 1.5 
0.5 -1 0.5 -1.5 0.5 -2 0.5 1 0.5 -1 0.5 3.5 0.5 -3 0.5 0 
0.5 0 0.5 0.5 0.5 1.5 0.5 -3 0 0.5 0.5 2.5 0.5 -3.5 0.5 3 
0.5 -0.5 0.5 -1 0.5 0.5 0.5 0.5 0.5 -1 0.5 -1 0.5 1 0.5 -1.5 
0.5 2.5 0.5 -2.5 0.5 2 0.5 1 0.5 -1.5 0.5 0.5 0.5 -3 0.5 1.5 
0.5 -2.5 0.5 1 0.5 4.5 0.5 -0.5 0.5 -0.5 0.5 -0.5 0.5 -0.5 0.5 0 
0 -1.5 0.5 4.5 0.5 0.5 0.5 -1 0.5 -3.5 0.5 3.5 0.5 -1 0.5 -3 
0.5 0.5 0.5 1.5 0.5 -1.5 0.5 -17.5 0.5 17 0.5 3 0.5 -1 0.5 0 
0.5 -1.5 0.5 2 0.5 -2 0.5 1.5 0.5 0 0.5 0 0.5 1 0.5 0 
0.5 0 0.5 1.5 0.5 0.5 0.5 0 0.5 -1 0 -0.5 0.5 0.5 0.5 0 
0.5 0 0.5 1 0.5 0.5 0.5 0.5 0.5 -2 0.5 -1 0.5 0 0.5 1.5 
0.5 0 0.5 0 0.5 -2.5 0.5 1.5 0.5 -0.5 0.5 3 0.5 0 0.5 -1.5 
0.5 -0.5 S
2890.5 1090.5 0.5 -1 0.5 2 0.5 0 0.5 -1.5 0.5 1 0.5 -0.5 0.5 -0.5 
0.5 -1 0.5 0.5 0 -0.5 0.5 -0.5 0.5 2 0.5 -1 0.5 -1 0.5 -3.5 
0.5 3.5 0.5 -2 0.5 -2.5 0.5 0 0.5 1.5 0.5 1.5 0.5 1.5 0.5 -0.5 
0.5 0.5 0.5 0 0.5 0 0.5 0.5 0.5 -0.5 0.5 -1 0.5 2.5 0.5 -0.5 
0.5 1 0.5 -3.5 0.5 0 0.5 1.5 0.5 1.5 0.5 -8.5 0.5 7 0 -2.5 
0.5 3 0.5 -2 0.5 3 0.5 -0.5 0.5 -1 0.5 -0.5 0.5 1.5 0.5 -2.5 
0.5 2.5 0.5 -1.5 0.5 0 0.5 -1.5 0.5 1 0.5 0 0.5 -1.5 0.5 1 
0.5 -0.5 0.5 1 0.5 -0.5 0.5 -1 0.5 1 0.5 -1.5 0.5 1.5 0.5 -1.5 
0.5 1 0.5 0 0.5 0 0 -0.5 0.5 -1 0.5 2.5 0.5 -4.5 0.5 2 
0.5 -1 0.5 2 0.5 1 0.5 -0.5 0.5 0.5 0.5 1.5 0.5 -1.5 0.5 -1 
0.5 -0.5 0.5 2 0.5 1 0.5 0 0.5 -0.5 0.5 1 0.5 -1 0.5 0 
0.5 0 0.5 -2.5 0.5 1.5 0.5 0.5 0.5 0 0.5 1 0.5 -1 0.5 3 
0 -1.5 0.5 -1 0.5 0 0.5 -0.5 0.5 1 0.5 0.5 0.5 -2.5 0.5 3 
0.5 -2 S
2940.5 1087.5 0.5 1 0.5 -0.5 0.5 1 0.5 -2.5 0.5 1.5 0.5 -1.5 0.5 0 
0.5 0.5 0.5 0.5 0.5 1.5 0.5 -1.5 0.5 -1.5 0.5 2 0.5 -0.5 0.5 0.5 
0.5 1 0.5 0 0.5 0 0.5 -2 0.5 -1 0 1.5 0.5 0.5 0.5 0 
0.5 1 0.5 -2 0.5 0 0.5 0.5 0.5 -0.5 0.5 -1.5 0.5 3 0.5 -1.5 
0.5 -0.5 0.5 2 0.5 -0.5 0.5 -1.5 0.5 3 0.5 -1.5 0.5 -1 0.5 1 
0.5 0 0.5 1.5 0.5 -5.5 0.5 3.5 0.5 0.5 0.5 0 0.5 -0.5 0.5 2.5 
0.5 -1.5 0 -2 0.5 -1.5 0.5 1.5 0.5 -1 0.5 2.5 0.5 0 0.5 -1.5 
0.5 2.5 0.5 -2 0.5 0.5 0.5 0.5 0.5 -2 0.5 3 0.5 -2.5 0.5 1 
0.5 -3 0.5 3.5 0.5 1.5 0.5 -1.5 0.5 -2 0.5 1 0.5 1 0.5 2 
0.5 -2 0.5 0.5 0.5 1.5 0.5 -0.5 0.5 0 0.5 -0.5 0 2.5 0.5 -2 
0.5 -0.5 0.5 0 0.5 -1.5 0.5 3 0.5 0.5 0.5 -1.5 0.5 1.5 0.5 -1.5 
0.5 1 0.5 -1 0.5 0.5 0.5 -0.5 0.5 1.5 0.5 0 0.5 1 0.5 -1 
0.5 -1 0.5 -0.5 0.5 1 0.5 -2 0.5 0 0.5 -3 0.5 0 0.5 1.5 
0.5 0.5 S
2991 1087.5 0.5 1 0.5 2 0 -1 0.5 0.5 0.5 -45.5 0.5 43.5 0.5 1.5 
0.5 -0.5 0.5 -1 0.5 0 0.5 0 0.5 0 0.5 1.5 0.5 -2.5 0.5 0 
0.5 1 0.5 1.5 0.5 0 0.5 -1 0.5 1 0.5 -1.5 0.5 1 0.5 1 
0.5 -2.5 0.5 1 0.5 -1.5 0.5 1.5 0.5 1 0.5 -1 0.5 0.5 0.5 -1 
0 -0.5 0.5 2 0.5 -2.5 0.5 1.5 0.5 -0.5 0.5 0 0.5 -1 0.5 0 
0.5 -0.5 0.5 -1 0.5 2 0.5 -3 0.5 2 0.5 -2.5 0.5 0.5 0.5 1.5 
0.5 -1.5 0.5 3 0.5 -0.5 0.5 0 0.5 1 0.5 -0.5 0.5 1 0.5 -0.5 
0.5 -1 0.5 0.5 0.5 2.5 0.5 -2.5 0 0.5 0.5 2 0.5 -0.5 0.5 0.5 
0.5 -0.5 0.5 0.5 0.5 -2 0.5 0.5 0.5 0 0.5 -1.5 0.5 1 0.5 0.5 
0.5 0.5 0.5 1 0.5 -2.5 0.5 2 0.5 -2 0.5 2 0.5 1 0.5 -3.5 
0.5 3 0.5 -1.5 0.5 1 0.5 -2 0.5 3.5 0.5 -0.5 0.5 -1 0.5 -0.5 
0.5 0.5 0 -0.5 0.5 3 0.5 -3.5 0.5 2 0.5 -2.5 0.5 -1.5 0.5 0.5 
0.5 1.5 0.5 0.5 0.5 -1.5 0.5 0 0.5 1 0.5 0 0.5 0 0.5 -0.5 
0.5 0.5 S
3041 1088.5 0.5 -3 0.5 0.5 0.5 3 0.5 0 0.5 -2 0.5 -0.5 0.5 -1.5 
0.5 0.5 0.5 1.5 0.5 -61 0.5 62 0.5 0 0.5 0 0 -2 0.5 -1.5 
0.5 0.5 0.5 -0.5 0.5 2.5 0.5 -1 0.5 0.5 0.5 2 0.5 -0.5 0.5 -1.5 
0.5 2.5 0.5 -3 0.5 1.5 0.5 -0.5 0.5 3.5 0.5 -2.5 0.5 1 0.5 -1 
0.5 -1 0.5 3 0.5 -5 0.5 2 0.5 1 0.5 -2.5 0.5 -1 0.5 0.5 
0.5 -0.5 0.5 0.5 0.5 0.5 0 2.5 0.5 -2 0.5 1 0.5 0.5 0.5 -1 
0.5 2.5 0.5 -6 0.5 3.5 0.5 -1.5 0.5 4.5 0.5 -1.5 0.5 0 0.5 0 
0.5 1 0.5 0.5 0.5 0 0.5 -1.5 0.5 0 0.5 1 0.5 -1.5 0.5 2 
0.5 -2 0.5 2 0.5 0 0.5 0.5 0.5 -1 0.5 0 0.5 -1.5 0.5 0 
0.5 2 0.5 -4 0.5 1.5 0.5 0.5 0.5 -1 0.5 4 0.5 -3.5 0.5 0 
0.5 -3.5 0.5 4 0.5 3 0.5 -5 0.5 3.5 0.5 -3 0.5 -4.5 0.5 6 
0.5 0.5 0.5 -1 0.5 2 0.5 -11 0.5 9 0.5 1 0.5 -1 0.5 2 
0.5 1 0.5 0 0.5 -5.5 0 3 0.5 -1.5 0.5 -39 0.5 42 0.5 -3 
0.5 0 S
3091.5 1086 0.5 0 0.5 1 0.5 1 0.5 -1 0.5 1.5 0.5 -2.5 0.5 1.5 
0.5 -0.5 0.5 0 0.5 -1.5 0.5 1.5 0.5 -2 0.5 1.5 0.5 -1 0.5 2 
0.5 -0.5 0.5 -2 0.5 3 0.5 -0.5 0.5 -1 0.5 -1.5 0.5 0 0.5 4.5 
0 -3 0.5 1 0.5 -1.5 0.5 -0.5 0.5 -2.5 0.5 3 0.5 -0.5 0.5 -1.5 
0.5 1 0.5 2 0.5 0.5 0.5 0 0.5 -5 0.5 1 0.5 2 0.5 -1.5 
0.5 0 0.5 2 0.5 -0.5 0.5 2 0.5 0 0.5 -2 0.5 0 0.5 -0.5 
0.5 0.5 0.5 2 0.5 0.5 0.5 -4 0 3 0.5 0 0.5 -1 0.5 4 
0.5 -1.5 0.5 0.5 0.5 -0.5 0.5 -1 0.5 -0.5 0.5 1.5 0.5 -1.5 0.5 0.5 
0.5 0 0.5 0 0.5 2.5 0.5 -2.5 0.5 1.5 0.5 2 0.5 -2.5 0.5 -1 
0.5 2 0.5 -1.5 0.5 -1.5 0.5 1 0.5 -0.5 0.5 0 0.5 0.5 0.5 -2 
0.5 2.5 0 -2 0.5 1 0.5 0 0.5 0 0.5 -1.5 0.5 3.5 0.5 -4 
0.5 -0.5 0.5 1.5 0.5 1.5 0.5 -4 0.5 1 0.5 0 0.5 1 0.5 -1.5 
0.5 1 0.5 -0.5 0.5 0.5 0.5 0.5 0.5 -0.5 0.5 0.5 0.5 0.5 0.5 -1.5 
0.5 -1 S
3142 1083.5 0.5 3.5 0.5 -4.5 0.5 0 0.5 0.5 0.5 1 0 1 0.5 1 
0.5 -2 0.5 0.5 0.5 0 0.5 0 0.5 1.5 0.5 -1 0.5 -4 0.5 1.5 
0.5 1.5 0.5 -1.5 0.5 2 0.5 1 0.5 -2 0.5 -1 0.5 2 0.5 -1 
0.5 -2 0.5 2 0.5 0 0.5 1 0.5 -1 0.5 1.5 0.5 -0.5 0.5 0.5 
0.5 0 0.5 0 0.5 0 0 -0.5 0.5 1.5 0.5 2.5 0.5 -3.5 0.5 0.5 
0.5 1 0.5 1 0.5 0 0.5 -0.5 0.5 -1 0.5 1.5 0.5 -1 0.5 0.5 
0.5 2.5 0.5 -3 0.5 3 0.5 -0.5 0.5 0.5 0.5 -1.5 0.5 -0.5 0.5 -1.5 
0.5 2 0.5 0.5 0.5 -1.5 0.5 0.5 0.5 -2.5 0.5 -1 0.5 3.5 0 -1 
0.5 1 0.5 1 0.5 1 0.5 -2 0.5 -2.5 0.5 0.5 0.5 -0.5 0.5 0 
0.5 -1.5 0.5 -6.5 0.5 3 0.5 0 0.5 0 0.5 6 0.5 -3 0.5 0.5 
0.5 2 0.5 0 0.5 -1 0.5 1 0.5 -0.5 0.5 -1 0.5 1 0.5 0 
0.5 -0.5 0.5 0 0.5 1 0.5 -0.5 0 -1 0.5 0.5 0.5 2 0.5 -1.5 
0.5 -0.5 0.5 1 0.5 0 0.5 -4 0.5 3 0.5 -1 0.5 0 0.5 1 
0.5 0 S
3192 1084.5 0.5 -2.5 0.5 4 0.5 -2.5 0.5 3.5 0.5 0 0.5 -1.5 0.5 2 
0.5 -3 0.5 0 0.5 1 0.5 0 0.5 -0.5 0.5 2.5 0.5 -1.5 0.5 -4 
0.5 -14 0 -1.5 0.5 8 0.5 12 0.5 0.5 0.5 -5.5 0.5 6 0.5 0 
0.5 -1.5 0.5 -1 0.5 1.5 0.5 1 0.5 -1.5 0.5 1.5 0.5 -2.5 0.5 2.5 
0.5 -1 0.5 1.5 0.5 0 0.5 -1 0.5 1 0.5 -1 0.5 -4.5 0.5 3 
0.5 1 0.5 3.5 0.5 0.5 0.5 -2 0.5 -1.5 0.5 0 0 2 0.5 -1 
0.5 -1.5 0.5 0.5 0.5 2 0.5 -1 0.5 1 0.5 0 0.5 0.5 0.5 -0.5 
0.5 -0.5 0.5 -0.5 0.5 1 0.5 -1 0.5 0.5 0.5 -1.5 0.5 -1.5 0.5 1 
0.5 -1 0.5 1.5 0.5 1 0.5 -0.5 0.5 -4 0.5 1 0.5 1.5 0.5 0.5 
0.5 0.5 0.5 -3.5 0 -43.5 0.5 48 0.5 -2.5 0.5 1 0.5 -0.5 0.5 -0.5 
0.5 2 0.5 -3.5 0.5 2.5 0.5 -1 0.5 0 0.5 -1 0.5 1.5 0.5 -2 
0.5 0.5 0.5 0 0.5 3.5 0.5 -4 0.5 5.5 0.5 -3 0.5 -5 0.5 3 
0.5 -9 0.5 5.5 0.5 5.5 0.5 1 0.5 -0.5 0.5 1 0.5 -0.5 0 1 
0.5 -2 S
3242 1086.5 0.5 -1.5 0.5 2 0.5 -20 0.5 20 0.5 2.5 0.5 -2 0.5 0 
0.5 -1.5 0.5 2.5 0.5 -1 0.5 1 0.5 -2 0.5 -0.5 0.5 -0.5 0.5 2.5 
0.5 -2 0.5 1 0.5 1 0.5 -2.5 0.5 2 0.5 1 0.5 -0.5 0.5 0 
0.5 0 0.5 2.5 0.5 -3 0.5 3 0 -1.5 0.5 -1 0.5 1.5 0.5 -0.5 
0.5 0.5 0.5 0 0.5 2 0.5 -2.5 0.5 2 0.5 -3 0.5 3 0.5 -0.5 
0.5 0.5 0.5 -0.5 0.5 2 0.5 0 0.5 -0.5 0.5 -1 0.5 1.5 0.5 0 
0.5 -2 0.5 0 0.5 -2 0.5 0.5 0.5 -0.5 0.5 -1 0.5 1 0.5 -3 
0 1.5 0.5 -1 0.5 1.5 0.5 -0.5 0.5 1 0.5 -3.5 0.5 2 0.5 0 
0.5 -1.5 0.5 3 0.5 1 0.5 -4 0.5 -1.5 0.5 2.5 0.5 1.5 0.5 -7 
0.5 5 0.5 0.5 0.5 -0.5 0.5 -4 0.5 -7.5 0.5 2 0.5 1 0.5 10.5 
0.5 -0.5 0.5 -2 0.5 -2.5 0.5 0 0.5 4 0 -1 0.5 -2 0.5 -5.5 
0.5 10 S
5 w
878 620 2412 528 re
S
cleartomark end end pagesave restore
 showpage
%%PageTrailer
%%Trailer
%%Pages: 1
