%!PS-Adobe-3.0
%%Pages: (atend)
%%BoundingBox: 17 3 287 68
%%HiResBoundingBox: 17.400000 3.900000 286.200000 67.100000
%.........................................
%%Creator: GPL Ghostscript 871 (pswrite)
%%CreationDate: 2012/01/28 16:59:44
%%DocumentData: Clean7Bit
%%LanguageLevel: 2
%%EndComments
%%BeginProlog
% This copyright applies to everything between here and the %%EndProlog:
% Copyright (C) 2010 Artifex Software, Inc.  All rights reserved.
%%BeginResource: procset GS_pswrite_2_0_1001 1.001 0
/GS_pswrite_2_0_1001 80 dict dup begin
/PageSize 2 array def/setpagesize{ PageSize aload pop 3 index eq exch
4 index eq and{ pop pop pop}{ PageSize dup  1
5 -1 roll put 0 4 -1 roll put dup null eq {false} {dup where} ifelse{ exch get exec}
{ pop/setpagedevice where
{ pop 1 dict dup /PageSize PageSize put setpagedevice}
{ /setpage where{ pop PageSize aload pop pageparams 3 {exch pop} repeat
setpage}if}ifelse}ifelse}ifelse} bind def
/!{bind def}bind def/#{load def}!/N/counttomark #
/rG{3{3 -1 roll 255 div}repeat setrgbcolor}!/G{255 div setgray}!/K{0 G}!
/r6{dup 3 -1 roll rG}!/r5{dup 3 1 roll rG}!/r3{dup rG}!
/w/setlinewidth #/J/setlinecap #
/j/setlinejoin #/M/setmiterlimit #/d/setdash #/i/setflat #
/m/moveto #/l/lineto #/c/rcurveto #
/p{N 2 idiv{N -2 roll rlineto}repeat}!
/P{N 0 gt{N -2 roll moveto p}if}!
/h{p closepath}!/H{P closepath}!
/lx{0 rlineto}!/ly{0 exch rlineto}!/v{0 0 6 2 roll c}!/y{2 copy c}!
/re{4 -2 roll m exch dup lx exch ly neg lx h}!
/^{3 index neg 3 index neg}!
/f{P fill}!/f*{P eofill}!/s{H stroke}!/S{P stroke}!
/q/gsave #/Q/grestore #/rf{re fill}!
/Y{P clip newpath}!/Y*{P eoclip newpath}!/rY{re Y}!
/|={pop exch 4 1 roll 1 array astore cvx 3 array astore cvx exch 1 index def exec}!
/|{exch string readstring |=}!
/+{dup type/nametype eq{2 index 7 add -3 bitshift 2 index mul}if}!
/@/currentfile #/${+ @ |}!
/B{{2 copy string{readstring pop}aload pop 4 array astore cvx
3 1 roll}repeat pop pop true}!
/Ix{[1 0 0 1 11 -2 roll exch neg exch neg]exch}!
/,{true exch Ix imagemask}!/If{false exch Ix imagemask}!/I{exch Ix image}!
/Ic{exch Ix false 3 colorimage}!
/F{/Columns counttomark 3 add -2 roll/Rows exch/K -1/BlackIs1 true>>
/CCITTFaxDecode filter}!/FX{<</EndOfBlock false F}!
/X{/ASCII85Decode filter}!/@X{@ X}!/&2{2 index 2 index}!
/@F{@ &2<<F}!/@C{@X &2 FX}!
/$X{+ @X |}!/&4{4 index 4 index}!/$F{+ @ &4<<F |}!/$C{+ @X &4 FX |}!
/IC{3 1 roll 10 dict begin 1{/ImageType/Interpolate/Decode/DataSource
/ImageMatrix/BitsPerComponent/Height/Width}{exch def}forall
currentdict end image}!
/~{@ read {pop} if}!
end def
%%EndResource
/pagesave null def
%%EndProlog
%%Page: 1 1
%%PageBoundingBox: 0 0 288 72
%%BeginPageSetup
GS_pswrite_2_0_1001 begin
288 72 null setpagesize
/pagesave save store 197 dict begin
0.1 0.1 scale
%%EndPageSetup
gsave mark
Q q
0 0 2880 0 0 720 ^ Y
5 w
K
378 120 31.5 0 P
2790 120 -31.5 0 P
342 120 S
308 99 31 44 /1I
$C
3XuEV%\5X)j2)<u^Zk'1J,ZoQs8W-!s8VJ_s8Qk\g>99H(eYmM:r7r$~>
,
378 208 31.5 0 P
2790 208 -31.5 0 P
342 208 S
208 188 31 43 /4I
$C
0H$LqQp5fN^"]dYfPna4iOE=NL>hOS^U@tYqu,+3CMbUV[OTh+@7(A~>
,
241 187 1I ,
274 187 1I ,
308 187 1I ,
378 296 31.5 0 P
2790 296 -31.5 0 P
342 296 S
208 276 32 43 /1M
$C
--uVks3([cr0V$lmIpMQmIpMQmJH;FpY5/kn_X9>^V/P~>
,
241 275 1I ,
274 275 1I ,
308 275 1I ,
378 384 31.5 0 P
2790 384 -31.5 0 P
342 384 S
208 363 32 44 /4M
$C
3XZ35-UH4U05uPcT2!a`He7T^qXqU=['7F,Z=C&h$n`Au*WOE]DtUNIgIhr,MR@1;L'd~>
,
241 363 1I ,
274 363 1I ,
308 363 1I ,
378 472 31.5 0 P
2790 472 -31.5 0 P
342 472 S
208 451 32 44 /1Q
$C
+c-=3S07(D'Aa:H#WJZ`e,TIHX4Gk>$!:Ud'l"Rbl-UTa#WJZ`l2Ue`CO4^e@4ZT(6OF59~>
,
241 451 1I ,
274 451 1I ,
308 451 1I ,
378 560 31.5 0 P
2790 560 -31.5 0 P
342 560 S
174 540 22 43 /4Q
$C
24spKs8W-!s.9^HOMhXt^OQ~>
,
208 539 1I ,
241 539 1I ,
274 539 1I ,
308 539 1I ,
378 648 31.5 0 P
2790 648 -31.5 0 P
342 648 S
174 628 4Q ,
208 628 4I ,
241 627 1I ,
274 627 1I ,
308 627 1I ,
377 120 0 31.5 P
377 648 0 -31.5 P
377 60 S
368 39 1I ,
618.5 120 0 31.5 P
618.5 648 0 -31.5 P
618.5 60 S
576 39 32 44 /1U
$C
+c?I5&9R0a'Aa:<PNfbDGdm_=;e3>gBjl_7CKWS'fO25hs7ZK6."D-0~>
,
609 39 1I ,
643 39 1I ,
859.5 120 0 31.5 P
859.5 648 0 -31.5 P
859.5 60 S
800 40 4Q ,
833 39 1I ,
867 39 1I ,
900 39 1I ,
1101 120 0 31.5 P
1101 648 0 -31.5 P
1101 60 S
1042 40 4Q ,
1075 39 1U ,
1108 39 1I ,
1142 39 1I ,
1342 120 0 31.5 P
1342 648 0 -31.5 P
1342 60 S
1283 40 4I ,
1316 39 1I ,
1349 39 1I ,
1383 39 1I ,
1583.5 120 0 31.5 P
1583.5 648 0 -31.5 P
1583.5 60 S
1524 40 4I ,
1557 39 1U ,
1591 39 1I ,
1624 39 1I ,
1825 120 0 31.5 P
1825 648 0 -31.5 P
1825 60 S
1766 39 31 44 /4U
$C
,RFS`K;VJ#ZZne#2lEeH?]XK;@:qjFYct@m5iCJ5DJ]@QpAVZrg>Sl<[;*R2"T~>
,
1799 39 1I ,
1832 39 1I ,
1866 39 1I ,
2066 120 0 31.5 P
2066 648 0 -31.5 P
2066 60 S
2007 39 4U ,
2040 39 1U ,
2073 39 1I ,
2107 39 1I ,
2307.5 120 0 31.5 P
2307.5 648 0 -31.5 P
2307.5 60 S
2248 40 1M ,
2281 39 1I ,
2315 39 1I ,
2348 39 1I ,
2548.5 120 0 31.5 P
2548.5 648 0 -31.5 P
2548.5 60 S
2489 40 1M ,
2522 39 1U ,
2556 39 1I ,
2589 39 1I ,
2790 120 0 31.5 P
2790 648 0 -31.5 P
2790 60 S
2731 39 1U ,
2764 39 1I ,
2797 39 1I ,
2831 39 1I ,
378 120 2412 528 re
S
2.5 w
378 583 0.5 2.5 0.5 -1.5 0.5 -1.5 0.5 -1 0.5 3.5 0.5 -0.5 0.5 -1 
0.5 1.5 0.5 0.5 0.5 -2.5 0.5 2 0.5 -3 0.5 4 0.5 -1 0 -3 
0.5 4 0.5 -1.5 0.5 -0.5 0.5 2 0.5 2.5 0.5 -2 0.5 0 0.5 1 
0.5 -1.5 0.5 -3.5 0.5 3 0.5 2.5 0.5 -16.5 0.5 6.5 0.5 2.5 0.5 3.5 
0.5 -0.5 0.5 3 0.5 -3.5 0.5 2.5 0.5 0 0.5 0.5 0.5 1.5 0.5 0 
0.5 -1.5 0.5 -2.5 0.5 1.5 0.5 2.5 0 -2 0.5 1.5 0.5 -0.5 0.5 -3.5 
0.5 1 0.5 -0.5 0.5 -1.5 0.5 5 0.5 -2.5 0.5 0.5 0.5 -2.5 0.5 1 
0.5 0.5 0.5 -1.5 0.5 0 0.5 3 0.5 -2 0.5 -4 0.5 7 0.5 -3 
0.5 -0.5 0.5 -1 0.5 -0.5 0.5 0.5 0.5 -0.5 0.5 -2 0.5 1 0.5 2.5 
0 -1 0.5 -2 0.5 3 0.5 -3 0.5 0.5 0.5 1.5 0.5 0.5 0.5 0.5 
0.5 -0.5 0.5 -1 0.5 2 1.5 0 0.5 -2 0.5 -0.5 0.5 1 0.5 0.5 
0.5 1 0.5 0 0.5 -2 0.5 2 0.5 2.5 0.5 -2.5 0.5 -0.5 0.5 -1.5 
0.5 1 0.5 2.5 0.5 -1.5 0 2 0.5 -0.5 0.5 -1.5 0.5 -2 S
428 581.5 0.5 -1 0.5 3 0.5 3 0.5 -3.5 0.5 -4.5 0.5 2 0.5 -0.5 
0.5 4.5 0.5 0 0.5 0.5 0.5 -3 0.5 1 0.5 -2.5 0.5 0.5 0.5 1.5 
0.5 3 0.5 1 0.5 -2 0.5 -3 0.5 1 0.5 -1.5 0.5 4.5 0.5 0.5 
0.5 -2.5 0.5 0.5 0.5 1 0.5 1.5 0.5 1 0.5 -1.5 0.5 0 0.5 0.5 
0.5 0 0.5 -1.5 0.5 1.5 0.5 -0.5 0.5 -3 0.5 3.5 0.5 -2.5 0.5 5 
0.5 -4.5 0.5 3 0.5 -5 0.5 2 0.5 -3.5 0.5 4 0.5 -2 0.5 3.5 
0.5 -4 0.5 2.5 0.5 -2.5 0.5 0 0.5 -1 0 -1 0.5 4 0.5 -1.5 
0.5 0 0.5 -1.5 0.5 4 0.5 -9.5 0.5 6 0.5 -0.5 0.5 -1.5 0.5 0.5 
0.5 1 0.5 -1 0.5 1 0.5 3 0.5 -3.5 0.5 4 0.5 -3.5 0.5 -0.5 
0.5 -0.5 0.5 5 0.5 -5.5 0.5 -62 0.5 45 0.5 -34 0.5 -1.5 0.5 -1.5 
0.5 -14.5 0.5 44 0.5 4 0.5 1 0.5 2.5 0.5 -1 0.5 0.5 0.5 -2.5 
0.5 1.5 0.5 1.5 0.5 3 0.5 -3.5 0.5 1 0.5 -2 0.5 1.5 0.5 -2.5 
0.5 1.5 0.5 -0.5 0.5 -0.5 0.5 3 0.5 -2 0.5 2 0.5 1.5 0.5 -3 
0.5 1 S
479.5 563.5 0.5 1.5 0.5 0 0.5 14.5 0.5 5 0.5 0.5 0 -1 0.5 0.5 
0.5 0 0.5 1.5 0.5 -2 0.5 -1.5 0.5 1.5 0.5 -2.5 0.5 6.5 0.5 -9.5 
0.5 2 0.5 7 0.5 -5 0.5 4 0.5 0.5 0.5 -0.5 0.5 -0.5 0.5 -2 
0.5 1.5 0.5 2.5 0.5 -8 0.5 5.5 0.5 -1.5 0.5 2.5 0.5 -1.5 0.5 0.5 
0.5 0.5 1 0 0 -2 0.5 -0.5 0.5 -5.5 0.5 5.5 0.5 1.5 0.5 1 
0.5 -3.5 0.5 -1.5 0.5 0.5 0.5 1.5 0.5 0 0.5 0.5 0.5 0 0.5 -0.5 
0.5 -3.5 0.5 1 0.5 2.5 0.5 0.5 0.5 -3 0.5 1 0.5 2.5 0.5 -2 
0.5 0 0.5 -5.5 0.5 6 0.5 -1 0.5 1.5 0.5 1 0 -7 0.5 5.5 
0.5 -2 0.5 3.5 0.5 0 0.5 -3 0.5 1.5 0.5 -1 0.5 -1.5 0.5 1.5 
0.5 -1.5 0.5 -5.5 0.5 4 0.5 0 0.5 3.5 0.5 -1 0.5 -5 0.5 4.5 
0.5 -2.5 0.5 0.5 0.5 -0.5 0.5 3.5 0.5 -0.5 0.5 2.5 0.5 -3.5 0.5 3.5 
0.5 -4.5 0.5 0.5 0.5 0.5 0.5 2.5 0.5 -3 0.5 0 0.5 -0.5 0.5 -1.5 
0.5 2 0.5 -1.5 0.5 0 0.5 2.5 0.5 -5 0.5 6.5 0.5 -0.5 0.5 1.5 S
530 583 0.5 -0.5 0.5 1.5 0.5 -2.5 0.5 1.5 1 0 0.5 -3 0.5 3 
0.5 -3.5 0.5 3.5 0.5 0.5 0.5 1 0.5 -3 0.5 2.5 0.5 -3.5 0 4.5 
0.5 -4 0.5 1.5 0.5 -0.5 0.5 6 0.5 -4.5 0.5 -1.5 0.5 4 0.5 -2 
0.5 1.5 0.5 -1.5 0.5 0 0.5 -3 0.5 4.5 0.5 -4 0.5 -1 0.5 2 
0.5 -1.5 0.5 3 0.5 -1 0.5 0 0.5 1 0.5 1 0.5 -6 0.5 5 
0.5 0 0.5 -1.5 0.5 1 0.5 0 0 -2 0.5 0 0.5 -2 0.5 3.5 
0.5 -0.5 0.5 -1 0.5 -2 0.5 1.5 0.5 -2 0.5 2.5 0.5 -1 0.5 2 
0.5 -3 0.5 1.5 0.5 -5 0.5 6 0.5 -2 0.5 1 0.5 -1 0.5 2 
0.5 -6 0.5 3 0.5 0.5 0.5 -0.5 0.5 -1.5 0.5 1.5 0.5 -2.5 0.5 1.5 
0 6.5 0.5 0.5 0.5 -5 0.5 0.5 0.5 -1.5 0.5 -4.5 0.5 3.5 0.5 0 
0.5 3 0.5 -3 0.5 -0.5 0.5 1.5 0.5 -2.5 0.5 2 0.5 -1 0.5 0.5 
0.5 1.5 0.5 1 0.5 -2 0.5 0.5 0.5 -1.5 0.5 1 0.5 0.5 0.5 3 
0.5 -2.5 0.5 -1 0.5 1.5 0.5 1 0.5 -1 0 2 0.5 -2.5 0.5 -1.5 S
580 578 0.5 4 0.5 -3.5 0.5 3 0.5 -1.5 0.5 -1 0.5 1.5 0.5 2 
0.5 -2 0.5 1.5 0.5 -2.5 0.5 3.5 0.5 -1 0.5 1 0.5 -0.5 1 0 
0.5 -0.5 0.5 -0.5 0.5 5 0.5 -5 0.5 2 0.5 1 0.5 -2.5 0.5 -1 
0.5 2 0.5 -2.5 0 2 0.5 -2.5 0.5 -4 0.5 2 0.5 0 0.5 -0.5 
1 0 0.5 0.5 0.5 2 0.5 -0.5 0.5 -1.5 0.5 -0.5 0.5 2 0.5 -2.5 
0.5 4 0.5 -2.5 0.5 -1 0.5 3.5 0.5 -2 0.5 1 0.5 -3 0.5 0.5 
0.5 0.5 0.5 2 0.5 -1.5 0.5 2 0.5 -2 0 0.5 0.5 2 0.5 -2.5 
0.5 1 0.5 0 0.5 0.5 0.5 -4.5 0.5 2 0.5 2 0.5 0.5 0.5 -1.5 
0.5 -3.5 0.5 4.5 0.5 -0.5 0.5 -1.5 0.5 2 0.5 -0.5 0.5 -0.5 0.5 2.5 
0.5 -1.5 0.5 -19 0.5 16.5 0.5 -0.5 0.5 3.5 0.5 -0.5 0.5 -2.5 0.5 2.5 
0.5 -1.5 0.5 0.5 0 1.5 0.5 -1.5 0.5 -2.5 0.5 -1 0.5 1.5 0.5 -0.5 
0.5 6 0.5 -3.5 0.5 3 0.5 -1 0.5 -1.5 0.5 -1.5 0.5 3 0.5 -3.5 
0.5 2 0.5 5 0.5 -4 0.5 0 0.5 -1 0.5 3 0.5 -0.5 S
630.5 581.5 0.5 -1 0.5 -2.5 0.5 1.5 0.5 1 0.5 -1 0.5 0 0.5 2 
0.5 -2.5 0 1.5 0.5 0.5 0.5 1 0.5 -2.5 0.5 0.5 0.5 -3.5 0.5 6.5 
0.5 0 0.5 -3 0.5 -2 0.5 3.5 0.5 -0.5 0.5 2 0.5 -5 0.5 3.5 
0.5 -2 0.5 2 0.5 -0.5 0.5 -1 0.5 -1 0.5 -1 0.5 1.5 0.5 1.5 
0.5 -0.5 0.5 -0.5 0.5 0.5 0.5 -2 0.5 -2 0.5 2 0 -2 0.5 1 
0.5 -0.5 0.5 0.5 0.5 -2 0.5 3.5 0.5 -4 0.5 2 0.5 -2 0.5 -2 
0.5 1 0.5 2.5 0.5 -0.5 0.5 0.5 0.5 -0.5 0.5 2 0.5 0 0.5 -0.5 
0.5 0.5 0.5 0.5 0.5 -3 0.5 3.5 0.5 -0.5 0.5 -1.5 0.5 1.5 0.5 -1.5 
0.5 0 0.5 3 0 -4 0.5 2.5 0.5 2 0.5 -3 0.5 1 0.5 1.5 
0.5 -1.5 0.5 2 0.5 -3 0.5 -0.5 0.5 2.5 0.5 -3 0.5 2 0.5 -3 
0.5 2 0.5 1 0.5 -2.5 0.5 3.5 0.5 -1.5 0.5 1 0.5 0.5 0.5 -0.5 
0.5 -1 0.5 1 0.5 0 0.5 -2.5 0.5 0.5 0.5 1 0.5 -1.5 0 0.5 
0.5 3 0.5 -2 0.5 -1.5 0.5 2.5 0.5 2 0.5 -0.5 0.5 0 0.5 1 
0.5 -1 S
680.5 580.5 0.5 -3.5 0.5 2 0.5 -1.5 0.5 0.5 0.5 5 0.5 -2.5 0.5 1.5 
0.5 -3.5 0.5 0.5 0.5 -1.5 0.5 4 0.5 -2 0.5 0.5 0.5 1.5 0.5 1 
0.5 -2 0.5 0.5 0.5 0 0.5 0.5 0 -3 0.5 3.5 0.5 -2.5 0.5 0 
0.5 4 0.5 -5 0.5 0.5 0.5 1 0.5 2 0.5 -3 0.5 1.5 0.5 -2 
0.5 1 1 0 0.5 0.5 0.5 -2.5 0.5 0.5 0.5 0 0.5 2 0.5 -3.5 
0.5 4.5 0.5 1 0.5 -2.5 0.5 -2.5 0.5 3 0.5 -2 0.5 0 0.5 2 
0 -1 0.5 -0.5 0.5 0.5 0.5 -2.5 0.5 1 0.5 1 0.5 1 0.5 -3.5 
0.5 4 0.5 -1 0.5 -1 0.5 -0.5 0.5 1 0.5 0 0.5 -4.5 0.5 5.5 
0.5 -2 0.5 2 0.5 -0.5 0.5 -2.5 1 0 0.5 -0.5 0.5 4 0.5 -2.5 
0.5 -1 0.5 1.5 0.5 -1 0 -0.5 0.5 2.5 0.5 -4 0.5 4 0.5 -1.5 
0.5 1.5 0.5 -1.5 0.5 0.5 0.5 -1 0.5 -1 0.5 2 0.5 -0.5 0.5 1.5 
0.5 1 0.5 1 0.5 0 0.5 -1 0.5 -0.5 0.5 3.5 0.5 -4.5 0.5 0.5 
0.5 1.5 0.5 -1.5 0.5 1 0.5 0 0.5 0.5 0.5 -2.5 0.5 0 S
731 578 0.5 1.5 0 -1.5 0.5 2.5 0.5 -3 0.5 1 0.5 1 0.5 -1 
0.5 4 0.5 -2.5 0.5 1 0.5 -0.5 0.5 -2 0.5 2 0.5 0 0.5 3 
0.5 -2.5 0.5 0.5 0.5 -3 0.5 1 0.5 0.5 0.5 1 0.5 -1.5 0.5 -0.5 
0.5 2.5 0.5 -1.5 0.5 2.5 0.5 -4.5 0.5 3.5 0.5 -3 0.5 2.5 0 -2 
0.5 1.5 0.5 1.5 0.5 -1 0.5 -2 0.5 0 0.5 0.5 0.5 0 0.5 -1 
0.5 -2.5 0.5 4 0.5 -2.5 0.5 -0.5 0.5 0 0.5 1.5 0.5 -2.5 0.5 1 
0.5 1.5 0.5 0 0.5 -1 0.5 0.5 0.5 1.5 0.5 0.5 0.5 -6 0.5 3 
0.5 -4.5 0.5 -1.5 0.5 2.5 0 2 0.5 -1.5 0.5 0.5 0.5 -0.5 0.5 -3 
0.5 2.5 0.5 1.5 0.5 0 0.5 -2.5 0.5 1 0.5 -1.5 0.5 4 0.5 7 
0.5 -4 0.5 1.5 0.5 -0.5 0.5 3.5 0.5 -6.5 0.5 3.5 0.5 2.5 0.5 -1 
1 0 0.5 -2 0.5 0.5 0.5 -1 0.5 3 0.5 -2 0.5 1.5 0 -3.5 
0.5 2.5 0.5 0 0.5 0.5 1 0 0.5 -1 0.5 2 0.5 -5.5 0.5 2 
0.5 1.5 0.5 0.5 0.5 -1 0.5 0 0.5 -2.5 0.5 1 0.5 -2.5 S
781 576 0.5 5 0.5 -0.5 0.5 2.5 0.5 -1 0.5 2 0.5 -2 0.5 0.5 
0.5 -1.5 0.5 4.5 0.5 -2 0.5 -1.5 0.5 2.5 0 -3.5 0.5 3 0.5 0.5 
0.5 -0.5 0.5 -2.5 0.5 -0.5 0.5 3 0.5 0 0.5 1 0.5 -4.5 0.5 1 
0.5 0 0.5 -2 0.5 2.5 0.5 -3 0.5 -0.5 0.5 1.5 0.5 0.5 0.5 -0.5 
0.5 -2 0.5 4 0.5 -3.5 0.5 1 0.5 4 0.5 -4 0.5 -1.5 0.5 3 
0.5 -0.5 0.5 -7.5 0 0.5 0.5 0.5 0.5 -3 0.5 3.5 0.5 -1.5 0.5 -2 
0.5 7.5 0.5 0.5 0.5 -4 0.5 3.5 0.5 2 0.5 -10.5 0.5 5 0.5 -3 
0.5 3 0.5 0 0.5 -2 0.5 1.5 0.5 -2.5 0.5 0.5 0.5 -0.5 0.5 1 
0.5 1 0.5 1 0.5 -1.5 0.5 0.5 0.5 2 0.5 -3.5 0 -2.5 0.5 4.5 
0.5 -3 0.5 3.5 0.5 -0.5 0.5 3.5 0.5 0 0.5 0.5 0.5 5.5 0.5 -1.5 
0.5 -1 0.5 -1.5 0.5 2 0.5 2.5 0.5 -3 0.5 0.5 0.5 0 0.5 3 
0.5 -5 0.5 2.5 0.5 3 0.5 -4.5 0.5 1 0.5 3.5 0.5 -3.5 0.5 2 
0.5 -1.5 0.5 2 0.5 0.5 0 -1 0.5 0 0.5 -1.5 0.5 -1.5 0.5 0.5 
0.5 1.5 S
831 583 0.5 0.5 0.5 0.5 0.5 2 0.5 -5.5 0.5 1.5 0.5 2.5 0.5 -3 
0.5 1 0.5 1.5 0.5 -3.5 0.5 1.5 0.5 1.5 0.5 -2.5 0.5 2.5 0.5 -1.5 
0.5 -1.5 0.5 2.5 0.5 -2 0.5 -0.5 0.5 -1 0.5 0.5 0.5 0.5 0.5 3 
0 -1.5 0.5 0 0.5 0.5 0.5 -0.5 0.5 -1 0.5 1 0.5 -2 0.5 1.5 
0.5 0 0.5 1.5 0.5 -5 0.5 4.5 0.5 -2.5 0.5 3 0.5 -3 0.5 -1 
0.5 1.5 0.5 -1.5 0.5 0.5 0.5 -3 0.5 3.5 0.5 -2.5 0.5 2.5 0.5 -1 
0.5 1 0.5 0.5 0.5 1.5 0.5 0.5 0 -2.5 0.5 2.5 0.5 -3 0.5 0.5 
0.5 0.5 0.5 0.5 0.5 1 0.5 -2 0.5 -0.5 0.5 0.5 0.5 1 0.5 -1.5 
0.5 2.5 0.5 -1 0.5 -0.5 0.5 2 0.5 -2 0.5 -1.5 0.5 0 0.5 1.5 
0.5 -1 0.5 0.5 0.5 0.5 0.5 1.5 0.5 0.5 0.5 2.5 0.5 -3 0.5 -1.5 
0.5 1 0 1.5 0.5 -1.5 0.5 2.5 0.5 1 0.5 -132.5 0.5 126 0.5 4 
0.5 2.5 0.5 -5 0.5 7 0.5 -3 0.5 1 0.5 3.5 0.5 -2 0.5 -4 
0.5 4 0.5 -1 0.5 2 0.5 -3 0.5 -1.5 0.5 1 0.5 2.5 0.5 -2 
0.5 -2 S
881.5 582.5 0.5 3 0.5 -1 0.5 1 0.5 2 0.5 -2 0 -3 0.5 2 
0.5 -3 0.5 1 0.5 -2.5 0.5 3 0.5 0.5 1 0 0.5 -2 0.5 10 
0.5 0 0.5 -0.5 0.5 0 0.5 -0.5 0.5 -0.5 0.5 1.5 0.5 -0.5 0.5 -0.5 
0.5 -0.5 0.5 1 0.5 -1.5 0.5 -0.5 0.5 -0.5 0.5 1 0.5 1 0.5 1 
0.5 -1.5 0.5 -0.5 0.5 1.5 1 0 0.5 -2 0.5 -3.5 0.5 3.5 0.5 -1 
0.5 1 0.5 1 0.5 -1.5 0.5 1.5 0.5 1.5 0.5 0 0.5 -1 0.5 1.5 
0.5 -0.5 0.5 -2 0.5 1.5 0.5 -1 0.5 -0.5 0.5 3 0.5 -2.5 0.5 2.5 
0.5 -2.5 0.5 2.5 0.5 0 0.5 -1 0 0.5 0.5 -1 0.5 -1 0.5 2.5 
0.5 1 0.5 -0.5 0.5 1 0.5 -0.5 0.5 1.5 0.5 -2 0.5 1.5 0.5 -1 
0.5 1 0.5 1 0.5 -3.5 0.5 1 0.5 -0.5 0.5 0.5 0.5 0 0.5 -3 
0.5 5.5 0.5 -4.5 0.5 2.5 0.5 -0.5 0.5 2 0.5 -3 0.5 1.5 0.5 1 
0.5 1.5 0 -2 0.5 -0.5 0.5 -0.5 0.5 1 0.5 -0.5 0.5 -1 0.5 1 
0.5 0 0.5 -0.5 0.5 1 0.5 -2 0.5 2 0.5 -0.5 0.5 -1 S
932 592.5 0.5 0.5 0.5 0.5 0.5 -1 0.5 1 0.5 -2 0.5 1 0.5 -1.5 
0.5 1.5 0.5 -3.5 0.5 4 0.5 -1 0.5 -3.5 0.5 4 0.5 -2 0.5 1.5 
0 -0.5 0.5 -0.5 0.5 1.5 0.5 -1.5 0.5 -1 0.5 -5 0.5 1 0.5 -2 
0.5 -6 0.5 9.5 0.5 -1.5 0.5 -0.5 0.5 0 0.5 -1 0.5 2 0.5 3.5 
0.5 0.5 0.5 -0.5 0.5 2 0.5 0.5 0.5 -2.5 0.5 4 0.5 -2 0.5 0 
0.5 0.5 0.5 -1.5 0.5 0.5 0.5 -1 0.5 0 0 1.5 0.5 -2.5 0.5 -5.5 
0.5 0.5 0.5 2 0.5 1.5 0.5 1 0.5 1 0.5 1.5 0.5 -4 0.5 2.5 
0.5 -1.5 0.5 4 0.5 0.5 0.5 -2 0.5 -0.5 0.5 0.5 0.5 2 0.5 -2 
0.5 -8 0.5 2 0.5 1 0.5 4 0.5 0 0.5 0.5 0.5 -2 0.5 2.5 
0.5 0.5 0 0.5 0.5 -0.5 0.5 0.5 0.5 1 0.5 0 0.5 -3 0.5 3 
0.5 -1 0.5 1.5 0.5 -2.5 0.5 2.5 0.5 -0.5 0.5 0 0.5 1 0.5 -0.5 
0.5 0.5 0.5 -1 0.5 1 0.5 -1 0.5 -1.5 0.5 1 0.5 0.5 0.5 0 
0.5 1.5 0.5 -2 0.5 2 0.5 -0.5 0.5 -1 0.5 3 0 -1 0.5 -0.5 
0.5 0.5 S
982 595 0.5 -0.5 0.5 -1.5 0.5 -0.5 0.5 0 0.5 0.5 0.5 -2.5 0.5 0 
0.5 0.5 1 0 0.5 -0.5 0.5 0 0.5 0.5 0.5 -1.5 0.5 0.5 0.5 0 
0.5 3 0.5 -3 0.5 -0.5 0.5 -1.5 0.5 -3 0.5 2 0.5 0.5 0.5 -1.5 
0.5 3.5 0.5 -2.5 0 2.5 0.5 -1 0.5 2 0.5 0.5 0.5 -1 0.5 1 
0.5 1.5 0.5 -1.5 0.5 0 0.5 -0.5 0.5 -0.5 0.5 0.5 0.5 0.5 0.5 0.5 
0.5 -7.5 0.5 6.5 0.5 1 0.5 -1.5 0.5 0.5 0.5 0.5 0.5 -1 0.5 -0.5 
0.5 4 0.5 -3 0.5 2 0.5 -2.5 0.5 1.5 0.5 1 0 -1 0.5 2.5 
0.5 -3.5 0.5 0.5 0.5 1.5 0.5 -3.5 0.5 3.5 0.5 0.5 0.5 -0.5 0.5 0 
0.5 1 0.5 -3 0.5 3 0.5 -1.5 0.5 1 0.5 0 0.5 -1.5 0.5 0.5 
0.5 2 0.5 -0.5 0.5 1 0.5 0.5 0.5 -1.5 0.5 0.5 0.5 -1 0.5 0.5 
0.5 -1 0.5 1 0.5 0 0 -0.5 0.5 1 0.5 -1.5 0.5 2 0.5 -1.5 
0.5 0.5 0.5 -1 0.5 2 0.5 -1 0.5 3 0.5 -2 0.5 1 0.5 0.5 
0.5 -2.5 0.5 -1.5 0.5 1.5 0.5 -1 0.5 1 0.5 2 0.5 -6.5 0.5 1.5 S
1032.5 590.5 0.5 -0.5 0.5 0 0.5 -0.5 0.5 1.5 0.5 -2 0.5 -0.5 0.5 2 
0.5 -1 0 1 0.5 -3 0.5 3 0.5 -3 0.5 2 0.5 -2.5 0.5 4 
0.5 -1.5 0.5 2.5 0.5 -1 0.5 -1.5 0.5 -1 0.5 1 0.5 2 0.5 0.5 
0.5 2.5 0.5 -3.5 0.5 -1 0.5 1 0.5 1.5 0.5 -1 0.5 -0.5 0.5 0.5 
0.5 -1.5 0.5 1 0.5 3 0.5 0 0.5 -0.5 0.5 -3 0 3.5 0.5 -3 
0.5 2.5 0.5 -1 0.5 1.5 0.5 -0.5 0.5 0.5 0.5 0.5 0.5 -0.5 0.5 -3 
0.5 3 0.5 -2 0.5 2 0.5 -1 0.5 0 0.5 -0.5 0.5 0 0.5 2 
0.5 0 0.5 0.5 0.5 -0.5 0.5 0 0.5 1.5 0.5 -1 0.5 0 0.5 -1 
0.5 0 0.5 2.5 0 -1 0.5 1.5 1.5 0 0.5 -1.5 0.5 0 0.5 -4.5 
0.5 5 0.5 -1 0.5 -1.5 0.5 0.5 0.5 1 0.5 0.5 0.5 0 0.5 0.5 
0.5 -1.5 0.5 1.5 0.5 1 0.5 -0.5 0.5 -0.5 0.5 -1 0.5 -1 0.5 0.5 
0.5 -2 0.5 1.5 0.5 -1 0.5 -2 0.5 1 0 0.5 1 0 0.5 1 
0.5 -3 0.5 0.5 0.5 -0.5 0.5 -0.5 0.5 -0.5 0.5 0.5 S
1082.5 590 0.5 -1 0.5 1.5 0.5 -1 0.5 -2 0.5 1 0.5 -0.5 0.5 0.5 
0.5 1 0.5 0 0.5 -0.5 0.5 0 0.5 1.5 0.5 1 0.5 -3 0.5 2.5 
0.5 0.5 0.5 -1 0.5 1 0.5 -1 0 0.5 0.5 -1.5 0.5 2 0.5 -2 
0.5 -0.5 0.5 2.5 0.5 -0.5 0.5 -1 0.5 1 0.5 0 0.5 -1 0.5 -1 
0.5 -2 0.5 3 0.5 0 0.5 -8 0.5 10 0.5 -0.5 0.5 -1.5 1 0 
0.5 1 0.5 0.5 0.5 0 0.5 -0.5 0.5 -1.5 0.5 2 0.5 -1 0.5 2 
0 -0.5 0.5 1 1 0 0.5 1 0.5 1.5 0.5 0.5 0.5 -4 0.5 1 
0.5 1.5 0.5 -0.5 0.5 -32 0.5 29 0.5 1.5 0.5 2 0.5 -0.5 0.5 0 
0.5 -0.5 0.5 3.5 0.5 -2 0.5 -6 0.5 4.5 0.5 1.5 0.5 0.5 0.5 -1.5 
0.5 -2.5 0.5 5 0.5 -1 0 -0.5 0.5 1 0.5 -3 0.5 2 0.5 -1 
0.5 -0.5 0.5 1 1 0 0.5 -3 0.5 0.5 0.5 -1 0.5 1 0.5 -0.5 
0.5 -1.5 0.5 1.5 0.5 0 0.5 -1 0.5 2 0.5 -2 0.5 -1.5 0.5 0.5 
0.5 1 0.5 -1 0.5 0.5 0.5 1 0.5 -1 0.5 0 S
1133 590 0.5 -0.5 0 -4 0.5 3.5 0.5 1 0.5 -2 0.5 2.5 0.5 -1.5 
0.5 -0.5 0.5 1.5 0.5 -3.5 0.5 3 0.5 -6 0.5 3 0.5 2 1 0 
0.5 1 0.5 0 0.5 -1 0.5 2 1 0 0.5 0.5 0.5 -2.5 0.5 0.5 
0.5 -5 0.5 2 0.5 -3 0.5 4.5 0.5 -5 0 2.5 0.5 2 0.5 -1.5 
0.5 5 0.5 0.5 0.5 0 0.5 0.5 0.5 0 0.5 3.5 0.5 -4 0.5 0.5 
0.5 0.5 0.5 1.5 0.5 -1 0.5 -0.5 0.5 4 0.5 -3.5 0.5 -1 0.5 1.5 
0.5 0.5 0.5 2.5 0.5 -3 0.5 2 0.5 -9.5 0.5 -12 0.5 -1.5 0.5 -1 
0.5 0.5 0 -1 0.5 7.5 0.5 15 0.5 -1.5 0.5 3.5 0.5 -1.5 0.5 -3.5 
0.5 3 0.5 0 0.5 0.5 0.5 -1 0.5 0.5 0.5 0.5 0.5 -0.5 0.5 -0.5 
0.5 0.5 0.5 -1 0.5 -1 0.5 1.5 0.5 2.5 0.5 -2 0.5 1.5 0.5 -5 
0.5 3 0.5 -1.5 0.5 1.5 0.5 0 0.5 -0.5 0.5 -1.5 0 1.5 0.5 -2 
0.5 -21 0.5 0 0.5 21 0.5 -2 0.5 0 0.5 1 0.5 3 0.5 -6.5 
0.5 -17 0.5 1 0.5 0 0.5 -1.5 0.5 0 0.5 -3 0.5 3.5 S
1183 568.5 0.5 -1 0.5 3 0.5 -1.5 0.5 -1 0.5 1 0.5 -3 0.5 1 
0.5 2 0.5 0.5 0.5 -3 0.5 1 0.5 2.5 0 19.5 0.5 -1.5 0.5 -0.5 
0.5 1 0.5 -2 0.5 -5 0.5 8.5 0.5 -1 0.5 -0.5 0.5 -0.5 0.5 3 
0.5 -3 0.5 1 0.5 -1 0.5 -2.5 0.5 2.5 0.5 2 0.5 -0.5 0.5 -1.5 
0.5 -49 0.5 48.5 0.5 -1 0.5 3 0.5 0 0.5 -0.5 0.5 1.5 1 0 
0.5 -1 0 1 0.5 -2.5 0.5 4 0.5 0 0.5 -1.5 0.5 0 0.5 2 
0.5 -1.5 0.5 2.5 0.5 -1.5 0.5 -0.5 0.5 -2.5 0.5 3.5 0.5 -1 0.5 1.5 
0.5 -1 0.5 0 0.5 0.5 0.5 -1 0.5 -6.5 0.5 -1.5 0.5 -1.5 0.5 2 
0.5 -9.5 0.5 -2 0.5 0.5 0.5 -1 0.5 -3.5 0 1.5 0.5 2.5 0.5 0.5 
0.5 -3 0.5 1.5 0.5 -3 0.5 2 0.5 -2.5 0.5 2 0.5 -3.5 0.5 5 
0.5 -1.5 0.5 -2 0.5 -3 0.5 15 0.5 1 0.5 0 0.5 -2.5 0.5 -0.5 
0.5 3.5 0.5 0.5 0.5 -3 0.5 2 0.5 -1 0.5 1 0.5 -1.5 0.5 -1 
0.5 3 0.5 -5.5 0 4 0.5 -24.5 0.5 26.5 0.5 -3 0.5 -1 0.5 -40 S
1233 538 0.5 37 0.5 4 0.5 0.5 0.5 -1.5 0.5 1.5 0.5 -0.5 0.5 0 
0.5 2 0.5 -2 0.5 1 0.5 1 0.5 -1 0.5 0 0.5 -5 0.5 4.5 
0.5 2 0.5 0.5 0.5 -2 0.5 2 0.5 -1.5 0.5 1.5 0.5 0.5 0.5 0 
0 -1.5 0.5 0.5 0.5 1.5 0.5 -3.5 0.5 1.5 0.5 -1 0.5 -1 0.5 2 
0.5 -1.5 0.5 4 0.5 -1.5 1 0 0.5 0.5 0.5 1 0.5 -1.5 0.5 2 
0.5 -1.5 0.5 -3 0.5 5.5 0.5 -4 0.5 0 0.5 -1 0.5 1.5 0.5 0 
0.5 2.5 0.5 -4 0.5 4 0 -3.5 0.5 -37 0.5 39 0.5 1 0.5 -1 
0.5 0 0.5 0.5 0.5 -0.5 0.5 1 0.5 -3.5 0.5 -460 0.5 460 0.5 1.5 
0.5 2.5 0.5 -0.5 0.5 -3.5 0.5 -2 0.5 4 0.5 -2 0.5 4 0.5 -1.5 
0.5 -1 0.5 3.5 0.5 -3 0.5 0 0.5 -1.5 0.5 -184 0.5 136.5 0.5 46.5 
0 -3.5 0.5 2.5 0.5 -1 0.5 1.5 0.5 0 0.5 0.5 0.5 -1 0.5 -0.5 
0.5 1.5 0.5 0 0.5 1 0.5 0.5 0.5 0.5 0.5 -2.5 0.5 1.5 0.5 -2 
0.5 -0.5 0.5 -0.5 0.5 1.5 0.5 -0.5 0.5 1.5 0.5 -2.5 0.5 1.5 0.5 3 S
1283.5 582 0.5 -3.5 0.5 4 0.5 -2.5 0.5 0.5 0.5 0 0 2 0.5 -5 
0.5 4 0.5 -1 0.5 0.5 0.5 2 0.5 -4.5 0.5 0 0.5 1.5 1 0 
0.5 -1.5 0.5 -2 0.5 3.5 0.5 0 0.5 1.5 0.5 -2 0.5 2.5 0.5 -2.5 
0.5 2 0.5 -3 0.5 1 0.5 -1 0.5 -2.5 0.5 5.5 0.5 0 0.5 -2.5 
0.5 2.5 0.5 0 0 -1.5 0.5 -1 0.5 2 0.5 1 0.5 -0.5 0.5 1 
0.5 -1 0.5 -5.5 0.5 5.5 0.5 1.5 0.5 -1 0.5 -0.5 0.5 1 0.5 -1.5 
0.5 0 0.5 -0.5 0.5 -0.5 0.5 -1 0.5 4 0.5 1 0.5 -2.5 0.5 1 
0.5 1 0.5 -1 0.5 1.5 0.5 -2 1 0 0 -1 0.5 -0.5 0.5 3 
0.5 -1.5 0.5 -0.5 0.5 -2 0.5 1 0.5 -1 0.5 0 0.5 1 0.5 0.5 
0.5 -0.5 0.5 -0.5 0.5 -1 0.5 0.5 0.5 -2 0.5 1.5 0.5 -1.5 0.5 1.5 
1 0 0.5 -1.5 0.5 0.5 0.5 0.5 0.5 -1 0.5 0 0.5 2.5 0.5 -2.5 
0.5 -0.5 0 1.5 1 0 0.5 1.5 0.5 -3 0.5 2 0.5 0 0.5 2.5 
0.5 0 0.5 -1.5 0.5 0.5 0.5 -0.5 0.5 1 S
1333.5 581 0.5 -1.5 0.5 1.5 0.5 -1 0.5 0 0.5 1 0.5 2 0.5 0 
0.5 -0.5 0.5 0 0.5 -1 0.5 1 0.5 0 0.5 -0.5 0.5 -0.5 0.5 3.5 
0.5 -4.5 0 2.5 0.5 -2.5 0.5 2 0.5 -2.5 0.5 2.5 0.5 -1.5 0.5 4 
0.5 -6.5 0.5 -85 0.5 78 0.5 -52.5 0.5 -8.5 0.5 71.5 0.5 -1 0.5 4 
0.5 -2.5 0.5 2 0.5 -3.5 0.5 4 0.5 0 0.5 1.5 0.5 -2 0.5 3 
0.5 -3.5 0.5 -2 0.5 3 0.5 0 0.5 -1 0.5 1 0 -1 0.5 2 
0.5 0.5 0.5 -1.5 0.5 0.5 0.5 -0.5 0.5 -0.5 0.5 1.5 0.5 0 0.5 1.5 
0.5 -3 0.5 3 0.5 -3 0.5 1.5 0.5 -0.5 0.5 -1.5 0.5 3 0.5 -4.5 
0.5 2 0.5 -2 0.5 -0.5 0.5 -387.5 0.5 130 0.5 -204.5 0.5 423.5 0.5 39 
0.5 -0.5 0.5 -0.5 0 -3 0.5 0.5 0.5 -1.5 0.5 4 0.5 -0.5 0.5 0.5 
0.5 0 0.5 -0.5 0.5 -2.5 0.5 2.5 0.5 0 0.5 -3 0.5 2.5 0.5 1 
0.5 2.5 0.5 -2 0.5 -4 0.5 4.5 0.5 0 0.5 0.5 0.5 -1 0.5 0.5 
0.5 -2 0.5 3.5 0.5 -2.5 0.5 1.5 0.5 1.5 0.5 -147 0.5 139 0 -0.5 
0.5 1 S
1383.5 577 0.5 1.5 0.5 -1 0.5 1 0.5 -1 0.5 0.5 0.5 1 0.5 1 
0.5 -1 0.5 4 0.5 -3.5 0.5 1 0.5 2.5 0.5 0.5 0.5 -2 0.5 -1.5 
0.5 5.5 0.5 -1.5 0.5 0 0.5 -0.5 0.5 1 0.5 2.5 0.5 1 0.5 -3 
0.5 5.5 0.5 -6 0.5 4 0.5 -2 0 -2 0.5 -0.5 0.5 1 0.5 3 
0.5 -2.5 0.5 3 0.5 5.5 0.5 1.5 0.5 -1 0.5 0 0.5 -1.5 0.5 1.5 
0.5 0 0.5 1.5 0.5 -2.5 0.5 1.5 0.5 1 0.5 1 0.5 -3.5 0.5 2.5 
0.5 -2 0.5 1 0.5 -1.5 0.5 1.5 0.5 1 0.5 -3 0.5 0.5 0.5 0 
0 -1.5 0.5 1.5 0.5 -2 0.5 0.5 0.5 0 0.5 -1.5 0.5 2.5 0.5 -1 
0.5 0 0.5 3 0.5 -1 0.5 -1 0.5 -0.5 0.5 2 0.5 -3.5 0.5 0 
0.5 -1.5 0.5 2.5 0.5 1.5 0.5 -1.5 0.5 1.5 0.5 -1.5 0.5 -0.5 0.5 -1 
0.5 -2 0.5 1 0.5 -0.5 0.5 0 0.5 2 0 -1.5 0.5 0 0.5 1.5 
0.5 0.5 0.5 1 0.5 -0.5 0.5 0 0.5 -0.5 0.5 1.5 0.5 -1 0.5 -3 
0.5 2.5 0.5 0.5 0.5 -1.5 0.5 1.5 0.5 1 0.5 0.5 0.5 -1.5 0.5 -1 
0.5 1 S
1434 592 0.5 -2 0.5 0.5 0.5 -0.5 0.5 1.5 0.5 -0.5 0.5 2.5 0.5 -1.5 
0.5 -1.5 0.5 3.5 0 -1.5 0.5 -1.5 0.5 -3.5 0.5 5 0.5 1.5 0.5 -3.5 
0.5 0 0.5 3 0.5 0 0.5 1.5 0.5 -2 0.5 0 0.5 2 0.5 0 
0.5 -1.5 0.5 1.5 0.5 -0.5 0.5 -1 0.5 1 0.5 1 0.5 -0.5 0.5 0 
0.5 -0.5 0.5 1.5 0.5 0 0.5 -2 0.5 1.5 0.5 -2.5 0.5 0 0 1.5 
0.5 -1 0.5 1 0.5 0.5 0.5 -2.5 0.5 1 0.5 -2 0.5 1 0.5 0 
0.5 -1 0.5 -2 0.5 3.5 0.5 -1.5 0.5 2.5 0.5 -4 0.5 2.5 0.5 -2.5 
0.5 3 0.5 -0.5 0.5 1 0.5 -2.5 0.5 2.5 0.5 -1 0.5 0 0.5 -4 
0.5 3 0.5 0.5 0.5 0.5 0 -1.5 0.5 0 0.5 1 0.5 -1.5 0.5 -1 
0.5 -0.5 0.5 2.5 0.5 0.5 0.5 -2 0.5 0.5 0.5 2 0.5 -3 0.5 -0.5 
0.5 1 0.5 2 0.5 -1 0.5 0 0.5 1.5 0.5 -2.5 0.5 2 0.5 1 
0.5 -3 0.5 0 0.5 1 0.5 1 1 0 0.5 -3 0.5 2 0 2 
0.5 -0.5 0.5 -1 0.5 1 0.5 -1 0.5 -2.5 0.5 -1.5 0.5 2 0.5 -1.5 S
1484 588 0.5 3 0.5 -1 0.5 2.5 0.5 0 0.5 -0.5 0.5 -1 0.5 0 
0.5 1.5 0.5 -0.5 0.5 3.5 0.5 -3.5 0.5 -0.5 0.5 1 0.5 -1 0.5 3 
0.5 -1 0.5 -1.5 0.5 2.5 0.5 -3.5 0.5 0.5 0 1.5 0.5 0.5 0.5 1.5 
0.5 -1 0.5 -2.5 0.5 3.5 0.5 -1 0.5 0.5 0.5 -2 0.5 0 0.5 -1 
0.5 0.5 0.5 0 0.5 2 0.5 -1 0.5 -1.5 0.5 2 0.5 1 0.5 -0.5 
0.5 -3.5 0.5 1.5 0.5 -2 0.5 0 0.5 -0.5 0.5 -0.5 0.5 2 0.5 -1 
0.5 -33 0.5 33 0 1 0.5 -2 0.5 1 1 0 0.5 -0.5 0.5 -66 
0.5 67 0.5 0.5 0.5 0 0.5 -1 0.5 2.5 0.5 -3 0.5 0.5 0.5 -2.5 
0.5 5 0.5 -1.5 0.5 0.5 0.5 1.5 0.5 -189 0.5 188 0.5 -5 0.5 4 
0.5 -1.5 0.5 2.5 0.5 -1 0.5 -0.5 0.5 -0.5 0 0.5 0.5 -1.5 0.5 -41 
0.5 41.5 0.5 1.5 1.5 0 0.5 -1 0.5 -0.5 0.5 0.5 0.5 -0.5 0.5 1 
0.5 -1.5 0.5 1.5 0.5 0.5 0.5 -0.5 0.5 0.5 0.5 -1 0.5 -1.5 0.5 2.5 
0.5 -4 0.5 2.5 0.5 -463.5 0.5 -6 0.5 0 0.5 236.5 S
1534.5 356.5 0.5 226 0.5 -328.5 0 -133.5 0.5 -0.5 0.5 469.5 0.5 2.5 0.5 1.5 
0.5 -2 0.5 -1 0.5 -1.5 0.5 2 0.5 1 0.5 0.5 0.5 -1 0.5 1 
0.5 1.5 0.5 -1.5 1 0 0.5 -0.5 0.5 -2 0.5 1.5 0.5 0 0.5 2 
0.5 -2.5 0.5 0 0.5 -1.5 0.5 -0.5 0.5 1 0.5 -2 0.5 1 0 0.5 
0.5 -0.5 0.5 -2 1.5 0 0.5 2.5 0.5 -0.5 0.5 -0.5 0.5 1.5 0.5 -3.5 
0.5 2.5 0.5 0 0.5 0.5 0.5 2 0.5 -2.5 0.5 3 0.5 -4 0.5 -1 
0.5 2.5 0.5 2.5 0.5 -3.5 0.5 1 0.5 -2 0.5 -5 0.5 1.5 0.5 -2.5 
0.5 4.5 0 -2 0.5 7 0.5 -3 0.5 1 0.5 -1.5 1 0 0.5 1.5 
0.5 0.5 0.5 -1.5 0.5 1.5 0.5 -4 0.5 4.5 0.5 -5 0.5 2 0.5 0.5 
0.5 -3 0.5 0.5 0.5 0.5 0.5 3 0.5 -0.5 0.5 -3 0.5 2.5 0.5 -0.5 
0.5 -1 0.5 0 0.5 1 0.5 0 0.5 -0.5 0 1.5 0.5 -0.5 0.5 2.5 
0.5 -4.5 0.5 3 0.5 -0.5 0.5 -1.5 0.5 0 0.5 -1 0.5 2.5 0.5 0.5 
0.5 -1.5 0.5 1 0.5 -2 0.5 1.5 0.5 0 S
1584.5 587.5 0.5 3 0.5 -1 0.5 -2.5 0.5 1.5 0.5 -1.5 0.5 0 0.5 1 
0.5 -1 0.5 1 0.5 2 0.5 0.5 0.5 -1.5 0.5 1 0 -2.5 0.5 1.5 
0.5 -1.5 0.5 -0.5 0.5 -1.5 0.5 0 0.5 3.5 0.5 -2 0.5 3 0.5 -1.5 
0.5 1 0.5 -2 0.5 -0.5 0.5 -1 0.5 -1 0.5 -3.5 0.5 4.5 0.5 -0.5 
0.5 5 0.5 -2 0.5 -2 0.5 0.5 0.5 0 0.5 1.5 0.5 0.5 0.5 -2 
0.5 1 0.5 -1 0.5 0 0 -1.5 0.5 -0.5 0.5 3 0.5 1 0.5 -2 
0.5 -1 0.5 3 0.5 -2 0.5 1.5 0.5 -4 0.5 2.5 0.5 0 0.5 -0.5 
0.5 1.5 0.5 0 0.5 -1 0.5 -0.5 0.5 -1.5 0.5 3 0.5 -0.5 0.5 0 
0.5 -1.5 1.5 0 0.5 1 0.5 1 0.5 -1.5 0 -1.5 0.5 2.5 0.5 -0.5 
0.5 1.5 0.5 0 0.5 -2.5 0.5 1 0.5 1 0.5 -2 0.5 3 0.5 0 
0.5 -2.5 0.5 -0.5 0.5 1 0.5 0 0.5 -0.5 0.5 1.5 0.5 -0.5 0.5 -0.5 
0.5 2.5 0.5 -4 0.5 2 0.5 1 0.5 -2 0.5 2 0.5 0 0.5 0.5 
0.5 0 0.5 2 0 -2.5 0.5 -0.5 0.5 3.5 0.5 -3.5 0.5 2 S
1634.5 590 0.5 0.5 0.5 2 0.5 -2.5 0.5 -0.5 0.5 -1 0.5 2.5 0.5 -0.5 
0.5 -0.5 0.5 -0.5 0.5 2 0.5 -4 0.5 1.5 0.5 1.5 0.5 -0.5 0.5 -0.5 
0.5 0.5 0.5 -1.5 1 0 0.5 -2 0.5 2 0.5 -468.5 2 0 0.5 2.5 
0.5 463 0.5 1 0.5 -1 0.5 1 0.5 -1 0.5 -0.5 0.5 1 0.5 -1.5 
0.5 0.5 0.5 0 0.5 1.5 0.5 -1 0.5 -2 0.5 1 0.5 -0.5 0.5 4 
0.5 -2 0.5 1 0.5 -2.5 0.5 1.5 0.5 -0.5 0.5 0 0.5 0.5 0.5 -0.5 
0.5 1.5 0.5 1.5 0.5 -58 0.5 56.5 0.5 0.5 0.5 -1 0.5 -1.5 0.5 1.5 
0.5 1.5 0.5 -1 0.5 -1 0.5 -0.5 0.5 2.5 0.5 0.5 0.5 -2 0.5 1.5 
0.5 -2 0.5 2.5 0.5 -1.5 0.5 2 0.5 -1 0.5 -4.5 0.5 2 0.5 -0.5 
0.5 0 0.5 2 0.5 0 0.5 -3 0 3 0.5 -0.5 0.5 -3 0.5 0.5 
0.5 1.5 0.5 3.5 0.5 -1 0.5 -3 0.5 3 0.5 -3.5 0.5 3 0.5 -1.5 
0.5 2 0.5 -1.5 0.5 3 0.5 -3.5 0.5 1.5 0.5 -1 0.5 0 0.5 -0.5 
0.5 0.5 0.5 0.5 0.5 2.5 0.5 -1.5 0.5 0 S
1686 588 0.5 -1 0.5 2.5 0.5 1 0.5 -1.5 0 -4.5 0.5 -139 0.5 144 
0.5 -3 0.5 -0.5 0.5 0 0.5 1 1 0 0.5 1.5 0.5 -0.5 0.5 -0.5 
0.5 -0.5 0.5 0 0.5 -2 0.5 3 0.5 -2.5 0.5 1.5 1 0 0.5 2.5 
0.5 -1 0.5 -0.5 0.5 -1.5 0.5 -1 0.5 2.5 0.5 -1.5 0.5 -1.5 0.5 0 
0 2 0.5 0 0.5 2 0.5 -4 0.5 2.5 0.5 0.5 0.5 5 0.5 0 
0.5 -2 0.5 0 0.5 1 0.5 -1.5 0.5 -1.5 0.5 -3 0.5 4 0.5 -4 
0.5 3.5 0.5 -2.5 0.5 -3.5 0.5 4 0.5 -0.5 0.5 -2 0.5 1.5 0.5 -0.5 
0.5 2 0.5 -0.5 0.5 1 0.5 -2 0 -0.5 0.5 2 0.5 -2.5 0.5 1.5 
0.5 0 0.5 -0.5 0.5 0.5 0.5 4 0.5 1 0.5 -0.5 0.5 -0.5 1 0 
0.5 -2 0.5 3 0.5 -1.5 0.5 0.5 0.5 2.5 0.5 -1.5 0.5 0 0.5 2 
0.5 -3 0.5 -1 0.5 3 0.5 0 0.5 -1.5 1 0 0.5 2 0 -2 
0.5 2 0.5 -2.5 0.5 2.5 0.5 1.5 0.5 -2 0.5 -4 0.5 2.5 0.5 1 
0.5 0 0.5 -1.5 0.5 -1.5 0.5 -1 0.5 2.5 S
1736 591 0.5 -1 0.5 -2.5 0.5 1 0.5 0 0.5 -2 0.5 4 0.5 -4.5 
0.5 1 0.5 -1 0.5 0.5 0.5 1 0.5 -0.5 0.5 2.5 0.5 0 0.5 -4 
0 3 0.5 2.5 0.5 -7 0.5 3.5 0.5 0.5 0.5 -3.5 0.5 2.5 0.5 1 
0.5 -1 0.5 0 0.5 1 0.5 2.5 0.5 -2 0.5 0 0.5 -0.5 0.5 1 
0.5 1 0.5 -2 0.5 -7 0.5 6 0.5 -6 0.5 10 0.5 0.5 0.5 -3 
0.5 -2 0.5 2.5 0.5 0 0.5 0.5 0.5 -0.5 0 2 0.5 -1 0.5 -1 
0.5 -1 0.5 0.5 1 0 0.5 -1.5 0.5 -1.5 0.5 2 0.5 1.5 0.5 -1 
0.5 -1.5 0.5 3 0.5 -0.5 0.5 -0.5 0.5 0 0.5 0.5 0.5 -2 0.5 0 
0.5 -0.5 0.5 2 0.5 -2.5 0.5 2.5 0.5 1.5 0.5 0.5 0.5 -1.5 0.5 -0.5 
0 1 0.5 0 0.5 -0.5 0.5 2.5 0.5 -2.5 0.5 2 0.5 -2 0.5 2.5 
0.5 0.5 0.5 0 0.5 -3.5 0.5 0 0.5 4 0.5 -1 0.5 -2.5 0.5 3 
0.5 -0.5 0.5 1 0.5 0 0.5 -1 0.5 0 0.5 1 0.5 -3 0.5 -0.5 
0.5 -2.5 0.5 0 0.5 -1 0.5 0.5 0.5 2 0.5 -1.5 0.5 -0.5 0.5 0 S
1786.5 586 0.5 2.5 0.5 -1 0.5 1 0.5 1 0.5 -1.5 0.5 0.5 0.5 -2.5 
0.5 2 0.5 -0.5 0.5 -2 0.5 3 0.5 -1.5 0.5 0.5 0.5 -2 0.5 1.5 
0.5 -1 0.5 2 0.5 -1 0.5 1 0.5 -2.5 0.5 -1.5 0.5 0.5 0.5 2 
0.5 -2.5 0.5 2.5 0 -3 0.5 -1.5 0.5 3 0.5 3 0.5 -1 0.5 -34.5 
0.5 36 0.5 -0.5 0.5 1.5 0.5 -3 0.5 1 0.5 -2 0.5 3 0.5 -1.5 
0.5 2 0.5 -0.5 0.5 0 0.5 -1 0.5 0 0.5 2 0.5 -4.5 0.5 2 
0.5 3 0.5 -1 0.5 -2 0.5 1 0.5 1.5 0.5 0 0 1.5 0.5 -3 
0.5 2 0.5 -1 0.5 1 0.5 -1 0.5 -0.5 0.5 0.5 0.5 0.5 0.5 -1 
0.5 0.5 0.5 0.5 0.5 2 0.5 -1 0.5 0.5 0.5 -0.5 0.5 0 0.5 -1.5 
0.5 2 0.5 -1.5 0.5 1 0.5 0.5 0.5 0 0.5 0.5 0.5 -0.5 0.5 -1 
0.5 -1.5 0.5 2 0.5 3.5 0 -3 0.5 1 0.5 -2 0.5 2.5 0.5 -3 
0.5 -0.5 0.5 0 0.5 2 0.5 -4 0.5 3 0.5 -1.5 0.5 -1.5 0.5 1 
0.5 0.5 0.5 0 0.5 -2.5 0.5 0.5 0.5 0.5 0.5 0.5 0.5 1.5 0.5 -2.5 
0.5 -0.5 S
1837 586 0.5 1 0.5 3 0.5 -3.5 0.5 1.5 0.5 -0.5 0.5 2 0.5 -1.5 
0 1.5 0.5 -2 0.5 2.5 0.5 -3 0.5 3 0.5 -2 0.5 1 0.5 -2.5 
0.5 -1.5 0.5 3 0.5 0.5 0.5 0.5 0.5 -0.5 0.5 -0.5 0.5 -0.5 0.5 -1 
0.5 2.5 0.5 0 0.5 0.5 0.5 2 0.5 0 0.5 -1.5 0.5 -3.5 0.5 1.5 
0.5 1 0.5 -1 0.5 1.5 0.5 -1.5 0.5 0.5 0.5 0.5 0.5 -0.5 0.5 0.5 
0.5 -3 0.5 2 0.5 0 0.5 2.5 0.5 -2 0.5 1 0.5 0 0.5 -1 
0.5 0 0.5 -0.5 0.5 1.5 0.5 -2.5 0.5 1 0.5 2 0.5 -1 0.5 0.5 
0.5 1.5 0.5 0.5 0.5 -2 0.5 -0.5 0.5 3 0.5 -2 0.5 1 0.5 0.5 
0 -1 0.5 1 0.5 -2.5 0.5 0.5 0.5 3.5 0.5 -1 0.5 -1.5 0.5 -0.5 
0.5 2 0.5 -2 0.5 3.5 0.5 -2 0.5 -2 0.5 2.5 0.5 -1.5 0.5 1 
0.5 0 0.5 0.5 0.5 -5.5 0.5 2 0.5 1.5 0.5 -3 0.5 2 0.5 -1 
0.5 -1 0.5 1 0.5 1 0.5 -2.5 0.5 -0.5 0 2 0.5 -2 0.5 1.5 
0.5 1 1 0 0.5 0.5 0.5 -1 0.5 -0.5 0.5 -9 0.5 8.5 0.5 1.5 S
1887.5 588.5 0.5 1 0.5 -1.5 0.5 2 0.5 -1 0.5 -1 0.5 -2 0.5 2 
0.5 2 0.5 -1.5 0.5 -0.5 0.5 1 0.5 0.5 0.5 -1 0.5 0 0.5 1 
0.5 -0.5 0.5 0 0 1 0.5 -1.5 0.5 -0.5 0.5 -1 0.5 0.5 0.5 -1 
0.5 1.5 0.5 0.5 0.5 -1 0.5 0 0.5 3.5 0.5 -4.5 0.5 0 0.5 3 
0.5 -1.5 0.5 -1.5 0.5 0.5 0.5 -0.5 0.5 1 0.5 -1 0.5 1.5 0.5 -1.5 
0.5 1 0.5 2.5 0.5 -1.5 0.5 -1 0.5 0 0.5 2 0.5 -0.5 0.5 0 
0.5 1 0.5 0.5 0.5 -1 0.5 1 0.5 -0.5 0.5 -1 1 0 0.5 2 
0.5 -0.5 0.5 -1.5 0.5 2.5 0.5 -2 0.5 -1.5 0.5 1 0.5 0.5 0.5 1.5 
0.5 -1.5 0.5 -0.5 0.5 1 0.5 0 0.5 1 0.5 1 0.5 -3.5 0.5 1.5 
0.5 1 0 -1.5 0.5 1.5 0.5 -2 0.5 -0.5 0.5 0.5 0.5 0.5 0.5 -1.5 
0.5 1 0.5 -2 0.5 0.5 0.5 3 0.5 -3.5 0.5 -0.5 0.5 0 0.5 2 
0.5 0 0.5 -1 0.5 -1 0.5 0.5 0.5 1.5 0.5 -0.5 0.5 -2 0.5 0 
0.5 -1 0.5 2.5 0.5 -5 0.5 7.5 0.5 -3 0.5 0 0 -1 0.5 -0.5 S
1938 585.5 0.5 0 0.5 1 0.5 2.5 0.5 -3.5 0.5 0 0.5 -11.5 0.5 12 
0.5 -2 0.5 3.5 0.5 -1.5 0.5 -0.5 0.5 -4.5 0.5 6 0.5 -14 0.5 11 
0.5 -1.5 0.5 3.5 0.5 -2 0.5 -11 0.5 10.5 0.5 2 0.5 -8.5 0.5 9.5 
0.5 -2 0.5 2.5 0.5 0.5 0.5 0 0 -3.5 0.5 1 0.5 -0.5 0.5 2 
0.5 1.5 0.5 -2 0.5 1.5 0.5 -0.5 0.5 -0.5 0.5 2 0.5 -2 0.5 0.5 
0.5 -0.5 0.5 3 0.5 0 0.5 -1 0.5 -1 0.5 1.5 0.5 1 0.5 -2 
0.5 0 0.5 3 0.5 -2 0.5 1.5 0.5 0.5 0.5 0 0.5 -2 0.5 0 
0 0.5 0.5 1.5 0.5 -1.5 0.5 -1.5 0.5 2.5 0.5 0 0.5 -0.5 0.5 -0.5 
0.5 -0.5 0.5 0.5 0.5 2 0.5 -2 0.5 -0.5 0.5 -1.5 0.5 0 0.5 1.5 
0.5 0 0.5 0.5 0.5 -0.5 0.5 0 0.5 -3 0.5 0.5 0.5 2 0.5 0 
0.5 -2 0.5 1.5 0.5 0.5 0.5 0.5 0.5 -2.5 0 1.5 0.5 2 0.5 -1 
0.5 0.5 0.5 -1.5 0.5 1.5 0.5 -2 0.5 -0.5 0.5 1.5 0.5 -0.5 0.5 0 
0.5 -1.5 0.5 1 0.5 0 0.5 -0.5 0.5 1.5 0.5 -4.5 0.5 5 0.5 -11.5 
0.5 11 S
1988.5 588.5 0.5 -1.5 0.5 0.5 0.5 1 0.5 0 0.5 -1 0.5 1 0.5 0.5 
0.5 -2 0.5 0.5 0 1.5 0.5 -2 0.5 -0.5 0.5 2 0.5 -1 0.5 1 
0.5 -2.5 0.5 2 0.5 -1 0.5 1 0.5 0.5 0.5 -1 0.5 1 0.5 -0.5 
0.5 -1.5 0.5 2 0.5 -1 0.5 -0.5 0.5 1.5 0.5 0 0.5 1 0.5 0.5 
0.5 -2.5 0.5 2 1.5 0 0.5 0.5 0.5 -1.5 0 3.5 0.5 -4.5 0.5 3 
0.5 0.5 0.5 1.5 0.5 -1 0.5 2 0.5 -3 0.5 1.5 0.5 -0.5 0.5 0.5 
0.5 0 0.5 3 0.5 1.5 0.5 -3 0.5 -0.5 0.5 -2.5 0.5 1.5 0.5 -1 
0.5 0.5 0.5 2.5 0.5 -1 0.5 -0.5 0.5 -1 0.5 5.5 0.5 -3 0.5 1 
0.5 -1.5 0 3 0.5 -4.5 0.5 1 0.5 -2 0.5 0 0.5 1 0.5 -2 
0.5 1.5 0.5 -1 0.5 1 0.5 -0.5 0.5 -0.5 0.5 0 0.5 -2 0.5 1.5 
0.5 0 0.5 0.5 0.5 1 0.5 -1 0.5 0 0.5 1 0.5 -2.5 0.5 2 
0.5 -2.5 0.5 2 0.5 -1 0.5 0 0.5 1.5 0.5 1.5 0 -1 0.5 -0.5 
0.5 -0.5 0.5 2.5 0.5 -2.5 0.5 0.5 0.5 -1 0.5 -0.5 0.5 1 S
2038.5 590.5 0.5 0.5 0.5 -1 0.5 -1.5 0.5 2.5 0.5 0.5 0.5 2 0.5 -2.5 
0.5 0 0.5 -2.5 0.5 1 0.5 2 0.5 -1.5 0.5 2 0.5 -1.5 0.5 -0.5 
0.5 -0.5 0.5 0.5 0.5 0.5 0.5 0.5 0.5 0 0 0.5 0.5 -0.5 0.5 1.5 
0.5 -2 0.5 1.5 0.5 2.5 0.5 0 0.5 -2 0.5 0.5 0.5 0 0.5 0.5 
0.5 -1 0.5 -2 0.5 0 0.5 -0.5 0.5 3 0.5 -1.5 0.5 1.5 0.5 0 
0.5 -1 0.5 -2 0.5 1.5 0.5 0.5 0.5 0 0.5 1 0.5 1 0.5 -1.5 
0.5 1.5 0 -2 0.5 1 0.5 0.5 0.5 0.5 0.5 0.5 0.5 -0.5 0.5 1 
0.5 -1.5 1 0 0.5 0.5 0.5 0.5 0.5 -3.5 0.5 -1.5 0.5 1 0.5 1.5 
0.5 -0.5 0.5 -0.5 0.5 -1 0.5 1.5 0.5 -1 0.5 -0.5 0.5 0 0.5 -3 
0.5 4.5 0.5 -3 0.5 2.5 0.5 -1.5 0.5 -2 0 2.5 0.5 0.5 0.5 2.5 
0.5 -2 0.5 -2.5 0.5 2 0.5 -1.5 0.5 0 0.5 3 0.5 -2 0.5 0.5 
0.5 -2.5 0.5 1 0.5 2.5 0.5 2 0.5 -1 0.5 0.5 0.5 0 0.5 -2.5 
0.5 2 0.5 -1.5 0.5 -1.5 0.5 1.5 0.5 -2 0.5 1.5 1 0 S
2089 590.5 0.5 1 0.5 0.5 0 -2.5 0.5 1.5 0.5 0 0.5 0.5 0.5 -2.5 
0.5 2 0.5 -0.5 0.5 2.5 0.5 -3 0.5 0 0.5 -0.5 0.5 2.5 0.5 0 
0.5 -0.5 0.5 -0.5 0.5 2 0.5 -1 0.5 0 0.5 1 0.5 -0.5 0.5 0.5 
0.5 0.5 0.5 1 0.5 0 0.5 -1 0.5 0.5 0.5 -2.5 0.5 2.5 0.5 1 
0 -1.5 0.5 1 0.5 -0.5 0.5 -1.5 0.5 2.5 0.5 -2.5 0.5 1.5 0.5 0 
0.5 -1 0.5 1.5 0.5 -1 0.5 -0.5 0.5 -0.5 0.5 0.5 0.5 1 0.5 1.5 
0.5 -1.5 0.5 1 0.5 -2 0.5 -2 0.5 -1 0.5 -2 0.5 -0.5 0.5 4 
0.5 -0.5 0.5 0.5 0.5 1 0.5 -2 0 0.5 0.5 -1 0.5 0.5 0.5 -0.5 
0.5 0 0.5 -1.5 0.5 1 0.5 1.5 0.5 -0.5 0.5 0.5 0.5 0.5 0.5 -0.5 
0.5 -0.5 0.5 -0.5 0.5 1 0.5 -0.5 0.5 0 0.5 -1 0.5 -1 0.5 0.5 
1 0 0.5 1.5 0.5 0 0.5 -1 0.5 0.5 0.5 0.5 0.5 0.5 0.5 1 
0 -1 0.5 1 0.5 -0.5 0.5 -0.5 0.5 0 0.5 2.5 0.5 -0.5 0.5 -1 
0.5 -1 0.5 -1 0.5 2.5 0.5 -0.5 0.5 -1.5 0.5 -2 0.5 1.5 0.5 2 S
2139 592 1 0 0.5 1 0.5 -0.5 0.5 -1 0.5 2 0.5 -2.5 0.5 2 
0.5 0.5 0.5 1.5 0.5 -1.5 0.5 1 0.5 -5.5 0 -3 0.5 7 0.5 1.5 
0.5 -6 0.5 -1.5 0.5 8 0.5 -2 0.5 0 0.5 2 0.5 -1.5 0.5 -0.5 
0.5 -21.5 0.5 1.5 0.5 -0.5 0.5 21.5 0.5 0.5 0.5 -1 0.5 0 0.5 0.5 
0.5 0.5 0.5 -1.5 0.5 1 0.5 1 0.5 0 0.5 1.5 0.5 -2.5 0.5 0.5 
0.5 -0.5 0.5 -2.5 0 1.5 0.5 -3 0.5 3.5 0.5 -2.5 0.5 -0.5 0.5 1 
0.5 -2.5 0.5 0.5 0.5 0 0.5 2.5 0.5 0.5 0.5 0.5 1 0 0.5 -1.5 
0.5 -1.5 0.5 1 0.5 -1 0.5 0 0.5 -3 0.5 1 0.5 2.5 0.5 -1.5 
0.5 -1.5 0.5 0 0.5 3 0.5 -1 0.5 0 0 1 0.5 -1 0.5 1 
0.5 0 0.5 -1 0.5 2 0.5 -1 0.5 1 0.5 -2 0.5 -3.5 0.5 4.5 
0.5 2 0.5 -0.5 0.5 0 0.5 0.5 0.5 0.5 0.5 -1 0.5 0.5 0.5 -2.5 
0.5 1.5 0.5 -1 0.5 0 0.5 0.5 0.5 -0.5 0.5 -0.5 0.5 0.5 0.5 -0.5 
0.5 1.5 0.5 -2 0 -0.5 0.5 -0.5 0.5 0.5 0.5 -1 0.5 1 S
2189 589 0.5 0.5 0.5 -2.5 0.5 3.5 0.5 -2 0.5 1 1 0 0.5 1 
0.5 0.5 0.5 0.5 0.5 -1 0.5 0.5 0.5 -0.5 0.5 2.5 0.5 -2 0.5 -1 
0.5 1.5 0.5 -2 0.5 0 0.5 2 0.5 1.5 0.5 -1.5 0.5 -0.5 0.5 2.5 
0 -3 0.5 1.5 0.5 1.5 0.5 -1.5 0.5 1 0.5 1.5 0.5 -1 0.5 1 
0.5 -3 0.5 2.5 0.5 -2.5 0.5 4 0.5 -3 0.5 1 0.5 -1 0.5 -1 
0.5 1 0.5 1 0.5 -1.5 0.5 -0.5 0.5 1.5 0.5 -1.5 0.5 -1 0.5 -1 
0.5 1.5 0.5 0 0.5 -1.5 0.5 1.5 0.5 0.5 0.5 -1.5 0.5 1.5 0.5 -1 
0.5 0.5 0.5 -0.5 0.5 -1.5 0.5 3 0.5 -2.5 0.5 0 0.5 2.5 0.5 -3.5 
0.5 4 0.5 -1.5 0.5 -0.5 0.5 -1.5 0.5 1 0.5 0.5 0.5 -13.5 0.5 12.5 
0.5 2 0.5 -2 0.5 0 0.5 -0.5 0.5 0.5 0.5 -1.5 0.5 2.5 0.5 1 
0 -3.5 0.5 0.5 0.5 0 0.5 1.5 0.5 -4.5 0.5 2 0.5 0 0.5 -1.5 
0.5 1.5 0.5 -2.5 0.5 1.5 0.5 -1 0.5 4.5 0.5 -4.5 0.5 0.5 0.5 1.5 
0.5 -0.5 0.5 0.5 0.5 -0.5 0.5 1 0.5 1.5 0.5 -1.5 0.5 -0.5 0.5 2.5 S
2240 590 0.5 1.5 0.5 -2.5 0.5 1.5 0.5 -2 0.5 0 0 1 0.5 -1.5 
0.5 -1 0.5 1.5 0.5 0.5 0.5 0 0.5 2.5 0.5 -2 0.5 -3 0.5 3 
0.5 0 0.5 -1 0.5 -0.5 0.5 1.5 0.5 -1.5 0.5 2.5 0.5 -2.5 0.5 1.5 
0.5 -1.5 0.5 1 0.5 -1 0.5 -3.5 0.5 3 0.5 -2 0.5 0 0.5 2.5 
0.5 -1.5 0.5 0 0.5 1 0 -1 0.5 -0.5 0.5 -1 0.5 -0.5 0.5 0.5 
0.5 0.5 0.5 -0.5 0.5 -1.5 0.5 0.5 0.5 1 0.5 -1 0.5 -1 0.5 2.5 
0.5 -2 0.5 1 0.5 -2.5 0.5 0.5 0.5 0 0.5 1 0.5 1.5 0.5 0 
0.5 -1.5 0.5 1 0.5 -1 0.5 -0.5 0.5 1 0.5 1 0.5 -0.5 0 -0.5 
0.5 -1.5 0.5 1 1 0 0.5 0.5 0.5 2 0.5 -0.5 0.5 1 0.5 -2 
0.5 4.5 0.5 -3.5 0.5 1.5 0.5 1.5 0.5 -1 0.5 -1.5 0.5 2 0.5 -0.5 
0.5 0.5 0.5 2 0.5 -2.5 0.5 1 0.5 0.5 0.5 0 0.5 0.5 0.5 -0.5 
0.5 -1 0.5 -1 0.5 1 0 0.5 0.5 1.5 0.5 -0.5 0.5 1 0.5 0 
0.5 -4 0.5 1.5 0.5 1.5 0.5 0.5 0.5 -0.5 0.5 -2.5 0.5 4.5 0.5 -2 S
2290 589.5 0.5 1.5 1 0 0.5 -2 0.5 1.5 1 0 0.5 -0.5 0.5 0 
0.5 1.5 0.5 2 0.5 -2 0.5 2 0.5 -3 0.5 2.5 0.5 -2.5 0 2 
0.5 0.5 0.5 -1.5 0.5 0 0.5 -0.5 0.5 -0.5 0.5 1 0.5 -3 0.5 2.5 
0.5 -1 0.5 -1.5 0.5 0.5 0.5 -1.5 0.5 -0.5 0.5 1.5 0.5 0.5 0.5 0 
0.5 -0.5 0.5 1.5 0.5 -2 0.5 0.5 0.5 -0.5 0.5 1.5 0.5 -2.5 0.5 2 
0.5 -3.5 0.5 3.5 0.5 -1.5 0.5 0 0 1 0.5 1 0.5 -1.5 0.5 3 
0.5 -2.5 0.5 3 0.5 -4 0.5 2 0.5 -0.5 0.5 -2 0.5 1.5 0.5 1 
0.5 -2.5 0.5 3.5 0.5 -3 0.5 2 0.5 -1 0.5 1.5 0.5 -2 0.5 0 
0.5 -1 0.5 1.5 0.5 -0.5 0.5 0.5 0.5 -0.5 0.5 0 0.5 -1 0.5 -1 
0 1 0.5 1 0.5 -3 0.5 2 0.5 0 0.5 0.5 0.5 0 0.5 2 
0.5 -2 0.5 1 0.5 -0.5 0.5 1.5 0.5 -1.5 0.5 0.5 0.5 -0.5 0.5 1 
0.5 -1 0.5 1.5 0.5 -1.5 0.5 0.5 0.5 -2.5 0.5 3 0.5 -1.5 0.5 3.5 
0.5 -1 0.5 -1 0.5 -0.5 0.5 2.5 0.5 0.5 0 -3 0.5 1.5 S
2340 590 0.5 1 0.5 -1.5 0.5 2 0.5 -1 0.5 -1 0.5 1.5 0.5 0 
0.5 -2 0.5 1.5 0.5 2 0.5 -0.5 0.5 -0.5 0.5 -1 0.5 0 0.5 1.5 
0.5 -1 0.5 -1.5 0.5 -2 0.5 1 0.5 -1 0.5 3.5 0.5 -3 1 0 
0.5 0.5 0.5 1.5 0.5 -3 0 0.5 0.5 2.5 0.5 -3.5 0.5 3 0.5 -0.5 
0.5 -1 0.5 0.5 0.5 0.5 0.5 -1 0.5 -1 0.5 1 0.5 -1.5 0.5 2.5 
0.5 -2.5 0.5 2 0.5 1 0.5 -1.5 0.5 0.5 0.5 -3 0.5 1.5 0.5 -2.5 
0.5 1 0.5 4.5 0.5 -0.5 0.5 -0.5 0.5 -0.5 0.5 -0.5 0.5 0 0 -1.5 
0.5 4.5 0.5 0.5 0.5 -1 0.5 -3.5 0.5 3.5 0.5 -1 0.5 -3 0.5 0.5 
0.5 1.5 0.5 -1.5 0.5 -17.5 0.5 17 0.5 3 0.5 -1 0.5 0 0.5 -1.5 
0.5 2 0.5 -2 0.5 1.5 1 0 0.5 1 1 0 0.5 1.5 0.5 0.5 
0.5 0 0.5 -1 0 -0.5 0.5 0.5 1 0 0.5 1 0.5 0.5 0.5 0.5 
0.5 -2 0.5 -1 0.5 0 0.5 1.5 1 0 0.5 -2.5 0.5 1.5 0.5 -0.5 
0.5 3 0.5 0 0.5 -1.5 0.5 -0.5 S
2390.5 590.5 0.5 -1 0.5 2 0.5 0 0.5 -1.5 0.5 1 0.5 -0.5 0.5 -0.5 
0.5 -1 0.5 0.5 0 -0.5 0.5 -0.5 0.5 2 0.5 -1 0.5 -1 0.5 -3.5 
0.5 3.5 0.5 -2 0.5 -2.5 0.5 0 0.5 1.5 0.5 1.5 0.5 1.5 0.5 -0.5 
0.5 0.5 1 0 0.5 0.5 0.5 -0.5 0.5 -1 0.5 2.5 0.5 -0.5 0.5 1 
0.5 -3.5 0.5 0 0.5 1.5 0.5 1.5 0.5 -8.5 0.5 7 0 -2.5 0.5 3 
0.5 -2 0.5 3 0.5 -0.5 0.5 -1 0.5 -0.5 0.5 1.5 0.5 -2.5 0.5 2.5 
0.5 -1.5 0.5 0 0.5 -1.5 0.5 1 0.5 0 0.5 -1.5 0.5 1 0.5 -0.5 
0.5 1 0.5 -0.5 0.5 -1 0.5 1 0.5 -1.5 0.5 1.5 0.5 -1.5 0.5 1 
1 0 0 -0.5 0.5 -1 0.5 2.5 0.5 -4.5 0.5 2 0.5 -1 0.5 2 
0.5 1 0.5 -0.5 0.5 0.5 0.5 1.5 0.5 -1.5 0.5 -1 0.5 -0.5 0.5 2 
0.5 1 0.5 0 0.5 -0.5 0.5 1 0.5 -1 1 0 0.5 -2.5 0.5 1.5 
0.5 0.5 0.5 0 0.5 1 0.5 -1 0.5 3 0 -1.5 0.5 -1 0.5 0 
0.5 -0.5 0.5 1 0.5 0.5 0.5 -2.5 0.5 3 0.5 -2 S
2440.5 587.5 0.5 1 0.5 -0.5 0.5 1 0.5 -2.5 0.5 1.5 0.5 -1.5 0.5 0 
0.5 0.5 0.5 0.5 0.5 1.5 0.5 -1.5 0.5 -1.5 0.5 2 0.5 -0.5 0.5 0.5 
0.5 1 1 0 0.5 -2 0.5 -1 0 1.5 0.5 0.5 0.5 0 0.5 1 
0.5 -2 0.5 0 0.5 0.5 0.5 -0.5 0.5 -1.5 0.5 3 0.5 -1.5 0.5 -0.5 
0.5 2 0.5 -0.5 0.5 -1.5 0.5 3 0.5 -1.5 0.5 -1 0.5 1 0.5 0 
0.5 1.5 0.5 -5.5 0.5 3.5 0.5 0.5 0.5 0 0.5 -0.5 0.5 2.5 0.5 -1.5 
0 -2 0.5 -1.5 0.5 1.5 0.5 -1 0.5 2.5 0.5 0 0.5 -1.5 0.5 2.5 
0.5 -2 0.5 0.5 0.5 0.5 0.5 -2 0.5 3 0.5 -2.5 0.5 1 0.5 -3 
0.5 3.5 0.5 1.5 0.5 -1.5 0.5 -2 0.5 1 0.5 1 0.5 2 0.5 -2 
0.5 0.5 0.5 1.5 0.5 -0.5 0.5 0 0.5 -0.5 0 2.5 0.5 -2 0.5 -0.5 
0.5 0 0.5 -1.5 0.5 3 0.5 0.5 0.5 -1.5 0.5 1.5 0.5 -1.5 0.5 1 
0.5 -1 0.5 0.5 0.5 -0.5 0.5 1.5 0.5 0 0.5 1 0.5 -1 0.5 -1 
0.5 -0.5 0.5 1 0.5 -2 0.5 0 0.5 -3 0.5 0 0.5 1.5 0.5 0.5 S
2491 587.5 0.5 1 0.5 2 0 -1 0.5 0.5 0.5 -45.5 0.5 43.5 0.5 1.5 
0.5 -0.5 0.5 -1 1.5 0 0.5 1.5 0.5 -2.5 0.5 0 0.5 1 0.5 1.5 
0.5 0 0.5 -1 0.5 1 0.5 -1.5 0.5 1 0.5 1 0.5 -2.5 0.5 1 
0.5 -1.5 0.5 1.5 0.5 1 0.5 -1 0.5 0.5 0.5 -1 0 -0.5 0.5 2 
0.5 -2.5 0.5 1.5 0.5 -0.5 0.5 0 0.5 -1 0.5 0 0.5 -0.5 0.5 -1 
0.5 2 0.5 -3 0.5 2 0.5 -2.5 0.5 0.5 0.5 1.5 0.5 -1.5 0.5 3 
0.5 -0.5 0.5 0 0.5 1 0.5 -0.5 0.5 1 0.5 -0.5 0.5 -1 0.5 0.5 
0.5 2.5 0.5 -2.5 0 0.5 0.5 2 0.5 -0.5 0.5 0.5 0.5 -0.5 0.5 0.5 
0.5 -2 0.5 0.5 0.5 0 0.5 -1.5 0.5 1 0.5 0.5 0.5 0.5 0.5 1 
0.5 -2.5 0.5 2 0.5 -2 0.5 2 0.5 1 0.5 -3.5 0.5 3 0.5 -1.5 
0.5 1 0.5 -2 0.5 3.5 0.5 -0.5 0.5 -1 0.5 -0.5 0.5 0.5 0 -0.5 
0.5 3 0.5 -3.5 0.5 2 0.5 -2.5 0.5 -1.5 0.5 0.5 0.5 1.5 0.5 0.5 
0.5 -1.5 0.5 0 0.5 1 1 0 0.5 -0.5 0.5 0.5 S
2541 588.5 0.5 -3 0.5 0.5 0.5 3 0.5 0 0.5 -2 0.5 -0.5 0.5 -1.5 
0.5 0.5 0.5 1.5 0.5 -61 0.5 62 1 0 0 -2 0.5 -1.5 0.5 0.5 
0.5 -0.5 0.5 2.5 0.5 -1 0.5 0.5 0.5 2 0.5 -0.5 0.5 -1.5 0.5 2.5 
0.5 -3 0.5 1.5 0.5 -0.5 0.5 3.5 0.5 -2.5 0.5 1 0.5 -1 0.5 -1 
0.5 3 0.5 -5 0.5 2 0.5 1 0.5 -2.5 0.5 -1 0.5 0.5 0.5 -0.5 
0.5 0.5 0.5 0.5 0 2.5 0.5 -2 0.5 1 0.5 0.5 0.5 -1 0.5 2.5 
0.5 -6 0.5 3.5 0.5 -1.5 0.5 4.5 0.5 -1.5 1 0 0.5 1 0.5 0.5 
0.5 0 0.5 -1.5 0.5 0 0.5 1 0.5 -1.5 0.5 2 0.5 -2 0.5 2 
0.5 0 0.5 0.5 0.5 -1 0.5 0 0.5 -1.5 0.5 0 0.5 2 0.5 -4 
0.5 1.5 0.5 0.5 0.5 -1 0.5 4 0.5 -3.5 0.5 0 0.5 -3.5 0.5 4 
0.5 3 0.5 -5 0.5 3.5 0.5 -3 0.5 -4.5 0.5 6 0.5 0.5 0.5 -1 
0.5 2 0.5 -11 0.5 9 0.5 1 0.5 -1 0.5 2 0.5 1 0.5 0 
0.5 -5.5 0 3 0.5 -1.5 0.5 -39 0.5 42 0.5 -3 0.5 0 S
2591.5 586 0.5 0 0.5 1 0.5 1 0.5 -1 0.5 1.5 0.5 -2.5 0.5 1.5 
0.5 -0.5 0.5 0 0.5 -1.5 0.5 1.5 0.5 -2 0.5 1.5 0.5 -1 0.5 2 
0.5 -0.5 0.5 -2 0.5 3 0.5 -0.5 0.5 -1 0.5 -1.5 0.5 0 0.5 4.5 
0 -3 0.5 1 0.5 -1.5 0.5 -0.5 0.5 -2.5 0.5 3 0.5 -0.5 0.5 -1.5 
0.5 1 0.5 2 0.5 0.5 0.5 0 0.5 -5 0.5 1 0.5 2 0.5 -1.5 
0.5 0 0.5 2 0.5 -0.5 0.5 2 0.5 0 0.5 -2 0.5 0 0.5 -0.5 
0.5 0.5 0.5 2 0.5 0.5 0.5 -4 0 3 0.5 0 0.5 -1 0.5 4 
0.5 -1.5 0.5 0.5 0.5 -0.5 0.5 -1 0.5 -0.5 0.5 1.5 0.5 -1.5 0.5 0.5 
1 0 0.5 2.5 0.5 -2.5 0.5 1.5 0.5 2 0.5 -2.5 0.5 -1 0.5 2 
0.5 -1.5 0.5 -1.5 0.5 1 0.5 -0.5 0.5 0 0.5 0.5 0.5 -2 0.5 2.5 
0 -2 0.5 1 1 0 0.5 -1.5 0.5 3.5 0.5 -4 0.5 -0.5 0.5 1.5 
0.5 1.5 0.5 -4 0.5 1 0.5 0 0.5 1 0.5 -1.5 0.5 1 0.5 -0.5 
0.5 0.5 0.5 0.5 0.5 -0.5 0.5 0.5 0.5 0.5 0.5 -1.5 0.5 -1 S
2642 583.5 0.5 3.5 0.5 -4.5 0.5 0 0.5 0.5 0.5 1 0 1 0.5 1 
0.5 -2 0.5 0.5 1 0 0.5 1.5 0.5 -1 0.5 -4 0.5 1.5 0.5 1.5 
0.5 -1.5 0.5 2 0.5 1 0.5 -2 0.5 -1 0.5 2 0.5 -1 0.5 -2 
0.5 2 0.5 0 0.5 1 0.5 -1 0.5 1.5 0.5 -0.5 0.5 0.5 1.5 0 
0 -0.5 0.5 1.5 0.5 2.5 0.5 -3.5 0.5 0.5 0.5 1 0.5 1 0.5 0 
0.5 -0.5 0.5 -1 0.5 1.5 0.5 -1 0.5 0.5 0.5 2.5 0.5 -3 0.5 3 
0.5 -0.5 0.5 0.5 0.5 -1.5 0.5 -0.5 0.5 -1.5 0.5 2 0.5 0.5 0.5 -1.5 
0.5 0.5 0.5 -2.5 0.5 -1 0.5 3.5 0 -1 0.5 1 0.5 1 0.5 1 
0.5 -2 0.5 -2.5 0.5 0.5 0.5 -0.5 0.5 0 0.5 -1.5 0.5 -6.5 0.5 3 
1 0 0.5 6 0.5 -3 0.5 0.5 0.5 2 0.5 0 0.5 -1 0.5 1 
0.5 -0.5 0.5 -1 0.5 1 0.5 0 0.5 -0.5 0.5 0 0.5 1 0.5 -0.5 
0 -1 0.5 0.5 0.5 2 0.5 -1.5 0.5 -0.5 0.5 1 0.5 0 0.5 -4 
0.5 3 0.5 -1 0.5 0 0.5 1 0.5 0 S
2692 584.5 0.5 -2.5 0.5 4 0.5 -2.5 0.5 3.5 0.5 0 0.5 -1.5 0.5 2 
0.5 -3 0.5 0 0.5 1 0.5 0 0.5 -0.5 0.5 2.5 0.5 -1.5 0.5 -4 
0.5 -14 0 -1.5 0.5 8 0.5 12 0.5 0.5 0.5 -5.5 0.5 6 0.5 0 
0.5 -1.5 0.5 -1 0.5 1.5 0.5 1 0.5 -1.5 0.5 1.5 0.5 -2.5 0.5 2.5 
0.5 -1 0.5 1.5 0.5 0 0.5 -1 0.5 1 0.5 -1 0.5 -4.5 0.5 3 
0.5 1 0.5 3.5 0.5 0.5 0.5 -2 0.5 -1.5 0.5 0 0 2 0.5 -1 
0.5 -1.5 0.5 0.5 0.5 2 0.5 -1 0.5 1 0.5 0 0.5 0.5 0.5 -0.5 
0.5 -0.5 0.5 -0.5 0.5 1 0.5 -1 0.5 0.5 0.5 -1.5 0.5 -1.5 0.5 1 
0.5 -1 0.5 1.5 0.5 1 0.5 -0.5 0.5 -4 0.5 1 0.5 1.5 0.5 0.5 
0.5 0.5 0.5 -3.5 0 -43.5 0.5 48 0.5 -2.5 0.5 1 0.5 -0.5 0.5 -0.5 
0.5 2 0.5 -3.5 0.5 2.5 0.5 -1 0.5 0 0.5 -1 0.5 1.5 0.5 -2 
0.5 0.5 0.5 0 0.5 3.5 0.5 -4 0.5 5.5 0.5 -3 0.5 -5 0.5 3 
0.5 -9 0.5 5.5 0.5 5.5 0.5 1 0.5 -0.5 0.5 1 0.5 -0.5 0 1 
0.5 -2 S
2742 586.5 0.5 -1.5 0.5 2 0.5 -20 0.5 20 0.5 2.5 0.5 -2 0.5 0 
0.5 -1.5 0.5 2.5 0.5 -1 0.5 1 0.5 -2 0.5 -0.5 0.5 -0.5 0.5 2.5 
0.5 -2 0.5 1 0.5 1 0.5 -2.5 0.5 2 0.5 1 0.5 -0.5 1 0 
0.5 2.5 0.5 -3 0.5 3 0 -1.5 0.5 -1 0.5 1.5 0.5 -0.5 0.5 0.5 
0.5 0 0.5 2 0.5 -2.5 0.5 2 0.5 -3 0.5 3 0.5 -0.5 0.5 0.5 
0.5 -0.5 0.5 2 0.5 0 0.5 -0.5 0.5 -1 0.5 1.5 0.5 0 0.5 -2 
0.5 0 0.5 -2 0.5 0.5 0.5 -0.5 0.5 -1 0.5 1 0.5 -3 0 1.5 
0.5 -1 0.5 1.5 0.5 -0.5 0.5 1 0.5 -3.5 0.5 2 0.5 0 0.5 -1.5 
0.5 3 0.5 1 0.5 -4 0.5 -1.5 0.5 2.5 0.5 1.5 0.5 -7 0.5 5 
0.5 0.5 0.5 -0.5 0.5 -4 0.5 -7.5 0.5 2 0.5 1 0.5 10.5 0.5 -0.5 
0.5 -2 0.5 -2.5 0.5 0 0.5 4 0 -1 0.5 -2 0.5 -5.5 0.5 10 S
5 w
378 120 2412 528 re
S
cleartomark end end pagesave restore
 showpage
%%PageTrailer
%%Trailer
%%Pages: 1
%%EOF
