%!PS-Adobe-3.0 EPSF-3.0
%%BoundingBox: 64 53 194 118
%%HiResBoundingBox: 64.200000 53.300000 193.900000 117.900000
%.....................................
%%Creator: GPL Ghostscript 871 (epswrite)
%%CreationDate: 2012/01/28 17:04:59
%%DocumentData: Clean7Bit
%%LanguageLevel: 2
%%EndComments
%%BeginProlog
% This copyright applies to everything between here and the %%EndProlog:
% Copyright (C) 2010 Artifex Software, Inc.  All rights reserved.
%%BeginResource: procset GS_epswrite_2_0_1001 1.001 0
/GS_epswrite_2_0_1001 80 dict dup begin
/PageSize 2 array def/setpagesize{ PageSize aload pop 3 index eq exch
4 index eq and{ pop pop pop}{ PageSize dup  1
5 -1 roll put 0 4 -1 roll put dup null eq {false} {dup where} ifelse{ exch get exec}
{ pop/setpagedevice where
{ pop 1 dict dup /PageSize PageSize put setpagedevice}
{ /setpage where{ pop PageSize aload pop pageparams 3 {exch pop} repeat
setpage}if}ifelse}ifelse}ifelse} bind def
/!{bind def}bind def/#{load def}!/N/counttomark #
/rG{3{3 -1 roll 255 div}repeat setrgbcolor}!/G{255 div setgray}!/K{0 G}!
/r6{dup 3 -1 roll rG}!/r5{dup 3 1 roll rG}!/r3{dup rG}!
/w/setlinewidth #/J/setlinecap #
/j/setlinejoin #/M/setmiterlimit #/d/setdash #/i/setflat #
/m/moveto #/l/lineto #/c/rcurveto #
/p{N 2 idiv{N -2 roll rlineto}repeat}!
/P{N 0 gt{N -2 roll moveto p}if}!
/h{p closepath}!/H{P closepath}!
/lx{0 rlineto}!/ly{0 exch rlineto}!/v{0 0 6 2 roll c}!/y{2 copy c}!
/re{4 -2 roll m exch dup lx exch ly neg lx h}!
/^{3 index neg 3 index neg}!
/f{P fill}!/f*{P eofill}!/s{H stroke}!/S{P stroke}!
/q/gsave #/Q/grestore #/rf{re fill}!
/Y{P clip newpath}!/Y*{P eoclip newpath}!/rY{re Y}!
/|={pop exch 4 1 roll 1 array astore cvx 3 array astore cvx exch 1 index def exec}!
/|{exch string readstring |=}!
/+{dup type/nametype eq{2 index 7 add -3 bitshift 2 index mul}if}!
/@/currentfile #/${+ @ |}!
/B{{2 copy string{readstring pop}aload pop 4 array astore cvx
3 1 roll}repeat pop pop true}!
/Ix{[1 0 0 1 11 -2 roll exch neg exch neg]exch}!
/,{true exch Ix imagemask}!/If{false exch Ix imagemask}!/I{exch Ix image}!
/Ic{exch Ix false 3 colorimage}!
/F{/Columns counttomark 3 add -2 roll/Rows exch/K -1/BlackIs1 true>>
/CCITTFaxDecode filter}!/FX{<</EndOfBlock false F}!
/X{/ASCII85Decode filter}!/@X{@ X}!/&2{2 index 2 index}!
/@F{@ &2<<F}!/@C{@X &2 FX}!
/$X{+ @X |}!/&4{4 index 4 index}!/$F{+ @ &4<<F |}!/$C{+ @X &4 FX |}!
/IC{3 1 roll 10 dict begin 1{/ImageType/Interpolate/Decode/DataSource
/ImageMatrix/BitsPerComponent/Height/Width}{exch def}forall
currentdict end image}!
/~{@ read {pop} if}!
end def
%%EndResource
/pagesave null def
%%EndProlog
%%Page: 1 1
%%BeginPageSetup
GS_epswrite_2_0_1001 begin
/pagesave save store 197 dict begin
0.1 0.1 scale
%%EndPageSetup
gsave mark
Q q
0 0 250000 250000 re
Y
5 w
K
785 600 31.5 0 P
1865 600 -31.5 0 P
755 600 S
725 583 27 36 /3U
$C
,RtB-l-V&(&8tA@:&jmtJ,fQKs8Qphs7Xn?f#%erX&bpJ~>
,
785 656 31.5 0 P
1865 656 -31.5 0 P
755 656 S
670 639 27 36 /6U
$C
-l*A5K;Xmq83WN=s3kKXX\Lb-iInI>[?fa\s8B_'"@)e~>
,
697 639 3U ,
725 639 3U ,
785 712 31.5 0 P
1865 712 -31.5 0 P
755 712 S
642 696 19 35 /3Y
$C
3kt^ps8W,jiVXZ9hg>~>
,
670 695 3U ,
697 695 3U ,
725 695 3U ,
785 768 31.5 0 P
1865 768 -31.5 0 P
755 768 S
642 752 3Y ,
670 751 6U ,
697 751 3U ,
725 751 3U ,
785 824 31.5 0 P
1865 824 -31.5 0 P
755 824 S
642 808 27 35 /6Y
$C
2@;[4:B,M)iS0)-LC?7`gc#\s^>.cKrn"2dL(^alX[.X~>
,
670 807 3U ,
697 807 3U ,
725 807 3U ,
785 880 31.5 0 P
1865 880 -31.5 0 P
755 880 S
642 864 6Y ,
670 863 6U ,
697 863 3U ,
725 863 3U ,
785 936 31.5 0 P
1865 936 -31.5 0 P
755 936 S
642 919 27 36 /4C
$C
-l*@R:7W!o_@=qCHe7<S<J7/%]%.k!-uRl(+91f@m4/Wc<inZ>J,~>
,
670 919 3U ,
697 919 3U ,
725 919 3U ,
785 992 31.5 0 P
1865 992 -31.5 0 P
755 992 S
642 975 4C ,
670 975 6U ,
697 975 3U ,
725 975 3U ,
785 1048 31.5 0 P
1865 1048 -31.5 0 P
755 1048 S
642 1032 28 35 /7C
$C
,9QscjoEHmBJ1I:n$h2`n$h2`n%WeMj1YE[If~>
,
670 1031 3U ,
697 1031 3U ,
725 1031 3U ,
785 1104 31.5 0 P
1865 1104 -31.5 0 P
755 1104 S
642 1088 7C ,
670 1087 6U ,
697 1087 3U ,
725 1087 3U ,
785 1160 31.5 0 P
1865 1160 -31.5 0 P
755 1160 S
642 1143 6U ,
670 1143 3U ,
697 1143 3U ,
725 1143 3U ,
785 600 0 31.5 P
785 1160 0 -31.5 P
785 550 S
776 533 3U ,
965 600 0 31.5 P
965 1160 0 -31.5 P
965 550 S
914 534 6Y ,
942 533 3U ,
970 533 3U ,
998 533 3U ,
1145 600 0 31.5 P
1145 1160 0 -31.5 P
1145 550 S
1094 534 7C ,
1122 533 3U ,
1150 533 3U ,
1178 533 3U ,
1325 600 0 31.5 P
1325 1160 0 -31.5 P
1325 550 S
1274 533 27 36 /4G
$C
,RtB-*BGLlPNfYSm[r,2qb-^"Ya-djFi.H<\D.$oK7;7W[aN2*=AZkb~>
,
1302 533 3U ,
1330 533 3U ,
1358 533 3U ,
1505 600 0 31.5 P
1505 1160 0 -31.5 P
1505 550 S
1454 533 27 36 /7G
$C
,Rt)#3cn#c+Pr]RFT;C?g07cq>=uk%:n9WnmnZNg5QC\a['mCmeYk/u~>
,
1482 533 3U ,
1510 533 3U ,
1538 533 3U ,
1685 600 0 31.5 P
1685 1160 0 -31.5 P
1685 550 S
1620 534 3Y ,
1648 533 3U ,
1676 533 3U ,
1704 533 3U ,
1732 533 3U ,
1865 600 0 31.5 P
1865 1160 0 -31.5 P
1865 550 S
1800 534 3Y ,
1828 534 6Y ,
1856 533 3U ,
1884 533 3U ,
1912 533 3U ,
785 600 1080 560 re
S
2.5 w
786.5 1141.75 0 31.5 S
770.75 1157.5 31.5 0 S
790 1141.75 0 31.5 S
774.25 1157.5 31.5 0 S
797.5 1141.25 0 31.5 S
781.75 1157 31.5 0 S
937.5 1141.25 0 31.5 S
921.75 1157 31.5 0 S
1059 1141.25 0 31.5 S
1043.25 1157 31.5 0 S
1203.5 1141.25 0 31.5 S
1187.75 1157 31.5 0 S
1269 1141.25 0 31.5 S
1253.25 1157 31.5 0 S
1351 1140.75 0 31.5 S
1335.25 1156.5 31.5 0 S
1365.5 1140.75 0 31.5 S
1349.75 1156.5 31.5 0 S
1434.5 1140.75 0 31.5 S
1418.75 1156.5 31.5 0 S
1450.5 1140.75 0 31.5 S
1434.75 1156.5 31.5 0 S
1465 1140.25 0 31.5 S
1449.25 1156 31.5 0 S
1549 1140.25 0 31.5 S
1533.25 1156 31.5 0 S
1584 1140.25 0 31.5 S
1568.25 1156 31.5 0 S
1585.5 1140.25 0 31.5 S
1569.75 1156 31.5 0 S
1599 1139.75 0 31.5 S
1583.25 1155.5 31.5 0 S
1601.5 1139.75 0 31.5 S
1585.75 1155.5 31.5 0 S
1610 1139.75 0 31.5 S
1594.25 1155.5 31.5 0 S
1615 1139.75 0 31.5 S
1599.25 1155.5 31.5 0 S
1615.5 1139.75 0 31.5 S
1599.75 1155.5 31.5 0 S
1618 1139.25 0 31.5 S
1602.25 1155 31.5 0 S
1621.5 1139.25 0 31.5 S
1605.75 1155 31.5 0 S
1624 1139.25 0 31.5 S
1608.25 1155 31.5 0 S
1630.5 1139.25 0 31.5 S
1614.75 1155 31.5 0 S
1640.5 1138.75 0 31.5 S
1624.75 1154.5 31.5 0 S
1641.5 1138.75 0 31.5 S
1625.75 1154.5 31.5 0 S
1644 1138.75 0 31.5 S
1628.25 1154.5 31.5 0 S
1651 1138.75 0 31.5 S
1635.25 1154.5 31.5 0 S
1651.5 1138.75 0 31.5 S
1635.75 1154.5 31.5 0 S
1653.5 1138.25 0 31.5 S
1637.75 1154 31.5 0 S
1658.5 1138.25 0 31.5 S
1642.75 1154 31.5 0 S
1660 1138.25 0 31.5 S
1644.25 1154 31.5 0 S
1670 1138.25 0 31.5 S
1654.25 1154 31.5 0 S
1675.5 1137.75 0 31.5 S
1659.75 1153.5 31.5 0 S
1676 1137.75 0 31.5 S
1660.25 1153.5 31.5 0 S
1679 1137.75 0 31.5 S
1663.25 1153.5 31.5 0 S
1684 1137.75 0 31.5 S
1668.25 1153.5 31.5 0 S
1685.5 1137.25 0 31.5 S
1669.75 1153 31.5 0 S
1685.5 1137.25 0 31.5 S
1669.75 1153 31.5 0 S
1686 1137.25 0 31.5 S
1670.25 1153 31.5 0 S
1686 1137.25 0 31.5 S
1670.25 1153 31.5 0 S
1686.5 1136.75 0 31.5 S
1670.75 1152.5 31.5 0 S
1688 1136.75 0 31.5 S
1672.25 1152.5 31.5 0 S
1688 1136.75 0 31.5 S
1672.25 1152.5 31.5 0 S
1688 1136.75 0 31.5 S
1672.25 1152.5 31.5 0 S
1688.5 1136.25 0 31.5 S
1672.75 1152 31.5 0 S
1689.5 1136.25 0 31.5 S
1673.75 1152 31.5 0 S
1690 1136.25 0 31.5 S
1674.25 1152 31.5 0 S
1690 1135.75 0 31.5 S
1674.25 1151.5 31.5 0 S
1690.5 1135.75 0 31.5 S
1674.75 1151.5 31.5 0 S
1691 1135.75 0 31.5 S
1675.25 1151.5 31.5 0 S
1691 1135.75 0 31.5 S
1675.25 1151.5 31.5 0 S
1691.5 1135.25 0 31.5 S
1675.75 1151 31.5 0 S
1692.5 1135.25 0 31.5 S
1676.75 1151 31.5 0 S
1692.5 1135.25 0 31.5 S
1676.75 1151 31.5 0 S
1693 1134.75 0 31.5 S
1677.25 1150.5 31.5 0 S
1694.5 1134.75 0 31.5 S
1678.75 1150.5 31.5 0 S
1695.5 1134.75 0 31.5 S
1679.75 1150.5 31.5 0 S
1695.5 1134.75 0 31.5 S
1679.75 1150.5 31.5 0 S
1696.5 1134.25 0 31.5 S
1680.75 1150 31.5 0 S
1697 1134.25 0 31.5 S
1681.25 1150 31.5 0 S
1698.5 1134.25 0 31.5 S
1682.75 1150 31.5 0 S
1698.5 1133.75 0 31.5 S
1682.75 1149.5 31.5 0 S
1699.5 1133.75 0 31.5 S
1683.75 1149.5 31.5 0 S
1699.5 1133.75 0 31.5 S
1683.75 1149.5 31.5 0 S
1700 1133.25 0 31.5 S
1684.25 1149 31.5 0 S
1700.5 1133.25 0 31.5 S
1684.75 1149 31.5 0 S
1701 1133.25 0 31.5 S
1685.25 1149 31.5 0 S
1701.5 1132.75 0 31.5 S
1685.75 1148.5 31.5 0 S
1701.5 1132.75 0 31.5 S
1685.75 1148.5 31.5 0 S
1702 1132.75 0 31.5 S
1686.25 1148.5 31.5 0 S
1702 1132.75 0 31.5 S
1686.25 1148.5 31.5 0 S
1702.5 1132.25 0 31.5 S
1686.75 1148 31.5 0 S
1702.5 1132.25 0 31.5 S
1686.75 1148 31.5 0 S
1703 1131.75 0 31.5 S
1687.25 1147.5 31.5 0 S
1703.5 1131.75 0 31.5 S
1687.75 1147.5 31.5 0 S
1704 1131.75 0 31.5 S
1688.25 1147.5 31.5 0 S
1704 1131.75 0 31.5 S
1688.25 1147.5 31.5 0 S
1704.5 1131.25 0 31.5 S
1688.75 1147 31.5 0 S
1704.5 1131.25 0 31.5 S
1688.75 1147 31.5 0 S
1705 1131.25 0 31.5 S
1689.25 1147 31.5 0 S
1705 1131.25 0 31.5 S
1689.25 1147 31.5 0 S
1705 1130.75 0 31.5 S
1689.25 1146.5 31.5 0 S
1705.5 1130.75 0 31.5 S
1689.75 1146.5 31.5 0 S
1705.5 1130.75 0 31.5 S
1689.75 1146.5 31.5 0 S
1705.5 1130.75 0 31.5 S
1689.75 1146.5 31.5 0 S
1706 1130.25 0 31.5 S
1690.25 1146 31.5 0 S
1706 1130.25 0 31.5 S
1690.25 1146 31.5 0 S
1706 1130.25 0 31.5 S
1690.25 1146 31.5 0 S
1707 1130.25 0 31.5 S
1691.25 1146 31.5 0 S
1707 1130.25 0 31.5 S
1691.25 1146 31.5 0 S
1707.5 1129.75 0 31.5 S
1691.75 1145.5 31.5 0 S
1707.5 1129.75 0 31.5 S
1691.75 1145.5 31.5 0 S
1708 1129.75 0 31.5 S
1692.25 1145.5 31.5 0 S
1708 1129.25 0 31.5 S
1692.25 1145 31.5 0 S
1708.5 1129.25 0 31.5 S
1692.75 1145 31.5 0 S
1708.5 1129.25 0 31.5 S
1692.75 1145 31.5 0 S
1708.5 1129.25 0 31.5 S
1692.75 1145 31.5 0 S
1709 1128.75 0 31.5 S
1693.25 1144.5 31.5 0 S
1709 1128.75 0 31.5 S
1693.25 1144.5 31.5 0 S
1709.5 1128.75 0 31.5 S
1693.75 1144.5 31.5 0 S
1709.5 1128.25 0 31.5 S
1693.75 1144 31.5 0 S
1710 1128.25 0 31.5 S
1694.25 1144 31.5 0 S
1710 1127.75 0 31.5 S
1694.25 1143.5 31.5 0 S
1710.5 1127.75 0 31.5 S
1694.75 1143.5 31.5 0 S
1710.5 1127.75 0 31.5 S
1694.75 1143.5 31.5 0 S
1710.5 1127.25 0 31.5 S
1694.75 1143 31.5 0 S
1711 1127.25 0 31.5 S
1695.25 1143 31.5 0 S
1711 1127.25 0 31.5 S
1695.25 1143 31.5 0 S
1711.5 1127.25 0 31.5 S
1695.75 1143 31.5 0 S
1711.5 1127.25 0 31.5 S
1695.75 1143 31.5 0 S
1711.5 1126.75 0 31.5 S
1695.75 1142.5 31.5 0 S
1711.5 1126.25 0 31.5 S
1695.75 1142 31.5 0 S
1712 1126.25 0 31.5 S
1696.25 1142 31.5 0 S
1712 1126.25 0 31.5 S
1696.25 1142 31.5 0 S
1712.5 1125.75 0 31.5 S
1696.75 1141.5 31.5 0 S
1713 1125.75 0 31.5 S
1697.25 1141.5 31.5 0 S
1713 1125.75 0 31.5 S
1697.25 1141.5 31.5 0 S
1713 1125.25 0 31.5 S
1697.25 1141 31.5 0 S
1713.5 1125.25 0 31.5 S
1697.75 1141 31.5 0 S
1713.5 1124.75 0 31.5 S
1697.75 1140.5 31.5 0 S
1713.5 1124.75 0 31.5 S
1697.75 1140.5 31.5 0 S
1713.5 1124.75 0 31.5 S
1697.75 1140.5 31.5 0 S
1713.5 1124.75 0 31.5 S
1697.75 1140.5 31.5 0 S
1714 1124.75 0 31.5 S
1698.25 1140.5 31.5 0 S
1714 1124.25 0 31.5 S
1698.25 1140 31.5 0 S
1714 1124.25 0 31.5 S
1698.25 1140 31.5 0 S
1714.5 1124.25 0 31.5 S
1698.75 1140 31.5 0 S
1714.5 1123.75 0 31.5 S
1698.75 1139.5 31.5 0 S
1714.5 1123.75 0 31.5 S
1698.75 1139.5 31.5 0 S
1715 1123.75 0 31.5 S
1699.25 1139.5 31.5 0 S
1715 1123.25 0 31.5 S
1699.25 1139 31.5 0 S
1715.5 1123.25 0 31.5 S
1699.75 1139 31.5 0 S
1715.5 1123.25 0 31.5 S
1699.75 1139 31.5 0 S
1715.5 1123.25 0 31.5 S
1699.75 1139 31.5 0 S
1715.5 1122.75 0 31.5 S
1699.75 1138.5 31.5 0 S
1716 1122.75 0 31.5 S
1700.25 1138.5 31.5 0 S
1716 1122.25 0 31.5 S
1700.25 1138 31.5 0 S
1716 1122.25 0 31.5 S
1700.25 1138 31.5 0 S
1716 1121.75 0 31.5 S
1700.25 1137.5 31.5 0 S
1716 1121.75 0 31.5 S
1700.25 1137.5 31.5 0 S
1716.5 1121.75 0 31.5 S
1700.75 1137.5 31.5 0 S
1716.5 1121.75 0 31.5 S
1700.75 1137.5 31.5 0 S
1716.5 1121.25 0 31.5 S
1700.75 1137 31.5 0 S
1717 1121.25 0 31.5 S
1701.25 1137 31.5 0 S
1717 1120.75 0 31.5 S
1701.25 1136.5 31.5 0 S
1717 1120.25 0 31.5 S
1701.25 1136 31.5 0 S
1717.5 1120.25 0 31.5 S
1701.75 1136 31.5 0 S
1717.5 1119.75 0 31.5 S
1701.75 1135.5 31.5 0 S
1717.5 1119.75 0 31.5 S
1701.75 1135.5 31.5 0 S
1717.5 1119.75 0 31.5 S
1701.75 1135.5 31.5 0 S
1718 1119.25 0 31.5 S
1702.25 1135 31.5 0 S
1718 1118.75 0 31.5 S
1702.25 1134.5 31.5 0 S
1718 1118.25 0 31.5 S
1702.25 1134 31.5 0 S
1718 1118.25 0 31.5 S
1702.25 1134 31.5 0 S
1718 1118.25 0 31.5 S
1702.25 1134 31.5 0 S
1718 1118.25 0 31.5 S
1702.25 1134 31.5 0 S
1718.5 1117.75 0 31.5 S
1702.75 1133.5 31.5 0 S
1718.5 1117.75 0 31.5 S
1702.75 1133.5 31.5 0 S
1718.5 1117.25 0 31.5 S
1702.75 1133 31.5 0 S
1718.5 1117.25 0 31.5 S
1702.75 1133 31.5 0 S
1718.5 1116.75 0 31.5 S
1702.75 1132.5 31.5 0 S
1719 1116.75 0 31.5 S
1703.25 1132.5 31.5 0 S
1719 1116.25 0 31.5 S
1703.25 1132 31.5 0 S
1719 1115.75 0 31.5 S
1703.25 1131.5 31.5 0 S
1719 1115.75 0 31.5 S
1703.25 1131.5 31.5 0 S
1719 1115.25 0 31.5 S
1703.25 1131 31.5 0 S
1719.5 1115.25 0 31.5 S
1703.75 1131 31.5 0 S
1719.5 1115.25 0 31.5 S
1703.75 1131 31.5 0 S
1719.5 1114.75 0 31.5 S
1703.75 1130.5 31.5 0 S
1719.5 1114.25 0 31.5 S
1703.75 1130 31.5 0 S
1719.5 1114.25 0 31.5 S
1703.75 1130 31.5 0 S
1719.5 1113.75 0 31.5 S
1703.75 1129.5 31.5 0 S
1720 1113.25 0 31.5 S
1704.25 1129 31.5 0 S
1720 1113.25 0 31.5 S
1704.25 1129 31.5 0 S
1720 1113.25 0 31.5 S
1704.25 1129 31.5 0 S
1720 1112.25 0 31.5 S
1704.25 1128 31.5 0 S
1720 1112.25 0 31.5 S
1704.25 1128 31.5 0 S
1720.5 1111.75 0 31.5 S
1704.75 1127.5 31.5 0 S
1720.5 1111.25 0 31.5 S
1704.75 1127 31.5 0 S
1720.5 1110.75 0 31.5 S
1704.75 1126.5 31.5 0 S
1720.5 1110.75 0 31.5 S
1704.75 1126.5 31.5 0 S
1720.5 1110.25 0 31.5 S
1704.75 1126 31.5 0 S
1720.5 1109.25 0 31.5 S
1704.75 1125 31.5 0 S
1721 1109.25 0 31.5 S
1705.25 1125 31.5 0 S
1721 1108.75 0 31.5 S
1705.25 1124.5 31.5 0 S
1721 1107.75 0 31.5 S
1705.25 1123.5 31.5 0 S
1721 1107.25 0 31.5 S
1705.25 1123 31.5 0 S
1721 1106.75 0 31.5 S
1705.25 1122.5 31.5 0 S
1721.5 1106.75 0 31.5 S
1705.75 1122.5 31.5 0 S
1721.5 1105.25 0 31.5 S
1705.75 1121 31.5 0 S
1721.5 1105.25 0 31.5 S
1705.75 1121 31.5 0 S
1721.5 1104.25 0 31.5 S
1705.75 1120 31.5 0 S
1721.5 1103.75 0 31.5 S
1705.75 1119.5 31.5 0 S
1721.5 1103.25 0 31.5 S
1705.75 1119 31.5 0 S
1722 1102.75 0 31.5 S
1706.25 1118.5 31.5 0 S
1722 1102.25 0 31.5 S
1706.25 1118 31.5 0 S
1722 1101.75 0 31.5 S
1706.25 1117.5 31.5 0 S
1722 1101.25 0 31.5 S
1706.25 1117 31.5 0 S
1722 1100.25 0 31.5 S
1706.25 1116 31.5 0 S
1722.5 1099.75 0 31.5 S
1706.75 1115.5 31.5 0 S
1722.5 1098.25 0 31.5 S
1706.75 1114 31.5 0 S
1722.5 1097.75 0 31.5 S
1706.75 1113.5 31.5 0 S
1722.5 1097.25 0 31.5 S
1706.75 1113 31.5 0 S
1722.5 1096.75 0 31.5 S
1706.75 1112.5 31.5 0 S
1722.5 1095.75 0 31.5 S
1706.75 1111.5 31.5 0 S
1723 1094.75 0 31.5 S
1707.25 1110.5 31.5 0 S
1723 1094.25 0 31.5 S
1707.25 1110 31.5 0 S
1723 1093.75 0 31.5 S
1707.25 1109.5 31.5 0 S
1723 1093.25 0 31.5 S
1707.25 1109 31.5 0 S
1723 1092.75 0 31.5 S
1707.25 1108.5 31.5 0 S
1723 1091.75 0 31.5 S
1707.25 1107.5 31.5 0 S
1723.5 1090.75 0 31.5 S
1707.75 1106.5 31.5 0 S
1723.5 1089.75 0 31.5 S
1707.75 1105.5 31.5 0 S
1723.5 1088.25 0 31.5 S
1707.75 1104 31.5 0 S
1723.5 1087.75 0 31.5 S
1707.75 1103.5 31.5 0 S
1723.5 1087.25 0 31.5 S
1707.75 1103 31.5 0 S
1724 1086.75 0 31.5 S
1708.25 1102.5 31.5 0 S
1724 1085.25 0 31.5 S
1708.25 1101 31.5 0 S
1724 1084.75 0 31.5 S
1708.25 1100.5 31.5 0 S
1724 1084.25 0 31.5 S
1708.25 1100 31.5 0 S
1724 1083.25 0 31.5 S
1708.25 1099 31.5 0 S
1724 1082.25 0 31.5 S
1708.25 1098 31.5 0 S
1724.5 1081.75 0 31.5 S
1708.75 1097.5 31.5 0 S
1724.5 1081.25 0 31.5 S
1708.75 1097 31.5 0 S
1724.5 1080.25 0 31.5 S
1708.75 1096 31.5 0 S
1724.5 1079.25 0 31.5 S
1708.75 1095 31.5 0 S
1724.5 1077.75 0 31.5 S
1708.75 1093.5 31.5 0 S
1725 1077.25 0 31.5 S
1709.25 1093 31.5 0 S
1725 1076.75 0 31.5 S
1709.25 1092.5 31.5 0 S
1725 1075.75 0 31.5 S
1709.25 1091.5 31.5 0 S
1725 1074.75 0 31.5 S
1709.25 1090.5 31.5 0 S
1725 1074.25 0 31.5 S
1709.25 1090 31.5 0 S
1725 1073.25 0 31.5 S
1709.25 1089 31.5 0 S
1725.5 1072.75 0 31.5 S
1709.75 1088.5 31.5 0 S
1725.5 1071.75 0 31.5 S
1709.75 1087.5 31.5 0 S
1725.5 1070.75 0 31.5 S
1709.75 1086.5 31.5 0 S
1725.5 1069.75 0 31.5 S
1709.75 1085.5 31.5 0 S
1725.5 1067.75 0 31.5 S
1709.75 1083.5 31.5 0 S
1726 1067.75 0 31.5 S
1710.25 1083.5 31.5 0 S
1726 1066.75 0 31.5 S
1710.25 1082.5 31.5 0 S
1726 1066.25 0 31.5 S
1710.25 1082 31.5 0 S
1726 1064.75 0 31.5 S
1710.25 1080.5 31.5 0 S
1726 1063.25 0 31.5 S
1710.25 1079 31.5 0 S
1726 1061.75 0 31.5 S
1710.25 1077.5 31.5 0 S
1726.5 1060.75 0 31.5 S
1710.75 1076.5 31.5 0 S
1726.5 1060.25 0 31.5 S
1710.75 1076 31.5 0 S
1726.5 1059.75 0 31.5 S
1710.75 1075.5 31.5 0 S
1726.5 1058.75 0 31.5 S
1710.75 1074.5 31.5 0 S
1726.5 1057.75 0 31.5 S
1710.75 1073.5 31.5 0 S
1727 1057.25 0 31.5 S
1711.25 1073 31.5 0 S
1727 1056.25 0 31.5 S
1711.25 1072 31.5 0 S
1727 1055.75 0 31.5 S
1711.25 1071.5 31.5 0 S
1727 1054.75 0 31.5 S
1711.25 1070.5 31.5 0 S
1727 1053.25 0 31.5 S
1711.25 1069 31.5 0 S
1727 1052.25 0 31.5 S
1711.25 1068 31.5 0 S
1727.5 1051.25 0 31.5 S
1711.75 1067 31.5 0 S
1727.5 1049.75 0 31.5 S
1711.75 1065.5 31.5 0 S
1727.5 1048.75 0 31.5 S
1711.75 1064.5 31.5 0 S
1727.5 1048.25 0 31.5 S
1711.75 1064 31.5 0 S
1727.5 1047.25 0 31.5 S
1711.75 1063 31.5 0 S
1727.5 1046.75 0 31.5 S
1711.75 1062.5 31.5 0 S
1728 1045.25 0 31.5 S
1712.25 1061 31.5 0 S
1728 1044.25 0 31.5 S
1712.25 1060 31.5 0 S
1728 1043.75 0 31.5 S
1712.25 1059.5 31.5 0 S
1728 1043.25 0 31.5 S
1712.25 1059 31.5 0 S
1728 1041.75 0 31.5 S
1712.25 1057.5 31.5 0 S
1728.5 1041.25 0 31.5 S
1712.75 1057 31.5 0 S
1728.5 1040.25 0 31.5 S
1712.75 1056 31.5 0 S
1728.5 1039.75 0 31.5 S
1712.75 1055.5 31.5 0 S
1728.5 1038.75 0 31.5 S
1712.75 1054.5 31.5 0 S
1728.5 1037.75 0 31.5 S
1712.75 1053.5 31.5 0 S
1728.5 1036.25 0 31.5 S
1712.75 1052 31.5 0 S
1729 1035.25 0 31.5 S
1713.25 1051 31.5 0 S
1729 1034.75 0 31.5 S
1713.25 1050.5 31.5 0 S
1729 1033.75 0 31.5 S
1713.25 1049.5 31.5 0 S
1729 1032.75 0 31.5 S
1713.25 1048.5 31.5 0 S
1729 1031.25 0 31.5 S
1713.25 1047 31.5 0 S
1729.5 1031.25 0 31.5 S
1713.75 1047 31.5 0 S
1729.5 1029.75 0 31.5 S
1713.75 1045.5 31.5 0 S
1729.5 1028.25 0 31.5 S
1713.75 1044 31.5 0 S
1729.5 1027.75 0 31.5 S
1713.75 1043.5 31.5 0 S
1729.5 1026.75 0 31.5 S
1713.75 1042.5 31.5 0 S
1729.5 1025.75 0 31.5 S
1713.75 1041.5 31.5 0 S
1730 1024.75 0 31.5 S
1714.25 1040.5 31.5 0 S
1730 1023.75 0 31.5 S
1714.25 1039.5 31.5 0 S
1730 1023.25 0 31.5 S
1714.25 1039 31.5 0 S
1730 1021.75 0 31.5 S
1714.25 1037.5 31.5 0 S
1730 1020.75 0 31.5 S
1714.25 1036.5 31.5 0 S
1730.5 1019.25 0 31.5 S
1714.75 1035 31.5 0 S
1730.5 1018.75 0 31.5 S
1714.75 1034.5 31.5 0 S
1730.5 1018.25 0 31.5 S
1714.75 1034 31.5 0 S
1730.5 1017.75 0 31.5 S
1714.75 1033.5 31.5 0 S
1730.5 1017.25 0 31.5 S
1714.75 1033 31.5 0 S
1730.5 1016.25 0 31.5 S
1714.75 1032 31.5 0 S
1731 1014.75 0 31.5 S
1715.25 1030.5 31.5 0 S
1731 1013.75 0 31.5 S
1715.25 1029.5 31.5 0 S
1731 1013.25 0 31.5 S
1715.25 1029 31.5 0 S
1731 1011.75 0 31.5 S
1715.25 1027.5 31.5 0 S
1731 1010.75 0 31.5 S
1715.25 1026.5 31.5 0 S
1731.5 1009.75 0 31.5 S
1715.75 1025.5 31.5 0 S
1731.5 1009.25 0 31.5 S
1715.75 1025 31.5 0 S
1731.5 1007.75 0 31.5 S
1715.75 1023.5 31.5 0 S
1731.5 1006.75 0 31.5 S
1715.75 1022.5 31.5 0 S
1731.5 1006.25 0 31.5 S
1715.75 1022 31.5 0 S
1731.5 1005.75 0 31.5 S
1715.75 1021.5 31.5 0 S
1732 1004.75 0 31.5 S
1716.25 1020.5 31.5 0 S
1732 1003.25 0 31.5 S
1716.25 1019 31.5 0 S
1732 1003.25 0 31.5 S
1716.25 1019 31.5 0 S
1732 1002.75 0 31.5 S
1716.25 1018.5 31.5 0 S
1732 1002.25 0 31.5 S
1716.25 1018 31.5 0 S
1732 1001.25 0 31.5 S
1716.25 1017 31.5 0 S
1732.5 1000.75 0 31.5 S
1716.75 1016.5 31.5 0 S
1732.5 1000.75 0 31.5 S
1716.75 1016.5 31.5 0 S
1732.5 999.25 0 31.5 S
1716.75 1015 31.5 0 S
1732.5 998.75 0 31.5 S
1716.75 1014.5 31.5 0 S
1732.5 997.75 0 31.5 S
1716.75 1013.5 31.5 0 S
1733 997.25 0 31.5 S
1717.25 1013 31.5 0 S
1733 996.25 0 31.5 S
1717.25 1012 31.5 0 S
1733 994.75 0 31.5 S
1717.25 1010.5 31.5 0 S
1733 994.25 0 31.5 S
1717.25 1010 31.5 0 S
1733 993.25 0 31.5 S
1717.25 1009 31.5 0 S
1733 992.25 0 31.5 S
1717.25 1008 31.5 0 S
1733.5 991.75 0 31.5 S
1717.75 1007.5 31.5 0 S
1733.5 990.25 0 31.5 S
1717.75 1006 31.5 0 S
1733.5 989.75 0 31.5 S
1717.75 1005.5 31.5 0 S
1733.5 988.25 0 31.5 S
1717.75 1004 31.5 0 S
1733.5 987.75 0 31.5 S
1717.75 1003.5 31.5 0 S
1734 986.75 0 31.5 S
1718.25 1002.5 31.5 0 S
1734 985.75 0 31.5 S
1718.25 1001.5 31.5 0 S
1734 984.75 0 31.5 S
1718.25 1000.5 31.5 0 S
1734 983.75 0 31.5 S
1718.25 999.5 31.5 0 S
1734 982.75 0 31.5 S
1718.25 998.5 31.5 0 S
1734 982.75 0 31.5 S
1718.25 998.5 31.5 0 S
1734.5 981.75 0 31.5 S
1718.75 997.5 31.5 0 S
1734.5 980.75 0 31.5 S
1718.75 996.5 31.5 0 S
1734.5 979.75 0 31.5 S
1718.75 995.5 31.5 0 S
1734.5 978.25 0 31.5 S
1718.75 994 31.5 0 S
1734.5 977.75 0 31.5 S
1718.75 993.5 31.5 0 S
1735 976.75 0 31.5 S
1719.25 992.5 31.5 0 S
1735 975.75 0 31.5 S
1719.25 991.5 31.5 0 S
1735 974.75 0 31.5 S
1719.25 990.5 31.5 0 S
1735 974.25 0 31.5 S
1719.25 990 31.5 0 S
1735 972.75 0 31.5 S
1719.25 988.5 31.5 0 S
1735 971.25 0 31.5 S
1719.25 987 31.5 0 S
1735.5 970.25 0 31.5 S
1719.75 986 31.5 0 S
1735.5 969.75 0 31.5 S
1719.75 985.5 31.5 0 S
1735.5 968.75 0 31.5 S
1719.75 984.5 31.5 0 S
1735.5 968.25 0 31.5 S
1719.75 984 31.5 0 S
1735.5 967.25 0 31.5 S
1719.75 983 31.5 0 S
1736 965.25 0 31.5 S
1720.25 981 31.5 0 S
1736 964.25 0 31.5 S
1720.25 980 31.5 0 S
1736 963.25 0 31.5 S
1720.25 979 31.5 0 S
1736 962.25 0 31.5 S
1720.25 978 31.5 0 S
1736 961.25 0 31.5 S
1720.25 977 31.5 0 S
1736 959.75 0 31.5 S
1720.25 975.5 31.5 0 S
1736.5 958.25 0 31.5 S
1720.75 974 31.5 0 S
1736.5 957.25 0 31.5 S
1720.75 973 31.5 0 S
1736.5 955.75 0 31.5 S
1720.75 971.5 31.5 0 S
1736.5 954.25 0 31.5 S
1720.75 970 31.5 0 S
1736.5 953.25 0 31.5 S
1720.75 969 31.5 0 S
1736.5 952.25 0 31.5 S
1720.75 968 31.5 0 S
1737 950.75 0 31.5 S
1721.25 966.5 31.5 0 S
1737 950.25 0 31.5 S
1721.25 966 31.5 0 S
1737 948.75 0 31.5 S
1721.25 964.5 31.5 0 S
1737 946.75 0 31.5 S
1721.25 962.5 31.5 0 S
1737 945.25 0 31.5 S
1721.25 961 31.5 0 S
1737.5 943.75 0 31.5 S
1721.75 959.5 31.5 0 S
1737.5 942.75 0 31.5 S
1721.75 958.5 31.5 0 S
1737.5 940.75 0 31.5 S
1721.75 956.5 31.5 0 S
1737.5 940.25 0 31.5 S
1721.75 956 31.5 0 S
1737.5 938.75 0 31.5 S
1721.75 954.5 31.5 0 S
1737.5 937.75 0 31.5 S
1721.75 953.5 31.5 0 S
1738 935.75 0 31.5 S
1722.25 951.5 31.5 0 S
1738 934.75 0 31.5 S
1722.25 950.5 31.5 0 S
1738 933.25 0 31.5 S
1722.25 949 31.5 0 S
1738 931.75 0 31.5 S
1722.25 947.5 31.5 0 S
1738 931.25 0 31.5 S
1722.25 947 31.5 0 S
1738.5 929.75 0 31.5 S
1722.75 945.5 31.5 0 S
1738.5 928.75 0 31.5 S
1722.75 944.5 31.5 0 S
1738.5 926.25 0 31.5 S
1722.75 942 31.5 0 S
1738.5 924.75 0 31.5 S
1722.75 940.5 31.5 0 S
1738.5 923.25 0 31.5 S
1722.75 939 31.5 0 S
1738.5 921.25 0 31.5 S
1722.75 937 31.5 0 S
1739 919.25 0 31.5 S
1723.25 935 31.5 0 S
1739 917.75 0 31.5 S
1723.25 933.5 31.5 0 S
1739 915.75 0 31.5 S
1723.25 931.5 31.5 0 S
1739 914.75 0 31.5 S
1723.25 930.5 31.5 0 S
1739 912.75 0 31.5 S
1723.25 928.5 31.5 0 S
1739.5 911.75 0 31.5 S
1723.75 927.5 31.5 0 S
1739.5 909.75 0 31.5 S
1723.75 925.5 31.5 0 S
1739.5 908.25 0 31.5 S
1723.75 924 31.5 0 S
1739.5 906.75 0 31.5 S
1723.75 922.5 31.5 0 S
1739.5 905.25 0 31.5 S
1723.75 921 31.5 0 S
1739.5 903.75 0 31.5 S
1723.75 919.5 31.5 0 S
1740 901.25 0 31.5 S
1724.25 917 31.5 0 S
1740 898.75 0 31.5 S
1724.25 914.5 31.5 0 S
1740 896.75 0 31.5 S
1724.25 912.5 31.5 0 S
1740 894.75 0 31.5 S
1724.25 910.5 31.5 0 S
1740 892.75 0 31.5 S
1724.25 908.5 31.5 0 S
1740.5 890.25 0 31.5 S
1724.75 906 31.5 0 S
1740.5 888.25 0 31.5 S
1724.75 904 31.5 0 S
1740.5 885.75 0 31.5 S
1724.75 901.5 31.5 0 S
1740.5 883.25 0 31.5 S
1724.75 899 31.5 0 S
1740.5 881.25 0 31.5 S
1724.75 897 31.5 0 S
1740.5 879.75 0 31.5 S
1724.75 895.5 31.5 0 S
1741 878.25 0 31.5 S
1725.25 894 31.5 0 S
1741 875.75 0 31.5 S
1725.25 891.5 31.5 0 S
1741 874.25 0 31.5 S
1725.25 890 31.5 0 S
1741 872.25 0 31.5 S
1725.25 888 31.5 0 S
1741 869.75 0 31.5 S
1725.25 885.5 31.5 0 S
1741 867.25 0 31.5 S
1725.25 883 31.5 0 S
1741.5 865.25 0 31.5 S
1725.75 881 31.5 0 S
1741.5 863.25 0 31.5 S
1725.75 879 31.5 0 S
1741.5 860.75 0 31.5 S
1725.75 876.5 31.5 0 S
1741.5 858.25 0 31.5 S
1725.75 874 31.5 0 S
1741.5 856.25 0 31.5 S
1725.75 872 31.5 0 S
1742 854.25 0 31.5 S
1726.25 870 31.5 0 S
1742 852.25 0 31.5 S
1726.25 868 31.5 0 S
1742 849.25 0 31.5 S
1726.25 865 31.5 0 S
1742 846.25 0 31.5 S
1726.25 862 31.5 0 S
1742 844.75 0 31.5 S
1726.25 860.5 31.5 0 S
1742 842.75 0 31.5 S
1726.25 858.5 31.5 0 S
1742.5 840.75 0 31.5 S
1726.75 856.5 31.5 0 S
1742.5 837.75 0 31.5 S
1726.75 853.5 31.5 0 S
1742.5 835.25 0 31.5 S
1726.75 851 31.5 0 S
1742.5 833.25 0 31.5 S
1726.75 849 31.5 0 S
1742.5 830.25 0 31.5 S
1726.75 846 31.5 0 S
1743 828.25 0 31.5 S
1727.25 844 31.5 0 S
1743 825.25 0 31.5 S
1727.25 841 31.5 0 S
1743 823.25 0 31.5 S
1727.25 839 31.5 0 S
1743 819.75 0 31.5 S
1727.25 835.5 31.5 0 S
1743 817.25 0 31.5 S
1727.25 833 31.5 0 S
1743 814.75 0 31.5 S
1727.25 830.5 31.5 0 S
1743.5 812.75 0 31.5 S
1727.75 828.5 31.5 0 S
1743.5 810.25 0 31.5 S
1727.75 826 31.5 0 S
1743.5 808.25 0 31.5 S
1727.75 824 31.5 0 S
1743.5 806.25 0 31.5 S
1727.75 822 31.5 0 S
1743.5 804.25 0 31.5 S
1727.75 820 31.5 0 S
1744 801.75 0 31.5 S
1728.25 817.5 31.5 0 S
1744 798.75 0 31.5 S
1728.25 814.5 31.5 0 S
1744 796.25 0 31.5 S
1728.25 812 31.5 0 S
1744 793.25 0 31.5 S
1728.25 809 31.5 0 S
1744 791.25 0 31.5 S
1728.25 807 31.5 0 S
1744 789.75 0 31.5 S
1728.25 805.5 31.5 0 S
1744.5 787.75 0 31.5 S
1728.75 803.5 31.5 0 S
1744.5 784.75 0 31.5 S
1728.75 800.5 31.5 0 S
1744.5 781.75 0 31.5 S
1728.75 797.5 31.5 0 S
1744.5 779.75 0 31.5 S
1728.75 795.5 31.5 0 S
1744.5 777.25 0 31.5 S
1728.75 793 31.5 0 S
1745 776.25 0 31.5 S
1729.25 792 31.5 0 S
1745 773.25 0 31.5 S
1729.25 789 31.5 0 S
1745 771.25 0 31.5 S
1729.25 787 31.5 0 S
1745 768.25 0 31.5 S
1729.25 784 31.5 0 S
1745 765.75 0 31.5 S
1729.25 781.5 31.5 0 S
1745 764.25 0 31.5 S
1729.25 780 31.5 0 S
1745.5 761.25 0 31.5 S
1729.75 777 31.5 0 S
1745.5 759.25 0 31.5 S
1729.75 775 31.5 0 S
1745.5 757.25 0 31.5 S
1729.75 773 31.5 0 S
1745.5 755.25 0 31.5 S
1729.75 771 31.5 0 S
1745.5 752.75 0 31.5 S
1729.75 768.5 31.5 0 S
1745.5 750.25 0 31.5 S
1729.75 766 31.5 0 S
1746 748.25 0 31.5 S
1730.25 764 31.5 0 S
1746 746.25 0 31.5 S
1730.25 762 31.5 0 S
1746 743.75 0 31.5 S
1730.25 759.5 31.5 0 S
1746 742.25 0 31.5 S
1730.25 758 31.5 0 S
1746 740.25 0 31.5 S
1730.25 756 31.5 0 S
1746.5 739.25 0 31.5 S
1730.75 755 31.5 0 S
1746.5 737.25 0 31.5 S
1730.75 753 31.5 0 S
1746.5 734.75 0 31.5 S
1730.75 750.5 31.5 0 S
1746.5 732.75 0 31.5 S
1730.75 748.5 31.5 0 S
1746.5 729.75 0 31.5 S
1730.75 745.5 31.5 0 S
1746.5 727.25 0 31.5 S
1730.75 743 31.5 0 S
1747 725.75 0 31.5 S
1731.25 741.5 31.5 0 S
1747 723.25 0 31.5 S
1731.25 739 31.5 0 S
1747 721.25 0 31.5 S
1731.25 737 31.5 0 S
1747 720.25 0 31.5 S
1731.25 736 31.5 0 S
1747 718.25 0 31.5 S
1731.25 734 31.5 0 S
1747.5 716.25 0 31.5 S
1731.75 732 31.5 0 S
1747.5 712.75 0 31.5 S
1731.75 728.5 31.5 0 S
1747.5 711.25 0 31.5 S
1731.75 727 31.5 0 S
1747.5 709.25 0 31.5 S
1731.75 725 31.5 0 S
1747.5 707.75 0 31.5 S
1731.75 723.5 31.5 0 S
1747.5 705.75 0 31.5 S
1731.75 721.5 31.5 0 S
1748 703.25 0 31.5 S
1732.25 719 31.5 0 S
1748 700.25 0 31.5 S
1732.25 716 31.5 0 S
1748 697.75 0 31.5 S
1732.25 713.5 31.5 0 S
1748 696.25 0 31.5 S
1732.25 712 31.5 0 S
1748 694.75 0 31.5 S
1732.25 710.5 31.5 0 S
1748.5 693.25 0 31.5 S
1732.75 709 31.5 0 S
1748.5 691.75 0 31.5 S
1732.75 707.5 31.5 0 S
1748.5 689.25 0 31.5 S
1732.75 705 31.5 0 S
1748.5 687.25 0 31.5 S
1732.75 703 31.5 0 S
1748.5 685.25 0 31.5 S
1732.75 701 31.5 0 S
1748.5 682.75 0 31.5 S
1732.75 698.5 31.5 0 S
1749 681.25 0 31.5 S
1733.25 697 31.5 0 S
1749 679.25 0 31.5 S
1733.25 695 31.5 0 S
1749 677.75 0 31.5 S
1733.25 693.5 31.5 0 S
1749 675.75 0 31.5 S
1733.25 691.5 31.5 0 S
1749 674.25 0 31.5 S
1733.25 690 31.5 0 S
1749.5 672.25 0 31.5 S
1733.75 688 31.5 0 S
1749.5 670.25 0 31.5 S
1733.75 686 31.5 0 S
1749.5 668.75 0 31.5 S
1733.75 684.5 31.5 0 S
1749.5 667.25 0 31.5 S
1733.75 683 31.5 0 S
1749.5 665.75 0 31.5 S
1733.75 681.5 31.5 0 S
1749.5 663.25 0 31.5 S
1733.75 679 31.5 0 S
1750 662.25 0 31.5 S
1734.25 678 31.5 0 S
1750 660.75 0 31.5 S
1734.25 676.5 31.5 0 S
1750 659.75 0 31.5 S
1734.25 675.5 31.5 0 S
1750 658.75 0 31.5 S
1734.25 674.5 31.5 0 S
1750 657.25 0 31.5 S
1734.25 673 31.5 0 S
1750 655.25 0 31.5 S
1734.25 671 31.5 0 S
1750.5 654.25 0 31.5 S
1734.75 670 31.5 0 S
1750.5 653.25 0 31.5 S
1734.75 669 31.5 0 S
1750.5 651.25 0 31.5 S
1734.75 667 31.5 0 S
1750.5 649.25 0 31.5 S
1734.75 665 31.5 0 S
1750.5 648.25 0 31.5 S
1734.75 664 31.5 0 S
1751 647.25 0 31.5 S
1735.25 663 31.5 0 S
1751 645.75 0 31.5 S
1735.25 661.5 31.5 0 S
1751 644.25 0 31.5 S
1735.25 660 31.5 0 S
1751 643.75 0 31.5 S
1735.25 659.5 31.5 0 S
1751 642.25 0 31.5 S
1735.25 658 31.5 0 S
1751 641.25 0 31.5 S
1735.25 657 31.5 0 S
1751.5 640.25 0 31.5 S
1735.75 656 31.5 0 S
1751.5 639.25 0 31.5 S
1735.75 655 31.5 0 S
1751.5 638.75 0 31.5 S
1735.75 654.5 31.5 0 S
1751.5 637.25 0 31.5 S
1735.75 653 31.5 0 S
1751.5 635.75 0 31.5 S
1735.75 651.5 31.5 0 S
1752 634.25 0 31.5 S
1736.25 650 31.5 0 S
1752 633.75 0 31.5 S
1736.25 649.5 31.5 0 S
1752 632.25 0 31.5 S
1736.25 648 31.5 0 S
1752 630.75 0 31.5 S
1736.25 646.5 31.5 0 S
1752 629.25 0 31.5 S
1736.25 645 31.5 0 S
1752 627.75 0 31.5 S
1736.25 643.5 31.5 0 S
1752.5 626.75 0 31.5 S
1736.75 642.5 31.5 0 S
1752.5 625.75 0 31.5 S
1736.75 641.5 31.5 0 S
1752.5 624.75 0 31.5 S
1736.75 640.5 31.5 0 S
1752.5 623.25 0 31.5 S
1736.75 639 31.5 0 S
1752.5 622.25 0 31.5 S
1736.75 638 31.5 0 S
1753 621.25 0 31.5 S
1737.25 637 31.5 0 S
1753 620.25 0 31.5 S
1737.25 636 31.5 0 S
1753 619.75 0 31.5 S
1737.25 635.5 31.5 0 S
1753 618.75 0 31.5 S
1737.25 634.5 31.5 0 S
1753 617.75 0 31.5 S
1737.25 633.5 31.5 0 S
1753 617.25 0 31.5 S
1737.25 633 31.5 0 S
1753.5 616.75 0 31.5 S
1737.75 632.5 31.5 0 S
1753.5 615.75 0 31.5 S
1737.75 631.5 31.5 0 S
1753.5 614.25 0 31.5 S
1737.75 630 31.5 0 S
1753.5 612.75 0 31.5 S
1737.75 628.5 31.5 0 S
1753.5 611.75 0 31.5 S
1737.75 627.5 31.5 0 S
1754 610.75 0 31.5 S
1738.25 626.5 31.5 0 S
1754 609.75 0 31.5 S
1738.25 625.5 31.5 0 S
1754 608.75 0 31.5 S
1738.25 624.5 31.5 0 S
1754 608.25 0 31.5 S
1738.25 624 31.5 0 S
1754 607.75 0 31.5 S
1738.25 623.5 31.5 0 S
1754 607.25 0 31.5 S
1738.25 623 31.5 0 S
1754.5 606.25 0 31.5 S
1738.75 622 31.5 0 S
1754.5 605.75 0 31.5 S
1738.75 621.5 31.5 0 S
1754.5 604.75 0 31.5 S
1738.75 620.5 31.5 0 S
1754.5 603.75 0 31.5 S
1738.75 619.5 31.5 0 S
1754.5 603.25 0 31.5 S
1738.75 619 31.5 0 S
1754.5 602.75 0 31.5 S
1738.75 618.5 31.5 0 S
1755 601.75 0 31.5 S
1739.25 617.5 31.5 0 S
1755 601.25 0 31.5 S
1739.25 617 31.5 0 S
1755 600.75 0 31.5 S
1739.25 616.5 31.5 0 S
1755 600.25 0 31.5 S
1739.25 616 31.5 0 S
1755 599.75 0 31.5 S
1739.25 615.5 31.5 0 S
1755.5 598.75 0 31.5 S
1739.75 614.5 31.5 0 S
1755.5 598.25 0 31.5 S
1739.75 614 31.5 0 S
1755.5 597.75 0 31.5 S
1739.75 613.5 31.5 0 S
1755.5 597.75 0 31.5 S
1739.75 613.5 31.5 0 S
1755.5 596.75 0 31.5 S
1739.75 612.5 31.5 0 S
1755.5 595.75 0 31.5 S
1739.75 611.5 31.5 0 S
1756 595.75 0 31.5 S
1740.25 611.5 31.5 0 S
1756 595.25 0 31.5 S
1740.25 611 31.5 0 S
1756 594.75 0 31.5 S
1740.25 610.5 31.5 0 S
1756 594.75 0 31.5 S
1740.25 610.5 31.5 0 S
1756 593.75 0 31.5 S
1740.25 609.5 31.5 0 S
1756.5 593.25 0 31.5 S
1740.75 609 31.5 0 S
1756.5 592.25 0 31.5 S
1740.75 608 31.5 0 S
1756.5 592.25 0 31.5 S
1740.75 608 31.5 0 S
1756.5 592.25 0 31.5 S
1740.75 608 31.5 0 S
1756.5 591.75 0 31.5 S
1740.75 607.5 31.5 0 S
1756.5 591.25 0 31.5 S
1740.75 607 31.5 0 S
1757 591.25 0 31.5 S
1741.25 607 31.5 0 S
1757 590.75 0 31.5 S
1741.25 606.5 31.5 0 S
1757 590.25 0 31.5 S
1741.25 606 31.5 0 S
1757 589.75 0 31.5 S
1741.25 605.5 31.5 0 S
1757 589.75 0 31.5 S
1741.25 605.5 31.5 0 S
1757.5 589.25 0 31.5 S
1741.75 605 31.5 0 S
1757.5 589.25 0 31.5 S
1741.75 605 31.5 0 S
1757.5 588.75 0 31.5 S
1741.75 604.5 31.5 0 S
1757.5 588.75 0 31.5 S
1741.75 604.5 31.5 0 S
1757.5 588.25 0 31.5 S
1741.75 604 31.5 0 S
1758 588.25 0 31.5 S
1742.25 604 31.5 0 S
1758 588.25 0 31.5 S
1742.25 604 31.5 0 S
1758 587.75 0 31.5 S
1742.25 603.5 31.5 0 S
1758 587.25 0 31.5 S
1742.25 603 31.5 0 S
1758.5 587.25 0 31.5 S
1742.75 603 31.5 0 S
1758.5 586.75 0 31.5 S
1742.75 602.5 31.5 0 S
1758.5 586.25 0 31.5 S
1742.75 602 31.5 0 S
1758.5 586.25 0 31.5 S
1742.75 602 31.5 0 S
1759 586.25 0 31.5 S
1743.25 602 31.5 0 S
1759 586.25 0 31.5 S
1743.25 602 31.5 0 S
1759 586.25 0 31.5 S
1743.25 602 31.5 0 S
1759 585.75 0 31.5 S
1743.25 601.5 31.5 0 S
1759.5 585.75 0 31.5 S
1743.75 601.5 31.5 0 S
1759.5 585.75 0 31.5 S
1743.75 601.5 31.5 0 S
1759.5 585.75 0 31.5 S
1743.75 601.5 31.5 0 S
1760 585.25 0 31.5 S
1744.25 601 31.5 0 S
1760 585.25 0 31.5 S
1744.25 601 31.5 0 S
1760 585.25 0 31.5 S
1744.25 601 31.5 0 S
1760.5 584.75 0 31.5 S
1744.75 600.5 31.5 0 S
1760.5 584.75 0 31.5 S
1744.75 600.5 31.5 0 S
1760.5 584.25 0 31.5 S
1744.75 600 31.5 0 S
1761 584.25 0 31.5 S
1745.25 600 31.5 0 S
1761 584.25 0 31.5 S
1745.25 600 31.5 0 S
5 w
785 600 1080 560 re
S
cleartomark end end pagesave restore
 showpage
%%PageTrailer
%%Trailer
%%Pages: 1
