%!PS-Adobe-3.0 EPSF-3.0
%%BoundingBox: 62 52 194 119
%%HiResBoundingBox: 62.400000 52.900000 193.900000 118.300000
%.....................................
%%Creator: GPL Ghostscript 871 (epswrite)
%%CreationDate: 2012/01/28 17:04:59
%%DocumentData: Clean7Bit
%%LanguageLevel: 2
%%EndComments
%%BeginProlog
% This copyright applies to everything between here and the %%EndProlog:
% Copyright (C) 2010 Artifex Software, Inc.  All rights reserved.
%%BeginResource: procset GS_epswrite_2_0_1001 1.001 0
/GS_epswrite_2_0_1001 80 dict dup begin
/PageSize 2 array def/setpagesize{ PageSize aload pop 3 index eq exch
4 index eq and{ pop pop pop}{ PageSize dup  1
5 -1 roll put 0 4 -1 roll put dup null eq {false} {dup where} ifelse{ exch get exec}
{ pop/setpagedevice where
{ pop 1 dict dup /PageSize PageSize put setpagedevice}
{ /setpage where{ pop PageSize aload pop pageparams 3 {exch pop} repeat
setpage}if}ifelse}ifelse}ifelse} bind def
/!{bind def}bind def/#{load def}!/N/counttomark #
/rG{3{3 -1 roll 255 div}repeat setrgbcolor}!/G{255 div setgray}!/K{0 G}!
/r6{dup 3 -1 roll rG}!/r5{dup 3 1 roll rG}!/r3{dup rG}!
/w/setlinewidth #/J/setlinecap #
/j/setlinejoin #/M/setmiterlimit #/d/setdash #/i/setflat #
/m/moveto #/l/lineto #/c/rcurveto #
/p{N 2 idiv{N -2 roll rlineto}repeat}!
/P{N 0 gt{N -2 roll moveto p}if}!
/h{p closepath}!/H{P closepath}!
/lx{0 rlineto}!/ly{0 exch rlineto}!/v{0 0 6 2 roll c}!/y{2 copy c}!
/re{4 -2 roll m exch dup lx exch ly neg lx h}!
/^{3 index neg 3 index neg}!
/f{P fill}!/f*{P eofill}!/s{H stroke}!/S{P stroke}!
/q/gsave #/Q/grestore #/rf{re fill}!
/Y{P clip newpath}!/Y*{P eoclip newpath}!/rY{re Y}!
/|={pop exch 4 1 roll 1 array astore cvx 3 array astore cvx exch 1 index def exec}!
/|{exch string readstring |=}!
/+{dup type/nametype eq{2 index 7 add -3 bitshift 2 index mul}if}!
/@/currentfile #/${+ @ |}!
/B{{2 copy string{readstring pop}aload pop 4 array astore cvx
3 1 roll}repeat pop pop true}!
/Ix{[1 0 0 1 11 -2 roll exch neg exch neg]exch}!
/,{true exch Ix imagemask}!/If{false exch Ix imagemask}!/I{exch Ix image}!
/Ic{exch Ix false 3 colorimage}!
/F{/Columns counttomark 3 add -2 roll/Rows exch/K -1/BlackIs1 true>>
/CCITTFaxDecode filter}!/FX{<</EndOfBlock false F}!
/X{/ASCII85Decode filter}!/@X{@ X}!/&2{2 index 2 index}!
/@F{@ &2<<F}!/@C{@X &2 FX}!
/$X{+ @X |}!/&4{4 index 4 index}!/$F{+ @ &4<<F |}!/$C{+ @X &4 FX |}!
/IC{3 1 roll 10 dict begin 1{/ImageType/Interpolate/Decode/DataSource
/ImageMatrix/BitsPerComponent/Height/Width}{exch def}forall
currentdict end image}!
/~{@ read {pop} if}!
end def
%%EndResource
/pagesave null def
%%EndProlog
%%Page: 1 1
%%BeginPageSetup
GS_epswrite_2_0_1001 begin
/pagesave save store 197 dict begin
0.1 0.1 scale
%%EndPageSetup
gsave mark
Q q
0 0 250000 250000 re
Y
5 w
K
702.5 590 31.5 0 P
1872.5 590 -31.5 0 P
675.5 590 S
649 574 24 33 /3U
$C
-QF8ne"Tt:oUF>0ot#YQs8W,nXfqbA/ZlCbg4g:qTE~>
,
702.5 672.5 31.5 0 P
1872.5 672.5 -31.5 0 P
675.5 672.5 S
649 657 24 33 /6U
$C
-QE\>l-V,*&9#:sf`189D/d?oonA_5>^tZ2+N(t`~>
,
702.5 754.5 31.5 0 P
1872.5 754.5 -31.5 0 P
675.5 754.5 S
624 740 17 32 /3Y
$C
+i"'Ws8W*](WjZ;pV6~>
,
649 739 3U ,
702.5 837 31.5 0 P
1872.5 837 -31.5 0 P
675.5 837 S
624 822 3Y ,
649 821 6U ,
702.5 919 31.5 0 P
1872.5 919 -31.5 0 P
675.5 919 S
624 904 24 32 /6Y
$C
0H36C?Z1,TfQQ5/@D`QoL@9'80`Si<m4/St.b$<a'E~>
,
649 903 3U ,
702.5 1001.5 31.5 0 P
1872.5 1001.5 -31.5 0 P
675.5 1001.5 S
624 987 6Y ,
649 986 6U ,
702.5 1083.5 31.5 0 P
1872.5 1083.5 -31.5 0 P
675.5 1083.5 S
624 1068 24 33 /4C
$C
1_pXAKA@1'5mQkUs2WY>ao^l:F&Bhur58R3CV&/&'mg9):]~>
,
649 1068 3U ,
702.5 1166 31.5 0 P
1872.5 1166 -31.5 0 P
675.5 1166 S
624 1150 4C ,
649 1150 6U ,
702.5 590 0 31.5 P
702.5 1166 0 -31.5 P
702.5 545 S
695 529 3U ,
897.5 590 0 31.5 P
897.5 1166 0 -31.5 P
897.5 545 S
853 530 6Y ,
878 529 3U ,
903 529 3U ,
928 529 3U ,
1092.5 590 0 31.5 P
1092.5 1166 0 -31.5 P
1092.5 545 S
1048 530 24 32 /7C
$C
2*_-?>T<\ojkG3trqh-BpA9::pA5rFn*bK~>
,
1073 529 3U ,
1098 529 3U ,
1123 529 3U ,
1287.5 590 0 31.5 P
1287.5 1166 0 -31.5 P
1287.5 545 S
1243 529 24 33 /4G
$C
-QF8m3mfL'6+Xe6FMIj`lYD4k'p^oJE5LXRrKFkj>7E)'X&-Z`~>
,
1268 529 3U ,
1293 529 3U ,
1318 529 3U ,
1482.5 590 0 31.5 P
1482.5 1166 0 -31.5 P
1482.5 545 S
1438 529 24 33 /7G
$C
-QF8f#>U*Fi<Ri_l2Ue<95@shXAstcFA!YdH;4G>rNrfGfW/&HK`~>
,
1463 529 3U ,
1488 529 3U ,
1513 529 3U ,
1677.5 590 0 31.5 P
1677.5 1166 0 -31.5 P
1677.5 545 S
1620 530 3Y ,
1645 529 3U ,
1670 529 3U ,
1695 529 3U ,
1720 529 3U ,
1872.5 590 0 31.5 P
1872.5 1166 0 -31.5 P
1872.5 545 S
1815 530 3Y ,
1840 530 6Y ,
1865 529 3U ,
1890 529 3U ,
1915 529 3U ,
702.5 590 1170 576 re
S
2.5 w
702.5 821.25 0 31.5 S
686.75 837 31.5 0 S
704 590.75 0 31.5 S
688.25 606.5 31.5 0 S
708 590.75 0 31.5 S
692.25 606.5 31.5 0 S
716 590.75 0 31.5 S
700.25 606.5 31.5 0 S
868 590.75 0 31.5 S
852.25 606.5 31.5 0 S
999.5 590.75 0 31.5 S
983.75 606.5 31.5 0 S
1155.5 590.75 0 31.5 S
1139.75 606.5 31.5 0 S
1227 590.75 0 31.5 S
1211.25 606.5 31.5 0 S
1315.5 590.75 0 31.5 S
1299.75 606.5 31.5 0 S
1331.5 590.75 0 31.5 S
1315.75 606.5 31.5 0 S
1406.5 590.75 0 31.5 S
1390.75 606.5 31.5 0 S
1423.5 590.75 0 31.5 S
1407.75 606.5 31.5 0 S
1530 590.75 0 31.5 S
1514.25 606.5 31.5 0 S
1568 590.75 0 31.5 S
1552.25 606.5 31.5 0 S
1587 590.75 0 31.5 S
1571.25 606.5 31.5 0 S
1596 590.75 0 31.5 S
1580.25 606.5 31.5 0 S
1602.5 590.75 0 31.5 S
1586.75 606.5 31.5 0 S
1611.5 590.75 0 31.5 S
1595.75 606.5 31.5 0 S
1618 590.75 0 31.5 S
1602.25 606.5 31.5 0 S
1629 590.75 0 31.5 S
1613.25 606.5 31.5 0 S
1630.5 590.75 0 31.5 S
1614.75 606.5 31.5 0 S
1633 590.75 0 31.5 S
1617.25 606.5 31.5 0 S
1641 590.75 0 31.5 S
1625.25 606.5 31.5 0 S
1641.5 590.75 0 31.5 S
1625.75 606.5 31.5 0 S
1643.5 590.75 0 31.5 S
1627.75 606.5 31.5 0 S
1649 590.75 0 31.5 S
1633.25 606.5 31.5 0 S
1650.5 590.75 0 31.5 S
1634.75 606.5 31.5 0 S
1661 590.75 0 31.5 S
1645.25 606.5 31.5 0 S
1667.5 590.75 0 31.5 S
1651.75 606.5 31.5 0 S
1669 590.75 0 31.5 S
1653.25 606.5 31.5 0 S
1671 590.75 0 31.5 S
1655.25 606.5 31.5 0 S
1671 590.75 0 31.5 S
1655.25 606.5 31.5 0 S
1671.5 590.75 0 31.5 S
1655.75 606.5 31.5 0 S
1672 590.75 0 31.5 S
1656.25 606.5 31.5 0 S
1675 590.75 0 31.5 S
1659.25 606.5 31.5 0 S
1675 590.75 0 31.5 S
1659.25 606.5 31.5 0 S
1678.5 623.75 0 31.5 S
1662.75 639.5 31.5 0 S
1679.5 590.75 0 31.5 S
1663.75 606.5 31.5 0 S
1679.5 590.75 0 31.5 S
1663.75 606.5 31.5 0 S
1679.5 590.75 0 31.5 S
1663.75 606.5 31.5 0 S
1680 590.75 0 31.5 S
1664.25 606.5 31.5 0 S
1680 590.75 0 31.5 S
1664.25 606.5 31.5 0 S
1680.5 607.25 0 31.5 S
1664.75 623 31.5 0 S
1681 590.75 0 31.5 S
1665.25 606.5 31.5 0 S
1681.5 590.75 0 31.5 S
1665.75 606.5 31.5 0 S
1682 607.25 0 31.5 S
1666.25 623 31.5 0 S
1682 590.75 0 31.5 S
1666.25 606.5 31.5 0 S
1682.5 607.25 0 31.5 S
1666.75 623 31.5 0 S
1682.5 607.25 0 31.5 S
1666.75 623 31.5 0 S
1683 590.75 0 31.5 S
1667.25 606.5 31.5 0 S
1683 607.25 0 31.5 S
1667.25 623 31.5 0 S
1683.5 590.75 0 31.5 S
1667.75 606.5 31.5 0 S
1683.5 607.25 0 31.5 S
1667.75 623 31.5 0 S
1683.5 590.75 0 31.5 S
1667.75 606.5 31.5 0 S
1684 590.75 0 31.5 S
1668.25 606.5 31.5 0 S
1684 590.75 0 31.5 S
1668.25 606.5 31.5 0 S
1684 590.75 0 31.5 S
1668.25 606.5 31.5 0 S
1684.5 607.25 0 31.5 S
1668.75 623 31.5 0 S
1684.5 607.25 0 31.5 S
1668.75 623 31.5 0 S
1684.5 590.75 0 31.5 S
1668.75 606.5 31.5 0 S
1684.5 590.75 0 31.5 S
1668.75 606.5 31.5 0 S
1685 590.75 0 31.5 S
1669.25 606.5 31.5 0 S
1685 590.75 0 31.5 S
1669.25 606.5 31.5 0 S
1685 607.25 0 31.5 S
1669.25 623 31.5 0 S
1685.5 590.75 0 31.5 S
1669.75 606.5 31.5 0 S
1685.5 607.25 0 31.5 S
1669.75 623 31.5 0 S
1685.5 590.75 0 31.5 S
1669.75 606.5 31.5 0 S
1685.5 590.75 0 31.5 S
1669.75 606.5 31.5 0 S
1686 590.75 0 31.5 S
1670.25 606.5 31.5 0 S
1686 640.25 0 31.5 S
1670.25 656 31.5 0 S
1686 607.25 0 31.5 S
1670.25 623 31.5 0 S
1686 623.75 0 31.5 S
1670.25 639.5 31.5 0 S
1686 590.75 0 31.5 S
1670.25 606.5 31.5 0 S
1686.5 590.75 0 31.5 S
1670.75 606.5 31.5 0 S
1686.5 590.75 0 31.5 S
1670.75 606.5 31.5 0 S
1686.5 623.75 0 31.5 S
1670.75 639.5 31.5 0 S
1686.5 623.75 0 31.5 S
1670.75 639.5 31.5 0 S
1687 607.25 0 31.5 S
1671.25 623 31.5 0 S
1687 656.75 0 31.5 S
1671.25 672.5 31.5 0 S
1687 607.25 0 31.5 S
1671.25 623 31.5 0 S
1687 623.75 0 31.5 S
1671.25 639.5 31.5 0 S
1687.5 607.25 0 31.5 S
1671.75 623 31.5 0 S
1687.5 607.25 0 31.5 S
1671.75 623 31.5 0 S
1687.5 623.75 0 31.5 S
1671.75 639.5 31.5 0 S
1687.5 590.75 0 31.5 S
1671.75 606.5 31.5 0 S
1687.5 607.25 0 31.5 S
1671.75 623 31.5 0 S
1687.5 590.75 0 31.5 S
1671.75 606.5 31.5 0 S
1688 590.75 0 31.5 S
1672.25 606.5 31.5 0 S
1688 623.75 0 31.5 S
1672.25 639.5 31.5 0 S
1688 623.75 0 31.5 S
1672.25 639.5 31.5 0 S
1688 590.75 0 31.5 S
1672.25 606.5 31.5 0 S
1688 623.75 0 31.5 S
1672.25 639.5 31.5 0 S
1688.5 607.25 0 31.5 S
1672.75 623 31.5 0 S
1688.5 590.75 0 31.5 S
1672.75 606.5 31.5 0 S
1688.5 607.25 0 31.5 S
1672.75 623 31.5 0 S
1688.5 607.25 0 31.5 S
1672.75 623 31.5 0 S
1688.5 607.25 0 31.5 S
1672.75 623 31.5 0 S
1689 590.75 0 31.5 S
1673.25 606.5 31.5 0 S
1689 590.75 0 31.5 S
1673.25 606.5 31.5 0 S
1689 656.75 0 31.5 S
1673.25 672.5 31.5 0 S
1689 640.25 0 31.5 S
1673.25 656 31.5 0 S
1689 590.75 0 31.5 S
1673.25 606.5 31.5 0 S
1689.5 607.25 0 31.5 S
1673.75 623 31.5 0 S
1689.5 607.25 0 31.5 S
1673.75 623 31.5 0 S
1689.5 607.25 0 31.5 S
1673.75 623 31.5 0 S
1689.5 590.75 0 31.5 S
1673.75 606.5 31.5 0 S
1689.5 590.75 0 31.5 S
1673.75 606.5 31.5 0 S
1690 607.25 0 31.5 S
1674.25 623 31.5 0 S
1690 623.75 0 31.5 S
1674.25 639.5 31.5 0 S
1690 590.75 0 31.5 S
1674.25 606.5 31.5 0 S
1690 590.75 0 31.5 S
1674.25 606.5 31.5 0 S
1690.5 623.75 0 31.5 S
1674.75 639.5 31.5 0 S
1690.5 590.75 0 31.5 S
1674.75 606.5 31.5 0 S
1690.5 590.75 0 31.5 S
1674.75 606.5 31.5 0 S
1690.5 623.75 0 31.5 S
1674.75 639.5 31.5 0 S
1691 607.25 0 31.5 S
1675.25 623 31.5 0 S
1691 590.75 0 31.5 S
1675.25 606.5 31.5 0 S
1691 640.25 0 31.5 S
1675.25 656 31.5 0 S
1691 623.75 0 31.5 S
1675.25 639.5 31.5 0 S
1691 640.25 0 31.5 S
1675.25 656 31.5 0 S
1691.5 607.25 0 31.5 S
1675.75 623 31.5 0 S
1691.5 590.75 0 31.5 S
1675.75 606.5 31.5 0 S
1691.5 607.25 0 31.5 S
1675.75 623 31.5 0 S
1691.5 590.75 0 31.5 S
1675.75 606.5 31.5 0 S
1691.5 607.25 0 31.5 S
1675.75 623 31.5 0 S
1692 590.75 0 31.5 S
1676.25 606.5 31.5 0 S
1692 590.75 0 31.5 S
1676.25 606.5 31.5 0 S
1692 590.75 0 31.5 S
1676.25 606.5 31.5 0 S
1692 623.75 0 31.5 S
1676.25 639.5 31.5 0 S
1692 623.75 0 31.5 S
1676.25 639.5 31.5 0 S
1692.5 640.25 0 31.5 S
1676.75 656 31.5 0 S
1692.5 590.75 0 31.5 S
1676.75 606.5 31.5 0 S
1692.5 590.75 0 31.5 S
1676.75 606.5 31.5 0 S
1692.5 590.75 0 31.5 S
1676.75 606.5 31.5 0 S
1693 607.25 0 31.5 S
1677.25 623 31.5 0 S
1693 640.25 0 31.5 S
1677.25 656 31.5 0 S
1693 607.25 0 31.5 S
1677.25 623 31.5 0 S
1693 623.75 0 31.5 S
1677.25 639.5 31.5 0 S
1693 590.75 0 31.5 S
1677.25 606.5 31.5 0 S
1693.5 656.75 0 31.5 S
1677.75 672.5 31.5 0 S
1693.5 590.75 0 31.5 S
1677.75 606.5 31.5 0 S
1693.5 607.25 0 31.5 S
1677.75 623 31.5 0 S
1693.5 640.25 0 31.5 S
1677.75 656 31.5 0 S
1694 705.75 0 31.5 S
1678.25 721.5 31.5 0 S
1694 590.75 0 31.5 S
1678.25 606.5 31.5 0 S
1694 640.25 0 31.5 S
1678.25 656 31.5 0 S
1694.5 607.25 0 31.5 S
1678.75 623 31.5 0 S
1694.5 640.25 0 31.5 S
1678.75 656 31.5 0 S
1694.5 607.25 0 31.5 S
1678.75 623 31.5 0 S
1694.5 590.75 0 31.5 S
1678.75 606.5 31.5 0 S
1695 623.75 0 31.5 S
1679.25 639.5 31.5 0 S
1695 607.25 0 31.5 S
1679.25 623 31.5 0 S
1695 607.25 0 31.5 S
1679.25 623 31.5 0 S
1695 607.25 0 31.5 S
1679.25 623 31.5 0 S
1695 590.75 0 31.5 S
1679.25 606.5 31.5 0 S
1695 607.25 0 31.5 S
1679.25 623 31.5 0 S
1695.5 623.75 0 31.5 S
1679.75 639.5 31.5 0 S
1695.5 607.25 0 31.5 S
1679.75 623 31.5 0 S
1695.5 656.75 0 31.5 S
1679.75 672.5 31.5 0 S
1696 623.75 0 31.5 S
1680.25 639.5 31.5 0 S
1696 590.75 0 31.5 S
1680.25 606.5 31.5 0 S
1696 623.75 0 31.5 S
1680.25 639.5 31.5 0 S
1696 623.75 0 31.5 S
1680.25 639.5 31.5 0 S
1696 640.25 0 31.5 S
1680.25 656 31.5 0 S
1696.5 640.25 0 31.5 S
1680.75 656 31.5 0 S
1696.5 640.25 0 31.5 S
1680.75 656 31.5 0 S
1696.5 590.75 0 31.5 S
1680.75 606.5 31.5 0 S
1696.5 590.75 0 31.5 S
1680.75 606.5 31.5 0 S
1697 590.75 0 31.5 S
1681.25 606.5 31.5 0 S
1697 607.25 0 31.5 S
1681.25 623 31.5 0 S
1697 623.75 0 31.5 S
1681.25 639.5 31.5 0 S
1697 623.75 0 31.5 S
1681.25 639.5 31.5 0 S
1697 590.75 0 31.5 S
1681.25 606.5 31.5 0 S
1697.5 590.75 0 31.5 S
1681.75 606.5 31.5 0 S
1697.5 607.25 0 31.5 S
1681.75 623 31.5 0 S
1697.5 623.75 0 31.5 S
1681.75 639.5 31.5 0 S
1698 590.75 0 31.5 S
1682.25 606.5 31.5 0 S
1698.5 590.75 0 31.5 S
1682.75 606.5 31.5 0 S
1698.5 590.75 0 31.5 S
1682.75 606.5 31.5 0 S
1698.5 590.75 0 31.5 S
1682.75 606.5 31.5 0 S
1699 607.25 0 31.5 S
1683.25 623 31.5 0 S
1699 590.75 0 31.5 S
1683.25 606.5 31.5 0 S
1699 590.75 0 31.5 S
1683.25 606.5 31.5 0 S
1699.5 590.75 0 31.5 S
1683.75 606.5 31.5 0 S
1699.5 590.75 0 31.5 S
1683.75 606.5 31.5 0 S
1699.5 590.75 0 31.5 S
1683.75 606.5 31.5 0 S
1699.5 590.75 0 31.5 S
1683.75 606.5 31.5 0 S
1700 590.75 0 31.5 S
1684.25 606.5 31.5 0 S
1700 590.75 0 31.5 S
1684.25 606.5 31.5 0 S
1700.5 590.75 0 31.5 S
1684.75 606.5 31.5 0 S
1700.5 607.25 0 31.5 S
1684.75 623 31.5 0 S
1700.5 590.75 0 31.5 S
1684.75 606.5 31.5 0 S
1701 590.75 0 31.5 S
1685.25 606.5 31.5 0 S
1701 607.25 0 31.5 S
1685.25 623 31.5 0 S
1701.5 607.25 0 31.5 S
1685.75 623 31.5 0 S
1701.5 590.75 0 31.5 S
1685.75 606.5 31.5 0 S
1702 590.75 0 31.5 S
1686.25 606.5 31.5 0 S
1702 590.75 0 31.5 S
1686.25 606.5 31.5 0 S
1702.5 590.75 0 31.5 S
1686.75 606.5 31.5 0 S
1703 590.75 0 31.5 S
1687.25 606.5 31.5 0 S
1703.5 623.75 0 31.5 S
1687.75 639.5 31.5 0 S
1703.5 590.75 0 31.5 S
1687.75 606.5 31.5 0 S
1704 590.75 0 31.5 S
1688.25 606.5 31.5 0 S
1705 590.75 0 31.5 S
1689.25 606.5 31.5 0 S
1705 590.75 0 31.5 S
1689.25 606.5 31.5 0 S
1705.5 590.75 0 31.5 S
1689.75 606.5 31.5 0 S
1705.5 590.75 0 31.5 S
1689.75 606.5 31.5 0 S
1706.5 607.25 0 31.5 S
1690.75 623 31.5 0 S
1706.5 607.25 0 31.5 S
1690.75 623 31.5 0 S
1707 590.75 0 31.5 S
1691.25 606.5 31.5 0 S
1707 590.75 0 31.5 S
1691.25 606.5 31.5 0 S
1708 590.75 0 31.5 S
1692.25 606.5 31.5 0 S
1708.5 590.75 0 31.5 S
1692.75 606.5 31.5 0 S
1709.5 590.75 0 31.5 S
1693.75 606.5 31.5 0 S
1710 590.75 0 31.5 S
1694.25 606.5 31.5 0 S
1710.5 590.75 0 31.5 S
1694.75 606.5 31.5 0 S
1711 590.75 0 31.5 S
1695.25 606.5 31.5 0 S
1711.5 590.75 0 31.5 S
1695.75 606.5 31.5 0 S
1712.5 607.25 0 31.5 S
1696.75 623 31.5 0 S
1712.5 590.75 0 31.5 S
1696.75 606.5 31.5 0 S
1713 607.25 0 31.5 S
1697.25 623 31.5 0 S
1713 590.75 0 31.5 S
1697.25 606.5 31.5 0 S
1713.5 590.75 0 31.5 S
1697.75 606.5 31.5 0 S
1714 590.75 0 31.5 S
1698.25 606.5 31.5 0 S
1714 590.75 0 31.5 S
1698.25 606.5 31.5 0 S
1714.5 590.75 0 31.5 S
1698.75 606.5 31.5 0 S
1714.5 590.75 0 31.5 S
1698.75 606.5 31.5 0 S
1714.5 590.75 0 31.5 S
1698.75 606.5 31.5 0 S
1715 590.75 0 31.5 S
1699.25 606.5 31.5 0 S
1715 590.75 0 31.5 S
1699.25 606.5 31.5 0 S
1715 607.25 0 31.5 S
1699.25 623 31.5 0 S
1715.5 590.75 0 31.5 S
1699.75 606.5 31.5 0 S
1715.5 590.75 0 31.5 S
1699.75 606.5 31.5 0 S
1716 623.75 0 31.5 S
1700.25 639.5 31.5 0 S
1716 607.25 0 31.5 S
1700.25 623 31.5 0 S
1716 590.75 0 31.5 S
1700.25 606.5 31.5 0 S
1716 607.25 0 31.5 S
1700.25 623 31.5 0 S
1716.5 590.75 0 31.5 S
1700.75 606.5 31.5 0 S
1716.5 607.25 0 31.5 S
1700.75 623 31.5 0 S
1716.5 607.25 0 31.5 S
1700.75 623 31.5 0 S
1716.5 623.75 0 31.5 S
1700.75 639.5 31.5 0 S
1717 640.25 0 31.5 S
1701.25 656 31.5 0 S
1717.5 640.25 0 31.5 S
1701.75 656 31.5 0 S
1717.5 607.25 0 31.5 S
1701.75 623 31.5 0 S
1717.5 590.75 0 31.5 S
1701.75 606.5 31.5 0 S
1718 590.75 0 31.5 S
1702.25 606.5 31.5 0 S
1718 640.25 0 31.5 S
1702.25 656 31.5 0 S
1718 607.25 0 31.5 S
1702.25 623 31.5 0 S
1718 607.25 0 31.5 S
1702.25 623 31.5 0 S
1718 623.75 0 31.5 S
1702.25 639.5 31.5 0 S
1718.5 623.75 0 31.5 S
1702.75 639.5 31.5 0 S
1718.5 590.75 0 31.5 S
1702.75 606.5 31.5 0 S
1718.5 623.75 0 31.5 S
1702.75 639.5 31.5 0 S
1718.5 607.25 0 31.5 S
1702.75 623 31.5 0 S
1718.5 623.75 0 31.5 S
1702.75 639.5 31.5 0 S
1718.5 590.75 0 31.5 S
1702.75 606.5 31.5 0 S
1719 590.75 0 31.5 S
1703.25 606.5 31.5 0 S
1719 640.25 0 31.5 S
1703.25 656 31.5 0 S
1719 607.25 0 31.5 S
1703.25 623 31.5 0 S
1719 640.25 0 31.5 S
1703.25 656 31.5 0 S
1719 623.75 0 31.5 S
1703.25 639.5 31.5 0 S
1719.5 623.75 0 31.5 S
1703.75 639.5 31.5 0 S
1719.5 607.25 0 31.5 S
1703.75 623 31.5 0 S
1719.5 623.75 0 31.5 S
1703.75 639.5 31.5 0 S
1719.5 705.75 0 31.5 S
1703.75 721.5 31.5 0 S
1719.5 607.25 0 31.5 S
1703.75 623 31.5 0 S
1720 607.25 0 31.5 S
1704.25 623 31.5 0 S
1720 623.75 0 31.5 S
1704.25 639.5 31.5 0 S
1720 607.25 0 31.5 S
1704.25 623 31.5 0 S
1720 607.25 0 31.5 S
1704.25 623 31.5 0 S
1720 640.25 0 31.5 S
1704.25 656 31.5 0 S
1720.5 656.75 0 31.5 S
1704.75 672.5 31.5 0 S
1720.5 640.25 0 31.5 S
1704.75 656 31.5 0 S
1720.5 607.25 0 31.5 S
1704.75 623 31.5 0 S
1720.5 607.25 0 31.5 S
1704.75 623 31.5 0 S
1721 623.75 0 31.5 S
1705.25 639.5 31.5 0 S
1721 607.25 0 31.5 S
1705.25 623 31.5 0 S
1721 623.75 0 31.5 S
1705.25 639.5 31.5 0 S
1721 623.75 0 31.5 S
1705.25 639.5 31.5 0 S
1721 607.25 0 31.5 S
1705.25 623 31.5 0 S
1721.5 607.25 0 31.5 S
1705.75 623 31.5 0 S
1721.5 640.25 0 31.5 S
1705.75 656 31.5 0 S
1721.5 689.25 0 31.5 S
1705.75 705 31.5 0 S
1721.5 722.25 0 31.5 S
1705.75 738 31.5 0 S
1721.5 623.75 0 31.5 S
1705.75 639.5 31.5 0 S
1722 607.25 0 31.5 S
1706.25 623 31.5 0 S
1722 607.25 0 31.5 S
1706.25 623 31.5 0 S
1722 672.75 0 31.5 S
1706.25 688.5 31.5 0 S
1722 623.75 0 31.5 S
1706.25 639.5 31.5 0 S
1722 689.25 0 31.5 S
1706.25 705 31.5 0 S
1722.5 640.25 0 31.5 S
1706.75 656 31.5 0 S
1722.5 590.75 0 31.5 S
1706.75 606.5 31.5 0 S
1722.5 590.75 0 31.5 S
1706.75 606.5 31.5 0 S
1722.5 623.75 0 31.5 S
1706.75 639.5 31.5 0 S
1722.5 607.25 0 31.5 S
1706.75 623 31.5 0 S
1722.5 607.25 0 31.5 S
1706.75 623 31.5 0 S
1723 640.25 0 31.5 S
1707.25 656 31.5 0 S
1723 590.75 0 31.5 S
1707.25 606.5 31.5 0 S
1723 656.75 0 31.5 S
1707.25 672.5 31.5 0 S
1723 656.75 0 31.5 S
1707.25 672.5 31.5 0 S
1723 640.25 0 31.5 S
1707.25 656 31.5 0 S
1723.5 672.75 0 31.5 S
1707.75 688.5 31.5 0 S
1723.5 590.75 0 31.5 S
1707.75 606.5 31.5 0 S
1723.5 590.75 0 31.5 S
1707.75 606.5 31.5 0 S
1723.5 656.75 0 31.5 S
1707.75 672.5 31.5 0 S
1723.5 656.75 0 31.5 S
1707.75 672.5 31.5 0 S
1724 607.25 0 31.5 S
1708.25 623 31.5 0 S
1724 689.25 0 31.5 S
1708.25 705 31.5 0 S
1724 672.75 0 31.5 S
1708.25 688.5 31.5 0 S
1724 672.75 0 31.5 S
1708.25 688.5 31.5 0 S
1724 656.75 0 31.5 S
1708.25 672.5 31.5 0 S
1724.5 656.75 0 31.5 S
1708.75 672.5 31.5 0 S
1724.5 672.75 0 31.5 S
1708.75 688.5 31.5 0 S
1724.5 656.75 0 31.5 S
1708.75 672.5 31.5 0 S
1724.5 640.25 0 31.5 S
1708.75 656 31.5 0 S
1724.5 656.75 0 31.5 S
1708.75 672.5 31.5 0 S
1725 771.75 0 31.5 S
1709.25 787.5 31.5 0 S
1725 722.25 0 31.5 S
1709.25 738 31.5 0 S
1725 705.75 0 31.5 S
1709.25 721.5 31.5 0 S
1725 656.75 0 31.5 S
1709.25 672.5 31.5 0 S
1725 656.75 0 31.5 S
1709.25 672.5 31.5 0 S
1725.5 738.75 0 31.5 S
1709.75 754.5 31.5 0 S
1725.5 705.75 0 31.5 S
1709.75 721.5 31.5 0 S
1725.5 640.25 0 31.5 S
1709.75 656 31.5 0 S
1725.5 722.25 0 31.5 S
1709.75 738 31.5 0 S
1725.5 640.25 0 31.5 S
1709.75 656 31.5 0 S
1726 672.75 0 31.5 S
1710.25 688.5 31.5 0 S
1726 705.75 0 31.5 S
1710.25 721.5 31.5 0 S
1726 656.75 0 31.5 S
1710.25 672.5 31.5 0 S
1726 656.75 0 31.5 S
1710.25 672.5 31.5 0 S
1726 705.75 0 31.5 S
1710.25 721.5 31.5 0 S
1726.5 656.75 0 31.5 S
1710.75 672.5 31.5 0 S
1726.5 755.25 0 31.5 S
1710.75 771 31.5 0 S
1726.5 722.25 0 31.5 S
1710.75 738 31.5 0 S
1726.5 722.25 0 31.5 S
1710.75 738 31.5 0 S
1726.5 689.25 0 31.5 S
1710.75 705 31.5 0 S
1726.5 689.25 0 31.5 S
1710.75 705 31.5 0 S
1727 623.75 0 31.5 S
1711.25 639.5 31.5 0 S
1727 656.75 0 31.5 S
1711.25 672.5 31.5 0 S
1727 623.75 0 31.5 S
1711.25 639.5 31.5 0 S
1727 755.25 0 31.5 S
1711.25 771 31.5 0 S
1727 771.75 0 31.5 S
1711.25 787.5 31.5 0 S
1727.5 656.75 0 31.5 S
1711.75 672.5 31.5 0 S
1727.5 722.25 0 31.5 S
1711.75 738 31.5 0 S
1727.5 689.25 0 31.5 S
1711.75 705 31.5 0 S
1727.5 738.75 0 31.5 S
1711.75 754.5 31.5 0 S
1727.5 689.25 0 31.5 S
1711.75 705 31.5 0 S
1728 672.75 0 31.5 S
1712.25 688.5 31.5 0 S
1728 672.75 0 31.5 S
1712.25 688.5 31.5 0 S
1728 623.75 0 31.5 S
1712.25 639.5 31.5 0 S
1728 656.75 0 31.5 S
1712.25 672.5 31.5 0 S
1728 689.25 0 31.5 S
1712.25 705 31.5 0 S
1728.5 672.75 0 31.5 S
1712.75 688.5 31.5 0 S
1728.5 722.25 0 31.5 S
1712.75 738 31.5 0 S
1728.5 623.75 0 31.5 S
1712.75 639.5 31.5 0 S
1728.5 689.25 0 31.5 S
1712.75 705 31.5 0 S
1728.5 689.25 0 31.5 S
1712.75 705 31.5 0 S
1729 672.75 0 31.5 S
1713.25 688.5 31.5 0 S
1729 590.75 0 31.5 S
1713.25 606.5 31.5 0 S
1729 689.25 0 31.5 S
1713.25 705 31.5 0 S
1729 689.25 0 31.5 S
1713.25 705 31.5 0 S
1729 705.75 0 31.5 S
1713.25 721.5 31.5 0 S
1729.5 689.25 0 31.5 S
1713.75 705 31.5 0 S
1729.5 672.75 0 31.5 S
1713.75 688.5 31.5 0 S
1729.5 755.25 0 31.5 S
1713.75 771 31.5 0 S
1729.5 640.25 0 31.5 S
1713.75 656 31.5 0 S
1729.5 705.75 0 31.5 S
1713.75 721.5 31.5 0 S
1730 705.75 0 31.5 S
1714.25 721.5 31.5 0 S
1730 705.75 0 31.5 S
1714.25 721.5 31.5 0 S
1730 722.25 0 31.5 S
1714.25 738 31.5 0 S
1730 705.75 0 31.5 S
1714.25 721.5 31.5 0 S
1730 804.75 0 31.5 S
1714.25 820.5 31.5 0 S
1730 656.75 0 31.5 S
1714.25 672.5 31.5 0 S
1730.5 755.25 0 31.5 S
1714.75 771 31.5 0 S
1730.5 672.75 0 31.5 S
1714.75 688.5 31.5 0 S
1730.5 672.75 0 31.5 S
1714.75 688.5 31.5 0 S
1730.5 738.75 0 31.5 S
1714.75 754.5 31.5 0 S
1730.5 656.75 0 31.5 S
1714.75 672.5 31.5 0 S
1731 640.25 0 31.5 S
1715.25 656 31.5 0 S
1731 672.75 0 31.5 S
1715.25 688.5 31.5 0 S
1731 672.75 0 31.5 S
1715.25 688.5 31.5 0 S
1731 722.25 0 31.5 S
1715.25 738 31.5 0 S
1731 755.25 0 31.5 S
1715.25 771 31.5 0 S
1731.5 722.25 0 31.5 S
1715.75 738 31.5 0 S
1731.5 755.25 0 31.5 S
1715.75 771 31.5 0 S
1731.5 738.75 0 31.5 S
1715.75 754.5 31.5 0 S
1731.5 689.25 0 31.5 S
1715.75 705 31.5 0 S
1731.5 672.75 0 31.5 S
1715.75 688.5 31.5 0 S
1732 837.75 0 31.5 S
1716.25 853.5 31.5 0 S
1732 705.75 0 31.5 S
1716.25 721.5 31.5 0 S
1732 755.25 0 31.5 S
1716.25 771 31.5 0 S
1732 771.75 0 31.5 S
1716.25 787.5 31.5 0 S
1732 640.25 0 31.5 S
1716.25 656 31.5 0 S
1732.5 672.75 0 31.5 S
1716.75 688.5 31.5 0 S
1732.5 738.75 0 31.5 S
1716.75 754.5 31.5 0 S
1732.5 837.75 0 31.5 S
1716.75 853.5 31.5 0 S
1732.5 738.75 0 31.5 S
1716.75 754.5 31.5 0 S
1732.5 788.25 0 31.5 S
1716.75 804 31.5 0 S
1733 672.75 0 31.5 S
1717.25 688.5 31.5 0 S
1733 722.25 0 31.5 S
1717.25 738 31.5 0 S
1733 821.25 0 31.5 S
1717.25 837 31.5 0 S
1733 788.25 0 31.5 S
1717.25 804 31.5 0 S
1733 755.25 0 31.5 S
1717.25 771 31.5 0 S
1733.5 804.75 0 31.5 S
1717.75 820.5 31.5 0 S
1733.5 804.75 0 31.5 S
1717.75 820.5 31.5 0 S
1733.5 755.25 0 31.5 S
1717.75 771 31.5 0 S
1733.5 821.25 0 31.5 S
1717.75 837 31.5 0 S
1733.5 722.25 0 31.5 S
1717.75 738 31.5 0 S
1734 689.25 0 31.5 S
1718.25 705 31.5 0 S
1734 705.75 0 31.5 S
1718.25 721.5 31.5 0 S
1734 804.75 0 31.5 S
1718.25 820.5 31.5 0 S
1734 804.75 0 31.5 S
1718.25 820.5 31.5 0 S
1734 837.75 0 31.5 S
1718.25 853.5 31.5 0 S
1734 689.25 0 31.5 S
1718.25 705 31.5 0 S
1734.5 870.25 0 31.5 S
1718.75 886 31.5 0 S
1734.5 804.75 0 31.5 S
1718.75 820.5 31.5 0 S
1734.5 738.75 0 31.5 S
1718.75 754.5 31.5 0 S
1734.5 771.75 0 31.5 S
1718.75 787.5 31.5 0 S
1734.5 821.25 0 31.5 S
1718.75 837 31.5 0 S
1735 755.25 0 31.5 S
1719.25 771 31.5 0 S
1735 722.25 0 31.5 S
1719.25 738 31.5 0 S
1735 788.25 0 31.5 S
1719.25 804 31.5 0 S
1735 738.75 0 31.5 S
1719.25 754.5 31.5 0 S
1735 804.75 0 31.5 S
1719.25 820.5 31.5 0 S
1735.5 755.25 0 31.5 S
1719.75 771 31.5 0 S
1735.5 854.25 0 31.5 S
1719.75 870 31.5 0 S
1735.5 870.25 0 31.5 S
1719.75 886 31.5 0 S
1735.5 788.25 0 31.5 S
1719.75 804 31.5 0 S
1735.5 886.75 0 31.5 S
1719.75 902.5 31.5 0 S
1736 821.25 0 31.5 S
1720.25 837 31.5 0 S
1736 837.75 0 31.5 S
1720.25 853.5 31.5 0 S
1736 755.25 0 31.5 S
1720.25 771 31.5 0 S
1736 722.25 0 31.5 S
1720.25 738 31.5 0 S
1736 886.75 0 31.5 S
1720.25 902.5 31.5 0 S
1736.5 771.75 0 31.5 S
1720.75 787.5 31.5 0 S
1736.5 771.75 0 31.5 S
1720.75 787.5 31.5 0 S
1736.5 854.25 0 31.5 S
1720.75 870 31.5 0 S
1736.5 771.75 0 31.5 S
1720.75 787.5 31.5 0 S
1736.5 870.25 0 31.5 S
1720.75 886 31.5 0 S
1737 870.25 0 31.5 S
1721.25 886 31.5 0 S
1737 952.75 0 31.5 S
1721.25 968.5 31.5 0 S
1737 936.25 0 31.5 S
1721.25 952 31.5 0 S
1737 903.25 0 31.5 S
1721.25 919 31.5 0 S
1737 952.75 0 31.5 S
1721.25 968.5 31.5 0 S
1737.5 903.25 0 31.5 S
1721.75 919 31.5 0 S
1737.5 936.25 0 31.5 S
1721.75 952 31.5 0 S
1737.5 969.25 0 31.5 S
1721.75 985 31.5 0 S
1737.5 886.75 0 31.5 S
1721.75 902.5 31.5 0 S
1737.5 1002.25 0 31.5 S
1721.75 1018 31.5 0 S
1738 919.75 0 31.5 S
1722.25 935.5 31.5 0 S
1738 870.25 0 31.5 S
1722.25 886 31.5 0 S
1738 821.25 0 31.5 S
1722.25 837 31.5 0 S
1738 919.75 0 31.5 S
1722.25 935.5 31.5 0 S
1738 788.25 0 31.5 S
1722.25 804 31.5 0 S
1738 886.75 0 31.5 S
1722.25 902.5 31.5 0 S
1738.5 870.25 0 31.5 S
1722.75 886 31.5 0 S
1738.5 985.75 0 31.5 S
1722.75 1001.5 31.5 0 S
1738.5 903.25 0 31.5 S
1722.75 919 31.5 0 S
1738.5 903.25 0 31.5 S
1722.75 919 31.5 0 S
1738.5 1035.25 0 31.5 S
1722.75 1051 31.5 0 S
1739 952.75 0 31.5 S
1723.25 968.5 31.5 0 S
1739 1002.25 0 31.5 S
1723.25 1018 31.5 0 S
1739 837.75 0 31.5 S
1723.25 853.5 31.5 0 S
1739 936.25 0 31.5 S
1723.25 952 31.5 0 S
1739 969.25 0 31.5 S
1723.25 985 31.5 0 S
1739.5 1035.25 0 31.5 S
1723.75 1051 31.5 0 S
1739.5 870.25 0 31.5 S
1723.75 886 31.5 0 S
1739.5 903.25 0 31.5 S
1723.75 919 31.5 0 S
1739.5 919.75 0 31.5 S
1723.75 935.5 31.5 0 S
1739.5 969.25 0 31.5 S
1723.75 985 31.5 0 S
1740 952.75 0 31.5 S
1724.25 968.5 31.5 0 S
1740 936.25 0 31.5 S
1724.25 952 31.5 0 S
1740 969.25 0 31.5 S
1724.25 985 31.5 0 S
1740 886.75 0 31.5 S
1724.25 902.5 31.5 0 S
1740 1035.25 0 31.5 S
1724.25 1051 31.5 0 S
1740.5 952.75 0 31.5 S
1724.75 968.5 31.5 0 S
1740.5 1117.25 0 31.5 S
1724.75 1133 31.5 0 S
1740.5 952.75 0 31.5 S
1724.75 968.5 31.5 0 S
1740.5 952.75 0 31.5 S
1724.75 968.5 31.5 0 S
1740.5 903.25 0 31.5 S
1724.75 919 31.5 0 S
1741 854.25 0 31.5 S
1725.25 870 31.5 0 S
1741 919.75 0 31.5 S
1725.25 935.5 31.5 0 S
1741 870.25 0 31.5 S
1725.25 886 31.5 0 S
1741 903.25 0 31.5 S
1725.25 919 31.5 0 S
1741 985.75 0 31.5 S
1725.25 1001.5 31.5 0 S
1741.5 1002.25 0 31.5 S
1725.75 1018 31.5 0 S
1741.5 985.75 0 31.5 S
1725.75 1001.5 31.5 0 S
1741.5 985.75 0 31.5 S
1725.75 1001.5 31.5 0 S
1741.5 870.25 0 31.5 S
1725.75 886 31.5 0 S
1741.5 804.75 0 31.5 S
1725.75 820.5 31.5 0 S
1742 886.75 0 31.5 S
1726.25 902.5 31.5 0 S
1742 985.75 0 31.5 S
1726.25 1001.5 31.5 0 S
1742 1035.25 0 31.5 S
1726.25 1051 31.5 0 S
1742 886.75 0 31.5 S
1726.25 902.5 31.5 0 S
1742 919.75 0 31.5 S
1726.25 935.5 31.5 0 S
1742 738.75 0 31.5 S
1726.25 754.5 31.5 0 S
1742.5 1035.25 0 31.5 S
1726.75 1051 31.5 0 S
1742.5 870.25 0 31.5 S
1726.75 886 31.5 0 S
1742.5 1002.25 0 31.5 S
1726.75 1018 31.5 0 S
1742.5 919.75 0 31.5 S
1726.75 935.5 31.5 0 S
1742.5 870.25 0 31.5 S
1726.75 886 31.5 0 S
1743 969.25 0 31.5 S
1727.25 985 31.5 0 S
1743 870.25 0 31.5 S
1727.25 886 31.5 0 S
1743 919.75 0 31.5 S
1727.25 935.5 31.5 0 S
1743 821.25 0 31.5 S
1727.25 837 31.5 0 S
1743 985.75 0 31.5 S
1727.25 1001.5 31.5 0 S
1743.5 936.25 0 31.5 S
1727.75 952 31.5 0 S
1743.5 870.25 0 31.5 S
1727.75 886 31.5 0 S
1743.5 854.25 0 31.5 S
1727.75 870 31.5 0 S
1743.5 903.25 0 31.5 S
1727.75 919 31.5 0 S
1743.5 854.25 0 31.5 S
1727.75 870 31.5 0 S
1744 804.75 0 31.5 S
1728.25 820.5 31.5 0 S
1744 821.25 0 31.5 S
1728.25 837 31.5 0 S
1744 837.75 0 31.5 S
1728.25 853.5 31.5 0 S
1744 936.25 0 31.5 S
1728.25 952 31.5 0 S
1744 854.25 0 31.5 S
1728.25 870 31.5 0 S
1744.5 1002.25 0 31.5 S
1728.75 1018 31.5 0 S
1744.5 903.25 0 31.5 S
1728.75 919 31.5 0 S
1744.5 771.75 0 31.5 S
1728.75 787.5 31.5 0 S
1744.5 936.25 0 31.5 S
1728.75 952 31.5 0 S
1744.5 886.75 0 31.5 S
1728.75 902.5 31.5 0 S
1745 705.75 0 31.5 S
1729.25 721.5 31.5 0 S
1745 886.75 0 31.5 S
1729.25 902.5 31.5 0 S
1745 854.25 0 31.5 S
1729.25 870 31.5 0 S
1745 1084.25 0 31.5 S
1729.25 1100 31.5 0 S
1745 804.75 0 31.5 S
1729.25 820.5 31.5 0 S
1745.5 870.25 0 31.5 S
1729.75 886 31.5 0 S
1745.5 788.25 0 31.5 S
1729.75 804 31.5 0 S
1745.5 870.25 0 31.5 S
1729.75 886 31.5 0 S
1745.5 936.25 0 31.5 S
1729.75 952 31.5 0 S
1745.5 1018.75 0 31.5 S
1729.75 1034.5 31.5 0 S
1746 886.75 0 31.5 S
1730.25 902.5 31.5 0 S
1746 788.25 0 31.5 S
1730.25 804 31.5 0 S
1746 821.25 0 31.5 S
1730.25 837 31.5 0 S
1746 804.75 0 31.5 S
1730.25 820.5 31.5 0 S
1746 755.25 0 31.5 S
1730.25 771 31.5 0 S
1746 854.25 0 31.5 S
1730.25 870 31.5 0 S
1746.5 903.25 0 31.5 S
1730.75 919 31.5 0 S
1746.5 804.75 0 31.5 S
1730.75 820.5 31.5 0 S
1746.5 936.25 0 31.5 S
1730.75 952 31.5 0 S
1746.5 788.25 0 31.5 S
1730.75 804 31.5 0 S
1746.5 854.25 0 31.5 S
1730.75 870 31.5 0 S
1747 722.25 0 31.5 S
1731.25 738 31.5 0 S
1747 821.25 0 31.5 S
1731.25 837 31.5 0 S
1747 837.75 0 31.5 S
1731.25 853.5 31.5 0 S
1747 854.25 0 31.5 S
1731.25 870 31.5 0 S
1747 854.25 0 31.5 S
1731.25 870 31.5 0 S
1747.5 804.75 0 31.5 S
1731.75 820.5 31.5 0 S
1747.5 771.75 0 31.5 S
1731.75 787.5 31.5 0 S
1747.5 804.75 0 31.5 S
1731.75 820.5 31.5 0 S
1747.5 936.25 0 31.5 S
1731.75 952 31.5 0 S
1747.5 738.75 0 31.5 S
1731.75 754.5 31.5 0 S
1748 755.25 0 31.5 S
1732.25 771 31.5 0 S
1748 738.75 0 31.5 S
1732.25 754.5 31.5 0 S
1748 705.75 0 31.5 S
1732.25 721.5 31.5 0 S
1748 771.75 0 31.5 S
1732.25 787.5 31.5 0 S
1748 821.25 0 31.5 S
1732.25 837 31.5 0 S
1748.5 722.25 0 31.5 S
1732.75 738 31.5 0 S
1748.5 755.25 0 31.5 S
1732.75 771 31.5 0 S
1748.5 804.75 0 31.5 S
1732.75 820.5 31.5 0 S
1748.5 837.75 0 31.5 S
1732.75 853.5 31.5 0 S
1748.5 738.75 0 31.5 S
1732.75 754.5 31.5 0 S
1749 722.25 0 31.5 S
1733.25 738 31.5 0 S
1749 722.25 0 31.5 S
1733.25 738 31.5 0 S
1749 738.75 0 31.5 S
1733.25 754.5 31.5 0 S
1749 672.75 0 31.5 S
1733.25 688.5 31.5 0 S
1749 788.25 0 31.5 S
1733.25 804 31.5 0 S
1749.5 656.75 0 31.5 S
1733.75 672.5 31.5 0 S
1749.5 705.75 0 31.5 S
1733.75 721.5 31.5 0 S
1749.5 689.25 0 31.5 S
1733.75 705 31.5 0 S
1749.5 672.75 0 31.5 S
1733.75 688.5 31.5 0 S
1749.5 788.25 0 31.5 S
1733.75 804 31.5 0 S
1749.5 738.75 0 31.5 S
1733.75 754.5 31.5 0 S
1750 755.25 0 31.5 S
1734.25 771 31.5 0 S
1750 705.75 0 31.5 S
1734.25 721.5 31.5 0 S
1750 755.25 0 31.5 S
1734.25 771 31.5 0 S
1750 804.75 0 31.5 S
1734.25 820.5 31.5 0 S
1750 755.25 0 31.5 S
1734.25 771 31.5 0 S
1750.5 788.25 0 31.5 S
1734.75 804 31.5 0 S
1750.5 689.25 0 31.5 S
1734.75 705 31.5 0 S
1750.5 722.25 0 31.5 S
1734.75 738 31.5 0 S
1750.5 722.25 0 31.5 S
1734.75 738 31.5 0 S
1750.5 738.75 0 31.5 S
1734.75 754.5 31.5 0 S
1751 722.25 0 31.5 S
1735.25 738 31.5 0 S
1751 738.75 0 31.5 S
1735.25 754.5 31.5 0 S
1751 656.75 0 31.5 S
1735.25 672.5 31.5 0 S
1751 689.25 0 31.5 S
1735.25 705 31.5 0 S
1751 672.75 0 31.5 S
1735.25 688.5 31.5 0 S
1751.5 672.75 0 31.5 S
1735.75 688.5 31.5 0 S
1751.5 672.75 0 31.5 S
1735.75 688.5 31.5 0 S
1751.5 656.75 0 31.5 S
1735.75 672.5 31.5 0 S
1751.5 705.75 0 31.5 S
1735.75 721.5 31.5 0 S
1751.5 771.75 0 31.5 S
1735.75 787.5 31.5 0 S
1752 771.75 0 31.5 S
1736.25 787.5 31.5 0 S
1752 705.75 0 31.5 S
1736.25 721.5 31.5 0 S
1752 672.75 0 31.5 S
1736.25 688.5 31.5 0 S
1752 705.75 0 31.5 S
1736.25 721.5 31.5 0 S
1752 705.75 0 31.5 S
1736.25 721.5 31.5 0 S
1752.5 607.25 0 31.5 S
1736.75 623 31.5 0 S
1752.5 640.25 0 31.5 S
1736.75 656 31.5 0 S
1752.5 656.75 0 31.5 S
1736.75 672.5 31.5 0 S
1752.5 722.25 0 31.5 S
1736.75 738 31.5 0 S
1752.5 656.75 0 31.5 S
1736.75 672.5 31.5 0 S
1753 656.75 0 31.5 S
1737.25 672.5 31.5 0 S
1753 722.25 0 31.5 S
1737.25 738 31.5 0 S
1753 672.75 0 31.5 S
1737.25 688.5 31.5 0 S
1753 656.75 0 31.5 S
1737.25 672.5 31.5 0 S
1753 672.75 0 31.5 S
1737.25 688.5 31.5 0 S
1753.5 656.75 0 31.5 S
1737.75 672.5 31.5 0 S
1753.5 607.25 0 31.5 S
1737.75 623 31.5 0 S
1753.5 656.75 0 31.5 S
1737.75 672.5 31.5 0 S
1753.5 672.75 0 31.5 S
1737.75 688.5 31.5 0 S
1753.5 672.75 0 31.5 S
1737.75 688.5 31.5 0 S
1753.5 640.25 0 31.5 S
1737.75 656 31.5 0 S
1754 640.25 0 31.5 S
1738.25 656 31.5 0 S
1754 607.25 0 31.5 S
1738.25 623 31.5 0 S
1754 722.25 0 31.5 S
1738.25 738 31.5 0 S
1754 689.25 0 31.5 S
1738.25 705 31.5 0 S
1754 607.25 0 31.5 S
1738.25 623 31.5 0 S
1754.5 607.25 0 31.5 S
1738.75 623 31.5 0 S
1754.5 640.25 0 31.5 S
1738.75 656 31.5 0 S
1754.5 607.25 0 31.5 S
1738.75 623 31.5 0 S
1754.5 672.75 0 31.5 S
1738.75 688.5 31.5 0 S
1754.5 689.25 0 31.5 S
1738.75 705 31.5 0 S
1755 672.75 0 31.5 S
1739.25 688.5 31.5 0 S
1755 590.75 0 31.5 S
1739.25 606.5 31.5 0 S
1755 590.75 0 31.5 S
1739.25 606.5 31.5 0 S
1755 607.25 0 31.5 S
1739.25 623 31.5 0 S
1755 689.25 0 31.5 S
1739.25 705 31.5 0 S
1755.5 590.75 0 31.5 S
1739.75 606.5 31.5 0 S
1755.5 623.75 0 31.5 S
1739.75 639.5 31.5 0 S
1755.5 640.25 0 31.5 S
1739.75 656 31.5 0 S
1755.5 607.25 0 31.5 S
1739.75 623 31.5 0 S
1755.5 590.75 0 31.5 S
1739.75 606.5 31.5 0 S
1756 607.25 0 31.5 S
1740.25 623 31.5 0 S
1756 623.75 0 31.5 S
1740.25 639.5 31.5 0 S
1756 607.25 0 31.5 S
1740.25 623 31.5 0 S
1756 590.75 0 31.5 S
1740.25 606.5 31.5 0 S
1756 623.75 0 31.5 S
1740.25 639.5 31.5 0 S
1756.5 590.75 0 31.5 S
1740.75 606.5 31.5 0 S
1756.5 590.75 0 31.5 S
1740.75 606.5 31.5 0 S
1756.5 607.25 0 31.5 S
1740.75 623 31.5 0 S
1757 640.25 0 31.5 S
1741.25 656 31.5 0 S
1757 623.75 0 31.5 S
1741.25 639.5 31.5 0 S
1757 640.25 0 31.5 S
1741.25 656 31.5 0 S
1757.5 607.25 0 31.5 S
1741.75 623 31.5 0 S
1757.5 590.75 0 31.5 S
1741.75 606.5 31.5 0 S
1757.5 590.75 0 31.5 S
1741.75 606.5 31.5 0 S
1757.5 590.75 0 31.5 S
1741.75 606.5 31.5 0 S
1757.5 590.75 0 31.5 S
1741.75 606.5 31.5 0 S
1758 590.75 0 31.5 S
1742.25 606.5 31.5 0 S
1758 590.75 0 31.5 S
1742.25 606.5 31.5 0 S
1758 590.75 0 31.5 S
1742.25 606.5 31.5 0 S
1758.5 607.25 0 31.5 S
1742.75 623 31.5 0 S
1758.5 607.25 0 31.5 S
1742.75 623 31.5 0 S
1759 590.75 0 31.5 S
1743.25 606.5 31.5 0 S
1759 590.75 0 31.5 S
1743.25 606.5 31.5 0 S
1759.5 590.75 0 31.5 S
1743.75 606.5 31.5 0 S
1759.5 623.75 0 31.5 S
1743.75 639.5 31.5 0 S
1759.5 590.75 0 31.5 S
1743.75 606.5 31.5 0 S
1760 590.75 0 31.5 S
1744.25 606.5 31.5 0 S
5 w
702.5 590 1170 576 re
S
cleartomark end end pagesave restore
 showpage
%%PageTrailer
%%Trailer
%%Pages: 1
