%!PS-Adobe-3.0 EPSF-3.0
%%BoundingBox: 67 53 337 118
%%HiResBoundingBox: 67.900000 53.900000 336.200000 117.100000
%.....................................
%%Creator: GPL Ghostscript 871 (epswrite)
%%CreationDate: 2012/01/28 17:04:59
%%DocumentData: Clean7Bit
%%LanguageLevel: 2
%%EndComments
%%BeginProlog
% This copyright applies to everything between here and the %%EndProlog:
% Copyright (C) 2010 Artifex Software, Inc.  All rights reserved.
%%BeginResource: procset GS_epswrite_2_0_1001 1.001 0
/GS_epswrite_2_0_1001 80 dict dup begin
/PageSize 2 array def/setpagesize{ PageSize aload pop 3 index eq exch
4 index eq and{ pop pop pop}{ PageSize dup  1
5 -1 roll put 0 4 -1 roll put dup null eq {false} {dup where} ifelse{ exch get exec}
{ pop/setpagedevice where
{ pop 1 dict dup /PageSize PageSize put setpagedevice}
{ /setpage where{ pop PageSize aload pop pageparams 3 {exch pop} repeat
setpage}if}ifelse}ifelse}ifelse} bind def
/!{bind def}bind def/#{load def}!/N/counttomark #
/rG{3{3 -1 roll 255 div}repeat setrgbcolor}!/G{255 div setgray}!/K{0 G}!
/r6{dup 3 -1 roll rG}!/r5{dup 3 1 roll rG}!/r3{dup rG}!
/w/setlinewidth #/J/setlinecap #
/j/setlinejoin #/M/setmiterlimit #/d/setdash #/i/setflat #
/m/moveto #/l/lineto #/c/rcurveto #
/p{N 2 idiv{N -2 roll rlineto}repeat}!
/P{N 0 gt{N -2 roll moveto p}if}!
/h{p closepath}!/H{P closepath}!
/lx{0 rlineto}!/ly{0 exch rlineto}!/v{0 0 6 2 roll c}!/y{2 copy c}!
/re{4 -2 roll m exch dup lx exch ly neg lx h}!
/^{3 index neg 3 index neg}!
/f{P fill}!/f*{P eofill}!/s{H stroke}!/S{P stroke}!
/q/gsave #/Q/grestore #/rf{re fill}!
/Y{P clip newpath}!/Y*{P eoclip newpath}!/rY{re Y}!
/|={pop exch 4 1 roll 1 array astore cvx 3 array astore cvx exch 1 index def exec}!
/|{exch string readstring |=}!
/+{dup type/nametype eq{2 index 7 add -3 bitshift 2 index mul}if}!
/@/currentfile #/${+ @ |}!
/B{{2 copy string{readstring pop}aload pop 4 array astore cvx
3 1 roll}repeat pop pop true}!
/Ix{[1 0 0 1 11 -2 roll exch neg exch neg]exch}!
/,{true exch Ix imagemask}!/If{false exch Ix imagemask}!/I{exch Ix image}!
/Ic{exch Ix false 3 colorimage}!
/F{/Columns counttomark 3 add -2 roll/Rows exch/K -1/BlackIs1 true>>
/CCITTFaxDecode filter}!/FX{<</EndOfBlock false F}!
/X{/ASCII85Decode filter}!/@X{@ X}!/&2{2 index 2 index}!
/@F{@ &2<<F}!/@C{@X &2 FX}!
/$X{+ @X |}!/&4{4 index 4 index}!/$F{+ @ &4<<F |}!/$C{+ @X &4 FX |}!
/IC{3 1 roll 10 dict begin 1{/ImageType/Interpolate/Decode/DataSource
/ImageMatrix/BitsPerComponent/Height/Width}{exch def}forall
currentdict end image}!
/~{@ read {pop} if}!
end def
%%EndResource
/pagesave null def
%%EndProlog
%%Page: 1 1
%%BeginPageSetup
GS_epswrite_2_0_1001 begin
/pagesave save store 197 dict begin
0.1 0.1 scale
%%EndPageSetup
gsave mark
Q q
0 0 250000 250000 re
Y
5 w
K
878 620 31.5 0 P
3290 620 -31.5 0 P
842 620 S
679 600 17 43 /3U
$C
,Tm'ds8W-!s-F.@R>;m@If~>
,
705 599 34 44 /6U
$C
23%r'%\5X)j2)<u^Zk'1J,ZoQs8W-!s8VJ_s8Qk\g>99H(eYmM:r7r$~>
,
738 599 6U ,
771 599 6U ,
805 599 6U ,
878 686 31.5 0 P
3290 686 -31.5 0 P
842 686 S
679 666 3U ,
705 665 6U ,
738 665 35 44 /3Y
$C
2%'Ns&9R0a'Aa:<PNfbDGdm_=;rkC=Bjl_7CKWS'fO25hs7ZK6."D-0~>
,
771 665 6U ,
805 665 6U ,
878 752 31.5 0 P
3290 752 -31.5 0 P
842 752 S
679 732 3U ,
713 732 3U ,
738 731 6U ,
771 731 6U ,
805 731 6U ,
878 818 31.5 0 P
3290 818 -31.5 0 P
842 818 S
679 798 3U ,
713 798 3U ,
738 797 3Y ,
771 797 6U ,
805 797 6U ,
878 884 31.5 0 P
3290 884 -31.5 0 P
842 884 S
679 864 3U ,
705 864 34 43 /6Y
$C
4;jd(Qp5fN^"]dYfPna4iOE=NL>hOS^UAOiqu,+3CMbUV[OTh+@7(A~>
,
738 863 6U ,
771 863 6U ,
805 863 6U ,
878 950 31.5 0 P
3290 950 -31.5 0 P
842 950 S
679 930 3U ,
705 930 6Y ,
738 929 3Y ,
771 929 6U ,
805 929 6U ,
878 1016 31.5 0 P
3290 1016 -31.5 0 P
842 1016 S
679 996 3U ,
705 995 34 44 /4C
$C
3f*tLK;VJ#ZZne#2lEeH?]XK;@:la`Yct@m+Q2(jDLDKapAVZrg>Sl<[;*R2"T~>
,
738 995 6U ,
771 995 6U ,
805 995 6U ,
878 1082 31.5 0 P
3290 1082 -31.5 0 P
842 1082 S
679 1062 3U ,
705 1061 4C ,
738 1061 3Y ,
771 1061 6U ,
805 1061 6U ,
878 1148 31.5 0 P
3290 1148 -31.5 0 P
842 1148 S
679 1128 3U ,
705 1128 35 43 /7C
$C
.M)RZs3Cmfr0V$lmIpMQmIpMQmJH;FpY5/kn_X9>^V/P~>
,
738 1127 6U ,
771 1127 6U ,
805 1127 6U ,
877 620 0 31.5 P
877 1148 0 -31.5 P
877 560 S
865 539 6U ,
1118.5 620 0 31.5 P
1118.5 1148 0 -31.5 P
1118.5 560 S
1073 539 3Y ,
1106 539 6U ,
1140 539 6U ,
1359.5 620 0 31.5 P
1359.5 1148 0 -31.5 P
1359.5 560 S
1305 540 3U ,
1330 539 6U ,
1364 539 6U ,
1397 539 6U ,
1601 620 0 31.5 P
1601 1148 0 -31.5 P
1601 560 S
1547 540 3U ,
1572 539 3Y ,
1605 539 6U ,
1639 539 6U ,
1842 620 0 31.5 P
1842 1148 0 -31.5 P
1842 560 S
1780 540 6Y ,
1813 539 6U ,
1846 539 6U ,
1880 539 6U ,
2083.5 620 0 31.5 P
2083.5 1148 0 -31.5 P
2083.5 560 S
2021 540 6Y ,
2054 539 3Y ,
2088 539 6U ,
2121 539 6U ,
2325 620 0 31.5 P
2325 1148 0 -31.5 P
2325 560 S
2263 539 4C ,
2296 539 6U ,
2329 539 6U ,
2363 539 6U ,
2566 620 0 31.5 P
2566 1148 0 -31.5 P
2566 560 S
2504 539 4C ,
2537 539 3Y ,
2570 539 6U ,
2604 539 6U ,
2807.5 620 0 31.5 P
2807.5 1148 0 -31.5 P
2807.5 560 S
2745 540 7C ,
2778 539 6U ,
2812 539 6U ,
2845 539 6U ,
3048.5 620 0 31.5 P
3048.5 1148 0 -31.5 P
3048.5 560 S
2986 540 7C ,
3019 539 3Y ,
3053 539 6U ,
3086 539 6U ,
3290 620 0 31.5 P
3290 1148 0 -31.5 P
3290 560 S
3228 539 3Y ,
3261 539 6U ,
3294 539 6U ,
3328 539 6U ,
878 620 2412 528 re
S
2.5 w
878 681.5 0.5 132.5 0.5 48.5 0.5 29.5 0.5 19.5 0.5 17.5 0.5 10.5 0.5 9 
0.5 8 0.5 6 0.5 -4 0.5 -1 0.5 -1 0.5 1 0.5 0 0 1.5 
0.5 1.5 0.5 5 0.5 1 0.5 0.5 0.5 0 0.5 -1 0.5 0.5 0.5 -2.5 
0.5 1.5 0.5 -0.5 0.5 -0.5 0.5 -4.5 0.5 0 0.5 24 0.5 5 0.5 3 
0.5 2.5 0.5 -1.5 0.5 2.5 0.5 1 0.5 -2 0.5 3.5 0.5 -10 0.5 -18 
0.5 -14.5 0.5 -7.5 0.5 3.5 0.5 2 0 -1.5 0.5 4 0.5 0 0.5 -5.5 
0.5 -2 0.5 2.5 0.5 -1.5 0.5 3.5 0.5 2 0.5 2.5 0.5 1 0.5 2.5 
0.5 -1.5 0.5 0 0.5 1 0.5 0 0.5 -2 0.5 0 0.5 1.5 0.5 0 
0.5 -0.5 0.5 -1 0.5 -2 0.5 2.5 0.5 -0.5 0.5 -3 0.5 -2 0.5 3 
0 1.5 0.5 -0.5 0.5 -2.5 0.5 -1.5 0.5 0.5 0.5 6 0.5 3 0.5 6 
0.5 3 0.5 2.5 0.5 -4 0.5 0 0.5 1.5 0.5 -2.5 0.5 0.5 0.5 -0.5 
0.5 1 0.5 -1 0.5 0 0.5 -4 0.5 2.5 0.5 -1 0.5 2.5 0.5 -1.5 
0.5 0.5 0.5 -1.5 0.5 -5 0.5 -1 0.5 -1 0 -1 0.5 -2 0.5 1 
0.5 1 S
928 959 0.5 1 0.5 -1.5 0.5 0 0.5 2 0.5 -1.5 0.5 0 0.5 1.5 
0.5 1 0.5 2 0.5 -1.5 0.5 2 0.5 -1 0.5 2.5 0.5 2 0.5 3.5 
0.5 -1.5 0.5 0.5 0.5 -3.5 0.5 1 0.5 -2.5 0.5 -0.5 0.5 -8 0.5 -3.5 
0.5 1 0.5 0.5 0 -1 0.5 -0.5 0.5 -2 0.5 -0.5 0.5 6.5 0.5 15.5 
0.5 1 0.5 2 0.5 -2.5 0.5 -0.5 0.5 -0.5 0.5 -3 0.5 -3.5 0.5 -5 
0.5 -6.5 0.5 1 0.5 3.5 0.5 0 0.5 0 0.5 1.5 0.5 -2.5 0.5 -11.5 
0.5 2 0.5 1 0.5 1.5 0.5 3.5 0.5 -2.5 0.5 -2.5 0 1 0.5 3 
0.5 8 0.5 5.5 0.5 -3.5 0.5 2.5 0.5 -3.5 0.5 -1 0.5 -2 0.5 4.5 
0.5 -2 0.5 0 0.5 -1 0.5 -4 0.5 3.5 0.5 1 0.5 -1 0.5 -2 
0.5 -2.5 0.5 3 0.5 0 0.5 1.5 0.5 0.5 0.5 3 0.5 55 0.5 9.5 
0.5 4.5 0.5 1.5 0.5 1.5 0 2 0.5 -1 0.5 -9 0.5 -66.5 0.5 -21 
0.5 -3.5 0.5 -5 0.5 -0.5 0.5 1 0.5 -2.5 0.5 0 0.5 -1 0.5 -1 
0.5 -1 0.5 -1.5 0.5 -4 0.5 1.5 0.5 1.5 0.5 0 0.5 1 0.5 -5 
0.5 0.5 S
978.5 920.5 0.5 3 0.5 2 0.5 0.5 0.5 0.5 0.5 -0.5 0.5 75.5 0.5 29 
0 4 0.5 7.5 0.5 4 0.5 -0.5 0.5 -2 0.5 -3.5 0.5 -13.5 0.5 -42.5 
0.5 -19 0.5 4 0.5 -5 0.5 -4 0.5 -0.5 0.5 -1 0.5 -3 0.5 0.5 
0.5 -2.5 0.5 3.5 0.5 8 0.5 -0.5 0.5 2.5 0.5 0.5 0.5 0 0.5 -0.5 
0.5 -1.5 0.5 -2 0.5 -3.5 0.5 -7.5 0.5 1.5 0 -1 0.5 -1.5 0.5 -1 
0.5 0.5 0.5 -4.5 0.5 2 0.5 1.5 0.5 2.5 0.5 1 0.5 -0.5 0.5 0.5 
0.5 -1 0.5 1.5 0.5 1 0.5 2.5 0.5 2.5 0.5 -1 0.5 0 0.5 1 
0.5 0 0.5 -5.5 0.5 -4 0.5 1.5 0.5 -1.5 0.5 2 0.5 1.5 0.5 -3.5 
0.5 -1 0 0.5 0.5 1 0.5 0 0.5 0 0.5 2 0.5 -1 0.5 0 
0.5 0.5 0.5 4 0.5 -2 0.5 2.5 0.5 -4 0.5 3 0.5 -3 0.5 3 
0.5 0 0.5 -0.5 0.5 -1 0.5 -4 0.5 -2 0.5 -3 0.5 0.5 0.5 -4.5 
0.5 2 0.5 0.5 0.5 2 0.5 3.5 0.5 -1 0.5 1.5 0 1.5 0.5 -2.5 
0.5 -2.5 0.5 2 0.5 -2 0.5 1 0.5 1 0.5 2.5 0.5 -1.5 0.5 -1.5 
0.5 0.5 S
1028.5 948.5 0.5 0 0.5 3.5 0.5 1.5 0.5 -1.5 0.5 0.5 0.5 2 0.5 -0.5 
0.5 -2 0.5 -2.5 0.5 0 0.5 -3 0.5 1 0.5 -4.5 0.5 -0.5 0.5 0.5 
0.5 4 0.5 0 0.5 -0.5 0 3.5 0.5 6 0.5 1.5 0.5 -3 0.5 -0.5 
0.5 -2 0.5 -3 0.5 0.5 0.5 3.5 0.5 2.5 0.5 -1.5 0.5 -6 0.5 -1 
0.5 2 0.5 1 0.5 1.5 0.5 -3.5 0.5 0.5 0.5 -1.5 0.5 0.5 0.5 -1.5 
0.5 1 0.5 1 0.5 2 0.5 3 0.5 -1 0.5 4.5 0.5 2.5 0.5 3 
0 1.5 0.5 1.5 0.5 -1 0.5 -2.5 0.5 -3 0.5 -2 0.5 -3.5 0.5 -4.5 
0.5 2 0.5 -3.5 0.5 -1 0.5 0 0.5 -0.5 0.5 3.5 0.5 4 0.5 -2 
0.5 2.5 0.5 -0.5 0.5 -0.5 0.5 0 0.5 -0.5 0.5 3 0.5 -2 0.5 -4 
0.5 -1 0.5 -0.5 0.5 -0.5 0.5 2 0 2.5 0.5 0.5 0.5 -5.5 0.5 0.5 
0.5 0.5 0.5 -1.5 0.5 -0.5 0.5 -4 0.5 0 0.5 -1 0.5 -2 0.5 2 
0.5 -0.5 0.5 -0.5 0.5 -3.5 0.5 1.5 0.5 -4.5 0.5 1.5 0.5 0.5 0.5 4.5 
0.5 -0.5 0.5 5 0.5 2 0.5 3 0.5 -0.5 0.5 0.5 0.5 1.5 0.5 2.5 
0.5 -1 S
1079 952 0 -1 0.5 0.5 0.5 -2 0.5 4 0.5 -3.5 0.5 -0.5 0.5 2 
0.5 -1.5 0.5 0.5 0.5 -0.5 0.5 -2.5 0.5 -3.5 0.5 -3 0.5 -4 0.5 -1.5 
0.5 2.5 0.5 -2.5 0.5 2.5 0.5 -4 0.5 0.5 0.5 0.5 0.5 1 0.5 3.5 
0.5 -0.5 0.5 -1.5 0.5 0.5 0.5 0 0.5 2 0.5 1 0 -2.5 0.5 4 
0.5 -1 0.5 -1.5 0.5 -2.5 0.5 2 0.5 0 0.5 -0.5 0.5 1.5 0.5 2 
0.5 1 0.5 -5 0.5 -1.5 0.5 2.5 0.5 0 0.5 6.5 0.5 -1 0.5 -1.5 
0.5 1.5 0.5 5.5 0.5 -1 0.5 -2 0.5 -3.5 0.5 -5 0.5 0.5 0.5 0 
0.5 -1 0.5 -2 0.5 -0.5 0.5 2.5 0.5 1.5 0.5 1 0.5 3 0.5 0 
0.5 1 0.5 0 0.5 0 0.5 0.5 0.5 -1.5 0.5 -0.5 0.5 -2 0.5 2 
0.5 0.5 0.5 1.5 0.5 -1.5 0.5 -1.5 0.5 -2.5 0.5 0 0.5 3 0.5 -1 
0.5 -2.5 0.5 1 0.5 -2 0.5 0 0.5 1 0.5 1 0 -1.5 0.5 -1 
0.5 -0.5 0.5 1.5 0.5 -0.5 0.5 3.5 0.5 0 0.5 1.5 0.5 1 0.5 1.5 
0.5 -2.5 0.5 0 0.5 0 0.5 0 0.5 1 0.5 1 0.5 0.5 0.5 -3.5 
0.5 1.5 S
1129.5 944 0.5 -0.5 0.5 -2 0.5 0 0.5 0 0.5 6.5 0.5 -1.5 0.5 -0.5 
0.5 0.5 0.5 -3 0.5 2.5 0 1 0.5 -2.5 0.5 -4 0.5 1 0.5 -2.5 
0.5 -4 0.5 0 0.5 -2 0.5 2 0.5 0.5 0.5 -1 0.5 -1 0.5 0.5 
0.5 0.5 0.5 -1.5 0.5 0 0.5 0 0.5 -4.5 0.5 5 0.5 1.5 0.5 1.5 
0.5 1.5 0.5 2 0.5 -2 0.5 4.5 0.5 3 0.5 -0.5 0.5 1.5 0.5 -1 
0 -4 0.5 1.5 0.5 -2 0.5 -2 0.5 1.5 0.5 -2 0.5 0.5 0.5 -6 
0.5 3 0.5 -1 0.5 0 0.5 2 0.5 0.5 0.5 -1 0.5 -1.5 0.5 -0.5 
0.5 -3 0.5 2 0.5 1.5 0.5 4 0.5 -1 0.5 0 0.5 0.5 0.5 0 
0.5 -1.5 0.5 0 0.5 1.5 0.5 1 0 -6 0.5 1 0.5 1 0.5 5.5 
0.5 0 0.5 0.5 0.5 1.5 0.5 -2 0.5 1.5 0.5 -0.5 0.5 1.5 0.5 4.5 
0.5 -7.5 0.5 1.5 0.5 2 0.5 -0.5 0.5 0 0.5 -0.5 0.5 1 0.5 0.5 
0.5 2.5 0.5 -2.5 0.5 -0.5 0.5 1.5 0.5 3.5 0.5 -2.5 0.5 0.5 0.5 0 
0.5 1.5 0 -3 0.5 -1 0.5 1.5 0.5 1 0.5 -3 0.5 -6.5 0.5 -1 
0.5 0.5 S
1179.5 937 0.5 4 0.5 -2 0.5 -2 0.5 -3.5 0.5 1.5 0.5 -4 0.5 -1 
0.5 0.5 0.5 0.5 0.5 7.5 0.5 2 0.5 -1.5 0.5 2.5 0.5 1.5 0.5 0.5 
0.5 0.5 0.5 -2 0.5 -6.5 0.5 -0.5 0.5 -3 0.5 -0.5 0 -3 0.5 0.5 
0.5 2.5 0.5 1.5 0.5 1.5 0.5 2 0.5 2 0.5 2 0.5 2 0.5 -0.5 
0.5 -0.5 0.5 2 0.5 2 0.5 -4.5 0.5 1 0.5 -1.5 0.5 1.5 0.5 -1 
0.5 -3 0.5 1.5 0.5 0.5 0.5 -3 0.5 0.5 0.5 2 0.5 -4 0.5 -0.5 
0.5 -1 0.5 3 0.5 1.5 0.5 -0.5 0.5 -1 0.5 0.5 0.5 2 0.5 0.5 
0.5 -1 0.5 1 0.5 -1.5 0.5 -1.5 0.5 0 0.5 1 0.5 1 0.5 1.5 
0.5 -1.5 0.5 -1.5 0.5 -2.5 0.5 3 0.5 3 0.5 3 0.5 0.5 0.5 0.5 
0.5 -1.5 0.5 -2 0.5 -1 0.5 0.5 0.5 0.5 0.5 -2 0 1 0.5 5.5 
0.5 1.5 0.5 0.5 0.5 1 0.5 -0.5 0.5 -0.5 0.5 1 0.5 -1.5 0.5 -4.5 
0.5 -2 0.5 1.5 0.5 -1.5 0.5 1 0.5 3 0.5 3.5 0.5 1 0.5 0 
0.5 2 0.5 -0.5 0.5 1 0.5 -4.5 0.5 0.5 0.5 0 0.5 -2.5 0.5 -1.5 
0.5 -3.5 S
1230.5 940.5 0.5 -1.5 0.5 0 0.5 -3.5 0.5 0.5 0.5 2 0.5 -4 0.5 2.5 
0.5 -1.5 0.5 -1 0.5 0 0.5 2 0.5 -3 0.5 3.5 0.5 -0.5 0.5 -2.5 
0.5 -0.5 0.5 -1 0.5 2.5 0.5 1.5 0.5 1.5 0.5 2 0.5 2.5 0.5 -2.5 
0.5 0 0.5 3 0.5 -1 0.5 1.5 0.5 -0.5 0.5 2.5 0.5 3 0 -0.5 
0.5 2.5 0.5 -1 0.5 -6.5 0.5 1 0.5 0 0.5 0 0.5 0.5 0.5 -2.5 
0.5 -3 0.5 -2 0.5 -1 0.5 1.5 0.5 0 0.5 2 0.5 -2 0.5 0.5 
0.5 3.5 0.5 5 0.5 -2 0.5 14 0.5 -1 0.5 8.5 0.5 4.5 0.5 -0.5 
0.5 1 0.5 -0.5 0.5 0 0 1.5 0.5 -3.5 0.5 -5 0.5 -10.5 0.5 -5.5 
0.5 -3 0.5 2 0.5 -1 0.5 -0.5 0.5 -2.5 0.5 -2 0.5 -1 0.5 2 
0.5 6 0.5 3 0.5 1 0.5 -4 0.5 2 0.5 0 0.5 1 0.5 1 
0.5 3 0.5 -0.5 0.5 -1 0.5 4 0.5 1 0.5 0 0.5 2.5 0.5 -0.5 
0 -1 0.5 -0.5 0.5 -2.5 0.5 3 0.5 -4.5 0.5 -4.5 0.5 -1 0.5 -2 
0.5 -1.5 0.5 -1 0.5 -3.5 0.5 3 0.5 -3.5 0.5 -3 0.5 0.5 0.5 -0.5 
0.5 -1 S
1281 936 0.5 -3 0.5 10.5 0.5 0.5 0.5 -2 0.5 5.5 0.5 -2.5 0.5 1.5 
0.5 0.5 0.5 -0.5 0.5 -0.5 0.5 -1 0.5 -4 0 -4 0.5 0.5 0.5 1.5 
0.5 -3 0.5 2 0.5 -0.5 0.5 3.5 0.5 -1.5 0.5 5 0.5 4.5 0.5 3.5 
0.5 3 0.5 3.5 0.5 0 0.5 2.5 0.5 -1.5 0.5 0.5 0.5 -1.5 0.5 -5 
0.5 1 0.5 -2.5 0.5 -3 0.5 -1.5 0.5 0 0.5 -1 0.5 -2.5 0.5 0 
0.5 3 0.5 -1 0 2 0.5 0.5 0.5 0 0.5 4.5 0.5 5.5 0.5 6.5 
0.5 1 0.5 -2 0.5 0 0.5 -1.5 0.5 -0.5 0.5 1 0.5 -3.5 0.5 -6.5 
0.5 -1 0.5 -2.5 0.5 2 0.5 -7.5 0.5 1 0.5 -3.5 0.5 1 0.5 -6 
0.5 -2.5 0.5 2.5 0.5 5.5 0.5 1.5 0.5 -2 0.5 -1 0.5 0 0.5 0.5 
0.5 -3.5 0.5 3.5 0.5 2 0.5 3 0.5 0 0.5 1.5 0.5 0.5 0.5 -0.5 
0.5 -0.5 0.5 -1 0.5 -1 0.5 3 0.5 1.5 0.5 -2 0.5 -0.5 0.5 0 
0.5 1.5 0.5 0 0.5 4 0.5 -1.5 0.5 -1 0.5 1 0.5 -3 0.5 -1.5 
0.5 -1.5 0.5 -2.5 0 -1.5 0.5 -0.5 0.5 5 0.5 4 0.5 1 0.5 3 
0.5 -1.5 S
1331.5 952.5 0.5 2.5 0.5 -2 0.5 -2 0.5 -3.5 0.5 0 0.5 -2.5 0.5 -1.5 
0.5 0.5 0.5 -0.5 0.5 1 0.5 -1 0.5 0.5 0.5 3 0.5 3.5 0.5 -1 
0.5 -2 0.5 0.5 0.5 3 0.5 3 0.5 -1.5 0.5 0.5 0.5 1 0 1.5 
0.5 0.5 0.5 1.5 0.5 -2.5 0.5 -3.5 0.5 -1.5 0.5 -1 0.5 -3 0.5 -2 
0.5 0.5 0.5 2 0.5 1 0.5 -2.5 0.5 7 0.5 -0.5 0.5 -2 0.5 2 
0.5 7.5 0.5 0 0.5 -0.5 0.5 8.5 0.5 7.5 0.5 -3 0.5 5.5 0.5 0 
0.5 1 0.5 -3.5 0.5 -0.5 0.5 -13 0.5 -6.5 0.5 1.5 0.5 -11 0.5 1 
0.5 0 0.5 2.5 0.5 -0.5 0.5 -3.5 0.5 -2 0.5 3.5 0.5 -4 0.5 1.5 
0.5 0.5 0.5 -2 0.5 3.5 0.5 -2 0.5 2.5 0.5 5 0.5 1.5 0.5 0.5 
0.5 2 0.5 -0.5 0.5 2 0.5 3 0.5 -2.5 0.5 1.5 0.5 -1 0 -1 
0.5 -2.5 0.5 -4.5 0.5 -0.5 0.5 -0.5 0.5 112 0.5 43 0.5 -1.5 0.5 0 
0.5 2.5 0.5 2 0.5 -1 0.5 0 0.5 1.5 0.5 -1 0.5 -59.5 0.5 -91.5 
0.5 3 0.5 -0.5 0.5 -13 0.5 0 0.5 -0.5 0.5 0 0.5 -2 0.5 -0.5 
0.5 0.5 S
1382.5 942 0.5 1 0.5 -3.5 0.5 2 0 -0.5 0.5 -2 0.5 2.5 0.5 -1.5 
0.5 1 0.5 2.5 0.5 3.5 0.5 0 0.5 2 0.5 3 0.5 1 0.5 7 
0.5 6.5 0.5 -3 0.5 -1.5 0.5 -3 0.5 -5.5 0.5 -5 0.5 -6.5 0.5 -5 
0.5 -15 0.5 -10 0.5 1.5 0.5 3.5 0.5 10.5 0.5 -0.5 0.5 -1.5 0.5 2 
0.5 -1 0 0.5 0.5 1 0.5 -1 0.5 -3.5 0.5 -7 0.5 -2.5 0.5 12.5 
0.5 3.5 0.5 2 0.5 4 0.5 0.5 0.5 -1.5 0.5 1.5 0.5 0 0.5 -4.5 
0.5 -8 0.5 -6.5 0.5 -5 0.5 -3.5 0.5 -4 0.5 1 0.5 2.5 0.5 0.5 
0.5 -1 0.5 1 0.5 1.5 0.5 0 0.5 3 0.5 1 0.5 1.5 0.5 0 
0.5 5 0.5 -0.5 0.5 0.5 0.5 0 0.5 4 0.5 -1 0.5 -1 0.5 -1 
0.5 2 0.5 -3 0.5 0.5 0.5 0.5 0.5 2.5 0.5 0 0.5 -2.5 0.5 -1.5 
0.5 1 0.5 -1 0.5 -0.5 0.5 -5.5 0.5 -4 0.5 -2 0.5 4 0.5 2 
0.5 0.5 0 -4 0.5 1 0.5 1 0.5 0 0.5 -3 0.5 -2 0.5 -1.5 
0.5 -0.5 0.5 -2.5 0.5 1 0.5 3.5 0.5 0.5 0.5 0 0.5 2.5 0.5 1.5 
0.5 1 S
1433 913.5 0.5 6 0.5 -1 0.5 -3.5 0.5 3.5 0.5 -2 0.5 3 0.5 0 
0.5 -1 0.5 1.5 0.5 -4 0.5 0.5 0.5 2.5 0.5 -1 0 -1.5 0.5 1.5 
0.5 -0.5 0.5 -2.5 0.5 -1.5 0.5 -1.5 0.5 1.5 0.5 0.5 0.5 3.5 0.5 3.5 
0.5 2.5 0.5 0 0.5 2.5 0.5 0 0.5 -1.5 0.5 -5.5 0.5 7 0.5 -1.5 
0.5 -4 0.5 -1.5 0.5 -1.5 0.5 -1.5 0.5 -0.5 0.5 2 0.5 0 0.5 -1 
0.5 -1.5 0.5 1 0.5 -0.5 0 -0.5 0.5 -1.5 0.5 -0.5 0.5 -1.5 0.5 0 
0.5 0 0.5 0.5 0.5 1.5 0.5 -1.5 0.5 0 0.5 1.5 0.5 2 0.5 -1 
0.5 -3 0.5 0.5 0.5 2 0.5 1 0.5 -1 0.5 0.5 0.5 -2.5 0.5 1.5 
0.5 1.5 0.5 0 0.5 2.5 0.5 1 0.5 -0.5 0.5 0.5 0.5 -1 0 0.5 
0.5 -3 0.5 0 0.5 2 0.5 0.5 0.5 -1 0.5 -1.5 0.5 -0.5 0.5 -2 
0.5 -3 0.5 0 0.5 0.5 0.5 0.5 0.5 -3 0.5 2 0.5 0 0.5 -3.5 
0.5 -1.5 0.5 3.5 0.5 1.5 0.5 -0.5 0.5 -1.5 0.5 -1.5 0.5 1.5 0.5 1 
0.5 -2 0.5 1.5 0.5 -1.5 0.5 -4 0 2 0.5 1.5 0.5 6.5 0.5 3.5 
0.5 0 S
1483 916 0.5 1 0.5 3 0.5 2 0.5 -2 0.5 -8 0.5 1.5 0.5 0 
0.5 2 0.5 -1.5 0.5 -1 0.5 -0.5 0.5 -2.5 0.5 2 0.5 1 0.5 1.5 
0.5 1 0.5 0.5 0.5 0.5 0.5 1 0.5 -0.5 0.5 -1 0.5 -1 0.5 -1.5 
0.5 0 0 -0.5 0.5 -1 0.5 0 0.5 1 0.5 0.5 0.5 2 0.5 -1 
0.5 3.5 0.5 2 0.5 -4 0.5 -1.5 0.5 -5.5 0.5 4 0.5 -0.5 0.5 -0.5 
0.5 1.5 0.5 3.5 0.5 -1.5 0.5 -0.5 0.5 0.5 0.5 -1.5 0.5 0 0.5 -3 
0.5 -2 0.5 2 0.5 -0.5 0.5 0.5 0.5 4.5 0.5 3 0.5 4 0.5 0.5 
0.5 0.5 0.5 -3 0.5 -1 0.5 -1 0.5 -2 0.5 1 0.5 -1.5 0.5 5 
0.5 -0.5 0.5 -2 0.5 1.5 0.5 -1.5 0.5 0.5 0.5 -1 0.5 -3 0.5 1 
0.5 -4.5 0.5 0 0.5 0.5 0.5 0 0.5 -3.5 0.5 0 0.5 0 0.5 -0.5 
0.5 -2 0 1.5 0.5 -1.5 0.5 -0.5 0.5 1 0.5 2.5 0.5 1.5 0.5 -1 
0.5 -1.5 0.5 1 0.5 -0.5 0.5 -1 0.5 2 0.5 0 0.5 0 0.5 -1 
0.5 0 0.5 2 0.5 -2.5 0.5 -2 0.5 1 0.5 3.5 0.5 1 0.5 -1 
0.5 -2 S
1534 908.5 0.5 0.5 0.5 0 0.5 -3.5 0.5 -3.5 0.5 3.5 0 -3 0.5 1 
0.5 1 0.5 4.5 0.5 5 0.5 -0.5 0.5 2 0.5 -2 0.5 1.5 0.5 0 
0.5 0 0.5 -2 0.5 2 0.5 -3.5 0.5 0.5 0.5 2 0.5 2 0.5 -1 
0.5 -2 0.5 3 0.5 5 0.5 -2.5 0.5 0.5 0.5 1.5 0.5 -2.5 0.5 2 
0.5 -1.5 0.5 3.5 0.5 -0.5 0 -1 0.5 -4 0.5 -1 0.5 1 0.5 1 
0.5 -2.5 0.5 3.5 0.5 0.5 0.5 0 0.5 3 0.5 1 0.5 0 0.5 1 
0.5 3.5 0.5 3 0.5 0.5 0.5 -0.5 0.5 2 0.5 2 0.5 -1.5 0.5 -2.5 
0.5 1.5 0.5 1.5 0.5 -1.5 0.5 -3.5 0.5 -1 0.5 -3.5 0.5 3.5 0 -3 
0.5 0 0.5 0.5 0.5 -1 0.5 1 0.5 -2 0.5 -1 0.5 0 0.5 -1.5 
0.5 0.5 0.5 -2 0.5 -1 0.5 -0.5 0.5 -2.5 0.5 -2 0.5 -1 0.5 -1.5 
0.5 0.5 0.5 0 0.5 -1 0.5 1 0.5 1 0.5 -1 0.5 2 0.5 -1 
0.5 -0.5 0.5 0.5 0.5 1.5 0.5 -2.5 0 2.5 0.5 1.5 0.5 0 0.5 -1 
0.5 -0.5 0.5 2.5 0.5 -1.5 0.5 -1 0.5 -0.5 0.5 -2 0.5 -0.5 0.5 1.5 
0.5 -2 S
1584 910 0.5 1 0.5 2.5 0.5 0.5 0.5 -1 0.5 -2.5 0.5 -1 0.5 1.5 
0.5 0.5 0.5 1 0.5 1.5 0.5 4.5 0.5 4.5 0.5 3.5 0.5 -1.5 0.5 3 
0.5 2 0 3 0.5 2.5 0.5 -1 0.5 -5 0.5 -4 0.5 1.5 0.5 -4.5 
0.5 -1.5 0.5 0.5 0.5 0 0.5 -4 0.5 -0.5 0.5 -1.5 0.5 5.5 0.5 1 
0.5 1 0.5 6 0.5 2.5 0.5 -5.5 0.5 -0.5 0.5 -0.5 0.5 2 0.5 -4 
0.5 0 0.5 -2.5 0.5 -1.5 0.5 -3.5 0.5 -1 0.5 2 0 1.5 0.5 -1.5 
0.5 2.5 0.5 -2.5 0.5 1.5 0.5 2 0.5 1.5 0.5 1.5 0.5 -3 0.5 -2 
0.5 0.5 0.5 -3 0.5 38.5 0.5 34 0.5 1.5 0.5 -5 0.5 2 0.5 0.5 
0.5 1 0.5 -0.5 0.5 -1 0.5 0 0.5 -10.5 0.5 -61 0.5 -2 0.5 -0.5 
0.5 2 0.5 0.5 0 1 0.5 -0.5 0.5 0 0.5 -3 0.5 1 0.5 -2.5 
0.5 -1 0.5 0 0.5 -2 0.5 1 0.5 -2 0.5 -1 0.5 1.5 0.5 2 
0.5 1.5 0.5 3.5 0.5 2 0.5 -1.5 0.5 0.5 0.5 -2 0.5 0.5 0.5 -1 
0.5 0.5 0.5 -1 0.5 0.5 0.5 -0.5 0.5 -0.5 0.5 0 0.5 0.5 0.5 2.5 
0.5 3 S
1634.5 918 0.5 -2 0.5 -1.5 0.5 1 0.5 -1 0.5 -1 0.5 2.5 0.5 2.5 
0.5 1.5 0.5 -2 0.5 3.5 0.5 1 0.5 0 0.5 0.5 0.5 0.5 0.5 0.5 
0.5 -3.5 0.5 1.5 0.5 -3 0.5 -1.5 0.5 0.5 0.5 -2 0.5 0 0.5 -5 
0.5 2 0.5 0 0.5 -0.5 0 -2 0.5 2 0.5 -2 0.5 -0.5 0.5 1 
0.5 5 0.5 3 0.5 0.5 0.5 2.5 0.5 0 0.5 -0.5 0.5 1.5 0.5 1.5 
0.5 -2.5 0.5 -1 0.5 0 0.5 1 0.5 0 0.5 -0.5 0.5 -1.5 0.5 1 
0.5 1.5 0.5 0 0.5 -0.5 0.5 5.5 0.5 9 0.5 4.5 0.5 4 0 1.5 
0.5 -1 0.5 -0.5 0.5 2 0.5 -1 0.5 0.5 0.5 -4 0.5 -10 0.5 -10 
0.5 -1 0.5 -3 0.5 -7.5 0.5 -5.5 0.5 -2 0.5 4.5 0.5 -1 0.5 1 
0.5 1 0.5 0 0.5 2 0.5 3 0.5 -5 0.5 1.5 0.5 -1.5 0.5 -2 
0.5 0 0.5 0.5 0.5 -1.5 0.5 2.5 0 1 0.5 0 0.5 3.5 0.5 69.5 
0.5 18 0.5 1.5 0.5 5.5 0.5 2.5 0.5 -3 0.5 -1.5 0.5 -1 0.5 4.5 
0.5 2.5 0.5 -16 0.5 -59.5 0.5 -1 0.5 -4 0.5 -1.5 0.5 4.5 0.5 -2.5 
0.5 -4 S
1685 927.5 0.5 0 0.5 2.5 0.5 2.5 0.5 3 0.5 -2 0.5 -4 0.5 -3.5 
0.5 -1 0.5 2 0.5 3.5 0.5 -2 0.5 1.5 0.5 -2.5 0.5 -1.5 0.5 1 
0.5 -2.5 0.5 3.5 0.5 -5.5 0.5 -0.5 0.5 -2 0.5 0 0.5 -1.5 0.5 -1 
0.5 0 0.5 0.5 0.5 3 0.5 -2.5 0.5 3 0.5 -3 0.5 -2.5 0.5 2 
0.5 -1.5 0.5 2.5 0.5 -0.5 0.5 -1 0.5 -1 0 1.5 0.5 -3.5 0.5 2.5 
0.5 1.5 0.5 -1 0.5 -0.5 0.5 -2 0.5 1 0.5 -1.5 0.5 -1 0.5 -0.5 
0.5 -1 0.5 -1 0.5 0 0.5 -2.5 0.5 -1 0.5 -1 0.5 0.5 0.5 -1 
0.5 1.5 0.5 18.5 0.5 3.5 0.5 5.5 0.5 4 0.5 7 0.5 1 0.5 -3 
0.5 0 0 3.5 0.5 -9 0.5 0.5 0.5 -0.5 0.5 -2 0.5 -2 0.5 -7 
0.5 4.5 0.5 -2.5 0.5 -1.5 0.5 -4 0.5 1.5 0.5 -0.5 0.5 -2 0.5 -3.5 
0.5 -3.5 0.5 1 0.5 2 0.5 4 0.5 1 0.5 -1 0.5 -2.5 0.5 -2 
0.5 -4.5 0.5 -3.5 0.5 0.5 0.5 -2.5 0.5 -2 0.5 2 0.5 2 0.5 0 
0.5 5.5 0.5 2 0.5 1.5 0.5 9 0.5 3.5 0.5 -3 0.5 -2.5 0.5 2.5 
0.5 -1 S
1736 928 0.5 -0.5 0.5 -5 0.5 -6.5 0.5 0 0.5 -8 0.5 1.5 0.5 1.5 
0.5 3 0.5 1 0.5 -0.5 0.5 3.5 0.5 0.5 0.5 0 0.5 5 0.5 -1.5 
0.5 1 0.5 -3.5 0 -1 0.5 1 0.5 -1.5 0.5 0 0.5 0.5 0.5 4 
0.5 4 0.5 3 0.5 2.5 0.5 1 0.5 2.5 0.5 -1.5 0.5 -2.5 0.5 2 
0.5 0.5 0.5 -2 0.5 3.5 0.5 2 0.5 -0.5 0.5 5.5 0.5 -4.5 0.5 5 
0.5 -1.5 0.5 -3 0.5 -1 0.5 0 0.5 -2 0.5 -0.5 0 -1.5 0.5 -6 
0.5 2 0.5 3 0.5 7.5 0.5 2 0.5 -2 0.5 -2 0.5 0.5 0.5 -0.5 
0.5 2 0.5 -6 0.5 0 0.5 -4 0.5 -4 0.5 -4 0.5 -0.5 0.5 5.5 
0.5 3 0.5 7 0.5 -2.5 0.5 4 0.5 -1.5 0.5 -1 0.5 1.5 0.5 -5 
0.5 -0.5 0.5 2 0.5 1 0 4.5 0.5 1 0.5 -0.5 0.5 1 0.5 0 
0.5 2.5 0.5 0 0.5 -0.5 0.5 -8 0.5 -16.5 0.5 -3.5 0.5 2.5 0.5 3.5 
0.5 5 0.5 -2.5 0.5 1.5 0.5 -1 0.5 -4 0.5 2.5 0.5 1 0.5 2 
0.5 -1.5 0.5 -3 0.5 1.5 0.5 -0.5 0.5 -1.5 0.5 -3 0.5 0.5 0.5 0 
0 -0.5 S
1786 917.5 0.5 -0.5 0.5 -3 0.5 2 0.5 2 0.5 0 0.5 3 0.5 -1 
0.5 -2.5 0.5 -1 0.5 -0.5 0.5 -1 0.5 5.5 0.5 -0.5 0.5 -1.5 0.5 1 
0.5 0.5 0.5 2 0.5 1.5 0.5 2.5 0.5 -1 0.5 -1.5 0.5 1 0.5 0.5 
0.5 0 0.5 1 0.5 0.5 0.5 3 0.5 -1 0 -2.5 0.5 -0.5 0.5 2 
0.5 -1.5 0.5 0 0.5 -2 0.5 -4.5 0.5 -1.5 0.5 0.5 0.5 -0.5 0.5 0 
0.5 -2 0.5 -2 0.5 -3.5 0.5 0.5 0.5 1.5 0.5 1 0.5 -0.5 0.5 1 
0.5 -1.5 0.5 0.5 0.5 2.5 0.5 2 0.5 -0.5 0.5 -0.5 0.5 -0.5 0.5 -1 
0.5 -1 0 -2 0.5 -1.5 0.5 -1.5 0.5 2.5 0.5 1 0.5 -1 0.5 0 
0.5 -3 0.5 -1 0.5 0 0.5 5.5 0.5 0 0.5 2.5 0.5 1 0.5 -1.5 
0.5 -4 0.5 0 0.5 0.5 0.5 1 0.5 0 0.5 -1 0.5 0.5 0.5 -4.5 
0.5 2 0.5 -3 0.5 0 0.5 2 0.5 2 0.5 2.5 0.5 -1 0.5 -1.5 
0.5 -2 0.5 -2 0.5 4 0.5 2.5 0.5 -0.5 0.5 4 0.5 3.5 0.5 -0.5 
0.5 1.5 0.5 -1 0.5 0.5 0.5 1 0.5 2 0.5 2 0.5 -8 0.5 -0.5 
0.5 7.5 S
1837 924.5 0.5 -3 0.5 2 0.5 -0.5 0.5 2.5 0.5 1.5 0.5 -1 0.5 1.5 
0.5 0 0.5 3.5 0 0.5 0.5 0.5 0.5 -2.5 0.5 0 0.5 1 0.5 1 
0.5 0 0.5 0.5 0.5 -1.5 0.5 13.5 0.5 28 0.5 2.5 0.5 9.5 0.5 0.5 
0.5 -2 0.5 0.5 0.5 -1.5 0.5 -2 0.5 -2.5 0.5 -1.5 0.5 -18 0.5 -5.5 
0.5 -28 0.5 0.5 0.5 -3.5 0.5 1 0.5 1 0.5 -2.5 0.5 -1 0 0.5 
0.5 2 0.5 0 0.5 0 0.5 1 0.5 -2 0.5 -7.5 0.5 -5 0.5 0 
0.5 3.5 0.5 -1.5 0.5 2.5 0.5 3 0.5 3.5 0.5 2 0.5 1.5 0.5 2.5 
0.5 -2.5 0.5 2 0.5 -1 0.5 1.5 0.5 -1.5 0.5 -5 0.5 0 0.5 -4.5 
0.5 9 0.5 2.5 0.5 4 0 -2.5 0.5 -2 0.5 2 0.5 -2.5 0.5 6.5 
0.5 1 0.5 7 0.5 -8 0.5 1 0.5 -1 0.5 -2.5 0.5 1 0.5 0.5 
0.5 6.5 0.5 0 0.5 3.5 0.5 -2 0.5 0 0.5 1 0.5 3.5 0.5 -0.5 
0.5 0 0.5 0 0.5 -0.5 0.5 -4.5 0.5 -1 0.5 -4.5 0.5 -0.5 0.5 14.5 
0 -1.5 0.5 -0.5 0.5 -0.5 0.5 -0.5 0.5 1.5 0.5 1.5 0.5 0.5 0.5 0 
0.5 -3.5 S
1887 943 0.5 -9 0.5 3 0.5 1.5 0.5 1 0.5 3 0.5 -1 0.5 -2 
0.5 1 0.5 2 0.5 0 0.5 -1.5 0.5 0.5 0.5 -5 0.5 0.5 0.5 0 
0.5 0 0.5 -0.5 0.5 3.5 0.5 0.5 0.5 0 0 1.5 0.5 -2 0.5 -1 
0.5 -1 0.5 -1.5 0.5 -3 0.5 1.5 0.5 2 0.5 -0.5 0.5 -2.5 0.5 -1.5 
0.5 2.5 0.5 -3 0.5 -0.5 0.5 0.5 0.5 1 0.5 -6 0.5 -1 0.5 1.5 
0.5 -4 0.5 -1.5 0.5 0 0.5 0.5 0.5 0.5 0.5 -2.5 0.5 2 0.5 -2.5 
0.5 0 0 0.5 0.5 1 0.5 2 0.5 -1 0.5 -1.5 0.5 -0.5 0.5 -1 
0.5 1.5 0.5 0 0.5 2.5 0.5 2 0.5 -0.5 0.5 3 0.5 -2 0.5 0.5 
0.5 2.5 0.5 2.5 0.5 0 0.5 0.5 0.5 -2 0.5 0.5 0.5 -3 0.5 2 
0.5 -1 0.5 0 0.5 3 0.5 0 0.5 4 0.5 10 0 1.5 0.5 2.5 
0.5 1 0.5 -0.5 0.5 0.5 0.5 3 0.5 -5 0.5 -0.5 0.5 -2 0.5 -3 
0.5 -4.5 0.5 -7.5 0.5 -1.5 0.5 1.5 0.5 -0.5 0.5 0 0.5 -4.5 0.5 1 
0.5 -0.5 0.5 -1 0.5 4.5 0.5 -3 0.5 2.5 0.5 1.5 0.5 0 0.5 -4.5 
0.5 -0.5 S
1937.5 926 0.5 -1 0.5 0 0 -0.5 0.5 -3.5 0.5 2.5 0.5 1.5 0.5 0.5 
0.5 1.5 0.5 -3 0.5 0.5 0.5 -2 0.5 -2 0.5 -2 0.5 -2 0.5 1 
0.5 -2.5 0.5 -3 0.5 6.5 0.5 2.5 0.5 0.5 0.5 -0.5 0.5 -0.5 0.5 -2 
0.5 1 0.5 -1 0.5 0 0.5 -0.5 0.5 -0.5 0.5 0 0.5 0 0.5 -1.5 
0 -1 0.5 0 0.5 1 0.5 -1.5 0.5 2.5 0.5 -2 0.5 -1.5 0.5 -2 
0.5 1 0.5 1.5 0.5 3 0.5 6 0.5 0.5 0.5 2 0.5 1 0.5 1 
0.5 -1 0.5 -1 0.5 -2 0.5 -0.5 0.5 4 0.5 2.5 0.5 0 0.5 1 
0.5 3 0.5 -0.5 0.5 -0.5 0.5 2 0 -3 0.5 -1 0.5 -0.5 0.5 2.5 
0.5 0.5 0.5 -1.5 0.5 1 0.5 0 0.5 0 0.5 3 0.5 1 0.5 -1 
0.5 0 0.5 1 0.5 0 0.5 -3.5 0.5 -1 0.5 0 0.5 -6 0.5 0 
0.5 0.5 0.5 -1 0.5 -0.5 0.5 -0.5 0.5 -2.5 0.5 -1 0.5 -2 0.5 -1 
0.5 2.5 0 2.5 0.5 -0.5 0.5 4 0.5 0 0.5 5 0.5 8 0.5 12.5 
0.5 -1 0.5 -1 0.5 -0.5 0.5 5 0.5 -1 0.5 -1.5 0.5 0 0.5 -7 
0.5 -15.5 S
1987.5 929.5 0.5 1 0.5 4 0.5 -2 0.5 12.5 0.5 5 0.5 2.5 0.5 5 
0.5 0 0.5 -3.5 0.5 -3.5 0.5 -5.5 0.5 -0.5 0.5 -4.5 0 -11 0.5 -10 
0.5 2 0.5 -5.5 0.5 0.5 0.5 -1 0.5 2.5 0.5 -0.5 0.5 1.5 0.5 -1 
0.5 -6 0.5 -3.5 0.5 -0.5 0.5 1 0.5 1 0.5 0 0.5 -1 0.5 2 
0.5 0.5 0.5 -0.5 0.5 -0.5 0.5 -0.5 0.5 -0.5 0.5 -0.5 0.5 1.5 0.5 0 
0.5 2 0.5 -0.5 0.5 -0.5 0 1 0.5 0.5 0.5 1.5 0.5 0.5 0.5 -2 
0.5 -0.5 0.5 -0.5 0.5 2.5 0.5 2.5 0.5 2.5 0.5 0.5 0.5 -5.5 0.5 6 
0.5 4.5 0.5 2.5 0.5 2.5 0.5 1 0.5 -4.5 0.5 6 0.5 -1.5 0.5 10 
0.5 -0.5 0.5 3.5 0.5 1.5 0.5 -2.5 0.5 0 0.5 -5 0.5 -0.5 0 1.5 
0.5 3 0.5 -12.5 0.5 1.5 0.5 -1.5 0.5 -1.5 0.5 -3.5 0.5 0.5 0.5 1 
0.5 0.5 0.5 -3.5 0.5 2 0.5 -4 0.5 -8.5 0.5 2 0.5 3.5 0.5 0 
0.5 -3 0.5 2.5 0.5 0 0.5 -0.5 0.5 3.5 0.5 4 0.5 -3 0.5 -1.5 
0.5 -6 0.5 -8.5 0.5 14 0.5 5.5 0 -1 0.5 -16.5 0.5 -12.5 0.5 2 
0.5 -11.5 S
2037.5 885 0.5 16.5 0.5 13 0.5 7.5 0.5 -5 0.5 -12.5 0.5 1.5 0.5 4.5 
0.5 4.5 0.5 -4 0.5 0 0.5 -1.5 0.5 0 0.5 -1 0.5 0.5 0.5 -4 
0.5 -1 0.5 -2.5 0.5 1.5 0.5 1 0.5 -1.5 0.5 0 0.5 0.5 0.5 -0.5 
0.5 -1.5 0 3.5 0.5 0 0.5 2 0.5 1.5 0.5 -1 0.5 3 0.5 2.5 
0.5 1 0.5 1 0.5 -3 0.5 3 0.5 -3.5 0.5 -2.5 0.5 2.5 0.5 -1 
0.5 0.5 0.5 1 0.5 1.5 0.5 0 0.5 -2.5 0.5 1 0.5 0 0.5 -1 
0.5 -2 0.5 0.5 0.5 -2.5 0.5 0.5 0.5 0 0.5 2.5 0.5 4 0.5 0.5 
0.5 2 0.5 1.5 0.5 -5.5 0.5 2 0.5 -1 0.5 -1.5 0.5 -3 0.5 1 
0.5 13 0.5 7.5 0.5 0.5 0.5 2.5 0.5 -0.5 0.5 5.5 0.5 -3 0.5 0 
0.5 1.5 0.5 -5.5 0.5 0.5 0.5 -0.5 0.5 3.5 0.5 0 0.5 -4.5 0.5 -1.5 
0.5 -1 0 1 0.5 0.5 0.5 -1.5 0.5 1 0.5 -1 0.5 0.5 0.5 2.5 
0.5 1 0.5 1.5 0.5 -3.5 0.5 3 0.5 -1 0.5 -6.5 0.5 0 0.5 2 
0.5 -0.5 0.5 1 0.5 -0.5 0.5 -3.5 0.5 -1 0.5 -0.5 0.5 -4 0.5 -2.5 
0.5 -1 S
2088.5 914.5 0.5 1.5 0.5 -1 0.5 -1 0.5 -0.5 0.5 -2 0 0.5 0.5 0.5 
0.5 0 0.5 1 0.5 -0.5 0.5 -1 0.5 -1 0.5 -3 0.5 3 0.5 1.5 
0.5 1 0.5 1.5 0.5 0.5 0.5 2.5 0.5 0.5 0.5 1.5 0.5 -1.5 0.5 2 
0.5 0.5 0.5 -1.5 0.5 1.5 0.5 -1.5 0.5 -1 0.5 -2.5 0.5 2.5 0.5 1 
0.5 2 0.5 1 0.5 1.5 0 0.5 0.5 2.5 0.5 4.5 0.5 -3.5 0.5 2 
0.5 1 0.5 -1 0.5 -0.5 0.5 1 0.5 2.5 0.5 2 0.5 2 0.5 1 
0.5 1 0.5 -1.5 0.5 -3 0.5 -6.5 0.5 -0.5 0.5 -1.5 0.5 -1.5 0.5 -1 
0.5 -2.5 0.5 3 0.5 -1.5 0.5 1.5 0.5 1.5 0.5 3 0.5 -2.5 0 -2 
0.5 -2 0.5 0 0.5 -1.5 0.5 -5 0.5 5.5 0.5 0.5 0.5 1 0.5 3 
0.5 0 0.5 2.5 0.5 2.5 0.5 1 0.5 0 0.5 -2 0.5 1 0.5 1.5 
0.5 -1.5 0.5 -0.5 0.5 0 0.5 0 0.5 -2 0.5 0.5 0.5 -2.5 0.5 -3 
0.5 1 0.5 -0.5 0.5 -1.5 0.5 -1.5 0 1 0.5 -4 0.5 3 0.5 1 
0.5 0 0.5 -1.5 0.5 3 0.5 3.5 0.5 -1 0.5 -2 0.5 -1 0.5 -0.5 
0.5 -1.5 S
2138.5 920.5 0.5 -2.5 0.5 1.5 0.5 -1 0.5 -3.5 0.5 -2 0.5 -2.5 0.5 2 
0.5 -1.5 0.5 -0.5 0.5 0.5 0.5 2.5 0.5 0 0.5 -0.5 0.5 -4.5 0.5 -5 
0.5 -10.5 0 -4.5 0.5 -7.5 0.5 -6.5 0.5 -15 0.5 -45.5 0.5 15.5 0.5 13.5 
0.5 2.5 0.5 21 0.5 14 0.5 15.5 0.5 6.5 0.5 6 0.5 4 0.5 6 
0.5 -5 0.5 0 0.5 0 0.5 1 0.5 1.5 0.5 0.5 0.5 2 0.5 -1 
0.5 -1 0.5 -3.5 0.5 -2 0.5 -1 0.5 2 0 1 0.5 -1 0.5 -1 
0.5 4 0.5 1 0.5 2.5 0.5 2.5 0.5 1 0.5 0 0.5 0.5 0.5 2 
0.5 -1 0.5 1 0.5 2 0.5 1 0.5 -2 0.5 -1 0.5 3 0.5 -0.5 
0.5 -1 0.5 3.5 0.5 0.5 0.5 -1.5 0.5 -1 0.5 0.5 0.5 -1 0.5 0.5 
0.5 0.5 0.5 0.5 0 -1.5 0.5 -7 0.5 -3.5 0.5 -4.5 0.5 2 0.5 -1 
0.5 3.5 0.5 2 0.5 -1.5 0.5 0 0.5 0.5 0.5 -1 0.5 -1.5 0.5 -2.5 
0.5 -1 0.5 -3 0.5 -4.5 0.5 6 0.5 1.5 0.5 -1.5 0.5 -0.5 0.5 0 
0.5 0 0.5 -0.5 0.5 0.5 0.5 1 0.5 -1.5 0.5 -0.5 0.5 4.5 0.5 3 
0.5 15.5 S
2189 931.5 0.5 0.5 0.5 4.5 0.5 -1 0.5 0 0.5 2 0.5 2 0.5 -1 
0.5 -0.5 0.5 0.5 0.5 -14.5 0.5 -3 0.5 1.5 0.5 -1.5 0.5 1.5 0.5 -1 
0.5 1.5 0.5 1.5 0.5 3 0.5 4.5 0.5 5.5 0.5 1.5 0.5 3 0.5 -0.5 
0.5 3 0.5 -1 0.5 -1.5 0 -0.5 0.5 -1 0.5 -0.5 0.5 -11.5 0.5 0 
0.5 -3.5 0.5 -0.5 0.5 2.5 0.5 -1 0.5 7 0.5 0.5 0.5 0 0.5 2.5 
0.5 0.5 0.5 1 0.5 -1 0.5 -0.5 0.5 -1 0.5 4.5 0.5 4.5 0.5 1.5 
0.5 1 0.5 -2 0.5 -4.5 0.5 0 0.5 -4.5 0.5 -2 0.5 2 0 -6 
0.5 -3 0.5 3.5 0.5 2 0.5 1 0.5 -0.5 0.5 0.5 0.5 -3.5 0.5 13.5 
0.5 11 0.5 0.5 0.5 -1 0.5 -1.5 0.5 -1.5 0.5 1 0.5 -3.5 0.5 -6 
0.5 -19.5 0.5 -14.5 0.5 -2.5 0.5 -3 0.5 2 0.5 12 0.5 1 0.5 -2 
0.5 0 0.5 -1.5 0.5 -1 0.5 1 0 -3.5 0.5 0 0.5 -13.5 0.5 -2 
0.5 0 0.5 3.5 0.5 -1 0.5 0.5 0.5 1 0.5 1 0.5 -0.5 0.5 0 
0.5 0 0.5 -1 0.5 0.5 0.5 -2 0.5 4.5 0.5 1 0.5 0 0.5 3 
0.5 -1.5 S
2239.5 904 0.5 -2.5 0.5 -1 0.5 1 0.5 2 0.5 -2 0.5 -1.5 0.5 3.5 
0.5 0 0 0.5 0.5 3.5 0.5 1 0.5 3 0.5 1.5 0.5 0 0.5 -1.5 
0.5 3 0.5 1.5 0.5 -2 0.5 0.5 0.5 0 0.5 2 0.5 -2.5 0.5 -1.5 
0.5 0 0.5 -1.5 0.5 0 0.5 1 0.5 143 0.5 26.5 0.5 18.5 0.5 0.5 
0.5 1.5 0.5 -0.5 0.5 -1.5 0.5 -0.5 0.5 -1.5 0.5 -3.5 0 -22 0.5 -63.5 
0.5 -90.5 0.5 -4.5 0.5 -8 0.5 -5 0.5 0.5 0.5 3 0.5 1 0.5 1.5 
0.5 1.5 0.5 -1 0.5 0.5 0.5 0.5 0.5 1 0.5 3.5 0.5 -2.5 0.5 -1.5 
0.5 0 0.5 -0.5 0.5 7 0.5 2 0.5 -1.5 0.5 2 0.5 0 0.5 2.5 
0.5 -3 0.5 -1 0 -1 0.5 -2.5 0.5 1.5 0.5 0.5 0.5 -8 0.5 3.5 
0.5 -1 0.5 -3 0.5 1.5 0.5 -1 0.5 -1.5 0.5 0.5 0.5 -2 0.5 -1 
0.5 1 0.5 -0.5 0.5 1 0.5 -1 0.5 -1.5 0.5 2 0.5 -2 0.5 2 
0.5 1 0.5 2 0.5 -1.5 0.5 4.5 0.5 1 0.5 -1.5 0.5 0.5 0 3 
0.5 -0.5 0.5 -4.5 0.5 -1 0.5 -1 0.5 1.5 0.5 -5.5 0.5 -2.5 0.5 -1 
0.5 -1.5 S
2289.5 897 0.5 -1.5 0.5 0.5 0.5 0.5 0.5 -3 0.5 -1.5 0.5 0.5 0.5 2 
0.5 4.5 0.5 2 0.5 2.5 0.5 0.5 0.5 1 0.5 1.5 0.5 2 0.5 0.5 
0.5 0 0.5 2 0.5 -3 0.5 -0.5 0 1.5 0.5 1.5 0.5 -1 0.5 -0.5 
0.5 0.5 0.5 -1 0.5 4.5 0.5 -2 0.5 -2 0.5 0 0.5 -1 0.5 -2 
0.5 1 0.5 2.5 0.5 -1 0.5 -2.5 0.5 -4 0.5 -0.5 0.5 4 0.5 1 
0.5 -0.5 0.5 0 0.5 0 0.5 0 0.5 2 0.5 1 0.5 -2 0.5 -0.5 
0 2.5 0.5 0.5 0.5 0 0.5 2.5 0.5 6.5 0.5 3 0.5 -0.5 0.5 0 
0.5 -2 0.5 -4 0.5 -0.5 0.5 -1.5 0.5 -1 0.5 -6 0.5 -3 0.5 2 
0.5 -1.5 0.5 8.5 0.5 3 0.5 3 0.5 -2.5 0.5 1.5 0.5 -1 0.5 2 
0.5 -1.5 0.5 -2.5 0.5 -7.5 0.5 0 0.5 -0.5 0 1 0.5 -0.5 0.5 3.5 
0.5 -3 0.5 0.5 0.5 2.5 0.5 -2 0.5 1 0.5 2 0.5 -0.5 0.5 0.5 
0.5 2.5 0.5 4.5 0.5 2.5 0.5 -2 0.5 -2 0.5 -1 0.5 1.5 0.5 -2 
0.5 7 0.5 -5.5 0.5 -3.5 0.5 0 0.5 -4 0.5 2.5 0.5 -1 0.5 3 
0.5 -0.5 S
2340 913 0.5 -5.5 0 2 0.5 -0.5 0.5 -1 0.5 1 0.5 1 0.5 5 
0.5 2 0.5 2 0.5 0 0.5 0.5 0.5 1.5 0.5 0 0.5 1 0.5 -2.5 
0.5 -1.5 0.5 -4 0.5 -1.5 0.5 0.5 0.5 -2.5 0.5 0.5 0.5 1.5 0.5 1.5 
0.5 2 0.5 1 0.5 -1 0.5 0.5 0.5 3 0.5 -0.5 0.5 -1 0 2.5 
0.5 -0.5 0.5 -5.5 0.5 -1 0.5 -0.5 0.5 -2 0.5 -0.5 0.5 0 0.5 3 
0.5 5 0.5 -0.5 0.5 2 0.5 1 0.5 0 0.5 -1 0.5 -1 0.5 -1 
0.5 8 0.5 1 0.5 -1.5 0.5 4 0.5 -1 0.5 -0.5 0.5 -2.5 0.5 1 
0.5 1 0.5 -11 0.5 7.5 0 -0.5 0.5 -1 0.5 1.5 0.5 2 0.5 -2.5 
0.5 0.5 0.5 -1.5 0.5 -3 0.5 -8 0.5 -3 0.5 -2 0.5 -0.5 0.5 -1 
0.5 -1 0.5 -0.5 0.5 2 0.5 -2 0.5 -0.5 0.5 4.5 0.5 0.5 0.5 0 
0.5 0.5 0.5 -2 0.5 2.5 0.5 -1.5 0.5 0 0.5 2.5 0.5 0.5 0.5 -3 
0 -2 0.5 1.5 0.5 -1.5 0.5 -1 0.5 -0.5 0.5 0 0.5 1.5 0.5 -3.5 
0.5 -1.5 0.5 6.5 0.5 12 0.5 0.5 0.5 1.5 0.5 0 0.5 4.5 0.5 2 
0.5 0.5 S
2390 928 0.5 0 0.5 0.5 0.5 -1.5 0.5 -4.5 0.5 -1 0.5 -1 0.5 0 
0.5 -2 0.5 -1.5 0.5 1.5 0.5 -1 0.5 -2 0 -2.5 0.5 1 0.5 -4.5 
0.5 -1 0.5 0 0.5 0.5 0.5 -0.5 0.5 -2 0.5 -0.5 0.5 -0.5 0.5 -0.5 
0.5 3 0.5 -3.5 0.5 2 0.5 0 0.5 1 0.5 3.5 0.5 2.5 0.5 0 
0.5 0.5 0.5 1.5 0.5 -2 0.5 -1 0.5 -0.5 0.5 -1.5 0.5 -1.5 0.5 -5 
0.5 -1.5 0.5 2.5 0 -2 0.5 -4 0.5 0 0.5 0.5 0.5 0 0.5 -2 
0.5 0 0.5 -1.5 0.5 0.5 0.5 0 0.5 2.5 0.5 -3 0.5 0 0.5 0.5 
0.5 -1 0.5 0.5 0.5 -1 0.5 -0.5 0.5 1 0.5 0 0.5 -2 0.5 -1 
0.5 0 0.5 -1 0.5 1.5 0.5 0 0.5 0.5 0.5 0 0 0.5 0.5 -2.5 
0.5 0.5 0.5 2 0.5 2.5 0.5 1 0.5 -0.5 0.5 -1 0.5 2.5 0.5 2 
0.5 -1 0.5 0.5 0.5 -1 0.5 -1 0.5 -1.5 0.5 -1 0.5 -0.5 0.5 2 
0.5 -2 0.5 2.5 0.5 -1 0.5 -3.5 0.5 1 0.5 -2.5 0.5 1 0.5 1.5 
0.5 1.5 0.5 -1.5 0.5 -1 0 1 0.5 -1.5 0.5 -0.5 0.5 5 0.5 0 
0.5 0 S
2440 897 0.5 -2 0.5 -4.5 0.5 5.5 0.5 1 0.5 2 0.5 0 0.5 -1 
0.5 -1 0.5 1 0.5 0.5 0.5 4 0.5 1.5 0.5 -1.5 0.5 -2 0.5 3.5 
0.5 -1 0.5 4 0.5 -1 0.5 4 0.5 3 0.5 -1 0.5 0.5 0.5 -1.5 
0 0.5 0.5 1.5 0.5 -2.5 0.5 3.5 0.5 -3 0.5 -2 0.5 -1.5 0.5 -2.5 
0.5 6 0.5 -1 0.5 0 0.5 -0.5 0.5 4 0.5 -1.5 0.5 -0.5 0.5 1.5 
0.5 -2 0.5 -3.5 0.5 -3.5 0.5 -1 0.5 -1.5 0.5 -5.5 0.5 -1 0.5 0 
0.5 0 0.5 -0.5 0.5 -2 0.5 -1 0.5 -0.5 0.5 1 0.5 0.5 0.5 2 
0.5 -2 0.5 -2 0.5 -1.5 0.5 -1.5 0.5 0 0.5 0 0.5 1.5 0.5 1.5 
0.5 2 0.5 1 0.5 2 0.5 5.5 0.5 4 0.5 -1 0.5 1.5 0.5 2 
0.5 0.5 0.5 1 0.5 1.5 0.5 0.5 0.5 -3 0.5 0.5 0.5 -2 0.5 -0.5 
0 1 0.5 -2 0.5 -0.5 0.5 0 0.5 -2 0.5 0.5 0.5 -3 0.5 1 
0.5 1.5 0.5 0.5 0.5 1 0.5 1.5 0.5 -1 0.5 1 0.5 -2.5 0.5 -0.5 
0.5 -1.5 0.5 0.5 0.5 1 0.5 0 0.5 1 0.5 1 0.5 1 0.5 2 
0.5 3 S
2491 910.5 0.5 -1 0.5 -1 0.5 -1.5 0.5 -1.5 0 -0.5 0.5 -2.5 0.5 -2 
0.5 -2 0.5 -0.5 0.5 -0.5 0.5 1.5 0.5 -2 0.5 0 0.5 4 0.5 1.5 
0.5 0 0.5 1.5 0.5 -2 0.5 -0.5 0.5 1.5 0.5 1 0.5 0.5 0.5 -2 
0.5 2.5 0.5 1 0.5 -2.5 0.5 -2 0.5 2 0.5 0 0.5 2 0.5 -3.5 
0.5 1.5 0.5 0 0 -1.5 0.5 0.5 0.5 19 0.5 4 0.5 1.5 0.5 -0.5 
0.5 -2 0.5 0 0.5 2.5 0.5 1 0.5 -3 0.5 -1.5 0.5 -19 0.5 4.5 
0.5 7.5 0.5 2.5 0.5 -1 0.5 -2 0.5 -2.5 0.5 0 0.5 0.5 0.5 -1 
0.5 1 0.5 1 0.5 -5 0.5 6 0.5 3 0.5 1 0 -1 0.5 1 
0.5 1 0.5 -2.5 0.5 -0.5 0.5 0 0.5 -0.5 0.5 0 0.5 0.5 0.5 3.5 
0.5 -3.5 0.5 -13.5 0.5 1.5 0.5 3 0.5 4 0.5 0 0.5 0.5 0.5 0 
0.5 0 0.5 -1.5 0.5 -1 0.5 -3 0.5 2.5 0.5 1 0.5 -1 0.5 2 
0.5 -2 0.5 0.5 0.5 3 0 2.5 0.5 2 0.5 0 0.5 2 0.5 -4 
0.5 -0.5 0.5 2 0.5 1.5 0.5 3.5 0.5 -4.5 0.5 -2 0.5 -3 0.5 -0.5 
0.5 -0.5 S
2541 912.5 0.5 -0.5 0.5 1 0.5 -2.5 0.5 2 0.5 1.5 0.5 -1.5 0.5 -1 
0.5 0 0.5 3 0.5 -1.5 0.5 -1.5 0.5 2 0.5 -0.5 0.5 0.5 0.5 -1.5 
0 1 0.5 -2 0.5 1.5 0.5 -0.5 0.5 -1.5 0.5 1.5 0.5 1.5 0.5 2 
0.5 0.5 0.5 -0.5 0.5 -2 0.5 -2 0.5 0.5 0.5 -2.5 0.5 -0.5 0.5 -3.5 
0.5 6 0.5 2 0.5 0.5 0.5 0 0.5 -1 0.5 0 0.5 1 0.5 1 
0.5 1.5 0.5 -3.5 0.5 -2.5 0.5 -2.5 0 -2.5 0.5 0 0.5 -2.5 0.5 0.5 
0.5 0.5 0.5 2 0.5 1 0.5 0 0.5 -2 0.5 1 0.5 3 0.5 2 
0.5 -0.5 0.5 -0.5 0.5 3 0.5 -1.5 0.5 1 0.5 -0.5 0.5 -1 0.5 2.5 
0.5 -2 0.5 1 0.5 0.5 0.5 3 0.5 -1 0.5 0 0.5 3.5 0.5 1.5 
0.5 0 0 -0.5 0.5 1.5 0.5 0 0.5 -2 0.5 1.5 0.5 1.5 0.5 -0.5 
0.5 2.5 0.5 1.5 0.5 -1.5 0.5 2 0.5 -2.5 0.5 -1 0.5 -2 0.5 -4 
0.5 -1 0.5 2.5 0.5 -1.5 0.5 0 0.5 -4 0.5 -2.5 0.5 -1 0.5 1 
0.5 0.5 0.5 -0.5 0.5 -1.5 0.5 -2 0.5 1.5 0.5 0 0 1.5 0.5 0.5 
0.5 1 S
2591 911 0.5 -0.5 0.5 -1.5 0.5 0 0.5 -1 0.5 -0.5 0.5 -0.5 0.5 -1 
0.5 1 0.5 0 0.5 0 0.5 1 0.5 0 0.5 0.5 0.5 2.5 0.5 2.5 
0.5 -1 0.5 -0.5 0.5 -2.5 0.5 2.5 0.5 -0.5 0.5 0 0.5 -0.5 0.5 4 
0.5 0.5 0.5 0 0.5 -1 0 -3 0.5 0.5 0.5 -0.5 0.5 1.5 0.5 2.5 
0.5 -0.5 0.5 0 0.5 -4.5 0.5 -3 0.5 7.5 0.5 -1 0.5 2 0.5 -4.5 
0.5 4 0.5 -2 0.5 0.5 0.5 0 0.5 -1 0.5 3 0.5 -1 0.5 0 
0.5 1 0.5 2 0.5 1.5 0.5 1.5 0.5 0 0.5 2 0.5 1.5 0 -5.5 
0.5 -4.5 0.5 0 0.5 -1 0.5 -1.5 0.5 -2 0.5 -1 0.5 2.5 0.5 1.5 
0.5 -1 0.5 3 0.5 0.5 0.5 1 0.5 -1 0.5 3 0.5 2.5 0.5 -1 
0.5 0.5 0.5 -1 0.5 -1.5 0.5 3 0.5 6 0.5 6 0.5 -3 0.5 3 
0.5 -3.5 0.5 0 0.5 0 0.5 -2.5 0 -1.5 0.5 -3.5 0.5 -7 0.5 1.5 
0.5 -4 0.5 0.5 0.5 -4 0.5 0.5 0.5 0 0.5 4 0.5 2 0.5 0.5 
0.5 0 0.5 2 0.5 -1 0.5 -2 0.5 1 0.5 0 0.5 0.5 0.5 2 
0.5 2.5 S
2641.5 921 0.5 -1.5 0.5 -0.5 0.5 1.5 0.5 0.5 0.5 0 0.5 0 0.5 -0.5 
0.5 -2.5 0 7.5 0.5 1 0.5 2 0.5 -2.5 0.5 3.5 0.5 3.5 0.5 -1.5 
0.5 -1 0.5 0.5 0.5 -3.5 0.5 -4.5 0.5 -6 0.5 62 0.5 18.5 0.5 2 
0.5 -7 0.5 0 0.5 -1 0.5 2 0.5 2 0.5 -0.5 0.5 1 0.5 -7.5 
0.5 -16.5 0.5 -62 0.5 1 0.5 -1 0.5 2 0.5 2 0 -0.5 0.5 -0.5 
0.5 0.5 0.5 2 0.5 -2.5 0.5 2 0.5 -1.5 0.5 -0.5 0.5 -0.5 0.5 0.5 
0.5 1 0.5 3 0.5 -3.5 0.5 2 0.5 0 0.5 -1 0.5 2 0.5 2.5 
0.5 1.5 0.5 1.5 0.5 2.5 0.5 -1 0.5 -1.5 0.5 0 0.5 3 0.5 3 
0.5 -1 0.5 -2.5 0 2.5 0.5 -3 0.5 1 0.5 3 0.5 0 0.5 3.5 
0.5 -1.5 0.5 0 0.5 -0.5 0.5 -1.5 0.5 5.5 0.5 -1 0.5 0.5 0.5 -1.5 
0.5 0 0.5 -3 0.5 -1.5 0.5 -1.5 0.5 -3.5 0.5 -6 0.5 -1.5 0.5 1.5 
0.5 -2.5 0.5 -0.5 0.5 -1 0.5 -3.5 0.5 -2.5 0.5 2.5 0.5 -2.5 0 -1.5 
0.5 0 0.5 0 0.5 1.5 0.5 0 0.5 2.5 0.5 -0.5 0.5 0 0.5 2 
0.5 -2.5 S
2691.5 907.5 0.5 -1.5 0.5 -2 0.5 1 0.5 3.5 0.5 0.5 0.5 0 0.5 -1 
0.5 -0.5 0.5 -1.5 0.5 -1 0.5 0 0.5 -1 0.5 1.5 0.5 -3 0.5 -1 
0.5 -2.5 0.5 2 0.5 3 0.5 -3 0 1 0.5 -1 0.5 0 0.5 -0.5 
0.5 -1 0.5 6 0.5 3.5 0.5 1 0.5 1 0.5 0 0.5 1 0.5 1 
0.5 -0.5 0.5 1 0.5 -1.5 0.5 -0.5 0.5 -0.5 0.5 1 0.5 -2.5 0.5 2 
0.5 -1 0.5 1.5 0.5 0.5 0.5 -1 0.5 -2.5 0.5 0 0.5 0 0.5 1 
0 0.5 0.5 1 0.5 1.5 0.5 0 0.5 -0.5 0.5 2 0.5 0.5 0.5 -2 
0.5 0 0.5 -1 0.5 -1 0.5 3 0.5 5.5 0.5 -1.5 0.5 -2 0.5 2.5 
0.5 2 0.5 -1.5 0.5 1 0.5 0.5 0.5 23.5 0.5 -0.5 0.5 -3 0.5 -4.5 
0.5 -1 0.5 -0.5 0.5 2 0.5 -1 0.5 0 0 -1 0.5 -18 0.5 -0.5 
0.5 1.5 0.5 -1 0.5 -3 0.5 0.5 0.5 1 0.5 1.5 0.5 0 0.5 1 
0.5 -3.5 0.5 -1 0.5 0.5 0.5 0 0.5 -1 0.5 -0.5 0.5 3.5 0.5 -1.5 
0.5 -3 0.5 4 0.5 1.5 0.5 1.5 0.5 -1.5 0.5 -2.5 0.5 0.5 0.5 -1 
0.5 -1 S
2742 912.5 0.5 1.5 0 2 0.5 -4 0.5 -3.5 0.5 -0.5 0.5 0.5 0.5 -2 
0.5 -0.5 0.5 -3 0.5 1.5 0.5 1.5 0.5 -2 0.5 1 0.5 -3.5 0.5 0 
0.5 -0.5 0.5 -3.5 0.5 3 0.5 -0.5 0.5 -1.5 0.5 3 0.5 0 0.5 0 
0.5 0.5 0.5 -1.5 0.5 0 0.5 0.5 0.5 -2 0.5 3 0.5 0 0 -3 
0.5 0 0.5 -1.5 0.5 2 0.5 -1.5 0.5 1 0.5 3.5 0.5 0 0.5 -0.5 
0.5 0 0.5 -1 0.5 3 0.5 3.5 0.5 1.5 0.5 -0.5 0.5 2 0.5 -1 
0.5 -4.5 0.5 -0.5 0.5 0 0.5 3.5 0.5 -1 0.5 -5 0.5 0 0.5 0 
0.5 -0.5 0.5 -1 0.5 1.5 0 2.5 0.5 -2 0.5 -1 0.5 1 0.5 -0.5 
0.5 1 0.5 -2 0.5 1 0.5 -4.5 0.5 0.5 0.5 -1.5 0.5 1 0.5 1 
0.5 0.5 0.5 3.5 0.5 0.5 0.5 0 0.5 0.5 0.5 1 0.5 -0.5 0.5 0.5 
0.5 -3 0.5 -1 0.5 0.5 0.5 1 0.5 1.5 0.5 2.5 0.5 -1 0.5 -1 
0 1 0.5 3 0.5 2 0.5 -2 0.5 1.5 0.5 0 0.5 0.5 0.5 -1 
0.5 -3 0.5 0.5 0.5 0.5 0.5 -0.5 0.5 -2 0.5 -3 0.5 -2 0.5 0.5 
0.5 -1 S
2792 899 0.5 -0.5 0.5 -2 0.5 -2 0.5 0.5 0.5 -2 0.5 -3 0.5 2 
0.5 -0.5 0.5 0 0.5 2 0.5 1 0.5 0.5 0 0.5 0.5 -2 0.5 -0.5 
0.5 0 0.5 2 0.5 1.5 0.5 1 0.5 -0.5 0.5 3.5 0.5 -0.5 0.5 1.5 
0.5 0.5 0.5 0 0.5 -2 0.5 -0.5 0.5 0.5 0.5 -1 0.5 0.5 0.5 3 
0.5 0.5 0.5 -1.5 0.5 3 0.5 -2 0.5 -2 0.5 -1 0.5 -1.5 0.5 -1 
0.5 -1 0.5 1 0 -3.5 0.5 2.5 0.5 -1 0.5 2.5 0.5 1.5 0.5 -0.5 
0.5 -1 0.5 2.5 0.5 1 0.5 0 0.5 0 0.5 0 0.5 -3.5 0.5 1.5 
0.5 1.5 0.5 -0.5 0.5 2.5 0.5 -1 0.5 -2 0.5 1 0.5 0 0.5 -0.5 
0.5 -0.5 0.5 -2 0.5 -2.5 0.5 3 0.5 -0.5 0.5 0 0.5 -2 0.5 0 
0.5 0 0.5 -0.5 0.5 0.5 0.5 0 0.5 1.5 0.5 2.5 0.5 6 0.5 -0.5 
0.5 1.5 0.5 0 0.5 -1.5 0.5 -1 0.5 0.5 0.5 -3 0.5 -4 0.5 -2 
0.5 -1 0.5 2 0.5 1.5 0.5 1.5 0.5 -1 0.5 -1.5 0.5 3 0.5 -0.5 
0.5 -0.5 0.5 3 0 -0.5 0.5 -2 0.5 -1 0.5 -2.5 0.5 -2 0.5 -2 
0.5 -0.5 S
2842.5 891.5 0.5 -3 0.5 0.5 0.5 -1 0.5 -0.5 0.5 -0.5 0.5 1 0.5 2.5 
0.5 1 0.5 -1 0.5 1 0.5 0 0.5 0 0.5 1.5 0.5 1 0.5 1.5 
0.5 1.5 0.5 1.5 0.5 3.5 0.5 2.5 0.5 1.5 0.5 0.5 0.5 1.5 0 0.5 
0.5 0 0.5 -0.5 0.5 5.5 0.5 0 0.5 -0.5 0.5 -2 0.5 -1.5 0.5 -0.5 
0.5 3.5 0.5 -2 0.5 -1.5 0.5 -2 0.5 0.5 0.5 1.5 0.5 3 0.5 -1 
0.5 0 0.5 10.5 0.5 0 0.5 -1 0.5 9 0.5 1.5 0.5 2 0.5 2.5 
0.5 -2.5 0.5 -1 0.5 -6.5 0 0.5 0.5 1 0.5 -2.5 0.5 2 0.5 0 
0.5 0 0.5 -3 0.5 2.5 0.5 -1 0.5 -15.5 0.5 2 0.5 -0.5 0.5 3 
0.5 -0.5 0.5 1.5 0.5 1.5 0.5 0 0.5 -1.5 0.5 -2.5 0.5 2 0.5 0.5 
0.5 1 0.5 -4.5 0.5 -3 0.5 -4 0.5 -0.5 0.5 -2 0.5 1.5 0.5 4 
0 -3 0.5 -3 0.5 0 0.5 -0.5 0.5 -1 0.5 0.5 0.5 0.5 0.5 -1.5 
0.5 0 0.5 -1.5 0.5 -1 0.5 0.5 0.5 -1.5 0.5 0.5 0.5 2 0.5 -3 
0.5 0.5 0.5 -0.5 0.5 0 0.5 0.5 0.5 4.5 0.5 1 0.5 -0.5 0.5 1 
0.5 -0.5 S
2893 901.5 0.5 -1.5 0.5 -1 0.5 -0.5 0.5 2 0 2.5 0.5 0 0.5 3 
0.5 -1 0.5 -1.5 0.5 2.5 0.5 3 0.5 2.5 0.5 0 0.5 5.5 0.5 1 
0.5 -1.5 0.5 -1 0.5 -2 0.5 2.5 0.5 -1.5 0.5 -3.5 0.5 0.5 0.5 -1 
0.5 -4 0.5 2 0.5 1.5 0.5 0 0.5 2.5 0.5 0.5 0.5 -0.5 0.5 0 
0.5 -1.5 0.5 -2 0 -4.5 0.5 1.5 0.5 -0.5 0.5 0.5 0.5 0.5 0.5 -1.5 
0.5 -0.5 0.5 2.5 0.5 -0.5 0.5 -0.5 0.5 0 0.5 1.5 0.5 2 0.5 -3.5 
0.5 2 0.5 0 0.5 -2.5 0.5 -0.5 0.5 1.5 0.5 -1 0.5 -1 0.5 -1 
0.5 -0.5 0.5 1.5 0.5 1 0.5 -1.5 0.5 1 0.5 1 0 0.5 0.5 1 
0.5 3 0.5 2 0.5 1.5 0.5 4.5 0.5 1 0.5 11 0.5 1.5 0.5 1 
0.5 0.5 0.5 -4 0.5 -6 0.5 0 0.5 -4 0.5 -4 0.5 -14 0.5 -2 
0.5 4 0.5 10 0.5 6 0.5 -1 0.5 0 0.5 -1.5 0.5 -1.5 0.5 0 
0.5 -0.5 0.5 -9.5 0.5 -6.5 0 -3 0.5 -3 0.5 -1 0.5 4.5 0.5 -1.5 
0.5 -0.5 0.5 1 0.5 1.5 0.5 1.5 0.5 0.5 0.5 1.5 0.5 -0.5 0.5 0.5 
0.5 1.5 S
2943 902 0.5 -1 0.5 -0.5 0.5 0 0.5 2 0.5 1 0.5 1 0.5 -2 
0.5 0.5 0.5 1.5 0.5 0 0.5 -0.5 0.5 5 0.5 4.5 0.5 0 0.5 2 
0 -3.5 0.5 0 0.5 1 0.5 -1.5 0.5 0 0.5 -4 0.5 -4 0.5 0 
0.5 0 0.5 2.5 0.5 2.5 0.5 2 0.5 0 0.5 -0.5 0.5 0 0.5 1.5 
0.5 0 0.5 1.5 0.5 -4 0.5 1 0.5 -1.5 0.5 -5 0.5 3 0.5 -1 
0.5 -1.5 0.5 0 0.5 0 0.5 -2.5 0 -0.5 0.5 -3 0.5 -1 0.5 1.5 
0.5 3 0.5 1.5 0.5 3 0.5 1.5 0.5 1 0.5 3.5 0.5 -1 0.5 0.5 
0.5 -3 0.5 3 0.5 -1 0.5 2.5 0.5 -2.5 0.5 1.5 0.5 1 0.5 1 
0.5 -0.5 0.5 -3 0.5 -3 0.5 -0.5 0.5 1.5 0.5 1.5 0.5 -2 0.5 -1 
0.5 -4 0 -1.5 0.5 0 0.5 0 0.5 -1 0.5 1 0.5 -2.5 0.5 -0.5 
0.5 1 0.5 -4 0.5 1 0.5 2 0.5 -2.5 0.5 -0.5 0.5 2 0.5 2 
0.5 1.5 0.5 0.5 0.5 2 0.5 1.5 0.5 4.5 0.5 1.5 0.5 -2.5 0.5 0.5 
0.5 0.5 0.5 3.5 0.5 -1 0.5 0.5 0.5 -3.5 0.5 0 0 -3 0.5 2 
0.5 0.5 S
2993 908.5 0.5 4.5 0.5 -2 0.5 -0.5 0.5 -0.5 0.5 -1 0.5 1.5 0.5 -1 
0.5 -2 0.5 -1 0.5 -1 0.5 -4 0.5 0.5 0.5 1 0.5 -2 0.5 2.5 
0.5 -1 0.5 -0.5 0.5 2.5 0.5 -3.5 0.5 1.5 0.5 -0.5 0.5 3.5 0.5 1.5 
0.5 0 0.5 1 0.5 2 0 -3 0.5 -2 0.5 1 0.5 -2 0.5 3 
0.5 -1.5 0.5 2 0.5 1 0.5 -4 0.5 1 0.5 2.5 0.5 3.5 0.5 -1 
0.5 -2.5 0.5 -0.5 0.5 -2 0.5 -0.5 0.5 1 0.5 2 0.5 0 0.5 -1.5 
0.5 -2.5 0.5 2.5 0.5 5 0.5 -1.5 0.5 -1.5 0.5 -1.5 0.5 -0.5 0 -0.5 
0.5 -0.5 0.5 0 0.5 0 0.5 -2 0.5 -3 0.5 1.5 0.5 0.5 0.5 0 
0.5 -2 0.5 -1 0.5 2 0.5 7 0.5 3 0.5 2.5 0.5 -0.5 0.5 -1 
0.5 -3.5 0.5 -4 0.5 0.5 0.5 0 0.5 -3 0.5 -2.5 0.5 -5 0.5 0 
0.5 0.5 0.5 2 0.5 4.5 0.5 1 0 -1 0.5 -1 0.5 2.5 0.5 -0.5 
0.5 -0.5 0.5 -2.5 0.5 -1 0.5 -0.5 0.5 0 0.5 0 0.5 0 0.5 1.5 
0.5 2 0.5 0.5 0.5 -1 0.5 -2.5 0.5 -0.5 0.5 1 0.5 0 0.5 2 
0.5 -1.5 S
3043.5 900 0.5 1.5 0.5 2 0.5 0.5 0.5 0.5 0.5 4.5 0.5 6 0.5 0 
0.5 0.5 0 -1.5 0.5 12.5 0.5 -1.5 0.5 1 0.5 -0.5 0.5 2 0.5 9.5 
0.5 -3 0.5 -1 0.5 -1 0.5 -9.5 0.5 2 0.5 2.5 0.5 -1 0.5 -2 
0.5 -11 0.5 -0.5 0.5 -1.5 0.5 -1.5 0.5 0 0.5 1.5 0.5 2.5 0.5 -2 
0.5 0 0.5 -5 0.5 1 0.5 0.5 0.5 -1 0.5 2 0 2.5 0.5 2.5 
0.5 -1 0.5 1.5 0.5 1 0.5 -0.5 0.5 0 0.5 0 0.5 -3.5 0.5 -2 
0.5 3 0.5 -0.5 0.5 -0.5 0.5 1.5 0.5 -2.5 0.5 3 0.5 -3.5 0.5 -2 
0.5 -2 0.5 -4 0.5 -0.5 0.5 -0.5 0.5 -4 0.5 3.5 0.5 -2 0.5 -0.5 
0.5 1 0.5 0.5 0 -2 0.5 -1 0.5 0 0.5 0 0.5 0.5 0.5 -3 
0.5 0.5 0.5 -2.5 0.5 -3 0.5 2 0.5 1 0.5 -1.5 0.5 0 0.5 8 
0.5 1.5 0.5 1 0.5 3 0.5 2 0.5 -2 0.5 1 0.5 -0.5 0.5 -1 
0.5 -2 0.5 1.5 0.5 -0.5 0.5 1 0.5 0 0.5 1.5 0.5 1 0 1 
0.5 2.5 0.5 1.5 0.5 5.5 0.5 -2.5 0.5 -1.5 0.5 -3.5 0.5 2 0.5 0 
0.5 -2 S
3093.5 909 0.5 -0.5 0.5 3.5 0.5 0 0.5 -5.5 0.5 1.5 0.5 3.5 0.5 1 
0.5 0.5 0.5 -1.5 0.5 -0.5 0.5 -5 0.5 -2 0.5 -3 0.5 1 0.5 -2.5 
0.5 -2.5 0.5 2 0.5 2 0.5 -0.5 0 3.5 0.5 -1 0.5 -0.5 0.5 -0.5 
0.5 -0.5 0.5 0 0.5 3 0.5 0.5 0.5 -0.5 0.5 -2 0.5 -1 0.5 0.5 
0.5 -0.5 0.5 2 0.5 0 0.5 -0.5 0.5 0 0.5 -1 0.5 1.5 0.5 0.5 
0.5 1 0.5 -0.5 0.5 -4.5 0.5 0.5 0.5 3.5 0.5 -1.5 0.5 -0.5 0.5 0 
0 -3 0.5 -2 0.5 -2 0.5 0.5 0.5 0 0.5 -1 0.5 -1 0.5 -1.5 
0.5 0.5 0.5 -1.5 0.5 0.5 0.5 -3 0.5 0.5 0.5 -0.5 0.5 1.5 0.5 0 
0.5 -1.5 0.5 1 0.5 2.5 0.5 3 0.5 -2 0.5 -1 0.5 1 0.5 -4.5 
0.5 3 0.5 -1.5 0.5 0 0.5 2 0.5 1 0 0.5 0.5 2 0.5 0 
0.5 0 0.5 0 0.5 -0.5 0.5 0 0.5 1.5 0.5 2.5 0.5 -0.5 0.5 1.5 
0.5 -4 0.5 2 0.5 1 0.5 0.5 0.5 -2.5 0.5 -2 0.5 0 0.5 0.5 
0.5 0 0.5 0 0.5 1 0.5 2 0.5 1.5 0.5 -2 0.5 -1.5 0.5 2 
0.5 0 S
3144 898.5 0.5 0 0 -1 0.5 1.5 0.5 0 0.5 -2 0.5 -1.5 0.5 0 
0.5 -1.5 0.5 0 0.5 -2.5 0.5 -0.5 0.5 1.5 0.5 -2 0.5 0.5 0.5 0 
0.5 -1 0.5 0 0.5 1.5 0.5 -1 0.5 1 0.5 0.5 0.5 0 0.5 1 
0.5 3.5 0.5 0.5 0.5 0 0.5 0 0.5 -1.5 0.5 0 0.5 0 0 1 
0.5 -1 0.5 -1.5 0.5 0.5 0.5 1 0.5 -1 0.5 1.5 0.5 -2 0.5 1 
0.5 -3.5 0.5 -1.5 0.5 0.5 0.5 1.5 0.5 -0.5 0.5 -1 0.5 0 0.5 2 
0.5 2 0.5 -2.5 0.5 -0.5 0.5 1.5 0.5 -0.5 0.5 0.5 0.5 -1 0.5 2.5 
0.5 -2.5 0.5 -1.5 0.5 -0.5 0 1 0.5 2 0.5 -1.5 0.5 3 0.5 5.5 
0.5 1 0.5 2.5 0.5 2.5 0.5 -1 0.5 1 0.5 -1.5 0.5 1.5 0.5 0 
0.5 -0.5 0.5 -4 0.5 7 0.5 0 0.5 1.5 0.5 1.5 0.5 -2 0.5 -8 
0.5 -0.5 0.5 -1.5 0.5 2.5 0.5 4 0.5 -2.5 0.5 -1 0.5 9 0.5 -0.5 
0 0.5 0.5 3 0.5 0 0.5 -1.5 0.5 -2 0.5 0 0.5 3 0.5 -1 
0.5 -0.5 0.5 -0.5 0.5 1 0.5 1.5 0.5 -1 0.5 -4.5 0.5 0.5 0.5 1.5 
0.5 -1 S
3194 910 0.5 0.5 0.5 -1 0.5 1.5 0.5 -0.5 0.5 0 0.5 -1.5 0.5 0 
0.5 3.5 0.5 -4 0.5 -1.5 0.5 -1 0.5 7 0 7 0.5 2 0.5 3 
0.5 2.5 0.5 1.5 0.5 -1.5 0.5 1.5 0.5 2 0.5 -1.5 0.5 -0.5 0.5 -6.5 
0.5 -4.5 0.5 -4 0.5 0.5 0.5 2 0.5 -2.5 0.5 -3.5 0.5 1 0.5 -2 
0.5 -2 0.5 -0.5 0.5 0 0.5 2.5 0.5 -6.5 0.5 3 0.5 2 0.5 1.5 
0.5 -3 0.5 0 0 0.5 0.5 -3 0.5 2.5 0.5 -3.5 0.5 -0.5 0.5 3.5 
0.5 3 0.5 0 0.5 -5 0.5 -1 0.5 -0.5 0.5 -1 0.5 -3 0.5 2 
0.5 1 0.5 -2.5 0.5 2 0.5 1 0.5 1.5 0.5 2.5 0.5 0 0.5 1 
0.5 0 0.5 -4 0.5 -1.5 0.5 -2.5 0.5 -1.5 0.5 0.5 0.5 5 0.5 6.5 
0.5 2 0.5 0.5 0.5 0 0.5 4 0.5 2.5 0.5 3 0.5 2.5 0.5 -2 
0.5 -3 0.5 1.5 0.5 2 0.5 2 0.5 1.5 0.5 0 0.5 -2 0.5 3.5 
0.5 1 0.5 -2.5 0.5 -1.5 0.5 -1.5 0.5 2 0.5 -1 0.5 0.5 0.5 -1.5 
0.5 -2.5 0.5 -4 0 1 0.5 -3 0.5 -1 0.5 -3.5 0.5 -1 0.5 2.5 
0.5 -0.5 S
3244.5 911 0.5 2 0.5 1.5 0.5 -1 0.5 1 0.5 -0.5 0.5 2.5 0.5 -0.5 
0.5 0.5 0.5 -3.5 0.5 0.5 0.5 1.5 0.5 -0.5 0.5 4 0.5 -3.5 0.5 -2.5 
0.5 2 0.5 1.5 0.5 1 0.5 0.5 0.5 3.5 0.5 -0.5 0.5 -0.5 0 -2 
0.5 -2 0.5 -1 0.5 1.5 0.5 -2.5 0.5 -3 0.5 -0.5 0.5 0.5 0.5 -1 
0.5 -2 0.5 1 0.5 -1 0.5 -0.5 0.5 -1.5 0.5 3 0.5 0 0.5 -2 
0.5 0.5 0.5 1 0.5 3 0.5 0.5 0.5 0 0.5 0 0.5 -2.5 0.5 5 
0.5 1.5 0.5 0.5 0.5 -1 0 -1 0.5 0 0.5 0.5 0.5 -1 0.5 -0.5 
0.5 -5 0.5 -3.5 0.5 -1.5 0.5 1.5 0.5 -0.5 0.5 4.5 0.5 0 0.5 -0.5 
0.5 0 0.5 2.5 0.5 1 0.5 3 0.5 -3.5 0.5 4 0.5 2.5 0.5 6.5 
0.5 0 0.5 0.5 0.5 -1.5 0.5 2 0.5 3 0.5 -2.5 0.5 0 0.5 -1.5 
0 -1 0.5 2.5 0.5 2.5 0.5 -0.5 S
5 w
878 620 2412 528 re
S
cleartomark end end pagesave restore
 showpage
%%PageTrailer
%%Trailer
%%Pages: 1
