%!PS-Adobe-3.0 EPSF-3.0
%%BoundingBox: 62 52 194 119
%%HiResBoundingBox: 62.800000 52.900000 193.900000 118.300000
%.....................................
%%Creator: GPL Ghostscript 871 (epswrite)
%%CreationDate: 2012/01/28 17:05:00
%%DocumentData: Clean7Bit
%%LanguageLevel: 2
%%EndComments
%%BeginProlog
% This copyright applies to everything between here and the %%EndProlog:
% Copyright (C) 2010 Artifex Software, Inc.  All rights reserved.
%%BeginResource: procset GS_epswrite_2_0_1001 1.001 0
/GS_epswrite_2_0_1001 80 dict dup begin
/PageSize 2 array def/setpagesize{ PageSize aload pop 3 index eq exch
4 index eq and{ pop pop pop}{ PageSize dup  1
5 -1 roll put 0 4 -1 roll put dup null eq {false} {dup where} ifelse{ exch get exec}
{ pop/setpagedevice where
{ pop 1 dict dup /PageSize PageSize put setpagedevice}
{ /setpage where{ pop PageSize aload pop pageparams 3 {exch pop} repeat
setpage}if}ifelse}ifelse}ifelse} bind def
/!{bind def}bind def/#{load def}!/N/counttomark #
/rG{3{3 -1 roll 255 div}repeat setrgbcolor}!/G{255 div setgray}!/K{0 G}!
/r6{dup 3 -1 roll rG}!/r5{dup 3 1 roll rG}!/r3{dup rG}!
/w/setlinewidth #/J/setlinecap #
/j/setlinejoin #/M/setmiterlimit #/d/setdash #/i/setflat #
/m/moveto #/l/lineto #/c/rcurveto #
/p{N 2 idiv{N -2 roll rlineto}repeat}!
/P{N 0 gt{N -2 roll moveto p}if}!
/h{p closepath}!/H{P closepath}!
/lx{0 rlineto}!/ly{0 exch rlineto}!/v{0 0 6 2 roll c}!/y{2 copy c}!
/re{4 -2 roll m exch dup lx exch ly neg lx h}!
/^{3 index neg 3 index neg}!
/f{P fill}!/f*{P eofill}!/s{H stroke}!/S{P stroke}!
/q/gsave #/Q/grestore #/rf{re fill}!
/Y{P clip newpath}!/Y*{P eoclip newpath}!/rY{re Y}!
/|={pop exch 4 1 roll 1 array astore cvx 3 array astore cvx exch 1 index def exec}!
/|{exch string readstring |=}!
/+{dup type/nametype eq{2 index 7 add -3 bitshift 2 index mul}if}!
/@/currentfile #/${+ @ |}!
/B{{2 copy string{readstring pop}aload pop 4 array astore cvx
3 1 roll}repeat pop pop true}!
/Ix{[1 0 0 1 11 -2 roll exch neg exch neg]exch}!
/,{true exch Ix imagemask}!/If{false exch Ix imagemask}!/I{exch Ix image}!
/Ic{exch Ix false 3 colorimage}!
/F{/Columns counttomark 3 add -2 roll/Rows exch/K -1/BlackIs1 true>>
/CCITTFaxDecode filter}!/FX{<</EndOfBlock false F}!
/X{/ASCII85Decode filter}!/@X{@ X}!/&2{2 index 2 index}!
/@F{@ &2<<F}!/@C{@X &2 FX}!
/$X{+ @X |}!/&4{4 index 4 index}!/$F{+ @ &4<<F |}!/$C{+ @X &4 FX |}!
/IC{3 1 roll 10 dict begin 1{/ImageType/Interpolate/Decode/DataSource
/ImageMatrix/BitsPerComponent/Height/Width}{exch def}forall
currentdict end image}!
/~{@ read {pop} if}!
end def
%%EndResource
/pagesave null def
%%EndProlog
%%Page: 1 1
%%BeginPageSetup
GS_epswrite_2_0_1001 begin
/pagesave save store 197 dict begin
0.1 0.1 scale
%%EndPageSetup
gsave mark
Q q
0 0 250000 250000 re
Y
5 w
K
756.5 590 31.5 0 P
1872.5 590 -31.5 0 P
729.5 590 S
703 574 24 33 /3U
$C
-QF8ne"Tt:oUF>0ot#YQs8W,nXfqbA/ZlCbg4g:qTE~>
,
756.5 647.5 31.5 0 P
1872.5 647.5 -31.5 0 P
729.5 647.5 S
653 632 24 33 /6U
$C
-QE\>l-V,*&9#:sf`189D/d?oonA_5>^tZ2+N(t`~>
,
678 632 3U ,
703 632 3U ,
756.5 705 31.5 0 P
1872.5 705 -31.5 0 P
729.5 705 S
628 690 17 32 /3Y
$C
+i"'Ws8W*](WjZ;pV6~>
,
653 689 3U ,
678 689 3U ,
703 689 3U ,
756.5 763 31.5 0 P
1872.5 763 -31.5 0 P
729.5 763 S
628 748 3Y ,
653 747 6U ,
678 747 3U ,
703 747 3U ,
756.5 820.5 31.5 0 P
1872.5 820.5 -31.5 0 P
729.5 820.5 S
628 806 24 32 /6Y
$C
0H36C?Z1,TfQQ5/@D`QoL@9'80`Si<m4/St.b$<a'E~>
,
653 805 3U ,
678 805 3U ,
703 805 3U ,
756.5 878 31.5 0 P
1872.5 878 -31.5 0 P
729.5 878 S
628 863 6Y ,
653 862 6U ,
678 862 3U ,
703 862 3U ,
756.5 935.5 31.5 0 P
1872.5 935.5 -31.5 0 P
729.5 935.5 S
628 920 24 33 /4C
$C
1_pXAKA@1'5mQkUs2WY>ao^l:F&Bhur58R3CV&/&'mg9):]~>
,
653 920 3U ,
678 920 3U ,
703 920 3U ,
756.5 993 31.5 0 P
1872.5 993 -31.5 0 P
729.5 993 S
628 977 4C ,
653 977 6U ,
678 977 3U ,
703 977 3U ,
756.5 1051 31.5 0 P
1872.5 1051 -31.5 0 P
729.5 1051 S
628 1036 24 32 /7C
$C
2*_-?>T<\ojkG3trqh-BpA9::pA5rFn*bK~>
,
653 1035 3U ,
678 1035 3U ,
703 1035 3U ,
756.5 1108.5 31.5 0 P
1872.5 1108.5 -31.5 0 P
729.5 1108.5 S
628 1094 7C ,
653 1093 6U ,
678 1093 3U ,
703 1093 3U ,
756.5 1166 31.5 0 P
1872.5 1166 -31.5 0 P
729.5 1166 S
628 1150 6U ,
653 1150 3U ,
678 1150 3U ,
703 1150 3U ,
756.5 590 0 31.5 P
756.5 1166 0 -31.5 P
756.5 545 S
699 530 3Y ,
724 529 3U ,
749 529 3U ,
774 529 3U ,
799 529 3U ,
896 590 0 31.5 P
896 1166 0 -31.5 P
896 545 S
839 530 3Y ,
864 529 3U ,
889 529 6U ,
914 529 3U ,
939 529 3U ,
1035.5 590 0 31.5 P
1035.5 1166 0 -31.5 P
1035.5 545 S
978 530 3Y ,
1003 530 3Y ,
1028 529 3U ,
1053 529 3U ,
1078 529 3U ,
1175 590 0 31.5 P
1175 1166 0 -31.5 P
1175 545 S
1118 530 3Y ,
1143 530 3Y ,
1168 529 6U ,
1193 529 3U ,
1218 529 3U ,
1314.5 590 0 31.5 P
1314.5 1166 0 -31.5 P
1314.5 545 S
1257 530 3Y ,
1282 530 6Y ,
1307 529 3U ,
1332 529 3U ,
1357 529 3U ,
1454 590 0 31.5 P
1454 1166 0 -31.5 P
1454 545 S
1397 530 3Y ,
1422 530 6Y ,
1447 529 6U ,
1472 529 3U ,
1497 529 3U ,
1593.5 590 0 31.5 P
1593.5 1166 0 -31.5 P
1593.5 545 S
1536 530 3Y ,
1561 529 4C ,
1586 529 3U ,
1611 529 3U ,
1636 529 3U ,
1733 590 0 31.5 P
1733 1166 0 -31.5 P
1733 545 S
1676 530 3Y ,
1701 529 4C ,
1726 529 6U ,
1751 529 3U ,
1776 529 3U ,
1872.5 590 0 31.5 P
1872.5 1166 0 -31.5 P
1872.5 545 S
1815 530 3Y ,
1840 530 7C ,
1865 529 3U ,
1890 529 3U ,
1915 529 3U ,
756.5 590 1116 576 re
S
2.5 w
886 1148.75 0 31.5 S
870.25 1164.5 31.5 0 S
1166 1148.75 0 31.5 S
1150.25 1164.5 31.5 0 S
1166.5 1148.75 0 31.5 S
1150.75 1164.5 31.5 0 S
1199.5 1148.25 0 31.5 S
1183.75 1164 31.5 0 S
1227.5 1148.25 0 31.5 S
1211.75 1164 31.5 0 S
1233 1148.25 0 31.5 S
1217.25 1164 31.5 0 S
1262.5 1148.25 0 31.5 S
1246.75 1164 31.5 0 S
1269.5 1147.75 0 31.5 S
1253.75 1163.5 31.5 0 S
1277.5 1147.75 0 31.5 S
1261.75 1163.5 31.5 0 S
1294.5 1147.75 0 31.5 S
1278.75 1163.5 31.5 0 S
1307.5 1147.75 0 31.5 S
1291.75 1163.5 31.5 0 S
1308.5 1147.25 0 31.5 S
1292.75 1163 31.5 0 S
1316.5 1147.25 0 31.5 S
1300.75 1163 31.5 0 S
1321 1147.25 0 31.5 S
1305.25 1163 31.5 0 S
1321.5 1146.75 0 31.5 S
1305.75 1162.5 31.5 0 S
1322 1146.75 0 31.5 S
1306.25 1162.5 31.5 0 S
1323.5 1146.75 0 31.5 S
1307.75 1162.5 31.5 0 S
1324 1146.25 0 31.5 S
1308.25 1162 31.5 0 S
1324.5 1145.75 0 31.5 S
1308.75 1161.5 31.5 0 S
1324.5 1145.25 0 31.5 S
1308.75 1161 31.5 0 S
1325 1145.25 0 31.5 S
1309.25 1161 31.5 0 S
1325.5 1145.25 0 31.5 S
1309.75 1161 31.5 0 S
1327 1144.75 0 31.5 S
1311.25 1160.5 31.5 0 S
1327 1144.75 0 31.5 S
1311.25 1160.5 31.5 0 S
1327.5 1144.25 0 31.5 S
1311.75 1160 31.5 0 S
1327.5 1144.25 0 31.5 S
1311.75 1160 31.5 0 S
1328 1143.75 0 31.5 S
1312.25 1159.5 31.5 0 S
1328 1143.25 0 31.5 S
1312.25 1159 31.5 0 S
1328.5 1143.25 0 31.5 S
1312.75 1159 31.5 0 S
1328.5 1142.75 0 31.5 S
1312.75 1158.5 31.5 0 S
1329 1142.25 0 31.5 S
1313.25 1158 31.5 0 S
1329.5 1142.25 0 31.5 S
1313.75 1158 31.5 0 S
1329.5 1141.75 0 31.5 S
1313.75 1157.5 31.5 0 S
1330 1141.25 0 31.5 S
1314.25 1157 31.5 0 S
1330 1140.25 0 31.5 S
1314.25 1156 31.5 0 S
1330.5 1139.75 0 31.5 S
1314.75 1155.5 31.5 0 S
1330.5 1139.25 0 31.5 S
1314.75 1155 31.5 0 S
1331 1138.75 0 31.5 S
1315.25 1154.5 31.5 0 S
1331 1138.25 0 31.5 S
1315.25 1154 31.5 0 S
1331.5 1138.25 0 31.5 S
1315.75 1154 31.5 0 S
1332 1137.25 0 31.5 S
1316.25 1153 31.5 0 S
1332 1137.25 0 31.5 S
1316.25 1153 31.5 0 S
1332.5 1136.75 0 31.5 S
1316.75 1152.5 31.5 0 S
1332.5 1136.25 0 31.5 S
1316.75 1152 31.5 0 S
1333 1135.75 0 31.5 S
1317.25 1151.5 31.5 0 S
1333 1135.25 0 31.5 S
1317.25 1151 31.5 0 S
1333.5 1134.75 0 31.5 S
1317.75 1150.5 31.5 0 S
1334 1134.25 0 31.5 S
1318.25 1150 31.5 0 S
1334 1133.75 0 31.5 S
1318.25 1149.5 31.5 0 S
1334.5 1133.25 0 31.5 S
1318.75 1149 31.5 0 S
1334.5 1132.75 0 31.5 S
1318.75 1148.5 31.5 0 S
1335 1132.75 0 31.5 S
1319.25 1148.5 31.5 0 S
1335 1132.25 0 31.5 S
1319.25 1148 31.5 0 S
1335.5 1131.75 0 31.5 S
1319.75 1147.5 31.5 0 S
1335.5 1131.25 0 31.5 S
1319.75 1147 31.5 0 S
1336 1131.25 0 31.5 S
1320.25 1147 31.5 0 S
1336.5 1130.75 0 31.5 S
1320.75 1146.5 31.5 0 S
1336.5 1129.75 0 31.5 S
1320.75 1145.5 31.5 0 S
1337 1129.75 0 31.5 S
1321.25 1145.5 31.5 0 S
1337 1129.25 0 31.5 S
1321.25 1145 31.5 0 S
1337.5 1128.75 0 31.5 S
1321.75 1144.5 31.5 0 S
1337.5 1127.75 0 31.5 S
1321.75 1143.5 31.5 0 S
1338 1126.75 0 31.5 S
1322.25 1142.5 31.5 0 S
1338 1126.25 0 31.5 S
1322.25 1142 31.5 0 S
1338.5 1125.25 0 31.5 S
1322.75 1141 31.5 0 S
1339 1123.75 0 31.5 S
1323.25 1139.5 31.5 0 S
1339 1122.75 0 31.5 S
1323.25 1138.5 31.5 0 S
1339.5 1121.75 0 31.5 S
1323.75 1137.5 31.5 0 S
1339.5 1121.25 0 31.5 S
1323.75 1137 31.5 0 S
1340 1120.75 0 31.5 S
1324.25 1136.5 31.5 0 S
1340 1119.75 0 31.5 S
1324.25 1135.5 31.5 0 S
1340.5 1119.25 0 31.5 S
1324.75 1135 31.5 0 S
1340.5 1117.75 0 31.5 S
1324.75 1133.5 31.5 0 S
1341 1117.75 0 31.5 S
1325.25 1133.5 31.5 0 S
1341.5 1117.25 0 31.5 S
1325.75 1133 31.5 0 S
1341.5 1116.25 0 31.5 S
1325.75 1132 31.5 0 S
1342 1115.25 0 31.5 S
1326.25 1131 31.5 0 S
1342 1114.25 0 31.5 S
1326.25 1130 31.5 0 S
1342.5 1113.75 0 31.5 S
1326.75 1129.5 31.5 0 S
1342.5 1113.25 0 31.5 S
1326.75 1129 31.5 0 S
1343 1112.25 0 31.5 S
1327.25 1128 31.5 0 S
1343 1111.25 0 31.5 S
1327.25 1127 31.5 0 S
1343.5 1110.75 0 31.5 S
1327.75 1126.5 31.5 0 S
1344 1109.75 0 31.5 S
1328.25 1125.5 31.5 0 S
1344 1109.25 0 31.5 S
1328.25 1125 31.5 0 S
1344.5 1108.75 0 31.5 S
1328.75 1124.5 31.5 0 S
1344.5 1108.25 0 31.5 S
1328.75 1124 31.5 0 S
1345 1107.75 0 31.5 S
1329.25 1123.5 31.5 0 S
1345 1106.25 0 31.5 S
1329.25 1122 31.5 0 S
1345.5 1105.25 0 31.5 S
1329.75 1121 31.5 0 S
1345.5 1103.75 0 31.5 S
1329.75 1119.5 31.5 0 S
1346 1103.25 0 31.5 S
1330.25 1119 31.5 0 S
1346.5 1102.25 0 31.5 S
1330.75 1118 31.5 0 S
1346.5 1100.75 0 31.5 S
1330.75 1116.5 31.5 0 S
1347 1100.25 0 31.5 S
1331.25 1116 31.5 0 S
1347 1099.25 0 31.5 S
1331.25 1115 31.5 0 S
1347.5 1098.75 0 31.5 S
1331.75 1114.5 31.5 0 S
1347.5 1097.25 0 31.5 S
1331.75 1113 31.5 0 S
1348 1096.75 0 31.5 S
1332.25 1112.5 31.5 0 S
1348.5 1096.25 0 31.5 S
1332.75 1112 31.5 0 S
1348.5 1095.75 0 31.5 S
1332.75 1111.5 31.5 0 S
1349 1094.25 0 31.5 S
1333.25 1110 31.5 0 S
1349 1092.75 0 31.5 S
1333.25 1108.5 31.5 0 S
1349.5 1091.75 0 31.5 S
1333.75 1107.5 31.5 0 S
1349.5 1091.25 0 31.5 S
1333.75 1107 31.5 0 S
1350 1089.75 0 31.5 S
1334.25 1105.5 31.5 0 S
1350 1088.75 0 31.5 S
1334.25 1104.5 31.5 0 S
1350.5 1087.75 0 31.5 S
1334.75 1103.5 31.5 0 S
1351 1086.75 0 31.5 S
1335.25 1102.5 31.5 0 S
1351 1084.75 0 31.5 S
1335.25 1100.5 31.5 0 S
1351.5 1083.75 0 31.5 S
1335.75 1099.5 31.5 0 S
1351.5 1082.25 0 31.5 S
1335.75 1098 31.5 0 S
1352 1080.75 0 31.5 S
1336.25 1096.5 31.5 0 S
1352 1079.75 0 31.5 S
1336.25 1095.5 31.5 0 S
1352.5 1077.75 0 31.5 S
1336.75 1093.5 31.5 0 S
1352.5 1076.75 0 31.5 S
1336.75 1092.5 31.5 0 S
1353 1075.25 0 31.5 S
1337.25 1091 31.5 0 S
1353.5 1074.25 0 31.5 S
1337.75 1090 31.5 0 S
1353.5 1073.25 0 31.5 S
1337.75 1089 31.5 0 S
1354 1071.25 0 31.5 S
1338.25 1087 31.5 0 S
1354 1069.75 0 31.5 S
1338.25 1085.5 31.5 0 S
1354.5 1068.75 0 31.5 S
1338.75 1084.5 31.5 0 S
1354.5 1067.25 0 31.5 S
1338.75 1083 31.5 0 S
1355 1065.75 0 31.5 S
1339.25 1081.5 31.5 0 S
1355 1064.25 0 31.5 S
1339.25 1080 31.5 0 S
1355.5 1063.75 0 31.5 S
1339.75 1079.5 31.5 0 S
1356 1062.25 0 31.5 S
1340.25 1078 31.5 0 S
1356 1060.75 0 31.5 S
1340.25 1076.5 31.5 0 S
1356.5 1059.25 0 31.5 S
1340.75 1075 31.5 0 S
1356.5 1058.25 0 31.5 S
1340.75 1074 31.5 0 S
1357 1056.25 0 31.5 S
1341.25 1072 31.5 0 S
1357 1055.25 0 31.5 S
1341.25 1071 31.5 0 S
1357.5 1053.75 0 31.5 S
1341.75 1069.5 31.5 0 S
1357.5 1052.25 0 31.5 S
1341.75 1068 31.5 0 S
1358 1050.25 0 31.5 S
1342.25 1066 31.5 0 S
1358.5 1049.25 0 31.5 S
1342.75 1065 31.5 0 S
1358.5 1047.75 0 31.5 S
1342.75 1063.5 31.5 0 S
1359 1045.75 0 31.5 S
1343.25 1061.5 31.5 0 S
1359 1044.75 0 31.5 S
1343.25 1060.5 31.5 0 S
1359.5 1043.25 0 31.5 S
1343.75 1059 31.5 0 S
1359.5 1042.25 0 31.5 S
1343.75 1058 31.5 0 S
1360 1040.75 0 31.5 S
1344.25 1056.5 31.5 0 S
1360.5 1039.75 0 31.5 S
1344.75 1055.5 31.5 0 S
1360.5 1038.25 0 31.5 S
1344.75 1054 31.5 0 S
1361 1035.25 0 31.5 S
1345.25 1051 31.5 0 S
1361 1033.75 0 31.5 S
1345.25 1049.5 31.5 0 S
1361.5 1031.25 0 31.5 S
1345.75 1047 31.5 0 S
1361.5 1029.75 0 31.5 S
1345.75 1045.5 31.5 0 S
1362 1028.25 0 31.5 S
1346.25 1044 31.5 0 S
1362 1027.75 0 31.5 S
1346.25 1043.5 31.5 0 S
1362.5 1026.25 0 31.5 S
1346.75 1042 31.5 0 S
1363 1024.25 0 31.5 S
1347.25 1040 31.5 0 S
1363 1022.75 0 31.5 S
1347.25 1038.5 31.5 0 S
1363.5 1021.25 0 31.5 S
1347.75 1037 31.5 0 S
1363.5 1020.25 0 31.5 S
1347.75 1036 31.5 0 S
1364 1017.75 0 31.5 S
1348.25 1033.5 31.5 0 S
1364 1016.25 0 31.5 S
1348.25 1032 31.5 0 S
1364.5 1014.75 0 31.5 S
1348.75 1030.5 31.5 0 S
1364.5 1013.75 0 31.5 S
1348.75 1029.5 31.5 0 S
1365 1012.25 0 31.5 S
1349.25 1028 31.5 0 S
1365.5 1010.25 0 31.5 S
1349.75 1026 31.5 0 S
1365.5 1007.75 0 31.5 S
1349.75 1023.5 31.5 0 S
1366 1006.75 0 31.5 S
1350.25 1022.5 31.5 0 S
1366 1003.75 0 31.5 S
1350.25 1019.5 31.5 0 S
1366.5 1000.25 0 31.5 S
1350.75 1016 31.5 0 S
1366.5 998.75 0 31.5 S
1350.75 1014.5 31.5 0 S
1367 996.75 0 31.5 S
1351.25 1012.5 31.5 0 S
1367 994.25 0 31.5 S
1351.25 1010 31.5 0 S
1367.5 991.75 0 31.5 S
1351.75 1007.5 31.5 0 S
1368 989.25 0 31.5 S
1352.25 1005 31.5 0 S
1368 987.75 0 31.5 S
1352.25 1003.5 31.5 0 S
1368.5 985.25 0 31.5 S
1352.75 1001 31.5 0 S
1368.5 982.75 0 31.5 S
1352.75 998.5 31.5 0 S
1369 981.75 0 31.5 S
1353.25 997.5 31.5 0 S
1369 979.75 0 31.5 S
1353.25 995.5 31.5 0 S
1369.5 977.75 0 31.5 S
1353.75 993.5 31.5 0 S
1369.5 975.75 0 31.5 S
1353.75 991.5 31.5 0 S
1370 972.75 0 31.5 S
1354.25 988.5 31.5 0 S
1370.5 971.75 0 31.5 S
1354.75 987.5 31.5 0 S
1370.5 968.75 0 31.5 S
1354.75 984.5 31.5 0 S
1371 966.75 0 31.5 S
1355.25 982.5 31.5 0 S
1371 963.75 0 31.5 S
1355.25 979.5 31.5 0 S
1371.5 961.25 0 31.5 S
1355.75 977 31.5 0 S
1371.5 958.75 0 31.5 S
1355.75 974.5 31.5 0 S
1372 956.25 0 31.5 S
1356.25 972 31.5 0 S
1372.5 953.25 0 31.5 S
1356.75 969 31.5 0 S
1372.5 950.25 0 31.5 S
1356.75 966 31.5 0 S
1373 948.75 0 31.5 S
1357.25 964.5 31.5 0 S
1373 946.75 0 31.5 S
1357.25 962.5 31.5 0 S
1373.5 944.25 0 31.5 S
1357.75 960 31.5 0 S
1373.5 941.75 0 31.5 S
1357.75 957.5 31.5 0 S
1374 939.25 0 31.5 S
1358.25 955 31.5 0 S
1374 937.25 0 31.5 S
1358.25 953 31.5 0 S
1374.5 934.25 0 31.5 S
1358.75 950 31.5 0 S
1375 932.25 0 31.5 S
1359.25 948 31.5 0 S
1375 929.25 0 31.5 S
1359.25 945 31.5 0 S
1375.5 925.75 0 31.5 S
1359.75 941.5 31.5 0 S
1375.5 922.75 0 31.5 S
1359.75 938.5 31.5 0 S
1376 920.25 0 31.5 S
1360.25 936 31.5 0 S
1376 917.25 0 31.5 S
1360.25 933 31.5 0 S
1376.5 915.25 0 31.5 S
1360.75 931 31.5 0 S
1376.5 912.25 0 31.5 S
1360.75 928 31.5 0 S
1377 909.75 0 31.5 S
1361.25 925.5 31.5 0 S
1377.5 906.75 0 31.5 S
1361.75 922.5 31.5 0 S
1377.5 904.25 0 31.5 S
1361.75 920 31.5 0 S
1378 902.25 0 31.5 S
1362.25 918 31.5 0 S
1378 900.25 0 31.5 S
1362.25 916 31.5 0 S
1378.5 898.75 0 31.5 S
1362.75 914.5 31.5 0 S
1378.5 897.25 0 31.5 S
1362.75 913 31.5 0 S
1379 894.75 0 31.5 S
1363.25 910.5 31.5 0 S
1379 892.25 0 31.5 S
1363.25 908 31.5 0 S
1379.5 889.75 0 31.5 S
1363.75 905.5 31.5 0 S
1380 887.25 0 31.5 S
1364.25 903 31.5 0 S
1380 884.75 0 31.5 S
1364.25 900.5 31.5 0 S
1380.5 882.75 0 31.5 S
1364.75 898.5 31.5 0 S
1380.5 880.75 0 31.5 S
1364.75 896.5 31.5 0 S
1381 879.25 0 31.5 S
1365.25 895 31.5 0 S
1381 877.75 0 31.5 S
1365.25 893.5 31.5 0 S
1381.5 876.25 0 31.5 S
1365.75 892 31.5 0 S
1381.5 874.75 0 31.5 S
1365.75 890.5 31.5 0 S
1382 872.25 0 31.5 S
1366.25 888 31.5 0 S
1382.5 870.25 0 31.5 S
1366.75 886 31.5 0 S
1382.5 868.25 0 31.5 S
1366.75 884 31.5 0 S
1383 866.25 0 31.5 S
1367.25 882 31.5 0 S
1383 864.75 0 31.5 S
1367.25 880.5 31.5 0 S
1383.5 862.75 0 31.5 S
1367.75 878.5 31.5 0 S
1383.5 860.75 0 31.5 S
1367.75 876.5 31.5 0 S
1384 859.75 0 31.5 S
1368.25 875.5 31.5 0 S
1384.5 858.25 0 31.5 S
1368.75 874 31.5 0 S
1384.5 857.25 0 31.5 S
1368.75 873 31.5 0 S
1385 855.25 0 31.5 S
1369.25 871 31.5 0 S
1385 854.25 0 31.5 S
1369.25 870 31.5 0 S
1385.5 853.25 0 31.5 S
1369.75 869 31.5 0 S
1385.5 851.75 0 31.5 S
1369.75 867.5 31.5 0 S
1386 849.75 0 31.5 S
1370.25 865.5 31.5 0 S
1386 847.75 0 31.5 S
1370.25 863.5 31.5 0 S
1386.5 846.75 0 31.5 S
1370.75 862.5 31.5 0 S
1387 845.25 0 31.5 S
1371.25 861 31.5 0 S
1387 843.75 0 31.5 S
1371.25 859.5 31.5 0 S
1387.5 841.75 0 31.5 S
1371.75 857.5 31.5 0 S
1387.5 839.75 0 31.5 S
1371.75 855.5 31.5 0 S
1388 837.75 0 31.5 S
1372.25 853.5 31.5 0 S
1388 836.75 0 31.5 S
1372.25 852.5 31.5 0 S
1388.5 836.25 0 31.5 S
1372.75 852 31.5 0 S
1388.5 835.75 0 31.5 S
1372.75 851.5 31.5 0 S
1389 833.75 0 31.5 S
1373.25 849.5 31.5 0 S
1389.5 832.25 0 31.5 S
1373.75 848 31.5 0 S
1389.5 830.75 0 31.5 S
1373.75 846.5 31.5 0 S
1390 829.75 0 31.5 S
1374.25 845.5 31.5 0 S
1390 829.25 0 31.5 S
1374.25 845 31.5 0 S
1390.5 827.25 0 31.5 S
1374.75 843 31.5 0 S
1390.5 826.75 0 31.5 S
1374.75 842.5 31.5 0 S
1391 825.25 0 31.5 S
1375.25 841 31.5 0 S
1391 823.75 0 31.5 S
1375.25 839.5 31.5 0 S
1391.5 822.25 0 31.5 S
1375.75 838 31.5 0 S
1392 820.75 0 31.5 S
1376.25 836.5 31.5 0 S
1392 819.75 0 31.5 S
1376.25 835.5 31.5 0 S
1392.5 818.25 0 31.5 S
1376.75 834 31.5 0 S
1392.5 817.75 0 31.5 S
1376.75 833.5 31.5 0 S
1393 815.25 0 31.5 S
1377.25 831 31.5 0 S
1393 813.25 0 31.5 S
1377.25 829 31.5 0 S
1393.5 812.25 0 31.5 S
1377.75 828 31.5 0 S
1393.5 810.75 0 31.5 S
1377.75 826.5 31.5 0 S
1394 809.75 0 31.5 S
1378.25 825.5 31.5 0 S
1394.5 809.25 0 31.5 S
1378.75 825 31.5 0 S
1394.5 807.25 0 31.5 S
1378.75 823 31.5 0 S
1395 805.75 0 31.5 S
1379.25 821.5 31.5 0 S
1395 804.25 0 31.5 S
1379.25 820 31.5 0 S
1395.5 803.25 0 31.5 S
1379.75 819 31.5 0 S
1395.5 802.75 0 31.5 S
1379.75 818.5 31.5 0 S
1396 801.25 0 31.5 S
1380.25 817 31.5 0 S
1396 800.25 0 31.5 S
1380.25 816 31.5 0 S
1396.5 798.75 0 31.5 S
1380.75 814.5 31.5 0 S
1397 797.75 0 31.5 S
1381.25 813.5 31.5 0 S
1397 797.25 0 31.5 S
1381.25 813 31.5 0 S
1397.5 796.25 0 31.5 S
1381.75 812 31.5 0 S
1397.5 795.75 0 31.5 S
1381.75 811.5 31.5 0 S
1398 794.75 0 31.5 S
1382.25 810.5 31.5 0 S
1398 793.75 0 31.5 S
1382.25 809.5 31.5 0 S
1398.5 792.25 0 31.5 S
1382.75 808 31.5 0 S
1399 790.75 0 31.5 S
1383.25 806.5 31.5 0 S
1399 789.25 0 31.5 S
1383.25 805 31.5 0 S
1399.5 788.25 0 31.5 S
1383.75 804 31.5 0 S
1399.5 787.25 0 31.5 S
1383.75 803 31.5 0 S
1400 785.75 0 31.5 S
1384.25 801.5 31.5 0 S
1400 785.25 0 31.5 S
1384.25 801 31.5 0 S
1400.5 783.75 0 31.5 S
1384.75 799.5 31.5 0 S
1400.5 782.75 0 31.5 S
1384.75 798.5 31.5 0 S
1401 781.75 0 31.5 S
1385.25 797.5 31.5 0 S
1401.5 781.25 0 31.5 S
1385.75 797 31.5 0 S
1401.5 779.75 0 31.5 S
1385.75 795.5 31.5 0 S
1402 779.25 0 31.5 S
1386.25 795 31.5 0 S
1402 777.75 0 31.5 S
1386.25 793.5 31.5 0 S
1402.5 776.75 0 31.5 S
1386.75 792.5 31.5 0 S
1402.5 775.75 0 31.5 S
1386.75 791.5 31.5 0 S
1403 774.75 0 31.5 S
1387.25 790.5 31.5 0 S
1403 773.25 0 31.5 S
1387.25 789 31.5 0 S
1403.5 771.75 0 31.5 S
1387.75 787.5 31.5 0 S
1404 770.75 0 31.5 S
1388.25 786.5 31.5 0 S
1404 769.75 0 31.5 S
1388.25 785.5 31.5 0 S
1404.5 768.25 0 31.5 S
1388.75 784 31.5 0 S
1404.5 767.75 0 31.5 S
1388.75 783.5 31.5 0 S
1405 766.75 0 31.5 S
1389.25 782.5 31.5 0 S
1405 765.25 0 31.5 S
1389.25 781 31.5 0 S
1405.5 764.75 0 31.5 S
1389.75 780.5 31.5 0 S
1405.5 763.75 0 31.5 S
1389.75 779.5 31.5 0 S
1406 762.75 0 31.5 S
1390.25 778.5 31.5 0 S
1406.5 761.25 0 31.5 S
1390.75 777 31.5 0 S
1406.5 760.25 0 31.5 S
1390.75 776 31.5 0 S
1407 759.25 0 31.5 S
1391.25 775 31.5 0 S
1407 758.75 0 31.5 S
1391.25 774.5 31.5 0 S
1407.5 757.75 0 31.5 S
1391.75 773.5 31.5 0 S
1407.5 757.75 0 31.5 S
1391.75 773.5 31.5 0 S
1408 756.75 0 31.5 S
1392.25 772.5 31.5 0 S
1408 755.75 0 31.5 S
1392.25 771.5 31.5 0 S
1408.5 755.25 0 31.5 S
1392.75 771 31.5 0 S
1409 754.75 0 31.5 S
1393.25 770.5 31.5 0 S
1409 753.75 0 31.5 S
1393.25 769.5 31.5 0 S
1409.5 753.25 0 31.5 S
1393.75 769 31.5 0 S
1409.5 752.75 0 31.5 S
1393.75 768.5 31.5 0 S
1410 752.25 0 31.5 S
1394.25 768 31.5 0 S
1410 751.25 0 31.5 S
1394.25 767 31.5 0 S
1410.5 750.25 0 31.5 S
1394.75 766 31.5 0 S
1411 749.25 0 31.5 S
1395.25 765 31.5 0 S
1411 748.25 0 31.5 S
1395.25 764 31.5 0 S
1411.5 747.75 0 31.5 S
1395.75 763.5 31.5 0 S
1411.5 746.75 0 31.5 S
1395.75 762.5 31.5 0 S
1412 746.25 0 31.5 S
1396.25 762 31.5 0 S
1412 745.75 0 31.5 S
1396.25 761.5 31.5 0 S
1412.5 744.75 0 31.5 S
1396.75 760.5 31.5 0 S
1412.5 744.25 0 31.5 S
1396.75 760 31.5 0 S
1413 743.75 0 31.5 S
1397.25 759.5 31.5 0 S
1413.5 742.75 0 31.5 S
1397.75 758.5 31.5 0 S
1413.5 742.25 0 31.5 S
1397.75 758 31.5 0 S
1414 741.75 0 31.5 S
1398.25 757.5 31.5 0 S
1414 740.75 0 31.5 S
1398.25 756.5 31.5 0 S
1414.5 740.25 0 31.5 S
1398.75 756 31.5 0 S
1414.5 738.75 0 31.5 S
1398.75 754.5 31.5 0 S
1415 737.75 0 31.5 S
1399.25 753.5 31.5 0 S
1415 737.25 0 31.5 S
1399.25 753 31.5 0 S
1415.5 735.75 0 31.5 S
1399.75 751.5 31.5 0 S
1416 735.25 0 31.5 S
1400.25 751 31.5 0 S
1416 734.75 0 31.5 S
1400.25 750.5 31.5 0 S
1416.5 733.75 0 31.5 S
1400.75 749.5 31.5 0 S
1416.5 733.25 0 31.5 S
1400.75 749 31.5 0 S
1417 732.75 0 31.5 S
1401.25 748.5 31.5 0 S
1417 732.25 0 31.5 S
1401.25 748 31.5 0 S
1417.5 731.75 0 31.5 S
1401.75 747.5 31.5 0 S
1417.5 730.75 0 31.5 S
1401.75 746.5 31.5 0 S
1418 730.25 0 31.5 S
1402.25 746 31.5 0 S
1418.5 729.25 0 31.5 S
1402.75 745 31.5 0 S
1418.5 728.25 0 31.5 S
1402.75 744 31.5 0 S
1419 727.75 0 31.5 S
1403.25 743.5 31.5 0 S
1419 727.25 0 31.5 S
1403.25 743 31.5 0 S
1419.5 726.25 0 31.5 S
1403.75 742 31.5 0 S
1419.5 725.75 0 31.5 S
1403.75 741.5 31.5 0 S
1420 725.25 0 31.5 S
1404.25 741 31.5 0 S
1420 724.75 0 31.5 S
1404.25 740.5 31.5 0 S
1420.5 724.75 0 31.5 S
1404.75 740.5 31.5 0 S
1421 724.25 0 31.5 S
1405.25 740 31.5 0 S
1421 723.75 0 31.5 S
1405.25 739.5 31.5 0 S
1421.5 722.75 0 31.5 S
1405.75 738.5 31.5 0 S
1421.5 722.25 0 31.5 S
1405.75 738 31.5 0 S
1422 721.25 0 31.5 S
1406.25 737 31.5 0 S
1422 720.75 0 31.5 S
1406.25 736.5 31.5 0 S
1422.5 719.75 0 31.5 S
1406.75 735.5 31.5 0 S
1423 719.25 0 31.5 S
1407.25 735 31.5 0 S
1423 718.25 0 31.5 S
1407.25 734 31.5 0 S
1423.5 717.75 0 31.5 S
1407.75 733.5 31.5 0 S
1423.5 716.75 0 31.5 S
1407.75 732.5 31.5 0 S
1424 716.25 0 31.5 S
1408.25 732 31.5 0 S
1424 715.25 0 31.5 S
1408.25 731 31.5 0 S
1424.5 714.75 0 31.5 S
1408.75 730.5 31.5 0 S
1424.5 714.25 0 31.5 S
1408.75 730 31.5 0 S
1425 713.25 0 31.5 S
1409.25 729 31.5 0 S
1425.5 712.75 0 31.5 S
1409.75 728.5 31.5 0 S
1425.5 711.75 0 31.5 S
1409.75 727.5 31.5 0 S
1426 711.25 0 31.5 S
1410.25 727 31.5 0 S
1426 710.75 0 31.5 S
1410.25 726.5 31.5 0 S
1426.5 709.25 0 31.5 S
1410.75 725 31.5 0 S
1426.5 708.25 0 31.5 S
1410.75 724 31.5 0 S
1427 707.25 0 31.5 S
1411.25 723 31.5 0 S
1427 706.25 0 31.5 S
1411.25 722 31.5 0 S
1427.5 705.25 0 31.5 S
1411.75 721 31.5 0 S
1428 704.75 0 31.5 S
1412.25 720.5 31.5 0 S
1428 704.75 0 31.5 S
1412.25 720.5 31.5 0 S
1428.5 704.25 0 31.5 S
1412.75 720 31.5 0 S
1428.5 702.75 0 31.5 S
1412.75 718.5 31.5 0 S
1429 701.75 0 31.5 S
1413.25 717.5 31.5 0 S
1429 700.75 0 31.5 S
1413.25 716.5 31.5 0 S
1429.5 700.25 0 31.5 S
1413.75 716 31.5 0 S
1429.5 699.25 0 31.5 S
1413.75 715 31.5 0 S
1430 698.25 0 31.5 S
1414.25 714 31.5 0 S
1430.5 697.75 0 31.5 S
1414.75 713.5 31.5 0 S
1430.5 696.75 0 31.5 S
1414.75 712.5 31.5 0 S
1431 696.25 0 31.5 S
1415.25 712 31.5 0 S
1431 695.25 0 31.5 S
1415.25 711 31.5 0 S
1431.5 694.25 0 31.5 S
1415.75 710 31.5 0 S
1431.5 693.75 0 31.5 S
1415.75 709.5 31.5 0 S
1432 693.25 0 31.5 S
1416.25 709 31.5 0 S
1432 691.75 0 31.5 S
1416.25 707.5 31.5 0 S
1432.5 690.75 0 31.5 S
1416.75 706.5 31.5 0 S
1433 690.25 0 31.5 S
1417.25 706 31.5 0 S
1433 690.25 0 31.5 S
1417.25 706 31.5 0 S
1433.5 688.75 0 31.5 S
1417.75 704.5 31.5 0 S
1433.5 688.25 0 31.5 S
1417.75 704 31.5 0 S
1434 687.75 0 31.5 S
1418.25 703.5 31.5 0 S
1434 686.25 0 31.5 S
1418.25 702 31.5 0 S
1434.5 685.25 0 31.5 S
1418.75 701 31.5 0 S
1434.5 684.75 0 31.5 S
1418.75 700.5 31.5 0 S
1435 683.75 0 31.5 S
1419.25 699.5 31.5 0 S
1435.5 682.75 0 31.5 S
1419.75 698.5 31.5 0 S
1435.5 682.25 0 31.5 S
1419.75 698 31.5 0 S
1436 680.75 0 31.5 S
1420.25 696.5 31.5 0 S
1436 680.75 0 31.5 S
1420.25 696.5 31.5 0 S
1436.5 679.75 0 31.5 S
1420.75 695.5 31.5 0 S
1436.5 678.75 0 31.5 S
1420.75 694.5 31.5 0 S
1437 678.25 0 31.5 S
1421.25 694 31.5 0 S
1437.5 677.75 0 31.5 S
1421.75 693.5 31.5 0 S
1437.5 676.75 0 31.5 S
1421.75 692.5 31.5 0 S
1438 676.25 0 31.5 S
1422.25 692 31.5 0 S
1438 675.25 0 31.5 S
1422.25 691 31.5 0 S
1438.5 674.25 0 31.5 S
1422.75 690 31.5 0 S
1438.5 673.75 0 31.5 S
1422.75 689.5 31.5 0 S
1439 673.25 0 31.5 S
1423.25 689 31.5 0 S
1439 672.25 0 31.5 S
1423.25 688 31.5 0 S
1439.5 671.75 0 31.5 S
1423.75 687.5 31.5 0 S
1440 670.75 0 31.5 S
1424.25 686.5 31.5 0 S
1440 669.75 0 31.5 S
1424.25 685.5 31.5 0 S
1440.5 668.75 0 31.5 S
1424.75 684.5 31.5 0 S
1440.5 667.75 0 31.5 S
1424.75 683.5 31.5 0 S
1441 666.75 0 31.5 S
1425.25 682.5 31.5 0 S
1441 665.25 0 31.5 S
1425.25 681 31.5 0 S
1441.5 664.25 0 31.5 S
1425.75 680 31.5 0 S
1441.5 663.75 0 31.5 S
1425.75 679.5 31.5 0 S
1442 663.25 0 31.5 S
1426.25 679 31.5 0 S
1442.5 662.25 0 31.5 S
1426.75 678 31.5 0 S
1442.5 661.25 0 31.5 S
1426.75 677 31.5 0 S
1443 660.75 0 31.5 S
1427.25 676.5 31.5 0 S
1443 660.25 0 31.5 S
1427.25 676 31.5 0 S
1443.5 659.75 0 31.5 S
1427.75 675.5 31.5 0 S
1443.5 658.75 0 31.5 S
1427.75 674.5 31.5 0 S
1444 658.25 0 31.5 S
1428.25 674 31.5 0 S
1444 658.25 0 31.5 S
1428.25 674 31.5 0 S
1444.5 657.25 0 31.5 S
1428.75 673 31.5 0 S
1445 656.25 0 31.5 S
1429.25 672 31.5 0 S
1445 655.25 0 31.5 S
1429.25 671 31.5 0 S
1445.5 654.75 0 31.5 S
1429.75 670.5 31.5 0 S
1445.5 654.25 0 31.5 S
1429.75 670 31.5 0 S
1446 652.75 0 31.5 S
1430.25 668.5 31.5 0 S
1446 651.75 0 31.5 S
1430.25 667.5 31.5 0 S
1446.5 651.25 0 31.5 S
1430.75 667 31.5 0 S
1446.5 650.75 0 31.5 S
1430.75 666.5 31.5 0 S
1447 650.25 0 31.5 S
1431.25 666 31.5 0 S
1447.5 649.75 0 31.5 S
1431.75 665.5 31.5 0 S
1447.5 648.75 0 31.5 S
1431.75 664.5 31.5 0 S
1448 647.75 0 31.5 S
1432.25 663.5 31.5 0 S
1448 647.25 0 31.5 S
1432.25 663 31.5 0 S
1448.5 646.25 0 31.5 S
1432.75 662 31.5 0 S
1448.5 645.75 0 31.5 S
1432.75 661.5 31.5 0 S
1449 644.75 0 31.5 S
1433.25 660.5 31.5 0 S
1449.5 644.25 0 31.5 S
1433.75 660 31.5 0 S
1449.5 643.75 0 31.5 S
1433.75 659.5 31.5 0 S
1450 642.75 0 31.5 S
1434.25 658.5 31.5 0 S
1450 642.25 0 31.5 S
1434.25 658 31.5 0 S
1450.5 641.25 0 31.5 S
1434.75 657 31.5 0 S
1450.5 640.75 0 31.5 S
1434.75 656.5 31.5 0 S
1451 640.25 0 31.5 S
1435.25 656 31.5 0 S
1451 639.75 0 31.5 S
1435.25 655.5 31.5 0 S
1451.5 638.75 0 31.5 S
1435.75 654.5 31.5 0 S
1452 638.25 0 31.5 S
1436.25 654 31.5 0 S
1452 637.75 0 31.5 S
1436.25 653.5 31.5 0 S
1452.5 636.75 0 31.5 S
1436.75 652.5 31.5 0 S
1452.5 635.75 0 31.5 S
1436.75 651.5 31.5 0 S
1453 635.25 0 31.5 S
1437.25 651 31.5 0 S
1453 634.75 0 31.5 S
1437.25 650.5 31.5 0 S
1453.5 634.75 0 31.5 S
1437.75 650.5 31.5 0 S
1453.5 633.75 0 31.5 S
1437.75 649.5 31.5 0 S
1454 633.25 0 31.5 S
1438.25 649 31.5 0 S
1454.5 632.25 0 31.5 S
1438.75 648 31.5 0 S
1454.5 631.75 0 31.5 S
1438.75 647.5 31.5 0 S
1455 631.25 0 31.5 S
1439.25 647 31.5 0 S
1455 630.75 0 31.5 S
1439.25 646.5 31.5 0 S
1455.5 630.25 0 31.5 S
1439.75 646 31.5 0 S
1455.5 629.75 0 31.5 S
1439.75 645.5 31.5 0 S
1456 629.25 0 31.5 S
1440.25 645 31.5 0 S
1456 628.25 0 31.5 S
1440.25 644 31.5 0 S
1456.5 628.25 0 31.5 S
1440.75 644 31.5 0 S
1457 627.75 0 31.5 S
1441.25 643.5 31.5 0 S
1457 627.25 0 31.5 S
1441.25 643 31.5 0 S
1457.5 627.25 0 31.5 S
1441.75 643 31.5 0 S
1457.5 626.75 0 31.5 S
1441.75 642.5 31.5 0 S
1458 626.25 0 31.5 S
1442.25 642 31.5 0 S
1458 625.75 0 31.5 S
1442.25 641.5 31.5 0 S
1458.5 624.75 0 31.5 S
1442.75 640.5 31.5 0 S
1458.5 624.25 0 31.5 S
1442.75 640 31.5 0 S
1459 623.75 0 31.5 S
1443.25 639.5 31.5 0 S
1459.5 623.25 0 31.5 S
1443.75 639 31.5 0 S
1459.5 622.25 0 31.5 S
1443.75 638 31.5 0 S
1460 621.75 0 31.5 S
1444.25 637.5 31.5 0 S
1460 621.25 0 31.5 S
1444.25 637 31.5 0 S
1460.5 620.75 0 31.5 S
1444.75 636.5 31.5 0 S
1460.5 619.75 0 31.5 S
1444.75 635.5 31.5 0 S
1461 619.25 0 31.5 S
1445.25 635 31.5 0 S
1461.5 619.25 0 31.5 S
1445.75 635 31.5 0 S
1461.5 618.25 0 31.5 S
1445.75 634 31.5 0 S
1462 617.75 0 31.5 S
1446.25 633.5 31.5 0 S
1462 617.25 0 31.5 S
1446.25 633 31.5 0 S
1462.5 616.75 0 31.5 S
1446.75 632.5 31.5 0 S
1462.5 616.25 0 31.5 S
1446.75 632 31.5 0 S
1463 615.25 0 31.5 S
1447.25 631 31.5 0 S
1463 615.25 0 31.5 S
1447.25 631 31.5 0 S
1463.5 614.75 0 31.5 S
1447.75 630.5 31.5 0 S
1464 614.25 0 31.5 S
1448.25 630 31.5 0 S
1464 614.25 0 31.5 S
1448.25 630 31.5 0 S
1464.5 613.75 0 31.5 S
1448.75 629.5 31.5 0 S
1464.5 613.75 0 31.5 S
1448.75 629.5 31.5 0 S
1465 613.25 0 31.5 S
1449.25 629 31.5 0 S
1465 612.75 0 31.5 S
1449.25 628.5 31.5 0 S
1465.5 612.75 0 31.5 S
1449.75 628.5 31.5 0 S
1465.5 612.25 0 31.5 S
1449.75 628 31.5 0 S
1466 612.25 0 31.5 S
1450.25 628 31.5 0 S
1466.5 612.25 0 31.5 S
1450.75 628 31.5 0 S
1466.5 611.75 0 31.5 S
1450.75 627.5 31.5 0 S
1467 611.75 0 31.5 S
1451.25 627.5 31.5 0 S
1467 611.25 0 31.5 S
1451.25 627 31.5 0 S
1467.5 610.75 0 31.5 S
1451.75 626.5 31.5 0 S
1468 610.25 0 31.5 S
1452.25 626 31.5 0 S
1468 609.75 0 31.5 S
1452.25 625.5 31.5 0 S
1468.5 609.25 0 31.5 S
1452.75 625 31.5 0 S
1469 609.25 0 31.5 S
1453.25 625 31.5 0 S
1469.5 608.75 0 31.5 S
1453.75 624.5 31.5 0 S
1469.5 608.25 0 31.5 S
1453.75 624 31.5 0 S
1470 607.25 0 31.5 S
1454.25 623 31.5 0 S
1470 607.25 0 31.5 S
1454.25 623 31.5 0 S
1470.5 606.75 0 31.5 S
1454.75 622.5 31.5 0 S
1470.5 606.75 0 31.5 S
1454.75 622.5 31.5 0 S
1471 606.75 0 31.5 S
1455.25 622.5 31.5 0 S
1471.5 606.75 0 31.5 S
1455.75 622.5 31.5 0 S
1471.5 605.75 0 31.5 S
1455.75 621.5 31.5 0 S
1472 605.25 0 31.5 S
1456.25 621 31.5 0 S
1472 604.75 0 31.5 S
1456.25 620.5 31.5 0 S
1472.5 604.25 0 31.5 S
1456.75 620 31.5 0 S
1472.5 603.75 0 31.5 S
1456.75 619.5 31.5 0 S
1473 603.25 0 31.5 S
1457.25 619 31.5 0 S
1473.5 602.75 0 31.5 S
1457.75 618.5 31.5 0 S
1473.5 602.25 0 31.5 S
1457.75 618 31.5 0 S
1474 602.25 0 31.5 S
1458.25 618 31.5 0 S
1474 601.75 0 31.5 S
1458.25 617.5 31.5 0 S
1474.5 601.75 0 31.5 S
1458.75 617.5 31.5 0 S
1474.5 601.25 0 31.5 S
1458.75 617 31.5 0 S
1475 600.75 0 31.5 S
1459.25 616.5 31.5 0 S
1475 599.75 0 31.5 S
1459.25 615.5 31.5 0 S
1475.5 599.25 0 31.5 S
1459.75 615 31.5 0 S
1476 599.25 0 31.5 S
1460.25 615 31.5 0 S
1476 599.25 0 31.5 S
1460.25 615 31.5 0 S
1476.5 598.75 0 31.5 S
1460.75 614.5 31.5 0 S
1476.5 598.25 0 31.5 S
1460.75 614 31.5 0 S
1477 598.25 0 31.5 S
1461.25 614 31.5 0 S
1477 597.75 0 31.5 S
1461.25 613.5 31.5 0 S
1477.5 597.75 0 31.5 S
1461.75 613.5 31.5 0 S
1477.5 597.75 0 31.5 S
1461.75 613.5 31.5 0 S
1478.5 597.25 0 31.5 S
1462.75 613 31.5 0 S
1479 596.75 0 31.5 S
1463.25 612.5 31.5 0 S
1479 596.75 0 31.5 S
1463.25 612.5 31.5 0 S
1479.5 596.25 0 31.5 S
1463.75 612 31.5 0 S
1479.5 596.25 0 31.5 S
1463.75 612 31.5 0 S
1480 596.25 0 31.5 S
1464.25 612 31.5 0 S
1480.5 596.25 0 31.5 S
1464.75 612 31.5 0 S
1481.5 595.75 0 31.5 S
1465.75 611.5 31.5 0 S
1481.5 595.75 0 31.5 S
1465.75 611.5 31.5 0 S
1482 595.75 0 31.5 S
1466.25 611.5 31.5 0 S
1482.5 595.25 0 31.5 S
1466.75 611 31.5 0 S
1482.5 594.75 0 31.5 S
1466.75 610.5 31.5 0 S
1483 594.75 0 31.5 S
1467.25 610.5 31.5 0 S
1483.5 594.25 0 31.5 S
1467.75 610 31.5 0 S
1484.5 594.25 0 31.5 S
1468.75 610 31.5 0 S
1484.5 593.75 0 31.5 S
1468.75 609.5 31.5 0 S
1485 593.75 0 31.5 S
1469.25 609.5 31.5 0 S
1485 593.75 0 31.5 S
1469.25 609.5 31.5 0 S
1485.5 593.25 0 31.5 S
1469.75 609 31.5 0 S
1486 593.25 0 31.5 S
1470.25 609 31.5 0 S
1486.5 592.75 0 31.5 S
1470.75 608.5 31.5 0 S
1486.5 592.25 0 31.5 S
1470.75 608 31.5 0 S
1487 592.25 0 31.5 S
1471.25 608 31.5 0 S
1488.5 591.75 0 31.5 S
1472.75 607.5 31.5 0 S
1488.5 591.75 0 31.5 S
1472.75 607.5 31.5 0 S
1489 591.25 0 31.5 S
1473.25 607 31.5 0 S
1489.5 590.75 0 31.5 S
1473.75 606.5 31.5 0 S
1490 590.75 0 31.5 S
1474.25 606.5 31.5 0 S
1490.5 590.25 0 31.5 S
1474.75 606 31.5 0 S
1490.5 590.25 0 31.5 S
1474.75 606 31.5 0 S
1491 590.25 0 31.5 S
1475.25 606 31.5 0 S
1491.5 589.75 0 31.5 S
1475.75 605.5 31.5 0 S
1492 589.75 0 31.5 S
1476.25 605.5 31.5 0 S
1492.5 589.75 0 31.5 S
1476.75 605.5 31.5 0 S
1493 589.75 0 31.5 S
1477.25 605.5 31.5 0 S
1494 589.25 0 31.5 S
1478.25 605 31.5 0 S
1494.5 589.25 0 31.5 S
1478.75 605 31.5 0 S
1494.5 588.75 0 31.5 S
1478.75 604.5 31.5 0 S
1495 588.75 0 31.5 S
1479.25 604.5 31.5 0 S
1495.5 588.25 0 31.5 S
1479.75 604 31.5 0 S
1496 588.25 0 31.5 S
1480.25 604 31.5 0 S
1496 587.75 0 31.5 S
1480.25 603.5 31.5 0 S
1496.5 587.75 0 31.5 S
1480.75 603.5 31.5 0 S
1497 587.75 0 31.5 S
1481.25 603.5 31.5 0 S
1497 587.25 0 31.5 S
1481.25 603 31.5 0 S
1498 587.25 0 31.5 S
1482.25 603 31.5 0 S
1499 586.75 0 31.5 S
1483.25 602.5 31.5 0 S
1500 586.75 0 31.5 S
1484.25 602.5 31.5 0 S
1500.5 586.75 0 31.5 S
1484.75 602.5 31.5 0 S
1500.5 586.25 0 31.5 S
1484.75 602 31.5 0 S
1501 586.25 0 31.5 S
1485.25 602 31.5 0 S
1501.5 586.25 0 31.5 S
1485.75 602 31.5 0 S
1502.5 586.25 0 31.5 S
1486.75 602 31.5 0 S
1504 585.75 0 31.5 S
1488.25 601.5 31.5 0 S
1504 585.75 0 31.5 S
1488.25 601.5 31.5 0 S
1505 585.75 0 31.5 S
1489.25 601.5 31.5 0 S
1505.5 585.25 0 31.5 S
1489.75 601 31.5 0 S
1505.5 585.25 0 31.5 S
1489.75 601 31.5 0 S
1506 585.25 0 31.5 S
1490.25 601 31.5 0 S
1508 584.75 0 31.5 S
1492.25 600.5 31.5 0 S
1509 584.75 0 31.5 S
1493.25 600.5 31.5 0 S
1510.5 584.75 0 31.5 S
1494.75 600.5 31.5 0 S
1511 584.75 0 31.5 S
1495.25 600.5 31.5 0 S
1511.5 584.75 0 31.5 S
1495.75 600.5 31.5 0 S
1513 584.25 0 31.5 S
1497.25 600 31.5 0 S
1515 584.25 0 31.5 S
1499.25 600 31.5 0 S
1516 584.25 0 31.5 S
1500.25 600 31.5 0 S
1520 584.25 0 31.5 S
1504.25 600 31.5 0 S
1523 583.75 0 31.5 S
1507.25 599.5 31.5 0 S
1523 583.75 0 31.5 S
1507.25 599.5 31.5 0 S
1524 583.75 0 31.5 S
1508.25 599.5 31.5 0 S
1525.5 583.75 0 31.5 S
1509.75 599.5 31.5 0 S
1526.5 583.25 0 31.5 S
1510.75 599 31.5 0 S
1526.5 583.25 0 31.5 S
1510.75 599 31.5 0 S
1527.5 583.25 0 31.5 S
1511.75 599 31.5 0 S
1530.5 583.25 0 31.5 S
1514.75 599 31.5 0 S
1531 582.75 0 31.5 S
1515.25 598.5 31.5 0 S
1531.5 582.75 0 31.5 S
1515.75 598.5 31.5 0 S
1532 582.75 0 31.5 S
1516.25 598.5 31.5 0 S
1533.5 582.75 0 31.5 S
1517.75 598.5 31.5 0 S
1534 582.25 0 31.5 S
1518.25 598 31.5 0 S
1534.5 582.25 0 31.5 S
1518.75 598 31.5 0 S
1535 582.25 0 31.5 S
1519.25 598 31.5 0 S
1536.5 581.75 0 31.5 S
1520.75 597.5 31.5 0 S
1537.5 581.75 0 31.5 S
1521.75 597.5 31.5 0 S
1541.5 581.75 0 31.5 S
1525.75 597.5 31.5 0 S
1542.5 581.75 0 31.5 S
1526.75 597.5 31.5 0 S
1543.5 581.75 0 31.5 S
1527.75 597.5 31.5 0 S
1544 581.25 0 31.5 S
1528.25 597 31.5 0 S
1545 581.25 0 31.5 S
1529.25 597 31.5 0 S
1546 581.25 0 31.5 S
1530.25 597 31.5 0 S
1548.5 580.75 0 31.5 S
1532.75 596.5 31.5 0 S
1549 580.75 0 31.5 S
1533.25 596.5 31.5 0 S
1549.5 580.75 0 31.5 S
1533.75 596.5 31.5 0 S
1550 580.75 0 31.5 S
1534.25 596.5 31.5 0 S
1550.5 580.25 0 31.5 S
1534.75 596 31.5 0 S
1551 580.25 0 31.5 S
1535.25 596 31.5 0 S
1552 580.25 0 31.5 S
1536.25 596 31.5 0 S
1554 580.25 0 31.5 S
1538.25 596 31.5 0 S
1555.5 580.25 0 31.5 S
1539.75 596 31.5 0 S
1559 579.75 0 31.5 S
1543.25 595.5 31.5 0 S
1561 579.75 0 31.5 S
1545.25 595.5 31.5 0 S
1563.5 579.75 0 31.5 S
1547.75 595.5 31.5 0 S
1563.5 579.75 0 31.5 S
1547.75 595.5 31.5 0 S
1569 579.25 0 31.5 S
1553.25 595 31.5 0 S
1571.5 579.25 0 31.5 S
1555.75 595 31.5 0 S
1574 579.25 0 31.5 S
1558.25 595 31.5 0 S
1575.5 579.25 0 31.5 S
1559.75 595 31.5 0 S
1578.5 578.75 0 31.5 S
1562.75 594.5 31.5 0 S
1579 578.75 0 31.5 S
1563.25 594.5 31.5 0 S
1580.5 578.75 0 31.5 S
1564.75 594.5 31.5 0 S
1584.5 578.75 0 31.5 S
1568.75 594.5 31.5 0 S
1599 578.75 0 31.5 S
1583.25 594.5 31.5 0 S
1615.5 578.25 0 31.5 S
1599.75 594 31.5 0 S
1618 578.25 0 31.5 S
1602.25 594 31.5 0 S
1618.5 578.25 0 31.5 S
1602.75 594 31.5 0 S
1624.5 578.25 0 31.5 S
1608.75 594 31.5 0 S
1628.5 577.75 0 31.5 S
1612.75 593.5 31.5 0 S
1631.5 577.75 0 31.5 S
1615.75 593.5 31.5 0 S
1633 577.75 0 31.5 S
1617.25 593.5 31.5 0 S
1634.5 577.75 0 31.5 S
1618.75 593.5 31.5 0 S
1636.5 577.25 0 31.5 S
1620.75 593 31.5 0 S
1639 577.25 0 31.5 S
1623.25 593 31.5 0 S
1644 577.25 0 31.5 S
1628.25 593 31.5 0 S
1648.5 577.25 0 31.5 S
1632.75 593 31.5 0 S
1652 577.25 0 31.5 S
1636.25 593 31.5 0 S
1655.5 576.75 0 31.5 S
1639.75 592.5 31.5 0 S
1657 576.75 0 31.5 S
1641.25 592.5 31.5 0 S
1658 576.75 0 31.5 S
1642.25 592.5 31.5 0 S
1676 576.75 0 31.5 S
1660.25 592.5 31.5 0 S
1687.5 576.25 0 31.5 S
1671.75 592 31.5 0 S
1713 576.25 0 31.5 S
1697.25 592 31.5 0 S
1732.5 576.25 0 31.5 S
1716.75 592 31.5 0 S
1759 576.25 0 31.5 S
1743.25 592 31.5 0 S
1767 575.75 0 31.5 S
1751.25 591.5 31.5 0 S
1770.5 575.75 0 31.5 S
1754.75 591.5 31.5 0 S
1770.5 575.75 0 31.5 S
1754.75 591.5 31.5 0 S
1772.5 575.75 0 31.5 S
1756.75 591.5 31.5 0 S
1774.5 575.25 0 31.5 S
1758.75 591 31.5 0 S
1775 575.25 0 31.5 S
1759.25 591 31.5 0 S
1775.5 575.25 0 31.5 S
1759.75 591 31.5 0 S
1778 574.75 0 31.5 S
1762.25 590.5 31.5 0 S
1780.5 574.75 0 31.5 S
1764.75 590.5 31.5 0 S
1782.5 574.75 0 31.5 S
1766.75 590.5 31.5 0 S
1783 574.75 0 31.5 S
1767.25 590.5 31.5 0 S
1784 574.25 0 31.5 S
1768.25 590 31.5 0 S
1785 574.25 0 31.5 S
1769.25 590 31.5 0 S
1785.5 574.25 0 31.5 S
1769.75 590 31.5 0 S
5 w
756.5 590 1116 576 re
S
cleartomark end end pagesave restore
 showpage
%%PageTrailer
%%Trailer
%%Pages: 1
