%!PS-Adobe-3.0 EPSF-3.0
%%BoundingBox: 62 52 194 119
%%HiResBoundingBox: 62.400000 52.900000 193.900000 118.300000
%.....................................
%%Creator: GPL Ghostscript 871 (epswrite)
%%CreationDate: 2012/01/28 17:05:00
%%DocumentData: Clean7Bit
%%LanguageLevel: 2
%%EndComments
%%BeginProlog
% This copyright applies to everything between here and the %%EndProlog:
% Copyright (C) 2010 Artifex Software, Inc.  All rights reserved.
%%BeginResource: procset GS_epswrite_2_0_1001 1.001 0
/GS_epswrite_2_0_1001 80 dict dup begin
/PageSize 2 array def/setpagesize{ PageSize aload pop 3 index eq exch
4 index eq and{ pop pop pop}{ PageSize dup  1
5 -1 roll put 0 4 -1 roll put dup null eq {false} {dup where} ifelse{ exch get exec}
{ pop/setpagedevice where
{ pop 1 dict dup /PageSize PageSize put setpagedevice}
{ /setpage where{ pop PageSize aload pop pageparams 3 {exch pop} repeat
setpage}if}ifelse}ifelse}ifelse} bind def
/!{bind def}bind def/#{load def}!/N/counttomark #
/rG{3{3 -1 roll 255 div}repeat setrgbcolor}!/G{255 div setgray}!/K{0 G}!
/r6{dup 3 -1 roll rG}!/r5{dup 3 1 roll rG}!/r3{dup rG}!
/w/setlinewidth #/J/setlinecap #
/j/setlinejoin #/M/setmiterlimit #/d/setdash #/i/setflat #
/m/moveto #/l/lineto #/c/rcurveto #
/p{N 2 idiv{N -2 roll rlineto}repeat}!
/P{N 0 gt{N -2 roll moveto p}if}!
/h{p closepath}!/H{P closepath}!
/lx{0 rlineto}!/ly{0 exch rlineto}!/v{0 0 6 2 roll c}!/y{2 copy c}!
/re{4 -2 roll m exch dup lx exch ly neg lx h}!
/^{3 index neg 3 index neg}!
/f{P fill}!/f*{P eofill}!/s{H stroke}!/S{P stroke}!
/q/gsave #/Q/grestore #/rf{re fill}!
/Y{P clip newpath}!/Y*{P eoclip newpath}!/rY{re Y}!
/|={pop exch 4 1 roll 1 array astore cvx 3 array astore cvx exch 1 index def exec}!
/|{exch string readstring |=}!
/+{dup type/nametype eq{2 index 7 add -3 bitshift 2 index mul}if}!
/@/currentfile #/${+ @ |}!
/B{{2 copy string{readstring pop}aload pop 4 array astore cvx
3 1 roll}repeat pop pop true}!
/Ix{[1 0 0 1 11 -2 roll exch neg exch neg]exch}!
/,{true exch Ix imagemask}!/If{false exch Ix imagemask}!/I{exch Ix image}!
/Ic{exch Ix false 3 colorimage}!
/F{/Columns counttomark 3 add -2 roll/Rows exch/K -1/BlackIs1 true>>
/CCITTFaxDecode filter}!/FX{<</EndOfBlock false F}!
/X{/ASCII85Decode filter}!/@X{@ X}!/&2{2 index 2 index}!
/@F{@ &2<<F}!/@C{@X &2 FX}!
/$X{+ @X |}!/&4{4 index 4 index}!/$F{+ @ &4<<F |}!/$C{+ @X &4 FX |}!
/IC{3 1 roll 10 dict begin 1{/ImageType/Interpolate/Decode/DataSource
/ImageMatrix/BitsPerComponent/Height/Width}{exch def}forall
currentdict end image}!
/~{@ read {pop} if}!
end def
%%EndResource
/pagesave null def
%%EndProlog
%%Page: 1 1
%%BeginPageSetup
GS_epswrite_2_0_1001 begin
/pagesave save store 197 dict begin
0.1 0.1 scale
%%EndPageSetup
gsave mark
Q q
0 0 250000 250000 re
Y
5 w
K
702.5 590 31.5 0 P
1872.5 590 -31.5 0 P
675.5 590 S
649 574 24 33 /3U
$C
-QF8ne"Tt:oUF>0ot#YQs8W,nXfqbA/ZlCbg4g:qTE~>
,
702.5 672.5 31.5 0 P
1872.5 672.5 -31.5 0 P
675.5 672.5 S
649 657 24 33 /6U
$C
-QE\>l-V,*&9#:sf`189D/d?oonA_5>^tZ2+N(t`~>
,
702.5 754.5 31.5 0 P
1872.5 754.5 -31.5 0 P
675.5 754.5 S
624 740 17 32 /3Y
$C
+i"'Ws8W*](WjZ;pV6~>
,
649 739 3U ,
702.5 837 31.5 0 P
1872.5 837 -31.5 0 P
675.5 837 S
624 822 3Y ,
649 821 6U ,
702.5 919 31.5 0 P
1872.5 919 -31.5 0 P
675.5 919 S
624 904 24 32 /6Y
$C
0H36C?Z1,TfQQ5/@D`QoL@9'80`Si<m4/St.b$<a'E~>
,
649 903 3U ,
702.5 1001.5 31.5 0 P
1872.5 1001.5 -31.5 0 P
675.5 1001.5 S
624 987 6Y ,
649 986 6U ,
702.5 1083.5 31.5 0 P
1872.5 1083.5 -31.5 0 P
675.5 1083.5 S
624 1068 24 33 /4C
$C
1_pXAKA@1'5mQkUs2WY>ao^l:F&Bhur58R3CV&/&'mg9):]~>
,
649 1068 3U ,
702.5 1166 31.5 0 P
1872.5 1166 -31.5 0 P
675.5 1166 S
624 1150 4C ,
649 1150 6U ,
702.5 590 0 31.5 P
702.5 1166 0 -31.5 P
702.5 545 S
645 530 3Y ,
670 530 3Y ,
695 529 3U ,
720 529 3U ,
745 529 3U ,
897.5 590 0 31.5 P
897.5 1166 0 -31.5 P
897.5 545 S
840 530 3Y ,
865 530 3Y ,
890 529 6U ,
915 529 3U ,
940 529 3U ,
1092.5 590 0 31.5 P
1092.5 1166 0 -31.5 P
1092.5 545 S
1035 530 3Y ,
1060 530 6Y ,
1085 529 3U ,
1110 529 3U ,
1135 529 3U ,
1287.5 590 0 31.5 P
1287.5 1166 0 -31.5 P
1287.5 545 S
1230 530 3Y ,
1255 530 6Y ,
1280 529 6U ,
1305 529 3U ,
1330 529 3U ,
1482.5 590 0 31.5 P
1482.5 1166 0 -31.5 P
1482.5 545 S
1425 530 3Y ,
1450 529 4C ,
1475 529 3U ,
1500 529 3U ,
1525 529 3U ,
1677.5 590 0 31.5 P
1677.5 1166 0 -31.5 P
1677.5 545 S
1620 530 3Y ,
1645 529 4C ,
1670 529 6U ,
1695 529 3U ,
1720 529 3U ,
1872.5 590 0 31.5 P
1872.5 1166 0 -31.5 P
1872.5 545 S
1815 530 3Y ,
1840 530 24 32 /7C
$C
2*_-?>T<\ojkG3trqh-BpA9::pA5rFn*bK~>
,
1865 529 3U ,
1890 529 3U ,
1915 529 3U ,
702.5 590 1170 576 re
S
2.5 w
885 590.75 0 31.5 S
869.25 606.5 31.5 0 S
931.5 590.75 0 31.5 S
915.75 606.5 31.5 0 S
971 590.75 0 31.5 S
955.25 606.5 31.5 0 S
978 590.75 0 31.5 S
962.25 606.5 31.5 0 S
1019.5 590.75 0 31.5 S
1003.75 606.5 31.5 0 S
1041 590.75 0 31.5 S
1025.25 606.5 31.5 0 S
1065 590.75 0 31.5 S
1049.25 606.5 31.5 0 S
1083 590.75 0 31.5 S
1067.25 606.5 31.5 0 S
1084.5 590.75 0 31.5 S
1068.75 606.5 31.5 0 S
1095.5 590.75 0 31.5 S
1079.75 606.5 31.5 0 S
1101.5 590.75 0 31.5 S
1085.75 606.5 31.5 0 S
1102.5 623.75 0 31.5 S
1086.75 639.5 31.5 0 S
1102.5 590.75 0 31.5 S
1086.75 606.5 31.5 0 S
1105 607.25 0 31.5 S
1089.25 623 31.5 0 S
1106 640.25 0 31.5 S
1090.25 656 31.5 0 S
1106 623.75 0 31.5 S
1090.25 639.5 31.5 0 S
1106.5 640.25 0 31.5 S
1090.75 656 31.5 0 S
1107 590.75 0 31.5 S
1091.25 606.5 31.5 0 S
1108 590.75 0 31.5 S
1092.25 606.5 31.5 0 S
1109.5 607.25 0 31.5 S
1093.75 623 31.5 0 S
1110 607.25 0 31.5 S
1094.25 623 31.5 0 S
1110.5 640.25 0 31.5 S
1094.75 656 31.5 0 S
1111 590.75 0 31.5 S
1095.25 606.5 31.5 0 S
1111 640.25 0 31.5 S
1095.25 656 31.5 0 S
1111.5 623.75 0 31.5 S
1095.75 639.5 31.5 0 S
1112 607.25 0 31.5 S
1096.25 623 31.5 0 S
1112.5 640.25 0 31.5 S
1096.75 656 31.5 0 S
1113 623.75 0 31.5 S
1097.25 639.5 31.5 0 S
1113 590.75 0 31.5 S
1097.25 606.5 31.5 0 S
1113.5 623.75 0 31.5 S
1097.75 639.5 31.5 0 S
1114 672.75 0 31.5 S
1098.25 688.5 31.5 0 S
1114.5 689.25 0 31.5 S
1098.75 705 31.5 0 S
1114.5 656.75 0 31.5 S
1098.75 672.5 31.5 0 S
1115 623.75 0 31.5 S
1099.25 639.5 31.5 0 S
1115.5 672.75 0 31.5 S
1099.75 688.5 31.5 0 S
1116 607.25 0 31.5 S
1100.25 623 31.5 0 S
1116.5 640.25 0 31.5 S
1100.75 656 31.5 0 S
1116.5 689.25 0 31.5 S
1100.75 705 31.5 0 S
1117 590.75 0 31.5 S
1101.25 606.5 31.5 0 S
1117.5 640.25 0 31.5 S
1101.75 656 31.5 0 S
1118 640.25 0 31.5 S
1102.25 656 31.5 0 S
1118 640.25 0 31.5 S
1102.25 656 31.5 0 S
1118.5 640.25 0 31.5 S
1102.75 656 31.5 0 S
1119 656.75 0 31.5 S
1103.25 672.5 31.5 0 S
1119.5 607.25 0 31.5 S
1103.75 623 31.5 0 S
1120 672.75 0 31.5 S
1104.25 688.5 31.5 0 S
1120 623.75 0 31.5 S
1104.25 639.5 31.5 0 S
1120.5 623.75 0 31.5 S
1104.75 639.5 31.5 0 S
1121 640.25 0 31.5 S
1105.25 656 31.5 0 S
1121.5 640.25 0 31.5 S
1105.75 656 31.5 0 S
1122 640.25 0 31.5 S
1106.25 656 31.5 0 S
1122 623.75 0 31.5 S
1106.25 639.5 31.5 0 S
1122.5 607.25 0 31.5 S
1106.75 623 31.5 0 S
1123 656.75 0 31.5 S
1107.25 672.5 31.5 0 S
1123.5 672.75 0 31.5 S
1107.75 688.5 31.5 0 S
1123.5 623.75 0 31.5 S
1107.75 639.5 31.5 0 S
1124 623.75 0 31.5 S
1108.25 639.5 31.5 0 S
1124.5 656.75 0 31.5 S
1108.75 672.5 31.5 0 S
1125 722.25 0 31.5 S
1109.25 738 31.5 0 S
1125.5 705.75 0 31.5 S
1109.75 721.5 31.5 0 S
1125.5 623.75 0 31.5 S
1109.75 639.5 31.5 0 S
1126 738.75 0 31.5 S
1110.25 754.5 31.5 0 S
1126.5 738.75 0 31.5 S
1110.75 754.5 31.5 0 S
1127 771.75 0 31.5 S
1111.25 787.5 31.5 0 S
1127 672.75 0 31.5 S
1111.25 688.5 31.5 0 S
1127.5 640.25 0 31.5 S
1111.75 656 31.5 0 S
1128 705.75 0 31.5 S
1112.25 721.5 31.5 0 S
1128.5 689.25 0 31.5 S
1112.75 705 31.5 0 S
1129 672.75 0 31.5 S
1113.25 688.5 31.5 0 S
1129 738.75 0 31.5 S
1113.25 754.5 31.5 0 S
1129.5 607.25 0 31.5 S
1113.75 623 31.5 0 S
1130 689.25 0 31.5 S
1114.25 705 31.5 0 S
1130.5 656.75 0 31.5 S
1114.75 672.5 31.5 0 S
1130.5 738.75 0 31.5 S
1114.75 754.5 31.5 0 S
1131 722.25 0 31.5 S
1115.25 738 31.5 0 S
1131.5 672.75 0 31.5 S
1115.75 688.5 31.5 0 S
1132 656.75 0 31.5 S
1116.25 672.5 31.5 0 S
1132.5 755.25 0 31.5 S
1116.75 771 31.5 0 S
1132.5 672.75 0 31.5 S
1116.75 688.5 31.5 0 S
1133 672.75 0 31.5 S
1117.25 688.5 31.5 0 S
1133.5 738.75 0 31.5 S
1117.75 754.5 31.5 0 S
1134 672.75 0 31.5 S
1118.25 688.5 31.5 0 S
1134 640.25 0 31.5 S
1118.25 656 31.5 0 S
1134.5 672.75 0 31.5 S
1118.75 688.5 31.5 0 S
1135 640.25 0 31.5 S
1119.25 656 31.5 0 S
1135.5 755.25 0 31.5 S
1119.75 771 31.5 0 S
1136 771.75 0 31.5 S
1120.25 787.5 31.5 0 S
1136 738.75 0 31.5 S
1120.25 754.5 31.5 0 S
1136.5 705.75 0 31.5 S
1120.75 721.5 31.5 0 S
1137 656.75 0 31.5 S
1121.25 672.5 31.5 0 S
1137.5 788.25 0 31.5 S
1121.75 804 31.5 0 S
1137.5 689.25 0 31.5 S
1121.75 705 31.5 0 S
1138 722.25 0 31.5 S
1122.25 738 31.5 0 S
1138.5 640.25 0 31.5 S
1122.75 656 31.5 0 S
1139 755.25 0 31.5 S
1123.25 771 31.5 0 S
1139.5 640.25 0 31.5 S
1123.75 656 31.5 0 S
1139.5 656.75 0 31.5 S
1123.75 672.5 31.5 0 S
1140 689.25 0 31.5 S
1124.25 705 31.5 0 S
1140.5 722.25 0 31.5 S
1124.75 738 31.5 0 S
1141 788.25 0 31.5 S
1125.25 804 31.5 0 S
1141.5 738.75 0 31.5 S
1125.75 754.5 31.5 0 S
1141.5 689.25 0 31.5 S
1125.75 705 31.5 0 S
1142 738.75 0 31.5 S
1126.25 754.5 31.5 0 S
1142.5 722.25 0 31.5 S
1126.75 738 31.5 0 S
1143 738.75 0 31.5 S
1127.25 754.5 31.5 0 S
1143 722.25 0 31.5 S
1127.25 738 31.5 0 S
1143.5 854.25 0 31.5 S
1127.75 870 31.5 0 S
1144 771.75 0 31.5 S
1128.25 787.5 31.5 0 S
1144.5 771.75 0 31.5 S
1128.75 787.5 31.5 0 S
1145 837.75 0 31.5 S
1129.25 853.5 31.5 0 S
1145 672.75 0 31.5 S
1129.25 688.5 31.5 0 S
1145.5 870.25 0 31.5 S
1129.75 886 31.5 0 S
1146 755.25 0 31.5 S
1130.25 771 31.5 0 S
1146.5 771.75 0 31.5 S
1130.75 787.5 31.5 0 S
1146.5 722.25 0 31.5 S
1130.75 738 31.5 0 S
1147 755.25 0 31.5 S
1131.25 771 31.5 0 S
1147.5 821.25 0 31.5 S
1131.75 837 31.5 0 S
1148 821.25 0 31.5 S
1132.25 837 31.5 0 S
1148.5 755.25 0 31.5 S
1132.75 771 31.5 0 S
1148.5 804.75 0 31.5 S
1132.75 820.5 31.5 0 S
1149 788.25 0 31.5 S
1133.25 804 31.5 0 S
1149.5 788.25 0 31.5 S
1133.75 804 31.5 0 S
1150 705.75 0 31.5 S
1134.25 721.5 31.5 0 S
1150 771.75 0 31.5 S
1134.25 787.5 31.5 0 S
1150.5 804.75 0 31.5 S
1134.75 820.5 31.5 0 S
1151 821.25 0 31.5 S
1135.25 837 31.5 0 S
1151.5 689.25 0 31.5 S
1135.75 705 31.5 0 S
1152 837.75 0 31.5 S
1136.25 853.5 31.5 0 S
1152 788.25 0 31.5 S
1136.25 804 31.5 0 S
1152.5 804.75 0 31.5 S
1136.75 820.5 31.5 0 S
1153 771.75 0 31.5 S
1137.25 787.5 31.5 0 S
1153.5 837.75 0 31.5 S
1137.75 853.5 31.5 0 S
1153.5 722.25 0 31.5 S
1137.75 738 31.5 0 S
1154 788.25 0 31.5 S
1138.25 804 31.5 0 S
1154.5 837.75 0 31.5 S
1138.75 853.5 31.5 0 S
1155 771.75 0 31.5 S
1139.25 787.5 31.5 0 S
1155.5 837.75 0 31.5 S
1139.75 853.5 31.5 0 S
1155.5 755.25 0 31.5 S
1139.75 771 31.5 0 S
1156 788.25 0 31.5 S
1140.25 804 31.5 0 S
1156.5 722.25 0 31.5 S
1140.75 738 31.5 0 S
1157 804.75 0 31.5 S
1141.25 820.5 31.5 0 S
1157 952.75 0 31.5 S
1141.25 968.5 31.5 0 S
1157.5 837.75 0 31.5 S
1141.75 853.5 31.5 0 S
1158 903.25 0 31.5 S
1142.25 919 31.5 0 S
1158.5 804.75 0 31.5 S
1142.75 820.5 31.5 0 S
1159 821.25 0 31.5 S
1143.25 837 31.5 0 S
1159 689.25 0 31.5 S
1143.25 705 31.5 0 S
1159.5 788.25 0 31.5 S
1143.75 804 31.5 0 S
1160 837.75 0 31.5 S
1144.25 853.5 31.5 0 S
1160.5 804.75 0 31.5 S
1144.75 820.5 31.5 0 S
1161 854.25 0 31.5 S
1145.25 870 31.5 0 S
1161 738.75 0 31.5 S
1145.25 754.5 31.5 0 S
1161.5 936.25 0 31.5 S
1145.75 952 31.5 0 S
1162 837.75 0 31.5 S
1146.25 853.5 31.5 0 S
1162.5 804.75 0 31.5 S
1146.75 820.5 31.5 0 S
1162.5 738.75 0 31.5 S
1146.75 754.5 31.5 0 S
1163 821.25 0 31.5 S
1147.25 837 31.5 0 S
1163.5 837.75 0 31.5 S
1147.75 853.5 31.5 0 S
1164 870.25 0 31.5 S
1148.25 886 31.5 0 S
1164.5 722.25 0 31.5 S
1148.75 738 31.5 0 S
1164.5 1018.75 0 31.5 S
1148.75 1034.5 31.5 0 S
1165 1051.75 0 31.5 S
1149.25 1067.5 31.5 0 S
1165.5 755.25 0 31.5 S
1149.75 771 31.5 0 S
1166 903.25 0 31.5 S
1150.25 919 31.5 0 S
1166 969.25 0 31.5 S
1150.25 985 31.5 0 S
1166.5 919.75 0 31.5 S
1150.75 935.5 31.5 0 S
1167 985.75 0 31.5 S
1151.25 1001.5 31.5 0 S
1167.5 821.25 0 31.5 S
1151.75 837 31.5 0 S
1168 952.75 0 31.5 S
1152.25 968.5 31.5 0 S
1168 936.25 0 31.5 S
1152.25 952 31.5 0 S
1168.5 771.75 0 31.5 S
1152.75 787.5 31.5 0 S
1169 903.25 0 31.5 S
1153.25 919 31.5 0 S
1169.5 821.25 0 31.5 S
1153.75 837 31.5 0 S
1169.5 952.75 0 31.5 S
1153.75 968.5 31.5 0 S
1170 969.25 0 31.5 S
1154.25 985 31.5 0 S
1170.5 738.75 0 31.5 S
1154.75 754.5 31.5 0 S
1171 1018.75 0 31.5 S
1155.25 1034.5 31.5 0 S
1171.5 886.75 0 31.5 S
1155.75 902.5 31.5 0 S
1171.5 1018.75 0 31.5 S
1155.75 1034.5 31.5 0 S
1172 952.75 0 31.5 S
1156.25 968.5 31.5 0 S
1172.5 952.75 0 31.5 S
1156.75 968.5 31.5 0 S
1173 969.25 0 31.5 S
1157.25 985 31.5 0 S
1173 1051.75 0 31.5 S
1157.25 1067.5 31.5 0 S
1173.5 952.75 0 31.5 S
1157.75 968.5 31.5 0 S
1174 870.25 0 31.5 S
1158.25 886 31.5 0 S
1174.5 837.75 0 31.5 S
1158.75 853.5 31.5 0 S
1175 903.25 0 31.5 S
1159.25 919 31.5 0 S
1175 919.75 0 31.5 S
1159.25 935.5 31.5 0 S
1175.5 952.75 0 31.5 S
1159.75 968.5 31.5 0 S
1176 886.75 0 31.5 S
1160.25 902.5 31.5 0 S
1176.5 985.75 0 31.5 S
1160.75 1001.5 31.5 0 S
1176.5 903.25 0 31.5 S
1160.75 919 31.5 0 S
1177 969.25 0 31.5 S
1161.25 985 31.5 0 S
1177.5 1117.25 0 31.5 S
1161.75 1133 31.5 0 S
1178 985.75 0 31.5 S
1162.25 1001.5 31.5 0 S
1178.5 952.75 0 31.5 S
1162.75 968.5 31.5 0 S
1178.5 985.75 0 31.5 S
1162.75 1001.5 31.5 0 S
1179 903.25 0 31.5 S
1163.25 919 31.5 0 S
1179.5 969.25 0 31.5 S
1163.75 985 31.5 0 S
1180 985.75 0 31.5 S
1164.25 1001.5 31.5 0 S
1180.5 969.25 0 31.5 S
1164.75 985 31.5 0 S
1180.5 936.25 0 31.5 S
1164.75 952 31.5 0 S
1181 919.75 0 31.5 S
1165.25 935.5 31.5 0 S
1181.5 903.25 0 31.5 S
1165.75 919 31.5 0 S
1182 804.75 0 31.5 S
1166.25 820.5 31.5 0 S
1182 804.75 0 31.5 S
1166.25 820.5 31.5 0 S
1182.5 919.75 0 31.5 S
1166.75 935.5 31.5 0 S
1183 985.75 0 31.5 S
1167.25 1001.5 31.5 0 S
1183.5 936.25 0 31.5 S
1167.75 952 31.5 0 S
1184 985.75 0 31.5 S
1168.25 1001.5 31.5 0 S
1184 854.25 0 31.5 S
1168.25 870 31.5 0 S
1184.5 837.75 0 31.5 S
1168.75 853.5 31.5 0 S
1185 886.75 0 31.5 S
1169.25 902.5 31.5 0 S
1185.5 854.25 0 31.5 S
1169.75 870 31.5 0 S
1185.5 886.75 0 31.5 S
1169.75 902.5 31.5 0 S
1186 771.75 0 31.5 S
1170.25 787.5 31.5 0 S
1186.5 788.25 0 31.5 S
1170.75 804 31.5 0 S
1187 952.75 0 31.5 S
1171.25 968.5 31.5 0 S
1187.5 903.25 0 31.5 S
1171.75 919 31.5 0 S
1187.5 854.25 0 31.5 S
1171.75 870 31.5 0 S
1188 886.75 0 31.5 S
1172.25 902.5 31.5 0 S
1188.5 854.25 0 31.5 S
1172.75 870 31.5 0 S
1189 870.25 0 31.5 S
1173.25 886 31.5 0 S
1189 870.25 0 31.5 S
1173.25 886 31.5 0 S
1189.5 837.75 0 31.5 S
1173.75 853.5 31.5 0 S
1190 804.75 0 31.5 S
1174.25 820.5 31.5 0 S
1190.5 821.25 0 31.5 S
1174.75 837 31.5 0 S
1191 854.25 0 31.5 S
1175.25 870 31.5 0 S
1191 804.75 0 31.5 S
1175.25 820.5 31.5 0 S
1191.5 771.75 0 31.5 S
1175.75 787.5 31.5 0 S
1192 722.25 0 31.5 S
1176.25 738 31.5 0 S
1192.5 919.75 0 31.5 S
1176.75 935.5 31.5 0 S
1192.5 936.25 0 31.5 S
1176.75 952 31.5 0 S
1193 788.25 0 31.5 S
1177.25 804 31.5 0 S
1193.5 837.75 0 31.5 S
1177.75 853.5 31.5 0 S
1194 837.75 0 31.5 S
1178.25 853.5 31.5 0 S
1194.5 936.25 0 31.5 S
1178.75 952 31.5 0 S
1194.5 870.25 0 31.5 S
1178.75 886 31.5 0 S
1195 903.25 0 31.5 S
1179.25 919 31.5 0 S
1195.5 821.25 0 31.5 S
1179.75 837 31.5 0 S
1196 755.25 0 31.5 S
1180.25 771 31.5 0 S
1196 656.75 0 31.5 S
1180.25 672.5 31.5 0 S
1196.5 837.75 0 31.5 S
1180.75 853.5 31.5 0 S
1197 854.25 0 31.5 S
1181.25 870 31.5 0 S
1197.5 804.75 0 31.5 S
1181.75 820.5 31.5 0 S
1198 771.75 0 31.5 S
1182.25 787.5 31.5 0 S
1198 771.75 0 31.5 S
1182.25 787.5 31.5 0 S
1198.5 886.75 0 31.5 S
1182.75 902.5 31.5 0 S
1199 722.25 0 31.5 S
1183.25 738 31.5 0 S
1199.5 837.75 0 31.5 S
1183.75 853.5 31.5 0 S
1200 854.25 0 31.5 S
1184.25 870 31.5 0 S
1200 837.75 0 31.5 S
1184.25 853.5 31.5 0 S
1200.5 804.75 0 31.5 S
1184.75 820.5 31.5 0 S
1201 771.75 0 31.5 S
1185.25 787.5 31.5 0 S
1201.5 804.75 0 31.5 S
1185.75 820.5 31.5 0 S
1201.5 738.75 0 31.5 S
1185.75 754.5 31.5 0 S
1202 919.75 0 31.5 S
1186.25 935.5 31.5 0 S
1202.5 886.75 0 31.5 S
1186.75 902.5 31.5 0 S
1203 804.75 0 31.5 S
1187.25 820.5 31.5 0 S
1203.5 903.25 0 31.5 S
1187.75 919 31.5 0 S
1203.5 804.75 0 31.5 S
1187.75 820.5 31.5 0 S
1204 821.25 0 31.5 S
1188.25 837 31.5 0 S
1204.5 804.75 0 31.5 S
1188.75 820.5 31.5 0 S
1205 804.75 0 31.5 S
1189.25 820.5 31.5 0 S
1205 821.25 0 31.5 S
1189.25 837 31.5 0 S
1205.5 722.25 0 31.5 S
1189.75 738 31.5 0 S
1206 854.25 0 31.5 S
1190.25 870 31.5 0 S
1206.5 821.25 0 31.5 S
1190.75 837 31.5 0 S
1207 771.75 0 31.5 S
1191.25 787.5 31.5 0 S
1207 837.75 0 31.5 S
1191.25 853.5 31.5 0 S
1207.5 788.25 0 31.5 S
1191.75 804 31.5 0 S
1208 705.75 0 31.5 S
1192.25 721.5 31.5 0 S
1208.5 771.75 0 31.5 S
1192.75 787.5 31.5 0 S
1208.5 755.25 0 31.5 S
1192.75 771 31.5 0 S
1209 755.25 0 31.5 S
1193.25 771 31.5 0 S
1209.5 771.75 0 31.5 S
1193.75 787.5 31.5 0 S
1210 870.25 0 31.5 S
1194.25 886 31.5 0 S
1210.5 821.25 0 31.5 S
1194.75 837 31.5 0 S
1210.5 755.25 0 31.5 S
1194.75 771 31.5 0 S
1211 804.75 0 31.5 S
1195.25 820.5 31.5 0 S
1211.5 755.25 0 31.5 S
1195.75 771 31.5 0 S
1212 804.75 0 31.5 S
1196.25 820.5 31.5 0 S
1212 755.25 0 31.5 S
1196.25 771 31.5 0 S
1212.5 870.25 0 31.5 S
1196.75 886 31.5 0 S
1213 689.25 0 31.5 S
1197.25 705 31.5 0 S
1213.5 771.75 0 31.5 S
1197.75 787.5 31.5 0 S
1214 722.25 0 31.5 S
1198.25 738 31.5 0 S
1214 771.75 0 31.5 S
1198.25 787.5 31.5 0 S
1214.5 705.75 0 31.5 S
1198.75 721.5 31.5 0 S
1215 804.75 0 31.5 S
1199.25 820.5 31.5 0 S
1215.5 788.25 0 31.5 S
1199.75 804 31.5 0 S
1215.5 804.75 0 31.5 S
1199.75 820.5 31.5 0 S
1216 870.25 0 31.5 S
1200.25 886 31.5 0 S
1216.5 788.25 0 31.5 S
1200.75 804 31.5 0 S
1217 755.25 0 31.5 S
1201.25 771 31.5 0 S
1217.5 755.25 0 31.5 S
1201.75 771 31.5 0 S
1217.5 755.25 0 31.5 S
1201.75 771 31.5 0 S
1218 771.75 0 31.5 S
1202.25 787.5 31.5 0 S
1218.5 705.75 0 31.5 S
1202.75 721.5 31.5 0 S
1219 722.25 0 31.5 S
1203.25 738 31.5 0 S
1219.5 886.75 0 31.5 S
1203.75 902.5 31.5 0 S
1219.5 755.25 0 31.5 S
1203.75 771 31.5 0 S
1220 738.75 0 31.5 S
1204.25 754.5 31.5 0 S
1220.5 755.25 0 31.5 S
1204.75 771 31.5 0 S
1221 837.75 0 31.5 S
1205.25 853.5 31.5 0 S
1221 755.25 0 31.5 S
1205.25 771 31.5 0 S
1221.5 689.25 0 31.5 S
1205.75 705 31.5 0 S
1222 755.25 0 31.5 S
1206.25 771 31.5 0 S
1222.5 705.75 0 31.5 S
1206.75 721.5 31.5 0 S
1223 640.25 0 31.5 S
1207.25 656 31.5 0 S
1223 722.25 0 31.5 S
1207.25 738 31.5 0 S
1223.5 755.25 0 31.5 S
1207.75 771 31.5 0 S
1224 705.75 0 31.5 S
1208.25 721.5 31.5 0 S
1224.5 656.75 0 31.5 S
1208.75 672.5 31.5 0 S
1224.5 705.75 0 31.5 S
1208.75 721.5 31.5 0 S
1225 705.75 0 31.5 S
1209.25 721.5 31.5 0 S
1225.5 640.25 0 31.5 S
1209.75 656 31.5 0 S
1226 689.25 0 31.5 S
1210.25 705 31.5 0 S
1226.5 788.25 0 31.5 S
1210.75 804 31.5 0 S
1226.5 788.25 0 31.5 S
1210.75 804 31.5 0 S
1227 656.75 0 31.5 S
1211.25 672.5 31.5 0 S
1227.5 771.75 0 31.5 S
1211.75 787.5 31.5 0 S
1228 689.25 0 31.5 S
1212.25 705 31.5 0 S
1228 755.25 0 31.5 S
1212.25 771 31.5 0 S
1228.5 689.25 0 31.5 S
1212.75 705 31.5 0 S
1229 705.75 0 31.5 S
1213.25 721.5 31.5 0 S
1229.5 689.25 0 31.5 S
1213.75 705 31.5 0 S
1230 738.75 0 31.5 S
1214.25 754.5 31.5 0 S
1230 656.75 0 31.5 S
1214.25 672.5 31.5 0 S
1230.5 771.75 0 31.5 S
1214.75 787.5 31.5 0 S
1231 656.75 0 31.5 S
1215.25 672.5 31.5 0 S
1231.5 689.25 0 31.5 S
1215.75 705 31.5 0 S
1231.5 672.75 0 31.5 S
1215.75 688.5 31.5 0 S
1232 656.75 0 31.5 S
1216.25 672.5 31.5 0 S
1232.5 771.75 0 31.5 S
1216.75 787.5 31.5 0 S
1233 771.75 0 31.5 S
1217.25 787.5 31.5 0 S
1233.5 689.25 0 31.5 S
1217.75 705 31.5 0 S
1233.5 771.75 0 31.5 S
1217.75 787.5 31.5 0 S
1234 722.25 0 31.5 S
1218.25 738 31.5 0 S
1234.5 672.75 0 31.5 S
1218.75 688.5 31.5 0 S
1235 689.25 0 31.5 S
1219.25 705 31.5 0 S
1235 722.25 0 31.5 S
1219.25 738 31.5 0 S
1235.5 640.25 0 31.5 S
1219.75 656 31.5 0 S
1236 689.25 0 31.5 S
1220.25 705 31.5 0 S
1236.5 656.75 0 31.5 S
1220.75 672.5 31.5 0 S
1237 689.25 0 31.5 S
1221.25 705 31.5 0 S
1237 672.75 0 31.5 S
1221.25 688.5 31.5 0 S
1237.5 705.75 0 31.5 S
1221.75 721.5 31.5 0 S
1238 656.75 0 31.5 S
1222.25 672.5 31.5 0 S
1238.5 623.75 0 31.5 S
1222.75 639.5 31.5 0 S
1239 656.75 0 31.5 S
1223.25 672.5 31.5 0 S
1239 705.75 0 31.5 S
1223.25 721.5 31.5 0 S
1239.5 656.75 0 31.5 S
1223.75 672.5 31.5 0 S
1240 607.25 0 31.5 S
1224.25 623 31.5 0 S
1240.5 623.75 0 31.5 S
1224.75 639.5 31.5 0 S
1240.5 590.75 0 31.5 S
1224.75 606.5 31.5 0 S
1241 607.25 0 31.5 S
1225.25 623 31.5 0 S
1241.5 623.75 0 31.5 S
1225.75 639.5 31.5 0 S
1242 623.75 0 31.5 S
1226.25 639.5 31.5 0 S
1242.5 656.75 0 31.5 S
1226.75 672.5 31.5 0 S
1242.5 623.75 0 31.5 S
1226.75 639.5 31.5 0 S
1243 640.25 0 31.5 S
1227.25 656 31.5 0 S
1243.5 640.25 0 31.5 S
1227.75 656 31.5 0 S
1244 607.25 0 31.5 S
1228.25 623 31.5 0 S
1244 640.25 0 31.5 S
1228.25 656 31.5 0 S
1244.5 672.75 0 31.5 S
1228.75 688.5 31.5 0 S
1245 689.25 0 31.5 S
1229.25 705 31.5 0 S
1245.5 640.25 0 31.5 S
1229.75 656 31.5 0 S
1246 640.25 0 31.5 S
1230.25 656 31.5 0 S
1246 590.75 0 31.5 S
1230.25 606.5 31.5 0 S
1246.5 590.75 0 31.5 S
1230.75 606.5 31.5 0 S
1247 640.25 0 31.5 S
1231.25 656 31.5 0 S
1247.5 656.75 0 31.5 S
1231.75 672.5 31.5 0 S
1247.5 656.75 0 31.5 S
1231.75 672.5 31.5 0 S
1248 607.25 0 31.5 S
1232.25 623 31.5 0 S
1248.5 607.25 0 31.5 S
1232.75 623 31.5 0 S
1249 672.75 0 31.5 S
1233.25 688.5 31.5 0 S
1249.5 656.75 0 31.5 S
1233.75 672.5 31.5 0 S
1249.5 590.75 0 31.5 S
1233.75 606.5 31.5 0 S
1250 623.75 0 31.5 S
1234.25 639.5 31.5 0 S
1250.5 623.75 0 31.5 S
1234.75 639.5 31.5 0 S
1251 623.75 0 31.5 S
1235.25 639.5 31.5 0 S
1251 590.75 0 31.5 S
1235.25 606.5 31.5 0 S
1251.5 623.75 0 31.5 S
1235.75 639.5 31.5 0 S
1252 623.75 0 31.5 S
1236.25 639.5 31.5 0 S
1252.5 607.25 0 31.5 S
1236.75 623 31.5 0 S
1253 656.75 0 31.5 S
1237.25 672.5 31.5 0 S
1253 623.75 0 31.5 S
1237.25 639.5 31.5 0 S
1253.5 590.75 0 31.5 S
1237.75 606.5 31.5 0 S
1254 623.75 0 31.5 S
1238.25 639.5 31.5 0 S
1254.5 607.25 0 31.5 S
1238.75 623 31.5 0 S
1254.5 607.25 0 31.5 S
1238.75 623 31.5 0 S
1255 590.75 0 31.5 S
1239.25 606.5 31.5 0 S
1255.5 590.75 0 31.5 S
1239.75 606.5 31.5 0 S
1256 607.25 0 31.5 S
1240.25 623 31.5 0 S
1256.5 590.75 0 31.5 S
1240.75 606.5 31.5 0 S
1256.5 623.75 0 31.5 S
1240.75 639.5 31.5 0 S
1257 623.75 0 31.5 S
1241.25 639.5 31.5 0 S
1257.5 640.25 0 31.5 S
1241.75 656 31.5 0 S
1258 590.75 0 31.5 S
1242.25 606.5 31.5 0 S
1258.5 590.75 0 31.5 S
1242.75 606.5 31.5 0 S
1258.5 656.75 0 31.5 S
1242.75 672.5 31.5 0 S
1259 623.75 0 31.5 S
1243.25 639.5 31.5 0 S
1259.5 607.25 0 31.5 S
1243.75 623 31.5 0 S
1260 656.75 0 31.5 S
1244.25 672.5 31.5 0 S
1260 590.75 0 31.5 S
1244.25 606.5 31.5 0 S
1260.5 623.75 0 31.5 S
1244.75 639.5 31.5 0 S
1261 640.25 0 31.5 S
1245.25 656 31.5 0 S
1262 607.25 0 31.5 S
1246.25 623 31.5 0 S
1262 590.75 0 31.5 S
1246.25 606.5 31.5 0 S
1262.5 623.75 0 31.5 S
1246.75 639.5 31.5 0 S
1263.5 607.25 0 31.5 S
1247.75 623 31.5 0 S
1263.5 590.75 0 31.5 S
1247.75 606.5 31.5 0 S
1264 590.75 0 31.5 S
1248.25 606.5 31.5 0 S
1264.5 607.25 0 31.5 S
1248.75 623 31.5 0 S
1265 607.25 0 31.5 S
1249.25 623 31.5 0 S
1265.5 623.75 0 31.5 S
1249.75 639.5 31.5 0 S
1265.5 640.25 0 31.5 S
1249.75 656 31.5 0 S
1266 623.75 0 31.5 S
1250.25 639.5 31.5 0 S
1266.5 607.25 0 31.5 S
1250.75 623 31.5 0 S
1267 640.25 0 31.5 S
1251.25 656 31.5 0 S
1267 590.75 0 31.5 S
1251.25 606.5 31.5 0 S
1267.5 590.75 0 31.5 S
1251.75 606.5 31.5 0 S
1268 590.75 0 31.5 S
1252.25 606.5 31.5 0 S
1268.5 623.75 0 31.5 S
1252.75 639.5 31.5 0 S
1269 590.75 0 31.5 S
1253.25 606.5 31.5 0 S
1269 590.75 0 31.5 S
1253.25 606.5 31.5 0 S
1269.5 607.25 0 31.5 S
1253.75 623 31.5 0 S
1270 607.25 0 31.5 S
1254.25 623 31.5 0 S
1270.5 623.75 0 31.5 S
1254.75 639.5 31.5 0 S
1271 640.25 0 31.5 S
1255.25 656 31.5 0 S
1271.5 590.75 0 31.5 S
1255.75 606.5 31.5 0 S
1272 590.75 0 31.5 S
1256.25 606.5 31.5 0 S
1272.5 607.25 0 31.5 S
1256.75 623 31.5 0 S
1272.5 590.75 0 31.5 S
1256.75 606.5 31.5 0 S
1273 623.75 0 31.5 S
1257.25 639.5 31.5 0 S
1274 590.75 0 31.5 S
1258.25 606.5 31.5 0 S
1274.5 623.75 0 31.5 S
1258.75 639.5 31.5 0 S
1275 640.25 0 31.5 S
1259.25 656 31.5 0 S
1275.5 590.75 0 31.5 S
1259.75 606.5 31.5 0 S
1276 607.25 0 31.5 S
1260.25 623 31.5 0 S
1276 607.25 0 31.5 S
1260.25 623 31.5 0 S
1276.5 623.75 0 31.5 S
1260.75 639.5 31.5 0 S
1277 590.75 0 31.5 S
1261.25 606.5 31.5 0 S
1278 590.75 0 31.5 S
1262.25 606.5 31.5 0 S
1278 640.25 0 31.5 S
1262.25 656 31.5 0 S
1278.5 590.75 0 31.5 S
1262.75 606.5 31.5 0 S
1279 607.25 0 31.5 S
1263.25 623 31.5 0 S
1279.5 607.25 0 31.5 S
1263.75 623 31.5 0 S
1279.5 590.75 0 31.5 S
1263.75 606.5 31.5 0 S
1280 640.25 0 31.5 S
1264.25 656 31.5 0 S
1281 656.75 0 31.5 S
1265.25 672.5 31.5 0 S
1281.5 607.25 0 31.5 S
1265.75 623 31.5 0 S
1282 607.25 0 31.5 S
1266.25 623 31.5 0 S
1283 590.75 0 31.5 S
1267.25 606.5 31.5 0 S
1283 590.75 0 31.5 S
1267.25 606.5 31.5 0 S
1284 590.75 0 31.5 S
1268.25 606.5 31.5 0 S
1284.5 590.75 0 31.5 S
1268.75 606.5 31.5 0 S
1285 623.75 0 31.5 S
1269.25 639.5 31.5 0 S
1285.5 590.75 0 31.5 S
1269.75 606.5 31.5 0 S
1286 590.75 0 31.5 S
1270.25 606.5 31.5 0 S
1286.5 590.75 0 31.5 S
1270.75 606.5 31.5 0 S
1287 607.25 0 31.5 S
1271.25 623 31.5 0 S
1287.5 590.75 0 31.5 S
1271.75 606.5 31.5 0 S
1288 590.75 0 31.5 S
1272.25 606.5 31.5 0 S
1288.5 656.75 0 31.5 S
1272.75 672.5 31.5 0 S
1288.5 607.25 0 31.5 S
1272.75 623 31.5 0 S
1289 590.75 0 31.5 S
1273.25 606.5 31.5 0 S
1289.5 623.75 0 31.5 S
1273.75 639.5 31.5 0 S
1290 607.25 0 31.5 S
1274.25 623 31.5 0 S
1290 590.75 0 31.5 S
1274.25 606.5 31.5 0 S
1290.5 590.75 0 31.5 S
1274.75 606.5 31.5 0 S
1291 607.25 0 31.5 S
1275.25 623 31.5 0 S
1292 607.25 0 31.5 S
1276.25 623 31.5 0 S
1292.5 607.25 0 31.5 S
1276.75 623 31.5 0 S
1293 607.25 0 31.5 S
1277.25 623 31.5 0 S
1293.5 590.75 0 31.5 S
1277.75 606.5 31.5 0 S
1293.5 590.75 0 31.5 S
1277.75 606.5 31.5 0 S
1294 640.25 0 31.5 S
1278.25 656 31.5 0 S
1294.5 590.75 0 31.5 S
1278.75 606.5 31.5 0 S
1295 607.25 0 31.5 S
1279.25 623 31.5 0 S
1295.5 607.25 0 31.5 S
1279.75 623 31.5 0 S
1295.5 640.25 0 31.5 S
1279.75 656 31.5 0 S
1296.5 590.75 0 31.5 S
1280.75 606.5 31.5 0 S
1297 590.75 0 31.5 S
1281.25 606.5 31.5 0 S
1297.5 607.25 0 31.5 S
1281.75 623 31.5 0 S
1297.5 623.75 0 31.5 S
1281.75 639.5 31.5 0 S
1298 623.75 0 31.5 S
1282.25 639.5 31.5 0 S
1298.5 590.75 0 31.5 S
1282.75 606.5 31.5 0 S
1299 640.25 0 31.5 S
1283.25 656 31.5 0 S
1299 623.75 0 31.5 S
1283.25 639.5 31.5 0 S
1299.5 623.75 0 31.5 S
1283.75 639.5 31.5 0 S
1300 656.75 0 31.5 S
1284.25 672.5 31.5 0 S
1300.5 607.25 0 31.5 S
1284.75 623 31.5 0 S
1301 590.75 0 31.5 S
1285.25 606.5 31.5 0 S
1301 607.25 0 31.5 S
1285.25 623 31.5 0 S
1301.5 607.25 0 31.5 S
1285.75 623 31.5 0 S
1302 590.75 0 31.5 S
1286.25 606.5 31.5 0 S
1302.5 590.75 0 31.5 S
1286.75 606.5 31.5 0 S
1303 607.25 0 31.5 S
1287.25 623 31.5 0 S
1304 590.75 0 31.5 S
1288.25 606.5 31.5 0 S
1304.5 607.25 0 31.5 S
1288.75 623 31.5 0 S
1304.5 590.75 0 31.5 S
1288.75 606.5 31.5 0 S
1305.5 607.25 0 31.5 S
1289.75 623 31.5 0 S
1306 590.75 0 31.5 S
1290.25 606.5 31.5 0 S
1306 607.25 0 31.5 S
1290.25 623 31.5 0 S
1309 590.75 0 31.5 S
1293.25 606.5 31.5 0 S
1309.5 640.25 0 31.5 S
1293.75 656 31.5 0 S
1310 590.75 0 31.5 S
1294.25 606.5 31.5 0 S
1310.5 607.25 0 31.5 S
1294.75 623 31.5 0 S
1311 590.75 0 31.5 S
1295.25 606.5 31.5 0 S
1311.5 607.25 0 31.5 S
1295.75 623 31.5 0 S
1312.5 590.75 0 31.5 S
1296.75 606.5 31.5 0 S
1313 607.25 0 31.5 S
1297.25 623 31.5 0 S
1313.5 590.75 0 31.5 S
1297.75 606.5 31.5 0 S
1315 590.75 0 31.5 S
1299.25 606.5 31.5 0 S
1315.5 607.25 0 31.5 S
1299.75 623 31.5 0 S
1316.5 607.25 0 31.5 S
1300.75 623 31.5 0 S
1317 590.75 0 31.5 S
1301.25 606.5 31.5 0 S
1317.5 607.25 0 31.5 S
1301.75 623 31.5 0 S
1318 607.25 0 31.5 S
1302.25 623 31.5 0 S
1319.5 607.25 0 31.5 S
1303.75 623 31.5 0 S
1320 590.75 0 31.5 S
1304.25 606.5 31.5 0 S
1320.5 607.25 0 31.5 S
1304.75 623 31.5 0 S
1320.5 590.75 0 31.5 S
1304.75 606.5 31.5 0 S
1321.5 590.75 0 31.5 S
1305.75 606.5 31.5 0 S
1322 590.75 0 31.5 S
1306.25 606.5 31.5 0 S
1322 607.25 0 31.5 S
1306.25 623 31.5 0 S
1322.5 607.25 0 31.5 S
1306.75 623 31.5 0 S
1323 607.25 0 31.5 S
1307.25 623 31.5 0 S
1324 590.75 0 31.5 S
1308.25 606.5 31.5 0 S
1324.5 590.75 0 31.5 S
1308.75 606.5 31.5 0 S
1325 607.25 0 31.5 S
1309.25 623 31.5 0 S
1325.5 623.75 0 31.5 S
1309.75 639.5 31.5 0 S
1325.5 590.75 0 31.5 S
1309.75 606.5 31.5 0 S
1326 590.75 0 31.5 S
1310.25 606.5 31.5 0 S
1326.5 607.25 0 31.5 S
1310.75 623 31.5 0 S
1327.5 590.75 0 31.5 S
1311.75 606.5 31.5 0 S
1327.5 590.75 0 31.5 S
1311.75 606.5 31.5 0 S
1329 607.25 0 31.5 S
1313.25 623 31.5 0 S
1329.5 607.25 0 31.5 S
1313.75 623 31.5 0 S
1330.5 607.25 0 31.5 S
1314.75 623 31.5 0 S
1331 623.75 0 31.5 S
1315.25 639.5 31.5 0 S
1331 590.75 0 31.5 S
1315.25 606.5 31.5 0 S
1331.5 607.25 0 31.5 S
1315.75 623 31.5 0 S
1332.5 590.75 0 31.5 S
1316.75 606.5 31.5 0 S
1333 607.25 0 31.5 S
1317.25 623 31.5 0 S
1334 623.75 0 31.5 S
1318.25 639.5 31.5 0 S
1334.5 607.25 0 31.5 S
1318.75 623 31.5 0 S
1334.5 590.75 0 31.5 S
1318.75 606.5 31.5 0 S
1335 607.25 0 31.5 S
1319.25 623 31.5 0 S
1335.5 607.25 0 31.5 S
1319.75 623 31.5 0 S
1336 607.25 0 31.5 S
1320.25 623 31.5 0 S
1336.5 623.75 0 31.5 S
1320.75 639.5 31.5 0 S
1337 590.75 0 31.5 S
1321.25 606.5 31.5 0 S
1337.5 623.75 0 31.5 S
1321.75 639.5 31.5 0 S
1338 607.25 0 31.5 S
1322.25 623 31.5 0 S
1338 640.25 0 31.5 S
1322.25 656 31.5 0 S
1339 590.75 0 31.5 S
1323.25 606.5 31.5 0 S
1339.5 590.75 0 31.5 S
1323.75 606.5 31.5 0 S
1340 623.75 0 31.5 S
1324.25 639.5 31.5 0 S
1341 590.75 0 31.5 S
1325.25 606.5 31.5 0 S
1341.5 607.25 0 31.5 S
1325.75 623 31.5 0 S
1341.5 623.75 0 31.5 S
1325.75 639.5 31.5 0 S
1342 623.75 0 31.5 S
1326.25 639.5 31.5 0 S
1342.5 672.75 0 31.5 S
1326.75 688.5 31.5 0 S
1343 607.25 0 31.5 S
1327.25 623 31.5 0 S
1343.5 607.25 0 31.5 S
1327.75 623 31.5 0 S
1343.5 640.25 0 31.5 S
1327.75 656 31.5 0 S
1344 623.75 0 31.5 S
1328.25 639.5 31.5 0 S
1344.5 607.25 0 31.5 S
1328.75 623 31.5 0 S
1345 623.75 0 31.5 S
1329.25 639.5 31.5 0 S
1345 590.75 0 31.5 S
1329.25 606.5 31.5 0 S
1346 590.75 0 31.5 S
1330.25 606.5 31.5 0 S
1346.5 623.75 0 31.5 S
1330.75 639.5 31.5 0 S
1347 623.75 0 31.5 S
1331.25 639.5 31.5 0 S
1347.5 623.75 0 31.5 S
1331.75 639.5 31.5 0 S
1348 590.75 0 31.5 S
1332.25 606.5 31.5 0 S
1349 607.25 0 31.5 S
1333.25 623 31.5 0 S
1349.5 607.25 0 31.5 S
1333.75 623 31.5 0 S
1350 607.25 0 31.5 S
1334.25 623 31.5 0 S
1350.5 590.75 0 31.5 S
1334.75 606.5 31.5 0 S
1352 607.25 0 31.5 S
1336.25 623 31.5 0 S
1352 607.25 0 31.5 S
1336.25 623 31.5 0 S
1352.5 607.25 0 31.5 S
1336.75 623 31.5 0 S
1353.5 607.25 0 31.5 S
1337.75 623 31.5 0 S
1354 623.75 0 31.5 S
1338.25 639.5 31.5 0 S
1354 590.75 0 31.5 S
1338.25 606.5 31.5 0 S
1355.5 590.75 0 31.5 S
1339.75 606.5 31.5 0 S
1356.5 590.75 0 31.5 S
1340.75 606.5 31.5 0 S
1357.5 590.75 0 31.5 S
1341.75 606.5 31.5 0 S
1358.5 590.75 0 31.5 S
1342.75 606.5 31.5 0 S
1360 590.75 0 31.5 S
1344.25 606.5 31.5 0 S
1363 590.75 0 31.5 S
1347.25 606.5 31.5 0 S
1364.5 590.75 0 31.5 S
1348.75 606.5 31.5 0 S
1368 590.75 0 31.5 S
1352.25 606.5 31.5 0 S
1372.5 590.75 0 31.5 S
1356.75 606.5 31.5 0 S
1374 590.75 0 31.5 S
1358.25 606.5 31.5 0 S
1375.5 590.75 0 31.5 S
1359.75 606.5 31.5 0 S
1380 590.75 0 31.5 S
1364.25 606.5 31.5 0 S
1384 590.75 0 31.5 S
1368.25 606.5 31.5 0 S
1384 590.75 0 31.5 S
1368.25 606.5 31.5 0 S
1385 590.75 0 31.5 S
1369.25 606.5 31.5 0 S
1387.5 590.75 0 31.5 S
1371.75 606.5 31.5 0 S
1388.5 590.75 0 31.5 S
1372.75 606.5 31.5 0 S
1389 590.75 0 31.5 S
1373.25 606.5 31.5 0 S
1390 590.75 0 31.5 S
1374.25 606.5 31.5 0 S
1392 590.75 0 31.5 S
1376.25 606.5 31.5 0 S
1395 590.75 0 31.5 S
1379.25 606.5 31.5 0 S
1395 590.75 0 31.5 S
1379.25 606.5 31.5 0 S
1395.5 590.75 0 31.5 S
1379.75 606.5 31.5 0 S
1396 590.75 0 31.5 S
1380.25 606.5 31.5 0 S
1396.5 590.75 0 31.5 S
1380.75 606.5 31.5 0 S
1398.5 590.75 0 31.5 S
1382.75 606.5 31.5 0 S
1399.5 590.75 0 31.5 S
1383.75 606.5 31.5 0 S
1400 590.75 0 31.5 S
1384.25 606.5 31.5 0 S
1401 590.75 0 31.5 S
1385.25 606.5 31.5 0 S
1402 590.75 0 31.5 S
1386.25 606.5 31.5 0 S
1402 590.75 0 31.5 S
1386.25 606.5 31.5 0 S
1402.5 590.75 0 31.5 S
1386.75 606.5 31.5 0 S
1404.5 590.75 0 31.5 S
1388.75 606.5 31.5 0 S
1410 590.75 0 31.5 S
1394.25 606.5 31.5 0 S
1412.5 590.75 0 31.5 S
1396.75 606.5 31.5 0 S
1413 590.75 0 31.5 S
1397.25 606.5 31.5 0 S
1416 590.75 0 31.5 S
1400.25 606.5 31.5 0 S
1420.5 590.75 0 31.5 S
1404.75 606.5 31.5 0 S
1421.5 590.75 0 31.5 S
1405.75 606.5 31.5 0 S
1422.5 590.75 0 31.5 S
1406.75 606.5 31.5 0 S
1423 590.75 0 31.5 S
1407.25 606.5 31.5 0 S
1427 590.75 0 31.5 S
1411.25 606.5 31.5 0 S
1434 590.75 0 31.5 S
1418.25 606.5 31.5 0 S
1437.5 590.75 0 31.5 S
1421.75 606.5 31.5 0 S
1441 590.75 0 31.5 S
1425.25 606.5 31.5 0 S
1448 590.75 0 31.5 S
1432.25 606.5 31.5 0 S
1452 590.75 0 31.5 S
1436.25 606.5 31.5 0 S
1455.5 590.75 0 31.5 S
1439.75 606.5 31.5 0 S
1457 590.75 0 31.5 S
1441.25 606.5 31.5 0 S
1461.5 590.75 0 31.5 S
1445.75 606.5 31.5 0 S
1462 590.75 0 31.5 S
1446.25 606.5 31.5 0 S
1464 590.75 0 31.5 S
1448.25 606.5 31.5 0 S
1469.5 590.75 0 31.5 S
1453.75 606.5 31.5 0 S
1597.5 590.75 0 31.5 S
1581.75 606.5 31.5 0 S
1650 590.75 0 31.5 S
1634.25 606.5 31.5 0 S
1676.5 590.75 0 31.5 S
1660.75 606.5 31.5 0 S
1714 590.75 0 31.5 S
1698.25 606.5 31.5 0 S
1724.5 590.75 0 31.5 S
1708.75 606.5 31.5 0 S
1730 590.75 0 31.5 S
1714.25 606.5 31.5 0 S
1730 607.25 0 31.5 S
1714.25 623 31.5 0 S
1733 590.75 0 31.5 S
1717.25 606.5 31.5 0 S
1735 590.75 0 31.5 S
1719.25 606.5 31.5 0 S
1736 590.75 0 31.5 S
1720.25 606.5 31.5 0 S
5 w
702.5 590 1170 576 re
S
cleartomark end end pagesave restore
 showpage
%%PageTrailer
%%Trailer
%%Pages: 1
