%!PS-Adobe-2.0 EPSF-2.0
%%Title: max.eps
%%Creator: gnuplot 5.0 patchlevel 1
%%CreationDate: Fri Oct 30 18:57:08 2015
%%DocumentFonts: (atend)
%%BoundingBox: 50 50 302 238
%%EndComments
%%BeginProlog
/gnudict 256 dict def
gnudict begin
%
% The following true/false flags may be edited by hand if desired.
% The unit line width and grayscale image gamma correction may also be changed.
%
/Color true def
/Blacktext false def
/Solid false def
/Dashlength 1 def
/Landscape false def
/Level1 false def
/Level3 false def
/Rounded false def
/ClipToBoundingBox false def
/SuppressPDFMark false def
/TransparentPatterns false def
/gnulinewidth 5.000 def
/userlinewidth gnulinewidth def
/Gamma 1.0 def
/BackgroundColor {-1.000 -1.000 -1.000} def
%
/vshift -66 def
/dl1 {
  10.0 Dashlength userlinewidth gnulinewidth div mul mul mul
  Rounded { currentlinewidth 0.75 mul sub dup 0 le { pop 0.01 } if } if
} def
/dl2 {
  10.0 Dashlength userlinewidth gnulinewidth div mul mul mul
  Rounded { currentlinewidth 0.75 mul add } if
} def
/hpt_ 31.5 def
/vpt_ 31.5 def
/hpt hpt_ def
/vpt vpt_ def
/doclip {
  ClipToBoundingBox {
    newpath 50 50 moveto 302 50 lineto 302 238 lineto 50 238 lineto closepath
    clip
  } if
} def
%
% Gnuplot Prolog Version 5.0 (Dec 2014)
%
%/SuppressPDFMark true def
%
/M {moveto} bind def
/L {lineto} bind def
/R {rmoveto} bind def
/V {rlineto} bind def
/N {newpath moveto} bind def
/Z {closepath} bind def
/C {setrgbcolor} bind def
/f {rlineto fill} bind def
/g {setgray} bind def
/Gshow {show} def   % May be redefined later in the file to support UTF-8
/vpt2 vpt 2 mul def
/hpt2 hpt 2 mul def
/Lshow {currentpoint stroke M 0 vshift R 
	Blacktext {gsave 0 setgray textshow grestore} {textshow} ifelse} def
/Rshow {currentpoint stroke M dup stringwidth pop neg vshift R
	Blacktext {gsave 0 setgray textshow grestore} {textshow} ifelse} def
/Cshow {currentpoint stroke M dup stringwidth pop -2 div vshift R 
	Blacktext {gsave 0 setgray textshow grestore} {textshow} ifelse} def
/UP {dup vpt_ mul /vpt exch def hpt_ mul /hpt exch def
  /hpt2 hpt 2 mul def /vpt2 vpt 2 mul def} def
/DL {Color {setrgbcolor Solid {pop []} if 0 setdash}
 {pop pop pop 0 setgray Solid {pop []} if 0 setdash} ifelse} def
/BL {stroke userlinewidth 2 mul setlinewidth
	Rounded {1 setlinejoin 1 setlinecap} if} def
/AL {stroke userlinewidth 2 div setlinewidth
	Rounded {1 setlinejoin 1 setlinecap} if} def
/UL {dup gnulinewidth mul /userlinewidth exch def
	dup 1 lt {pop 1} if 10 mul /udl exch def} def
/PL {stroke userlinewidth setlinewidth
	Rounded {1 setlinejoin 1 setlinecap} if} def
3.8 setmiterlimit
% Classic Line colors (version 5.0)
/LCw {1 1 1} def
/LCb {0 0 0} def
/LCa {0 0 0} def
/LC0 {1 0 0} def
/LC1 {0 1 0} def
/LC2 {0 0 1} def
/LC3 {1 0 1} def
/LC4 {0 1 1} def
/LC5 {1 1 0} def
/LC6 {0 0 0} def
/LC7 {1 0.3 0} def
/LC8 {0.5 0.5 0.5} def
% Default dash patterns (version 5.0)
/LTw {PL [] 1 setgray} def
/LTb {BL [] LCb DL} def
/LTa {AL [1 udl mul 2 udl mul] 0 setdash LCa setrgbcolor} def
/LT0 {PL [] LC0 DL} def
/LT1 {PL [2 dl1 3 dl2] LC1 DL} def
/LT2 {PL [1 dl1 1.5 dl2] LC2 DL} def
/LT3 {PL [6 dl1 2 dl2 1 dl1 2 dl2] LC3 DL} def
/LT4 {PL [1 dl1 2 dl2 6 dl1 2 dl2 1 dl1 2 dl2] LC4 DL} def
/LT5 {PL [4 dl1 2 dl2] LC5 DL} def
/LT6 {PL [1.5 dl1 1.5 dl2 1.5 dl1 1.5 dl2 1.5 dl1 6 dl2] LC6 DL} def
/LT7 {PL [3 dl1 3 dl2 1 dl1 3 dl2] LC7 DL} def
/LT8 {PL [2 dl1 2 dl2 2 dl1 6 dl2] LC8 DL} def
/SL {[] 0 setdash} def
/Pnt {stroke [] 0 setdash gsave 1 setlinecap M 0 0 V stroke grestore} def
/Dia {stroke [] 0 setdash 2 copy vpt add M
  hpt neg vpt neg V hpt vpt neg V
  hpt vpt V hpt neg vpt V closepath stroke
  Pnt} def
/Pls {stroke [] 0 setdash vpt sub M 0 vpt2 V
  currentpoint stroke M
  hpt neg vpt neg R hpt2 0 V stroke
 } def
/Box {stroke [] 0 setdash 2 copy exch hpt sub exch vpt add M
  0 vpt2 neg V hpt2 0 V 0 vpt2 V
  hpt2 neg 0 V closepath stroke
  Pnt} def
/Crs {stroke [] 0 setdash exch hpt sub exch vpt add M
  hpt2 vpt2 neg V currentpoint stroke M
  hpt2 neg 0 R hpt2 vpt2 V stroke} def
/TriU {stroke [] 0 setdash 2 copy vpt 1.12 mul add M
  hpt neg vpt -1.62 mul V
  hpt 2 mul 0 V
  hpt neg vpt 1.62 mul V closepath stroke
  Pnt} def
/Star {2 copy Pls Crs} def
/BoxF {stroke [] 0 setdash exch hpt sub exch vpt add M
  0 vpt2 neg V hpt2 0 V 0 vpt2 V
  hpt2 neg 0 V closepath fill} def
/TriUF {stroke [] 0 setdash vpt 1.12 mul add M
  hpt neg vpt -1.62 mul V
  hpt 2 mul 0 V
  hpt neg vpt 1.62 mul V closepath fill} def
/TriD {stroke [] 0 setdash 2 copy vpt 1.12 mul sub M
  hpt neg vpt 1.62 mul V
  hpt 2 mul 0 V
  hpt neg vpt -1.62 mul V closepath stroke
  Pnt} def
/TriDF {stroke [] 0 setdash vpt 1.12 mul sub M
  hpt neg vpt 1.62 mul V
  hpt 2 mul 0 V
  hpt neg vpt -1.62 mul V closepath fill} def
/DiaF {stroke [] 0 setdash vpt add M
  hpt neg vpt neg V hpt vpt neg V
  hpt vpt V hpt neg vpt V closepath fill} def
/Pent {stroke [] 0 setdash 2 copy gsave
  translate 0 hpt M 4 {72 rotate 0 hpt L} repeat
  closepath stroke grestore Pnt} def
/PentF {stroke [] 0 setdash gsave
  translate 0 hpt M 4 {72 rotate 0 hpt L} repeat
  closepath fill grestore} def
/Circle {stroke [] 0 setdash 2 copy
  hpt 0 360 arc stroke Pnt} def
/CircleF {stroke [] 0 setdash hpt 0 360 arc fill} def
/C0 {BL [] 0 setdash 2 copy moveto vpt 90 450 arc} bind def
/C1 {BL [] 0 setdash 2 copy moveto
	2 copy vpt 0 90 arc closepath fill
	vpt 0 360 arc closepath} bind def
/C2 {BL [] 0 setdash 2 copy moveto
	2 copy vpt 90 180 arc closepath fill
	vpt 0 360 arc closepath} bind def
/C3 {BL [] 0 setdash 2 copy moveto
	2 copy vpt 0 180 arc closepath fill
	vpt 0 360 arc closepath} bind def
/C4 {BL [] 0 setdash 2 copy moveto
	2 copy vpt 180 270 arc closepath fill
	vpt 0 360 arc closepath} bind def
/C5 {BL [] 0 setdash 2 copy moveto
	2 copy vpt 0 90 arc
	2 copy moveto
	2 copy vpt 180 270 arc closepath fill
	vpt 0 360 arc} bind def
/C6 {BL [] 0 setdash 2 copy moveto
	2 copy vpt 90 270 arc closepath fill
	vpt 0 360 arc closepath} bind def
/C7 {BL [] 0 setdash 2 copy moveto
	2 copy vpt 0 270 arc closepath fill
	vpt 0 360 arc closepath} bind def
/C8 {BL [] 0 setdash 2 copy moveto
	2 copy vpt 270 360 arc closepath fill
	vpt 0 360 arc closepath} bind def
/C9 {BL [] 0 setdash 2 copy moveto
	2 copy vpt 270 450 arc closepath fill
	vpt 0 360 arc closepath} bind def
/C10 {BL [] 0 setdash 2 copy 2 copy moveto vpt 270 360 arc closepath fill
	2 copy moveto
	2 copy vpt 90 180 arc closepath fill
	vpt 0 360 arc closepath} bind def
/C11 {BL [] 0 setdash 2 copy moveto
	2 copy vpt 0 180 arc closepath fill
	2 copy moveto
	2 copy vpt 270 360 arc closepath fill
	vpt 0 360 arc closepath} bind def
/C12 {BL [] 0 setdash 2 copy moveto
	2 copy vpt 180 360 arc closepath fill
	vpt 0 360 arc closepath} bind def
/C13 {BL [] 0 setdash 2 copy moveto
	2 copy vpt 0 90 arc closepath fill
	2 copy moveto
	2 copy vpt 180 360 arc closepath fill
	vpt 0 360 arc closepath} bind def
/C14 {BL [] 0 setdash 2 copy moveto
	2 copy vpt 90 360 arc closepath fill
	vpt 0 360 arc} bind def
/C15 {BL [] 0 setdash 2 copy vpt 0 360 arc closepath fill
	vpt 0 360 arc closepath} bind def
/Rec {newpath 4 2 roll moveto 1 index 0 rlineto 0 exch rlineto
	neg 0 rlineto closepath} bind def
/Square {dup Rec} bind def
/Bsquare {vpt sub exch vpt sub exch vpt2 Square} bind def
/S0 {BL [] 0 setdash 2 copy moveto 0 vpt rlineto BL Bsquare} bind def
/S1 {BL [] 0 setdash 2 copy vpt Square fill Bsquare} bind def
/S2 {BL [] 0 setdash 2 copy exch vpt sub exch vpt Square fill Bsquare} bind def
/S3 {BL [] 0 setdash 2 copy exch vpt sub exch vpt2 vpt Rec fill Bsquare} bind def
/S4 {BL [] 0 setdash 2 copy exch vpt sub exch vpt sub vpt Square fill Bsquare} bind def
/S5 {BL [] 0 setdash 2 copy 2 copy vpt Square fill
	exch vpt sub exch vpt sub vpt Square fill Bsquare} bind def
/S6 {BL [] 0 setdash 2 copy exch vpt sub exch vpt sub vpt vpt2 Rec fill Bsquare} bind def
/S7 {BL [] 0 setdash 2 copy exch vpt sub exch vpt sub vpt vpt2 Rec fill
	2 copy vpt Square fill Bsquare} bind def
/S8 {BL [] 0 setdash 2 copy vpt sub vpt Square fill Bsquare} bind def
/S9 {BL [] 0 setdash 2 copy vpt sub vpt vpt2 Rec fill Bsquare} bind def
/S10 {BL [] 0 setdash 2 copy vpt sub vpt Square fill 2 copy exch vpt sub exch vpt Square fill
	Bsquare} bind def
/S11 {BL [] 0 setdash 2 copy vpt sub vpt Square fill 2 copy exch vpt sub exch vpt2 vpt Rec fill
	Bsquare} bind def
/S12 {BL [] 0 setdash 2 copy exch vpt sub exch vpt sub vpt2 vpt Rec fill Bsquare} bind def
/S13 {BL [] 0 setdash 2 copy exch vpt sub exch vpt sub vpt2 vpt Rec fill
	2 copy vpt Square fill Bsquare} bind def
/S14 {BL [] 0 setdash 2 copy exch vpt sub exch vpt sub vpt2 vpt Rec fill
	2 copy exch vpt sub exch vpt Square fill Bsquare} bind def
/S15 {BL [] 0 setdash 2 copy Bsquare fill Bsquare} bind def
/D0 {gsave translate 45 rotate 0 0 S0 stroke grestore} bind def
/D1 {gsave translate 45 rotate 0 0 S1 stroke grestore} bind def
/D2 {gsave translate 45 rotate 0 0 S2 stroke grestore} bind def
/D3 {gsave translate 45 rotate 0 0 S3 stroke grestore} bind def
/D4 {gsave translate 45 rotate 0 0 S4 stroke grestore} bind def
/D5 {gsave translate 45 rotate 0 0 S5 stroke grestore} bind def
/D6 {gsave translate 45 rotate 0 0 S6 stroke grestore} bind def
/D7 {gsave translate 45 rotate 0 0 S7 stroke grestore} bind def
/D8 {gsave translate 45 rotate 0 0 S8 stroke grestore} bind def
/D9 {gsave translate 45 rotate 0 0 S9 stroke grestore} bind def
/D10 {gsave translate 45 rotate 0 0 S10 stroke grestore} bind def
/D11 {gsave translate 45 rotate 0 0 S11 stroke grestore} bind def
/D12 {gsave translate 45 rotate 0 0 S12 stroke grestore} bind def
/D13 {gsave translate 45 rotate 0 0 S13 stroke grestore} bind def
/D14 {gsave translate 45 rotate 0 0 S14 stroke grestore} bind def
/D15 {gsave translate 45 rotate 0 0 S15 stroke grestore} bind def
/DiaE {stroke [] 0 setdash vpt add M
  hpt neg vpt neg V hpt vpt neg V
  hpt vpt V hpt neg vpt V closepath stroke} def
/BoxE {stroke [] 0 setdash exch hpt sub exch vpt add M
  0 vpt2 neg V hpt2 0 V 0 vpt2 V
  hpt2 neg 0 V closepath stroke} def
/TriUE {stroke [] 0 setdash vpt 1.12 mul add M
  hpt neg vpt -1.62 mul V
  hpt 2 mul 0 V
  hpt neg vpt 1.62 mul V closepath stroke} def
/TriDE {stroke [] 0 setdash vpt 1.12 mul sub M
  hpt neg vpt 1.62 mul V
  hpt 2 mul 0 V
  hpt neg vpt -1.62 mul V closepath stroke} def
/PentE {stroke [] 0 setdash gsave
  translate 0 hpt M 4 {72 rotate 0 hpt L} repeat
  closepath stroke grestore} def
/CircE {stroke [] 0 setdash 
  hpt 0 360 arc stroke} def
/Opaque {gsave closepath 1 setgray fill grestore 0 setgray closepath} def
/DiaW {stroke [] 0 setdash vpt add M
  hpt neg vpt neg V hpt vpt neg V
  hpt vpt V hpt neg vpt V Opaque stroke} def
/BoxW {stroke [] 0 setdash exch hpt sub exch vpt add M
  0 vpt2 neg V hpt2 0 V 0 vpt2 V
  hpt2 neg 0 V Opaque stroke} def
/TriUW {stroke [] 0 setdash vpt 1.12 mul add M
  hpt neg vpt -1.62 mul V
  hpt 2 mul 0 V
  hpt neg vpt 1.62 mul V Opaque stroke} def
/TriDW {stroke [] 0 setdash vpt 1.12 mul sub M
  hpt neg vpt 1.62 mul V
  hpt 2 mul 0 V
  hpt neg vpt -1.62 mul V Opaque stroke} def
/PentW {stroke [] 0 setdash gsave
  translate 0 hpt M 4 {72 rotate 0 hpt L} repeat
  Opaque stroke grestore} def
/CircW {stroke [] 0 setdash 
  hpt 0 360 arc Opaque stroke} def
/BoxFill {gsave Rec 1 setgray fill grestore} def
/Density {
  /Fillden exch def
  currentrgbcolor
  /ColB exch def /ColG exch def /ColR exch def
  /ColR ColR Fillden mul Fillden sub 1 add def
  /ColG ColG Fillden mul Fillden sub 1 add def
  /ColB ColB Fillden mul Fillden sub 1 add def
  ColR ColG ColB setrgbcolor} def
/BoxColFill {gsave Rec PolyFill} def
/PolyFill {gsave Density fill grestore grestore} def
/h {rlineto rlineto rlineto gsave closepath fill grestore} bind def
%
% PostScript Level 1 Pattern Fill routine for rectangles
% Usage: x y w h s a XX PatternFill
%	x,y = lower left corner of box to be filled
%	w,h = width and height of box
%	  a = angle in degrees between lines and x-axis
%	 XX = 0/1 for no/yes cross-hatch
%
/PatternFill {gsave /PFa [ 9 2 roll ] def
  PFa 0 get PFa 2 get 2 div add PFa 1 get PFa 3 get 2 div add translate
  PFa 2 get -2 div PFa 3 get -2 div PFa 2 get PFa 3 get Rec
  TransparentPatterns {} {gsave 1 setgray fill grestore} ifelse
  clip
  currentlinewidth 0.5 mul setlinewidth
  /PFs PFa 2 get dup mul PFa 3 get dup mul add sqrt def
  0 0 M PFa 5 get rotate PFs -2 div dup translate
  0 1 PFs PFa 4 get div 1 add floor cvi
	{PFa 4 get mul 0 M 0 PFs V} for
  0 PFa 6 get ne {
	0 1 PFs PFa 4 get div 1 add floor cvi
	{PFa 4 get mul 0 2 1 roll M PFs 0 V} for
 } if
  stroke grestore} def
%
/languagelevel where
 {pop languagelevel} {1} ifelse
dup 2 lt
	{/InterpretLevel1 true def
	 /InterpretLevel3 false def}
	{/InterpretLevel1 Level1 def
	 2 gt
	    {/InterpretLevel3 Level3 def}
	    {/InterpretLevel3 false def}
	 ifelse }
 ifelse
%
% PostScript level 2 pattern fill definitions
%
/Level2PatternFill {
/Tile8x8 {/PaintType 2 /PatternType 1 /TilingType 1 /BBox [0 0 8 8] /XStep 8 /YStep 8}
	bind def
/KeepColor {currentrgbcolor [/Pattern /DeviceRGB] setcolorspace} bind def
<< Tile8x8
 /PaintProc {0.5 setlinewidth pop 0 0 M 8 8 L 0 8 M 8 0 L stroke} 
>> matrix makepattern
/Pat1 exch def
<< Tile8x8
 /PaintProc {0.5 setlinewidth pop 0 0 M 8 8 L 0 8 M 8 0 L stroke
	0 4 M 4 8 L 8 4 L 4 0 L 0 4 L stroke}
>> matrix makepattern
/Pat2 exch def
<< Tile8x8
 /PaintProc {0.5 setlinewidth pop 0 0 M 0 8 L
	8 8 L 8 0 L 0 0 L fill}
>> matrix makepattern
/Pat3 exch def
<< Tile8x8
 /PaintProc {0.5 setlinewidth pop -4 8 M 8 -4 L
	0 12 M 12 0 L stroke}
>> matrix makepattern
/Pat4 exch def
<< Tile8x8
 /PaintProc {0.5 setlinewidth pop -4 0 M 8 12 L
	0 -4 M 12 8 L stroke}
>> matrix makepattern
/Pat5 exch def
<< Tile8x8
 /PaintProc {0.5 setlinewidth pop -2 8 M 4 -4 L
	0 12 M 8 -4 L 4 12 M 10 0 L stroke}
>> matrix makepattern
/Pat6 exch def
<< Tile8x8
 /PaintProc {0.5 setlinewidth pop -2 0 M 4 12 L
	0 -4 M 8 12 L 4 -4 M 10 8 L stroke}
>> matrix makepattern
/Pat7 exch def
<< Tile8x8
 /PaintProc {0.5 setlinewidth pop 8 -2 M -4 4 L
	12 0 M -4 8 L 12 4 M 0 10 L stroke}
>> matrix makepattern
/Pat8 exch def
<< Tile8x8
 /PaintProc {0.5 setlinewidth pop 0 -2 M 12 4 L
	-4 0 M 12 8 L -4 4 M 8 10 L stroke}
>> matrix makepattern
/Pat9 exch def
/Pattern1 {PatternBgnd KeepColor Pat1 setpattern} bind def
/Pattern2 {PatternBgnd KeepColor Pat2 setpattern} bind def
/Pattern3 {PatternBgnd KeepColor Pat3 setpattern} bind def
/Pattern4 {PatternBgnd KeepColor Landscape {Pat5} {Pat4} ifelse setpattern} bind def
/Pattern5 {PatternBgnd KeepColor Landscape {Pat4} {Pat5} ifelse setpattern} bind def
/Pattern6 {PatternBgnd KeepColor Landscape {Pat9} {Pat6} ifelse setpattern} bind def
/Pattern7 {PatternBgnd KeepColor Landscape {Pat8} {Pat7} ifelse setpattern} bind def
} def
%
%
%End of PostScript Level 2 code
%
/PatternBgnd {
  TransparentPatterns {} {gsave 1 setgray fill grestore} ifelse
} def
%
% Substitute for Level 2 pattern fill codes with
% grayscale if Level 2 support is not selected.
%
/Level1PatternFill {
/Pattern1 {0.250 Density} bind def
/Pattern2 {0.500 Density} bind def
/Pattern3 {0.750 Density} bind def
/Pattern4 {0.125 Density} bind def
/Pattern5 {0.375 Density} bind def
/Pattern6 {0.625 Density} bind def
/Pattern7 {0.875 Density} bind def
} def
%
% Now test for support of Level 2 code
%
Level1 {Level1PatternFill} {Level2PatternFill} ifelse
%
/Symbol-Oblique /Symbol findfont [1 0 .167 1 0 0] makefont
dup length dict begin {1 index /FID eq {pop pop} {def} ifelse} forall
currentdict end definefont pop
%
/MFshow {
   { dup 5 get 3 ge
     { 5 get 3 eq {gsave} {grestore} ifelse }
     {dup dup 0 get findfont exch 1 get scalefont setfont
     [ currentpoint ] exch dup 2 get 0 exch R dup 5 get 2 ne {dup dup 6
     get exch 4 get {textshow} {stringwidth pop 0 R} ifelse }if dup 5 get 0 eq
     {dup 3 get {2 get neg 0 exch R pop} {pop aload pop M} ifelse} {dup 5
     get 1 eq {dup 2 get exch dup 3 get exch 6 get stringwidth pop -2 div
     dup 0 R} {dup 6 get stringwidth pop -2 div 0 R 6 get
     textshow 2 index {aload pop M neg 3 -1 roll neg R pop pop} {pop pop pop
     pop aload pop M} ifelse }ifelse }ifelse }
     ifelse }
   forall} def
/Gswidth {dup type /stringtype eq {stringwidth} {pop (n) stringwidth} ifelse} def
/MFwidth {0 exch { dup 5 get 3 ge { 5 get 3 eq { 0 } { pop } ifelse }
 {dup 3 get{dup dup 0 get findfont exch 1 get scalefont setfont
     6 get Gswidth pop add} {pop} ifelse} ifelse} forall} def
/MLshow { currentpoint stroke M
  0 exch R
  Blacktext {gsave 0 setgray MFshow grestore} {MFshow} ifelse } bind def
/MRshow { currentpoint stroke M
  exch dup MFwidth neg 3 -1 roll R
  Blacktext {gsave 0 setgray MFshow grestore} {MFshow} ifelse } bind def
/MCshow { currentpoint stroke M
  exch dup MFwidth -2 div 3 -1 roll R
  Blacktext {gsave 0 setgray MFshow grestore} {MFshow} ifelse } bind def
/XYsave    { [( ) 1 2 true false 3 ()] } bind def
/XYrestore { [( ) 1 2 true false 4 ()] } bind def
Level1 SuppressPDFMark or 
{} {
/SDict 10 dict def
systemdict /pdfmark known not {
  userdict /pdfmark systemdict /cleartomark get put
} if
SDict begin [
  /Title (max.eps)
  /Subject (gnuplot plot)
  /Creator (gnuplot 5.0 patchlevel 1)
  /Author (gaumont)
%  /Producer (gnuplot)
%  /Keywords ()
  /CreationDate (Fri Oct 30 18:57:08 2015)
  /DOCINFO pdfmark
end
} ifelse
end
%
% Support for boxed text - Ethan A Merritt May 2005
%
/InitTextBox { userdict /TBy2 3 -1 roll put userdict /TBx2 3 -1 roll put
           userdict /TBy1 3 -1 roll put userdict /TBx1 3 -1 roll put
	   /Boxing true def } def
/ExtendTextBox { Boxing
    { gsave dup false charpath pathbbox
      dup TBy2 gt {userdict /TBy2 3 -1 roll put} {pop} ifelse
      dup TBx2 gt {userdict /TBx2 3 -1 roll put} {pop} ifelse
      dup TBy1 lt {userdict /TBy1 3 -1 roll put} {pop} ifelse
      dup TBx1 lt {userdict /TBx1 3 -1 roll put} {pop} ifelse
      grestore } if } def
/PopTextBox { newpath TBx1 TBxmargin sub TBy1 TBymargin sub M
               TBx1 TBxmargin sub TBy2 TBymargin add L
	       TBx2 TBxmargin add TBy2 TBymargin add L
	       TBx2 TBxmargin add TBy1 TBymargin sub L closepath } def
/DrawTextBox { PopTextBox stroke /Boxing false def} def
/FillTextBox { gsave PopTextBox 1 1 1 setrgbcolor fill grestore /Boxing false def} def
0 0 0 0 InitTextBox
/TBxmargin 20 def
/TBymargin 20 def
/Boxing false def
/textshow { ExtendTextBox Gshow } def
%
%%EndProlog
%%Page: 1 1
gnudict begin
gsave
doclip
50 50 translate
0.050 0.050 scale
0 setgray
newpath
(Helvetica) findfont 200 scalefont setfont
BackgroundColor 0 lt 3 1 roll 0 lt exch 0 lt or or not {BackgroundColor C 1.000 0 0 5040.00 3772.00 BoxColFill} if
1.000 UL
LTb
LCb setrgbcolor
860 640 M
63 0 V
3756 0 R
-63 0 V
stroke
740 640 M
[ [(Helvetica) 200.0 0.0 true true 0 (10)]
[(Helvetica) 160.0 100.0 true true 0 (-2)]
] -86.7 MRshow
1.000 UL
LTb
LCb setrgbcolor
860 1075 M
31 0 V
3788 0 R
-31 0 V
860 1330 M
31 0 V
3788 0 R
-31 0 V
860 1510 M
31 0 V
3788 0 R
-31 0 V
860 1650 M
31 0 V
3788 0 R
-31 0 V
860 1765 M
31 0 V
3788 0 R
-31 0 V
860 1862 M
31 0 V
3788 0 R
-31 0 V
860 1945 M
31 0 V
3788 0 R
-31 0 V
860 2019 M
31 0 V
3788 0 R
-31 0 V
860 2086 M
63 0 V
3756 0 R
-63 0 V
stroke
740 2086 M
[ [(Helvetica) 200.0 0.0 true true 0 (10)]
[(Helvetica) 160.0 100.0 true true 0 (-1)]
] -86.7 MRshow
1.000 UL
LTb
LCb setrgbcolor
860 2521 M
31 0 V
3788 0 R
-31 0 V
860 2775 M
31 0 V
3788 0 R
-31 0 V
860 2956 M
31 0 V
3788 0 R
-31 0 V
860 3096 M
31 0 V
3788 0 R
-31 0 V
860 3210 M
31 0 V
3788 0 R
-31 0 V
860 3307 M
31 0 V
3788 0 R
-31 0 V
860 3391 M
31 0 V
3788 0 R
-31 0 V
860 3465 M
31 0 V
3788 0 R
-31 0 V
860 3531 M
63 0 V
3756 0 R
-63 0 V
stroke
740 3531 M
[ [(Helvetica) 200.0 0.0 true true 0 (10)]
[(Helvetica) 160.0 100.0 true true 0 (0)]
] -86.7 MRshow
1.000 UL
LTb
LCb setrgbcolor
860 640 M
0 63 V
0 2828 R
0 -63 V
stroke
860 440 M
[ [(Helvetica) 200.0 0.0 true true 0 (10)]
[(Helvetica) 160.0 100.0 true true 0 (-2)]
] -86.7 MCshow
1.000 UL
LTb
LCb setrgbcolor
1435 640 M
0 31 V
0 2860 R
0 -31 V
1771 640 M
0 31 V
0 2860 R
0 -31 V
2010 640 M
0 31 V
0 2860 R
0 -31 V
2195 640 M
0 31 V
0 2860 R
0 -31 V
2346 640 M
0 31 V
0 2860 R
0 -31 V
2474 640 M
0 31 V
0 2860 R
0 -31 V
2584 640 M
0 31 V
0 2860 R
0 -31 V
2682 640 M
0 31 V
0 2860 R
0 -31 V
2770 640 M
0 63 V
0 2828 R
0 -63 V
stroke
2770 440 M
[ [(Helvetica) 200.0 0.0 true true 0 (10)]
[(Helvetica) 160.0 100.0 true true 0 (-1)]
] -86.7 MCshow
1.000 UL
LTb
LCb setrgbcolor
3344 640 M
0 31 V
0 2860 R
0 -31 V
3681 640 M
0 31 V
0 2860 R
0 -31 V
3919 640 M
0 31 V
0 2860 R
0 -31 V
4104 640 M
0 31 V
0 2860 R
0 -31 V
4255 640 M
0 31 V
0 2860 R
0 -31 V
4383 640 M
0 31 V
0 2860 R
0 -31 V
4494 640 M
0 31 V
0 2860 R
0 -31 V
4592 640 M
0 31 V
0 2860 R
0 -31 V
4679 640 M
0 63 V
0 2828 R
0 -63 V
stroke
4679 440 M
[ [(Helvetica) 200.0 0.0 true true 0 (10)]
[(Helvetica) 160.0 100.0 true true 0 (0)]
] -86.7 MCshow
1.000 UL
LTb
LCb setrgbcolor
1.000 UL
LTb
LCb setrgbcolor
860 3531 N
860 640 L
3819 0 V
0 2891 V
-3819 0 V
Z stroke
0.500 UP
1.000 UL
LTb
LCb setrgbcolor
LCb setrgbcolor
160 2085 M
currentpoint gsave translate -270 rotate 0 0 moveto
[ [(Helvetica) 200.0 0.0 true true 0 (Max inter-thread density)]
] -66.7 MCshow
grestore
LTb
LCb setrgbcolor
2769 140 M
[ [(Helvetica) 200.0 0.0 true true 0 (Intra-thread density)]
] -66.7 MCshow
LTb
% Begin plot #1
0.500 UP
0.500 UL
LTb
0.82 0.11 0.02 C 4343 3498 Pls
3768 3240 Pls
3767 3208 Pls
3640 2899 Pls
3878 3049 Pls
3919 3458 Pls
3344 3232 Pls
3529 3187 Pls
3768 3181 Pls
3344 3017 Pls
3118 2977 Pls
3919 3488 Pls
4383 3398 Pls
3191 3132 Pls
3767 3430 Pls
4046 3330 Pls
3639 2991 Pls
4104 3339 Pls
3529 3257 Pls
3529 3341 Pls
3640 3342 Pls
3528 3249 Pls
3265 3141 Pls
4046 3419 Pls
3737 3121 Pls
3639 3376 Pls
3344 2860 Pls
3510 3138 Pls
3877 3458 Pls
3638 3001 Pls
3768 3139 Pls
3127 3122 Pls
4343 3339 Pls
3616 3166 Pls
3431 3246 Pls
3640 3353 Pls
4104 3427 Pls
3265 3074 Pls
3616 3339 Pls
3917 3387 Pls
3617 3175 Pls
3767 3334 Pls
3918 3261 Pls
3007 2954 Pls
3737 3046 Pls
4046 3325 Pls
3766 3290 Pls
3253 3124 Pls
3215 3152 Pls
3193 3265 Pls
4104 3342 Pls
3767 3245 Pls
3825 3348 Pls
3737 2981 Pls
3825 3322 Pls
3767 3206 Pls
3192 3135 Pls
3640 3168 Pls
2743 2985 Pls
3767 3181 Pls
3919 3217 Pls
3265 3005 Pls
2920 3182 Pls
3235 2789 Pls
2922 2896 Pls
3582 3234 Pls
4103 3207 Pls
3640 3120 Pls
3918 3455 Pls
4104 3248 Pls
3482 3271 Pls
3415 3256 Pls
3483 3180 Pls
4047 3254 Pls
4343 3279 Pls
3640 3199 Pls
3192 3070 Pls
3976 3060 Pls
3193 3083 Pls
3330 3007 Pls
3265 3219 Pls
3407 3045 Pls
3091 2813 Pls
3193 3005 Pls
3529 3174 Pls
3639 3213 Pls
3617 3190 Pls
3640 3300 Pls
4104 3369 Pls
3482 3281 Pls
3919 3167 Pls
3529 3182 Pls
3918 3450 Pls
3091 2974 Pls
4103 3304 Pls
4255 3212 Pls
3504 3028 Pls
3919 3500 Pls
3265 2920 Pls
3875 3252 Pls
3065 3043 Pls
3737 3124 Pls
3768 3295 Pls
3462 3155 Pls
3416 3287 Pls
4104 3272 Pls
3125 2817 Pls
3529 3262 Pls
4341 3305 Pls
3616 3316 Pls
4047 3389 Pls
3430 2917 Pls
3262 3103 Pls
3529 3193 Pls
3610 3093 Pls
3507 3262 Pls
3768 3226 Pls
2917 2882 Pls
3768 3235 Pls
3640 3210 Pls
3919 3229 Pls
3737 3020 Pls
3265 3161 Pls
3737 3291 Pls
3343 3273 Pls
3768 3377 Pls
3640 2935 Pls
3529 3200 Pls
3583 3067 Pls
3248 3283 Pls
3431 3203 Pls
3640 3109 Pls
3240 3231 Pls
3064 2994 Pls
4255 3451 Pls
4343 3303 Pls
2594 2816 Pls
3765 3389 Pls
3768 3174 Pls
3183 2979 Pls
3330 3203 Pls
3736 3152 Pls
3343 3115 Pls
3343 2893 Pls
3976 3037 Pls
3768 3342 Pls
3529 2933 Pls
3462 3126 Pls
2977 3076 Pls
3649 3204 Pls
3525 3208 Pls
4104 3281 Pls
3825 3115 Pls
4047 3379 Pls
3976 3075 Pls
3343 3229 Pls
3431 2828 Pls
3482 3221 Pls
3431 3231 Pls
3767 3294 Pls
3918 3325 Pls
3768 3237 Pls
3823 3306 Pls
3918 3165 Pls
3879 3420 Pls
3879 2980 Pls
3182 3177 Pls
4104 3318 Pls
3529 3212 Pls
3431 3142 Pls
3265 3119 Pls
3919 3401 Pls
3263 2747 Pls
3919 3081 Pls
3919 3455 Pls
3768 3249 Pls
3529 3266 Pls
3767 3049 Pls
3331 3119 Pls
3529 3449 Pls
3529 3238 Pls
3529 3242 Pls
3336 3083 Pls
3511 3016 Pls
3976 3263 Pls
3640 3352 Pls
3768 3236 Pls
3616 3178 Pls
3918 3253 Pls
4046 3253 Pls
3768 3318 Pls
3544 3166 Pls
3431 3112 Pls
3344 2958 Pls
3976 3389 Pls
3510 3053 Pls
3264 2756 Pls
3265 2999 Pls
3768 3024 Pls
3431 2894 Pls
4104 3148 Pls
2618 2979 Pls
3105 3166 Pls
3640 3282 Pls
4255 3471 Pls
2872 3041 Pls
3496 3141 Pls
3431 3091 Pls
3529 3126 Pls
3767 2995 Pls
3634 3189 Pls
3343 2814 Pls
2851 2706 Pls
3279 3175 Pls
3919 3176 Pls
3768 3211 Pls
3617 3229 Pls
3046 2735 Pls
3529 3151 Pls
3878 3000 Pls
4104 3203 Pls
3767 3452 Pls
3640 3309 Pls
3824 3221 Pls
3767 3184 Pls
3640 3266 Pls
3919 3329 Pls
3582 3053 Pls
3914 3273 Pls
4104 3123 Pls
3878 3364 Pls
3767 3435 Pls
3768 2947 Pls
3148 2991 Pls
4104 3222 Pls
4047 3127 Pls
3265 3077 Pls
3919 3151 Pls
4103 3409 Pls
3919 3087 Pls
3767 3359 Pls
4040 3258 Pls
3529 3140 Pls
3528 3025 Pls
3615 3242 Pls
4157 3408 Pls
3918 3194 Pls
3581 3101 Pls
3511 3027 Pls
3582 3327 Pls
3168 2976 Pls
3431 3027 Pls
3768 3215 Pls
3330 3043 Pls
4104 3467 Pls
3007 2794 Pls
3503 3146 Pls
3649 3247 Pls
3343 3103 Pls
3919 3267 Pls
3768 3210 Pls
3768 3250 Pls
3335 3288 Pls
3767 3313 Pls
3919 3035 Pls
3767 3304 Pls
4104 3244 Pls
4047 3251 Pls
3529 3439 Pls
3640 3319 Pls
3528 3182 Pls
3878 3173 Pls
3908 3092 Pls
3529 3410 Pls
3431 3053 Pls
3768 3262 Pls
4046 3113 Pls
3265 2929 Pls
3529 3152 Pls
3511 3222 Pls
3737 3306 Pls
3878 3272 Pls
3639 2937 Pls
3413 3319 Pls
3529 3377 Pls
3528 3176 Pls
3730 3184 Pls
3338 2789 Pls
3878 3379 Pls
3975 3275 Pls
3141 3037 Pls
3331 3051 Pls
3640 3493 Pls
2977 2800 Pls
3615 3257 Pls
4104 3398 Pls
3640 3428 Pls
3419 3045 Pls
3919 3098 Pls
3616 2910 Pls
3919 3267 Pls
3193 3037 Pls
3919 3306 Pls
3481 3156 Pls
3529 3018 Pls
4343 3321 Pls
3737 3034 Pls
3183 3073 Pls
4047 3131 Pls
3416 3061 Pls
4343 3343 Pls
3919 3237 Pls
4043 3347 Pls
3120 3301 Pls
3919 3259 Pls
3529 3198 Pls
3265 3185 Pls
3825 3199 Pls
4104 3251 Pls
3640 3237 Pls
3639 3235 Pls
3506 3319 Pls
3976 3343 Pls
3193 2748 Pls
3254 2823 Pls
3919 3301 Pls
3184 3007 Pls
3768 3366 Pls
3919 3359 Pls
4255 3254 Pls
3529 3417 Pls
3510 3090 Pls
3617 3365 Pls
3065 3001 Pls
3529 3200 Pls
3640 3151 Pls
3640 3199 Pls
3766 3323 Pls
4104 3412 Pls
3429 2999 Pls
3529 3164 Pls
4047 3165 Pls
3768 3243 Pls
3695 3277 Pls
3065 2936 Pls
3331 2965 Pls
3483 3364 Pls
3919 3130 Pls
3431 3125 Pls
3365 3241 Pls
3495 3271 Pls
4103 3259 Pls
3640 2963 Pls
3640 3073 Pls
3416 3184 Pls
3768 3193 Pls
3768 3099 Pls
3265 3290 Pls
3737 3255 Pls
3544 3172 Pls
3129 2965 Pls
4342 3409 Pls
3432 3302 Pls
3431 3040 Pls
3918 3202 Pls
3768 3491 Pls
3193 3140 Pls
3904 3280 Pls
3543 2929 Pls
3825 3157 Pls
3529 3377 Pls
3175 3162 Pls
3919 3287 Pls
4104 3522 Pls
3265 3312 Pls
3878 3201 Pls
3344 3178 Pls
3919 3177 Pls
4047 3274 Pls
3265 3228 Pls
3640 3324 Pls
3616 3097 Pls
3616 3287 Pls
3894 3307 Pls
3825 3225 Pls
3511 3202 Pls
3528 3317 Pls
3343 2885 Pls
3919 3255 Pls
3331 3150 Pls
3917 3401 Pls
4104 3167 Pls
3768 3264 Pls
3529 3257 Pls
3528 3298 Pls
3616 3358 Pls
3344 3120 Pls
3431 2778 Pls
3640 3390 Pls
3431 3427 Pls
3878 3180 Pls
3510 3063 Pls
4104 3400 Pls
3654 3124 Pls
3335 2981 Pls
3393 2716 Pls
3919 3356 Pls
3215 3214 Pls
3001 2917 Pls
3527 3230 Pls
3529 3195 Pls
2935 3035 Pls
3616 3085 Pls
3311 3141 Pls
3768 3343 Pls
3640 3295 Pls
3834 3340 Pls
3768 3342 Pls
3454 3275 Pls
3430 3252 Pls
4104 3230 Pls
3529 3257 Pls
3768 3102 Pls
3767 3433 Pls
3919 3154 Pls
3529 3355 Pls
3919 3133 Pls
3640 3111 Pls
3617 3131 Pls
4102 3395 Pls
2845 3010 Pls
3265 2892 Pls
4255 3401 Pls
3918 3379 Pls
3879 3193 Pls
3640 3131 Pls
3919 3264 Pls
3582 3094 Pls
3431 3191 Pls
3918 3280 Pls
3265 3124 Pls
3639 3211 Pls
3649 3243 Pls
4342 3308 Pls
3254 3125 Pls
3766 3102 Pls
4342 3328 Pls
3554 3289 Pls
3878 3087 Pls
3687 3048 Pls
3768 3140 Pls
4104 3449 Pls
3649 3251 Pls
4104 3252 Pls
3105 3008 Pls
3976 3099 Pls
3344 2978 Pls
3617 3330 Pls
3529 3116 Pls
3150 3066 Pls
3919 3221 Pls
3303 3246 Pls
4342 3448 Pls
3529 3253 Pls
4047 3378 Pls
3767 3362 Pls
3878 3174 Pls
4098 3431 Pls
3126 3097 Pls
3640 3041 Pls
3252 2891 Pls
3527 3063 Pls
3169 2937 Pls
3007 2988 Pls
3768 3350 Pls
3919 3230 Pls
3640 3395 Pls
3529 2982 Pls
3529 3214 Pls
3419 3118 Pls
3639 3090 Pls
4343 3418 Pls
3343 3242 Pls
3616 3229 Pls
3344 3098 Pls
3061 3135 Pls
3528 3110 Pls
3510 3126 Pls
4104 3498 Pls
3738 3121 Pls
4255 3223 Pls
3765 3187 Pls
3919 3146 Pls
3192 3110 Pls
4255 3364 Pls
3427 3029 Pls
3013 3165 Pls
3616 3043 Pls
3432 3180 Pls
3640 3353 Pls
3766 3408 Pls
3878 3365 Pls
4104 3526 Pls
3065 2845 Pls
3129 3201 Pls
3919 3093 Pls
3704 3226 Pls
3919 3219 Pls
3768 3193 Pls
3919 3271 Pls
3767 3092 Pls
3768 3131 Pls
3768 3261 Pls
3431 3037 Pls
3617 3355 Pls
3919 3054 Pls
3431 3070 Pls
3738 3244 Pls
3351 3063 Pls
3528 3216 Pls
3523 3046 Pls
3766 3174 Pls
3193 3347 Pls
4104 3244 Pls
3737 3243 Pls
4091 3274 Pls
3263 3099 Pls
3919 3360 Pls
3450 3250 Pls
3088 3053 Pls
3696 3350 Pls
4047 3147 Pls
3431 3247 Pls
3919 3255 Pls
3640 3292 Pls
3589 3158 Pls
3617 3072 Pls
4343 3347 Pls
3265 3067 Pls
4104 3485 Pls
3878 3395 Pls
3976 3201 Pls
3768 2887 Pls
4047 3094 Pls
3767 3142 Pls
3088 3088 Pls
4103 3495 Pls
3431 3159 Pls
4158 3328 Pls
3431 3227 Pls
3766 3060 Pls
3191 3140 Pls
3529 3365 Pls
4046 3139 Pls
4103 3274 Pls
3834 2946 Pls
4043 3333 Pls
3432 3307 Pls
3510 3149 Pls
3392 3069 Pls
3917 3061 Pls
3126 3010 Pls
3917 3222 Pls
3919 3455 Pls
3825 3032 Pls
3233 3109 Pls
3483 3106 Pls
3600 3367 Pls
3976 3169 Pls
3767 3206 Pls
3918 3113 Pls
3344 3196 Pls
3768 2928 Pls
3768 3261 Pls
3734 3084 Pls
4047 3119 Pls
3640 3378 Pls
4047 3324 Pls
3529 3021 Pls
3582 3165 Pls
4343 3399 Pls
3510 3068 Pls
3737 3155 Pls
3343 3030 Pls
4158 3371 Pls
3057 2909 Pls
3640 3191 Pls
3431 3336 Pls
3393 3349 Pls
4046 3393 Pls
3000 3122 Pls
3616 3294 Pls
3915 3262 Pls
3392 3115 Pls
3431 3166 Pls
3768 3314 Pls
3737 3270 Pls
3431 3308 Pls
3344 2781 Pls
4044 3318 Pls
3919 3219 Pls
3528 3108 Pls
3820 2976 Pls
3919 3381 Pls
3919 3450 Pls
3617 3144 Pls
3601 3209 Pls
4104 3325 Pls
4343 3335 Pls
3919 3400 Pls
3616 3459 Pls
3640 3270 Pls
3529 3183 Pls
3525 2933 Pls
3768 3301 Pls
4104 3325 Pls
4104 3232 Pls
3529 3163 Pls
3344 3250 Pls
3952 3343 Pls
2810 3312 Pls
4046 3240 Pls
4104 3346 Pls
3975 3241 Pls
3431 3043 Pls
3407 3130 Pls
3640 3143 Pls
3183 3233 Pls
3528 3163 Pls
3825 3220 Pls
3065 3001 Pls
3919 3231 Pls
3343 2973 Pls
3738 3131 Pls
4383 3432 Pls
4103 3411 Pls
3696 3149 Pls
3879 3385 Pls
3103 2846 Pls
4342 3348 Pls
3065 2872 Pls
3529 3131 Pls
4103 3299 Pls
3919 3484 Pls
3768 3199 Pls
3976 3506 Pls
3082 2795 Pls
3767 3196 Pls
3431 2937 Pls
3639 3398 Pls
3237 3079 Pls
3919 3370 Pls
3878 3245 Pls
3504 3219 Pls
3918 3087 Pls
3286 2940 Pls
3767 3359 Pls
4047 3387 Pls
3768 3151 Pls
4104 3420 Pls
3431 3266 Pls
3529 2988 Pls
3010 3131 Pls
3767 3315 Pls
2759 3005 Pls
2954 3134 Pls
2960 3176 Pls
4104 3471 Pls
3117 3261 Pls
3976 3271 Pls
3919 2964 Pls
3639 3261 Pls
3184 2900 Pls
3616 3337 Pls
3767 3145 Pls
4342 3413 Pls
3104 3228 Pls
3768 3269 Pls
3824 3311 Pls
3150 3208 Pls
3976 3165 Pls
3833 3299 Pls
3529 3337 Pls
3637 3174 Pls
3919 3404 Pls
3640 3282 Pls
3768 3288 Pls
3617 3283 Pls
3330 3166 Pls
3737 3345 Pls
3768 3208 Pls
3640 2983 Pls
3918 3154 Pls
3180 2994 Pls
4103 3311 Pls
3919 3264 Pls
3919 3127 Pls
3341 2971 Pls
3876 3175 Pls
3431 3430 Pls
3529 3066 Pls
4104 3432 Pls
3483 3198 Pls
4047 3313 Pls
3510 3048 Pls
3529 3013 Pls
3640 3280 Pls
3919 3348 Pls
3638 3409 Pls
3824 3208 Pls
3768 3154 Pls
3265 2832 Pls
3331 3085 Pls
3737 3097 Pls
4046 3473 Pls
3919 3311 Pls
3265 3065 Pls
3582 3198 Pls
3649 2926 Pls
3768 3312 Pls
3193 3067 Pls
3878 3382 Pls
3825 3339 Pls
3344 3278 Pls
3431 3091 Pls
3640 3200 Pls
4103 3421 Pls
3544 3182 Pls
3768 3117 Pls
3768 3440 Pls
3449 3242 Pls
3182 3178 Pls
3768 3393 Pls
3640 3411 Pls
4342 3299 Pls
3254 2836 Pls
3343 3194 Pls
3919 3392 Pls
3825 3172 Pls
3640 3193 Pls
3918 3106 Pls
3450 3193 Pls
3431 3202 Pls
3265 3156 Pls
3528 3087 Pls
2768 3070 Pls
3768 3338 Pls
4342 3458 Pls
3919 3191 Pls
3919 3165 Pls
4047 3375 Pls
3344 3149 Pls
3529 3206 Pls
3508 3202 Pls
3430 3039 Pls
3767 3310 Pls
3640 3389 Pls
3640 3247 Pls
3639 3186 Pls
3918 3185 Pls
3919 3323 Pls
3919 3261 Pls
3527 3259 Pls
3919 3454 Pls
3057 2937 Pls
3050 3247 Pls
3919 3255 Pls
3330 3348 Pls
3344 2881 Pls
3768 3268 Pls
3331 3171 Pls
3529 3275 Pls
3529 3478 Pls
3879 3092 Pls
3617 3232 Pls
3878 3288 Pls
3511 3352 Pls
3344 3092 Pls
3416 3037 Pls
3767 3109 Pls
4047 3227 Pls
3919 3342 Pls
4343 3441 Pls
3452 3146 Pls
3975 3434 Pls
3039 2942 Pls
3768 3054 Pls
3768 3292 Pls
3616 3036 Pls
4104 3283 Pls
4104 3388 Pls
4157 3377 Pls
3265 2953 Pls
3580 3165 Pls
4101 3360 Pls
3903 3210 Pls
4104 3193 Pls
3695 3379 Pls
3265 3039 Pls
3919 3293 Pls
3015 3027 Pls
3478 3042 Pls
4343 3400 Pls
3737 3155 Pls
3343 3250 Pls
4099 3268 Pls
3529 2952 Pls
4255 3254 Pls
3640 3319 Pls
3768 3010 Pls
3193 3067 Pls
3825 3268 Pls
3640 3049 Pls
3617 3073 Pls
3766 3406 Pls
3126 2899 Pls
3344 3213 Pls
3416 2998 Pls
3416 2947 Pls
3265 2781 Pls
3393 3118 Pls
3344 3196 Pls
3344 3271 Pls
3431 3227 Pls
3919 2968 Pls
4342 3487 Pls
2942 3092 Pls
3344 3228 Pls
4104 3326 Pls
3768 3142 Pls
3070 3204 Pls
3625 3222 Pls
3581 2832 Pls
4494 3419 Pls
3695 3321 Pls
3738 3235 Pls
3729 3210 Pls
3737 3296 Pls
3768 3325 Pls
3529 3309 Pls
3904 3153 Pls
3919 3183 Pls
3070 2992 Pls
3919 3301 Pls
3237 3155 Pls
3527 3054 Pls
3758 3281 Pls
3126 2986 Pls
3640 3278 Pls
3343 3127 Pls
4103 3457 Pls
3768 3225 Pls
3878 3112 Pls
3919 3442 Pls
3767 3083 Pls
3528 3520 Pls
3529 3246 Pls
3919 3161 Pls
3825 3021 Pls
3768 3106 Pls
3768 3491 Pls
3768 3184 Pls
4104 3393 Pls
4046 3277 Pls
3254 3297 Pls
3482 2951 Pls
3463 2941 Pls
3919 3407 Pls
3767 3096 Pls
3767 3291 Pls
3768 3451 Pls
3635 3155 Pls
3919 3119 Pls
3416 3209 Pls
3768 3429 Pls
3529 3179 Pls
3528 3150 Pls
3065 2899 Pls
3192 2832 Pls
3510 2852 Pls
3919 3317 Pls
3768 3022 Pls
3529 3163 Pls
3738 3228 Pls
3640 3139 Pls
3768 3288 Pls
2768 3105 Pls
3529 2936 Pls
3767 3258 Pls
3918 3347 Pls
3768 3259 Pls
3529 3010 Pls
3616 3104 Pls
3510 3230 Pls
3824 3193 Pls
4104 3339 Pls
4252 3457 Pls
3919 3239 Pls
4104 3435 Pls
3825 2999 Pls
3427 3066 Pls
4252 3435 Pls
3332 2947 Pls
3528 3144 Pls
4104 3277 Pls
3582 3068 Pls
3529 3113 Pls
3528 3406 Pls
3764 3196 Pls
3878 3102 Pls
4047 3191 Pls
4342 3341 Pls
4046 3226 Pls
3431 3050 Pls
3510 3082 Pls
3431 3177 Pls
3640 3294 Pls
2954 2936 Pls
3007 3060 Pls
3767 3353 Pls
2810 2954 Pls
3976 3348 Pls
3511 3310 Pls
3640 3046 Pls
3825 3298 Pls
3529 3232 Pls
3919 3192 Pls
3509 3322 Pls
3483 3005 Pls
3431 3173 Pls
3529 3199 Pls
4046 3448 Pls
3768 3267 Pls
3919 3284 Pls
3640 3166 Pls
3768 3352 Pls
3768 3023 Pls
3416 3154 Pls
3063 3187 Pls
3344 3225 Pls
3065 2933 Pls
3640 3258 Pls
4103 3350 Pls
3919 3370 Pls
3878 3131 Pls
3737 3341 Pls
3737 3078 Pls
3127 3056 Pls
3431 3022 Pls
3768 3260 Pls
3462 2925 Pls
3511 2874 Pls
3616 3014 Pls
3529 3162 Pls
3331 3230 Pls
3640 3147 Pls
3640 2848 Pls
3919 3175 Pls
3431 3038 Pls
3414 3119 Pls
3254 3109 Pls
3510 3126 Pls
2717 2573 Pls
3640 3164 Pls
4343 3356 Pls
3463 2903 Pls
3432 3081 Pls
4152 3188 Pls
3640 3402 Pls
3529 3288 Pls
3767 3145 Pls
3239 2925 Pls
3581 3084 Pls
3168 2898 Pls
3431 3000 Pls
3878 3443 Pls
3767 3053 Pls
3270 3226 Pls
3529 3242 Pls
3344 3142 Pls
3265 3078 Pls
3737 3219 Pls
3510 3182 Pls
3696 3299 Pls
3825 3143 Pls
3338 3383 Pls
3649 3387 Pls
3640 3134 Pls
3216 3173 Pls
3598 3269 Pls
3768 3289 Pls
3768 2887 Pls
3640 3272 Pls
3917 3216 Pls
3529 3176 Pls
3583 3110 Pls
3834 3473 Pls
3640 3402 Pls
3695 3241 Pls
4255 3525 Pls
3581 3223 Pls
3915 3339 Pls
3327 3280 Pls
3344 3092 Pls
3237 3016 Pls
3339 3231 Pls
3919 3265 Pls
3639 3351 Pls
4064 3154 Pls
3343 3293 Pls
3416 2815 Pls
3193 3051 Pls
3821 3243 Pls
3768 3299 Pls
3738 3328 Pls
3767 3341 Pls
3919 3406 Pls
3529 3063 Pls
3529 3176 Pls
3527 3069 Pls
3640 3373 Pls
3738 3253 Pls
3344 3278 Pls
3821 3358 Pls
3135 3048 Pls
3431 3027 Pls
3768 3086 Pls
3640 3126 Pls
3878 3279 Pls
3431 3060 Pls
3529 3051 Pls
4047 3421 Pls
3529 3221 Pls
3952 3291 Pls
3768 3052 Pls
3543 3204 Pls
3344 3019 Pls
3738 3294 Pls
3919 3375 Pls
4157 3226 Pls
4104 3259 Pls
3554 3330 Pls
3768 3042 Pls
3205 3046 Pls
3737 3335 Pls
4104 3229 Pls
3343 2919 Pls
3287 2990 Pls
3737 3231 Pls
3640 3014 Pls
3528 3071 Pls
4102 3199 Pls
3768 3274 Pls
3919 3311 Pls
3878 3221 Pls
4047 3301 Pls
3261 3183 Pls
3919 3227 Pls
3529 3166 Pls
3231 3025 Pls
3878 3276 Pls
3768 3346 Pls
3263 2908 Pls
3696 3258 Pls
3616 3274 Pls
4342 3336 Pls
3216 3084 Pls
3738 3181 Pls
3768 2919 Pls
3529 3094 Pls
2399 2879 Pls
3001 3162 Pls
3640 3137 Pls
3640 3293 Pls
3640 3190 Pls
3825 3184 Pls
3638 3189 Pls
3265 3217 Pls
3767 2887 Pls
3865 3268 Pls
3511 3216 Pls
4104 3150 Pls
4104 3356 Pls
3510 2845 Pls
3640 3453 Pls
3529 2952 Pls
3343 2896 Pls
4158 3393 Pls
3430 3076 Pls
3734 3314 Pls
3918 3249 Pls
3737 3245 Pls
4343 3379 Pls
3335 3226 Pls
3640 3172 Pls
4255 3334 Pls
4342 3386 Pls
3343 3153 Pls
3768 3143 Pls
3583 3088 Pls
3640 3369 Pls
3364 3249 Pls
4104 3155 Pls
3919 3151 Pls
3581 3438 Pls
3639 3147 Pls
3528 3216 Pls
3878 3357 Pls
3695 3316 Pls
3288 3101 Pls
3767 3058 Pls
4044 3250 Pls
3067 2989 Pls
3008 2923 Pls
3767 3393 Pls
3640 3252 Pls
3509 3244 Pls
3878 3278 Pls
3768 3321 Pls
4255 3269 Pls
3919 3428 Pls
3737 3372 Pls
3527 3273 Pls
4255 3347 Pls
4046 3240 Pls
3640 3087 Pls
3260 2946 Pls
3529 3181 Pls
3331 3005 Pls
3432 3194 Pls
3629 3217 Pls
3878 3265 Pls
3919 3381 Pls
3737 3008 Pls
3919 3175 Pls
3918 3444 Pls
3640 3291 Pls
4104 3298 Pls
3767 3394 Pls
3344 3264 Pls
3768 3390 Pls
3265 3078 Pls
3529 3356 Pls
4343 3363 Pls
3167 3263 Pls
3207 3027 Pls
3502 2922 Pls
3878 3513 Pls
3046 2899 Pls
3767 3285 Pls
4249 3222 Pls
3738 3050 Pls
3526 3419 Pls
3639 3307 Pls
3919 3493 Pls
3529 3272 Pls
4343 3509 Pls
3639 3232 Pls
3878 3271 Pls
3976 3132 Pls
3168 3049 Pls
3976 3316 Pls
2828 2887 Pls
3633 3312 Pls
3879 3477 Pls
3343 3075 Pls
3737 3063 Pls
3482 3247 Pls
3640 3001 Pls
3543 3069 Pls
3342 3134 Pls
3344 3141 Pls
4045 3329 Pls
3640 3237 Pls
3639 3016 Pls
3768 3165 Pls
3649 3150 Pls
3040 3014 Pls
3334 2735 Pls
4104 3366 Pls
3088 3307 Pls
3529 3110 Pls
3415 3112 Pls
3879 3141 Pls
3768 3303 Pls
3817 3203 Pls
3878 3171 Pls
4255 3531 Pls
3918 3363 Pls
3233 3106 Pls
4255 3428 Pls
4255 3368 Pls
3640 3289 Pls
3768 3220 Pls
3583 3279 Pls
3192 2796 Pls
3767 3260 Pls
4343 3400 Pls
3529 3063 Pls
3432 3308 Pls
3878 3125 Pls
3600 3023 Pls
3193 2800 Pls
4104 3389 Pls
4255 3270 Pls
3331 3244 Pls
3765 3318 Pls
3768 3154 Pls
3582 3060 Pls
3415 3062 Pls
3767 3138 Pls
3639 3059 Pls
3918 3254 Pls
3696 3470 Pls
3528 3256 Pls
4103 3464 Pls
3834 3396 Pls
3616 3178 Pls
3640 3209 Pls
3890 3225 Pls
3577 3323 Pls
3236 3045 Pls
4255 3433 Pls
3638 3356 Pls
3768 3175 Pls
3637 3340 Pls
3430 3202 Pls
3767 3422 Pls
3344 3185 Pls
3738 3321 Pls
3737 3371 Pls
4343 3469 Pls
3260 2887 Pls
3761 2886 Pls
3762 3252 Pls
3432 3203 Pls
3431 2957 Pls
3768 3182 Pls
3919 3208 Pls
3767 3334 Pls
2953 2977 Pls
4047 3163 Pls
4046 3217 Pls
3878 3233 Pls
4047 3227 Pls
3768 3304 Pls
3150 2981 Pls
4103 3127 Pls
3302 3146 Pls
3365 3128 Pls
3431 2867 Pls
3767 3137 Pls
3768 3307 Pls
3116 2980 Pls
3616 3098 Pls
3343 2942 Pls
3529 3157 Pls
3768 3351 Pls
3191 3130 Pls
3529 3120 Pls
3768 3329 Pls
4045 3388 Pls
3529 3194 Pls
3432 3301 Pls
3450 3180 Pls
3879 3338 Pls
4341 3453 Pls
3768 3138 Pls
3640 2993 Pls
3582 3202 Pls
3482 3335 Pls
3878 3363 Pls
3919 3374 Pls
3639 3291 Pls
3529 3323 Pls
3734 3367 Pls
3529 3268 Pls
3919 3491 Pls
3616 3075 Pls
3451 3415 Pls
3529 3145 Pls
3639 3083 Pls
3919 3475 Pls
3696 3428 Pls
3264 3033 Pls
4104 3268 Pls
3343 3093 Pls
3261 3090 Pls
2674 2949 Pls
4342 3285 Pls
3431 3111 Pls
3919 3467 Pls
3529 3121 Pls
3191 2722 Pls
3640 3105 Pls
3193 3224 Pls
3615 2995 Pls
3696 3131 Pls
3089 3067 Pls
3767 3117 Pls
3528 2940 Pls
3737 3178 Pls
3529 3273 Pls
3529 3118 Pls
3126 3061 Pls
4342 3363 Pls
3118 2977 Pls
3737 3128 Pls
3648 3267 Pls
4343 3368 Pls
3768 3092 Pls
3422 3342 Pls
3647 3324 Pls
4104 3399 Pls
3431 3222 Pls
4046 3367 Pls
3431 3352 Pls
4103 3320 Pls
3768 3224 Pls
3529 3188 Pls
3640 3136 Pls
3879 3370 Pls
3544 3290 Pls
4104 3277 Pls
3616 3018 Pls
4342 3531 Pls
3184 3018 Pls
3899 3223 Pls
2880 2867 Pls
3640 3218 Pls
3528 2991 Pls
4047 3195 Pls
3640 3180 Pls
3919 3375 Pls
3527 3012 Pls
3192 3099 Pls
4047 3364 Pls
4104 3398 Pls
2769 3027 Pls
3822 3198 Pls
3767 3422 Pls
3919 3124 Pls
3765 3041 Pls
4047 3276 Pls
3237 3265 Pls
3393 3100 Pls
3767 2880 Pls
3695 3294 Pls
3419 3192 Pls
3919 3367 Pls
3919 3509 Pls
3640 3136 Pls
3636 3234 Pls
3640 3280 Pls
3616 3264 Pls
3766 3286 Pls
3768 3299 Pls
3331 2986 Pls
3529 3140 Pls
3529 3308 Pls
3344 3204 Pls
3767 3349 Pls
3331 3045 Pls
3510 3126 Pls
3738 3279 Pls
3904 3137 Pls
3768 3487 Pls
3919 3370 Pls
3896 3182 Pls
3639 3286 Pls
3695 3195 Pls
3767 3379 Pls
4157 3391 Pls
3919 3429 Pls
3463 3345 Pls
3431 3122 Pls
3768 2934 Pls
3825 3208 Pls
3738 3440 Pls
3482 3351 Pls
3919 3269 Pls
3767 3207 Pls
4047 3373 Pls
3430 3188 Pls
3640 3268 Pls
3879 3431 Pls
3738 3351 Pls
4047 3203 Pls
3649 3382 Pls
3640 2925 Pls
3878 3361 Pls
3767 3157 Pls
3344 3064 Pls
3919 3152 Pls
3303 3339 Pls
3768 3303 Pls
3192 3197 Pls
3768 3337 Pls
3407 3133 Pls
3065 3132 Pls
4527 3456 Pls
3640 2942 Pls
3872 3212 Pls
3917 3229 Pls
3432 3270 Pls
3239 3267 Pls
3617 3141 Pls
3918 3003 Pls
3919 3451 Pls
3919 3130 Pls
3392 3425 Pls
3529 3090 Pls
3834 3359 Pls
3510 3330 Pls
3529 3358 Pls
4104 3329 Pls
3254 3050 Pls
3640 3067 Pls
3529 3392 Pls
3877 3101 Pls
3918 3303 Pls
3824 3248 Pls
3919 3300 Pls
4104 3347 Pls
3511 3165 Pls
3919 3282 Pls
4238 3333 Pls
3919 3412 Pls
4104 3364 Pls
3529 3412 Pls
3640 3361 Pls
3617 3161 Pls
3877 2999 Pls
3768 3134 Pls
4104 3205 Pls
4103 3172 Pls
3390 3410 Pls
3766 3141 Pls
3639 3292 Pls
3878 3140 Pls
3109 3173 Pls
3767 3045 Pls
3416 2881 Pls
4343 3314 Pls
4103 3333 Pls
3649 3066 Pls
4047 3131 Pls
3126 3082 Pls
3616 3106 Pls
3765 3316 Pls
3344 3284 Pls
3918 3041 Pls
3695 3369 Pls
3265 2844 Pls
3823 3400 Pls
4104 3357 Pls
3528 3070 Pls
3432 3277 Pls
4343 3354 Pls
3341 3184 Pls
3529 3265 Pls
3737 3130 Pls
3649 3383 Pls
3640 3278 Pls
3343 3025 Pls
4102 3405 Pls
3509 3035 Pls
3431 3255 Pls
3432 3173 Pls
3640 3139 Pls
3344 3004 Pls
3640 3155 Pls
4104 3507 Pls
3768 3453 Pls
3768 3161 Pls
3919 3331 Pls
2920 3008 Pls
3288 2931 Pls
3640 3231 Pls
2778 3002 Pls
3341 2823 Pls
3767 3250 Pls
3529 3239 Pls
3064 3110 Pls
3124 3122 Pls
3449 3150 Pls
3342 3240 Pls
4104 3206 Pls
3270 2896 Pls
3919 3461 Pls
3768 3028 Pls
3767 3203 Pls
3767 3166 Pls
3768 3279 Pls
3919 3365 Pls
3768 3324 Pls
3191 3077 Pls
3432 2918 Pls
3265 2841 Pls
3649 3173 Pls
3615 3171 Pls
2596 2855 Pls
3766 2959 Pls
4342 3325 Pls
3183 3225 Pls
3640 3225 Pls
3919 3192 Pls
3601 3223 Pls
3737 3176 Pls
3265 2837 Pls
3640 2995 Pls
3877 3426 Pls
3265 3098 Pls
3919 3280 Pls
4103 3142 Pls
3529 3234 Pls
2939 2890 Pls
3393 3342 Pls
3601 3097 Pls
3583 3170 Pls
3264 3120 Pls
3529 3168 Pls
3640 3000 Pls
3919 3216 Pls
3046 3213 Pls
4255 3247 Pls
4104 3097 Pls
3767 3042 Pls
3052 2918 Pls
4104 3525 Pls
3919 3314 Pls
3824 3227 Pls
3254 3238 Pls
3767 3435 Pls
3191 3100 Pls
3450 3025 Pls
3503 3190 Pls
3918 3256 Pls
3767 3420 Pls
3344 3204 Pls
3265 3094 Pls
3640 3089 Pls
3640 3146 Pls
3529 3269 Pls
3570 3301 Pls
3343 3126 Pls
3529 2973 Pls
3640 3177 Pls
3767 3206 Pls
3614 3169 Pls
3582 3078 Pls
3529 3039 Pls
3879 3422 Pls
3766 3096 Pls
3768 3447 Pls
3640 3226 Pls
4255 3507 Pls
3193 3091 Pls
3526 3252 Pls
3193 3108 Pls
3529 3015 Pls
2897 3196 Pls
3919 3166 Pls
3344 3032 Pls
3311 3144 Pls
3510 3244 Pls
3344 3167 Pls
3616 3343 Pls
4046 3340 Pls
3431 3212 Pls
3528 3235 Pls
4104 3274 Pls
3695 3280 Pls
3547 3423 Pls
3768 3470 Pls
3640 2958 Pls
3919 3001 Pls
2868 2943 Pls
3528 3033 Pls
4103 3182 Pls
3482 3235 Pls
3430 3124 Pls
3583 3200 Pls
3768 3134 Pls
3640 2922 Pls
3127 3056 Pls
3737 3351 Pls
3878 3243 Pls
4157 3394 Pls
3483 3133 Pls
3640 3291 Pls
3431 3187 Pls
3344 3263 Pls
4343 3280 Pls
4383 3317 Pls
3640 3082 Pls
3573 3131 Pls
3264 3109 Pls
3529 3201 Pls
3953 3312 Pls
3736 2997 Pls
3583 3211 Pls
4255 3285 Pls
3639 3373 Pls
3528 3315 Pls
3236 3036 Pls
3430 3127 Pls
3878 3113 Pls
4104 3444 Pls
3511 3448 Pls
3482 3272 Pls
3877 3231 Pls
4044 3461 Pls
4063 3315 Pls
4104 3168 Pls
3006 3045 Pls
3768 3269 Pls
3738 3042 Pls
3825 3230 Pls
3528 3433 Pls
4104 3144 Pls
3529 3100 Pls
3529 3273 Pls
3919 3395 Pls
3142 3033 Pls
3416 3135 Pls
3615 2886 Pls
3510 3284 Pls
3528 2967 Pls
3344 3201 Pls
4104 3402 Pls
3919 3422 Pls
3919 3256 Pls
3262 3111 Pls
2937 2903 Pls
3812 3190 Pls
4104 3420 Pls
3416 3220 Pls
3737 3291 Pls
4255 3222 Pls
3344 3287 Pls
3919 3331 Pls
3639 3116 Pls
3640 3195 Pls
4255 3266 Pls
3184 3197 Pls
3696 3065 Pls
3649 3058 Pls
3510 3089 Pls
2847 3066 Pls
4255 3262 Pls
3528 3217 Pls
3529 2955 Pls
3640 3180 Pls
3392 3235 Pls
3432 3048 Pls
3640 3453 Pls
3768 3121 Pls
3919 3409 Pls
3105 2859 Pls
3284 2860 Pls
3768 3014 Pls
3767 3293 Pls
3738 3229 Pls
3431 3232 Pls
3529 3099 Pls
4104 3470 Pls
4157 3213 Pls
4047 3071 Pls
3529 3209 Pls
3340 3088 Pls
3502 3436 Pls
3766 3409 Pls
3344 2878 Pls
3640 3201 Pls
3510 3058 Pls
3582 3075 Pls
3343 2998 Pls
3640 3407 Pls
3825 3271 Pls
3058 2898 Pls
3766 3172 Pls
4104 3165 Pls
4255 3506 Pls
3639 3313 Pls
3640 2947 Pls
3415 2917 Pls
3640 3059 Pls
3343 2840 Pls
3638 3233 Pls
4047 3257 Pls
3640 2978 Pls
3432 3254 Pls
3123 2947 Pls
3480 2994 Pls
4343 3311 Pls
4103 3363 Pls
3919 3285 Pls
4104 3231 Pls
3878 3130 Pls
3919 3218 Pls
3919 3347 Pls
3529 2985 Pls
3265 3150 Pls
3904 3065 Pls
3767 3152 Pls
3767 3432 Pls
3526 3286 Pls
3737 3429 Pls
3639 2902 Pls
3542 3250 Pls
3529 3334 Pls
3919 3344 Pls
3608 3190 Pls
3738 2860 Pls
3237 2938 Pls
3344 3060 Pls
3529 3248 Pls
4104 3343 Pls
3192 2988 Pls
4104 3241 Pls
3640 3217 Pls
4158 3369 Pls
3331 3033 Pls
3768 3312 Pls
4343 3370 Pls
3737 3291 Pls
3919 3272 Pls
3768 3219 Pls
4046 3515 Pls
3640 3237 Pls
3529 3268 Pls
3254 3191 Pls
3529 3325 Pls
3529 3507 Pls
3431 3236 Pls
3768 3007 Pls
3919 3131 Pls
3416 3219 Pls
3528 3143 Pls
3640 2902 Pls
3768 3335 Pls
3640 3239 Pls
4047 3258 Pls
3529 3306 Pls
3919 3295 Pls
3919 3267 Pls
3168 3138 Pls
4104 3294 Pls
3429 3035 Pls
3694 3184 Pls
3975 3342 Pls
3045 2970 Pls
3526 3230 Pls
3529 2856 Pls
3976 3301 Pls
3640 3261 Pls
3191 3057 Pls
3449 3343 Pls
3975 3209 Pls
3825 3469 Pls
3528 3264 Pls
3431 2942 Pls
3768 3442 Pls
3056 3063 Pls
3834 3467 Pls
3254 3126 Pls
3294 3212 Pls
3768 3208 Pls
3824 3392 Pls
3309 2968 Pls
4255 3362 Pls
3768 3428 Pls
3919 3187 Pls
3919 3347 Pls
3529 3070 Pls
3528 3173 Pls
3344 3219 Pls
3529 3039 Pls
3877 3182 Pls
3764 3102 Pls
4342 3427 Pls
3264 2740 Pls
3768 3362 Pls
3263 3284 Pls
3768 3139 Pls
4339 3366 Pls
3511 3215 Pls
3648 3240 Pls
3640 3127 Pls
3158 3303 Pls
3339 3134 Pls
3638 3332 Pls
3767 3277 Pls
3766 3280 Pls
2958 2934 Pls
3919 3404 Pls
3481 2900 Pls
3529 2815 Pls
3879 3345 Pls
3262 3163 Pls
3767 3318 Pls
3919 3229 Pls
3343 2957 Pls
3431 3198 Pls
3617 3324 Pls
3834 3152 Pls
3689 3231 Pls
3344 2974 Pls
3344 3344 Pls
3001 3185 Pls
3917 3159 Pls
3616 2924 Pls
3878 3230 Pls
3918 3286 Pls
3919 3350 Pls
3640 3110 Pls
2801 3076 Pls
3824 3324 Pls
3431 3292 Pls
3527 2925 Pls
3919 3277 Pls
3529 3199 Pls
3431 3228 Pls
3919 3152 Pls
3529 3119 Pls
3193 3058 Pls
4063 3395 Pls
3312 3152 Pls
3737 3355 Pls
3635 3086 Pls
3640 3354 Pls
3919 3360 Pls
3191 3176 Pls
3065 2656 Pls
3918 3239 Pls
3616 3314 Pls
3528 3130 Pls
3265 3043 Pls
3481 3362 Pls
3004 3010 Pls
3635 3392 Pls
3344 3198 Pls
4047 3360 Pls
3768 3151 Pls
3527 3101 Pls
3511 3234 Pls
3529 3100 Pls
3825 3161 Pls
3529 3230 Pls
3768 3236 Pls
4341 3411 Pls
3768 3375 Pls
3919 3316 Pls
3448 2945 Pls
3737 3298 Pls
3768 3363 Pls
3767 3268 Pls
3334 3158 Pls
3126 3120 Pls
4343 3519 Pls
3640 2901 Pls
3639 3430 Pls
3430 3130 Pls
3509 3384 Pls
3510 2970 Pls
3768 3204 Pls
3431 3292 Pls
3878 3295 Pls
3529 3153 Pls
4342 3302 Pls
3083 2799 Pls
4104 3310 Pls
3341 3201 Pls
3344 3171 Pls
3344 3272 Pls
3640 3212 Pls
3768 3339 Pls
3330 3143 Pls
3834 3019 Pls
3766 3260 Pls
3528 3104 Pls
3767 3273 Pls
3265 3118 Pls
3193 3209 Pls
3640 3261 Pls
3169 2939 Pls
3871 3390 Pls
3879 3403 Pls
3524 3127 Pls
3919 3194 Pls
3647 3141 Pls
4104 3208 Pls
3529 3286 Pls
3600 3039 Pls
3529 3030 Pls
4063 3149 Pls
3768 3331 Pls
3825 3258 Pls
3334 2872 Pls
3877 3290 Pls
3640 3246 Pls
3696 3248 Pls
4104 3187 Pls
3529 3428 Pls
3919 3069 Pls
3918 3379 Pls
4104 3426 Pls
3919 3211 Pls
4104 3292 Pls
3177 3182 Pls
3344 3320 Pls
3919 3377 Pls
3639 3346 Pls
3767 3219 Pls
3640 3332 Pls
4343 3434 Pls
3193 2922 Pls
3696 3343 Pls
3879 3353 Pls
3431 3179 Pls
3529 3144 Pls
3639 3452 Pls
3768 3254 Pls
3193 3168 Pls
3737 3165 Pls
3767 3054 Pls
4104 3254 Pls
3193 3123 Pls
3878 3385 Pls
3422 3305 Pls
3482 3138 Pls
4104 3471 Pls
3431 3312 Pls
3529 3107 Pls
4343 3374 Pls
3430 3265 Pls
3612 3118 Pls
3638 3210 Pls
3919 3090 Pls
3519 2987 Pls
3878 3196 Pls
3768 3192 Pls
3510 3032 Pls
3737 3287 Pls
3380 2918 Pls
3183 3139 Pls
3640 3216 Pls
4528 3430 Pls
3529 2981 Pls
3768 3321 Pls
4104 3182 Pls
3768 3129 Pls
3426 3296 Pls
3768 3142 Pls
3432 3195 Pls
3640 3145 Pls
3432 3043 Pls
3768 3238 Pls
3617 3120 Pls
3768 3076 Pls
3902 3229 Pls
3615 3460 Pls
3638 3012 Pls
4343 3345 Pls
3695 3013 Pls
2842 2726 Pls
3656 3314 Pls
3615 3304 Pls
3432 3181 Pls
3416 3236 Pls
3640 3385 Pls
3613 3221 Pls
3640 3363 Pls
3878 3250 Pls
3919 3186 Pls
4104 3305 Pls
3307 3197 Pls
3767 3280 Pls
3767 3285 Pls
3264 3118 Pls
3911 3073 Pls
3919 3156 Pls
3919 3263 Pls
3528 3381 Pls
3511 3142 Pls
3331 3137 Pls
3640 3310 Pls
3640 3039 Pls
3265 3045 Pls
3432 3395 Pls
3976 3324 Pls
3693 2853 Pls
3126 3224 Pls
3236 3330 Pls
4104 3203 Pls
3919 3408 Pls
3768 3281 Pls
3768 3328 Pls
3976 3409 Pls
3415 3082 Pls
3393 3185 Pls
3529 3360 Pls
3654 3171 Pls
3768 3051 Pls
4047 3465 Pls
4104 3169 Pls
3431 3191 Pls
3565 3160 Pls
3344 3025 Pls
4104 3229 Pls
3529 3318 Pls
3135 2980 Pls
3415 3401 Pls
3768 3086 Pls
3582 3238 Pls
3168 3126 Pls
3639 3152 Pls
3976 3134 Pls
3410 3284 Pls
3903 3395 Pls
3233 2853 Pls
3239 3146 Pls
3216 3232 Pls
3184 3123 Pls
3768 3385 Pls
3258 3224 Pls
3919 3252 Pls
3236 2941 Pls
3640 3318 Pls
2898 3041 Pls
3343 3401 Pls
3183 3179 Pls
3768 3258 Pls
3192 3127 Pls
3919 3240 Pls
3601 3176 Pls
3032 2884 Pls
3834 3147 Pls
3768 3506 Pls
3693 3442 Pls
4255 3250 Pls
4047 3339 Pls
3430 3129 Pls
3766 3105 Pls
3696 3266 Pls
3878 3332 Pls
3616 3256 Pls
3919 3446 Pls
3768 3321 Pls
3511 3148 Pls
4104 3479 Pls
2953 3073 Pls
3919 3317 Pls
3337 3151 Pls
3233 3229 Pls
4255 3217 Pls
3639 3258 Pls
3768 3285 Pls
3482 2973 Pls
3640 3310 Pls
3918 3244 Pls
4342 3397 Pls
3639 3386 Pls
3919 3445 Pls
3616 3162 Pls
3919 3530 Pls
3767 3085 Pls
4342 3524 Pls
3617 3205 Pls
4255 3275 Pls
2963 2805 Pls
3919 3011 Pls
3616 3242 Pls
3768 3200 Pls
3688 3208 Pls
3089 3009 Pls
3344 3180 Pls
3193 3118 Pls
3482 3098 Pls
3919 3357 Pls
3639 3074 Pls
3976 3209 Pls
3432 3191 Pls
4340 3321 Pls
4528 3498 Pls
3640 3130 Pls
3616 3347 Pls
3696 3303 Pls
3768 3006 Pls
3767 2892 Pls
3683 3300 Pls
3767 3215 Pls
3199 2988 Pls
3529 3154 Pls
3344 3285 Pls
3878 3418 Pls
3432 2968 Pls
3529 3080 Pls
3617 3234 Pls
3767 3325 Pls
3768 3514 Pls
3432 2914 Pls
3768 3322 Pls
3124 3201 Pls
3919 3228 Pls
3551 3284 Pls
3344 3074 Pls
3344 3333 Pls
3393 2870 Pls
3263 3083 Pls
4047 3469 Pls
3640 3242 Pls
3344 2894 Pls
4157 3386 Pls
3638 2890 Pls
3617 3186 Pls
3529 3135 Pls
3767 3466 Pls
3825 3238 Pls
3768 3397 Pls
3482 2940 Pls
3000 3065 Pls
3640 3052 Pls
3529 2817 Pls
3871 3373 Pls
3919 3292 Pls
3583 3177 Pls
3766 3220 Pls
4045 3415 Pls
3919 3401 Pls
3302 3140 Pls
4104 3466 Pls
3919 3242 Pls
4103 3205 Pls
3824 3194 Pls
3738 3353 Pls
3640 3266 Pls
3918 3272 Pls
3976 3066 Pls
3529 3061 Pls
4343 3415 Pls
3583 3382 Pls
3343 3358 Pls
3767 3400 Pls
3344 3345 Pls
3766 3182 Pls
3216 3280 Pls
3193 3008 Pls
3391 3180 Pls
3055 2986 Pls
3288 3163 Pls
3878 3121 Pls
4104 3304 Pls
3431 3131 Pls
3116 3316 Pls
3738 3205 Pls
3065 2799 Pls
3482 3186 Pls
3582 3256 Pls
3430 2957 Pls
3768 2982 Pls
3121 3005 Pls
3008 3161 Pls
3738 3309 Pls
3768 3282 Pls
4104 3410 Pls
3544 3252 Pls
3582 3270 Pls
3523 3267 Pls
3529 3032 Pls
3344 3220 Pls
3919 3406 Pls
3431 3212 Pls
3428 3179 Pls
3639 3054 Pls
3640 3070 Pls
3529 3189 Pls
2623 2915 Pls
3431 3027 Pls
3264 3305 Pls
3126 3140 Pls
3344 3129 Pls
3640 3206 Pls
3482 3058 Pls
3287 2949 Pls
2713 2890 Pls
3873 3213 Pls
3432 3213 Pls
3640 3151 Pls
3344 3157 Pls
3416 3183 Pls
3529 3337 Pls
3344 3118 Pls
3919 3361 Pls
3343 2791 Pls
4098 3158 Pls
3918 3202 Pls
4342 3379 Pls
3737 3217 Pls
3529 3173 Pls
3919 3357 Pls
3917 3284 Pls
3616 3086 Pls
2838 2947 Pls
4103 3347 Pls
3551 3263 Pls
4158 3395 Pls
3768 3130 Pls
3431 3026 Pls
3582 3296 Pls
4044 3384 Pls
3344 3174 Pls
3503 3093 Pls
2987 3022 Pls
3482 3142 Pls
3728 3180 Pls
3768 2893 Pls
3582 3133 Pls
3738 3281 Pls
3768 3283 Pls
3383 3038 Pls
4103 3137 Pls
4104 3306 Pls
3264 2981 Pls
3431 3093 Pls
3431 3294 Pls
4102 3525 Pls
3529 2986 Pls
3768 3174 Pls
3919 3447 Pls
3510 3119 Pls
3264 3250 Pls
3529 3098 Pls
3344 3202 Pls
3431 3230 Pls
3365 3027 Pls
4104 3416 Pls
3919 3085 Pls
3528 3170 Pls
3529 3120 Pls
2692 2920 Pls
3919 3513 Pls
4342 3347 Pls
3529 3028 Pls
3529 3223 Pls
3768 3482 Pls
4047 3329 Pls
3127 2976 Pls
4104 3529 Pls
3616 3275 Pls
3432 2979 Pls
3878 3188 Pls
3919 3187 Pls
4528 3479 Pls
3768 3207 Pls
3640 3298 Pls
4104 3222 Pls
3976 3386 Pls
4047 3432 Pls
3695 3260 Pls
3919 3362 Pls
4103 3407 Pls
3768 3097 Pls
3449 3151 Pls
4104 3334 Pls
3344 2974 Pls
3915 3259 Pls
3344 3101 Pls
3737 3330 Pls
3422 3271 Pls
3117 2938 Pls
3262 3258 Pls
3768 3270 Pls
3737 3281 Pls
3344 3186 Pls
4158 3476 Pls
3265 2870 Pls
3916 3269 Pls
3407 3232 Pls
3742 3231 Pls
3084 2951 Pls
3431 3137 Pls
3331 3354 Pls
4104 3226 Pls
3616 3272 Pls
3528 3530 Pls
3344 3181 Pls
4047 3345 Pls
3265 3058 Pls
3193 3271 Pls
3529 3341 Pls
3529 3105 Pls
3639 3028 Pls
3183 3100 Pls
3768 3387 Pls
3640 3194 Pls
4157 3348 Pls
3414 3168 Pls
3264 3306 Pls
3265 3297 Pls
3737 3302 Pls
3976 3248 Pls
3431 3170 Pls
3431 3351 Pls
4158 3350 Pls
3782 3311 Pls
3975 3063 Pls
3416 3093 Pls
3766 3313 Pls
3919 3316 Pls
3640 3134 Pls
2516 2711 Pls
3767 2929 Pls
3421 3363 Pls
2866 2947 Pls
3343 2774 Pls
3638 3043 Pls
3695 3086 Pls
3615 3280 Pls
3343 3225 Pls
3767 3308 Pls
3191 3044 Pls
3265 3248 Pls
3638 3139 Pls
3265 3288 Pls
3537 3126 Pls
3126 3184 Pls
4342 3349 Pls
4103 3407 Pls
3483 3248 Pls
3919 3324 Pls
3432 3328 Pls
3767 3423 Pls
3179 2986 Pls
3919 3518 Pls
3878 3197 Pls
3265 3289 Pls
3695 3122 Pls
3640 3167 Pls
3483 3127 Pls
3430 3137 Pls
3738 3185 Pls
3287 2938 Pls
4047 3122 Pls
3529 2949 Pls
3422 3266 Pls
3529 3093 Pls
3032 3093 Pls
3767 3135 Pls
3182 3140 Pls
3640 3184 Pls
3639 3193 Pls
2911 3175 Pls
3767 2950 Pls
3616 3049 Pls
3502 3245 Pls
3312 2960 Pls
4047 3437 Pls
3616 3165 Pls
3695 3075 Pls
3308 2955 Pls
3416 3080 Pls
3768 3117 Pls
3640 3272 Pls
3380 3294 Pls
4104 3360 Pls
3304 3267 Pls
4103 3181 Pls
3529 3236 Pls
3452 3120 Pls
3767 3157 Pls
3268 3234 Pls
3639 3168 Pls
2904 3076 Pls
3482 3106 Pls
3007 2889 Pls
4156 3190 Pls
3919 3453 Pls
3640 3035 Pls
3528 3362 Pls
3529 3222 Pls
2966 3179 Pls
3431 3151 Pls
3449 3076 Pls
3265 3247 Pls
3427 3318 Pls
3640 3209 Pls
3879 3311 Pls
3919 3240 Pls
3430 3250 Pls
3640 3082 Pls
3768 3164 Pls
3416 3342 Pls
3343 2978 Pls
3432 3254 Pls
3768 3250 Pls
3529 3080 Pls
3919 3347 Pls
3767 3181 Pls
3821 2948 Pls
3976 3222 Pls
4157 3248 Pls
3343 3350 Pls
3193 2779 Pls
2756 3031 Pls
3431 3094 Pls
2865 2894 Pls
3916 3339 Pls
3432 3157 Pls
3416 3052 Pls
3768 3352 Pls
3640 3203 Pls
3649 3250 Pls
3431 2928 Pls
3693 3327 Pls
3919 3286 Pls
3767 3133 Pls
4104 3363 Pls
3431 3167 Pls
3767 3060 Pls
4047 3288 Pls
3088 2927 Pls
3192 2949 Pls
4104 3142 Pls
3919 3345 Pls
3919 3004 Pls
3767 3250 Pls
4047 3430 Pls
3768 3278 Pls
3527 3160 Pls
4103 3330 Pls
3616 3091 Pls
4104 3478 Pls
3116 3081 Pls
3432 3209 Pls
3582 3336 Pls
3768 3166 Pls
4104 3332 Pls
3265 2980 Pls
3639 3118 Pls
4104 3468 Pls
4248 3348 Pls
3639 3222 Pls
3767 3296 Pls
4255 3437 Pls
3919 3318 Pls
3529 3291 Pls
3529 3146 Pls
3640 3351 Pls
3432 3258 Pls
3529 3118 Pls
3173 3051 Pls
3640 2948 Pls
3768 3313 Pls
3919 3300 Pls
3298 2939 Pls
3483 3177 Pls
2949 3234 Pls
3431 3114 Pls
3454 3239 Pls
3918 3347 Pls
3529 3442 Pls
3878 3080 Pls
3768 3205 Pls
4103 3267 Pls
2904 3140 Pls
4047 3332 Pls
3695 3095 Pls
4342 3280 Pls
3251 3102 Pls
3640 3382 Pls
3919 3265 Pls
3640 3211 Pls
3529 3409 Pls
3874 3248 Pls
3616 3116 Pls
3768 3332 Pls
3529 3185 Pls
3422 3164 Pls
3482 3089 Pls
3193 3038 Pls
3617 3249 Pls
3181 3042 Pls
3976 3179 Pls
2852 3049 Pls
3711 3151 Pls
3125 2681 Pls
2806 2510 Pls
3046 2865 Pls
3262 3165 Pls
3215 3151 Pls
3617 3201 Pls
3524 3006 Pls
3344 3229 Pls
3768 3096 Pls
2813 3031 Pls
3768 3328 Pls
2913 3122 Pls
3768 3231 Pls
3527 2873 Pls
3710 3032 Pls
3825 3251 Pls
2954 3057 Pls
3529 3130 Pls
3767 3057 Pls
3640 3139 Pls
3582 3303 Pls
3639 3227 Pls
3344 3204 Pls
3431 3243 Pls
4343 3441 Pls
3343 3178 Pls
3768 3077 Pls
3529 3032 Pls
3975 3244 Pls
3766 3048 Pls
3767 3248 Pls
3640 3383 Pls
3265 3199 Pls
2844 3046 Pls
3582 2945 Pls
4047 3244 Pls
3737 3199 Pls
3126 3091 Pls
3904 3346 Pls
3640 3331 Pls
3738 3237 Pls
3616 3217 Pls
3254 3145 Pls
3344 2946 Pls
4528 3436 Pls
4103 3189 Pls
3529 3114 Pls
3192 2911 Pls
3919 3367 Pls
3415 3377 Pls
3639 2979 Pls
3528 3283 Pls
3344 3202 Pls
3768 3201 Pls
3529 3276 Pls
3529 3080 Pls
3639 3197 Pls
4158 3340 Pls
3424 3033 Pls
3118 3179 Pls
4157 3204 Pls
3344 2886 Pls
3767 3387 Pls
3330 2970 Pls
3430 3207 Pls
4104 3365 Pls
3426 3019 Pls
3919 3093 Pls
3529 2972 Pls
3529 3243 Pls
3529 3138 Pls
3601 3259 Pls
3738 3230 Pls
4047 3100 Pls
3825 3158 Pls
3768 3432 Pls
3285 3098 Pls
3919 3248 Pls
4046 3453 Pls
3919 3368 Pls
3344 3212 Pls
3344 3143 Pls
3976 3376 Pls
2937 2952 Pls
4102 3253 Pls
3763 3083 Pls
3168 3026 Pls
4046 3141 Pls
3508 3405 Pls
4255 3392 Pls
3431 3298 Pls
3084 2734 Pls
4047 3087 Pls
3767 3401 Pls
3640 3408 Pls
3640 3065 Pls
3478 3305 Pls
3768 3361 Pls
3919 3227 Pls
4064 3087 Pls
4342 3482 Pls
2764 2952 Pls
3876 3158 Pls
3046 2984 Pls
4103 3394 Pls
3737 2968 Pls
3768 3229 Pls
4255 3319 Pls
3424 3222 Pls
4104 3227 Pls
2991 2832 Pls
3118 3293 Pls
3640 3463 Pls
3918 3300 Pls
4104 3358 Pls
3767 3337 Pls
3640 3183 Pls
3919 3019 Pls
3917 3362 Pls
3737 2852 Pls
3640 3175 Pls
3064 2859 Pls
3032 2980 Pls
3432 3292 Pls
3737 3093 Pls
4104 3323 Pls
3343 3189 Pls
3639 3079 Pls
3877 3482 Pls
3430 3245 Pls
3919 3426 Pls
3640 3210 Pls
4255 3290 Pls
3528 2925 Pls
4157 3520 Pls
3616 3349 Pls
3737 3405 Pls
3640 3106 Pls
3640 3075 Pls
3582 3203 Pls
3768 3345 Pls
3343 3203 Pls
3638 3181 Pls
3431 3033 Pls
3311 3141 Pls
3737 3255 Pls
3312 3122 Pls
3343 3096 Pls
3874 3183 Pls
3738 3043 Pls
3917 3251 Pls
3182 3106 Pls
3919 3449 Pls
3265 3110 Pls
3767 3188 Pls
4342 3381 Pls
3504 3132 Pls
3529 3168 Pls
3529 3244 Pls
2792 3032 Pls
3919 3485 Pls
3334 3226 Pls
3767 3450 Pls
4047 3255 Pls
3919 3110 Pls
3919 3223 Pls
4104 3221 Pls
3529 2991 Pls
3639 3317 Pls
3430 2820 Pls
3919 3293 Pls
3393 2912 Pls
3338 3055 Pls
4142 3266 Pls
3065 2902 Pls
4343 3403 Pls
3528 2895 Pls
3640 3214 Pls
4342 3522 Pls
3598 3437 Pls
3432 3033 Pls
3142 2924 Pls
3265 3201 Pls
4104 3232 Pls
4103 3298 Pls
3904 3320 Pls
3918 3297 Pls
4343 3384 Pls
3510 3052 Pls
3431 3149 Pls
4104 3417 Pls
3363 3101 Pls
3640 2928 Pls
3768 3302 Pls
3265 3303 Pls
2790 2897 Pls
3768 3197 Pls
4064 3392 Pls
4343 3327 Pls
3919 3269 Pls
3768 3335 Pls
3734 3213 Pls
3825 3027 Pls
3311 3267 Pls
3191 3172 Pls
3616 3247 Pls
3344 3337 Pls
3167 2955 Pls
4103 3183 Pls
4339 3383 Pls
3639 3188 Pls
3264 3174 Pls
3767 3243 Pls
3616 3075 Pls
3768 3414 Pls
3529 3129 Pls
3918 2969 Pls
3254 2999 Pls
3265 2933 Pls
3529 3118 Pls
3511 3104 Pls
3639 3222 Pls
3183 3085 Pls
4103 3373 Pls
4255 3356 Pls
3820 3294 Pls
3529 3034 Pls
3640 3111 Pls
3430 3130 Pls
3825 3375 Pls
4255 3265 Pls
3919 3108 Pls
3529 3099 Pls
3919 3231 Pls
3311 3181 Pls
4343 3379 Pls
3265 2856 Pls
3529 3229 Pls
3311 3227 Pls
3640 3331 Pls
3344 3203 Pls
3416 3178 Pls
3904 3208 Pls
3114 2984 Pls
3639 3119 Pls
3265 3147 Pls
4047 3210 Pls
3640 3341 Pls
4104 3268 Pls
3416 3233 Pls
3510 3289 Pls
3529 3293 Pls
4522 3452 Pls
3768 3298 Pls
3529 3236 Pls
3510 3120 Pls
3425 3392 Pls
3344 3061 Pls
3640 3266 Pls
3529 3116 Pls
3529 2955 Pls
3705 3169 Pls
3344 2981 Pls
4104 3221 Pls
3640 3139 Pls
3919 3335 Pls
4047 3388 Pls
4047 3315 Pls
3919 3167 Pls
3736 3230 Pls
3311 2981 Pls
3601 3297 Pls
2822 2925 Pls
3029 3129 Pls
3738 3361 Pls
3695 3105 Pls
3501 3278 Pls
3919 3331 Pls
3919 3134 Pls
3529 3238 Pls
3766 3130 Pls
3695 3103 Pls
4104 3449 Pls
3640 3449 Pls
3768 3275 Pls
3825 3265 Pls
3767 3023 Pls
3264 3125 Pls
3768 3368 Pls
3416 2993 Pls
3064 3001 Pls
4342 3314 Pls
4104 3402 Pls
3639 2991 Pls
3919 3480 Pls
3767 3167 Pls
3878 3426 Pls
3165 3074 Pls
3767 3056 Pls
3127 3132 Pls
4157 3139 Pls
3507 3171 Pls
3638 3196 Pls
3431 2785 Pls
3529 3095 Pls
4104 3426 Pls
3735 3392 Pls
3126 3061 Pls
3431 3186 Pls
3431 3271 Pls
3188 3087 Pls
3879 3485 Pls
3640 3111 Pls
3879 3298 Pls
3192 3334 Pls
3617 3179 Pls
3767 3190 Pls
3768 3203 Pls
3344 2847 Pls
3976 3104 Pls
2939 2995 Pls
3919 3438 Pls
3640 3263 Pls
3655 3153 Pls
3365 3158 Pls
3768 3157 Pls
3431 3241 Pls
3335 3279 Pls
3216 2994 Pls
3640 2979 Pls
3529 2897 Pls
2855 3096 Pls
3265 3112 Pls
3542 2938 Pls
3640 3299 Pls
3344 3120 Pls
3183 3013 Pls
4046 3296 Pls
3265 2946 Pls
3633 3132 Pls
3344 3174 Pls
3768 3043 Pls
3768 3024 Pls
3310 3041 Pls
4104 3316 Pls
3529 3213 Pls
3879 3243 Pls
2797 2931 Pls
4104 3280 Pls
3529 3272 Pls
3265 2946 Pls
3655 3229 Pls
3193 2936 Pls
4103 3266 Pls
3314 3157 Pls
3640 3078 Pls
3431 3158 Pls
4157 3486 Pls
3767 3333 Pls
4104 3260 Pls
3482 3384 Pls
3919 3206 Pls
3331 2995 Pls
3737 3210 Pls
3649 3382 Pls
3767 3104 Pls
3213 2947 Pls
4255 3249 Pls
3193 3263 Pls
3640 3210 Pls
3344 2991 Pls
3919 3077 Pls
3261 2985 Pls
3878 3312 Pls
3417 3106 Pls
3919 3211 Pls
3254 3121 Pls
3825 3258 Pls
4104 3345 Pls
3583 3157 Pls
3969 3083 Pls
3191 3203 Pls
4104 3163 Pls
4250 3415 Pls
3919 3419 Pls
3265 3114 Pls
4047 3218 Pls
4104 3348 Pls
3768 3308 Pls
4104 3365 Pls
2989 3142 Pls
3694 3229 Pls
3768 3211 Pls
4103 3105 Pls
3343 3187 Pls
4047 3422 Pls
3529 3105 Pls
3582 3193 Pls
3502 3186 Pls
3640 3205 Pls
3919 3368 Pls
3768 3295 Pls
3919 3110 Pls
3393 3065 Pls
3874 3333 Pls
3265 3190 Pls
3919 3011 Pls
3767 3190 Pls
3640 3259 Pls
3919 3158 Pls
3878 3273 Pls
4104 3322 Pls
3509 3057 Pls
3640 3249 Pls
4343 3316 Pls
3919 3289 Pls
3431 2785 Pls
3430 2973 Pls
3917 3243 Pls
3250 3319 Pls
3976 3313 Pls
3918 3220 Pls
3432 3085 Pls
3238 3054 Pls
3365 3268 Pls
2857 3037 Pls
3510 3275 Pls
3919 3222 Pls
3529 3201 Pls
4158 3347 Pls
3640 3184 Pls
3264 2983 Pls
3529 2880 Pls
3649 3154 Pls
2755 3008 Pls
4156 3257 Pls
3125 3063 Pls
3529 3263 Pls
3343 3150 Pls
3767 3264 Pls
3344 3205 Pls
3416 3195 Pls
3764 3249 Pls
3737 3343 Pls
3767 3142 Pls
3918 3175 Pls
3342 3134 Pls
3529 3138 Pls
2847 2811 Pls
3529 3374 Pls
3583 3182 Pls
3007 2911 Pls
3432 2894 Pls
3529 3139 Pls
3529 3334 Pls
3311 3308 Pls
4255 3358 Pls
3919 3249 Pls
3383 3043 Pls
3528 3219 Pls
3875 3280 Pls
2899 3009 Pls
3288 3093 Pls
3874 3233 Pls
4103 3277 Pls
2757 3086 Pls
3639 3176 Pls
3874 3053 Pls
3510 2955 Pls
4102 3479 Pls
3640 3320 Pls
3415 2998 Pls
3510 3171 Pls
3233 3230 Pls
4151 3237 Pls
3331 3052 Pls
4342 3443 Pls
3193 3333 Pls
3919 3344 Pls
4047 3287 Pls
3876 3258 Pls
4103 3185 Pls
3331 3353 Pls
3583 3251 Pls
3209 3239 Pls
3450 3140 Pls
3192 2908 Pls
3529 3162 Pls
3265 3067 Pls
3919 3405 Pls
3747 3298 Pls
3529 3210 Pls
3529 3052 Pls
3254 3208 Pls
3150 3375 Pls
3177 3252 Pls
3529 3240 Pls
3432 3086 Pls
3767 3231 Pls
3483 3228 Pls
3344 3075 Pls
3344 3036 Pls
4158 3324 Pls
3528 3487 Pls
3601 3118 Pls
3878 3286 Pls
3107 2989 Pls
3738 3161 Pls
3640 3352 Pls
3640 3417 Pls
3084 2976 Pls
3332 3017 Pls
3393 3302 Pls
3976 3233 Pls
3329 3296 Pls
3915 3490 Pls
3478 3134 Pls
3636 3174 Pls
4104 3400 Pls
3068 3176 Pls
3737 3325 Pls
3365 3345 Pls
4104 3297 Pls
3767 3207 Pls
3736 3327 Pls
3919 3437 Pls
3768 3165 Pls
3529 3076 Pls
4158 3480 Pls
3253 3018 Pls
4047 3362 Pls
3432 3074 Pls
3431 3045 Pls
3431 3224 Pls
3768 3454 Pls
3265 3131 Pls
3302 3295 Pls
4343 3341 Pls
3918 3216 Pls
3918 3082 Pls
4103 3143 Pls
3450 3040 Pls
3766 3291 Pls
3768 3346 Pls
3695 3189 Pls
4104 3189 Pls
3919 3428 Pls
3431 3146 Pls
3768 3294 Pls
3767 3358 Pls
3427 2967 Pls
3529 3329 Pls
3919 3151 Pls
3529 3389 Pls
3768 3220 Pls
3640 3289 Pls
3768 3012 Pls
4255 3407 Pls
3193 3054 Pls
3522 3031 Pls
3510 3022 Pls
4046 3294 Pls
4255 3356 Pls
3431 3197 Pls
3254 3302 Pls
3193 2975 Pls
3895 3341 Pls
3432 3322 Pls
3767 3302 Pls
3976 3351 Pls
3736 3168 Pls
3046 2960 Pls
3911 3057 Pls
3919 3159 Pls
3918 3273 Pls
3432 3158 Pls
3505 2895 Pls
3529 3013 Pls
3264 3280 Pls
2939 2896 Pls
3510 3177 Pls
3509 3150 Pls
2997 3058 Pls
4104 3175 Pls
3529 3150 Pls
4104 3278 Pls
4104 3323 Pls
3125 2866 Pls
3264 2750 Pls
3878 3377 Pls
3834 3256 Pls
3331 3038 Pls
3265 3052 Pls
3919 3254 Pls
4104 3379 Pls
3878 3123 Pls
4046 3100 Pls
4104 3199 Pls
3767 3040 Pls
3431 3202 Pls
3529 3223 Pls
3768 3054 Pls
3919 3192 Pls
3264 3202 Pls
3193 3070 Pls
3344 3280 Pls
3508 2994 Pls
3834 3197 Pls
3416 3129 Pls
3529 3333 Pls
3600 3126 Pls
3768 3253 Pls
3192 3149 Pls
3875 3130 Pls
3028 3133 Pls
3527 3118 Pls
4255 3515 Pls
3767 3276 Pls
3767 3314 Pls
3767 3327 Pls
3822 3327 Pls
3767 3154 Pls
3264 3104 Pls
4104 3361 Pls
4047 3355 Pls
3919 3294 Pls
4104 3328 Pls
2904 3199 Pls
3126 3265 Pls
3528 3139 Pls
3768 2994 Pls
3638 2996 Pls
3265 3246 Pls
3529 3061 Pls
4343 3363 Pls
4254 3212 Pls
3529 3288 Pls
3639 3155 Pls
3528 3229 Pls
3972 3500 Pls
3976 3237 Pls
4101 3447 Pls
4104 3311 Pls
3264 3213 Pls
3629 3315 Pls
3463 3072 Pls
3529 3085 Pls
3060 2958 Pls
3582 3236 Pls
3237 2794 Pls
3919 3486 Pls
3916 3251 Pls
3392 2783 Pls
3286 3200 Pls
3875 3465 Pls
3529 3048 Pls
4046 3318 Pls
3601 3183 Pls
3919 3245 Pls
3539 3115 Pls
3529 3263 Pls
2949 2969 Pls
3767 3247 Pls
3640 3203 Pls
4343 3509 Pls
3544 2870 Pls
3331 3205 Pls
3344 3039 Pls
4043 3192 Pls
3738 3167 Pls
3431 3088 Pls
3768 3410 Pls
3431 3108 Pls
3639 3144 Pls
3335 3285 Pls
3825 3177 Pls
4342 3285 Pls
3737 3279 Pls
3237 2868 Pls
3415 3322 Pls
3432 3275 Pls
3450 3165 Pls
4047 3293 Pls
3768 3255 Pls
3529 3147 Pls
3415 3181 Pls
3459 3238 Pls
3639 3285 Pls
4047 3203 Pls
3767 3431 Pls
3344 3115 Pls
4047 3269 Pls
3601 3031 Pls
3738 2999 Pls
3878 3170 Pls
3183 3178 Pls
3767 3380 Pls
3737 3112 Pls
3264 3143 Pls
3768 3225 Pls
4104 3130 Pls
3639 3031 Pls
3337 2983 Pls
3502 3157 Pls
3917 3463 Pls
3919 3367 Pls
3919 3271 Pls
3767 3281 Pls
4047 3296 Pls
4103 3366 Pls
4102 3122 Pls
3529 3467 Pls
3767 3288 Pls
3825 3279 Pls
3919 3370 Pls
3768 3260 Pls
3614 3258 Pls
4047 3287 Pls
3265 2962 Pls
3529 3270 Pls
3834 3392 Pls
3767 3264 Pls
3738 3172 Pls
3640 3364 Pls
3334 3309 Pls
3529 2939 Pls
3637 3143 Pls
4047 3328 Pls
3311 2926 Pls
3431 3375 Pls
3449 3302 Pls
3640 3156 Pls
3065 2993 Pls
3768 3069 Pls
4104 3318 Pls
3430 3030 Pls
3737 3138 Pls
3738 3150 Pls
4342 3419 Pls
4046 3291 Pls
3431 3260 Pls
3919 3123 Pls
3768 3183 Pls
3640 3044 Pls
4047 3263 Pls
4104 3158 Pls
3640 3108 Pls
4255 3274 Pls
3614 3439 Pls
3765 3233 Pls
3640 3165 Pls
3904 3432 Pls
3918 3335 Pls
3919 3375 Pls
4104 3293 Pls
3639 3263 Pls
3919 3250 Pls
3735 3402 Pls
4104 3419 Pls
3616 3344 Pls
2940 2776 Pls
3768 3180 Pls
3527 3213 Pls
3919 3399 Pls
3639 3160 Pls
3511 3117 Pls
3344 3207 Pls
3617 3286 Pls
3265 2865 Pls
3918 3359 Pls
3432 3282 Pls
3919 3310 Pls
3431 3057 Pls
3768 3393 Pls
3767 3184 Pls
3529 3088 Pls
4104 3283 Pls
3431 3260 Pls
3343 3140 Pls
3414 2948 Pls
3919 3143 Pls
3879 2940 Pls
3168 3118 Pls
3768 3201 Pls
3640 3081 Pls
3581 3061 Pls
3431 2996 Pls
4104 3259 Pls
3448 2858 Pls
3330 3186 Pls
2939 2925 Pls
3710 3279 Pls
3449 3270 Pls
3878 3416 Pls
3430 3122 Pls
3582 3172 Pls
3767 3384 Pls
3639 2964 Pls
3344 3226 Pls
3482 3186 Pls
3768 3506 Pls
3528 3271 Pls
3768 3171 Pls
4104 3323 Pls
3878 3452 Pls
3400 3317 Pls
3832 3418 Pls
3738 3483 Pls
3696 3258 Pls
4047 3382 Pls
4047 3257 Pls
4103 3403 Pls
3601 3074 Pls
3918 3111 Pls
3919 3198 Pls
3237 3176 Pls
3767 3252 Pls
3115 3071 Pls
3430 3025 Pls
3529 3078 Pls
3640 3288 Pls
3976 3470 Pls
3264 3120 Pls
3710 3334 Pls
3510 3126 Pls
3736 3413 Pls
3069 3046 Pls
3766 3325 Pls
4101 3151 Pls
3640 3436 Pls
3432 3163 Pls
3481 3054 Pls
3736 3109 Pls
3919 3286 Pls
3582 3286 Pls
3431 2893 Pls
3529 3224 Pls
3635 3110 Pls
3331 3130 Pls
3768 3228 Pls
3264 3011 Pls
3738 3069 Pls
3976 3456 Pls
4249 3476 Pls
3415 3205 Pls
3640 3372 Pls
3529 3358 Pls
4104 3172 Pls
3640 3146 Pls
3919 3228 Pls
3919 3392 Pls
3879 3294 Pls
3918 3346 Pls
3616 3190 Pls
3640 3107 Pls
3062 3125 Pls
3919 3325 Pls
3344 3060 Pls
3768 3329 Pls
3640 3193 Pls
3640 3211 Pls
3919 3432 Pls
3737 3079 Pls
3343 2979 Pls
3344 2970 Pls
3878 3392 Pls
3030 2949 Pls
3528 3262 Pls
3919 3408 Pls
3529 3262 Pls
3919 2979 Pls
3543 3245 Pls
3617 3181 Pls
4047 3175 Pls
2978 3058 Pls
3480 3082 Pls
3411 3098 Pls
3640 2977 Pls
3768 3312 Pls
4341 3352 Pls
3834 3434 Pls
3710 3253 Pls
3272 3167 Pls
3639 3305 Pls
3265 3085 Pls
3529 3091 Pls
3878 3100 Pls
3919 2992 Pls
3616 3061 Pls
3919 3248 Pls
3344 3065 Pls
3768 3052 Pls
3529 3262 Pls
3919 3144 Pls
3737 3278 Pls
3919 3160 Pls
3259 3026 Pls
3125 3206 Pls
3640 2990 Pls
3640 3218 Pls
3919 3386 Pls
3878 3304 Pls
3640 3173 Pls
3639 3277 Pls
3529 3010 Pls
4063 3362 Pls
3696 3306 Pls
3510 3252 Pls
3919 3474 Pls
4255 3261 Pls
3726 3056 Pls
3037 3145 Pls
3640 3336 Pls
3768 3154 Pls
3265 2973 Pls
3768 3328 Pls
3102 2798 Pls
3919 3448 Pls
3919 3132 Pls
3431 3395 Pls
3616 3015 Pls
3511 3123 Pls
3331 3238 Pls
3502 3346 Pls
3450 2781 Pls
3879 3001 Pls
3768 2955 Pls
3383 3010 Pls
3919 3393 Pls
3510 3286 Pls
3637 3069 Pls
3343 3318 Pls
3640 3335 Pls
3430 3115 Pls
4341 3282 Pls
3265 3185 Pls
3640 3240 Pls
3768 3162 Pls
3640 3306 Pls
3768 3508 Pls
3529 3285 Pls
3503 3245 Pls
3529 3318 Pls
3432 3003 Pls
3640 3234 Pls
3767 3249 Pls
3738 3224 Pls
3343 3147 Pls
3431 3061 Pls
3272 3095 Pls
3342 3350 Pls
3738 2854 Pls
4047 3431 Pls
3639 3171 Pls
3767 3279 Pls
3640 3070 Pls
3312 3133 Pls
4103 3372 Pls
3737 3247 Pls
3616 2941 Pls
3303 3339 Pls
3393 3146 Pls
3344 3255 Pls
3529 3299 Pls
3521 3383 Pls
3423 2967 Pls
4104 3204 Pls
3510 3345 Pls
4343 3364 Pls
3431 3261 Pls
3919 3212 Pls
2954 2928 Pls
3344 3089 Pls
3640 3005 Pls
3006 3227 Pls
3230 2909 Pls
3397 3219 Pls
3529 2813 Pls
3918 3275 Pls
3767 3022 Pls
3344 3093 Pls
3528 3305 Pls
3653 3256 Pls
3878 3488 Pls
3529 3128 Pls
4343 3294 Pls
3638 3135 Pls
3431 3260 Pls
3450 3133 Pls
3768 3120 Pls
3528 3254 Pls
3737 3342 Pls
3640 3131 Pls
3919 3118 Pls
3876 3370 Pls
3343 2986 Pls
3343 3072 Pls
3640 3200 Pls
3583 3126 Pls
3639 3411 Pls
4142 3132 Pls
3529 3099 Pls
2750 2908 Pls
3868 3155 Pls
4343 3444 Pls
3919 3315 Pls
3554 3277 Pls
4104 3339 Pls
3528 2811 Pls
3825 3057 Pls
3752 3076 Pls
3919 3226 Pls
3649 3156 Pls
3461 3079 Pls
3504 3172 Pls
3416 3250 Pls
4046 3111 Pls
3262 3094 Pls
3768 3426 Pls
3738 3426 Pls
3102 3136 Pls
3529 2810 Pls
3529 3098 Pls
3576 2779 Pls
3919 3080 Pls
3616 3227 Pls
3507 3230 Pls
3768 3156 Pls
3254 3077 Pls
3215 3002 Pls
3878 3087 Pls
3919 3217 Pls
3878 3354 Pls
3917 3201 Pls
3640 3355 Pls
4104 3223 Pls
3525 3064 Pls
3481 2775 Pls
3583 3171 Pls
3305 3254 Pls
3736 3128 Pls
2892 2787 Pls
3501 3417 Pls
3640 3186 Pls
4383 3323 Pls
3768 3141 Pls
3878 3133 Pls
3825 3219 Pls
3879 3312 Pls
3768 3267 Pls
3431 2974 Pls
3767 3147 Pls
3640 3073 Pls
3768 3247 Pls
3432 3102 Pls
4061 3287 Pls
4104 3327 Pls
3919 3030 Pls
3878 3512 Pls
3640 3123 Pls
4103 3254 Pls
3919 3369 Pls
3344 3238 Pls
3766 3437 Pls
3919 3282 Pls
3894 3433 Pls
3695 3213 Pls
3193 3070 Pls
3738 3337 Pls
3330 3148 Pls
4255 3341 Pls
3616 2815 Pls
3216 3040 Pls
3341 2970 Pls
4158 3421 Pls
3919 3298 Pls
3635 3364 Pls
3529 3337 Pls
3265 3095 Pls
3528 3095 Pls
3824 3114 Pls
2897 3002 Pls
3738 3111 Pls
3126 3130 Pls
3308 3022 Pls
3529 3252 Pls
3326 3130 Pls
3640 3054 Pls
3431 3110 Pls
3340 2900 Pls
3919 3456 Pls
2931 2924 Pls
3431 3331 Pls
3768 3389 Pls
3462 3186 Pls
3765 3334 Pls
3640 3237 Pls
4104 3516 Pls
3640 3313 Pls
3250 3069 Pls
4527 3434 Pls
3192 3164 Pls
3918 3153 Pls
3529 3223 Pls
3216 3065 Pls
3415 3374 Pls
4103 3459 Pls
3737 2873 Pls
3343 3104 Pls
3089 3120 Pls
3583 3172 Pls
3648 3440 Pls
4104 3332 Pls
3551 3246 Pls
3253 3093 Pls
3833 3262 Pls
3648 3382 Pls
3919 3225 Pls
3767 3367 Pls
4104 3323 Pls
3768 3153 Pls
4342 3451 Pls
3640 3295 Pls
3767 3084 Pls
3616 3469 Pls
3798 3168 Pls
3582 3350 Pls
3215 2792 Pls
3768 3284 Pls
3639 3044 Pls
3510 3060 Pls
4046 3454 Pls
3329 3079 Pls
3919 3130 Pls
3462 3242 Pls
3511 3195 Pls
4103 3220 Pls
3768 3209 Pls
3919 2964 Pls
3639 3415 Pls
4102 3176 Pls
3393 3207 Pls
3510 2963 Pls
3768 3294 Pls
3919 3356 Pls
3192 3135 Pls
3878 3302 Pls
3432 3300 Pls
2867 2970 Pls
3825 3074 Pls
3529 3246 Pls
3430 3204 Pls
3595 3111 Pls
3265 2882 Pls
4255 3452 Pls
3767 3224 Pls
3640 3108 Pls
2886 3066 Pls
3288 3096 Pls
4104 3427 Pls
3432 3254 Pls
3008 3139 Pls
4047 3208 Pls
3125 3205 Pls
3616 3253 Pls
3825 3363 Pls
3343 3112 Pls
3431 3122 Pls
3919 3300 Pls
3695 3261 Pls
3767 3305 Pls
3431 3071 Pls
3919 3425 Pls
3919 3230 Pls
3431 3198 Pls
3768 3120 Pls
3265 3030 Pls
4157 3462 Pls
4104 3468 Pls
4104 3402 Pls
3344 3090 Pls
3432 3054 Pls
3344 2792 Pls
3427 3204 Pls
4383 3372 Pls
3340 3189 Pls
4254 3278 Pls
4383 3456 Pls
3617 3088 Pls
3768 3453 Pls
3215 3153 Pls
2904 3004 Pls
3904 3475 Pls
3768 3226 Pls
3344 2966 Pls
3415 3199 Pls
3356 3079 Pls
3343 3305 Pls
3878 3305 Pls
3879 3460 Pls
3114 2959 Pls
4046 3094 Pls
2956 2951 Pls
2984 2995 Pls
3528 3280 Pls
3821 3401 Pls
3975 3272 Pls
3878 3211 Pls
3480 3309 Pls
3640 3252 Pls
3380 3158 Pls
3529 3163 Pls
3616 3260 Pls
2170 2687 Pls
3737 3027 Pls
3480 3081 Pls
3738 3191 Pls
3737 3278 Pls
3878 3205 Pls
3583 3056 Pls
3431 3228 Pls
3261 3200 Pls
3344 2997 Pls
3526 3337 Pls
3918 3261 Pls
3768 3042 Pls
3529 3265 Pls
3431 3271 Pls
3768 3102 Pls
4255 3274 Pls
3768 3243 Pls
3118 3048 Pls
3919 3109 Pls
4254 3250 Pls
3580 3258 Pls
3190 3357 Pls
3640 3339 Pls
3344 3297 Pls
4046 3187 Pls
3529 3153 Pls
3344 3336 Pls
3510 3285 Pls
3766 3365 Pls
3614 3257 Pls
3058 3074 Pls
3825 3245 Pls
3737 3162 Pls
3638 3286 Pls
3529 3346 Pls
3616 3171 Pls
3640 3356 Pls
3431 3324 Pls
3919 3395 Pls
3511 3021 Pls
3919 3253 Pls
4343 3454 Pls
3768 3205 Pls
3919 3383 Pls
3733 3081 Pls
3640 3283 Pls
3504 3039 Pls
3168 2857 Pls
4343 3370 Pls
4104 3284 Pls
3768 3345 Pls
3737 3159 Pls
3193 3087 Pls
3767 3137 Pls
3422 3240 Pls
3878 3295 Pls
3768 3308 Pls
3190 2884 Pls
4047 3402 Pls
3529 3301 Pls
3529 2983 Pls
3510 3023 Pls
3915 3299 Pls
3344 3209 Pls
3640 2993 Pls
3878 3052 Pls
3710 3121 Pls
3414 3044 Pls
3529 3199 Pls
3504 3049 Pls
3529 2964 Pls
3640 3384 Pls
3695 2813 Pls
3237 2929 Pls
4343 3399 Pls
3752 3188 Pls
3919 3402 Pls
3825 3164 Pls
3919 3401 Pls
4343 3448 Pls
3582 3301 Pls
3529 3216 Pls
3343 3001 Pls
3364 3255 Pls
3342 3017 Pls
4047 3330 Pls
3877 3308 Pls
3261 3252 Pls
3147 3360 Pls
3878 3355 Pls
3878 3250 Pls
4104 3301 Pls
3831 3317 Pls
4063 3396 Pls
3878 3103 Pls
3768 3178 Pls
3705 3320 Pls
3767 3118 Pls
3431 2874 Pls
2856 3153 Pls
4104 3186 Pls
4156 3289 Pls
3582 3251 Pls
3976 3440 Pls
3639 3051 Pls
4343 3421 Pls
3737 3382 Pls
3253 2971 Pls
3529 3364 Pls
3193 3101 Pls
3735 3364 Pls
3529 3039 Pls
3919 3356 Pls
3640 3231 Pls
3528 3266 Pls
3639 3464 Pls
3254 3110 Pls
4255 3446 Pls
3341 3198 Pls
3430 3139 Pls
3127 3077 Pls
3768 3142 Pls
4103 3227 Pls
3450 3110 Pls
3767 3298 Pls
3768 3196 Pls
3213 3231 Pls
3617 3104 Pls
3767 3244 Pls
3737 3133 Pls
3529 3135 Pls
3189 2905 Pls
3896 3130 Pls
3529 3102 Pls
3503 2752 Pls
4343 3401 Pls
3768 3243 Pls
3510 3079 Pls
3430 3210 Pls
3365 2997 Pls
3258 3219 Pls
3381 3215 Pls
3462 3232 Pls
3526 3204 Pls
4255 3224 Pls
3737 3367 Pls
3431 3237 Pls
3700 3316 Pls
3529 3158 Pls
3768 3269 Pls
3529 3030 Pls
3875 3213 Pls
3640 3363 Pls
3878 3421 Pls
4043 3291 Pls
3582 3253 Pls
3529 3291 Pls
3695 3047 Pls
3975 3274 Pls
3416 3222 Pls
3824 3469 Pls
3878 3270 Pls
4047 3330 Pls
3767 3106 Pls
3431 3257 Pls
3216 3064 Pls
3640 3340 Pls
3640 3453 Pls
3919 3258 Pls
3904 3302 Pls
3529 3216 Pls
3690 3270 Pls
3428 2971 Pls
3237 3295 Pls
3710 3126 Pls
3190 3057 Pls
3415 2974 Pls
4046 3377 Pls
3695 2873 Pls
3616 2999 Pls
4343 3497 Pls
3507 3262 Pls
4103 3279 Pls
3183 2995 Pls
3918 3450 Pls
3414 3251 Pls
3526 3108 Pls
3640 3255 Pls
3617 3063 Pls
4157 3335 Pls
3919 3218 Pls
2856 3055 Pls
4342 3325 Pls
4104 3476 Pls
2953 2962 Pls
4255 3297 Pls
3344 3242 Pls
4047 3294 Pls
3639 3232 Pls
3183 3096 Pls
3877 3140 Pls
3264 3195 Pls
3344 3146 Pls
3767 3287 Pls
3767 3206 Pls
3919 3364 Pls
3216 3131 Pls
3768 3175 Pls
3976 3373 Pls
3976 3163 Pls
3311 2997 Pls
3878 3171 Pls
3430 3074 Pls
3918 3182 Pls
3430 3271 Pls
3006 3080 Pls
3737 3164 Pls
3215 3034 Pls
3431 2890 Pls
3919 3128 Pls
3617 3179 Pls
3265 3280 Pls
3529 3272 Pls
3904 3379 Pls
3695 3421 Pls
3738 3390 Pls
3637 3056 Pls
3344 3310 Pls
3431 3072 Pls
3640 3163 Pls
3918 3084 Pls
4103 3380 Pls
3878 3255 Pls
3529 3270 Pls
3529 3157 Pls
3529 3315 Pls
3825 3220 Pls
3256 3315 Pls
2963 3054 Pls
3529 3169 Pls
3331 3314 Pls
3414 3096 Pls
3529 3215 Pls
3528 3347 Pls
% End plot #1
% Begin plot #2
0.500 UP
0.500 UL
LTb
0.73 0.85 0.33 C 4679 3311 Crs
4104 3093 Crs
4678 3475 Crs
4679 3437 Crs
4527 3352 Crs
4343 3273 Crs
4104 3067 Crs
4383 3295 Crs
4104 3050 Crs
4383 3045 Crs
4527 3261 Crs
4676 3486 Crs
4255 3059 Crs
4343 3121 Crs
4679 3454 Crs
4104 3009 Crs
4528 3332 Crs
4157 3069 Crs
4255 3146 Crs
4255 3168 Crs
4104 3079 Crs
4343 3270 Crs
4338 3110 Crs
4679 3404 Crs
4339 3081 Crs
4526 3205 Crs
4104 3038 Crs
4679 3372 Crs
4343 3225 Crs
4679 3439 Crs
4104 3032 Crs
4343 3139 Crs
4047 2938 Crs
4255 3114 Crs
4679 3526 Crs
4343 3190 Crs
4383 3250 Crs
4528 3207 Crs
4490 3254 Crs
4679 3270 Crs
4064 2884 Crs
4255 3180 Crs
4383 3285 Crs
4383 3303 Crs
4255 3109 Crs
4104 2969 Crs
4255 3081 Crs
4343 3271 Crs
4100 3009 Crs
4527 3265 Crs
4679 3278 Crs
4104 3027 Crs
4343 3259 Crs
4527 3404 Crs
4678 3316 Crs
4679 3522 Crs
4343 3045 Crs
4679 3179 Crs
4343 3258 Crs
4046 3022 Crs
4679 3307 Crs
4255 3168 Crs
3973 2896 Crs
4343 3179 Crs
4047 2930 Crs
4343 3130 Crs
4678 3363 Crs
4343 3104 Crs
4157 2924 Crs
4679 3242 Crs
4679 3345 Crs
4679 3268 Crs
4679 3478 Crs
4382 3029 Crs
4046 3010 Crs
4255 3182 Crs
4104 3062 Crs
4137 3028 Crs
4342 3184 Crs
4104 3067 Crs
4255 2960 Crs
4679 3270 Crs
4679 3522 Crs
4383 3183 Crs
4679 3371 Crs
4679 3481 Crs
4255 3210 Crs
4679 3354 Crs
3976 2912 Crs
4383 3295 Crs
4341 3171 Crs
4678 3400 Crs
4679 3367 Crs
4343 3268 Crs
4104 2981 Crs
4255 3191 Crs
4679 3393 Crs
4528 3294 Crs
4340 3154 Crs
4104 3029 Crs
4382 2962 Crs
4155 2989 Crs
4678 3284 Crs
4527 3157 Crs
3976 2891 Crs
4679 3230 Crs
4342 3111 Crs
4343 3238 Crs
4342 3215 Crs
4104 3053 Crs
4679 3324 Crs
4255 3180 Crs
4679 3181 Crs
4527 3317 Crs
4343 3251 Crs
4678 3242 Crs
4678 3448 Crs
4343 3261 Crs
4527 3231 Crs
4104 3014 Crs
4383 3263 Crs
4255 3173 Crs
4255 3167 Crs
4679 3501 Crs
4342 3155 Crs
4104 3066 Crs
3976 2927 Crs
4679 3464 Crs
4046 3039 Crs
4342 3184 Crs
4255 2965 Crs
4255 3197 Crs
4679 3435 Crs
4679 3454 Crs
4343 3270 Crs
4158 3050 Crs
4343 3156 Crs
4526 3324 Crs
4679 3314 Crs
4526 3272 Crs
4679 3384 Crs
4255 3149 Crs
4527 3045 Crs
4047 3026 Crs
4383 3200 Crs
4383 3127 Crs
4343 3191 Crs
4104 3008 Crs
4254 3182 Crs
4211 3160 Crs
4343 3273 Crs
4343 3045 Crs
4046 3045 Crs
4046 3023 Crs
% End plot #2
% Begin plot #3
1.000 UL
LTb
LT1
0.75 0.75 0.75 C 2170 1632 M
25 19 V
26 19 V
25 19 V
25 19 V
26 20 V
25 19 V
25 19 V
26 19 V
25 19 V
25 20 V
26 19 V
25 19 V
25 19 V
26 19 V
25 19 V
25 20 V
26 19 V
25 19 V
25 19 V
26 19 V
25 20 V
26 19 V
25 19 V
25 19 V
26 19 V
25 19 V
25 20 V
26 19 V
25 19 V
25 19 V
26 19 V
25 20 V
25 19 V
26 19 V
25 19 V
25 19 V
26 20 V
25 19 V
25 19 V
26 19 V
25 19 V
25 19 V
26 20 V
25 19 V
25 19 V
26 19 V
25 19 V
25 20 V
26 19 V
25 19 V
25 19 V
26 19 V
25 19 V
26 20 V
25 19 V
25 19 V
26 19 V
25 19 V
25 20 V
26 19 V
25 19 V
25 19 V
26 19 V
25 20 V
25 19 V
26 19 V
25 19 V
25 19 V
26 19 V
25 20 V
25 19 V
26 19 V
25 19 V
25 19 V
26 20 V
25 19 V
25 19 V
26 19 V
25 19 V
25 19 V
26 20 V
25 19 V
25 19 V
26 19 V
25 19 V
26 20 V
25 19 V
25 19 V
26 19 V
25 19 V
25 20 V
26 19 V
25 19 V
25 19 V
26 19 V
25 19 V
25 20 V
26 19 V
25 19 V
% End plot #3
stroke
2.000 UL
LTb
LCb setrgbcolor
1.000 UL
LTb
LCb setrgbcolor
860 3531 N
860 640 L
3819 0 V
0 2891 V
-3819 0 V
Z stroke
0.500 UP
1.000 UL
LTb
LCb setrgbcolor
stroke
grestore
end
showpage
%%Trailer
%%DocumentFonts: Helvetica
